LocalSolver 4.0 (MacOS64, build 20131224)
Copyright (C) 2013 Bouygues SA, Aix-Marseille University, CNRS.
All rights reserved (see Terms and Conditions for details).

Load localsolver_res/tawd_ls.lsp...
Run input...
ANNs For the Platform:
4,2,1,6.45294,0.0174524,1.58234,2.29305,2.12057,3.95113,12.7206,-19.3278,5.58789,9.38298,0.00306445,0.00353919,0.795949
4,2,1,3.10684,7.56359,0.502116,0.637049,12.0356,-2.9013,-3.22211,-0.368567,-0.562298,-7.37831,2.38595,1.22203,-0.360292
4,2,1,4.88387,44.8399,1.27345,1.24496,49.1775,-8.83277,-3.12983,-1.00946,11.7,-3.01002,0.132635,0.00372271,0.673996
4,2,1,4.73045,19.3982,0.449241,0.753865,25.7092,17.3605,0.0558085,-8.91516,0.49993,10.3396,4.06312,-0.0136297,-3.24599
4,2,1,-7.16849,-10.0957,-0.518885,-0.00359459,5.93351,5.62684,52.0516,1.48603,1.30274,57.2311,0.250578,0.137157,0.417379
4,2,1,0.412706,-2.89716,0.137754,-2.57826,11.0947,121.374,858.444,-136.26,-14917.8,-1308.92,-3.36558,-0.000403784,4.17997
4,2,1,-8.8269,-0.482244,-0.0820712,-0.0562713,-10.1617,9.78118,-7.01882,-0.428151,-0.0606718,2.56012,-8.54699,-0.509991,-7.23704
4,2,1,2.19881,4.94147,0.541452,0.107587,6.45213,1.0452,0.405805,0.555763,3.64728,1.95727,0.425683,-0.00188273,0.383643
4,2,1,-6.13316,1.92598,-0.0562274,-0.0731719,-4.60606,0.509071,7.79918,0.393802,0.0114563,7.9345,-1.13416,0.310582,-0.637365
4,2,1,1.73462,2.97854,0.276167,0.0859465,3.6912,3.09203,3.25403,0.324282,0.112495,4.06123,0.954718,-0.48836,0.344765
4,2,1,1.57339,3.84603,-3.4467,0.7429,2.75709,2.1802,5.09535,0.482172,0.106131,6.49189,-0.0251827,0.433535,0.393482
4,2,1,4.13514,21.6229,1.1931,0.354612,24.1372,25.5916,0.432728,-12.6725,-0.45345,15.3428,0.194819,-0.0364695,0.647465
4,2,1,-0.728632,5.60079,1.78098,1.8429,-5.74354,-3.26566,-13.0026,-0.907163,-0.31822,-15.3707,-0.427666,-0.224298,0.154329
4,2,1,3.81854,-4.98219,-0.293924,-0.103604,-6.7034,2.28654,4.72568,0.469524,0.115005,6.05901,-0.511241,0.421809,-0.121549
4,2,1,-1.23773,5.98591,0.224555,-0.359337,6.05767,2.3852,3.4706,0.220977,0.179377,4.88772,0.199751,0.432231,0.177791
4,2,1,1.12189,4.09326,0.850801,0.171671,-5.17646,-1.9656,-4.07995,-0.210811,-0.113853,-5.17242,-2.70452,-0.46094,-2.36326
4,2,1,2.08858,4.80174,0.367584,0.109336,6.02292,4.32969,4.35157,0.772172,10.015,-0.96022,0.43933,4.17055e-05,0.365228
4,2,1,1.18806,3.00188,0.124753,0.00191203,3.75084,1.03049,2.7808,0.137818,0.0250058,4.01619,-1.05018,2.49176,-0.635083
4,2,1,3.11788,10.9247,0.699295,0.170953,13.0959,-11.4646,-5.88946,11.0137,8.74787,-11.701,0.236706,0.0216102,0.59131
4,2,1,7.53568,1.94998,-2.27776,-1.91765,0.451708,2.13206,4.27547,0.333162,0.0864645,5.45063,-0.0153486,0.447774,0.366202
4,2,1,-2.12436,-3.29848,-0.0965154,-0.0454545,-3.86293,4.27042,3.64797,0.106703,0.057602,4.81479,-1.28015,-0.815344,0.346524
4,2,1,2.06313,3.99765,-9.94001e-06,0.200591,5.05136,-0.024567,-3.22765,-1.84842,1.73493,-3.87425,0.446216,-0.0350173,0.320411
4,2,1,3.3952,3.19239,0.219932,0.0459907,4.0724,1.85184,2.9352,0.236295,0.0535068,3.62882,-0.516849,0.990723,0.337742
4,2,1,-6.32145,2.68844,0.160066,0.0633176,-3.81442,9.03888,1.31396,0.253255,-0.0684612,6.93971,1.83579,0.440423,2.20116
4,2,1,-4.54148,-0.217309,1.86369,-0.409034,0.0885675,-3.10698,-12.3715,-0.753639,-0.275832,-14.544,0.00344558,-0.233405,0.57337
4,2,1,-0.743367,6.86662,-0.19496,-0.0184317,7.54898,2.69258,3.24789,0.437511,0.121848,4.97423,0.830361,0.39615,-0.417087
4,2,1,2.07654,3.2533,0.103762,0.0837251,4.40922,1.95615,-2.57949,-0.10147,-0.0485499,-3.72005,0.479113,-0.433879,-0.0966803
4,2,1,-0.480501,-0.00331725,1.67452,0.764966,-1.53387,1.99113,3.67475,0.0228188,0.0287235,4.64739,0.15721,0.465135,0.487915
4,2,1,1.11584,-5.79333,-0.212675,0.376981,-6.64888,2.45003,3.54368,0.313683,0.144659,5.05472,-0.777178,0.423599,-0.389995
4,2,1,2.39093,1.70258,-0.183288,-0.314006,4.06496,2.34881,2.91375,-0.0230153,-0.18977,5.26307,-1.33645,1.84807,0.292237
4,2,1,0.88022,3.23795,0.179315,0.0205209,3.57684,0.764441,2.74982,0.156077,0.0273373,3.62313,-0.980719,2.16912,-0.37872
4,2,1,-1.27932,7.09751,-0.0490235,0.455487,7.14709,-2.57722,-4.06233,-0.410784,-0.0433739,-5.6171,0.164894,-0.408714,0.23583
4,2,1,0.623158,5.01876,0.194867,0.0365944,4.99458,-16.0815,2.94826,-1.82463,-1.90388,-9.56395,0.291148,-0.155001,0.360694
4,2,1,1.86251,3.92056,0.158781,0.0575693,4.93436,0.681285,4.09563,1.09826,-3.65606,2.09524,0.482473,-0.00448292,0.322397
4,2,1,3.33939,3.52877,0.262622,0.0607689,4.45842,2.23218,3.37107,0.256541,0.0516206,4.05014,-1.2701,1.7162,0.365737
4,2,1,5.0585,4.68315,2.53887,0.128578,8.9709,3.62833,11.0789,1.32555,0.190392,13.8026,-0.126366,0.350541,0.580103
4,2,1,4.99986,2.75557,1.33036,-0.0119951,6.91685,4.23025,5.34568,1.08928,0.0379928,8.80363,-0.700785,0.958812,0.547325
4,2,1,1.95024,3.24732,0.229322,0.0270089,3.53624,1.62575,3.04977,0.230194,0.0319079,3.46966,-1.34015,1.81817,0.333213
4,2,1,2.11055,5.16581,0.225183,0.0767342,6.2013,3.43647,-3.10756,1.22453,-6.27082,5.92438,0.428242,2.12665,-1.75474
4,2,1,10.028,2.55152,-0.0579427,-0.0186516,-2.98054,2.14055,4.33639,0.203596,0.057269,5.47668,0.0078111,0.436528,0.371941
4,2,1,1.80421,3.45533,0.27065,0.0337725,4.14172,3.00203,3.65885,0.26995,0.0620062,4.37924,0.892686,-0.440136,0.355377
4,2,1,-2.76424,-10.7675,-0.741451,-0.141046,-12.927,13.6995,2.51611,0.90934,27.76,15.1973,-0.260938,-0.00175312,0.546274
4,2,1,2.26659,3.88332,0.083697,0.287373,-5.89957,3.07548,7.5942,0.285535,0.141703,9.90558,1.94369,0.273352,2.47758
4,2,1,5.41472,-1.35343,-0.0808605,2.27411,0.928252,2.55844,6.15687,0.338903,0.0735359,7.47381,-0.0148119,0.388691,0.423615
4,2,1,4.53285,3.66527,0.130055,0.0722232,4.95325,-2.1632,-3.34312,-0.11633,-0.0577237,-3.98867,-0.759785,-1.19124,0.379449
4,2,1,2.36669,5.75119,0.132783,0.0812059,6.8845,-8.68015,-0.488627,0.811521,2.16444,0.277436,0.40839,0.00790296,0.400784
4,2,1,0.583762,8.58805,0.307497,0.0165495,8.61973,-7.32584,1.34397,-0.0108636,-0.0260377,-6.96836,0.266022,-5.2323,-4.69173
4,2,1,1.76683,-0.336959,-0.116305,-0.0696435,-1.62311,2.51027,5.65249,0.180271,0.0657051,7.97995,-0.0500539,0.457869,0.308072
Workload Information:
2.31175, 1.37184, 2.41307, 1.15856, 2.55313, 2.19165, 0.5, 2.05517, 3.42353, 1.13168, 3.54969, 1.33993, 1.38119, 1.80837, 2.22453, 1.94199, 2.32894, 2.31499, 5.66648, 1.00765, 1.21117, 1.05672, 2.10252, 0.95547, 1.94385, 2.11562, 2.18495, 1.80059, 1.8675, 2.08748, 1.50826, 2.28223, 2.24843, 1.95065, 2.29962, 1.71081, 1.39133, 2.40643, 1.56112, 3.93425, 1.94092, 0.765954, 2.26656, 2.41805, 1.14064, 2.80729, 0.637047, 2.73042, 0.5, 1.01747, 1.46873, 4.28933, 1.44271, 3.28176, 1.70157, 2.99433, 1.29136, 2.50182, 2.3104, 1.20053, 1.23122, 0.94158, 2.64441, 1.56812, 2.79262, 2.82205, 2.68847, 3.88963, 0.528426, 0.5, 2.67765, 1.71583, 1.50665, 1.0182, 2.14749, 0.69034, 4.73465, 1.90268, 27.8168, 24.5849, 16.1837, 26.6125, 28.465, 8.33716, 5.20659, 1.79859, 2.0805, 1.42983, 0.984496, 0.5, 25.268, 25.1444, 28.0103, 2.22117, 21.4769, 29.8793, 0.5, 2.71198, 0.828365, 5.77501, 1.49987, 0.684779, 4.29593, 0.734192, 0.5, 2.12582, 2.813, 1.53105, 1.62897, 1.59212, 0.5, 2.87519, 2.67654, 2.72718, 3.48676, 0.686478, 2.86237, 1.11078, 2.96502, 0.888589, 16.0031, 12.0803, 12.8691, 16.1099, 1.02919, 1.90833, 2.26664, 2.86654, 2.71529, 1.67449, 1.36935, 1.10768, 1.71171, 2.73867, 2.08461, 1.72223, 0.511567, 3.23122, 3.48898, 1.16604, 1.59072, 2.599, 1.15039, 2.00487, 2.29037, 1.93603, 1.96634, 2.30668, 1.73657, 1.764, 32.1386, 35, 22.9026, 10.896, 21.0504, 10.0124, 1.26063, 1.50439, 2.2186, 2.35501, 2.37931, 2.28206, 14.5346, 23.3653, 19.403, 35, 21.0195, 18.6777, 1.14664, 1.81459, 3.26657, 3.00232, 2.26988, 0.5, 0.5, 1.29796, 4.19167, 4.18936, 1.19392, 0.627082, 0.841766, 0.999302, 2.75769, 3.06947, 1.53763, 2.79414, 2.09886, 1.64964, 2.39161, 1.81778, 1.9182, 2.12391, 1.04834, 2.43666, 3.46899, 0.5, 2.94619, 1.59981, 2.01754, 0.656968, 3.0162, 0.5, 2.75959, 3.04969, 1.4863, 1.92086, 2.31153, 2.25781, 2.1757, 1.8478, 1.38641, 1.86047, 2.31637, 1.66141, 1.62141, 3.15393, 1.82077, 1.01626, 1.23258, 2.46283, 4.96755, 0.5, 1.92074, 2.16435, 1.85718, 1.89323, 2.11135, 2.05315, 2.3115, 2.71584, 0.573049, 0.725278, 2.82377, 2.85057, 1.61887, 2.13144, 1.06486, 3.33895, 2.63645, 1.20944, 3.72788, 0.5, 0.635625, 4.09722, 2.28162, 0.757648, 0.68112, 2.6904, 1.82425, 3.45178, 0.5, 2.85245, 2.27088, 2.14295, 2.15572, 0.983623, 2.21281, 2.23402, 0.858203, 2.83838, 2.70271, 2.22476, 0.5, 2.87595, 1.23563, 1.58872, 4.78335, 1.02245, 1.32514, 2.04471, 2.11163, 2.38943, 1.49928, 2.13232, 2.33861, 1.52873, 2.19361, 2.08643, 2.16504, 1.98199, 1.72196, 1.85098, 2.15173, 1.92528, 2.24461, 1.82093, 2.18771, 1.66974
cpi min/max: 0.5/35
neighbors of 0: 1 6, number of others: 45
neighbors of 1: 0 2 6 7, number of others: 43
neighbors of 2: 1 3 7 8, number of others: 43
neighbors of 3: 2 4 8 9, number of others: 43
neighbors of 4: 3 5 9 10, number of others: 43
neighbors of 5: 4 10 11, number of others: 44
neighbors of 6: 0 1 7 12, number of others: 43
neighbors of 7: 1 2 6 8 12 13, number of others: 41
neighbors of 8: 2 3 7 9 13 14, number of others: 41
neighbors of 9: 3 4 8 10 14 15, number of others: 41
neighbors of 10: 4 5 9 11 15 16, number of others: 41
neighbors of 11: 5 10 16 17, number of others: 43
neighbors of 12: 6 7 13 18, number of others: 43
neighbors of 13: 7 8 12 14 18 19, number of others: 41
neighbors of 14: 8 9 13 15 19 20, number of others: 41
neighbors of 15: 9 10 14 16 20 21, number of others: 41
neighbors of 16: 10 11 15 17 21 22, number of others: 41
neighbors of 17: 11 16 22 23, number of others: 43
neighbors of 18: 12 13 19 24, number of others: 43
neighbors of 19: 13 14 18 20 24 25, number of others: 41
neighbors of 20: 14 15 19 21 25 26, number of others: 41
neighbors of 21: 15 16 20 22 26 27, number of others: 41
neighbors of 22: 16 17 21 23 27 28, number of others: 41
neighbors of 23: 17 22 28 29, number of others: 43
neighbors of 24: 18 19 25 30, number of others: 43
neighbors of 25: 19 20 24 26 30 31, number of others: 41
neighbors of 26: 20 21 25 27 31 32, number of others: 41
neighbors of 27: 21 22 26 28 32 33, number of others: 41
neighbors of 28: 22 23 27 29 33 34, number of others: 41
neighbors of 29: 23 28 34 35, number of others: 43
neighbors of 30: 24 25 31 36, number of others: 43
neighbors of 31: 25 26 30 32 36 37, number of others: 41
neighbors of 32: 26 27 31 33 37 38, number of others: 41
neighbors of 33: 27 28 32 34 38 39, number of others: 41
neighbors of 34: 28 29 33 35 39 40, number of others: 41
neighbors of 35: 29 34 40 41, number of others: 43
neighbors of 36: 30 31 37 42, number of others: 43
neighbors of 37: 31 32 36 38 42 43, number of others: 41
neighbors of 38: 32 33 37 39 43 44, number of others: 41
neighbors of 39: 33 34 38 40 44 45, number of others: 41
neighbors of 40: 34 35 39 41 45 46, number of others: 41
neighbors of 41: 35 40 46 47, number of others: 43
neighbors of 42: 36 37 43, number of others: 44
neighbors of 43: 37 38 42 44, number of others: 43
neighbors of 44: 38 39 43 45, number of others: 43
neighbors of 45: 39 40 44 46, number of others: 43
neighbors of 46: 40 41 45 47, number of others: 43
neighbors of 47: 41 46, number of others: 45
Run model...
Preprocess model 0% ...Preprocess model 16% ...Preprocess model 32% ...Preprocess model 48% ...Preprocess model 66% ...Preprocess model 84% ...Preprocess model 100% ...
Close model 0% ...Close model 9% ...Close model 18% ...Close model 27% ...Close model 36% ...Close model 45% ...Close model 54% ...Close model 63% ...Close model 72% ...Close model 81% ...Close model 91% ...Close model 100% ...
Run param...
Run solver...
Initialize threads 0% ...Initialize threads 100% ...
Push initial solutions 0% ...Push initial solutions 100% ...

Model: 
  expressions = 44734, operands = 116736
  decisions = 13824, constraints = 336, objectives = 1

Param: 
  time limit = 90 sec, no iteration limit
  seed = 0, nb threads = 1, annealing level = 1

Objectives:
  Obj 0: maximize, no bound

Phases:
  Phase 0: time limit = 90 sec, no iteration limit, optimized objective = 0


Computed bounds:
  Obj 0: upper bound = 0.664125


Phase 0:
[0 sec, 0 itr]: infeas = (336, 336, 576), mov = 0, inf < 0.1%, acc < 0.1%, imp = 0

worst case efficiency: 0.998464
[1 sec, 6856 itr]: obj = (0.0431996), mov = 6856, inf = 87.6%, acc = 10.8%, imp = 154

worst case efficiency: 0.62592
[2 sec, 29133 itr]: obj = (0.0671897), mov = 29133, inf = 97%, acc = 2.7%, imp = 198

worst case efficiency: 0.640314
[3 sec, 44924 itr]: obj = (0.0825026), mov = 44924, inf = 97.9%, acc = 1.9%, imp = 237

worst case efficiency: 0.649502
[4 sec, 54278 itr]: obj = (0.100787), mov = 54278, inf = 98.2%, acc = 1.7%, imp = 290

worst case efficiency: 0.660472
[5 sec, 60949 itr]: obj = (0.115229), mov = 60949, inf = 98.3%, acc = 1.6%, imp = 344

worst case efficiency: 0.669137
[6 sec, 66385 itr]: obj = (0.145414), mov = 66385, inf = 98.3%, acc = 1.6%, imp = 394

worst case efficiency: 0.687248
[7 sec, 71316 itr]: obj = (0.159111), mov = 71316, inf = 98.4%, acc = 1.5%, imp = 416

worst case efficiency: 0.695467
[8 sec, 76175 itr]: obj = (0.164446), mov = 76175, inf = 98.5%, acc = 1.5%, imp = 438

worst case efficiency: 0.698667
[9 sec, 80807 itr]: obj = (0.173332), mov = 80807, inf = 98.5%, acc = 1.4%, imp = 486

worst case efficiency: 0.703999
[10 sec, 85304 itr]: obj = (0.178291), mov = 85304, inf = 98.5%, acc = 1.4%, imp = 529

worst case efficiency: 0.706974
[11 sec, 89640 itr]: obj = (0.187248), mov = 89640, inf = 98.6%, acc = 1.4%, imp = 563

worst case efficiency: 0.712349
[12 sec, 94097 itr]: obj = (0.189325), mov = 94097, inf = 98.6%, acc = 1.4%, imp = 593

worst case efficiency: 0.713595
[13 sec, 98532 itr]: obj = (0.189389), mov = 98532, inf = 98.7%, acc = 1.3%, imp = 595

worst case efficiency: 0.713633
[14 sec, 102914 itr]: obj = (0.189389), mov = 102914, inf = 98.7%, acc = 1.3%, imp = 595

worst case efficiency: 0.713633
[15 sec, 107319 itr]: obj = (0.189389), mov = 107319, inf = 98.8%, acc = 1.2%, imp = 595

worst case efficiency: 0.713633
[16 sec, 111844 itr]: obj = (0.195364), mov = 111844, inf = 98.8%, acc = 1.2%, imp = 628

worst case efficiency: 0.717219
[17 sec, 116483 itr]: obj = (0.202635), mov = 116483, inf = 98.8%, acc = 1.2%, imp = 662

worst case efficiency: 0.721581
[18 sec, 120854 itr]: obj = (0.207911), mov = 120854, inf = 98.8%, acc = 1.2%, imp = 695

worst case efficiency: 0.724747
[19 sec, 125261 itr]: obj = (0.214114), mov = 125261, inf = 98.8%, acc = 1.2%, imp = 738

worst case efficiency: 0.728469
[20 sec, 129483 itr]: obj = (0.217978), mov = 129483, inf = 98.8%, acc = 1.1%, imp = 758

worst case efficiency: 0.730787
[21 sec, 133574 itr]: obj = (0.217978), mov = 133574, inf = 98.9%, acc = 1.1%, imp = 758

worst case efficiency: 0.730787
[22 sec, 137706 itr]: obj = (0.217978), mov = 137706, inf = 98.9%, acc = 1.1%, imp = 758

worst case efficiency: 0.730787
[23 sec, 141741 itr]: obj = (0.217978), mov = 141741, inf = 99%, acc = 1.1%, imp = 758

worst case efficiency: 0.730787
[24 sec, 145999 itr]: obj = (0.217978), mov = 145999, inf = 99%, acc = 1%, imp = 758

worst case efficiency: 0.730787
[25 sec, 150474 itr]: obj = (0.217978), mov = 150474, inf = 99%, acc = 1%, imp = 758

worst case efficiency: 0.730787
[26 sec, 155421 itr]: obj = (0.217978), mov = 155421, inf = 99%, acc = 1%, imp = 758

worst case efficiency: 0.730787
[27 sec, 160734 itr]: obj = (0.217978), mov = 160734, inf = 99.1%, acc = 0.9%, imp = 758

worst case efficiency: 0.730787
[28 sec, 167144 itr]: obj = (0.217978), mov = 167144, inf = 99.1%, acc = 0.9%, imp = 758

worst case efficiency: 0.730787
[29 sec, 174399 itr]: obj = (0.217978), mov = 174399, inf = 99.2%, acc = 0.9%, imp = 758

worst case efficiency: 0.730787
[30 sec, 183524 itr]: obj = (0.217978), mov = 183524, inf = 99.2%, acc = 0.8%, imp = 758

worst case efficiency: 0.730787
[31 sec, 195820 itr]: obj = (0.217978), mov = 195820, inf = 99.2%, acc = 0.8%, imp = 758

worst case efficiency: 0.730787
[32 sec, 214134 itr]: obj = (0.217978), mov = 214134, inf = 99.3%, acc = 0.7%, imp = 758

worst case efficiency: 0.730787
[33 sec, 229326 itr]: obj = (0.217978), mov = 229326, inf = 99.3%, acc = 0.7%, imp = 758

worst case efficiency: 0.730787
[34 sec, 244019 itr]: obj = (0.217978), mov = 244019, inf = 99.4%, acc = 0.7%, imp = 758

worst case efficiency: 0.730787
[35 sec, 259442 itr]: obj = (0.217978), mov = 259442, inf = 99.4%, acc = 0.6%, imp = 758

worst case efficiency: 0.730787
[36 sec, 274749 itr]: obj = (0.217978), mov = 274749, inf = 99.5%, acc = 0.6%, imp = 758

worst case efficiency: 0.730787
[37 sec, 289896 itr]: obj = (0.217978), mov = 289896, inf = 99.5%, acc = 0.6%, imp = 758

worst case efficiency: 0.730787
[38 sec, 305190 itr]: obj = (0.217978), mov = 305190, inf = 99.5%, acc = 0.5%, imp = 758

worst case efficiency: 0.730787
[39 sec, 320640 itr]: obj = (0.217978), mov = 320640, inf = 99.5%, acc = 0.5%, imp = 758

worst case efficiency: 0.730787
[40 sec, 335469 itr]: obj = (0.217978), mov = 335469, inf = 99.5%, acc = 0.5%, imp = 758

worst case efficiency: 0.730787
[41 sec, 350153 itr]: obj = (0.217978), mov = 350153, inf = 99.6%, acc = 0.5%, imp = 758

worst case efficiency: 0.730787
[42 sec, 365131 itr]: obj = (0.217978), mov = 365131, inf = 99.6%, acc = 0.5%, imp = 758

worst case efficiency: 0.730787
[43 sec, 379665 itr]: obj = (0.217978), mov = 379665, inf = 99.6%, acc = 0.5%, imp = 758

worst case efficiency: 0.730787
[44 sec, 394054 itr]: obj = (0.217978), mov = 394054, inf = 99.6%, acc = 0.5%, imp = 758

worst case efficiency: 0.730787
[45 sec, 409379 itr]: obj = (0.217978), mov = 409379, inf = 99.6%, acc = 0.4%, imp = 758

worst case efficiency: 0.730787
[46 sec, 424155 itr]: obj = (0.217978), mov = 424155, inf = 99.6%, acc = 0.4%, imp = 758

worst case efficiency: 0.730787
[47 sec, 439095 itr]: obj = (0.217978), mov = 439095, inf = 99.7%, acc = 0.4%, imp = 758

worst case efficiency: 0.730787
[48 sec, 454521 itr]: obj = (0.217978), mov = 454521, inf = 99.7%, acc = 0.4%, imp = 758

worst case efficiency: 0.730787
[49 sec, 470020 itr]: obj = (0.217978), mov = 470020, inf = 99.7%, acc = 0.4%, imp = 758

worst case efficiency: 0.730787
[50 sec, 485909 itr]: obj = (0.217978), mov = 485909, inf = 99.7%, acc = 0.4%, imp = 758

worst case efficiency: 0.730787
[51 sec, 501183 itr]: obj = (0.217978), mov = 501183, inf = 99.7%, acc = 0.4%, imp = 758

worst case efficiency: 0.730787
[52 sec, 516017 itr]: obj = (0.217978), mov = 516017, inf = 99.7%, acc = 0.4%, imp = 758

worst case efficiency: 0.730787
[53 sec, 530665 itr]: obj = (0.217978), mov = 530665, inf = 99.7%, acc = 0.4%, imp = 758

worst case efficiency: 0.730787
[54 sec, 545627 itr]: obj = (0.217978), mov = 545627, inf = 99.7%, acc = 0.4%, imp = 758

worst case efficiency: 0.730787
[55 sec, 560896 itr]: obj = (0.217978), mov = 560896, inf = 99.7%, acc = 0.4%, imp = 758

worst case efficiency: 0.730787
[56 sec, 576535 itr]: obj = (0.217978), mov = 576535, inf = 99.7%, acc = 0.3%, imp = 758

worst case efficiency: 0.730787
[57 sec, 592060 itr]: obj = (0.217978), mov = 592060, inf = 99.7%, acc = 0.3%, imp = 758

worst case efficiency: 0.730787
[58 sec, 606997 itr]: obj = (0.217978), mov = 606997, inf = 99.7%, acc = 0.3%, imp = 758

worst case efficiency: 0.730787
[59 sec, 622346 itr]: obj = (0.217978), mov = 622346, inf = 99.7%, acc = 0.3%, imp = 758

worst case efficiency: 0.730787
[60 sec, 637646 itr]: obj = (0.217978), mov = 637646, inf = 99.8%, acc = 0.3%, imp = 758

worst case efficiency: 0.730787
[61 sec, 652577 itr]: obj = (0.217978), mov = 652577, inf = 99.8%, acc = 0.3%, imp = 758

worst case efficiency: 0.730787
[62 sec, 667659 itr]: obj = (0.217978), mov = 667659, inf = 99.8%, acc = 0.3%, imp = 758

worst case efficiency: 0.730787
[63 sec, 682370 itr]: obj = (0.217978), mov = 682370, inf = 99.8%, acc = 0.3%, imp = 758

worst case efficiency: 0.730787
[64 sec, 697624 itr]: obj = (0.217978), mov = 697624, inf = 99.8%, acc = 0.3%, imp = 758

worst case efficiency: 0.730787
[65 sec, 713240 itr]: obj = (0.217978), mov = 713240, inf = 99.8%, acc = 0.3%, imp = 758

worst case efficiency: 0.730787
[66 sec, 727502 itr]: obj = (0.217978), mov = 727502, inf = 99.8%, acc = 0.3%, imp = 758

worst case efficiency: 0.730787
[67 sec, 742851 itr]: obj = (0.217978), mov = 742851, inf = 99.8%, acc = 0.3%, imp = 758

worst case efficiency: 0.730787
[68 sec, 757872 itr]: obj = (0.217978), mov = 757872, inf = 99.8%, acc = 0.3%, imp = 758

worst case efficiency: 0.730787
[69 sec, 772810 itr]: obj = (0.217978), mov = 772810, inf = 99.8%, acc = 0.3%, imp = 758

worst case efficiency: 0.730787
[70 sec, 788468 itr]: obj = (0.217978), mov = 788468, inf = 99.8%, acc = 0.3%, imp = 758

worst case efficiency: 0.730787
[71 sec, 803243 itr]: obj = (0.217978), mov = 803243, inf = 99.8%, acc = 0.3%, imp = 758

worst case efficiency: 0.730787
[72 sec, 818608 itr]: obj = (0.217978), mov = 818608, inf = 99.8%, acc = 0.3%, imp = 758

worst case efficiency: 0.730787
[73 sec, 834310 itr]: obj = (0.217978), mov = 834310, inf = 99.8%, acc = 0.3%, imp = 758

worst case efficiency: 0.730787
[74 sec, 849728 itr]: obj = (0.217978), mov = 849728, inf = 99.8%, acc = 0.3%, imp = 758

worst case efficiency: 0.730787
[75 sec, 865610 itr]: obj = (0.217978), mov = 865610, inf = 99.8%, acc = 0.3%, imp = 758

worst case efficiency: 0.730787
[76 sec, 880931 itr]: obj = (0.217978), mov = 880931, inf = 99.8%, acc = 0.3%, imp = 758

worst case efficiency: 0.730787
[77 sec, 896556 itr]: obj = (0.217978), mov = 896556, inf = 99.8%, acc = 0.3%, imp = 758

worst case efficiency: 0.730787
[78 sec, 912050 itr]: obj = (0.217978), mov = 912050, inf = 99.8%, acc = 0.3%, imp = 758

worst case efficiency: 0.730787
[79 sec, 927585 itr]: obj = (0.217978), mov = 927585, inf = 99.8%, acc = 0.3%, imp = 758

worst case efficiency: 0.730787
[80 sec, 943318 itr]: obj = (0.217978), mov = 943318, inf = 99.8%, acc = 0.3%, imp = 758

worst case efficiency: 0.730787
[81 sec, 958718 itr]: obj = (0.217978), mov = 958718, inf = 99.8%, acc = 0.3%, imp = 758

worst case efficiency: 0.730787
[82 sec, 974452 itr]: obj = (0.217978), mov = 974452, inf = 99.8%, acc = 0.3%, imp = 758

worst case efficiency: 0.730787
[83 sec, 989533 itr]: obj = (0.217978), mov = 989533, inf = 99.8%, acc = 0.2%, imp = 758

worst case efficiency: 0.730787
[84 sec, 1004877 itr]: obj = (0.217978), mov = 1004877, inf = 99.8%, acc = 0.2%, imp = 758

worst case efficiency: 0.730787
[85 sec, 1020008 itr]: obj = (0.217978), mov = 1020008, inf = 99.8%, acc = 0.2%, imp = 758

worst case efficiency: 0.730787
[86 sec, 1034226 itr]: obj = (0.217978), mov = 1034226, inf = 99.8%, acc = 0.2%, imp = 758

worst case efficiency: 0.730787
[87 sec, 1049187 itr]: obj = (0.217978), mov = 1049187, inf = 99.8%, acc = 0.2%, imp = 758

worst case efficiency: 0.730787
[88 sec, 1063868 itr]: obj = (0.217978), mov = 1063868, inf = 99.8%, acc = 0.2%, imp = 758

worst case efficiency: 0.730787
[89 sec, 1078863 itr]: obj = (0.217978), mov = 1078863, inf = 99.8%, acc = 0.2%, imp = 758

worst case efficiency: 0.730787
[90 sec, 1093817 itr]: obj = (0.217978), mov = 1093817, inf = 99.8%, acc = 0.2%, imp = 758

worst case efficiency: 0.730787
[90 sec, 1093817 itr]: obj = (0.217978), mov = 1093817, inf = 99.8%, acc = 0.2%, imp = 758

worst case efficiency: 0.730787
1093817 iterations, 1093817 moves performed in 90 seconds
Feasible solution: obj = (0.217978)

Run output...
FINAL SOLUTION
Worst case efficiency: 0.730787
Mapping: 0->9, 1->4, 2->23, 3->2, 4->46, 5->38, 6->5, 7->17, 8->14, 9->22, 10->7, 11->16, 12->18, 13->39, 14->44, 15->25, 16->27, 17->47, 18->19, 19->1, 20->5, 21->42, 22->26, 23->41, 24->34, 25->6, 26->34, 27->12, 28->6, 29->37, 30->3, 31->19, 32->2, 33->1, 34->38, 35->10, 36->11, 37->45, 38->37, 39->44, 40->38, 41->47, 42->12, 43->21, 44->36, 45->15, 46->5, 47->45, 48->11, 49->4, 50->34, 51->32, 52->17, 53->2, 54->34, 55->45, 56->32, 57->23, 58->20, 59->36, 60->31, 61->24, 62->39, 63->44, 64->34, 65->40, 66->40, 67->14, 68->35, 69->31, 70->17, 71->24, 72->21, 73->0, 74->13, 75->38, 76->6, 77->26, 78->15, 79->22, 80->29, 81->38, 82->21, 83->10, 84->16, 85->47, 86->45, 87->37, 88->18, 89->41, 90->8, 91->16, 92->28, 93->25, 94->13, 95->27, 96->0, 97->37, 98->32, 99->4, 100->20, 101->11, 102->33, 103->4, 104->41, 105->2, 106->40, 107->18, 108->22, 109->6, 110->11, 111->2, 112->35, 113->33, 114->29, 115->41, 116->14, 117->47, 118->9, 119->5, 120->33, 121->39, 122->37, 123->44, 124->42, 125->8, 126->19, 127->46, 128->46, 129->30, 130->18, 131->35, 132->16, 133->1, 134->22, 135->40, 136->47, 137->29, 138->14, 139->10, 140->32, 141->15, 142->12, 143->32, 144->42, 145->37, 146->24, 147->8, 148->27, 149->35, 150->34, 151->32, 152->25, 153->40, 154->22, 155->10, 156->30, 157->3, 158->7, 159->44, 160->27, 161->43, 162->26, 163->13, 164->20, 165->31, 166->21, 167->1, 168->42, 169->8, 170->26, 171->43, 172->46, 173->0, 174->42, 175->17, 176->27, 177->19, 178->35, 179->16, 180->18, 181->16, 182->13, 183->19, 184->23, 185->19, 186->9, 187->1, 188->7, 189->23, 190->28, 191->31, 192->41, 193->12, 194->3, 195->0, 196->33, 197->7, 198->13, 199->36, 200->15, 201->5, 202->7, 203->14, 204->41, 205->6, 206->46, 207->12, 208->10, 209->25, 210->35, 211->10, 212->23, 213->26, 214->46, 215->9, 216->11, 217->17, 218->29, 219->40, 220->31, 221->4, 222->24, 223->43, 224->28, 225->3, 226->13, 227->28, 228->2, 229->43, 230->24, 231->30, 232->9, 233->7, 234->25, 235->17, 236->36, 237->20, 238->26, 239->5, 240->38, 241->24, 242->36, 243->15, 244->27, 245->29, 246->18, 247->33, 248->47, 249->42, 250->28, 251->43, 252->12, 253->45, 254->3, 255->0, 256->15, 257->45, 258->1, 259->14, 260->8, 261->21, 262->6, 263->36, 264->44, 265->33, 266->39, 267->30, 268->30, 269->9, 270->20, 271->8, 272->20, 273->23, 274->22, 275->11, 276->30, 277->4, 278->29, 279->25, 280->31, 281->39, 282->43, 283->0, 284->28, 285->21, 286->3, 287->39
Number of tasks per core:
	6	6	6	6	6	6
	6	6	6	6	6	6
	6	6	6	6	6	6
	6	6	6	6	6	6
	6	6	6	6	6	6
	6	6	6	6	6	6
	6	6	6	6	6	6
	6	6	6	6	6	6
Average CPI map:
	0.904517	4.48042	2.33354	2.11972	1.91416	0.824374
	2.12179	2.56165	6.06495	2.56634	4.21043	1.07094
	2.03048	8.97937	3.25876	7.09155	5.83816	1.7702
	1.1315	3.37805	5.02718	9.5758	8.80319	2.11983
	1.26959	5.41908	4.3507	7.1329	6.09724	4.50949
	1.36693	7.59077	7.50077	5.04192	7.03838	1.44283
	1.26243	3.76593	6.24382	4.13953	3.90077	0.862766
	1.57912	2.52812	4.57124	2.43144	2.38963	1.38769
Efficiency map:
	0.997219	0.983309	0.990987	0.990946	0.918599	1.00307
	0.853281	0.730787	0.904009	0.736003	0.732906	0.841107
	0.856733	0.880734	0.755221	0.844103	0.730787	0.851108
	0.822737	0.744607	0.763611	0.867476	0.849155	0.867403
	0.818759	0.763258	0.734243	0.821532	0.733544	0.9097
	0.812984	0.760183	0.795023	0.759323	0.833537	0.823206
	0.818507	0.733503	0.735477	0.745878	0.752776	0.806782
	0.818956	0.763704	0.766451	0.75123	0.769442	0.797944
==============================================================================
Local Solver optimizer for EML demonstration
==============================================================================

Option values: --wld-idx 19 --global-tlim 90 --seed 0

Starting the Optimization Process
