==============================================================================
LNS optimizer for EML demonstration
==============================================================================

Option values: --wld-idx 11 --prec 10000 --step 0 --global-tlim 90 --global-iter 1000 --local-tlim 3 --local-nsol 1 --restart-base 100 --restart-strat luby --seed 0

Starting the Optimization Process
LNS iteration #0 ========================================
- worst case average CPI: 1.908
- worst case efficiency: 0.618
- efficiency to beat: 0.618
- normalized lower bound 385
--- checking solution
--- solution ok! Maximum rounding error: 0.000092
- solution found, obj var is: 535
- de-normalized obj var: 0.632100
- time (local/global): 0.002/0.002
- branches (local/global): 25/25
- fails (local/global): 1/1
- lns time: 0.006000
- lns branches: 25
- lns fails: 1
LNS iteration #1 ========================================
- worst case average CPI: 1.661
- worst case efficiency: 0.618
- efficiency to beat: 0.618
- normalized lower bound 391
--- checking solution
--- solution ok! Maximum rounding error: 0.000110
- solution found, obj var is: 391
- de-normalized obj var: 0.623460
- time (local/global): 0.003/0.009
- branches (local/global): 29/54
- fails (local/global): 4/5
- lns time: 0.006000
- lns branches: 29
- lns fails: 4
LNS iteration #2 ========================================
- worst case average CPI: 1.661
- worst case efficiency: 0.621
- efficiency to beat: 0.621
- normalized lower bound 427
--- checking solution
--- solution ok! Maximum rounding error: 0.000005
- solution found, obj var is: 787
- de-normalized obj var: 0.647220
- time (local/global): 0.002/0.014
- branches (local/global): 22/76
- fails (local/global): 0/5
- lns time: 0.006000
- lns branches: 22
- lns fails: 0
LNS iteration #3 ========================================
- worst case average CPI: 1.564
- worst case efficiency: 0.623
- efficiency to beat: 0.623
- normalized lower bound 465
--- checking solution
--- solution ok! Maximum rounding error: 0.000013
- solution found, obj var is: 514
- de-normalized obj var: 0.630840
- time (local/global): 0.002/0.020
- branches (local/global): 21/97
- fails (local/global): 0/5
- lns time: 0.006000
- lns branches: 21
- lns fails: 0
LNS iteration #4 ========================================
- worst case average CPI: 1.564
- worst case efficiency: 0.624
- efficiency to beat: 0.624
- normalized lower bound 476
--- checking solution
--- solution ok! Maximum rounding error: 0.000047
- solution found, obj var is: 480
- de-normalized obj var: 0.628800
- time (local/global): 0.002/0.026
- branches (local/global): 21/118
- fails (local/global): 0/5
- lns time: 0.006000
- lns branches: 21
- lns fails: 0
LNS iteration #5 ========================================
- worst case average CPI: 1.564
- worst case efficiency: 0.624
- efficiency to beat: 0.624
- normalized lower bound 484
--- checking solution
--- solution ok! Maximum rounding error: 0.000071
- solution found, obj var is: 507
- de-normalized obj var: 0.630420
- time (local/global): 0.001/0.031
- branches (local/global): 22/140
- fails (local/global): 0/5
- lns time: 0.006000
- lns branches: 22
- lns fails: 0
LNS iteration #6 ========================================
- worst case average CPI: 1.564
- worst case efficiency: 0.625
- efficiency to beat: 0.625
- normalized lower bound 508
--- checking solution
--- solution ok! Maximum rounding error: 0.000052
- solution found, obj var is: 516
- de-normalized obj var: 0.630960
- time (local/global): 0.001/0.037
- branches (local/global): 155/295
- fails (local/global): 70/75
- lns time: 0.006000
- lns branches: 155
- lns fails: 70
LNS iteration #7 ========================================
- worst case average CPI: 1.379
- worst case efficiency: 0.629
- efficiency to beat: 0.629
- normalized lower bound 559
--- checking solution
--- solution ok! Maximum rounding error: 0.000052
- solution found, obj var is: 700
- de-normalized obj var: 0.642000
- time (local/global): 0.002/0.044
- branches (local/global): 24/319
- fails (local/global): 1/76
- lns time: 0.006000
- lns branches: 24
- lns fails: 1
LNS iteration #8 ========================================
- worst case average CPI: 1.379
- worst case efficiency: 0.629
- efficiency to beat: 0.629
- normalized lower bound 561
--- checking solution
--- solution ok! Maximum rounding error: 0.000047
- solution found, obj var is: 662
- de-normalized obj var: 0.639720
- time (local/global): 0.002/0.050
- branches (local/global): 22/341
- fails (local/global): 0/76
- lns time: 0.006000
- lns branches: 22
- lns fails: 0
LNS iteration #9 ========================================
- worst case average CPI: 1.379
- worst case efficiency: 0.629
- efficiency to beat: 0.629
- normalized lower bound 566
--- checking solution
--- solution ok! Maximum rounding error: 0.000060
- solution found, obj var is: 581
- de-normalized obj var: 0.634860
- time (local/global): 0.002/0.056
- branches (local/global): 1089/1430
- fails (local/global): 500/576
- lns time: 0.021000
- lns branches: 1089
- lns fails: 500
LNS iteration #10 ========================================
- worst case average CPI: 1.379
- worst case efficiency: 0.630
- efficiency to beat: 0.630
- normalized lower bound 576
--- checking solution
--- solution ok! Maximum rounding error: 0.000067
- solution found, obj var is: 614
- de-normalized obj var: 0.636840
- time (local/global): 0.002/0.077
- branches (local/global): 866/2296
- fails (local/global): 400/976
- lns time: 0.017000
- lns branches: 866
- lns fails: 400
LNS iteration #11 ========================================
- worst case average CPI: 1.361
- worst case efficiency: 0.630
- efficiency to beat: 0.630
- normalized lower bound 583
--- checking solution
--- solution ok! Maximum rounding error: 0.000069
- solution found, obj var is: 609
- de-normalized obj var: 0.636540
- time (local/global): 0.002/0.094
- branches (local/global): 1104/3400
- fails (local/global): 505/1481
- lns time: 0.022000
- lns branches: 1104
- lns fails: 505
LNS iteration #12 ========================================
- worst case average CPI: 1.334
- worst case efficiency: 0.631
- efficiency to beat: 0.631
- normalized lower bound 598
--- checking solution
--- solution ok! Maximum rounding error: 0.000101
- solution found, obj var is: 652
- de-normalized obj var: 0.639120
- time (local/global): 0.003/0.117
- branches (local/global): 532/3932
- fails (local/global): 238/1719
- lns time: 0.013000
- lns branches: 532
- lns fails: 238
LNS iteration #13 ========================================
- worst case average CPI: 1.334
- worst case efficiency: 0.633
- efficiency to beat: 0.633
- normalized lower bound 637
--- checking solution
--- solution ok! Maximum rounding error: 0.000032
- solution found, obj var is: 653
- de-normalized obj var: 0.639180
- time (local/global): -0.001/0.126
- branches (local/global): 3399/7331
- fails (local/global): 1606/3325
- lns time: 0.054000
- lns branches: 3399
- lns fails: 1606
LNS iteration #14 ========================================
- worst case average CPI: 1.334
- worst case efficiency: 0.634
- efficiency to beat: 0.634
- normalized lower bound 642
--- checking solution
--- solution ok! Maximum rounding error: 0.000095
- solution found, obj var is: 681
- de-normalized obj var: 0.640860
- time (local/global): 0.002/0.183
- branches (local/global): 457/7788
- fails (local/global): 201/3526
- lns time: 0.012000
- lns branches: 457
- lns fails: 201
LNS iteration #15 ========================================
- worst case average CPI: 1.334
- worst case efficiency: 0.635
- efficiency to beat: 0.635
- normalized lower bound 672
--- checking solution
--- solution ok! Maximum rounding error: 0.000019
- solution found, obj var is: 678
- de-normalized obj var: 0.640680
- time (local/global): 0.002/0.195
- branches (local/global): 25/7813
- fails (local/global): 1/3527
- lns time: 0.006000
- lns branches: 25
- lns fails: 1
LNS iteration #16 ========================================
- worst case average CPI: 1.334
- worst case efficiency: 0.636
- efficiency to beat: 0.636
- normalized lower bound 689
--- checking solution
--- solution ok! Maximum rounding error: 0.000062
- solution found, obj var is: 716
- de-normalized obj var: 0.642960
- time (local/global): 0.002/0.201
- branches (local/global): 272/8085
- fails (local/global): 119/3646
- lns time: 0.009000
- lns branches: 272
- lns fails: 119
LNS iteration #17 ========================================
- worst case average CPI: 1.334
- worst case efficiency: 0.637
- efficiency to beat: 0.637
- normalized lower bound 701
--- checking solution
--- solution ok! Maximum rounding error: 0.000031
- solution found, obj var is: 714
- de-normalized obj var: 0.642840
- time (local/global): 0.001/0.209
- branches (local/global): 851/8936
- fails (local/global): 404/4050
- lns time: 0.013000
- lns branches: 851
- lns fails: 404
LNS iteration #18 ========================================
- worst case average CPI: 1.334
- worst case efficiency: 0.639
- efficiency to beat: 0.639
- normalized lower bound 732
--- checking solution
--- solution ok! Maximum rounding error: 0.000059
- solution found, obj var is: 732
- de-normalized obj var: 0.643920
- time (local/global): 0.002/0.223
- branches (local/global): 21570/30506
- fails (local/global): 10402/14452
- lns time: 0.310000
- lns branches: 21570
- lns fails: 10402
LNS iteration #19 ========================================
- worst case average CPI: 1.334
- worst case efficiency: 0.639
- efficiency to beat: 0.639
- normalized lower bound 734
--- checking solution
--- solution ok! Maximum rounding error: 0.000000
- solution found, obj var is: 752
- de-normalized obj var: 0.645120
- time (local/global): 0.002/0.533
- branches (local/global): 76/30582
- fails (local/global): 28/14480
- lns time: 0.007000
- lns branches: 76
- lns fails: 28
LNS iteration #20 ========================================
- worst case average CPI: 1.249
- worst case efficiency: 0.639
- efficiency to beat: 0.639
- normalized lower bound 731
--- checking solution
--- solution ok! Maximum rounding error: 0.000036
- solution found, obj var is: 745
- de-normalized obj var: 0.644700
- time (local/global): 0.003/0.541
- branches (local/global): 776/31358
- fails (local/global): 361/14841
- lns time: 0.014000
- lns branches: 776
- lns fails: 361
LNS iteration #21 ========================================
- worst case average CPI: 1.249
- worst case efficiency: 0.639
- efficiency to beat: 0.639
- normalized lower bound 735
--- checking solution
XXX Rounding error: 14
--- solution ok! Maximum rounding error: 0.000620
- solution found, obj var is: 741
- de-normalized obj var: 0.644460
- time (local/global): 0.002/0.554
- branches (local/global): 21/31379
- fails (local/global): 0/14841
- lns time: 0.006000
- lns branches: 21
- lns fails: 0
LNS iteration #22 ========================================
- worst case average CPI: 1.249
- worst case efficiency: 0.640
- efficiency to beat: 0.640
- normalized lower bound 747
--- checking solution
--- solution ok! Maximum rounding error: 0.000061
- solution found, obj var is: 893
- de-normalized obj var: 0.653580
- time (local/global): 0.003/0.561
- branches (local/global): 876/32255
- fails (local/global): 400/15241
- lns time: 0.015000
- lns branches: 876
- lns fails: 400
LNS iteration #23 ========================================
- worst case average CPI: 1.249
- worst case efficiency: 0.641
- efficiency to beat: 0.641
- normalized lower bound 761
--- checking solution
--- solution ok! Maximum rounding error: 0.000046
- solution found, obj var is: 776
- de-normalized obj var: 0.646560
- time (local/global): 0.001/0.574
- branches (local/global): 65/32320
- fails (local/global): 25/15266
- lns time: 0.006000
- lns branches: 65
- lns fails: 25
LNS iteration #24 ========================================
- worst case average CPI: 1.249
- worst case efficiency: 0.641
- efficiency to beat: 0.641
- normalized lower bound 762
--- checking solution
--- solution ok! Maximum rounding error: 0.000062
- solution found, obj var is: 762
- de-normalized obj var: 0.645720
- time (local/global): 0.001/0.580
- branches (local/global): 35/32355
- fails (local/global): 10/15276
- lns time: 0.006000
- lns branches: 35
- lns fails: 10
LNS iteration #25 ========================================
- worst case average CPI: 1.249
- worst case efficiency: 0.641
- efficiency to beat: 0.641
- normalized lower bound 764
--- checking solution
--- solution ok! Maximum rounding error: 0.000039
- solution found, obj var is: 764
- de-normalized obj var: 0.645840
- time (local/global): 0.002/0.587
- branches (local/global): 33/32388
- fails (local/global): 7/15283
- lns time: 0.006000
- lns branches: 33
- lns fails: 7
LNS iteration #26 ========================================
- worst case average CPI: 1.249
- worst case efficiency: 0.642
- efficiency to beat: 0.642
- normalized lower bound 779
--- checking solution
--- solution ok! Maximum rounding error: 0.000040
- solution found, obj var is: 781
- de-normalized obj var: 0.646860
- time (local/global): 0.003/0.594
- branches (local/global): 3670/36058
- fails (local/global): 1730/17013
- lns time: 0.038000
- lns branches: 3670
- lns fails: 1730
LNS iteration #27 ========================================
- worst case average CPI: 1.249
- worst case efficiency: 0.642
- efficiency to beat: 0.642
- normalized lower bound 790
--- checking solution
--- solution ok! Maximum rounding error: 0.000075
- solution found, obj var is: 805
- de-normalized obj var: 0.648300
- time (local/global): 0.002/0.631
- branches (local/global): 84/36142
- fails (local/global): 31/17044
- lns time: 0.007000
- lns branches: 84
- lns fails: 31
LNS iteration #28 ========================================
- worst case average CPI: 1.249
- worst case efficiency: 0.643
- efficiency to beat: 0.643
- normalized lower bound 800
--- checking solution
--- solution ok! Maximum rounding error: 0.000095
- solution found, obj var is: 868
- de-normalized obj var: 0.652080
- time (local/global): 0.002/0.638
- branches (local/global): 3603/39745
- fails (local/global): 1701/18745
- lns time: 0.046000
- lns branches: 3603
- lns fails: 1701
LNS iteration #29 ========================================
- worst case average CPI: 1.134
- worst case efficiency: 0.643
- efficiency to beat: 0.643
- normalized lower bound 807
--- checking solution
--- solution ok! Maximum rounding error: 0.000056
- solution found, obj var is: 829
- de-normalized obj var: 0.649740
- time (local/global): 0.003/0.685
- branches (local/global): 1402/41147
- fails (local/global): 650/19395
- lns time: 0.028000
- lns branches: 1402
- lns fails: 650
LNS iteration #30 ========================================
- worst case average CPI: 1.134
- worst case efficiency: 0.645
- efficiency to beat: 0.645
- normalized lower bound 826
--- checking solution
--- solution ok! Maximum rounding error: 0.000061
- solution found, obj var is: 827
- de-normalized obj var: 0.649620
- time (local/global): 0.002/0.712
- branches (local/global): 14093/55240
- fails (local/global): 6789/26184
- lns time: 0.164000
- lns branches: 14093
- lns fails: 6789
LNS iteration #31 ========================================
- worst case average CPI: 1.134
- worst case efficiency: 0.644
- efficiency to beat: 0.644
- normalized lower bound 819
--- checking solution
--- solution ok! Maximum rounding error: 0.000000
- solution found, obj var is: 893
- de-normalized obj var: 0.653580
- time (local/global): 0.002/0.876
- branches (local/global): 22/55262
- fails (local/global): 0/26184
- lns time: 0.006000
- lns branches: 22
- lns fails: 0
LNS iteration #32 ========================================
- worst case average CPI: 1.134
- worst case efficiency: 0.645
- efficiency to beat: 0.645
- normalized lower bound 829
--- checking solution
--- solution ok! Maximum rounding error: 0.000125
- solution found, obj var is: 942
- de-normalized obj var: 0.656520
- time (local/global): 0.003/0.883
- branches (local/global): 9439/64701
- fails (local/global): 4516/30700
- lns time: 0.116000
- lns branches: 9439
- lns fails: 4516
LNS iteration #33 ========================================
- worst case average CPI: 1.134
- worst case efficiency: 0.645
- efficiency to beat: 0.645
- normalized lower bound 827
--- checking solution
--- solution ok! Maximum rounding error: 0.000052
- solution found, obj var is: 830
- de-normalized obj var: 0.649800
- time (local/global): 0.002/0.998
- branches (local/global): 20/64721
- fails (local/global): 0/30700
- lns time: 0.006000
- lns branches: 20
- lns fails: 0
LNS iteration #34 ========================================
- worst case average CPI: 1.134
- worst case efficiency: 0.645
- efficiency to beat: 0.645
- normalized lower bound 841
--- checking solution
--- solution ok! Maximum rounding error: 0.000055
- solution found, obj var is: 847
- de-normalized obj var: 0.650820
- time (local/global): 0.001/1.003
- branches (local/global): 390/65111
- fails (local/global): 176/30876
- lns time: 0.011000
- lns branches: 390
- lns fails: 176
LNS iteration #35 ========================================
- worst case average CPI: 1.134
- worst case efficiency: 0.646
- efficiency to beat: 0.646
- normalized lower bound 847
--- checking solution
--- solution ok! Maximum rounding error: 0.000093
- solution found, obj var is: 865
- de-normalized obj var: 0.651900
- time (local/global): 0.002/1.015
- branches (local/global): 245/65356
- fails (local/global): 104/30980
- lns time: 0.009000
- lns branches: 245
- lns fails: 104
LNS iteration #36 ========================================
- worst case average CPI: 1.134
- worst case efficiency: 0.646
- efficiency to beat: 0.646
- normalized lower bound 848
--- checking solution
--- solution ok! Maximum rounding error: 0.000306
- solution found, obj var is: 849
- de-normalized obj var: 0.650940
- time (local/global): 0.002/1.024
- branches (local/global): 1790/67146
- fails (local/global): 837/31817
- lns time: 0.032000
- lns branches: 1790
- lns fails: 837
LNS iteration #37 ========================================
- worst case average CPI: 1.134
- worst case efficiency: 0.647
- efficiency to beat: 0.647
- normalized lower bound 867
--- checking solution
--- solution ok! Maximum rounding error: 0.000045
- solution found, obj var is: 893
- de-normalized obj var: 0.653580
- time (local/global): 0.002/1.056
- branches (local/global): 2001/69147
- fails (local/global): 941/32758
- lns time: 0.034000
- lns branches: 2001
- lns fails: 941
LNS iteration #38 ========================================
- worst case average CPI: 0.886
- worst case efficiency: 0.647
- efficiency to beat: 0.647
- normalized lower bound 875
--- checking solution
--- solution ok! Maximum rounding error: 0.000104
- solution found, obj var is: 875
- de-normalized obj var: 0.652500
- time (local/global): 0.002/1.090
- branches (local/global): 511/69658
- fails (local/global): 229/32987
- lns time: 0.012000
- lns branches: 511
- lns fails: 229
LNS iteration #39 ========================================
- worst case average CPI: 0.886
- worst case efficiency: 0.650
- efficiency to beat: 0.650
- normalized lower bound 915
--- checking solution
--- solution ok! Maximum rounding error: 0.000020
- solution found, obj var is: 920
- de-normalized obj var: 0.655200
- time (local/global): 0.002/1.102
- branches (local/global): 3388/73046
- fails (local/global): 1612/34599
- lns time: 0.052000
- lns branches: 3388
- lns fails: 1612
LNS iteration #40 ========================================
- worst case average CPI: 0.886
- worst case efficiency: 0.650
- efficiency to beat: 0.650
- normalized lower bound 915
--- checking solution
--- solution ok! Maximum rounding error: 0.000177
- solution found, obj var is: 1518
- de-normalized obj var: 0.691080
- time (local/global): 0.002/1.154
- branches (local/global): 25/73071
- fails (local/global): 1/34600
- lns time: 0.006000
- lns branches: 25
- lns fails: 1
LNS iteration #41 ========================================
- worst case average CPI: 0.886
- worst case efficiency: 0.651
- efficiency to beat: 0.651
- normalized lower bound 927
--- checking solution
--- solution ok! Maximum rounding error: 0.000030
- solution found, obj var is: 944
- de-normalized obj var: 0.656640
- time (local/global): 0.003/1.161
- branches (local/global): 562/73633
- fails (local/global): 255/34855
- lns time: 0.013000
- lns branches: 562
- lns fails: 255
LNS iteration #42 ========================================
- worst case average CPI: 0.886
- worst case efficiency: 0.651
- efficiency to beat: 0.651
- normalized lower bound 931
--- checking solution
--- solution ok! Maximum rounding error: 0.000056
- solution found, obj var is: 947
- de-normalized obj var: 0.656820
- time (local/global): 0.002/1.173
- branches (local/global): 9602/83235
- fails (local/global): 4601/39456
- lns time: 0.128000
- lns branches: 9602
- lns fails: 4601
LNS iteration #43 ========================================
- worst case average CPI: 0.886
- worst case efficiency: 0.652
- efficiency to beat: 0.652
- normalized lower bound 955
--- checking solution
--- solution ok! Maximum rounding error: 0.000042
- solution found, obj var is: 964
- de-normalized obj var: 0.657840
- time (local/global): 0.002/1.301
- branches (local/global): 39629/122864
- fails (local/global): 19301/58757
- lns time: 0.624000
- lns branches: 39629
- lns fails: 19301
LNS iteration #44 ========================================
- worst case average CPI: 0.886
- worst case efficiency: 0.653
- efficiency to beat: 0.653
- normalized lower bound 961
--- checking solution
--- solution ok! Maximum rounding error: 0.000052
- solution found, obj var is: 978
- de-normalized obj var: 0.658680
- time (local/global): 0.002/1.925
- branches (local/global): 1725/124589
- fails (local/global): 801/59558
- lns time: 0.027000
- lns branches: 1725
- lns fails: 801
LNS iteration #45 ========================================
- worst case average CPI: 0.886
- worst case efficiency: 0.653
- efficiency to beat: 0.653
- normalized lower bound 967
--- checking solution
--- solution ok! Maximum rounding error: 0.000078
- solution found, obj var is: 973
- de-normalized obj var: 0.658380
- time (local/global): 0.001/1.951
- branches (local/global): 9765/134354
- fails (local/global): 4675/64233
- lns time: 0.155000
- lns branches: 9765
- lns fails: 4675
LNS iteration #46 ========================================
- worst case average CPI: 0.886
- worst case efficiency: 0.653
- efficiency to beat: 0.653
- normalized lower bound 970
--- checking solution
--- solution ok! Maximum rounding error: 0.000108
- solution found, obj var is: 979
- de-normalized obj var: 0.658740
- time (local/global): 0.002/2.107
- branches (local/global): 5055/139409
- fails (local/global): 2403/66636
- lns time: 0.073000
- lns branches: 5055
- lns fails: 2403
LNS iteration #47 ========================================
- worst case average CPI: 0.886
- worst case efficiency: 0.653
- efficiency to beat: 0.653
- normalized lower bound 972
--- checking solution
--- solution ok! Maximum rounding error: 0.000045
- solution found, obj var is: 1023
- de-normalized obj var: 0.661380
- time (local/global): 0.002/2.180
- branches (local/global): 5059/144468
- fails (local/global): 2400/69036
- lns time: 0.068000
- lns branches: 5059
- lns fails: 2400
LNS iteration #48 ========================================
- worst case average CPI: 0.886
- worst case efficiency: 0.654
- efficiency to beat: 0.654
- normalized lower bound 978
--- checking solution
--- solution ok! Maximum rounding error: 0.000102
- solution found, obj var is: 1011
- de-normalized obj var: 0.660660
- time (local/global): 0.002/2.248
- branches (local/global): 10586/155054
- fails (local/global): 5058/74094
- lns time: 0.158000
- lns branches: 10586
- lns fails: 5058
LNS iteration #49 ========================================
- worst case average CPI: 0.886
- worst case efficiency: 0.655
- efficiency to beat: 0.655
- normalized lower bound 1003
--- checking solution
--- solution ok! Maximum rounding error: 0.000043
- solution found, obj var is: 1008
- de-normalized obj var: 0.660480
- time (local/global): 0.001/2.405
- branches (local/global): 4968/160022
- fails (local/global): 2402/76496
- lns time: 0.066000
- lns branches: 4968
- lns fails: 2402
LNS iteration #50 ========================================
- worst case average CPI: 0.886
- worst case efficiency: 0.657
- efficiency to beat: 0.657
- normalized lower bound 1040
--- checking solution
--- solution ok! Maximum rounding error: 0.000185
- solution found, obj var is: 1086
- de-normalized obj var: 0.665160
- time (local/global): 0.002/2.472
- branches (local/global): 1309/161331
- fails (local/global): 601/77097
- lns time: 0.024000
- lns branches: 1309
- lns fails: 601
LNS iteration #51 ========================================
- worst case average CPI: 0.886
- worst case efficiency: 0.658
- efficiency to beat: 0.658
- normalized lower bound 1044
--- checking solution
--- solution ok! Maximum rounding error: 0.000026
- solution found, obj var is: 1172
- de-normalized obj var: 0.670320
- time (local/global): 0.002/2.496
- branches (local/global): 4254/165585
- fails (local/global): 2001/79098
- lns time: 0.048000
- lns branches: 4254
- lns fails: 2001
LNS iteration #52 ========================================
- worst case average CPI: 0.886
- worst case efficiency: 0.659
- efficiency to beat: 0.659
- normalized lower bound 1062
--- checking solution
--- solution ok! Maximum rounding error: 0.000000
- solution found, obj var is: 1115
- de-normalized obj var: 0.666900
- time (local/global): 0.002/2.544
- branches (local/global): 1436/167021
- fails (local/global): 667/79765
- lns time: 0.025000
- lns branches: 1436
- lns fails: 667
LNS iteration #53 ========================================
- worst case average CPI: 0.886
- worst case efficiency: 0.659
- efficiency to beat: 0.659
- normalized lower bound 1064
--- checking solution
--- solution ok! Maximum rounding error: 0.000013
- solution found, obj var is: 1121
- de-normalized obj var: 0.667260
- time (local/global): 0.003/2.570
- branches (local/global): 241/167262
- fails (local/global): 100/79865
- lns time: 0.008000
- lns branches: 241
- lns fails: 100
LNS iteration #54 ========================================
- worst case average CPI: 0.886
- worst case efficiency: 0.659
- efficiency to beat: 0.659
- normalized lower bound 1065
--- checking solution
--- solution ok! Maximum rounding error: 0.000071
- solution found, obj var is: 1192
- de-normalized obj var: 0.671520
- time (local/global): 0.001/2.576
- branches (local/global): 443/167705
- fails (local/global): 202/80067
- lns time: 0.010000
- lns branches: 443
- lns fails: 202
LNS iteration #55 ========================================
- worst case average CPI: 0.886
- worst case efficiency: 0.660
- efficiency to beat: 0.660
- normalized lower bound 1079
--- checking solution
--- solution ok! Maximum rounding error: 0.000018
- solution found, obj var is: 1109
- de-normalized obj var: 0.666540
- time (local/global): 0.002/2.587
- branches (local/global): 5049/172754
- fails (local/global): 2403/82470
- lns time: 0.073000
- lns branches: 5049
- lns fails: 2403
LNS iteration #56 ========================================
- worst case average CPI: 0.886
- worst case efficiency: 0.661
- efficiency to beat: 0.661
- normalized lower bound 1096
--- checking solution
--- solution ok! Maximum rounding error: 0.000111
- solution found, obj var is: 1108
- de-normalized obj var: 0.666480
- time (local/global): 0.005/2.663
- branches (local/global): 10465/183219
- fails (local/global): 5002/87472
- lns time: 0.154000
- lns branches: 10465
- lns fails: 5002
LNS iteration #57 ========================================
- worst case average CPI: 0.854
- worst case efficiency: 0.661
- efficiency to beat: 0.661
- normalized lower bound 1096
--- checking solution
--- solution ok! Maximum rounding error: 0.000000
- solution found, obj var is: 1113
- de-normalized obj var: 0.666780
- time (local/global): 0.003/2.815
- branches (local/global): 55/183274
- fails (local/global): 18/87490
- lns time: 0.006000
- lns branches: 55
- lns fails: 18
LNS iteration #58 ========================================
- worst case average CPI: 0.854
- worst case efficiency: 0.661
- efficiency to beat: 0.661
- normalized lower bound 1096
--- checking solution
--- solution ok! Maximum rounding error: 0.000108
- solution found, obj var is: 1111
- de-normalized obj var: 0.666660
- time (local/global): 0.002/2.820
- branches (local/global): 3869/187143
- fails (local/global): 1827/89317
- lns time: 0.059000
- lns branches: 3869
- lns fails: 1827
LNS iteration #59 ========================================
- worst case average CPI: 0.854
- worst case efficiency: 0.661
- efficiency to beat: 0.661
- normalized lower bound 1104
--- checking solution
--- solution ok! Maximum rounding error: 0.000207
- solution found, obj var is: 1105
- de-normalized obj var: 0.666300
- time (local/global): 0.002/2.879
- branches (local/global): 4321/191464
- fails (local/global): 2048/91365
- lns time: 0.063000
- lns branches: 4321
- lns fails: 2048
LNS iteration #60 ========================================
- worst case average CPI: 0.854
- worst case efficiency: 0.661
- efficiency to beat: 0.661
- normalized lower bound 1109
--- checking solution
--- solution ok! Maximum rounding error: 0.000057
- solution found, obj var is: 1227
- de-normalized obj var: 0.673620
- time (local/global): 0.002/2.942
- branches (local/global): 1316/192780
- fails (local/global): 601/91966
- lns time: 0.020000
- lns branches: 1316
- lns fails: 601
LNS iteration #61 ========================================
- worst case average CPI: 0.854
- worst case efficiency: 0.662
- efficiency to beat: 0.662
- normalized lower bound 1123
--- checking solution
--- solution ok! Maximum rounding error: 0.000033
- solution found, obj var is: 1125
- de-normalized obj var: 0.667500
- time (local/global): 0.002/2.962
- branches (local/global): 1811/194591
- fails (local/global): 845/92811
- lns time: 0.029000
- lns branches: 1811
- lns fails: 845
LNS iteration #62 ========================================
- worst case average CPI: 0.854
- worst case efficiency: 0.664
- efficiency to beat: 0.664
- normalized lower bound 1155
--- checking solution
--- solution ok! Maximum rounding error: 0.000081
- solution found, obj var is: 1167
- de-normalized obj var: 0.670020
- time (local/global): 0.003/2.992
- branches (local/global): 7093/201684
- fails (local/global): 3403/96214
- lns time: 0.110000
- lns branches: 7093
- lns fails: 3403
LNS iteration #63 ========================================
- worst case average CPI: 0.854
- worst case efficiency: 0.665
- efficiency to beat: 0.665
- normalized lower bound 1175
--- checking solution
--- solution ok! Maximum rounding error: 0.000075
- solution found, obj var is: 1194
- de-normalized obj var: 0.671640
- time (local/global): 0.002/3.101
- branches (local/global): 4595/206279
- fails (local/global): 2186/98400
- lns time: 0.071000
- lns branches: 4595
- lns fails: 2186
LNS iteration #64 ========================================
- worst case average CPI: 0.854
- worst case efficiency: 0.666
- efficiency to beat: 0.666
- normalized lower bound 1191
--- checking solution
--- solution ok! Maximum rounding error: 0.000243
- solution found, obj var is: 1298
- de-normalized obj var: 0.677880
- time (local/global): 0.003/3.173
- branches (local/global): 1306/207585
- fails (local/global): 602/99002
- lns time: 0.024000
- lns branches: 1306
- lns fails: 602
LNS iteration #65 ========================================
- worst case average CPI: 0.672
- worst case efficiency: 0.667
- efficiency to beat: 0.667
- normalized lower bound 1195
--- checking solution
--- solution ok! Maximum rounding error: 0.000062
- solution found, obj var is: 1378
- de-normalized obj var: 0.682680
- time (local/global): 0.002/3.196
- branches (local/global): 17828/225413
- fails (local/global): 8604/107606
- lns time: 0.243000
- lns branches: 17828
- lns fails: 8604
LNS iteration #66 ========================================
- worst case average CPI: 0.672
- worst case efficiency: 0.667
- efficiency to beat: 0.667
- normalized lower bound 1197
--- checking solution
--- solution ok! Maximum rounding error: 0.000017
- solution found, obj var is: 1217
- de-normalized obj var: 0.673020
- time (local/global): 0.002/3.439
- branches (local/global): 10880/236293
- fails (local/global): 5212/112818
- lns time: 0.167000
- lns branches: 10880
- lns fails: 5212
LNS iteration #67 ========================================
- worst case average CPI: 0.672
- worst case efficiency: 0.667
- efficiency to beat: 0.667
- normalized lower bound 1202
--- checking solution
--- solution ok! Maximum rounding error: 0.000000
- solution found, obj var is: 1250
- de-normalized obj var: 0.675000
- time (local/global): 0.002/3.606
- branches (local/global): 19351/255644
- fails (local/global): 9350/122168
- lns time: 0.258000
- lns branches: 19351
- lns fails: 9350
LNS iteration #68 ========================================
- worst case average CPI: 0.672
- worst case efficiency: 0.667
- efficiency to beat: 0.667
- normalized lower bound 1201
--- checking solution
--- solution ok! Maximum rounding error: 0.000048
- solution found, obj var is: 1217
- de-normalized obj var: 0.673020
- time (local/global): 0.002/3.864
- branches (local/global): 33693/289337
- fails (local/global): 16329/138497
- lns time: 0.517000
- lns branches: 33693
- lns fails: 16329
LNS iteration #69 ========================================
- worst case average CPI: 0.672
- worst case efficiency: 0.667
- efficiency to beat: 0.667
- normalized lower bound 1206
--- checking solution
--- solution ok! Maximum rounding error: 0.000083
- solution found, obj var is: 1207
- de-normalized obj var: 0.672420
- time (local/global): 0.002/4.381
- branches (local/global): 26/289363
- fails (local/global): 2/138499
- lns time: 0.006000
- lns branches: 26
- lns fails: 2
LNS iteration #70 ========================================
- worst case average CPI: 0.672
- worst case efficiency: 0.668
- efficiency to beat: 0.668
- normalized lower bound 1210
- lns time: 3.005000
- lns branches: 270921
- lns fails: 133699
LNS iteration #71 ========================================
- worst case average CPI: 0.672
- worst case efficiency: 0.668
- efficiency to beat: 0.668
- normalized lower bound 1210
--- checking solution
--- solution ok! Maximum rounding error: 0.000024
- solution found, obj var is: 1288
- de-normalized obj var: 0.677280
- time (local/global): 0.002/7.392
- branches (local/global): 1792/562076
- fails (local/global): 837/273035
- lns time: 0.028000
- lns branches: 1792
- lns fails: 837
LNS iteration #72 ========================================
- worst case average CPI: 0.672
- worst case efficiency: 0.670
- efficiency to beat: 0.670
- normalized lower bound 1245
- lns time: 3.005000
- lns branches: 229704
- lns fails: 112668
LNS iteration #73 ========================================
- worst case average CPI: 0.672
- worst case efficiency: 0.670
- efficiency to beat: 0.670
- normalized lower bound 1245
--- checking solution
--- solution ok! Maximum rounding error: 0.000010
- solution found, obj var is: 1255
- de-normalized obj var: 0.675300
- time (local/global): 0.002/10.425
- branches (local/global): 469/792249
- fails (local/global): 209/385912
- lns time: 0.012000
- lns branches: 469
- lns fails: 209
LNS iteration #74 ========================================
- worst case average CPI: 0.672
- worst case efficiency: 0.670
- efficiency to beat: 0.670
- normalized lower bound 1248
--- checking solution
--- solution ok! Maximum rounding error: 0.000033
- solution found, obj var is: 1281
- de-normalized obj var: 0.676860
- time (local/global): 0.003/10.438
- branches (local/global): 1304/793553
- fails (local/global): 600/386512
- lns time: 0.020000
- lns branches: 1304
- lns fails: 600
LNS iteration #75 ========================================
- worst case average CPI: 0.672
- worst case efficiency: 0.670
- efficiency to beat: 0.670
- normalized lower bound 1253
--- checking solution
--- solution ok! Maximum rounding error: 0.000024
- solution found, obj var is: 1288
- de-normalized obj var: 0.677280
- time (local/global): 0.002/10.457
- branches (local/global): 3637/797190
- fails (local/global): 1722/388234
- lns time: 0.053000
- lns branches: 3637
- lns fails: 1722
LNS iteration #76 ========================================
- worst case average CPI: 0.672
- worst case efficiency: 0.672
- efficiency to beat: 0.672
- normalized lower bound 1280
--- checking solution
--- solution ok! Maximum rounding error: 0.000064
- solution found, obj var is: 1299
- de-normalized obj var: 0.677940
- time (local/global): 0.003/10.511
- branches (local/global): 13076/810266
- fails (local/global): 6306/394540
- lns time: 0.186000
- lns branches: 13076
- lns fails: 6306
LNS iteration #77 ========================================
- worst case average CPI: 0.708
- worst case efficiency: 0.672
- efficiency to beat: 0.672
- normalized lower bound 1283
--- checking solution
--- solution ok! Maximum rounding error: 0.000035
- solution found, obj var is: 1287
- de-normalized obj var: 0.677220
- time (local/global): 0.003/10.697
- branches (local/global): 8837/819103
- fails (local/global): 4251/398791
- lns time: 0.144000
- lns branches: 8837
- lns fails: 4251
LNS iteration #78 ========================================
- worst case average CPI: 0.708
- worst case efficiency: 0.672
- efficiency to beat: 0.672
- normalized lower bound 1286
--- checking solution
--- solution ok! Maximum rounding error: 0.000160
- solution found, obj var is: 1289
- de-normalized obj var: 0.677340
- time (local/global): 0.002/10.840
- branches (local/global): 409/819512
- fails (local/global): 187/398978
- lns time: 0.012000
- lns branches: 409
- lns fails: 187
LNS iteration #79 ========================================
- worst case average CPI: 0.708
- worst case efficiency: 0.673
- efficiency to beat: 0.673
- normalized lower bound 1295
--- checking solution
--- solution ok! Maximum rounding error: 0.000074
- solution found, obj var is: 1332
- de-normalized obj var: 0.679920
- time (local/global): 0.003/10.853
- branches (local/global): 9640/829152
- fails (local/global): 4620/403598
- lns time: 0.132000
- lns branches: 9640
- lns fails: 4620
LNS iteration #80 ========================================
- worst case average CPI: 0.708
- worst case efficiency: 0.673
- efficiency to beat: 0.673
- normalized lower bound 1301
- lns time: 3.005000
- lns branches: 287757
- lns fails: 140733
LNS iteration #81 ========================================
- worst case average CPI: 0.708
- worst case efficiency: 0.673
- efficiency to beat: 0.673
- normalized lower bound 1301
--- checking solution
--- solution ok! Maximum rounding error: 0.000118
- solution found, obj var is: 1363
- de-normalized obj var: 0.681780
- time (local/global): 0.003/13.990
- branches (local/global): 17002/1133911
- fails (local/global): 8205/552536
- lns time: 0.171000
- lns branches: 17002
- lns fails: 8205
LNS iteration #82 ========================================
- worst case average CPI: 0.927
- worst case efficiency: 0.673
- efficiency to beat: 0.673
- normalized lower bound 1302
--- checking solution
--- solution ok! Maximum rounding error: 0.000349
- solution found, obj var is: 1418
- de-normalized obj var: 0.685080
- time (local/global): 0.002/14.160
- branches (local/global): 2714/1136625
- fails (local/global): 1292/553828
- lns time: 0.035000
- lns branches: 2714
- lns fails: 1292
LNS iteration #83 ========================================
- worst case average CPI: 0.836
- worst case efficiency: 0.674
- efficiency to beat: 0.674
- normalized lower bound 1320
--- checking solution
--- solution ok! Maximum rounding error: 0.000034
- solution found, obj var is: 1321
- de-normalized obj var: 0.679260
- time (local/global): 0.002/14.195
- branches (local/global): 111416/1248041
- fails (local/global): 54415/608243
- lns time: 1.549000
- lns branches: 111416
- lns fails: 54415
LNS iteration #84 ========================================
- worst case average CPI: 0.836
- worst case efficiency: 0.675
- efficiency to beat: 0.675
- normalized lower bound 1333
--- checking solution
--- solution ok! Maximum rounding error: 0.000054
- solution found, obj var is: 1337
- de-normalized obj var: 0.680220
- time (local/global): 0.003/15.745
- branches (local/global): 98347/1346388
- fails (local/global): 48067/656310
- lns time: 1.367000
- lns branches: 98347
- lns fails: 48067
LNS iteration #85 ========================================
- worst case average CPI: 0.836
- worst case efficiency: 0.675
- efficiency to beat: 0.675
- normalized lower bound 1338
- lns time: 3.005000
- lns branches: 234808
- lns fails: 115157
LNS iteration #86 ========================================
- worst case average CPI: 0.836
- worst case efficiency: 0.675
- efficiency to beat: 0.675
- normalized lower bound 1338
--- checking solution
--- solution ok! Maximum rounding error: 0.000060
- solution found, obj var is: 1362
- de-normalized obj var: 0.681720
- time (local/global): 0.002/20.116
- branches (local/global): 1309/1582505
- fails (local/global): 602/772069
- lns time: 0.025000
- lns branches: 1309
- lns fails: 602
LNS iteration #87 ========================================
- worst case average CPI: 0.836
- worst case efficiency: 0.677
- efficiency to beat: 0.677
- normalized lower bound 1360
--- checking solution
--- solution ok! Maximum rounding error: 0.000036
- solution found, obj var is: 1363
- de-normalized obj var: 0.681780
- time (local/global): 0.003/20.142
- branches (local/global): 24892/1607397
- fails (local/global): 12014/784083
- lns time: 0.308000
- lns branches: 24892
- lns fails: 12014
LNS iteration #88 ========================================
- worst case average CPI: 0.836
- worst case efficiency: 0.677
- efficiency to beat: 0.677
- normalized lower bound 1365
--- checking solution
--- solution ok! Maximum rounding error: 0.000036
- solution found, obj var is: 1432
- de-normalized obj var: 0.685920
- time (local/global): 0.002/20.449
- branches (local/global): 59411/1666808
- fails (local/global): 28920/813003
- lns time: 0.950000
- lns branches: 59411
- lns fails: 28920
LNS iteration #89 ========================================
- worst case average CPI: 0.836
- worst case efficiency: 0.677
- efficiency to beat: 0.677
- normalized lower bound 1366
--- checking solution
--- solution ok! Maximum rounding error: 0.000081
- solution found, obj var is: 1435
- de-normalized obj var: 0.686100
- time (local/global): 0.002/21.399
- branches (local/global): 23241/1690049
- fails (local/global): 11244/824247
- lns time: 0.316000
- lns branches: 23241
- lns fails: 11244
LNS iteration #90 ========================================
- worst case average CPI: 0.836
- worst case efficiency: 0.677
- efficiency to beat: 0.677
- normalized lower bound 1373
--- checking solution
--- solution ok! Maximum rounding error: 0.000017
- solution found, obj var is: 1382
- de-normalized obj var: 0.682920
- time (local/global): 0.001/21.714
- branches (local/global): 434/1690483
- fails (local/global): 201/824448
- lns time: 0.011000
- lns branches: 434
- lns fails: 201
LNS iteration #91 ========================================
- worst case average CPI: 0.836
- worst case efficiency: 0.677
- efficiency to beat: 0.677
- normalized lower bound 1375
--- checking solution
--- solution ok! Maximum rounding error: 0.000017
- solution found, obj var is: 1377
- de-normalized obj var: 0.682620
- time (local/global): 0.002/21.726
- branches (local/global): 3602/1694085
- fails (local/global): 1701/826149
- lns time: 0.051000
- lns branches: 3602
- lns fails: 1701
LNS iteration #92 ========================================
- worst case average CPI: 0.836
- worst case efficiency: 0.678
- efficiency to beat: 0.678
- normalized lower bound 1379
--- checking solution
--- solution ok! Maximum rounding error: 0.000039
- solution found, obj var is: 1398
- de-normalized obj var: 0.683880
- time (local/global): 0.003/21.778
- branches (local/global): 43194/1737279
- fails (local/global): 21006/847155
- lns time: 0.626000
- lns branches: 43194
- lns fails: 21006
LNS iteration #93 ========================================
- worst case average CPI: 0.836
- worst case efficiency: 0.678
- efficiency to beat: 0.678
- normalized lower bound 1381
- lns time: 3.005000
- lns branches: 235007
- lns fails: 115188
LNS iteration #94 ========================================
- worst case average CPI: 0.836
- worst case efficiency: 0.678
- efficiency to beat: 0.678
- normalized lower bound 1381
- lns time: 3.005000
- lns branches: 212961
- lns fails: 104467
LNS iteration #95 ========================================
- worst case average CPI: 0.836
- worst case efficiency: 0.678
- efficiency to beat: 0.678
- normalized lower bound 1381
--- checking solution
--- solution ok! Maximum rounding error: 0.000214
- solution found, obj var is: 1386
- de-normalized obj var: 0.683160
- time (local/global): 0.001/28.412
- branches (local/global): 36961/2222208
- fails (local/global): 18189/1084999
- lns time: 0.495000
- lns branches: 36961
- lns fails: 18189
LNS iteration #96 ========================================
- worst case average CPI: 0.836
- worst case efficiency: 0.679
- efficiency to beat: 0.679
- normalized lower bound 1395
--- checking solution
--- solution ok! Maximum rounding error: 0.000081
- solution found, obj var is: 1400
- de-normalized obj var: 0.684000
- time (local/global): 0.003/28.909
- branches (local/global): 67311/2289519
- fails (local/global): 32801/1117800
- lns time: 0.971000
- lns branches: 67311
- lns fails: 32801
LNS iteration #97 ========================================
- worst case average CPI: 0.836
- worst case efficiency: 0.679
- efficiency to beat: 0.679
- normalized lower bound 1405
--- checking solution
--- solution ok! Maximum rounding error: 0.000446
- solution found, obj var is: 1443
- de-normalized obj var: 0.686580
- time (local/global): 0.002/29.879
- branches (local/global): 5756/2295275
- fails (local/global): 2758/1120558
- lns time: 0.081000
- lns branches: 5756
- lns fails: 2758
LNS iteration #98 ========================================
- worst case average CPI: 0.836
- worst case efficiency: 0.679
- efficiency to beat: 0.679
- normalized lower bound 1405
--- checking solution
--- solution ok! Maximum rounding error: 0.000071
- solution found, obj var is: 1482
- de-normalized obj var: 0.688920
- time (local/global): 0.003/29.961
- branches (local/global): 66845/2362120
- fails (local/global): 32447/1153005
- lns time: 1.003000
- lns branches: 66845
- lns fails: 32447
LNS iteration #99 ========================================
- worst case average CPI: 0.836
- worst case efficiency: 0.680
- efficiency to beat: 0.680
- normalized lower bound 1409
--- checking solution
--- solution ok! Maximum rounding error: 0.000079
- solution found, obj var is: 1411
- de-normalized obj var: 0.684660
- time (local/global): 0.001/30.962
- branches (local/global): 3088/2365208
- fails (local/global): 1489/1154494
- lns time: 0.034000
- lns branches: 3088
- lns fails: 1489
LNS iteration #100 ========================================
- worst case average CPI: 0.836
- worst case efficiency: 0.680
- efficiency to beat: 0.680
- normalized lower bound 1410
--- checking solution
--- solution ok! Maximum rounding error: 0.000021
- solution found, obj var is: 1412
- de-normalized obj var: 0.684720
- time (local/global): 0.002/30.997
- branches (local/global): 241/2365449
- fails (local/global): 101/1154595
- lns time: 0.009000
- lns branches: 241
- lns fails: 101
LNS iteration #101 ========================================
- worst case average CPI: 0.836
- worst case efficiency: 0.680
- efficiency to beat: 0.680
- normalized lower bound 1422
--- checking solution
--- solution ok! Maximum rounding error: 0.000003
- solution found, obj var is: 1424
- de-normalized obj var: 0.685440
- time (local/global): 0.002/31.006
- branches (local/global): 3670/2369119
- fails (local/global): 1733/1156328
- lns time: 0.057000
- lns branches: 3670
- lns fails: 1733
LNS iteration #102 ========================================
- worst case average CPI: 0.836
- worst case efficiency: 0.682
- efficiency to beat: 0.682
- normalized lower bound 1450
--- checking solution
--- solution ok! Maximum rounding error: 0.000052
- solution found, obj var is: 1453
- de-normalized obj var: 0.687180
- time (local/global): 0.003/31.064
- branches (local/global): 11705/2380824
- fails (local/global): 5600/1161928
- lns time: 0.124000
- lns branches: 11705
- lns fails: 5600
LNS iteration #103 ========================================
- worst case average CPI: 0.557
- worst case efficiency: 0.683
- efficiency to beat: 0.683
- normalized lower bound 1461
--- checking solution
--- solution ok! Maximum rounding error: 0.000156
- solution found, obj var is: 1492
- de-normalized obj var: 0.689520
- time (local/global): 0.003/31.188
- branches (local/global): 23874/2404698
- fails (local/global): 11553/1173481
- lns time: 0.349000
- lns branches: 23874
- lns fails: 11553
LNS iteration #104 ========================================
- worst case average CPI: 0.557
- worst case efficiency: 0.683
- efficiency to beat: 0.683
- normalized lower bound 1467
--- checking solution
--- solution ok! Maximum rounding error: 0.000272
- solution found, obj var is: 1574
- de-normalized obj var: 0.694440
- time (local/global): 0.003/31.537
- branches (local/global): 103569/2508267
- fails (local/global): 50547/1224028
- lns time: 1.367000
- lns branches: 103569
- lns fails: 50547
LNS iteration #105 ========================================
- worst case average CPI: 0.557
- worst case efficiency: 0.683
- efficiency to beat: 0.683
- normalized lower bound 1468
- lns time: 3.005000
- lns branches: 203464
- lns fails: 99712
LNS iteration #106 ========================================
- worst case average CPI: 0.557
- worst case efficiency: 0.683
- efficiency to beat: 0.683
- normalized lower bound 1468
--- checking solution
--- solution ok! Maximum rounding error: 0.000016
- solution found, obj var is: 1480
- de-normalized obj var: 0.688800
- time (local/global): 0.003/35.909
- branches (local/global): 38568/2750299
- fails (local/global): 18787/1342527
- lns time: 0.506000
- lns branches: 38568
- lns fails: 18787
LNS iteration #107 ========================================
- worst case average CPI: 0.557
- worst case efficiency: 0.683
- efficiency to beat: 0.683
- normalized lower bound 1471
- lns time: 3.005000
- lns branches: 247712
- lns fails: 121476
LNS iteration #108 ========================================
- worst case average CPI: 0.557
- worst case efficiency: 0.683
- efficiency to beat: 0.683
- normalized lower bound 1471
--- checking solution
--- solution ok! Maximum rounding error: 0.000020
- solution found, obj var is: 1474
- de-normalized obj var: 0.688440
- time (local/global): 0.002/39.419
- branches (local/global): 21286/3019297
- fails (local/global): 10279/1474282
- lns time: 0.301000
- lns branches: 21286
- lns fails: 10279
LNS iteration #109 ========================================
- worst case average CPI: 0.557
- worst case efficiency: 0.683
- efficiency to beat: 0.683
- normalized lower bound 1474
--- checking solution
--- solution ok! Maximum rounding error: 0.000026
- solution found, obj var is: 1483
- de-normalized obj var: 0.688980
- time (local/global): 0.002/39.720
- branches (local/global): 56308/3075605
- fails (local/global): 27393/1501675
- lns time: 0.745000
- lns branches: 56308
- lns fails: 27393
LNS iteration #110 ========================================
- worst case average CPI: 0.557
- worst case efficiency: 0.685
- efficiency to beat: 0.685
- normalized lower bound 1492
- lns time: 3.005000
- lns branches: 215451
- lns fails: 105646
LNS iteration #111 ========================================
- worst case average CPI: 0.557
- worst case efficiency: 0.685
- efficiency to beat: 0.685
- normalized lower bound 1492
--- checking solution
--- solution ok! Maximum rounding error: 0.000056
- solution found, obj var is: 1516
- de-normalized obj var: 0.690960
- time (local/global): 0.002/43.470
- branches (local/global): 403/3291459
- fails (local/global): 183/1607504
- lns time: 0.016000
- lns branches: 403
- lns fails: 183
LNS iteration #112 ========================================
- worst case average CPI: 0.557
- worst case efficiency: 0.685
- efficiency to beat: 0.685
- normalized lower bound 1501
--- checking solution
--- solution ok! Maximum rounding error: 0.000024
- solution found, obj var is: 1517
- de-normalized obj var: 0.691020
- time (local/global): 0.002/43.486
- branches (local/global): 17709/3309168
- fails (local/global): 8571/1616075
- lns time: 0.249000
- lns branches: 17709
- lns fails: 8571
LNS iteration #113 ========================================
- worst case average CPI: 0.557
- worst case efficiency: 0.685
- efficiency to beat: 0.685
- normalized lower bound 1501
--- checking solution
--- solution ok! Maximum rounding error: 0.000060
- solution found, obj var is: 1612
- de-normalized obj var: 0.696720
- time (local/global): 0.000/43.733
- branches (local/global): 23626/3332794
- fails (local/global): 11405/1627480
- lns time: 0.283000
- lns branches: 23626
- lns fails: 11405
LNS iteration #114 ========================================
- worst case average CPI: 0.557
- worst case efficiency: 0.685
- efficiency to beat: 0.685
- normalized lower bound 1506
- lns time: 3.005000
- lns branches: 224618
- lns fails: 110367
LNS iteration #115 ========================================
- worst case average CPI: 0.557
- worst case efficiency: 0.685
- efficiency to beat: 0.685
- normalized lower bound 1506
- lns time: 3.005000
- lns branches: 186719
- lns fails: 91613
LNS iteration #116 ========================================
- worst case average CPI: 0.557
- worst case efficiency: 0.685
- efficiency to beat: 0.685
- normalized lower bound 1506
- lns time: 3.006000
- lns branches: 246602
- lns fails: 120959
LNS iteration #117 ========================================
- worst case average CPI: 0.557
- worst case efficiency: 0.685
- efficiency to beat: 0.685
- normalized lower bound 1506
--- checking solution
--- solution ok! Maximum rounding error: 0.000074
- solution found, obj var is: 1523
- de-normalized obj var: 0.691380
- time (local/global): 0.002/53.034
- branches (local/global): 135169/4125902
- fails (local/global): 66073/2016492
- lns time: 2.163000
- lns branches: 135169
- lns fails: 66073
LNS iteration #118 ========================================
- worst case average CPI: 0.557
- worst case efficiency: 0.686
- efficiency to beat: 0.686
- normalized lower bound 1519
- lns time: 3.005000
- lns branches: 204949
- lns fails: 100668
LNS iteration #119 ========================================
- worst case average CPI: 0.557
- worst case efficiency: 0.686
- efficiency to beat: 0.686
- normalized lower bound 1519
- lns time: 3.010000
- lns branches: 311583
- lns fails: 152443
LNS iteration #120 ========================================
- worst case average CPI: 0.557
- worst case efficiency: 0.686
- efficiency to beat: 0.686
- normalized lower bound 1519
--- checking solution
XXX Rounding error: 13
--- solution ok! Maximum rounding error: 0.000694
- solution found, obj var is: 1543
- de-normalized obj var: 0.692580
- time (local/global): 0.003/61.213
- branches (local/global): 65890/4708324
- fails (local/global): 32000/2301603
- lns time: 0.822000
- lns branches: 65890
- lns fails: 32000
LNS iteration #121 ========================================
- worst case average CPI: 0.557
- worst case efficiency: 0.686
- efficiency to beat: 0.686
- normalized lower bound 1522
--- checking solution
--- solution ok! Maximum rounding error: 0.000045
- solution found, obj var is: 1522
- de-normalized obj var: 0.691320
- time (local/global): 0.002/62.034
- branches (local/global): 9270/4717594
- fails (local/global): 4455/2306058
- lns time: 0.127000
- lns branches: 9270
- lns fails: 4455
LNS iteration #122 ========================================
- worst case average CPI: 0.557
- worst case efficiency: 0.687
- efficiency to beat: 0.687
- normalized lower bound 1533
--- checking solution
--- solution ok! Maximum rounding error: 0.000027
- solution found, obj var is: 1536
- de-normalized obj var: 0.692160
- time (local/global): 0.003/62.162
- branches (local/global): 13988/4731582
- fails (local/global): 6755/2312813
- lns time: 0.187000
- lns branches: 13988
- lns fails: 6755
LNS iteration #123 ========================================
- worst case average CPI: 0.557
- worst case efficiency: 0.687
- efficiency to beat: 0.687
- normalized lower bound 1542
- lns time: 3.005000
- lns branches: 180152
- lns fails: 88138
LNS iteration #124 ========================================
- worst case average CPI: 0.557
- worst case efficiency: 0.687
- efficiency to beat: 0.687
- normalized lower bound 1542
--- checking solution
--- solution ok! Maximum rounding error: 0.000060
- solution found, obj var is: 1564
- de-normalized obj var: 0.693840
- time (local/global): 0.002/65.353
- branches (local/global): 40016/4951750
- fails (local/global): 19544/2420495
- lns time: 0.499000
- lns branches: 40016
- lns fails: 19544
LNS iteration #125 ========================================
- worst case average CPI: 0.557
- worst case efficiency: 0.688
- efficiency to beat: 0.688
- normalized lower bound 1551
--- checking solution
--- solution ok! Maximum rounding error: 0.000117
- solution found, obj var is: 1557
- de-normalized obj var: 0.693420
- time (local/global): 0.002/65.852
- branches (local/global): 52737/5004487
- fails (local/global): 25661/2446156
- lns time: 0.752000
- lns branches: 52737
- lns fails: 25661
LNS iteration #126 ========================================
- worst case average CPI: 0.557
- worst case efficiency: 0.688
- efficiency to beat: 0.688
- normalized lower bound 1552
--- checking solution
--- solution ok! Maximum rounding error: 0.000071
- solution found, obj var is: 1564
- de-normalized obj var: 0.693840
- time (local/global): 0.003/66.605
- branches (local/global): 6663/5011150
- fails (local/global): 3201/2449357
- lns time: 0.093000
- lns branches: 6663
- lns fails: 3201
LNS iteration #127 ========================================
- worst case average CPI: 0.557
- worst case efficiency: 0.688
- efficiency to beat: 0.688
- normalized lower bound 1557
- lns time: 3.005000
- lns branches: 211735
- lns fails: 103975
LNS iteration #128 ========================================
- worst case average CPI: 0.557
- worst case efficiency: 0.688
- efficiency to beat: 0.688
- normalized lower bound 1557
- lns time: 3.005000
- lns branches: 177507
- lns fails: 86768
LNS iteration #129 ========================================
- worst case average CPI: 0.557
- worst case efficiency: 0.688
- efficiency to beat: 0.688
- normalized lower bound 1557
- lns time: 3.005000
- lns branches: 250724
- lns fails: 123035
LNS iteration #130 ========================================
- worst case average CPI: 0.557
- worst case efficiency: 0.688
- efficiency to beat: 0.688
- normalized lower bound 1557
- lns time: 3.005000
- lns branches: 249673
- lns fails: 122359
LNS iteration #131 ========================================
- worst case average CPI: 0.557
- worst case efficiency: 0.688
- efficiency to beat: 0.688
- normalized lower bound 1557
- lns time: 3.005000
- lns branches: 241559
- lns fails: 118347
LNS iteration #132 ========================================
- worst case average CPI: 0.557
- worst case efficiency: 0.688
- efficiency to beat: 0.688
- normalized lower bound 1557
--- checking solution
--- solution ok! Maximum rounding error: 0.000120
- solution found, obj var is: 1558
- de-normalized obj var: 0.693480
- time (local/global): -0.001/81.719
- branches (local/global): 108593/6250941
- fails (local/global): 53142/3056983
- lns time: 1.622000
- lns branches: 108593
- lns fails: 53142
LNS iteration #133 ========================================
- worst case average CPI: 0.557
- worst case efficiency: 0.689
- efficiency to beat: 0.689
- normalized lower bound 1560
--- checking solution
--- solution ok! Maximum rounding error: 0.000312
- solution found, obj var is: 1563
- de-normalized obj var: 0.693780
- time (local/global): 0.002/83.344
- branches (local/global): 92435/6343376
- fails (local/global): 45202/3102185
- lns time: 1.182000
- lns branches: 92435
- lns fails: 45202
LNS iteration #134 ========================================
- worst case average CPI: 0.557
- worst case efficiency: 0.689
- efficiency to beat: 0.689
- normalized lower bound 1575
--- checking solution
--- solution ok! Maximum rounding error: 0.000285
- solution found, obj var is: 1691
- de-normalized obj var: 0.701460
- time (local/global): 0.002/84.526
- branches (local/global): 66460/6409836
- fails (local/global): 32290/3134475
- lns time: 0.897000
- lns branches: 66460
- lns fails: 32290
LNS iteration #135 ========================================
- worst case average CPI: 0.557
- worst case efficiency: 0.690
- efficiency to beat: 0.690
- normalized lower bound 1589
--- checking solution
--- solution ok! Maximum rounding error: 0.000040
- solution found, obj var is: 1600
- de-normalized obj var: 0.696000
- time (local/global): 0.002/85.423
- branches (local/global): 41107/6450943
- fails (local/global): 20018/3154493
- lns time: 0.546000
- lns branches: 41107
- lns fails: 20018
LNS iteration #136 ========================================
- worst case average CPI: 0.557
- worst case efficiency: 0.691
- efficiency to beat: 0.691
- normalized lower bound 1601
--- checking solution
--- solution ok! Maximum rounding error: 0.000160
- solution found, obj var is: 1632
- de-normalized obj var: 0.697920
- time (local/global): 0.002/85.969
- branches (local/global): 463/6451406
- fails (local/global): 204/3154697
- lns time: 0.011000
- lns branches: 463
- lns fails: 204
LNS iteration #137 ========================================
- worst case average CPI: 0.557
- worst case efficiency: 0.691
- efficiency to beat: 0.691
- normalized lower bound 1608
- lns time: 3.005000
- lns branches: 181538
- lns fails: 88886
LNS iteration #138 ========================================
- worst case average CPI: 0.557
- worst case efficiency: 0.691
- efficiency to beat: 0.691
- normalized lower bound 1608
- lns time: 1.022000
- lns branches: 66950
- lns fails: 32610

LNS optimization is over========================================
initial worst case average CPI: 1.908
final worst case average CPI: 0.557
initial worst case efficiency: 0.618
final worst case efficiency: 0.691
number of iterations: 139
total time: 90005.000000
total branches: 6699894
total fails: 3276193

Final Solution: 0->0, 1->10, 2->31, 3->28, 4->43, 5->11, 6->8, 7->31, 8->29, 9->31, 10->44, 11->16, 12->35, 13->21, 14->46, 15->45, 16->41, 17->37, 18->34, 19->35, 20->34, 21->25, 22->14, 23->31, 24->26, 25->8, 26->31, 27->10, 28->33, 29->19, 30->46, 31->15, 32->19, 33->27, 34->4, 35->26, 36->26, 37->0, 38->11, 39->6, 40->17, 41->22, 42->35, 43->16, 44->45, 45->30, 46->5, 47->0, 48->1, 49->25, 50->42, 51->30, 52->33, 53->7, 54->39, 55->16, 56->39, 57->41, 58->43, 59->46, 60->21, 61->16, 62->35, 63->13, 64->11, 65->45, 66->6, 67->41, 68->32, 69->21, 70->26, 71->47, 72->2, 73->30, 74->42, 75->39, 76->7, 77->18, 78->28, 79->24, 80->4, 81->41, 82->15, 83->0, 84->46, 85->4, 86->26, 87->27, 88->22, 89->37, 90->12, 91->1, 92->22, 93->10, 94->30, 95->43, 96->44, 97->11, 98->39, 99->31, 100->2, 101->6, 102->45, 103->42, 104->23, 105->44, 106->43, 107->36, 108->24, 109->43, 110->23, 111->8, 112->14, 113->7, 114->29, 115->34, 116->20, 117->34, 118->24, 119->1, 120->16, 121->38, 122->33, 123->5, 124->24, 125->7, 126->14, 127->13, 128->38, 129->15, 130->1, 131->3, 132->9, 133->25, 134->9, 135->32, 136->36, 137->1, 138->46, 139->19, 140->22, 141->4, 142->41, 143->11, 144->36, 145->22, 146->37, 147->40, 148->40, 149->13, 150->38, 151->39, 152->40, 153->23, 154->41, 155->38, 156->4, 157->30, 158->10, 159->44, 160->12, 161->7, 162->17, 163->5, 164->19, 165->4, 166->40, 167->23, 168->20, 169->18, 170->15, 171->45, 172->0, 173->5, 174->38, 175->19, 176->40, 177->33, 178->6, 179->43, 180->21, 181->26, 182->20, 183->13, 184->22, 185->11, 186->8, 187->15, 188->9, 189->37, 190->33, 191->29, 192->44, 193->9, 194->33, 195->2, 196->36, 197->2, 198->23, 199->14, 200->18, 201->32, 202->8, 203->40, 204->34, 205->32, 206->25, 207->18, 208->5, 209->20, 210->5, 211->3, 212->16, 213->3, 214->36, 215->7, 216->2, 217->25, 218->14, 219->38, 220->3, 221->18, 222->20, 223->3, 224->1, 225->8, 226->28, 227->25, 228->42, 229->37, 230->21, 231->32, 232->32, 233->42, 234->19, 235->2, 236->29, 237->47, 238->13, 239->35, 240->3, 241->47, 242->44, 243->18, 244->47, 245->46, 246->27, 247->28, 248->17, 249->30, 250->6, 251->24, 252->28, 253->10, 254->17, 255->45, 256->0, 257->12, 258->10, 259->27, 260->9, 261->12, 262->35, 263->37, 264->36, 265->42, 266->47, 267->27, 268->13, 269->17, 270->24, 271->20, 272->12, 273->39, 274->23, 275->34, 276->17, 277->29, 278->21, 279->29, 280->28, 281->15, 282->14, 283->47, 284->27, 285->6, 286->12, 287->9

Average CPI map:
	2.31,	1.10,	0.98,	1.00,	0.84,	0.85
	1.55,	2.54,	2.39,	2.41,	2.70,	1.09
	0.81,	2.99,	2.75,	2.54,	2.91,	1.48
	1.09,	2.79,	2.63,	2.55,	2.67,	1.20
	1.12,	2.56,	2.75,	3.28,	2.62,	1.44
	1.30,	2.66,	2.17,	2.42,	2.39,	1.04
	0.56,	2.01,	2.82,	2.53,	2.49,	1.48
	1.56,	2.15,	3.19,	2.04,	2.18,	1.08

Efficiency map:
	0.997,	0.847,	0.905,	0.832,	0.902,	1.003
	0.726,	0.697,	0.728,	0.695,	0.694,	0.839
	0.818,	0.698,	0.694,	0.696,	0.697,	0.770
	0.816,	0.705,	0.694,	0.699,	0.726,	0.941
	0.816,	0.701,	0.704,	0.697,	0.692,	0.788
	0.772,	0.696,	0.693,	0.693,	0.691,	0.816
	0.798,	0.697,	0.694,	0.696,	0.700,	0.815
	0.817,	0.692,	0.745,	0.705,	0.702,	0.794
