LocalSolver 4.0 (MacOS64, build 20131224)
Copyright (C) 2013 Bouygues SA, Aix-Marseille University, CNRS.
All rights reserved (see Terms and Conditions for details).

Load localsolver_res/tawd_ls.lsp...
Run input...
ANNs For the Platform:
4,2,1,6.45294,0.0174524,1.58234,2.29305,2.12057,3.95113,12.7206,-19.3278,5.58789,9.38298,0.00306445,0.00353919,0.795949
4,2,1,3.10684,7.56359,0.502116,0.637049,12.0356,-2.9013,-3.22211,-0.368567,-0.562298,-7.37831,2.38595,1.22203,-0.360292
4,2,1,4.88387,44.8399,1.27345,1.24496,49.1775,-8.83277,-3.12983,-1.00946,11.7,-3.01002,0.132635,0.00372271,0.673996
4,2,1,4.73045,19.3982,0.449241,0.753865,25.7092,17.3605,0.0558085,-8.91516,0.49993,10.3396,4.06312,-0.0136297,-3.24599
4,2,1,-7.16849,-10.0957,-0.518885,-0.00359459,5.93351,5.62684,52.0516,1.48603,1.30274,57.2311,0.250578,0.137157,0.417379
4,2,1,0.412706,-2.89716,0.137754,-2.57826,11.0947,121.374,858.444,-136.26,-14917.8,-1308.92,-3.36558,-0.000403784,4.17997
4,2,1,-8.8269,-0.482244,-0.0820712,-0.0562713,-10.1617,9.78118,-7.01882,-0.428151,-0.0606718,2.56012,-8.54699,-0.509991,-7.23704
4,2,1,2.19881,4.94147,0.541452,0.107587,6.45213,1.0452,0.405805,0.555763,3.64728,1.95727,0.425683,-0.00188273,0.383643
4,2,1,-6.13316,1.92598,-0.0562274,-0.0731719,-4.60606,0.509071,7.79918,0.393802,0.0114563,7.9345,-1.13416,0.310582,-0.637365
4,2,1,1.73462,2.97854,0.276167,0.0859465,3.6912,3.09203,3.25403,0.324282,0.112495,4.06123,0.954718,-0.48836,0.344765
4,2,1,1.57339,3.84603,-3.4467,0.7429,2.75709,2.1802,5.09535,0.482172,0.106131,6.49189,-0.0251827,0.433535,0.393482
4,2,1,4.13514,21.6229,1.1931,0.354612,24.1372,25.5916,0.432728,-12.6725,-0.45345,15.3428,0.194819,-0.0364695,0.647465
4,2,1,-0.728632,5.60079,1.78098,1.8429,-5.74354,-3.26566,-13.0026,-0.907163,-0.31822,-15.3707,-0.427666,-0.224298,0.154329
4,2,1,3.81854,-4.98219,-0.293924,-0.103604,-6.7034,2.28654,4.72568,0.469524,0.115005,6.05901,-0.511241,0.421809,-0.121549
4,2,1,-1.23773,5.98591,0.224555,-0.359337,6.05767,2.3852,3.4706,0.220977,0.179377,4.88772,0.199751,0.432231,0.177791
4,2,1,1.12189,4.09326,0.850801,0.171671,-5.17646,-1.9656,-4.07995,-0.210811,-0.113853,-5.17242,-2.70452,-0.46094,-2.36326
4,2,1,2.08858,4.80174,0.367584,0.109336,6.02292,4.32969,4.35157,0.772172,10.015,-0.96022,0.43933,4.17055e-05,0.365228
4,2,1,1.18806,3.00188,0.124753,0.00191203,3.75084,1.03049,2.7808,0.137818,0.0250058,4.01619,-1.05018,2.49176,-0.635083
4,2,1,3.11788,10.9247,0.699295,0.170953,13.0959,-11.4646,-5.88946,11.0137,8.74787,-11.701,0.236706,0.0216102,0.59131
4,2,1,7.53568,1.94998,-2.27776,-1.91765,0.451708,2.13206,4.27547,0.333162,0.0864645,5.45063,-0.0153486,0.447774,0.366202
4,2,1,-2.12436,-3.29848,-0.0965154,-0.0454545,-3.86293,4.27042,3.64797,0.106703,0.057602,4.81479,-1.28015,-0.815344,0.346524
4,2,1,2.06313,3.99765,-9.94001e-06,0.200591,5.05136,-0.024567,-3.22765,-1.84842,1.73493,-3.87425,0.446216,-0.0350173,0.320411
4,2,1,3.3952,3.19239,0.219932,0.0459907,4.0724,1.85184,2.9352,0.236295,0.0535068,3.62882,-0.516849,0.990723,0.337742
4,2,1,-6.32145,2.68844,0.160066,0.0633176,-3.81442,9.03888,1.31396,0.253255,-0.0684612,6.93971,1.83579,0.440423,2.20116
4,2,1,-4.54148,-0.217309,1.86369,-0.409034,0.0885675,-3.10698,-12.3715,-0.753639,-0.275832,-14.544,0.00344558,-0.233405,0.57337
4,2,1,-0.743367,6.86662,-0.19496,-0.0184317,7.54898,2.69258,3.24789,0.437511,0.121848,4.97423,0.830361,0.39615,-0.417087
4,2,1,2.07654,3.2533,0.103762,0.0837251,4.40922,1.95615,-2.57949,-0.10147,-0.0485499,-3.72005,0.479113,-0.433879,-0.0966803
4,2,1,-0.480501,-0.00331725,1.67452,0.764966,-1.53387,1.99113,3.67475,0.0228188,0.0287235,4.64739,0.15721,0.465135,0.487915
4,2,1,1.11584,-5.79333,-0.212675,0.376981,-6.64888,2.45003,3.54368,0.313683,0.144659,5.05472,-0.777178,0.423599,-0.389995
4,2,1,2.39093,1.70258,-0.183288,-0.314006,4.06496,2.34881,2.91375,-0.0230153,-0.18977,5.26307,-1.33645,1.84807,0.292237
4,2,1,0.88022,3.23795,0.179315,0.0205209,3.57684,0.764441,2.74982,0.156077,0.0273373,3.62313,-0.980719,2.16912,-0.37872
4,2,1,-1.27932,7.09751,-0.0490235,0.455487,7.14709,-2.57722,-4.06233,-0.410784,-0.0433739,-5.6171,0.164894,-0.408714,0.23583
4,2,1,0.623158,5.01876,0.194867,0.0365944,4.99458,-16.0815,2.94826,-1.82463,-1.90388,-9.56395,0.291148,-0.155001,0.360694
4,2,1,1.86251,3.92056,0.158781,0.0575693,4.93436,0.681285,4.09563,1.09826,-3.65606,2.09524,0.482473,-0.00448292,0.322397
4,2,1,3.33939,3.52877,0.262622,0.0607689,4.45842,2.23218,3.37107,0.256541,0.0516206,4.05014,-1.2701,1.7162,0.365737
4,2,1,5.0585,4.68315,2.53887,0.128578,8.9709,3.62833,11.0789,1.32555,0.190392,13.8026,-0.126366,0.350541,0.580103
4,2,1,4.99986,2.75557,1.33036,-0.0119951,6.91685,4.23025,5.34568,1.08928,0.0379928,8.80363,-0.700785,0.958812,0.547325
4,2,1,1.95024,3.24732,0.229322,0.0270089,3.53624,1.62575,3.04977,0.230194,0.0319079,3.46966,-1.34015,1.81817,0.333213
4,2,1,2.11055,5.16581,0.225183,0.0767342,6.2013,3.43647,-3.10756,1.22453,-6.27082,5.92438,0.428242,2.12665,-1.75474
4,2,1,10.028,2.55152,-0.0579427,-0.0186516,-2.98054,2.14055,4.33639,0.203596,0.057269,5.47668,0.0078111,0.436528,0.371941
4,2,1,1.80421,3.45533,0.27065,0.0337725,4.14172,3.00203,3.65885,0.26995,0.0620062,4.37924,0.892686,-0.440136,0.355377
4,2,1,-2.76424,-10.7675,-0.741451,-0.141046,-12.927,13.6995,2.51611,0.90934,27.76,15.1973,-0.260938,-0.00175312,0.546274
4,2,1,2.26659,3.88332,0.083697,0.287373,-5.89957,3.07548,7.5942,0.285535,0.141703,9.90558,1.94369,0.273352,2.47758
4,2,1,5.41472,-1.35343,-0.0808605,2.27411,0.928252,2.55844,6.15687,0.338903,0.0735359,7.47381,-0.0148119,0.388691,0.423615
4,2,1,4.53285,3.66527,0.130055,0.0722232,4.95325,-2.1632,-3.34312,-0.11633,-0.0577237,-3.98867,-0.759785,-1.19124,0.379449
4,2,1,2.36669,5.75119,0.132783,0.0812059,6.8845,-8.68015,-0.488627,0.811521,2.16444,0.277436,0.40839,0.00790296,0.400784
4,2,1,0.583762,8.58805,0.307497,0.0165495,8.61973,-7.32584,1.34397,-0.0108636,-0.0260377,-6.96836,0.266022,-5.2323,-4.69173
4,2,1,1.76683,-0.336959,-0.116305,-0.0696435,-1.62311,2.51027,5.65249,0.180271,0.0657051,7.97995,-0.0500539,0.457869,0.308072
Workload Information:
2.14663, 2.02479, 1.89359, 1.56349, 1.99231, 2.37918, 0.5, 4.64321, 1.29555, 1.27451, 0.801023, 3.48571, 1.35756, 3.13681, 0.76655, 0.763286, 5.37017, 0.605627, 1.09499, 2.0888, 1.19086, 2.56111, 1.47022, 3.59401, 1.56712, 1.58944, 2.31755, 0.5, 3.58996, 2.43593, 1.89979, 0.936165, 2.22034, 0.5, 3.28476, 3.15895, 4.92293, 0.5, 4.26664, 0.508778, 1.24295, 0.558706, 2.64815, 2.42779, 1.58519, 0.5, 2.51151, 2.32736, 3.32874, 0.8588, 0.534399, 0.5, 1.05607, 5.72199, 2.77634, 2.77461, 3.08038, 0.5, 2.05678, 0.811884, 3.26688, 1.27378, 1.832, 3.07964, 1.90006, 0.647648, 0.849818, 0.990724, 5.60396, 1.23613, 0.5, 2.81937, 3.72979, 2.04164, 4.28519, 0.509925, 0.5, 0.93345, 2.17549, 2.1189, 1.1002, 2.26458, 2.17031, 2.17051, 2.63723, 1.88098, 1.55706, 2.17168, 1.49877, 2.25427, 4.09476, 4.32573, 0.574872, 1.85697, 0.5, 0.647675, 1.41266, 1.27221, 4.19606, 0.682956, 3.9361, 0.5, 2.15932, 1.46759, 0.5, 6.62421, 0.558376, 0.690502, 1.80062, 2.75261, 1.9554, 0.5, 2.90371, 2.08765, 3.00162, 0.554264, 3.82433, 1.2409, 2.87889, 0.5, 1.40936, 2.80468, 2.78267, 0.696019, 2.4855, 1.82178, 3.43658, 2.28566, 2.92906, 0.994106, 0.657078, 1.69752, 1.89499, 0.536974, 2.40918, 2.37756, 2.15274, 2.62856, 2.51896, 2.78097, 0.845027, 0.5, 3.8085, 1.54654, 2.19013, 1.40759, 1.98482, 2.56301, 0.5, 3.35446, 2.53123, 2.42754, 2.2653, 2.02679, 1.9065, 0.842644, 3.29139, 0.817321, 1.09268, 3.06666, 3.23194, 0.5, 1.96014, 1.90914, 2.28625, 1.55617, 2.20594, 2.08236, 2.17744, 4.30132, 0.5, 2.25791, 1.56596, 1.19737, 3.73564, 0.5, 1.83581, 0.672723, 1.65961, 3.59621, 1.16247, 4.66821, 0.998559, 0.5, 1.38357, 3.2872, 2.90487, 1.80789, 1.46306, 2.61796, 2.70621, 0.5, 4.39257, 1.50195, 0.71856, 1.59818, 0.679775, 3.10896, 1.37039, 1.96239, 1.71933, 2.35119, 2.15007, 2.44663, 2.30783, 2.20642, 1.84407, 1.91115, 1.74172, 1.98881, 2.4335, 2.75899, 0.640331, 2.37685, 1.71619, 2.07413, 2.13611, 2.43, 2.51474, 2.4831, 0.771626, 1.66443, 2.98348, 2.73313, 0.5, 0.891637, 2.0084, 2.88335, 2.47341, 2.01039, 1.05078, 2.28152, 2.05734, 2.12656, 1.08336, 1.77523, 2.52714, 2.79415, 2.2457, 1.57441, 2.14899, 2.09439, 1.60837, 2.09593, 2.62384, 1.42848, 2.39943, 1.71848, 2.64193, 2.42078, 1.94228, 0.877095, 1.01996, 3.34613, 2.37013, 2.80189, 1.50288, 0.95901, 1.40172, 2.19459, 1.96864, 1.88097, 2.79048, 1.7636, 2.54404, 1.31382, 2.37462, 1.34652, 2.4146, 2.00639, 3.3815, 0.89812, 1.5498, 2.25236, 1.65845, 2.25976, 0.640422, 2.89243, 1.55532, 2.85671, 3.51456, 0.540555, 2.46881, 3.15726, 0.5, 1.40866, 3.10722, 1.35806
cpi min/max: 0.5/6.62421
neighbors of 0: 1 6, number of others: 45
neighbors of 1: 0 2 6 7, number of others: 43
neighbors of 2: 1 3 7 8, number of others: 43
neighbors of 3: 2 4 8 9, number of others: 43
neighbors of 4: 3 5 9 10, number of others: 43
neighbors of 5: 4 10 11, number of others: 44
neighbors of 6: 0 1 7 12, number of others: 43
neighbors of 7: 1 2 6 8 12 13, number of others: 41
neighbors of 8: 2 3 7 9 13 14, number of others: 41
neighbors of 9: 3 4 8 10 14 15, number of others: 41
neighbors of 10: 4 5 9 11 15 16, number of others: 41
neighbors of 11: 5 10 16 17, number of others: 43
neighbors of 12: 6 7 13 18, number of others: 43
neighbors of 13: 7 8 12 14 18 19, number of others: 41
neighbors of 14: 8 9 13 15 19 20, number of others: 41
neighbors of 15: 9 10 14 16 20 21, number of others: 41
neighbors of 16: 10 11 15 17 21 22, number of others: 41
neighbors of 17: 11 16 22 23, number of others: 43
neighbors of 18: 12 13 19 24, number of others: 43
neighbors of 19: 13 14 18 20 24 25, number of others: 41
neighbors of 20: 14 15 19 21 25 26, number of others: 41
neighbors of 21: 15 16 20 22 26 27, number of others: 41
neighbors of 22: 16 17 21 23 27 28, number of others: 41
neighbors of 23: 17 22 28 29, number of others: 43
neighbors of 24: 18 19 25 30, number of others: 43
neighbors of 25: 19 20 24 26 30 31, number of others: 41
neighbors of 26: 20 21 25 27 31 32, number of others: 41
neighbors of 27: 21 22 26 28 32 33, number of others: 41
neighbors of 28: 22 23 27 29 33 34, number of others: 41
neighbors of 29: 23 28 34 35, number of others: 43
neighbors of 30: 24 25 31 36, number of others: 43
neighbors of 31: 25 26 30 32 36 37, number of others: 41
neighbors of 32: 26 27 31 33 37 38, number of others: 41
neighbors of 33: 27 28 32 34 38 39, number of others: 41
neighbors of 34: 28 29 33 35 39 40, number of others: 41
neighbors of 35: 29 34 40 41, number of others: 43
neighbors of 36: 30 31 37 42, number of others: 43
neighbors of 37: 31 32 36 38 42 43, number of others: 41
neighbors of 38: 32 33 37 39 43 44, number of others: 41
neighbors of 39: 33 34 38 40 44 45, number of others: 41
neighbors of 40: 34 35 39 41 45 46, number of others: 41
neighbors of 41: 35 40 46 47, number of others: 43
neighbors of 42: 36 37 43, number of others: 44
neighbors of 43: 37 38 42 44, number of others: 43
neighbors of 44: 38 39 43 45, number of others: 43
neighbors of 45: 39 40 44 46, number of others: 43
neighbors of 46: 40 41 45 47, number of others: 43
neighbors of 47: 41 46, number of others: 45
Run model...
Preprocess model 0% ...Preprocess model 16% ...Preprocess model 32% ...Preprocess model 48% ...Preprocess model 66% ...Preprocess model 84% ...Preprocess model 100% ...
Close model 0% ...Close model 9% ...Close model 18% ...Close model 27% ...Close model 36% ...Close model 45% ...Close model 54% ...Close model 63% ...Close model 72% ...Close model 81% ...Close model 91% ...Close model 100% ...
Run param...
Run solver...
Initialize threads 0% ...Initialize threads 100% ...
Push initial solutions 0% ...Push initial solutions 100% ...

Model: 
  expressions = 44727, operands = 116736
  decisions = 13824, constraints = 336, objectives = 1

Param: 
  time limit = 90 sec, no iteration limit
  seed = 101, nb threads = 1, annealing level = 1

Objectives:
  Obj 0: maximize, no bound

Phases:
  Phase 0: time limit = 90 sec, no iteration limit, optimized objective = 0


Computed bounds:
  Obj 0: upper bound = 0.664123


Phase 0:
[0 sec, 0 itr]: infeas = (336, 336, 576), mov = 0, inf < 0.1%, acc < 0.1%, imp = 0

worst case efficiency: 0.998464
[1 sec, 1484 itr]: infeas = (135, 135, 200), mov = 1484, inf = 84.6%, acc = 14.6%, imp = 77

worst case efficiency: 0.613029
[2 sec, 19937 itr]: obj = (0.0317359), mov = 19937, inf = 95.9%, acc = 3.8%, imp = 193

worst case efficiency: 0.619042
[3 sec, 36752 itr]: obj = (0.0424822), mov = 36752, inf = 97.6%, acc = 2.3%, imp = 239

worst case efficiency: 0.625489
[4 sec, 48547 itr]: obj = (0.0560145), mov = 48547, inf = 98%, acc = 1.9%, imp = 293

worst case efficiency: 0.633609
[5 sec, 57032 itr]: obj = (0.064816), mov = 57032, inf = 98%, acc = 1.8%, imp = 348

worst case efficiency: 0.63889
[6 sec, 64046 itr]: obj = (0.0737274), mov = 64046, inf = 98.1%, acc = 1.7%, imp = 394

worst case efficiency: 0.644236
[7 sec, 70578 itr]: obj = (0.0759966), mov = 70578, inf = 98.2%, acc = 1.6%, imp = 411

worst case efficiency: 0.645598
[8 sec, 77088 itr]: obj = (0.0764958), mov = 77088, inf = 98.3%, acc = 1.5%, imp = 431

worst case efficiency: 0.645897
[9 sec, 83339 itr]: obj = (0.0781495), mov = 83339, inf = 98.3%, acc = 1.4%, imp = 469

worst case efficiency: 0.64689
[10 sec, 89629 itr]: obj = (0.0783497), mov = 89629, inf = 98.4%, acc = 1.4%, imp = 479

worst case efficiency: 0.64701
[11 sec, 95849 itr]: obj = (0.0809293), mov = 95849, inf = 98.5%, acc = 1.3%, imp = 514

worst case efficiency: 0.648558
[12 sec, 102081 itr]: obj = (0.0838218), mov = 102081, inf = 98.5%, acc = 1.3%, imp = 549

worst case efficiency: 0.650293
[13 sec, 108165 itr]: obj = (0.0867219), mov = 108165, inf = 98.5%, acc = 1.3%, imp = 592

worst case efficiency: 0.652033
[14 sec, 114081 itr]: obj = (0.0886974), mov = 114081, inf = 98.6%, acc = 1.2%, imp = 633

worst case efficiency: 0.653218
[15 sec, 120088 itr]: obj = (0.0959762), mov = 120088, inf = 98.6%, acc = 1.2%, imp = 675

worst case efficiency: 0.657586
[16 sec, 125821 itr]: obj = (0.0983202), mov = 125821, inf = 98.6%, acc = 1.2%, imp = 696

worst case efficiency: 0.658992
[17 sec, 131604 itr]: obj = (0.0983202), mov = 131604, inf = 98.7%, acc = 1.2%, imp = 696

worst case efficiency: 0.658992
[18 sec, 137704 itr]: obj = (0.0983202), mov = 137704, inf = 98.7%, acc = 1.1%, imp = 696

worst case efficiency: 0.658992
[19 sec, 144636 itr]: obj = (0.0983202), mov = 144636, inf = 98.8%, acc = 1.1%, imp = 696

worst case efficiency: 0.658992
[20 sec, 152122 itr]: obj = (0.0983202), mov = 152122, inf = 98.8%, acc = 1%, imp = 696

worst case efficiency: 0.658992
[21 sec, 161256 itr]: obj = (0.0989517), mov = 161256, inf = 98.9%, acc = 1%, imp = 709

worst case efficiency: 0.659371
[22 sec, 173368 itr]: obj = (0.104129), mov = 173368, inf = 98.8%, acc = 1%, imp = 749

worst case efficiency: 0.662478
[23 sec, 188207 itr]: obj = (0.106597), mov = 188207, inf = 98.8%, acc = 1%, imp = 771

worst case efficiency: 0.663958
[24 sec, 205613 itr]: obj = (0.108115), mov = 205613, inf = 98.8%, acc = 1%, imp = 798

worst case efficiency: 0.664869
[25 sec, 231651 itr]: obj = (0.110795), mov = 231651, inf = 98.7%, acc = 0.9%, imp = 830

worst case efficiency: 0.666477
[26 sec, 268742 itr]: obj = (0.112459), mov = 268742, inf = 98.8%, acc = 0.9%, imp = 842

worst case efficiency: 0.667476
[27 sec, 311533 itr]: obj = (0.11248), mov = 311533, inf = 98.8%, acc = 0.8%, imp = 843

worst case efficiency: 0.667488
[28 sec, 353322 itr]: obj = (0.112836), mov = 353322, inf = 98.9%, acc = 0.8%, imp = 851

worst case efficiency: 0.667701
[29 sec, 385620 itr]: obj = (0.113119), mov = 385620, inf = 98.8%, acc = 0.8%, imp = 859

worst case efficiency: 0.667871
[30 sec, 426820 itr]: obj = (0.113148), mov = 426820, inf = 98.8%, acc = 0.7%, imp = 860

worst case efficiency: 0.667889
[31 sec, 469805 itr]: obj = (0.113251), mov = 469805, inf = 98.8%, acc = 0.7%, imp = 862

worst case efficiency: 0.667951
[32 sec, 511664 itr]: obj = (0.113443), mov = 511664, inf = 98.8%, acc = 0.7%, imp = 870

worst case efficiency: 0.668066
[33 sec, 554115 itr]: obj = (0.11367), mov = 554115, inf = 98.8%, acc = 0.7%, imp = 879

worst case efficiency: 0.668202
[34 sec, 597684 itr]: obj = (0.113909), mov = 597684, inf = 98.8%, acc = 0.6%, imp = 884

worst case efficiency: 0.668346
[35 sec, 640698 itr]: obj = (0.114177), mov = 640698, inf = 98.8%, acc = 0.6%, imp = 887

worst case efficiency: 0.668506
[36 sec, 683635 itr]: obj = (0.114384), mov = 683635, inf = 98.8%, acc = 0.6%, imp = 891

worst case efficiency: 0.66863
[37 sec, 725887 itr]: obj = (0.115278), mov = 725887, inf = 98.7%, acc = 0.5%, imp = 899

worst case efficiency: 0.669167
[38 sec, 768140 itr]: obj = (0.115317), mov = 768140, inf = 98.7%, acc = 0.5%, imp = 900

worst case efficiency: 0.66919
[39 sec, 808048 itr]: obj = (0.115517), mov = 808048, inf = 98.7%, acc = 0.5%, imp = 904

worst case efficiency: 0.66931
[40 sec, 849781 itr]: obj = (0.115689), mov = 849781, inf = 98.6%, acc = 0.5%, imp = 909

worst case efficiency: 0.669414
[41 sec, 890508 itr]: obj = (0.115718), mov = 890508, inf = 98.6%, acc = 0.5%, imp = 913

worst case efficiency: 0.669431
[42 sec, 931076 itr]: obj = (0.115772), mov = 931076, inf = 98.6%, acc = 0.5%, imp = 915

worst case efficiency: 0.669463
[43 sec, 972368 itr]: obj = (0.115853), mov = 972368, inf = 98.6%, acc = 0.5%, imp = 919

worst case efficiency: 0.669512
[44 sec, 1013503 itr]: obj = (0.116029), mov = 1013503, inf = 98.6%, acc = 0.5%, imp = 926

worst case efficiency: 0.669618
[45 sec, 1053852 itr]: obj = (0.116189), mov = 1053852, inf = 98.6%, acc = 0.5%, imp = 935

worst case efficiency: 0.669713
[46 sec, 1093770 itr]: obj = (0.116373), mov = 1093770, inf = 98.6%, acc = 0.5%, imp = 943

worst case efficiency: 0.669824
[47 sec, 1132318 itr]: obj = (0.116497), mov = 1132318, inf = 98.6%, acc = 0.5%, imp = 950

worst case efficiency: 0.669898
[48 sec, 1171374 itr]: obj = (0.116505), mov = 1171374, inf = 98.5%, acc = 0.5%, imp = 951

worst case efficiency: 0.669903
[49 sec, 1210176 itr]: obj = (0.116505), mov = 1210176, inf = 98.5%, acc = 0.5%, imp = 951

worst case efficiency: 0.669903
[50 sec, 1249101 itr]: obj = (0.116505), mov = 1249101, inf = 98.5%, acc = 0.5%, imp = 951

worst case efficiency: 0.669903
[51 sec, 1277899 itr]: obj = (0.116505), mov = 1277899, inf = 98.5%, acc = 0.5%, imp = 952

worst case efficiency: 0.669903
[52 sec, 1307473 itr]: obj = (0.116505), mov = 1307473, inf = 98.5%, acc = 0.5%, imp = 952

worst case efficiency: 0.669903
[53 sec, 1340810 itr]: obj = (0.116505), mov = 1340810, inf = 98.5%, acc = 0.5%, imp = 952

worst case efficiency: 0.669903
[54 sec, 1378492 itr]: obj = (0.116505), mov = 1378492, inf = 98.5%, acc = 0.5%, imp = 952

worst case efficiency: 0.669903
[55 sec, 1417093 itr]: obj = (0.116505), mov = 1417093, inf = 98.5%, acc = 0.5%, imp = 952

worst case efficiency: 0.669903
[56 sec, 1455437 itr]: obj = (0.116505), mov = 1455437, inf = 98.5%, acc = 0.5%, imp = 952

worst case efficiency: 0.669903
[57 sec, 1494474 itr]: obj = (0.116505), mov = 1494474, inf = 98.5%, acc = 0.5%, imp = 953

worst case efficiency: 0.669903
[58 sec, 1532772 itr]: obj = (0.116505), mov = 1532772, inf = 98.5%, acc = 0.5%, imp = 953

worst case efficiency: 0.669903
[59 sec, 1571279 itr]: obj = (0.116505), mov = 1571279, inf = 98.5%, acc = 0.5%, imp = 953

worst case efficiency: 0.669903
[60 sec, 1609717 itr]: obj = (0.116505), mov = 1609717, inf = 98.5%, acc = 0.5%, imp = 953

worst case efficiency: 0.669903
[61 sec, 1648132 itr]: obj = (0.116505), mov = 1648132, inf = 98.5%, acc = 0.5%, imp = 953

worst case efficiency: 0.669903
[62 sec, 1686537 itr]: obj = (0.116505), mov = 1686537, inf = 98.5%, acc = 0.5%, imp = 953

worst case efficiency: 0.669903
[63 sec, 1724264 itr]: obj = (0.116505), mov = 1724264, inf = 98.5%, acc = 0.5%, imp = 953

worst case efficiency: 0.669903
[64 sec, 1761440 itr]: obj = (0.116505), mov = 1761440, inf = 98.5%, acc = 0.5%, imp = 953

worst case efficiency: 0.669903
[65 sec, 1797555 itr]: obj = (0.116505), mov = 1797555, inf = 98.5%, acc = 0.6%, imp = 953

worst case efficiency: 0.669903
[66 sec, 1829084 itr]: obj = (0.116505), mov = 1829084, inf = 98.5%, acc = 0.6%, imp = 953

worst case efficiency: 0.669903
[67 sec, 1862387 itr]: obj = (0.116505), mov = 1862387, inf = 98.5%, acc = 0.6%, imp = 953

worst case efficiency: 0.669903
[68 sec, 1894507 itr]: obj = (0.116505), mov = 1894507, inf = 98.5%, acc = 0.6%, imp = 953

worst case efficiency: 0.669903
[69 sec, 1930015 itr]: obj = (0.116505), mov = 1930015, inf = 98.5%, acc = 0.6%, imp = 953

worst case efficiency: 0.669903
[70 sec, 1967171 itr]: obj = (0.116505), mov = 1967171, inf = 98.5%, acc = 0.6%, imp = 953

worst case efficiency: 0.669903
[71 sec, 2001832 itr]: obj = (0.116505), mov = 2001832, inf = 98.5%, acc = 0.6%, imp = 953

worst case efficiency: 0.669903
[72 sec, 2037358 itr]: obj = (0.116505), mov = 2037358, inf = 98.5%, acc = 0.6%, imp = 953

worst case efficiency: 0.669903
[73 sec, 2072878 itr]: obj = (0.116505), mov = 2072878, inf = 98.5%, acc = 0.6%, imp = 953

worst case efficiency: 0.669903
[74 sec, 2107158 itr]: obj = (0.116505), mov = 2107158, inf = 98.5%, acc = 0.6%, imp = 953

worst case efficiency: 0.669903
[75 sec, 2143895 itr]: obj = (0.116505), mov = 2143895, inf = 98.5%, acc = 0.6%, imp = 953

worst case efficiency: 0.669903
[76 sec, 2181527 itr]: obj = (0.116505), mov = 2181527, inf = 98.5%, acc = 0.6%, imp = 953

worst case efficiency: 0.669903
[77 sec, 2218563 itr]: obj = (0.116505), mov = 2218563, inf = 98.5%, acc = 0.6%, imp = 953

worst case efficiency: 0.669903
[78 sec, 2255474 itr]: obj = (0.116505), mov = 2255474, inf = 98.5%, acc = 0.6%, imp = 953

worst case efficiency: 0.669903
[79 sec, 2293373 itr]: obj = (0.116505), mov = 2293373, inf = 98.5%, acc = 0.6%, imp = 953

worst case efficiency: 0.669903
[80 sec, 2331336 itr]: obj = (0.116505), mov = 2331336, inf = 98.5%, acc = 0.6%, imp = 953

worst case efficiency: 0.669903
[81 sec, 2368558 itr]: obj = (0.116505), mov = 2368558, inf = 98.5%, acc = 0.6%, imp = 953

worst case efficiency: 0.669903
[82 sec, 2405543 itr]: obj = (0.116505), mov = 2405543, inf = 98.5%, acc = 0.6%, imp = 953

worst case efficiency: 0.669903
[83 sec, 2441774 itr]: obj = (0.116505), mov = 2441774, inf = 98.5%, acc = 0.6%, imp = 953

worst case efficiency: 0.669903
[84 sec, 2478675 itr]: obj = (0.116505), mov = 2478675, inf = 98.5%, acc = 0.6%, imp = 953

worst case efficiency: 0.669903
[85 sec, 2517360 itr]: obj = (0.116505), mov = 2517360, inf = 98.4%, acc = 0.6%, imp = 953

worst case efficiency: 0.669903
[86 sec, 2555063 itr]: obj = (0.116505), mov = 2555063, inf = 98.4%, acc = 0.6%, imp = 953

worst case efficiency: 0.669903
[87 sec, 2592003 itr]: obj = (0.116505), mov = 2592003, inf = 98.4%, acc = 0.6%, imp = 953

worst case efficiency: 0.669903
[88 sec, 2629440 itr]: obj = (0.116505), mov = 2629440, inf = 98.4%, acc = 0.6%, imp = 953

worst case efficiency: 0.669903
[89 sec, 2666140 itr]: obj = (0.116505), mov = 2666140, inf = 98.4%, acc = 0.6%, imp = 953

worst case efficiency: 0.669903
[90 sec, 2695554 itr]: obj = (0.116505), mov = 2695554, inf = 98.4%, acc = 0.6%, imp = 953

worst case efficiency: 0.669903
[90 sec, 2695554 itr]: obj = (0.116505), mov = 2695554, inf = 98.4%, acc = 0.6%, imp = 953

worst case efficiency: 0.669903
2695554 iterations, 2695554 moves performed in 90 seconds
Feasible solution: obj = (0.116505)

Run output...
FINAL SOLUTION
Worst case efficiency: 0.669903
Mapping: 0->3, 1->2, 2->19, 3->23, 4->43, 5->33, 6->2, 7->39, 8->37, 9->12, 10->17, 11->38, 12->11, 13->18, 14->24, 15->45, 16->20, 17->11, 18->6, 19->20, 20->47, 21->37, 22->40, 23->0, 24->30, 25->17, 26->10, 27->18, 28->26, 29->6, 30->7, 31->6, 32->25, 33->42, 34->33, 35->44, 36->38, 37->43, 38->26, 39->3, 40->42, 41->11, 42->10, 43->10, 44->8, 45->46, 46->4, 47->9, 48->18, 49->24, 50->23, 51->29, 52->11, 53->31, 54->16, 55->46, 56->12, 57->35, 58->19, 59->18, 60->44, 61->22, 62->35, 63->46, 64->46, 65->35, 66->24, 67->41, 68->28, 69->0, 70->36, 71->38, 72->8, 73->27, 74->22, 75->36, 76->41, 77->5, 78->22, 79->20, 80->30, 81->32, 82->25, 83->33, 84->23, 85->33, 86->13, 87->34, 88->1, 89->28, 90->26, 91->19, 92->0, 93->36, 94->35, 95->5, 96->43, 97->29, 98->21, 99->47, 100->37, 101->24, 102->20, 103->24, 104->5, 105->15, 106->47, 107->4, 108->16, 109->46, 110->3, 111->42, 112->8, 113->7, 114->27, 115->5, 116->27, 117->30, 118->27, 119->41, 120->40, 121->37, 122->22, 123->35, 124->33, 125->22, 126->22, 127->21, 128->27, 129->0, 130->2, 131->40, 132->31, 133->5, 134->34, 135->25, 136->21, 137->8, 138->45, 139->13, 140->17, 141->23, 142->34, 143->46, 144->1, 145->16, 146->45, 147->14, 148->41, 149->28, 150->33, 151->38, 152->30, 153->29, 154->2, 155->41, 156->44, 157->17, 158->11, 159->14, 160->13, 161->12, 162->47, 163->14, 164->20, 165->32, 166->45, 167->21, 168->28, 169->19, 170->36, 171->34, 172->30, 173->9, 174->4, 175->42, 176->1, 177->41, 178->30, 179->7, 180->45, 181->44, 182->12, 183->12, 184->31, 185->13, 186->20, 187->7, 188->26, 189->8, 190->31, 191->3, 192->38, 193->1, 194->0, 195->3, 196->1, 197->15, 198->2, 199->7, 200->37, 201->13, 202->39, 203->8, 204->10, 205->31, 206->38, 207->32, 208->17, 209->32, 210->9, 211->27, 212->17, 213->5, 214->14, 215->25, 216->29, 217->40, 218->10, 219->4, 220->36, 221->39, 222->21, 223->6, 224->47, 225->6, 226->19, 227->16, 228->26, 229->3, 230->44, 231->14, 232->9, 233->25, 234->47, 235->2, 236->15, 237->39, 238->18, 239->7, 240->43, 241->16, 242->6, 243->34, 244->37, 245->36, 246->43, 247->31, 248->28, 249->15, 250->44, 251->24, 252->4, 253->32, 254->26, 255->42, 256->4, 257->35, 258->13, 259->9, 260->39, 261->12, 262->39, 263->19, 264->15, 265->23, 266->29, 267->34, 268->40, 269->43, 270->21, 271->23, 272->25, 273->16, 274->9, 275->14, 276->29, 277->32, 278->10, 279->28, 280->45, 281->1, 282->11, 283->15, 284->0, 285->40, 286->18, 287->42
Number of tasks per core:
	6	6	6	6	6	6
	6	6	6	6	6	6
	6	6	6	6	6	6
	6	6	6	6	6	6
	6	6	6	6	6	6
	6	6	6	6	6	6
	6	6	6	6	6	6
	6	6	6	6	6	6
Average CPI map:
	1.26961	1.3745	1.37233	1.45323	1.9906	0.924869
	1.6167	2.15472	2.65197	1.9781	2.29523	1.18991
	1.3724	2.43501	2.29938	3.39706	2.20244	1.07248
	2.18839	2.7249	2.82139	2.84697	2.62925	1.24118
	0.886642	2.08645	3.04299	2.90575	3.14813	1.49169
	1.56652	2.60528	2.32655	2.45536	2.34829	0.855779
	0.927834	2.4901	3.31537	2.6685	1.80506	0.667682
	1.15048	1.7433	2.89641	2.025	2.09224	0.995948
Efficiency map:
	0.99722	0.867296	0.906477	0.822961	0.936637	1.00307
	0.754241	0.701786	0.752518	0.67026	0.697386	0.839566
	0.820714	0.669988	0.670312	0.744501	0.670599	0.767126
	0.821445	0.69102	0.715077	0.710574	0.669903	0.921126
	0.814475	0.669984	0.678675	0.714946	0.716663	0.790099
	0.839361	0.676283	0.669903	0.694518	0.674266	0.814614
	0.802675	0.684087	0.725164	0.699167	0.676445	0.801659
	0.809225	0.670701	0.701055	0.669904	0.675908	0.780795
==============================================================================
Local Solver optimizer for EML demonstration
==============================================================================

Option values: --wld-idx 4 --global-tlim 90 --seed 101

Starting the Optimization Process
