==============================================================================
LNS optimizer for EML demonstration
==============================================================================

Option values: --wld-idx 8 --prec 10000 --step 0 --global-tlim 90 --global-iter 1000 --local-tlim 3 --local-nsol 1 --restart-base 100 --restart-strat luby --seed 801

Starting the Optimization Process
reserved_tasks None
Finding a first solution
LNS iteration #0 ========================================
- worst case average CPI: 2.109
- worst case efficiency: 0.631
- efficiency to beat: 0.631
- normalized lower bound 596
--- checking solution
--- solution ok! Maximum rounding error: 0.000039
- solution found, obj var is: 641
- de-normalized obj var: 0.638460
- time (local/global): 0.001/0.001
- branches (local/global): 20/20
- fails (local/global): 0/0
- lns time: 0.007000
- lns branches: 20
- lns fails: 0
LNS iteration #1 ========================================
- worst case average CPI: 1.831
- worst case efficiency: 0.633
- efficiency to beat: 0.633
- normalized lower bound 626
--- checking solution
--- solution ok! Maximum rounding error: 0.000010
- solution found, obj var is: 1238
- de-normalized obj var: 0.674280
- time (local/global): 0.000/0.007
- branches (local/global): 22/42
- fails (local/global): 0/0
- lns time: 0.007000
- lns branches: 22
- lns fails: 0
LNS iteration #2 ========================================
- worst case average CPI: 1.831
- worst case efficiency: 0.637
- efficiency to beat: 0.637
- normalized lower bound 697
--- checking solution
--- solution ok! Maximum rounding error: 0.000064
- solution found, obj var is: 898
- de-normalized obj var: 0.653880
- time (local/global): 0.001/0.015
- branches (local/global): 25/67
- fails (local/global): 1/1
- lns time: 0.007000
- lns branches: 25
- lns fails: 1
LNS iteration #3 ========================================
- worst case average CPI: 1.810
- worst case efficiency: 0.638
- efficiency to beat: 0.638
- normalized lower bound 717
--- checking solution
--- solution ok! Maximum rounding error: 0.000007
- solution found, obj var is: 1043
- de-normalized obj var: 0.662580
- time (local/global): 0.002/0.023
- branches (local/global): 36/103
- fails (local/global): 7/8
- lns time: 0.012000
- lns branches: 36
- lns fails: 7
LNS iteration #4 ========================================
- worst case average CPI: 1.810
- worst case efficiency: 0.643
- efficiency to beat: 0.643
- normalized lower bound 793
--- checking solution
--- solution ok! Maximum rounding error: 0.000127
- solution found, obj var is: 1624
- de-normalized obj var: 0.697440
- time (local/global): 0.001/0.034
- branches (local/global): 22/125
- fails (local/global): 0/8
- lns time: 0.007000
- lns branches: 22
- lns fails: 0
LNS iteration #5 ========================================
- worst case average CPI: 1.656
- worst case efficiency: 0.644
- efficiency to beat: 0.644
- normalized lower bound 821
--- checking solution
--- solution ok! Maximum rounding error: 0.000053
- solution found, obj var is: 841
- de-normalized obj var: 0.650460
- time (local/global): 0.001/0.041
- branches (local/global): 25/150
- fails (local/global): 5/13
- lns time: 0.006000
- lns branches: 25
- lns fails: 5
LNS iteration #6 ========================================
- worst case average CPI: 1.656
- worst case efficiency: 0.644
- efficiency to beat: 0.644
- normalized lower bound 813
--- checking solution
--- solution ok! Maximum rounding error: 0.000024
- solution found, obj var is: 1296
- de-normalized obj var: 0.677760
- time (local/global): 0.000/0.046
- branches (local/global): 29/179
- fails (local/global): 4/17
- lns time: 0.006000
- lns branches: 29
- lns fails: 4
LNS iteration #7 ========================================
- worst case average CPI: 1.656
- worst case efficiency: 0.648
- efficiency to beat: 0.648
- normalized lower bound 881
--- checking solution
--- solution ok! Maximum rounding error: 0.000048
- solution found, obj var is: 1523
- de-normalized obj var: 0.691380
- time (local/global): 0.000/0.052
- branches (local/global): 22/201
- fails (local/global): 0/17
- lns time: 0.006000
- lns branches: 22
- lns fails: 0
LNS iteration #8 ========================================
- worst case average CPI: 1.559
- worst case efficiency: 0.649
- efficiency to beat: 0.649
- normalized lower bound 905
--- checking solution
--- solution ok! Maximum rounding error: 0.000049
- solution found, obj var is: 917
- de-normalized obj var: 0.655020
- time (local/global): 0.014/0.072
- branches (local/global): 730/931
- fails (local/global): 339/356
- lns time: 0.020000
- lns branches: 730
- lns fails: 339
LNS iteration #9 ========================================
- worst case average CPI: 1.559
- worst case efficiency: 0.651
- efficiency to beat: 0.651
- normalized lower bound 929
--- checking solution
--- solution ok! Maximum rounding error: 0.000000
- solution found, obj var is: 1326
- de-normalized obj var: 0.679560
- time (local/global): 0.001/0.079
- branches (local/global): 24/955
- fails (local/global): 1/357
- lns time: 0.009000
- lns branches: 24
- lns fails: 1
LNS iteration #10 ========================================
- worst case average CPI: 1.559
- worst case efficiency: 0.654
- efficiency to beat: 0.654
- normalized lower bound 992
--- checking solution
--- solution ok! Maximum rounding error: 0.000376
- solution found, obj var is: 1032
- de-normalized obj var: 0.661920
- time (local/global): 0.004/0.091
- branches (local/global): 237/1192
- fails (local/global): 100/457
- lns time: 0.010000
- lns branches: 237
- lns fails: 100
LNS iteration #11 ========================================
- worst case average CPI: 1.559
- worst case efficiency: 0.655
- efficiency to beat: 0.655
- normalized lower bound 1009
--- checking solution
--- solution ok! Maximum rounding error: 0.000072
- solution found, obj var is: 1158
- de-normalized obj var: 0.669480
- time (local/global): 0.001/0.098
- branches (local/global): 22/1214
- fails (local/global): 0/457
- lns time: 0.010000
- lns branches: 22
- lns fails: 0
LNS iteration #12 ========================================
- worst case average CPI: 1.559
- worst case efficiency: 0.656
- efficiency to beat: 0.656
- normalized lower bound 1025
--- checking solution
--- solution ok! Maximum rounding error: 0.000061
- solution found, obj var is: 1172
- de-normalized obj var: 0.670320
- time (local/global): 0.000/0.107
- branches (local/global): 21/1235
- fails (local/global): 0/457
- lns time: 0.006000
- lns branches: 21
- lns fails: 0
LNS iteration #13 ========================================
- worst case average CPI: 1.559
- worst case efficiency: 0.658
- efficiency to beat: 0.658
- normalized lower bound 1051
--- checking solution
--- solution ok! Maximum rounding error: 0.000089
- solution found, obj var is: 1304
- de-normalized obj var: 0.678240
- time (local/global): 0.000/0.113
- branches (local/global): 16/1251
- fails (local/global): 0/457
- lns time: 0.006000
- lns branches: 16
- lns fails: 0
LNS iteration #14 ========================================
- worst case average CPI: 1.559
- worst case efficiency: 0.658
- efficiency to beat: 0.658
- normalized lower bound 1055
--- checking solution
--- solution ok! Maximum rounding error: 0.000156
- solution found, obj var is: 1079
- de-normalized obj var: 0.664740
- time (local/global): 0.000/0.119
- branches (local/global): 21/1272
- fails (local/global): 0/457
- lns time: 0.006000
- lns branches: 21
- lns fails: 0
LNS iteration #15 ========================================
- worst case average CPI: 1.559
- worst case efficiency: 0.665
- efficiency to beat: 0.665
- normalized lower bound 1163
--- checking solution
--- solution ok! Maximum rounding error: 0.000031
- solution found, obj var is: 1373
- de-normalized obj var: 0.682380
- time (local/global): 0.001/0.126
- branches (local/global): 21/1293
- fails (local/global): 0/457
- lns time: 0.007000
- lns branches: 21
- lns fails: 0
LNS iteration #16 ========================================
- worst case average CPI: 1.559
- worst case efficiency: 0.670
- efficiency to beat: 0.670
- normalized lower bound 1250
--- checking solution
--- solution ok! Maximum rounding error: 0.000070
- solution found, obj var is: 1407
- de-normalized obj var: 0.684420
- time (local/global): 0.000/0.132
- branches (local/global): 22/1315
- fails (local/global): 0/457
- lns time: 0.006000
- lns branches: 22
- lns fails: 0
LNS iteration #17 ========================================
- worst case average CPI: 1.465
- worst case efficiency: 0.674
- efficiency to beat: 0.674
- normalized lower bound 1324
--- checking solution
--- solution ok! Maximum rounding error: 0.000013
- solution found, obj var is: 1448
- de-normalized obj var: 0.686880
- time (local/global): 0.000/0.138
- branches (local/global): 32/1347
- fails (local/global): 7/464
- lns time: 0.006000
- lns branches: 32
- lns fails: 7
LNS iteration #18 ========================================
- worst case average CPI: 1.465
- worst case efficiency: 0.677
- efficiency to beat: 0.677
- normalized lower bound 1363
--- checking solution
--- solution ok! Maximum rounding error: 0.000059
- solution found, obj var is: 1461
- de-normalized obj var: 0.687660
- time (local/global): 0.053/0.197
- branches (local/global): 3830/5177
- fails (local/global): 1805/2269
- lns time: 0.060000
- lns branches: 3830
- lns fails: 1805
LNS iteration #19 ========================================
- worst case average CPI: 1.465
- worst case efficiency: 0.678
- efficiency to beat: 0.678
- normalized lower bound 1383
--- checking solution
--- solution ok! Maximum rounding error: 0.000065
- solution found, obj var is: 2449
- de-normalized obj var: 0.746940
- time (local/global): 0.000/0.204
- branches (local/global): 27/5204
- fails (local/global): 3/2272
- lns time: 0.006000
- lns branches: 27
- lns fails: 3
LNS iteration #20 ========================================
- worst case average CPI: 1.465
- worst case efficiency: 0.679
- efficiency to beat: 0.679
- normalized lower bound 1401
--- checking solution
--- solution ok! Maximum rounding error: 0.000031
- solution found, obj var is: 1446
- de-normalized obj var: 0.686760
- time (local/global): 0.000/0.210
- branches (local/global): 21/5225
- fails (local/global): 0/2272
- lns time: 0.006000
- lns branches: 21
- lns fails: 0
LNS iteration #21 ========================================
- worst case average CPI: 1.465
- worst case efficiency: 0.679
- efficiency to beat: 0.679
- normalized lower bound 1403
--- checking solution
--- solution ok! Maximum rounding error: 0.000069
- solution found, obj var is: 1472
- de-normalized obj var: 0.688320
- time (local/global): 0.006/0.222
- branches (local/global): 420/5645
- fails (local/global): 193/2465
- lns time: 0.012000
- lns branches: 420
- lns fails: 193
LNS iteration #22 ========================================
- worst case average CPI: 1.465
- worst case efficiency: 0.681
- efficiency to beat: 0.681
- normalized lower bound 1434
--- checking solution
--- solution ok! Maximum rounding error: 0.000016
- solution found, obj var is: 1650
- de-normalized obj var: 0.699000
- time (local/global): 0.005/0.233
- branches (local/global): 246/5891
- fails (local/global): 105/2570
- lns time: 0.011000
- lns branches: 246
- lns fails: 105
LNS iteration #23 ========================================
- worst case average CPI: 1.465
- worst case efficiency: 0.682
- efficiency to beat: 0.682
- normalized lower bound 1453
--- checking solution
--- solution ok! Maximum rounding error: 0.000078
- solution found, obj var is: 3010
- de-normalized obj var: 0.780600
- time (local/global): 0.000/0.239
- branches (local/global): 22/5913
- fails (local/global): 0/2570
- lns time: 0.007000
- lns branches: 22
- lns fails: 0
LNS iteration #24 ========================================
- worst case average CPI: 1.465
- worst case efficiency: 0.683
- efficiency to beat: 0.683
- normalized lower bound 1472
--- checking solution
--- solution ok! Maximum rounding error: 0.000127
- solution found, obj var is: 1475
- de-normalized obj var: 0.688500
- time (local/global): 0.027/0.273
- branches (local/global): 1090/7003
- fails (local/global): 502/3072
- lns time: 0.033000
- lns branches: 1090
- lns fails: 502
LNS iteration #25 ========================================
- worst case average CPI: 1.465
- worst case efficiency: 0.686
- efficiency to beat: 0.686
- normalized lower bound 1516
--- checking solution
--- solution ok! Maximum rounding error: 0.000039
- solution found, obj var is: 1547
- de-normalized obj var: 0.692820
- time (local/global): 0.019/0.298
- branches (local/global): 1262/8265
- fails (local/global): 589/3661
- lns time: 0.025000
- lns branches: 1262
- lns fails: 589
LNS iteration #26 ========================================
- worst case average CPI: 1.465
- worst case efficiency: 0.687
- efficiency to beat: 0.687
- normalized lower bound 1538
--- checking solution
--- solution ok! Maximum rounding error: 0.000000
- solution found, obj var is: 1595
- de-normalized obj var: 0.695700
- time (local/global): 0.012/0.316
- branches (local/global): 902/9167
- fails (local/global): 416/4077
- lns time: 0.018000
- lns branches: 902
- lns fails: 416
LNS iteration #27 ========================================
- worst case average CPI: 1.465
- worst case efficiency: 0.688
- efficiency to beat: 0.688
- normalized lower bound 1543
--- checking solution
--- solution ok! Maximum rounding error: 0.000000
- solution found, obj var is: 1939
- de-normalized obj var: 0.716340
- time (local/global): 0.001/0.323
- branches (local/global): 40/9207
- fails (local/global): 9/4086
- lns time: 0.007000
- lns branches: 40
- lns fails: 9
LNS iteration #28 ========================================
- worst case average CPI: 1.465
- worst case efficiency: 0.689
- efficiency to beat: 0.689
- normalized lower bound 1564
--- checking solution
--- solution ok! Maximum rounding error: 0.000004
- solution found, obj var is: 1570
- de-normalized obj var: 0.694200
- time (local/global): 0.200/0.529
- branches (local/global): 8747/17954
- fails (local/global): 4202/8288
- lns time: 0.208000
- lns branches: 8747
- lns fails: 4202
LNS iteration #29 ========================================
- worst case average CPI: 1.465
- worst case efficiency: 0.689
- efficiency to beat: 0.689
- normalized lower bound 1568
--- checking solution
--- solution ok! Maximum rounding error: 0.000001
- solution found, obj var is: 1880
- de-normalized obj var: 0.712800
- time (local/global): 0.000/0.537
- branches (local/global): 22/17976
- fails (local/global): 0/8288
- lns time: 0.006000
- lns branches: 22
- lns fails: 0
LNS iteration #30 ========================================
- worst case average CPI: 1.465
- worst case efficiency: 0.691
- efficiency to beat: 0.691
- normalized lower bound 1599
--- checking solution
--- solution ok! Maximum rounding error: 0.000059
- solution found, obj var is: 1629
- de-normalized obj var: 0.697740
- time (local/global): 0.001/0.544
- branches (local/global): 72/18048
- fails (local/global): 26/8314
- lns time: 0.007000
- lns branches: 72
- lns fails: 26
LNS iteration #31 ========================================
- worst case average CPI: 1.465
- worst case efficiency: 0.693
- efficiency to beat: 0.693
- normalized lower bound 1636
--- checking solution
--- solution ok! Maximum rounding error: 0.000052
- solution found, obj var is: 1747
- de-normalized obj var: 0.704820
- time (local/global): 0.004/0.554
- branches (local/global): 216/18264
- fails (local/global): 98/8412
- lns time: 0.010000
- lns branches: 216
- lns fails: 98
LNS iteration #32 ========================================
- worst case average CPI: 1.465
- worst case efficiency: 0.693
- efficiency to beat: 0.693
- normalized lower bound 1635
--- checking solution
--- solution ok! Maximum rounding error: 0.000007
- solution found, obj var is: 1645
- de-normalized obj var: 0.698700
- time (local/global): 0.001/0.561
- branches (local/global): 25/18289
- fails (local/global): 2/8414
- lns time: 0.007000
- lns branches: 25
- lns fails: 2
LNS iteration #33 ========================================
- worst case average CPI: 1.452
- worst case efficiency: 0.696
- efficiency to beat: 0.696
- normalized lower bound 1677
--- checking solution
--- solution ok! Maximum rounding error: 0.000121
- solution found, obj var is: 1694
- de-normalized obj var: 0.701640
- time (local/global): 0.000/0.567
- branches (local/global): 22/18311
- fails (local/global): 0/8414
- lns time: 0.006000
- lns branches: 22
- lns fails: 0
LNS iteration #34 ========================================
- worst case average CPI: 1.446
- worst case efficiency: 0.697
- efficiency to beat: 0.697
- normalized lower bound 1698
--- checking solution
--- solution ok! Maximum rounding error: 0.000023
- solution found, obj var is: 1792
- de-normalized obj var: 0.707520
- time (local/global): 0.000/0.573
- branches (local/global): 21/18332
- fails (local/global): 0/8414
- lns time: 0.007000
- lns branches: 21
- lns fails: 0
LNS iteration #35 ========================================
- worst case average CPI: 1.446
- worst case efficiency: 0.699
- efficiency to beat: 0.699
- normalized lower bound 1728
--- checking solution
--- solution ok! Maximum rounding error: 0.000252
- solution found, obj var is: 1865
- de-normalized obj var: 0.711900
- time (local/global): 0.000/0.580
- branches (local/global): 23/18355
- fails (local/global): 2/8416
- lns time: 0.006000
- lns branches: 23
- lns fails: 2
LNS iteration #36 ========================================
- worst case average CPI: 1.446
- worst case efficiency: 0.699
- efficiency to beat: 0.699
- normalized lower bound 1739
--- checking solution
--- solution ok! Maximum rounding error: 0.000029
- solution found, obj var is: 3368
- de-normalized obj var: 0.802080
- time (local/global): 0.000/0.586
- branches (local/global): 26/18381
- fails (local/global): 2/8418
- lns time: 0.006000
- lns branches: 26
- lns fails: 2
LNS iteration #37 ========================================
- worst case average CPI: 1.446
- worst case efficiency: 0.700
- efficiency to beat: 0.700
- normalized lower bound 1752
--- checking solution
--- solution ok! Maximum rounding error: 0.000017
- solution found, obj var is: 1915
- de-normalized obj var: 0.714900
- time (local/global): 0.003/0.595
- branches (local/global): 239/18620
- fails (local/global): 101/8519
- lns time: 0.009000
- lns branches: 239
- lns fails: 101
LNS iteration #38 ========================================
- worst case average CPI: 1.446
- worst case efficiency: 0.701
- efficiency to beat: 0.701
- normalized lower bound 1760
--- checking solution
--- solution ok! Maximum rounding error: 0.000074
- solution found, obj var is: 1779
- de-normalized obj var: 0.706740
- time (local/global): 0.044/0.645
- branches (local/global): 2493/21113
- fails (local/global): 1193/9712
- lns time: 0.049000
- lns branches: 2493
- lns fails: 1193
LNS iteration #39 ========================================
- worst case average CPI: 1.446
- worst case efficiency: 0.703
- efficiency to beat: 0.703
- normalized lower bound 1804
--- checking solution
--- solution ok! Maximum rounding error: 0.000033
- solution found, obj var is: 2491
- de-normalized obj var: 0.749460
- time (local/global): 0.000/0.650
- branches (local/global): 32/21145
- fails (local/global): 5/9717
- lns time: 0.006000
- lns branches: 32
- lns fails: 5
LNS iteration #40 ========================================
- worst case average CPI: 1.446
- worst case efficiency: 0.705
- efficiency to beat: 0.705
- normalized lower bound 1826
--- checking solution
--- solution ok! Maximum rounding error: 0.000019
- solution found, obj var is: 1847
- de-normalized obj var: 0.710820
- time (local/global): 0.029/0.685
- branches (local/global): 1543/22688
- fails (local/global): 723/10440
- lns time: 0.035000
- lns branches: 1543
- lns fails: 723
LNS iteration #41 ========================================
- worst case average CPI: 1.402
- worst case efficiency: 0.707
- efficiency to beat: 0.707
- normalized lower bound 1860
--- checking solution
--- solution ok! Maximum rounding error: 0.000070
- solution found, obj var is: 1892
- de-normalized obj var: 0.713520
- time (local/global): 0.001/0.692
- branches (local/global): 80/22768
- fails (local/global): 29/10469
- lns time: 0.007000
- lns branches: 80
- lns fails: 29
LNS iteration #42 ========================================
- worst case average CPI: 1.402
- worst case efficiency: 0.707
- efficiency to beat: 0.707
- normalized lower bound 1875
--- checking solution
--- solution ok! Maximum rounding error: 0.000100
- solution found, obj var is: 2131
- de-normalized obj var: 0.727860
- time (local/global): 0.006/0.704
- branches (local/global): 452/23220
- fails (local/global): 201/10670
- lns time: 0.013000
- lns branches: 452
- lns fails: 201
LNS iteration #43 ========================================
- worst case average CPI: 1.402
- worst case efficiency: 0.710
- efficiency to beat: 0.710
- normalized lower bound 1911
--- checking solution
--- solution ok! Maximum rounding error: 0.000108
- solution found, obj var is: 1953
- de-normalized obj var: 0.717180
- time (local/global): 1.804/2.515
- branches (local/global): 112136/135356
- fails (local/global): 54743/65413
- lns time: 1.810000
- lns branches: 112136
- lns fails: 54743
LNS iteration #44 ========================================
- worst case average CPI: 1.385
- worst case efficiency: 0.710
- efficiency to beat: 0.710
- normalized lower bound 1914
--- checking solution
--- solution ok! Maximum rounding error: 0.000041
- solution found, obj var is: 2257
- de-normalized obj var: 0.735420
- time (local/global): 0.000/2.521
- branches (local/global): 26/135382
- fails (local/global): 2/65415
- lns time: 0.006000
- lns branches: 26
- lns fails: 2
LNS iteration #45 ========================================
- worst case average CPI: 1.452
- worst case efficiency: 0.710
- efficiency to beat: 0.710
- normalized lower bound 1921
--- checking solution
--- solution ok! Maximum rounding error: 0.000133
- solution found, obj var is: 2008
- de-normalized obj var: 0.720480
- time (local/global): 0.246/2.773
- branches (local/global): 18212/153594
- fails (local/global): 8801/74216
- lns time: 0.251000
- lns branches: 18212
- lns fails: 8801
LNS iteration #46 ========================================
- worst case average CPI: 1.295
- worst case efficiency: 0.711
- efficiency to beat: 0.711
- normalized lower bound 1926
--- checking solution
--- solution ok! Maximum rounding error: 0.000046
- solution found, obj var is: 2005
- de-normalized obj var: 0.720300
- time (local/global): 0.010/2.788
- branches (local/global): 595/154189
- fails (local/global): 271/74487
- lns time: 0.015000
- lns branches: 595
- lns fails: 271
LNS iteration #47 ========================================
- worst case average CPI: 1.295
- worst case efficiency: 0.714
- efficiency to beat: 0.714
- normalized lower bound 1986
--- checking solution
--- solution ok! Maximum rounding error: 0.000004
- solution found, obj var is: 1996
- de-normalized obj var: 0.719760
- time (local/global): 0.015/2.808
- branches (local/global): 865/155054
- fails (local/global): 401/74888
- lns time: 0.021000
- lns branches: 865
- lns fails: 401
LNS iteration #48 ========================================
- worst case average CPI: 1.295
- worst case efficiency: 0.716
- efficiency to beat: 0.716
- normalized lower bound 2011
--- checking solution
--- solution ok! Maximum rounding error: 0.000045
- solution found, obj var is: 2225
- de-normalized obj var: 0.733500
- time (local/global): 0.001/2.815
- branches (local/global): 88/155142
- fails (local/global): 34/74922
- lns time: 0.007000
- lns branches: 88
- lns fails: 34
LNS iteration #49 ========================================
- worst case average CPI: 1.295
- worst case efficiency: 0.713
- efficiency to beat: 0.713
- normalized lower bound 1964
--- checking solution
--- solution ok! Maximum rounding error: 0.000024
- solution found, obj var is: 2121
- de-normalized obj var: 0.727260
- time (local/global): 0.000/2.821
- branches (local/global): 19/155161
- fails (local/global): 0/74922
- lns time: 0.007000
- lns branches: 19
- lns fails: 0
LNS iteration #50 ========================================
- worst case average CPI: 1.295
- worst case efficiency: 0.714
- efficiency to beat: 0.714
- normalized lower bound 1978
--- checking solution
--- solution ok! Maximum rounding error: 0.000117
- solution found, obj var is: 2349
- de-normalized obj var: 0.740940
- time (local/global): 0.016/2.844
- branches (local/global): 1087/156248
- fails (local/global): 501/75423
- lns time: 0.022000
- lns branches: 1087
- lns fails: 501
LNS iteration #51 ========================================
- worst case average CPI: 1.295
- worst case efficiency: 0.718
- efficiency to beat: 0.718
- normalized lower bound 2047
--- checking solution
--- solution ok! Maximum rounding error: 0.000020
- solution found, obj var is: 2247
- de-normalized obj var: 0.734820
- time (local/global): 0.003/2.853
- branches (local/global): 236/156484
- fails (local/global): 101/75524
- lns time: 0.009000
- lns branches: 236
- lns fails: 101
LNS iteration #52 ========================================
- worst case average CPI: 1.251
- worst case efficiency: 0.719
- efficiency to beat: 0.719
- normalized lower bound 2073
--- checking solution
--- solution ok! Maximum rounding error: 0.000113
- solution found, obj var is: 2120
- de-normalized obj var: 0.727200
- time (local/global): 0.319/3.178
- branches (local/global): 23146/179630
- fails (local/global): 11204/86728
- lns time: 0.325000
- lns branches: 23146
- lns fails: 11204
LNS iteration #53 ========================================
- worst case average CPI: 1.251
- worst case efficiency: 0.720
- efficiency to beat: 0.720
- normalized lower bound 2080
--- checking solution
--- solution ok! Maximum rounding error: 0.000018
- solution found, obj var is: 2280
- de-normalized obj var: 0.736800
- time (local/global): 0.003/3.187
- branches (local/global): 241/179871
- fails (local/global): 102/86830
- lns time: 0.009000
- lns branches: 241
- lns fails: 102
LNS iteration #54 ========================================
- worst case average CPI: 1.251
- worst case efficiency: 0.720
- efficiency to beat: 0.720
- normalized lower bound 2091
--- checking solution
--- solution ok! Maximum rounding error: 0.000063
- solution found, obj var is: 2277
- de-normalized obj var: 0.736620
- time (local/global): 0.002/3.195
- branches (local/global): 179/180050
- fails (local/global): 78/86908
- lns time: 0.008000
- lns branches: 179
- lns fails: 78
LNS iteration #55 ========================================
- worst case average CPI: 1.251
- worst case efficiency: 0.721
- efficiency to beat: 0.721
- normalized lower bound 2098
- lns time: 3.006000
- lns branches: 232117
- lns fails: 113613
LNS iteration #56 ========================================
- worst case average CPI: 1.251
- worst case efficiency: 0.721
- efficiency to beat: 0.721
- normalized lower bound 2098
--- checking solution
--- solution ok! Maximum rounding error: 0.000120
- solution found, obj var is: 2212
- de-normalized obj var: 0.732720
- time (local/global): 0.009/6.216
- branches (local/global): 343/412510
- fails (local/global): 155/200676
- lns time: 0.015000
- lns branches: 343
- lns fails: 155
LNS iteration #57 ========================================
- worst case average CPI: 1.251
- worst case efficiency: 0.721
- efficiency to beat: 0.721
- normalized lower bound 2108
- lns time: 3.006000
- lns branches: 216999
- lns fails: 106407
LNS iteration #58 ========================================
- worst case average CPI: 1.251
- worst case efficiency: 0.721
- efficiency to beat: 0.721
- normalized lower bound 2108
--- checking solution
--- solution ok! Maximum rounding error: 0.000000
- solution found, obj var is: 2203
- de-normalized obj var: 0.732180
- time (local/global): 0.000/9.228
- branches (local/global): 25/629534
- fails (local/global): 2/307085
- lns time: 0.006000
- lns branches: 25
- lns fails: 2
LNS iteration #59 ========================================
- worst case average CPI: 1.251
- worst case efficiency: 0.722
- efficiency to beat: 0.722
- normalized lower bound 2124
--- checking solution
--- solution ok! Maximum rounding error: 0.000102
- solution found, obj var is: 2124
- de-normalized obj var: 0.727440
- time (local/global): 0.009/9.243
- branches (local/global): 587/630121
- fails (local/global): 270/307355
- lns time: 0.015000
- lns branches: 587
- lns fails: 270
LNS iteration #60 ========================================
- worst case average CPI: 1.251
- worst case efficiency: 0.728
- efficiency to beat: 0.728
- normalized lower bound 2209
--- checking solution
--- solution ok! Maximum rounding error: 0.000021
- solution found, obj var is: 2297
- de-normalized obj var: 0.737820
- time (local/global): 0.009/9.258
- branches (local/global): 854/630975
- fails (local/global): 402/307757
- lns time: 0.017000
- lns branches: 854
- lns fails: 402
LNS iteration #61 ========================================
- worst case average CPI: 1.251
- worst case efficiency: 0.728
- efficiency to beat: 0.728
- normalized lower bound 2209
--- checking solution
--- solution ok! Maximum rounding error: 0.000039
- solution found, obj var is: 2241
- de-normalized obj var: 0.734460
- time (local/global): 0.006/9.272
- branches (local/global): 447/631422
- fails (local/global): 200/307957
- lns time: 0.012000
- lns branches: 447
- lns fails: 200
LNS iteration #62 ========================================
- worst case average CPI: 1.251
- worst case efficiency: 0.729
- efficiency to beat: 0.729
- normalized lower bound 2234
--- checking solution
--- solution ok! Maximum rounding error: 0.000089
- solution found, obj var is: 2478
- de-normalized obj var: 0.748680
- time (local/global): 0.025/9.303
- branches (local/global): 2505/633927
- fails (local/global): 1207/309164
- lns time: 0.030000
- lns branches: 2505
- lns fails: 1207
LNS iteration #63 ========================================
- worst case average CPI: 1.213
- worst case efficiency: 0.731
- efficiency to beat: 0.731
- normalized lower bound 2266
--- checking solution
--- solution ok! Maximum rounding error: 0.000076
- solution found, obj var is: 2310
- de-normalized obj var: 0.738600
- time (local/global): 0.021/9.329
- branches (local/global): 1298/635225
- fails (local/global): 600/309764
- lns time: 0.026000
- lns branches: 1298
- lns fails: 600
LNS iteration #64 ========================================
- worst case average CPI: 1.213
- worst case efficiency: 0.730
- efficiency to beat: 0.730
- normalized lower bound 2246
--- checking solution
--- solution ok! Maximum rounding error: 0.000047
- solution found, obj var is: 2619
- de-normalized obj var: 0.757140
- time (local/global): 0.009/9.343
- branches (local/global): 504/635729
- fails (local/global): 224/309988
- lns time: 0.014000
- lns branches: 504
- lns fails: 224
LNS iteration #65 ========================================
- worst case average CPI: 0.966
- worst case efficiency: 0.734
- efficiency to beat: 0.734
- normalized lower bound 2315
- lns time: 3.006000
- lns branches: 204552
- lns fails: 100370
LNS iteration #66 ========================================
- worst case average CPI: 0.966
- worst case efficiency: 0.734
- efficiency to beat: 0.734
- normalized lower bound 2315
--- checking solution
--- solution ok! Maximum rounding error: 0.000042
- solution found, obj var is: 2327
- de-normalized obj var: 0.739620
- time (local/global): 0.034/12.388
- branches (local/global): 2317/842598
- fails (local/global): 1107/411465
- lns time: 0.040000
- lns branches: 2317
- lns fails: 1107
LNS iteration #67 ========================================
- worst case average CPI: 0.966
- worst case efficiency: 0.736
- efficiency to beat: 0.736
- normalized lower bound 2345
--- checking solution
--- solution ok! Maximum rounding error: 0.000021
- solution found, obj var is: 2358
- de-normalized obj var: 0.741480
- time (local/global): 0.294/12.688
- branches (local/global): 16921/859519
- fails (local/global): 8201/419666
- lns time: 0.300000
- lns branches: 16921
- lns fails: 8201
LNS iteration #68 ========================================
- worst case average CPI: 0.966
- worst case efficiency: 0.735
- efficiency to beat: 0.735
- normalized lower bound 2340
--- checking solution
--- solution ok! Maximum rounding error: 0.000059
- solution found, obj var is: 2437
- de-normalized obj var: 0.746220
- time (local/global): 1.095/13.789
- branches (local/global): 67634/927153
- fails (local/global): 32858/452524
- lns time: 1.102000
- lns branches: 67634
- lns fails: 32858
LNS iteration #69 ========================================
- worst case average CPI: 0.966
- worst case efficiency: 0.737
- efficiency to beat: 0.737
- normalized lower bound 2367
--- checking solution
XXX Rounding error: 14
--- solution ok! Maximum rounding error: 0.000779
- solution found, obj var is: 2405
- de-normalized obj var: 0.744300
- time (local/global): 0.000/13.796
- branches (local/global): 26/927179
- fails (local/global): 2/452526
- lns time: 0.006000
- lns branches: 26
- lns fails: 2
LNS iteration #70 ========================================
- worst case average CPI: 0.966
- worst case efficiency: 0.737
- efficiency to beat: 0.737
- normalized lower bound 2369
--- checking solution
--- solution ok! Maximum rounding error: 0.000594
- solution found, obj var is: 2519
- de-normalized obj var: 0.751140
- time (local/global): 0.007/13.809
- branches (local/global): 458/927637
- fails (local/global): 203/452729
- lns time: 0.013000
- lns branches: 458
- lns fails: 203
LNS iteration #71 ========================================
- worst case average CPI: 0.966
- worst case efficiency: 0.738
- efficiency to beat: 0.738
- normalized lower bound 2377
--- checking solution
--- solution ok! Maximum rounding error: 0.000041
- solution found, obj var is: 2389
- de-normalized obj var: 0.743340
- time (local/global): 0.017/13.832
- branches (local/global): 1169/928806
- fails (local/global): 545/453274
- lns time: 0.023000
- lns branches: 1169
- lns fails: 545
LNS iteration #72 ========================================
- worst case average CPI: 1.159
- worst case efficiency: 0.739
- efficiency to beat: 0.739
- normalized lower bound 2402
--- checking solution
--- solution ok! Maximum rounding error: 0.000108
- solution found, obj var is: 2403
- de-normalized obj var: 0.744180
- time (local/global): 0.079/13.917
- branches (local/global): 4838/933644
- fails (local/global): 2313/455587
- lns time: 0.084000
- lns branches: 4838
- lns fails: 2313
LNS iteration #73 ========================================
- worst case average CPI: 1.159
- worst case efficiency: 0.740
- efficiency to beat: 0.740
- normalized lower bound 2411
--- checking solution
--- solution ok! Maximum rounding error: 0.000081
- solution found, obj var is: 2902
- de-normalized obj var: 0.774120
- time (local/global): 0.003/13.925
- branches (local/global): 270/933914
- fails (local/global): 117/455704
- lns time: 0.009000
- lns branches: 270
- lns fails: 117
LNS iteration #74 ========================================
- worst case average CPI: 1.159
- worst case efficiency: 0.743
- efficiency to beat: 0.743
- normalized lower bound 2464
- lns time: 3.006000
- lns branches: 198334
- lns fails: 97374
LNS iteration #75 ========================================
- worst case average CPI: 1.159
- worst case efficiency: 0.743
- efficiency to beat: 0.743
- normalized lower bound 2464
- lns time: 3.006000
- lns branches: 224086
- lns fails: 109867
LNS iteration #76 ========================================
- worst case average CPI: 1.159
- worst case efficiency: 0.743
- efficiency to beat: 0.743
- normalized lower bound 2464
--- checking solution
--- solution ok! Maximum rounding error: 0.000074
- solution found, obj var is: 2469
- de-normalized obj var: 0.748140
- time (local/global): 0.285/20.228
- branches (local/global): 18566/1374900
- fails (local/global): 8998/671943
- lns time: 0.291000
- lns branches: 18566
- lns fails: 8998
LNS iteration #77 ========================================
- worst case average CPI: 1.203
- worst case efficiency: 0.743
- efficiency to beat: 0.743
- normalized lower bound 2475
--- checking solution
--- solution ok! Maximum rounding error: 0.000383
- solution found, obj var is: 2512
- de-normalized obj var: 0.750720
- time (local/global): 0.150/20.384
- branches (local/global): 9374/1384274
- fails (local/global): 4510/676453
- lns time: 0.156000
- lns branches: 9374
- lns fails: 4510
LNS iteration #78 ========================================
- worst case average CPI: 1.203
- worst case efficiency: 0.744
- efficiency to beat: 0.744
- normalized lower bound 2488
--- checking solution
--- solution ok! Maximum rounding error: 0.000080
- solution found, obj var is: 2671
- de-normalized obj var: 0.760260
- time (local/global): 2.103/22.493
- branches (local/global): 125666/1509940
- fails (local/global): 61388/737841
- lns time: 2.109000
- lns branches: 125666
- lns fails: 61388
LNS iteration #79 ========================================
- worst case average CPI: 0.883
- worst case efficiency: 0.745
- efficiency to beat: 0.745
- normalized lower bound 2496
--- checking solution
--- solution ok! Maximum rounding error: 0.000041
- solution found, obj var is: 2496
- de-normalized obj var: 0.749760
- time (local/global): 0.073/22.572
- branches (local/global): 5056/1514996
- fails (local/global): 2411/740252
- lns time: 0.080000
- lns branches: 5056
- lns fails: 2411
LNS iteration #80 ========================================
- worst case average CPI: 0.883
- worst case efficiency: 0.745
- efficiency to beat: 0.745
- normalized lower bound 2506
--- checking solution
--- solution ok! Maximum rounding error: 0.000053
- solution found, obj var is: 2757
- de-normalized obj var: 0.765420
- time (local/global): 0.013/22.592
- branches (local/global): 1063/1516059
- fails (local/global): 507/740759
- lns time: 0.018000
- lns branches: 1063
- lns fails: 507
LNS iteration #81 ========================================
- worst case average CPI: 0.883
- worst case efficiency: 0.746
- efficiency to beat: 0.746
- normalized lower bound 2510
- lns time: 3.006000
- lns branches: 192285
- lns fails: 94365
LNS iteration #82 ========================================
- worst case average CPI: 0.883
- worst case efficiency: 0.746
- efficiency to beat: 0.746
- normalized lower bound 2510
--- checking solution
--- solution ok! Maximum rounding error: 0.000130
- solution found, obj var is: 2523
- de-normalized obj var: 0.751380
- time (local/global): 0.474/26.077
- branches (local/global): 24744/1733088
- fails (local/global): 12028/847152
- lns time: 0.481000
- lns branches: 24744
- lns fails: 12028
LNS iteration #83 ========================================
- worst case average CPI: 0.883
- worst case efficiency: 0.747
- efficiency to beat: 0.747
- normalized lower bound 2536
--- checking solution
--- solution ok! Maximum rounding error: 0.000019
- solution found, obj var is: 2541
- de-normalized obj var: 0.752460
- time (local/global): 0.488/26.572
- branches (local/global): 56636/1789724
- fails (local/global): 27830/874982
- lns time: 0.493000
- lns branches: 56636
- lns fails: 27830
LNS iteration #84 ========================================
- worst case average CPI: 0.883
- worst case efficiency: 0.748
- efficiency to beat: 0.748
- normalized lower bound 2543
--- checking solution
--- solution ok! Maximum rounding error: 0.000031
- solution found, obj var is: 2790
- de-normalized obj var: 0.767400
- time (local/global): 0.020/26.597
- branches (local/global): 1299/1791023
- fails (local/global): 604/875586
- lns time: 0.026000
- lns branches: 1299
- lns fails: 604
LNS iteration #85 ========================================
- worst case average CPI: 0.883
- worst case efficiency: 0.747
- efficiency to beat: 0.747
- normalized lower bound 2534
--- checking solution
--- solution ok! Maximum rounding error: 0.000072
- solution found, obj var is: 2584
- de-normalized obj var: 0.755040
- time (local/global): 0.008/26.611
- branches (local/global): 461/1791484
- fails (local/global): 208/875794
- lns time: 0.013000
- lns branches: 461
- lns fails: 208
LNS iteration #86 ========================================
- worst case average CPI: 0.883
- worst case efficiency: 0.748
- efficiency to beat: 0.748
- normalized lower bound 2547
--- checking solution
--- solution ok! Maximum rounding error: 0.000041
- solution found, obj var is: 2554
- de-normalized obj var: 0.753240
- time (local/global): 0.016/26.632
- branches (local/global): 1080/1792564
- fails (local/global): 501/876295
- lns time: 0.023000
- lns branches: 1080
- lns fails: 501
LNS iteration #87 ========================================
- worst case average CPI: 0.883
- worst case efficiency: 0.749
- efficiency to beat: 0.749
- normalized lower bound 2567
- lns time: 3.006000
- lns branches: 186009
- lns fails: 91148
LNS iteration #88 ========================================
- worst case average CPI: 0.883
- worst case efficiency: 0.749
- efficiency to beat: 0.749
- normalized lower bound 2567
--- checking solution
--- solution ok! Maximum rounding error: 0.000041
- solution found, obj var is: 2574
- de-normalized obj var: 0.754440
- time (local/global): 0.774/30.419
- branches (local/global): 43771/2022344
- fails (local/global): 21291/988734
- lns time: 0.780000
- lns branches: 43771
- lns fails: 21291
LNS iteration #89 ========================================
- worst case average CPI: 0.883
- worst case efficiency: 0.751
- efficiency to beat: 0.751
- normalized lower bound 2597
--- checking solution
--- solution ok! Maximum rounding error: 0.000109
- solution found, obj var is: 2659
- de-normalized obj var: 0.759540
- time (local/global): 0.049/30.474
- branches (local/global): 2534/2024878
- fails (local/global): 1203/989937
- lns time: 0.055000
- lns branches: 2534
- lns fails: 1203
LNS iteration #90 ========================================
- worst case average CPI: 0.883
- worst case efficiency: 0.751
- efficiency to beat: 0.751
- normalized lower bound 2609
- lns time: 3.006000
- lns branches: 174850
- lns fails: 85662
LNS iteration #91 ========================================
- worst case average CPI: 0.883
- worst case efficiency: 0.751
- efficiency to beat: 0.751
- normalized lower bound 2609
--- checking solution
--- solution ok! Maximum rounding error: 0.000000
- solution found, obj var is: 2662
- de-normalized obj var: 0.759720
- time (local/global): 0.065/33.551
- branches (local/global): 5826/2205554
- fails (local/global): 2840/1078439
- lns time: 0.070000
- lns branches: 5826
- lns fails: 2840
LNS iteration #92 ========================================
- worst case average CPI: 0.883
- worst case efficiency: 0.753
- efficiency to beat: 0.753
- normalized lower bound 2634
- lns time: 3.006000
- lns branches: 150279
- lns fails: 73385
LNS iteration #93 ========================================
- worst case average CPI: 0.883
- worst case efficiency: 0.753
- efficiency to beat: 0.753
- normalized lower bound 2634
- lns time: 3.006000
- lns branches: 225337
- lns fails: 110534
LNS iteration #94 ========================================
- worst case average CPI: 0.883
- worst case efficiency: 0.753
- efficiency to beat: 0.753
- normalized lower bound 2634
- lns time: 3.006000
- lns branches: 196619
- lns fails: 96408
LNS iteration #95 ========================================
- worst case average CPI: 0.883
- worst case efficiency: 0.753
- efficiency to beat: 0.753
- normalized lower bound 2634
- lns time: 3.006000
- lns branches: 171440
- lns fails: 83862
LNS iteration #96 ========================================
- worst case average CPI: 0.883
- worst case efficiency: 0.753
- efficiency to beat: 0.753
- normalized lower bound 2634
- lns time: 3.006000
- lns branches: 217078
- lns fails: 106458
LNS iteration #97 ========================================
- worst case average CPI: 0.883
- worst case efficiency: 0.753
- efficiency to beat: 0.753
- normalized lower bound 2634
--- checking solution
--- solution ok! Maximum rounding error: 0.000126
- solution found, obj var is: 2650
- de-normalized obj var: 0.759000
- time (local/global): 1.719/50.305
- branches (local/global): 101223/3267530
- fails (local/global): 49405/1598491
- lns time: 1.726000
- lns branches: 101223
- lns fails: 49405
LNS iteration #98 ========================================
- worst case average CPI: 0.883
- worst case efficiency: 0.753
- efficiency to beat: 0.753
- normalized lower bound 2639
--- checking solution
--- solution ok! Maximum rounding error: 0.000190
- solution found, obj var is: 2714
- de-normalized obj var: 0.762840
- time (local/global): 0.004/50.316
- branches (local/global): 304/3267834
- fails (local/global): 137/1598628
- lns time: 0.010000
- lns branches: 304
- lns fails: 137
LNS iteration #99 ========================================
- worst case average CPI: 0.883
- worst case efficiency: 0.754
- efficiency to beat: 0.754
- normalized lower bound 2646
- lns time: 0.023000
- lns branches: 2332
- lns fails: 1155
LNS iteration #100 ========================================
- worst case average CPI: 0.883
- worst case efficiency: 0.754
- efficiency to beat: 0.754
- normalized lower bound 2646
- lns time: 3.006000
- lns branches: 198988
- lns fails: 97727
LNS iteration #101 ========================================
- worst case average CPI: 0.883
- worst case efficiency: 0.754
- efficiency to beat: 0.754
- normalized lower bound 2646
--- checking solution
--- solution ok! Maximum rounding error: 0.000052
- solution found, obj var is: 3105
- de-normalized obj var: 0.786300
- time (local/global): 0.003/53.354
- branches (local/global): 270/3469424
- fails (local/global): 116/1697626
- lns time: 0.009000
- lns branches: 270
- lns fails: 116
LNS iteration #102 ========================================
- worst case average CPI: 0.883
- worst case efficiency: 0.755
- efficiency to beat: 0.755
- normalized lower bound 2674
- lns time: 3.006000
- lns branches: 200104
- lns fails: 98318
LNS iteration #103 ========================================
- worst case average CPI: 0.883
- worst case efficiency: 0.755
- efficiency to beat: 0.755
- normalized lower bound 2674
- lns time: 3.006000
- lns branches: 143197
- lns fails: 70034
LNS iteration #104 ========================================
- worst case average CPI: 0.883
- worst case efficiency: 0.755
- efficiency to beat: 0.755
- normalized lower bound 2674
- lns time: 3.006000
- lns branches: 165314
- lns fails: 80963
LNS iteration #105 ========================================
- worst case average CPI: 0.883
- worst case efficiency: 0.755
- efficiency to beat: 0.755
- normalized lower bound 2674
--- checking solution
--- solution ok! Maximum rounding error: 0.000042
- solution found, obj var is: 2697
- de-normalized obj var: 0.761820
- time (local/global): 0.179/62.557
- branches (local/global): 10140/3988179
- fails (local/global): 4895/1951836
- lns time: 0.185000
- lns branches: 10140
- lns fails: 4895
LNS iteration #106 ========================================
- worst case average CPI: 0.883
- worst case efficiency: 0.756
- efficiency to beat: 0.756
- normalized lower bound 2685
--- checking solution
--- solution ok! Maximum rounding error: 0.000074
- solution found, obj var is: 2737
- de-normalized obj var: 0.764220
- time (local/global): 0.024/62.587
- branches (local/global): 1448/3989627
- fails (local/global): 677/1952513
- lns time: 0.030000
- lns branches: 1448
- lns fails: 677
LNS iteration #107 ========================================
- worst case average CPI: 0.883
- worst case efficiency: 0.758
- efficiency to beat: 0.758
- normalized lower bound 2718
- lns time: 3.006000
- lns branches: 169790
- lns fails: 83143
LNS iteration #108 ========================================
- worst case average CPI: 0.883
- worst case efficiency: 0.758
- efficiency to beat: 0.758
- normalized lower bound 2718
- lns time: 3.006000
- lns branches: 196419
- lns fails: 96289
LNS iteration #109 ========================================
- worst case average CPI: 0.883
- worst case efficiency: 0.758
- efficiency to beat: 0.758
- normalized lower bound 2718
- lns time: 3.006000
- lns branches: 177345
- lns fails: 86821
LNS iteration #110 ========================================
- worst case average CPI: 0.883
- worst case efficiency: 0.758
- efficiency to beat: 0.758
- normalized lower bound 2718
- lns time: 3.006000
- lns branches: 219236
- lns fails: 107297
LNS iteration #111 ========================================
- worst case average CPI: 0.883
- worst case efficiency: 0.758
- efficiency to beat: 0.758
- normalized lower bound 2718
- lns time: 3.008000
- lns branches: 178831
- lns fails: 87469
LNS iteration #112 ========================================
- worst case average CPI: 0.883
- worst case efficiency: 0.758
- efficiency to beat: 0.758
- normalized lower bound 2718
- lns time: 3.006000
- lns branches: 195583
- lns fails: 95915
LNS iteration #113 ========================================
- worst case average CPI: 0.883
- worst case efficiency: 0.758
- efficiency to beat: 0.758
- normalized lower bound 2718
- lns time: 3.006000
- lns branches: 202456
- lns fails: 99360
LNS iteration #114 ========================================
- worst case average CPI: 0.883
- worst case efficiency: 0.758
- efficiency to beat: 0.758
- normalized lower bound 2718
--- checking solution
--- solution ok! Maximum rounding error: 0.000000
- solution found, obj var is: 2764
- de-normalized obj var: 0.765840
- time (local/global): 1.675/85.312
- branches (local/global): 112148/5441435
- fails (local/global): 54805/2663612
- lns time: 1.682000
- lns branches: 112148
- lns fails: 54805
LNS iteration #115 ========================================
- worst case average CPI: 0.883
- worst case efficiency: 0.758
- efficiency to beat: 0.758
- normalized lower bound 2712
--- checking solution
--- solution ok! Maximum rounding error: 0.000034
- solution found, obj var is: 2764
- de-normalized obj var: 0.765840
- time (local/global): 0.987/86.306
- branches (local/global): 56147/5497582
- fails (local/global): 27389/2691001
- lns time: 0.993000
- lns branches: 56147
- lns fails: 27389
LNS iteration #116 ========================================
- worst case average CPI: 0.842
- worst case efficiency: 0.758
- efficiency to beat: 0.758
- normalized lower bound 2724
- lns time: 3.006000
- lns branches: 188460
- lns fails: 92461
LNS iteration #117 ========================================
- worst case average CPI: 0.842
- worst case efficiency: 0.758
- efficiency to beat: 0.758
- normalized lower bound 2724
--- checking solution
--- solution ok! Maximum rounding error: 0.000059
- solution found, obj var is: 2806
- de-normalized obj var: 0.768360
- time (local/global): 0.005/89.323
- branches (local/global): 326/5686368
- fails (local/global): 152/2783614
- lns time: 0.010000
- lns branches: 326
- lns fails: 152
LNS iteration #118 ========================================
- worst case average CPI: 0.842
- worst case efficiency: 0.760
- efficiency to beat: 0.760
- normalized lower bound 2748
- lns time: 0.678000
- lns branches: 39916
- lns fails: 19542

LNS optimization is over========================================
initial worst case average CPI: 2.109
final worst case average CPI: 0.842
initial worst case efficiency: 0.631
final worst case efficiency: 0.760
number of iterations: 119
total time: 90006.000000
total branches: 5726284
total fails: 2803156

Final Solution: 0->25, 1->28, 2->5, 3->13, 4->47, 5->18, 6->20, 7->22, 8->15, 9->22, 10->0, 11->39, 12->45, 13->1, 14->22, 15->35, 16->20, 17->6, 18->14, 19->25, 20->42, 21->14, 22->17, 23->13, 24->42, 25->28, 26->19, 27->16, 28->4, 29->26, 30->19, 31->27, 32->26, 33->28, 34->28, 35->12, 36->46, 37->29, 38->47, 39->11, 40->25, 41->26, 42->30, 43->29, 44->33, 45->26, 46->45, 47->5, 48->15, 49->17, 50->43, 51->5, 52->41, 53->45, 54->7, 55->36, 56->5, 57->8, 58->34, 59->5, 60->39, 61->26, 62->24, 63->17, 64->4, 65->2, 66->38, 67->44, 68->35, 69->32, 70->46, 71->2, 72->18, 73->17, 74->7, 75->20, 76->11, 77->34, 78->1, 79->41, 80->33, 81->41, 82->40, 83->14, 84->24, 85->16, 86->34, 87->10, 88->18, 89->11, 90->13, 91->47, 92->6, 93->19, 94->32, 95->24, 96->6, 97->22, 98->8, 99->29, 100->3, 101->17, 102->35, 103->33, 104->33, 105->36, 106->40, 107->1, 108->15, 109->11, 110->17, 111->41, 112->3, 113->32, 114->32, 115->27, 116->10, 117->18, 118->23, 119->33, 120->3, 121->29, 122->2, 123->23, 124->44, 125->3, 126->25, 127->23, 128->6, 129->43, 130->25, 131->35, 132->34, 133->30, 134->11, 135->42, 136->29, 137->2, 138->5, 139->22, 140->19, 141->6, 142->14, 143->18, 144->14, 145->36, 146->38, 147->30, 148->39, 149->7, 150->26, 151->46, 152->14, 153->13, 154->33, 155->28, 156->44, 157->24, 158->23, 159->18, 160->12, 161->36, 162->27, 163->40, 164->21, 165->13, 166->7, 167->32, 168->7, 169->13, 170->31, 171->1, 172->8, 173->43, 174->43, 175->0, 176->23, 177->34, 178->1, 179->42, 180->38, 181->4, 182->27, 183->36, 184->42, 185->38, 186->8, 187->23, 188->29, 189->42, 190->8, 191->40, 192->24, 193->1, 194->45, 195->40, 196->36, 197->0, 198->15, 199->3, 200->15, 201->0, 202->44, 203->24, 204->38, 205->12, 206->16, 207->43, 208->9, 209->46, 210->6, 211->30, 212->21, 213->16, 214->4, 215->32, 216->35, 217->37, 218->27, 219->2, 220->7, 221->31, 222->38, 223->37, 224->22, 225->25, 226->39, 227->40, 228->46, 229->44, 230->9, 231->46, 232->4, 233->10, 234->16, 235->28, 236->0, 237->15, 238->31, 239->34, 240->12, 241->9, 242->11, 243->19, 244->10, 245->19, 246->39, 247->45, 248->43, 249->31, 250->4, 251->16, 252->20, 253->10, 254->20, 255->2, 256->12, 257->12, 258->8, 259->37, 260->21, 261->39, 262->47, 263->21, 264->20, 265->35, 266->44, 267->21, 268->10, 269->27, 270->31, 271->45, 272->41, 273->41, 274->37, 275->30, 276->21, 277->47, 278->37, 279->3, 280->9, 281->9, 282->37, 283->30, 284->47, 285->9, 286->31, 287->0

Average CPI map:
	7.34,	1.30,	1.44,	1.86,	0.84,	1.16
	1.68,	3.95,	2.74,	2.84,	2.83,	1.57
	1.20,	8.81,	5.34,	6.24,	4.94,	2.08
	1.55,	3.80,	3.20,	6.21,	5.05,	1.71
	1.71,	6.98,	7.49,	5.20,	6.30,	1.84
	1.47,	3.91,	7.11,	6.54,	5.37,	1.80
	1.02,	5.12,	4.53,	6.79,	5.07,	1.84
	1.31,	2.69,	2.87,	2.61,	5.28,	1.47

Efficiency map:
	0.997,	0.891,	0.951,	0.930,	0.906,	1.003
	0.766,	0.773,	0.783,	0.760,	0.764,	0.840
	0.824,	0.789,	0.763,	0.784,	0.777,	0.823
	0.832,	0.771,	0.761,	0.805,	0.772,	0.859
	0.860,	0.793,	0.769,	0.774,	0.777,	0.865
	0.797,	0.763,	0.773,	0.804,	0.769,	0.825
	0.808,	0.765,	0.779,	0.764,	0.760,	0.823
	0.815,	0.768,	0.766,	0.764,	0.863,	0.806
