==============================================================================
LNS optimizer for EML demonstration
==============================================================================

Option values: --wld-idx 0 --prec 10000 --step 0 --global-tlim 90 --global-iter 1000 --local-tlim 3 --local-nsol 1 --restart-base 100 --restart-strat luby --seed 401

Starting the Optimization Process
reserved_tasks None
Finding a first solution
LNS iteration #0 ========================================
- worst case average CPI: 2.182
- worst case efficiency: 0.639
- efficiency to beat: 0.639
- normalized lower bound 737
--- checking solution
--- solution ok! Maximum rounding error: 0.000031
- solution found, obj var is: 878
- de-normalized obj var: 0.652680
- time (local/global): 0.001/0.001
- branches (local/global): 20/20
- fails (local/global): 0/0
- lns time: 0.011000
- lns branches: 20
- lns fails: 0
LNS iteration #1 ========================================
- worst case average CPI: 1.966
- worst case efficiency: 0.639
- efficiency to beat: 0.639
- normalized lower bound 740
--- checking solution
--- solution ok! Maximum rounding error: 0.000468
- solution found, obj var is: 933
- de-normalized obj var: 0.655980
- time (local/global): 0.001/0.012
- branches (local/global): 29/49
- fails (local/global): 5/5
- lns time: 0.007000
- lns branches: 29
- lns fails: 5
LNS iteration #2 ========================================
- worst case average CPI: 1.613
- worst case efficiency: 0.641
- efficiency to beat: 0.641
- normalized lower bound 763
--- checking solution
--- solution ok! Maximum rounding error: 0.000051
- solution found, obj var is: 767
- de-normalized obj var: 0.646020
- time (local/global): 0.004/0.022
- branches (local/global): 238/287
- fails (local/global): 104/109
- lns time: 0.011000
- lns branches: 238
- lns fails: 104
LNS iteration #3 ========================================
- worst case average CPI: 1.613
- worst case efficiency: 0.644
- efficiency to beat: 0.644
- normalized lower bound 816
--- checking solution
--- solution ok! Maximum rounding error: 0.000112
- solution found, obj var is: 840
- de-normalized obj var: 0.650400
- time (local/global): 0.001/0.030
- branches (local/global): 104/391
- fails (local/global): 42/151
- lns time: 0.007000
- lns branches: 104
- lns fails: 42
LNS iteration #4 ========================================
- worst case average CPI: 1.670
- worst case efficiency: 0.646
- efficiency to beat: 0.646
- normalized lower bound 851
--- checking solution
--- solution ok! Maximum rounding error: 0.000073
- solution found, obj var is: 891
- de-normalized obj var: 0.653460
- time (local/global): 0.003/0.039
- branches (local/global): 264/655
- fails (local/global): 118/269
- lns time: 0.008000
- lns branches: 264
- lns fails: 118
LNS iteration #5 ========================================
- worst case average CPI: 1.733
- worst case efficiency: 0.646
- efficiency to beat: 0.646
- normalized lower bound 856
--- checking solution
--- solution ok! Maximum rounding error: 0.000032
- solution found, obj var is: 886
- de-normalized obj var: 0.653160
- time (local/global): 0.005/0.049
- branches (local/global): 201/856
- fails (local/global): 90/359
- lns time: 0.010000
- lns branches: 201
- lns fails: 90
LNS iteration #6 ========================================
- worst case average CPI: 1.733
- worst case efficiency: 0.650
- efficiency to beat: 0.650
- normalized lower bound 915
--- checking solution
--- solution ok! Maximum rounding error: 0.000034
- solution found, obj var is: 957
- de-normalized obj var: 0.657420
- time (local/global): 0.000/0.054
- branches (local/global): 21/877
- fails (local/global): 0/359
- lns time: 0.007000
- lns branches: 21
- lns fails: 0
LNS iteration #7 ========================================
- worst case average CPI: 1.733
- worst case efficiency: 0.650
- efficiency to beat: 0.650
- normalized lower bound 924
--- checking solution
--- solution ok! Maximum rounding error: 0.000070
- solution found, obj var is: 934
- de-normalized obj var: 0.656040
- time (local/global): 0.001/0.062
- branches (local/global): 22/899
- fails (local/global): 0/359
- lns time: 0.007000
- lns branches: 22
- lns fails: 0
LNS iteration #8 ========================================
- worst case average CPI: 1.733
- worst case efficiency: 0.650
- efficiency to beat: 0.650
- normalized lower bound 925
--- checking solution
--- solution ok! Maximum rounding error: 0.000071
- solution found, obj var is: 1143
- de-normalized obj var: 0.668580
- time (local/global): 0.000/0.068
- branches (local/global): 23/922
- fails (local/global): 0/359
- lns time: 0.007000
- lns branches: 23
- lns fails: 0
LNS iteration #9 ========================================
- worst case average CPI: 1.733
- worst case efficiency: 0.653
- efficiency to beat: 0.653
- normalized lower bound 969
--- checking solution
--- solution ok! Maximum rounding error: 0.000058
- solution found, obj var is: 1094
- de-normalized obj var: 0.665640
- time (local/global): 0.000/0.075
- branches (local/global): 24/946
- fails (local/global): 2/361
- lns time: 0.006000
- lns branches: 24
- lns fails: 2
LNS iteration #10 ========================================
- worst case average CPI: 1.733
- worst case efficiency: 0.653
- efficiency to beat: 0.653
- normalized lower bound 972
--- checking solution
--- solution ok! Maximum rounding error: 0.000005
- solution found, obj var is: 974
- de-normalized obj var: 0.658440
- time (local/global): 0.008/0.089
- branches (local/global): 689/1635
- fails (local/global): 318/679
- lns time: 0.015000
- lns branches: 689
- lns fails: 318
LNS iteration #11 ========================================
- worst case average CPI: 1.733
- worst case efficiency: 0.654
- efficiency to beat: 0.654
- normalized lower bound 976
--- checking solution
--- solution ok! Maximum rounding error: 0.000037
- solution found, obj var is: 1005
- de-normalized obj var: 0.660300
- time (local/global): 0.001/0.097
- branches (local/global): 19/1654
- fails (local/global): 0/679
- lns time: 0.006000
- lns branches: 19
- lns fails: 0
LNS iteration #12 ========================================
- worst case average CPI: 1.579
- worst case efficiency: 0.654
- efficiency to beat: 0.654
- normalized lower bound 985
--- checking solution
--- solution ok! Maximum rounding error: 0.000111
- solution found, obj var is: 989
- de-normalized obj var: 0.659340
- time (local/global): 0.002/0.104
- branches (local/global): 121/1775
- fails (local/global): 50/729
- lns time: 0.007000
- lns branches: 121
- lns fails: 50
LNS iteration #13 ========================================
- worst case average CPI: 1.579
- worst case efficiency: 0.657
- efficiency to beat: 0.657
- normalized lower bound 1027
--- checking solution
--- solution ok! Maximum rounding error: 0.000156
- solution found, obj var is: 1103
- de-normalized obj var: 0.666180
- time (local/global): 0.002/0.111
- branches (local/global): 87/1862
- fails (local/global): 34/763
- lns time: 0.007000
- lns branches: 87
- lns fails: 34
LNS iteration #14 ========================================
- worst case average CPI: 1.583
- worst case efficiency: 0.657
- efficiency to beat: 0.657
- normalized lower bound 1032
--- checking solution
--- solution ok! Maximum rounding error: 0.000000
- solution found, obj var is: 1434
- de-normalized obj var: 0.686040
- time (local/global): 0.001/0.117
- branches (local/global): 22/1884
- fails (local/global): 0/763
- lns time: 0.006000
- lns branches: 22
- lns fails: 0
LNS iteration #15 ========================================
- worst case average CPI: 1.583
- worst case efficiency: 0.658
- efficiency to beat: 0.658
- normalized lower bound 1051
--- checking solution
--- solution ok! Maximum rounding error: 0.000067
- solution found, obj var is: 1075
- de-normalized obj var: 0.664500
- time (local/global): 0.001/0.123
- branches (local/global): 22/1906
- fails (local/global): 0/763
- lns time: 0.006000
- lns branches: 22
- lns fails: 0
LNS iteration #16 ========================================
- worst case average CPI: 1.583
- worst case efficiency: 0.658
- efficiency to beat: 0.658
- normalized lower bound 1056
--- checking solution
--- solution ok! Maximum rounding error: 0.000067
- solution found, obj var is: 1199
- de-normalized obj var: 0.671940
- time (local/global): 0.000/0.128
- branches (local/global): 18/1924
- fails (local/global): 1/764
- lns time: 0.006000
- lns branches: 18
- lns fails: 1
LNS iteration #17 ========================================
- worst case average CPI: 1.583
- worst case efficiency: 0.658
- efficiency to beat: 0.658
- normalized lower bound 1052
--- checking solution
--- solution ok! Maximum rounding error: 0.000070
- solution found, obj var is: 1076
- de-normalized obj var: 0.664560
- time (local/global): 0.008/0.142
- branches (local/global): 457/2381
- fails (local/global): 200/964
- lns time: 0.013000
- lns branches: 457
- lns fails: 200
LNS iteration #18 ========================================
- worst case average CPI: 1.583
- worst case efficiency: 0.658
- efficiency to beat: 0.658
- normalized lower bound 1056
--- checking solution
--- solution ok! Maximum rounding error: 0.000054
- solution found, obj var is: 1592
- de-normalized obj var: 0.695520
- time (local/global): 0.001/0.148
- branches (local/global): 22/2403
- fails (local/global): 0/964
- lns time: 0.006000
- lns branches: 22
- lns fails: 0
LNS iteration #19 ========================================
- worst case average CPI: 1.504
- worst case efficiency: 0.660
- efficiency to beat: 0.660
- normalized lower bound 1082
--- checking solution
--- solution ok! Maximum rounding error: 0.000063
- solution found, obj var is: 1289
- de-normalized obj var: 0.677340
- time (local/global): 0.012/0.165
- branches (local/global): 448/2851
- fails (local/global): 200/1164
- lns time: 0.017000
- lns branches: 448
- lns fails: 200
LNS iteration #20 ========================================
- worst case average CPI: 1.583
- worst case efficiency: 0.660
- efficiency to beat: 0.660
- normalized lower bound 1085
--- checking solution
--- solution ok! Maximum rounding error: 0.000044
- solution found, obj var is: 1165
- de-normalized obj var: 0.669900
- time (local/global): 0.001/0.171
- branches (local/global): 53/2904
- fails (local/global): 17/1181
- lns time: 0.008000
- lns branches: 53
- lns fails: 17
LNS iteration #21 ========================================
- worst case average CPI: 1.583
- worst case efficiency: 0.665
- efficiency to beat: 0.665
- normalized lower bound 1160
--- checking solution
--- solution ok! Maximum rounding error: 0.000074
- solution found, obj var is: 1214
- de-normalized obj var: 0.672840
- time (local/global): 0.001/0.179
- branches (local/global): 21/2925
- fails (local/global): 0/1181
- lns time: 0.006000
- lns branches: 21
- lns fails: 0
LNS iteration #22 ========================================
- worst case average CPI: 1.583
- worst case efficiency: 0.665
- efficiency to beat: 0.665
- normalized lower bound 1166
--- checking solution
--- solution ok! Maximum rounding error: 0.000013
- solution found, obj var is: 1586
- de-normalized obj var: 0.695160
- time (local/global): 0.001/0.185
- branches (local/global): 22/2947
- fails (local/global): 0/1181
- lns time: 0.006000
- lns branches: 22
- lns fails: 0
LNS iteration #23 ========================================
- worst case average CPI: 1.583
- worst case efficiency: 0.665
- efficiency to beat: 0.665
- normalized lower bound 1170
--- checking solution
--- solution ok! Maximum rounding error: 0.000106
- solution found, obj var is: 1170
- de-normalized obj var: 0.670200
- time (local/global): 0.000/0.190
- branches (local/global): 26/2973
- fails (local/global): 4/1185
- lns time: 0.006000
- lns branches: 26
- lns fails: 4
LNS iteration #24 ========================================
- worst case average CPI: 1.592
- worst case efficiency: 0.666
- efficiency to beat: 0.666
- normalized lower bound 1184
--- checking solution
--- solution ok! Maximum rounding error: 0.000060
- solution found, obj var is: 1284
- de-normalized obj var: 0.677040
- time (local/global): 0.002/0.198
- branches (local/global): 188/3161
- fails (local/global): 83/1268
- lns time: 0.008000
- lns branches: 188
- lns fails: 83
LNS iteration #25 ========================================
- worst case average CPI: 1.241
- worst case efficiency: 0.667
- efficiency to beat: 0.667
- normalized lower bound 1199
--- checking solution
--- solution ok! Maximum rounding error: 0.000045
- solution found, obj var is: 1232
- de-normalized obj var: 0.673920
- time (local/global): 0.062/0.266
- branches (local/global): 3745/6906
- fails (local/global): 1770/3038
- lns time: 0.067000
- lns branches: 3745
- lns fails: 1770
LNS iteration #26 ========================================
- worst case average CPI: 1.241
- worst case efficiency: 0.667
- efficiency to beat: 0.667
- normalized lower bound 1201
--- checking solution
--- solution ok! Maximum rounding error: 0.000025
- solution found, obj var is: 1246
- de-normalized obj var: 0.674760
- time (local/global): 0.001/0.272
- branches (local/global): 26/6932
- fails (local/global): 3/3041
- lns time: 0.007000
- lns branches: 26
- lns fails: 3
LNS iteration #27 ========================================
- worst case average CPI: 1.241
- worst case efficiency: 0.668
- efficiency to beat: 0.668
- normalized lower bound 1218
--- checking solution
--- solution ok! Maximum rounding error: 0.000093
- solution found, obj var is: 1256
- de-normalized obj var: 0.675360
- time (local/global): 0.054/0.332
- branches (local/global): 3814/10746
- fails (local/global): 1801/4842
- lns time: 0.060000
- lns branches: 3814
- lns fails: 1801
LNS iteration #28 ========================================
- worst case average CPI: 1.241
- worst case efficiency: 0.668
- efficiency to beat: 0.668
- normalized lower bound 1223
--- checking solution
--- solution ok! Maximum rounding error: 0.000189
- solution found, obj var is: 1548
- de-normalized obj var: 0.692880
- time (local/global): 0.000/0.338
- branches (local/global): 30/10776
- fails (local/global): 8/4850
- lns time: 0.006000
- lns branches: 30
- lns fails: 8
LNS iteration #29 ========================================
- worst case average CPI: 1.241
- worst case efficiency: 0.670
- efficiency to beat: 0.670
- normalized lower bound 1244
--- checking solution
--- solution ok! Maximum rounding error: 0.000087
- solution found, obj var is: 1264
- de-normalized obj var: 0.675840
- time (local/global): 0.001/0.345
- branches (local/global): 26/10802
- fails (local/global): 3/4853
- lns time: 0.006000
- lns branches: 26
- lns fails: 3
LNS iteration #30 ========================================
- worst case average CPI: 1.241
- worst case efficiency: 0.670
- efficiency to beat: 0.670
- normalized lower bound 1249
--- checking solution
--- solution ok! Maximum rounding error: 0.000170
- solution found, obj var is: 1318
- de-normalized obj var: 0.679080
- time (local/global): 0.001/0.351
- branches (local/global): 29/10831
- fails (local/global): 5/4858
- lns time: 0.006000
- lns branches: 29
- lns fails: 5
LNS iteration #31 ========================================
- worst case average CPI: 1.592
- worst case efficiency: 0.670
- efficiency to beat: 0.670
- normalized lower bound 1253
--- checking solution
--- solution ok! Maximum rounding error: 0.000034
- solution found, obj var is: 1262
- de-normalized obj var: 0.675720
- time (local/global): 0.002/0.358
- branches (local/global): 126/10957
- fails (local/global): 53/4911
- lns time: 0.007000
- lns branches: 126
- lns fails: 53
LNS iteration #32 ========================================
- worst case average CPI: 1.250
- worst case efficiency: 0.670
- efficiency to beat: 0.670
- normalized lower bound 1255
--- checking solution
--- solution ok! Maximum rounding error: 0.000068
- solution found, obj var is: 1287
- de-normalized obj var: 0.677220
- time (local/global): 0.007/0.370
- branches (local/global): 299/11256
- fails (local/global): 133/5044
- lns time: 0.012000
- lns branches: 299
- lns fails: 133
LNS iteration #33 ========================================
- worst case average CPI: 1.250
- worst case efficiency: 0.674
- efficiency to beat: 0.674
- normalized lower bound 1316
--- checking solution
--- solution ok! Maximum rounding error: 0.000006
- solution found, obj var is: 1317
- de-normalized obj var: 0.679020
- time (local/global): 0.009/0.384
- branches (local/global): 497/11753
- fails (local/global): 225/5269
- lns time: 0.015000
- lns branches: 497
- lns fails: 225
LNS iteration #34 ========================================
- worst case average CPI: 1.250
- worst case efficiency: 0.675
- efficiency to beat: 0.675
- normalized lower bound 1335
--- checking solution
--- solution ok! Maximum rounding error: 0.000042
- solution found, obj var is: 1419
- de-normalized obj var: 0.685140
- time (local/global): 0.001/0.391
- branches (local/global): 32/11785
- fails (local/global): 6/5275
- lns time: 0.006000
- lns branches: 32
- lns fails: 6
LNS iteration #35 ========================================
- worst case average CPI: 1.250
- worst case efficiency: 0.675
- efficiency to beat: 0.675
- normalized lower bound 1337
--- checking solution
--- solution ok! Maximum rounding error: 0.000717
- solution found, obj var is: 1373
- de-normalized obj var: 0.682380
- time (local/global): 0.000/0.396
- branches (local/global): 26/11811
- fails (local/global): 2/5277
- lns time: 0.006000
- lns branches: 26
- lns fails: 2
LNS iteration #36 ========================================
- worst case average CPI: 1.250
- worst case efficiency: 0.676
- efficiency to beat: 0.676
- normalized lower bound 1354
--- checking solution
--- solution ok! Maximum rounding error: 0.000084
- solution found, obj var is: 1484
- de-normalized obj var: 0.689040
- time (local/global): 0.091/0.493
- branches (local/global): 4886/16697
- fails (local/global): 2336/7613
- lns time: 0.096000
- lns branches: 4886
- lns fails: 2336
LNS iteration #37 ========================================
- worst case average CPI: 1.250
- worst case efficiency: 0.677
- efficiency to beat: 0.677
- normalized lower bound 1375
--- checking solution
--- solution ok! Maximum rounding error: 0.000049
- solution found, obj var is: 1451
- de-normalized obj var: 0.687060
- time (local/global): 0.001/0.499
- branches (local/global): 31/16728
- fails (local/global): 5/7618
- lns time: 0.007000
- lns branches: 31
- lns fails: 5
LNS iteration #38 ========================================
- worst case average CPI: 1.250
- worst case efficiency: 0.679
- efficiency to beat: 0.679
- normalized lower bound 1392
--- checking solution
--- solution ok! Maximum rounding error: 0.000046
- solution found, obj var is: 1503
- de-normalized obj var: 0.690180
- time (local/global): 0.004/0.509
- branches (local/global): 242/16970
- fails (local/global): 102/7720
- lns time: 0.009000
- lns branches: 242
- lns fails: 102
LNS iteration #39 ========================================
- worst case average CPI: 1.250
- worst case efficiency: 0.679
- efficiency to beat: 0.679
- normalized lower bound 1393
- lns time: 3.006000
- lns branches: 159756
- lns fails: 78097
LNS iteration #40 ========================================
- worst case average CPI: 1.250
- worst case efficiency: 0.679
- efficiency to beat: 0.679
- normalized lower bound 1393
--- checking solution
--- solution ok! Maximum rounding error: 0.000103
- solution found, obj var is: 1410
- de-normalized obj var: 0.684600
- time (local/global): 0.002/3.522
- branches (local/global): 162/176888
- fails (local/global): 73/85890
- lns time: 0.009000
- lns branches: 162
- lns fails: 73
LNS iteration #41 ========================================
- worst case average CPI: 1.460
- worst case efficiency: 0.679
- efficiency to beat: 0.679
- normalized lower bound 1395
--- checking solution
--- solution ok! Maximum rounding error: 0.000061
- solution found, obj var is: 1723
- de-normalized obj var: 0.703380
- time (local/global): 0.000/3.529
- branches (local/global): 19/176907
- fails (local/global): 3/85893
- lns time: 0.005000
- lns branches: 19
- lns fails: 3
LNS iteration #42 ========================================
- worst case average CPI: 1.460
- worst case efficiency: 0.679
- efficiency to beat: 0.679
- normalized lower bound 1395
--- checking solution
--- solution ok! Maximum rounding error: 0.000015
- solution found, obj var is: 1457
- de-normalized obj var: 0.687420
- time (local/global): 0.000/3.534
- branches (local/global): 24/176931
- fails (local/global): 1/85894
- lns time: 0.007000
- lns branches: 24
- lns fails: 1
LNS iteration #43 ========================================
- worst case average CPI: 1.460
- worst case efficiency: 0.679
- efficiency to beat: 0.679
- normalized lower bound 1401
--- checking solution
--- solution ok! Maximum rounding error: 0.000036
- solution found, obj var is: 1429
- de-normalized obj var: 0.685740
- time (local/global): 0.008/3.549
- branches (local/global): 450/177381
- fails (local/global): 200/86094
- lns time: 0.014000
- lns branches: 450
- lns fails: 200
LNS iteration #44 ========================================
- worst case average CPI: 1.414
- worst case efficiency: 0.679
- efficiency to beat: 0.679
- normalized lower bound 1404
--- checking solution
--- solution ok! Maximum rounding error: 0.000000
- solution found, obj var is: 1421
- de-normalized obj var: 0.685260
- time (local/global): 0.050/3.605
- branches (local/global): 2967/180348
- fails (local/global): 1404/87498
- lns time: 0.056000
- lns branches: 2967
- lns fails: 1404
LNS iteration #45 ========================================
- worst case average CPI: 1.414
- worst case efficiency: 0.679
- efficiency to beat: 0.679
- normalized lower bound 1407
--- checking solution
--- solution ok! Maximum rounding error: 0.000045
- solution found, obj var is: 1429
- de-normalized obj var: 0.685740
- time (local/global): 0.011/3.622
- branches (local/global): 872/181220
- fails (local/global): 401/87899
- lns time: 0.017000
- lns branches: 872
- lns fails: 401
LNS iteration #46 ========================================
- worst case average CPI: 1.414
- worst case efficiency: 0.679
- efficiency to beat: 0.679
- normalized lower bound 1409
--- checking solution
--- solution ok! Maximum rounding error: 0.000079
- solution found, obj var is: 1422
- de-normalized obj var: 0.685320
- time (local/global): 0.289/3.917
- branches (local/global): 17024/198244
- fails (local/global): 8258/96157
- lns time: 0.296000
- lns branches: 17024
- lns fails: 8258
LNS iteration #47 ========================================
- worst case average CPI: 1.414
- worst case efficiency: 0.683
- efficiency to beat: 0.683
- normalized lower bound 1468
--- checking solution
--- solution ok! Maximum rounding error: 0.000000
- solution found, obj var is: 2319
- de-normalized obj var: 0.739140
- time (local/global): 0.001/3.925
- branches (local/global): 83/198327
- fails (local/global): 31/96188
- lns time: 0.007000
- lns branches: 83
- lns fails: 31
LNS iteration #48 ========================================
- worst case average CPI: 1.218
- worst case efficiency: 0.685
- efficiency to beat: 0.685
- normalized lower bound 1501
--- checking solution
--- solution ok! Maximum rounding error: 0.000111
- solution found, obj var is: 1522
- de-normalized obj var: 0.691320
- time (local/global): 0.006/3.937
- branches (local/global): 266/198593
- fails (local/global): 115/96303
- lns time: 0.012000
- lns branches: 266
- lns fails: 115
LNS iteration #49 ========================================
- worst case average CPI: 1.218
- worst case efficiency: 0.685
- efficiency to beat: 0.685
- normalized lower bound 1504
--- checking solution
--- solution ok! Maximum rounding error: 0.000183
- solution found, obj var is: 1574
- de-normalized obj var: 0.694440
- time (local/global): 0.001/3.944
- branches (local/global): 53/198646
- fails (local/global): 16/96319
- lns time: 0.007000
- lns branches: 53
- lns fails: 16
LNS iteration #50 ========================================
- worst case average CPI: 1.218
- worst case efficiency: 0.685
- efficiency to beat: 0.685
- normalized lower bound 1504
--- checking solution
--- solution ok! Maximum rounding error: 0.000005
- solution found, obj var is: 1580
- de-normalized obj var: 0.694800
- time (local/global): 0.024/3.974
- branches (local/global): 1380/200026
- fails (local/global): 641/96960
- lns time: 0.029000
- lns branches: 1380
- lns fails: 641
LNS iteration #51 ========================================
- worst case average CPI: 1.218
- worst case efficiency: 0.685
- efficiency to beat: 0.685
- normalized lower bound 1505
--- checking solution
--- solution ok! Maximum rounding error: 0.000000
- solution found, obj var is: 1570
- de-normalized obj var: 0.694200
- time (local/global): 0.005/3.984
- branches (local/global): 235/200261
- fails (local/global): 100/97060
- lns time: 0.010000
- lns branches: 235
- lns fails: 100
LNS iteration #52 ========================================
- worst case average CPI: 1.218
- worst case efficiency: 0.685
- efficiency to beat: 0.685
- normalized lower bound 1508
--- checking solution
--- solution ok! Maximum rounding error: 0.000063
- solution found, obj var is: 1522
- de-normalized obj var: 0.691320
- time (local/global): 0.001/3.990
- branches (local/global): 26/200287
- fails (local/global): 5/97065
- lns time: 0.007000
- lns branches: 26
- lns fails: 5
LNS iteration #53 ========================================
- worst case average CPI: 1.218
- worst case efficiency: 0.684
- efficiency to beat: 0.684
- normalized lower bound 1491
--- checking solution
--- solution ok! Maximum rounding error: 0.000034
- solution found, obj var is: 1777
- de-normalized obj var: 0.706620
- time (local/global): 0.001/3.997
- branches (local/global): 22/200309
- fails (local/global): 0/97065
- lns time: 0.007000
- lns branches: 22
- lns fails: 0
LNS iteration #54 ========================================
- worst case average CPI: 1.104
- worst case efficiency: 0.688
- efficiency to beat: 0.688
- normalized lower bound 1549
--- checking solution
--- solution ok! Maximum rounding error: 0.000000
- solution found, obj var is: 1566
- de-normalized obj var: 0.693960
- time (local/global): 0.015/4.018
- branches (local/global): 1097/201406
- fails (local/global): 506/97571
- lns time: 0.020000
- lns branches: 1097
- lns fails: 506
LNS iteration #55 ========================================
- worst case average CPI: 1.104
- worst case efficiency: 0.688
- efficiency to beat: 0.688
- normalized lower bound 1557
--- checking solution
--- solution ok! Maximum rounding error: 0.000061
- solution found, obj var is: 1602
- de-normalized obj var: 0.696120
- time (local/global): 0.003/4.026
- branches (local/global): 240/201646
- fails (local/global): 103/97674
- lns time: 0.009000
- lns branches: 240
- lns fails: 103
LNS iteration #56 ========================================
- worst case average CPI: 1.104
- worst case efficiency: 0.689
- efficiency to beat: 0.689
- normalized lower bound 1575
--- checking solution
--- solution ok! Maximum rounding error: 0.000061
- solution found, obj var is: 1598
- de-normalized obj var: 0.695880
- time (local/global): 0.001/4.033
- branches (local/global): 22/201668
- fails (local/global): 0/97674
- lns time: 0.006000
- lns branches: 22
- lns fails: 0
LNS iteration #57 ========================================
- worst case average CPI: 1.104
- worst case efficiency: 0.690
- efficiency to beat: 0.690
- normalized lower bound 1583
--- checking solution
--- solution ok! Maximum rounding error: 0.000043
- solution found, obj var is: 1620
- de-normalized obj var: 0.697200
- time (local/global): 0.001/4.039
- branches (local/global): 24/201692
- fails (local/global): 2/97676
- lns time: 0.006000
- lns branches: 24
- lns fails: 2
LNS iteration #58 ========================================
- worst case average CPI: 1.104
- worst case efficiency: 0.692
- efficiency to beat: 0.692
- normalized lower bound 1614
--- checking solution
--- solution ok! Maximum rounding error: 0.000099
- solution found, obj var is: 1649
- de-normalized obj var: 0.698940
- time (local/global): 0.027/4.071
- branches (local/global): 1918/203610
- fails (local/global): 901/98577
- lns time: 0.032000
- lns branches: 1918
- lns fails: 901
LNS iteration #59 ========================================
- worst case average CPI: 1.104
- worst case efficiency: 0.693
- efficiency to beat: 0.693
- normalized lower bound 1636
--- checking solution
--- solution ok! Maximum rounding error: 0.000076
- solution found, obj var is: 1695
- de-normalized obj var: 0.701700
- time (local/global): 0.000/4.076
- branches (local/global): 23/203633
- fails (local/global): 1/98578
- lns time: 0.006000
- lns branches: 23
- lns fails: 1
LNS iteration #60 ========================================
- worst case average CPI: 1.104
- worst case efficiency: 0.693
- efficiency to beat: 0.693
- normalized lower bound 1636
--- checking solution
--- solution ok! Maximum rounding error: 0.000064
- solution found, obj var is: 1661
- de-normalized obj var: 0.699660
- time (local/global): 0.008/4.090
- branches (local/global): 645/204278
- fails (local/global): 295/98873
- lns time: 0.013000
- lns branches: 645
- lns fails: 295
LNS iteration #61 ========================================
- worst case average CPI: 1.104
- worst case efficiency: 0.694
- efficiency to beat: 0.694
- normalized lower bound 1655
--- checking solution
--- solution ok! Maximum rounding error: 0.000089
- solution found, obj var is: 1657
- de-normalized obj var: 0.699420
- time (local/global): 0.649/4.744
- branches (local/global): 42743/247021
- fails (local/global): 20804/119677
- lns time: 0.654000
- lns branches: 42743
- lns fails: 20804
LNS iteration #62 ========================================
- worst case average CPI: 1.104
- worst case efficiency: 0.695
- efficiency to beat: 0.695
- normalized lower bound 1664
--- checking solution
--- solution ok! Maximum rounding error: 0.000046
- solution found, obj var is: 1927
- de-normalized obj var: 0.715620
- time (local/global): 0.019/4.768
- branches (local/global): 1329/248350
- fails (local/global): 613/120290
- lns time: 0.025000
- lns branches: 1329
- lns fails: 613
LNS iteration #63 ========================================
- worst case average CPI: 1.104
- worst case efficiency: 0.695
- efficiency to beat: 0.695
- normalized lower bound 1663
--- checking solution
--- solution ok! Maximum rounding error: 0.000077
- solution found, obj var is: 1722
- de-normalized obj var: 0.703320
- time (local/global): 0.131/4.905
- branches (local/global): 6972/255322
- fails (local/global): 3360/123650
- lns time: 0.136000
- lns branches: 6972
- lns fails: 3360
LNS iteration #64 ========================================
- worst case average CPI: 1.104
- worst case efficiency: 0.695
- efficiency to beat: 0.695
- normalized lower bound 1674
--- checking solution
--- solution ok! Maximum rounding error: 0.000035
- solution found, obj var is: 1729
- de-normalized obj var: 0.703740
- time (local/global): 0.012/4.922
- branches (local/global): 924/256246
- fails (local/global): 426/124076
- lns time: 0.018000
- lns branches: 924
- lns fails: 426
LNS iteration #65 ========================================
- worst case average CPI: 1.104
- worst case efficiency: 0.695
- efficiency to beat: 0.695
- normalized lower bound 1671
--- checking solution
--- solution ok! Maximum rounding error: 0.000068
- solution found, obj var is: 1708
- de-normalized obj var: 0.702480
- time (local/global): 2.021/6.949
- branches (local/global): 156859/413105
- fails (local/global): 76673/200749
- lns time: 2.026000
- lns branches: 156859
- lns fails: 76673
LNS iteration #66 ========================================
- worst case average CPI: 0.930
- worst case efficiency: 0.696
- efficiency to beat: 0.696
- normalized lower bound 1681
--- checking solution
--- solution ok! Maximum rounding error: 0.000071
- solution found, obj var is: 2146
- de-normalized obj var: 0.728760
- time (local/global): 0.014/6.968
- branches (local/global): 1089/414194
- fails (local/global): 500/201249
- lns time: 0.020000
- lns branches: 1089
- lns fails: 500
LNS iteration #67 ========================================
- worst case average CPI: 0.871
- worst case efficiency: 0.696
- efficiency to beat: 0.696
- normalized lower bound 1685
--- checking solution
--- solution ok! Maximum rounding error: 0.000127
- solution found, obj var is: 1937
- de-normalized obj var: 0.716220
- time (local/global): 0.033/7.007
- branches (local/global): 1783/415977
- fails (local/global): 834/202083
- lns time: 0.038000
- lns branches: 1783
- lns fails: 834
LNS iteration #68 ========================================
- worst case average CPI: 0.871
- worst case efficiency: 0.696
- efficiency to beat: 0.696
- normalized lower bound 1686
--- checking solution
--- solution ok! Maximum rounding error: 0.000076
- solution found, obj var is: 1714
- de-normalized obj var: 0.702840
- time (local/global): 0.001/7.013
- branches (local/global): 21/415998
- fails (local/global): 1/202084
- lns time: 0.006000
- lns branches: 21
- lns fails: 1
LNS iteration #69 ========================================
- worst case average CPI: 0.871
- worst case efficiency: 0.699
- efficiency to beat: 0.699
- normalized lower bound 1741
--- checking solution
--- solution ok! Maximum rounding error: 0.000000
- solution found, obj var is: 1882
- de-normalized obj var: 0.712920
- time (local/global): 0.090/7.108
- branches (local/global): 6721/422719
- fails (local/global): 3232/205316
- lns time: 0.095000
- lns branches: 6721
- lns fails: 3232
LNS iteration #70 ========================================
- worst case average CPI: 0.871
- worst case efficiency: 0.700
- efficiency to beat: 0.700
- normalized lower bound 1758
--- checking solution
--- solution ok! Maximum rounding error: 0.000029
- solution found, obj var is: 1832
- de-normalized obj var: 0.709920
- time (local/global): 0.052/7.165
- branches (local/global): 3878/426597
- fails (local/global): 1839/207155
- lns time: 0.057000
- lns branches: 3878
- lns fails: 1839
LNS iteration #71 ========================================
- worst case average CPI: 0.871
- worst case efficiency: 0.702
- efficiency to beat: 0.702
- normalized lower bound 1791
--- checking solution
--- solution ok! Maximum rounding error: 0.000041
- solution found, obj var is: 1842
- de-normalized obj var: 0.710520
- time (local/global): 0.001/7.171
- branches (local/global): 53/426650
- fails (local/global): 17/207172
- lns time: 0.006000
- lns branches: 53
- lns fails: 17
LNS iteration #72 ========================================
- worst case average CPI: 0.871
- worst case efficiency: 0.703
- efficiency to beat: 0.703
- normalized lower bound 1795
--- checking solution
--- solution ok! Maximum rounding error: 0.000025
- solution found, obj var is: 1799
- de-normalized obj var: 0.707940
- time (local/global): 0.834/8.010
- branches (local/global): 44912/471562
- fails (local/global): 21948/229120
- lns time: 0.839000
- lns branches: 44912
- lns fails: 21948
LNS iteration #73 ========================================
- worst case average CPI: 0.813
- worst case efficiency: 0.703
- efficiency to beat: 0.703
- normalized lower bound 1806
--- checking solution
--- solution ok! Maximum rounding error: 0.000130
- solution found, obj var is: 1835
- de-normalized obj var: 0.710100
- time (local/global): 0.004/8.019
- branches (local/global): 121/471683
- fails (local/global): 50/229170
- lns time: 0.009000
- lns branches: 121
- lns fails: 50
LNS iteration #74 ========================================
- worst case average CPI: 0.813
- worst case efficiency: 0.703
- efficiency to beat: 0.703
- normalized lower bound 1802
--- checking solution
--- solution ok! Maximum rounding error: 0.000084
- solution found, obj var is: 1829
- de-normalized obj var: 0.709740
- time (local/global): 0.969/8.993
- branches (local/global): 65871/537554
- fails (local/global): 32016/261186
- lns time: 0.974000
- lns branches: 65871
- lns fails: 32016
LNS iteration #75 ========================================
- worst case average CPI: 0.813
- worst case efficiency: 0.704
- efficiency to beat: 0.704
- normalized lower bound 1811
--- checking solution
--- solution ok! Maximum rounding error: 0.000074
- solution found, obj var is: 1826
- de-normalized obj var: 0.709560
- time (local/global): 0.007/9.005
- branches (local/global): 392/537946
- fails (local/global): 179/261365
- lns time: 0.012000
- lns branches: 392
- lns fails: 179
LNS iteration #76 ========================================
- worst case average CPI: 0.813
- worst case efficiency: 0.705
- efficiency to beat: 0.705
- normalized lower bound 1828
--- checking solution
--- solution ok! Maximum rounding error: 0.000240
- solution found, obj var is: 1841
- de-normalized obj var: 0.710460
- time (local/global): 0.722/9.732
- branches (local/global): 40982/578928
- fails (local/global): 19982/281347
- lns time: 0.727000
- lns branches: 40982
- lns fails: 19982
LNS iteration #77 ========================================
- worst case average CPI: 0.930
- worst case efficiency: 0.706
- efficiency to beat: 0.706
- normalized lower bound 1851
--- checking solution
--- solution ok! Maximum rounding error: 0.000044
- solution found, obj var is: 2073
- de-normalized obj var: 0.724380
- time (local/global): 0.004/9.741
- branches (local/global): 283/579211
- fails (local/global): 125/281472
- lns time: 0.009000
- lns branches: 283
- lns fails: 125
LNS iteration #78 ========================================
- worst case average CPI: 0.930
- worst case efficiency: 0.707
- efficiency to beat: 0.707
- normalized lower bound 1866
--- checking solution
--- solution ok! Maximum rounding error: 0.000041
- solution found, obj var is: 1885
- de-normalized obj var: 0.713100
- time (local/global): 0.002/9.748
- branches (local/global): 54/579265
- fails (local/global): 18/281490
- lns time: 0.007000
- lns branches: 54
- lns fails: 18
LNS iteration #79 ========================================
- worst case average CPI: 0.930
- worst case efficiency: 0.708
- efficiency to beat: 0.708
- normalized lower bound 1876
--- checking solution
--- solution ok! Maximum rounding error: 0.000029
- solution found, obj var is: 1905
- de-normalized obj var: 0.714300
- time (local/global): 0.001/9.754
- branches (local/global): 27/579292
- fails (local/global): 4/281494
- lns time: 0.006000
- lns branches: 27
- lns fails: 4
LNS iteration #80 ========================================
- worst case average CPI: 0.930
- worst case efficiency: 0.710
- efficiency to beat: 0.710
- normalized lower bound 1910
--- checking solution
--- solution ok! Maximum rounding error: 0.000000
- solution found, obj var is: 1949
- de-normalized obj var: 0.716940
- time (local/global): 0.126/9.885
- branches (local/global): 9260/588552
- fails (local/global): 4452/285946
- lns time: 0.132000
- lns branches: 9260
- lns fails: 4452
LNS iteration #81 ========================================
- worst case average CPI: 0.930
- worst case efficiency: 0.710
- efficiency to beat: 0.710
- normalized lower bound 1913
--- checking solution
--- solution ok! Maximum rounding error: 0.000047
- solution found, obj var is: 1924
- de-normalized obj var: 0.715440
- time (local/global): 0.323/10.214
- branches (local/global): 23345/611897
- fails (local/global): 11304/297250
- lns time: 0.329000
- lns branches: 23345
- lns fails: 11304
LNS iteration #82 ========================================
- worst case average CPI: 0.930
- worst case efficiency: 0.710
- efficiency to beat: 0.710
- normalized lower bound 1914
--- checking solution
--- solution ok! Maximum rounding error: 0.000051
- solution found, obj var is: 2981
- de-normalized obj var: 0.778860
- time (local/global): 0.000/10.220
- branches (local/global): 24/611921
- fails (local/global): 1/297251
- lns time: 0.006000
- lns branches: 24
- lns fails: 1
LNS iteration #83 ========================================
- worst case average CPI: 0.930
- worst case efficiency: 0.714
- efficiency to beat: 0.714
- normalized lower bound 1985
--- checking solution
--- solution ok! Maximum rounding error: 0.000047
- solution found, obj var is: 2135
- de-normalized obj var: 0.728100
- time (local/global): 0.071/10.297
- branches (local/global): 6021/617942
- fails (local/global): 2879/300130
- lns time: 0.077000
- lns branches: 6021
- lns fails: 2879
LNS iteration #84 ========================================
- worst case average CPI: 0.930
- worst case efficiency: 0.714
- efficiency to beat: 0.714
- normalized lower bound 1989
--- checking solution
--- solution ok! Maximum rounding error: 0.000031
- solution found, obj var is: 2075
- de-normalized obj var: 0.724500
- time (local/global): 0.024/10.327
- branches (local/global): 1414/619356
- fails (local/global): 662/300792
- lns time: 0.029000
- lns branches: 1414
- lns fails: 662
LNS iteration #85 ========================================
- worst case average CPI: 0.930
- worst case efficiency: 0.715
- efficiency to beat: 0.715
- normalized lower bound 1998
--- checking solution
--- solution ok! Maximum rounding error: 0.000100
- solution found, obj var is: 2035
- de-normalized obj var: 0.722100
- time (local/global): 0.143/10.475
- branches (local/global): 16019/635375
- fails (local/global): 7750/308542
- lns time: 0.149000
- lns branches: 16019
- lns fails: 7750
LNS iteration #86 ========================================
- worst case average CPI: 0.986
- worst case efficiency: 0.715
- efficiency to beat: 0.715
- normalized lower bound 2006
- lns time: 3.005000
- lns branches: 210900
- lns fails: 103623
LNS iteration #87 ========================================
- worst case average CPI: 0.986
- worst case efficiency: 0.715
- efficiency to beat: 0.715
- normalized lower bound 2006
- lns time: 3.006000
- lns branches: 208996
- lns fails: 102803
LNS iteration #88 ========================================
- worst case average CPI: 0.986
- worst case efficiency: 0.715
- efficiency to beat: 0.715
- normalized lower bound 2006
--- checking solution
--- solution ok! Maximum rounding error: 0.000131
- solution found, obj var is: 2063
- de-normalized obj var: 0.723780
- time (local/global): 0.149/16.641
- branches (local/global): 11685/1066956
- fails (local/global): 5603/520571
- lns time: 0.155000
- lns branches: 11685
- lns fails: 5603
LNS iteration #89 ========================================
- worst case average CPI: 0.986
- worst case efficiency: 0.715
- efficiency to beat: 0.715
- normalized lower bound 2007
--- checking solution
--- solution ok! Maximum rounding error: 0.000012
- solution found, obj var is: 2014
- de-normalized obj var: 0.720840
- time (local/global): 0.018/16.665
- branches (local/global): 1086/1068042
- fails (local/global): 509/521080
- lns time: 0.023000
- lns branches: 1086
- lns fails: 509
LNS iteration #90 ========================================
- worst case average CPI: 0.986
- worst case efficiency: 0.715
- efficiency to beat: 0.715
- normalized lower bound 2008
--- checking solution
--- solution ok! Maximum rounding error: 0.000101
- solution found, obj var is: 2033
- de-normalized obj var: 0.721980
- time (local/global): 0.118/16.788
- branches (local/global): 8306/1076348
- fails (local/global): 3991/525071
- lns time: 0.123000
- lns branches: 8306
- lns fails: 3991
LNS iteration #91 ========================================
- worst case average CPI: 0.986
- worst case efficiency: 0.716
- efficiency to beat: 0.716
- normalized lower bound 2009
- lns time: 3.005000
- lns branches: 206678
- lns fails: 101564
LNS iteration #92 ========================================
- worst case average CPI: 0.986
- worst case efficiency: 0.716
- efficiency to beat: 0.716
- normalized lower bound 2009
--- checking solution
--- solution ok! Maximum rounding error: 0.000299
- solution found, obj var is: 2100
- de-normalized obj var: 0.726000
- time (local/global): 1.706/21.504
- branches (local/global): 138642/1421668
- fails (local/global): 67628/694263
- lns time: 1.711000
- lns branches: 138642
- lns fails: 67628
LNS iteration #93 ========================================
- worst case average CPI: 0.986
- worst case efficiency: 0.716
- efficiency to beat: 0.716
- normalized lower bound 2021
--- checking solution
--- solution ok! Maximum rounding error: 0.000055
- solution found, obj var is: 2090
- de-normalized obj var: 0.725400
- time (local/global): 0.045/21.554
- branches (local/global): 3581/1425249
- fails (local/global): 1701/695964
- lns time: 0.050000
- lns branches: 3581
- lns fails: 1701
LNS iteration #94 ========================================
- worst case average CPI: 0.986
- worst case efficiency: 0.717
- efficiency to beat: 0.717
- normalized lower bound 2029
- lns time: 3.006000
- lns branches: 214092
- lns fails: 105066
LNS iteration #95 ========================================
- worst case average CPI: 0.986
- worst case efficiency: 0.717
- efficiency to beat: 0.717
- normalized lower bound 2029
--- checking solution
--- solution ok! Maximum rounding error: 0.000087
- solution found, obj var is: 2049
- de-normalized obj var: 0.722940
- time (local/global): 0.061/24.626
- branches (local/global): 4340/1643681
- fails (local/global): 2062/803092
- lns time: 0.067000
- lns branches: 4340
- lns fails: 2062
LNS iteration #96 ========================================
- worst case average CPI: 0.986
- worst case efficiency: 0.717
- efficiency to beat: 0.717
- normalized lower bound 2036
--- checking solution
--- solution ok! Maximum rounding error: 0.000054
- solution found, obj var is: 2041
- de-normalized obj var: 0.722460
- time (local/global): 0.202/24.834
- branches (local/global): 7076/1650757
- fails (local/global): 3401/806493
- lns time: 0.207000
- lns branches: 7076
- lns fails: 3401
LNS iteration #97 ========================================
- worst case average CPI: 0.986
- worst case efficiency: 0.717
- efficiency to beat: 0.717
- normalized lower bound 2027
- lns time: 3.006000
- lns branches: 198081
- lns fails: 97296
LNS iteration #98 ========================================
- worst case average CPI: 0.986
- worst case efficiency: 0.717
- efficiency to beat: 0.717
- normalized lower bound 2027
--- checking solution
--- solution ok! Maximum rounding error: 0.000047
- solution found, obj var is: 2080
- de-normalized obj var: 0.724800
- time (local/global): 0.565/28.410
- branches (local/global): 42311/1891149
- fails (local/global): 20615/924404
- lns time: 0.571000
- lns branches: 42311
- lns fails: 20615
LNS iteration #99 ========================================
- worst case average CPI: 0.986
- worst case efficiency: 0.717
- efficiency to beat: 0.717
- normalized lower bound 2030
--- checking solution
--- solution ok! Maximum rounding error: 0.000043
- solution found, obj var is: 2035
- de-normalized obj var: 0.722100
- time (local/global): 0.005/28.421
- branches (local/global): 235/1891384
- fails (local/global): 102/924506
- lns time: 0.010000
- lns branches: 235
- lns fails: 102
LNS iteration #100 ========================================
- worst case average CPI: 0.986
- worst case efficiency: 0.721
- efficiency to beat: 0.721
- normalized lower bound 2107
--- checking solution
--- solution ok! Maximum rounding error: 0.000097
- solution found, obj var is: 2292
- de-normalized obj var: 0.737520
- time (local/global): 0.011/28.437
- branches (local/global): 531/1891915
- fails (local/global): 238/924744
- lns time: 0.016000
- lns branches: 531
- lns fails: 238
LNS iteration #101 ========================================
- worst case average CPI: 0.909
- worst case efficiency: 0.722
- efficiency to beat: 0.722
- normalized lower bound 2119
--- checking solution
--- solution ok! Maximum rounding error: 0.000047
- solution found, obj var is: 2137
- de-normalized obj var: 0.728220
- time (local/global): 0.456/28.898
- branches (local/global): 28208/1920123
- fails (local/global): 13669/938413
- lns time: 0.462000
- lns branches: 28208
- lns fails: 13669
LNS iteration #102 ========================================
- worst case average CPI: 0.909
- worst case efficiency: 0.722
- efficiency to beat: 0.722
- normalized lower bound 2123
--- checking solution
--- solution ok! Maximum rounding error: 0.000136
- solution found, obj var is: 2194
- de-normalized obj var: 0.731640
- time (local/global): 0.030/28.934
- branches (local/global): 1244/1921367
- fails (local/global): 585/938998
- lns time: 0.036000
- lns branches: 1244
- lns fails: 585
LNS iteration #103 ========================================
- worst case average CPI: 0.909
- worst case efficiency: 0.722
- efficiency to beat: 0.722
- normalized lower bound 2125
--- checking solution
--- solution ok! Maximum rounding error: 0.000088
- solution found, obj var is: 2126
- de-normalized obj var: 0.727560
- time (local/global): 1.763/30.703
- branches (local/global): 132319/2053686
- fails (local/global): 64713/1003711
- lns time: 1.768000
- lns branches: 132319
- lns fails: 64713
LNS iteration #104 ========================================
- worst case average CPI: 0.909
- worst case efficiency: 0.723
- efficiency to beat: 0.723
- normalized lower bound 2132
--- checking solution
--- solution ok! Maximum rounding error: 0.000073
- solution found, obj var is: 2135
- de-normalized obj var: 0.728100
- time (local/global): 0.317/31.025
- branches (local/global): 23935/2077621
- fails (local/global): 11613/1015324
- lns time: 0.322000
- lns branches: 23935
- lns fails: 11613
LNS iteration #105 ========================================
- worst case average CPI: 0.909
- worst case efficiency: 0.723
- efficiency to beat: 0.723
- normalized lower bound 2132
--- checking solution
--- solution ok! Maximum rounding error: 0.000035
- solution found, obj var is: 2185
- de-normalized obj var: 0.731100
- time (local/global): 0.012/31.042
- branches (local/global): 904/2078525
- fails (local/global): 417/1015741
- lns time: 0.017000
- lns branches: 904
- lns fails: 417
LNS iteration #106 ========================================
- worst case average CPI: 0.909
- worst case efficiency: 0.724
- efficiency to beat: 0.724
- normalized lower bound 2151
--- checking solution
--- solution ok! Maximum rounding error: 0.000045
- solution found, obj var is: 2158
- de-normalized obj var: 0.729480
- time (local/global): 0.013/31.060
- branches (local/global): 901/2079426
- fails (local/global): 419/1016160
- lns time: 0.019000
- lns branches: 901
- lns fails: 419
LNS iteration #107 ========================================
- worst case average CPI: 0.909
- worst case efficiency: 0.725
- efficiency to beat: 0.725
- normalized lower bound 2165
- lns time: 3.006000
- lns branches: 223773
- lns fails: 109960
LNS iteration #108 ========================================
- worst case average CPI: 0.909
- worst case efficiency: 0.725
- efficiency to beat: 0.725
- normalized lower bound 2165
--- checking solution
--- solution ok! Maximum rounding error: 0.000036
- solution found, obj var is: 2667
- de-normalized obj var: 0.760020
- time (local/global): 0.271/34.343
- branches (local/global): 20276/2323475
- fails (local/global): 9802/1135922
- lns time: 0.277000
- lns branches: 20276
- lns fails: 9802
LNS iteration #109 ========================================
- worst case average CPI: 0.909
- worst case efficiency: 0.726
- efficiency to beat: 0.726
- normalized lower bound 2176
--- checking solution
--- solution ok! Maximum rounding error: 0.000059
- solution found, obj var is: 2195
- de-normalized obj var: 0.731700
- time (local/global): 1.193/35.542
- branches (local/global): 115020/2438495
- fails (local/global): 56100/1192022
- lns time: 1.198000
- lns branches: 115020
- lns fails: 56100
LNS iteration #110 ========================================
- worst case average CPI: 1.015
- worst case efficiency: 0.726
- efficiency to beat: 0.726
- normalized lower bound 2179
--- checking solution
--- solution ok! Maximum rounding error: 0.000013
- solution found, obj var is: 2245
- de-normalized obj var: 0.734700
- time (local/global): 0.107/35.654
- branches (local/global): 8245/2446740
- fails (local/global): 3961/1195983
- lns time: 0.112000
- lns branches: 8245
- lns fails: 3961
LNS iteration #111 ========================================
- worst case average CPI: 0.889
- worst case efficiency: 0.726
- efficiency to beat: 0.726
- normalized lower bound 2188
- lns time: 3.005000
- lns branches: 189251
- lns fails: 92853
LNS iteration #112 ========================================
- worst case average CPI: 0.889
- worst case efficiency: 0.726
- efficiency to beat: 0.726
- normalized lower bound 2188
--- checking solution
--- solution ok! Maximum rounding error: 0.000023
- solution found, obj var is: 2218
- de-normalized obj var: 0.733080
- time (local/global): 0.063/38.727
- branches (local/global): 4026/2640017
- fails (local/global): 1917/1290753
- lns time: 0.068000
- lns branches: 4026
- lns fails: 1917
LNS iteration #113 ========================================
- worst case average CPI: 0.889
- worst case efficiency: 0.727
- efficiency to beat: 0.727
- normalized lower bound 2199
--- checking solution
--- solution ok! Maximum rounding error: 0.000149
- solution found, obj var is: 2268
- de-normalized obj var: 0.736080
- time (local/global): 0.355/39.087
- branches (local/global): 26503/2666520
- fails (local/global): 12836/1303589
- lns time: 0.360000
- lns branches: 26503
- lns fails: 12836
LNS iteration #114 ========================================
- worst case average CPI: 0.889
- worst case efficiency: 0.727
- efficiency to beat: 0.727
- normalized lower bound 2209
--- checking solution
--- solution ok! Maximum rounding error: 0.000018
- solution found, obj var is: 2301
- de-normalized obj var: 0.738060
- time (local/global): 0.642/39.734
- branches (local/global): 53029/2719549
- fails (local/global): 25754/1329343
- lns time: 0.648000
- lns branches: 53029
- lns fails: 25754
LNS iteration #115 ========================================
- worst case average CPI: 0.889
- worst case efficiency: 0.728
- efficiency to beat: 0.728
- normalized lower bound 2220
--- checking solution
--- solution ok! Maximum rounding error: 0.000047
- solution found, obj var is: 2225
- de-normalized obj var: 0.733500
- time (local/global): 0.003/39.743
- branches (local/global): 239/2719788
- fails (local/global): 104/1329447
- lns time: 0.009000
- lns branches: 239
- lns fails: 104
LNS iteration #116 ========================================
- worst case average CPI: 0.889
- worst case efficiency: 0.728
- efficiency to beat: 0.728
- normalized lower bound 2222
--- checking solution
--- solution ok! Maximum rounding error: 0.000039
- solution found, obj var is: 2226
- de-normalized obj var: 0.733560
- time (local/global): 0.002/39.751
- branches (local/global): 25/2719813
- fails (local/global): 4/1329451
- lns time: 0.007000
- lns branches: 25
- lns fails: 4
LNS iteration #117 ========================================
- worst case average CPI: 0.889
- worst case efficiency: 0.729
- efficiency to beat: 0.729
- normalized lower bound 2233
--- checking solution
--- solution ok! Maximum rounding error: 0.000000
- solution found, obj var is: 2258
- de-normalized obj var: 0.735480
- time (local/global): 0.007/39.763
- branches (local/global): 460/2720273
- fails (local/global): 205/1329656
- lns time: 0.012000
- lns branches: 460
- lns fails: 205
LNS iteration #118 ========================================
- worst case average CPI: 1.075
- worst case efficiency: 0.729
- efficiency to beat: 0.729
- normalized lower bound 2241
--- checking solution
--- solution ok! Maximum rounding error: 0.000045
- solution found, obj var is: 2244
- de-normalized obj var: 0.734640
- time (local/global): 0.008/39.776
- branches (local/global): 540/2720813
- fails (local/global): 246/1329902
- lns time: 0.013000
- lns branches: 540
- lns fails: 246
LNS iteration #119 ========================================
- worst case average CPI: 1.075
- worst case efficiency: 0.730
- efficiency to beat: 0.730
- normalized lower bound 2250
--- checking solution
--- solution ok! Maximum rounding error: 0.000092
- solution found, obj var is: 2274
- de-normalized obj var: 0.736440
- time (local/global): 0.863/40.644
- branches (local/global): 50181/2770994
- fails (local/global): 24437/1354339
- lns time: 0.868000
- lns branches: 50181
- lns fails: 24437
LNS iteration #120 ========================================
- worst case average CPI: 1.075
- worst case efficiency: 0.731
- efficiency to beat: 0.731
- normalized lower bound 2260
--- checking solution
--- solution ok! Maximum rounding error: 0.000056
- solution found, obj var is: 2314
- de-normalized obj var: 0.738840
- time (local/global): 0.331/40.980
- branches (local/global): 24434/2795428
- fails (local/global): 11801/1366140
- lns time: 0.337000
- lns branches: 24434
- lns fails: 11801
LNS iteration #121 ========================================
- worst case average CPI: 1.075
- worst case efficiency: 0.731
- efficiency to beat: 0.731
- normalized lower bound 2266
--- checking solution
--- solution ok! Maximum rounding error: 0.000258
- solution found, obj var is: 2563
- de-normalized obj var: 0.753780
- time (local/global): 0.021/41.007
- branches (local/global): 1307/2796735
- fails (local/global): 602/1366742
- lns time: 0.027000
- lns branches: 1307
- lns fails: 602
LNS iteration #122 ========================================
- worst case average CPI: 1.075
- worst case efficiency: 0.733
- efficiency to beat: 0.733
- normalized lower bound 2296
- lns time: 3.005000
- lns branches: 182738
- lns fails: 89497
LNS iteration #123 ========================================
- worst case average CPI: 1.075
- worst case efficiency: 0.733
- efficiency to beat: 0.733
- normalized lower bound 2296
- lns time: 3.006000
- lns branches: 181535
- lns fails: 89082
LNS iteration #124 ========================================
- worst case average CPI: 1.075
- worst case efficiency: 0.733
- efficiency to beat: 0.733
- normalized lower bound 2296
- lns time: 3.006000
- lns branches: 197693
- lns fails: 97053
LNS iteration #125 ========================================
- worst case average CPI: 1.075
- worst case efficiency: 0.733
- efficiency to beat: 0.733
- normalized lower bound 2296
- lns time: 3.005000
- lns branches: 305106
- lns fails: 150601
LNS iteration #126 ========================================
- worst case average CPI: 1.075
- worst case efficiency: 0.733
- efficiency to beat: 0.733
- normalized lower bound 2296
- lns time: 3.006000
- lns branches: 231767
- lns fails: 113701
LNS iteration #127 ========================================
- worst case average CPI: 1.075
- worst case efficiency: 0.733
- efficiency to beat: 0.733
- normalized lower bound 2296
- lns time: 3.006000
- lns branches: 156121
- lns fails: 76428
LNS iteration #128 ========================================
- worst case average CPI: 1.075
- worst case efficiency: 0.733
- efficiency to beat: 0.733
- normalized lower bound 2296
- lns time: 3.006000
- lns branches: 188699
- lns fails: 92490
LNS iteration #129 ========================================
- worst case average CPI: 1.075
- worst case efficiency: 0.733
- efficiency to beat: 0.733
- normalized lower bound 2296
--- checking solution
--- solution ok! Maximum rounding error: 0.000047
- solution found, obj var is: 2310
- de-normalized obj var: 0.738600
- time (local/global): 1.585/63.638
- branches (local/global): 122059/4362453
- fails (local/global): 60128/2135722
- lns time: 1.590000
- lns branches: 122059
- lns fails: 60128
LNS iteration #130 ========================================
- worst case average CPI: 1.075
- worst case efficiency: 0.733
- efficiency to beat: 0.733
- normalized lower bound 2307
--- checking solution
--- solution ok! Maximum rounding error: 0.000037
- solution found, obj var is: 2383
- de-normalized obj var: 0.742980
- time (local/global): 0.024/63.667
- branches (local/global): 1130/4363583
- fails (local/global): 527/2136249
- lns time: 0.029000
- lns branches: 1130
- lns fails: 527
LNS iteration #131 ========================================
- worst case average CPI: 1.075
- worst case efficiency: 0.734
- efficiency to beat: 0.734
- normalized lower bound 2310
--- checking solution
--- solution ok! Maximum rounding error: 0.000029
- solution found, obj var is: 2376
- de-normalized obj var: 0.742560
- time (local/global): 0.234/63.906
- branches (local/global): 18996/4382579
- fails (local/global): 9206/2145455
- lns time: 0.241000
- lns branches: 18996
- lns fails: 9206
LNS iteration #132 ========================================
- worst case average CPI: 1.075
- worst case efficiency: 0.734
- efficiency to beat: 0.734
- normalized lower bound 2320
--- checking solution
--- solution ok! Maximum rounding error: 0.000055
- solution found, obj var is: 2351
- de-normalized obj var: 0.741060
- time (local/global): 1.318/65.231
- branches (local/global): 114572/4497151
- fails (local/global): 56472/2201927
- lns time: 1.323000
- lns branches: 114572
- lns fails: 56472
LNS iteration #133 ========================================
- worst case average CPI: 1.075
- worst case efficiency: 0.736
- efficiency to beat: 0.736
- normalized lower bound 2352
--- checking solution
--- solution ok! Maximum rounding error: 0.000191
- solution found, obj var is: 2385
- de-normalized obj var: 0.743100
- time (local/global): 1.376/66.612
- branches (local/global): 103070/4600221
- fails (local/global): 50356/2252283
- lns time: 1.382000
- lns branches: 103070
- lns fails: 50356
LNS iteration #134 ========================================
- worst case average CPI: 0.894
- worst case efficiency: 0.737
- efficiency to beat: 0.737
- normalized lower bound 2365
--- checking solution
--- solution ok! Maximum rounding error: 0.000044
- solution found, obj var is: 2424
- de-normalized obj var: 0.745440
- time (local/global): 0.226/66.844
- branches (local/global): 19570/4619791
- fails (local/global): 9621/2261904
- lns time: 0.231000
- lns branches: 19570
- lns fails: 9621
LNS iteration #135 ========================================
- worst case average CPI: 0.880
- worst case efficiency: 0.737
- efficiency to beat: 0.737
- normalized lower bound 2371
--- checking solution
--- solution ok! Maximum rounding error: 0.000174
- solution found, obj var is: 2425
- de-normalized obj var: 0.745500
- time (local/global): 0.720/67.569
- branches (local/global): 50583/4670374
- fails (local/global): 24581/2286485
- lns time: 0.726000
- lns branches: 50583
- lns fails: 24581
LNS iteration #136 ========================================
- worst case average CPI: 0.880
- worst case efficiency: 0.737
- efficiency to beat: 0.737
- normalized lower bound 2372
--- checking solution
--- solution ok! Maximum rounding error: 0.000132
- solution found, obj var is: 2452
- de-normalized obj var: 0.747120
- time (local/global): 0.204/67.779
- branches (local/global): 16547/4686921
- fails (local/global): 8001/2294486
- lns time: 0.209000
- lns branches: 16547
- lns fails: 8001
LNS iteration #137 ========================================
- worst case average CPI: 0.782
- worst case efficiency: 0.737
- efficiency to beat: 0.737
- normalized lower bound 2374
--- checking solution
--- solution ok! Maximum rounding error: 0.000024
- solution found, obj var is: 2416
- de-normalized obj var: 0.744960
- time (local/global): 0.102/67.886
- branches (local/global): 6859/4693780
- fails (local/global): 3302/2297788
- lns time: 0.107000
- lns branches: 6859
- lns fails: 3302
LNS iteration #138 ========================================
- worst case average CPI: 0.782
- worst case efficiency: 0.739
- efficiency to beat: 0.739
- normalized lower bound 2406
- lns time: 3.005000
- lns branches: 213350
- lns fails: 104912
LNS iteration #139 ========================================
- worst case average CPI: 0.782
- worst case efficiency: 0.739
- efficiency to beat: 0.739
- normalized lower bound 2406
- lns time: 3.006000
- lns branches: 194631
- lns fails: 95567
LNS iteration #140 ========================================
- worst case average CPI: 0.782
- worst case efficiency: 0.739
- efficiency to beat: 0.739
- normalized lower bound 2406
--- checking solution
--- solution ok! Maximum rounding error: 0.000067
- solution found, obj var is: 2431
- de-normalized obj var: 0.745860
- time (local/global): 2.550/76.452
- branches (local/global): 158508/5260269
- fails (local/global): 77665/2575932
- lns time: 2.556000
- lns branches: 158508
- lns fails: 77665
LNS iteration #141 ========================================
- worst case average CPI: 0.782
- worst case efficiency: 0.740
- efficiency to beat: 0.740
- normalized lower bound 2416
- lns time: 3.006000
- lns branches: 179575
- lns fails: 87922
LNS iteration #142 ========================================
- worst case average CPI: 0.782
- worst case efficiency: 0.740
- efficiency to beat: 0.740
- normalized lower bound 2416
- lns time: 3.006000
- lns branches: 212386
- lns fails: 104224
LNS iteration #143 ========================================
- worst case average CPI: 0.782
- worst case efficiency: 0.740
- efficiency to beat: 0.740
- normalized lower bound 2416
- lns time: 3.006000
- lns branches: 247776
- lns fails: 121336
LNS iteration #144 ========================================
- worst case average CPI: 0.782
- worst case efficiency: 0.740
- efficiency to beat: 0.740
- normalized lower bound 2416
- lns time: 3.006000
- lns branches: 210198
- lns fails: 103290
LNS iteration #145 ========================================
- worst case average CPI: 0.782
- worst case efficiency: 0.740
- efficiency to beat: 0.740
- normalized lower bound 2416
- lns time: 1.524000
- lns branches: 108284
- lns fails: 52966

LNS optimization is over========================================
initial worst case average CPI: 2.182
final worst case average CPI: 0.782
initial worst case efficiency: 0.639
final worst case efficiency: 0.740
number of iterations: 146
total time: 90006.000000
total branches: 6218488
total fails: 3045670

Final Solution: 0->43, 1->21, 2->40, 3->7, 4->5, 5->23, 6->38, 7->7, 8->26, 9->41, 10->23, 11->34, 12->44, 13->11, 14->29, 15->5, 16->0, 17->41, 18->10, 19->36, 20->6, 21->3, 22->23, 23->22, 24->39, 25->22, 26->8, 27->39, 28->12, 29->11, 30->30, 31->12, 32->29, 33->24, 34->21, 35->8, 36->21, 37->4, 38->14, 39->26, 40->25, 41->9, 42->16, 43->42, 44->19, 45->8, 46->7, 47->25, 48->1, 49->18, 50->15, 51->38, 52->0, 53->47, 54->27, 55->3, 56->45, 57->11, 58->29, 59->35, 60->11, 61->35, 62->8, 63->3, 64->30, 65->38, 66->35, 67->18, 68->47, 69->39, 70->13, 71->42, 72->28, 73->46, 74->6, 75->16, 76->2, 77->30, 78->27, 79->21, 80->17, 81->36, 82->13, 83->1, 84->8, 85->47, 86->29, 87->26, 88->33, 89->22, 90->21, 91->45, 92->44, 93->24, 94->3, 95->30, 96->4, 97->30, 98->31, 99->38, 100->35, 101->25, 102->11, 103->34, 104->45, 105->19, 106->45, 107->46, 108->6, 109->22, 110->19, 111->6, 112->47, 113->29, 114->3, 115->16, 116->15, 117->14, 118->42, 119->20, 120->44, 121->43, 122->1, 123->5, 124->28, 125->42, 126->24, 127->20, 128->12, 129->1, 130->45, 131->32, 132->12, 133->19, 134->30, 135->36, 136->6, 137->15, 138->23, 139->12, 140->23, 141->21, 142->18, 143->20, 144->7, 145->9, 146->27, 147->20, 148->37, 149->34, 150->26, 151->32, 152->32, 153->31, 154->8, 155->38, 156->33, 157->1, 158->24, 159->47, 160->27, 161->40, 162->9, 163->24, 164->10, 165->14, 166->18, 167->37, 168->9, 169->23, 170->31, 171->13, 172->29, 173->15, 174->17, 175->33, 176->31, 177->41, 178->35, 179->40, 180->37, 181->15, 182->25, 183->25, 184->16, 185->10, 186->13, 187->45, 188->38, 189->41, 190->28, 191->9, 192->25, 193->19, 194->46, 195->20, 196->37, 197->3, 198->44, 199->2, 200->27, 201->28, 202->5, 203->44, 204->5, 205->10, 206->32, 207->43, 208->36, 209->44, 210->2, 211->0, 212->6, 213->41, 214->24, 215->17, 216->43, 217->0, 218->22, 219->2, 220->26, 221->19, 222->14, 223->18, 224->26, 225->40, 226->33, 227->14, 228->11, 229->42, 230->46, 231->33, 232->34, 233->35, 234->10, 235->2, 236->27, 237->4, 238->2, 239->7, 240->36, 241->46, 242->16, 243->43, 244->37, 245->28, 246->22, 247->41, 248->34, 249->17, 250->15, 251->16, 252->12, 253->0, 254->39, 255->28, 256->37, 257->4, 258->5, 259->31, 260->20, 261->13, 262->31, 263->34, 264->40, 265->17, 266->46, 267->36, 268->33, 269->42, 270->18, 271->32, 272->10, 273->4, 274->39, 275->47, 276->13, 277->14, 278->40, 279->0, 280->4, 281->7, 282->17, 283->39, 284->43, 285->9, 286->1, 287->32

Average CPI map:
	5.04,	1.56,	1.34,	1.31,	1.46,	0.87
	1.78,	2.31,	3.04,	3.98,	3.99,	2.01
	1.09,	4.27,	5.75,	4.85,	3.61,	0.78
	1.56,	3.79,	3.88,	2.89,	4.42,	1.19
	2.09,	4.39,	6.82,	4.87,	3.90,	1.08
	1.88,	3.68,	5.12,	3.23,	4.43,	1.37
	1.47,	4.05,	5.44,	2.99,	3.98,	3.26
	1.39,	2.16,	2.57,	3.39,	2.50,	1.18

Efficiency map:
	0.997,	0.935,	0.909,	0.959,	0.914,	1.003
	0.793,	0.743,	0.750,	0.755,	0.761,	0.841
	0.821,	0.753,	0.742,	0.760,	0.743,	0.747
	0.819,	0.748,	0.768,	0.744,	0.753,	0.934
	0.873,	0.747,	0.746,	0.754,	0.741,	0.778
	0.799,	0.769,	0.740,	0.746,	0.745,	0.820
	0.813,	0.753,	0.745,	0.743,	0.750,	0.862
	0.815,	0.745,	0.746,	0.746,	0.747,	0.793
