==============================================================================
LNS optimizer for EML demonstration
==============================================================================

Option values: --wld-idx 15 --prec 10000 --step 0 --global-tlim 90 --global-iter 1000 --local-tlim 3 --local-nsol 1 --restart-base 100 --restart-strat luby --seed 501

Starting the Optimization Process
reserved_tasks None
Finding a first solution
LNS iteration #0 ========================================
- worst case average CPI: 2.089
- worst case efficiency: 0.631
- efficiency to beat: 0.631
- normalized lower bound 605
--- checking solution
--- solution ok! Maximum rounding error: 0.000034
- solution found, obj var is: 903
- de-normalized obj var: 0.654180
- time (local/global): 0.019/0.019
- branches (local/global): 1091/1091
- fails (local/global): 500/500
- lns time: 0.025000
- lns branches: 1091
- lns fails: 500
LNS iteration #1 ========================================
- worst case average CPI: 2.067
- worst case efficiency: 0.634
- efficiency to beat: 0.634
- normalized lower bound 658
--- checking solution
--- solution ok! Maximum rounding error: 0.000082
- solution found, obj var is: 1439
- de-normalized obj var: 0.686340
- time (local/global): 0.000/0.025
- branches (local/global): 22/1113
- fails (local/global): 0/500
- lns time: 0.006000
- lns branches: 22
- lns fails: 0
LNS iteration #2 ========================================
- worst case average CPI: 1.496
- worst case efficiency: 0.635
- efficiency to beat: 0.635
- normalized lower bound 667
--- checking solution
--- solution ok! Maximum rounding error: 0.000023
- solution found, obj var is: 708
- de-normalized obj var: 0.642480
- time (local/global): 0.004/0.035
- branches (local/global): 241/1354
- fails (local/global): 104/604
- lns time: 0.010000
- lns branches: 241
- lns fails: 104
LNS iteration #3 ========================================
- worst case average CPI: 1.496
- worst case efficiency: 0.639
- efficiency to beat: 0.639
- normalized lower bound 732
--- checking solution
--- solution ok! Maximum rounding error: 0.000014
- solution found, obj var is: 789
- de-normalized obj var: 0.647340
- time (local/global): 0.006/0.047
- branches (local/global): 240/1594
- fails (local/global): 100/704
- lns time: 0.015000
- lns branches: 240
- lns fails: 100
LNS iteration #4 ========================================
- worst case average CPI: 1.496
- worst case efficiency: 0.642
- efficiency to beat: 0.642
- normalized lower bound 792
--- checking solution
--- solution ok! Maximum rounding error: 0.000047
- solution found, obj var is: 811
- de-normalized obj var: 0.648660
- time (local/global): 0.005/0.061
- branches (local/global): 241/1835
- fails (local/global): 101/805
- lns time: 0.011000
- lns branches: 241
- lns fails: 101
LNS iteration #5 ========================================
- worst case average CPI: 1.496
- worst case efficiency: 0.645
- efficiency to beat: 0.645
- normalized lower bound 840
--- checking solution
--- solution ok! Maximum rounding error: 0.000049
- solution found, obj var is: 1001
- de-normalized obj var: 0.660060
- time (local/global): 0.000/0.067
- branches (local/global): 28/1863
- fails (local/global): 3/808
- lns time: 0.006000
- lns branches: 28
- lns fails: 3
LNS iteration #6 ========================================
- worst case average CPI: 1.496
- worst case efficiency: 0.647
- efficiency to beat: 0.647
- normalized lower bound 860
--- checking solution
--- solution ok! Maximum rounding error: 0.000175
- solution found, obj var is: 881
- de-normalized obj var: 0.652860
- time (local/global): 0.001/0.074
- branches (local/global): 22/1885
- fails (local/global): 0/808
- lns time: 0.008000
- lns branches: 22
- lns fails: 0
LNS iteration #7 ========================================
- worst case average CPI: 1.060
- worst case efficiency: 0.648
- efficiency to beat: 0.648
- normalized lower bound 887
--- checking solution
--- solution ok! Maximum rounding error: 0.000125
- solution found, obj var is: 895
- de-normalized obj var: 0.653700
- time (local/global): 0.002/0.083
- branches (local/global): 127/2012
- fails (local/global): 52/860
- lns time: 0.008000
- lns branches: 127
- lns fails: 52
LNS iteration #8 ========================================
- worst case average CPI: 1.060
- worst case efficiency: 0.649
- efficiency to beat: 0.649
- normalized lower bound 893
--- checking solution
--- solution ok! Maximum rounding error: 0.000067
- solution found, obj var is: 2482
- de-normalized obj var: 0.748920
- time (local/global): 0.000/0.089
- branches (local/global): 22/2034
- fails (local/global): 0/860
- lns time: 0.006000
- lns branches: 22
- lns fails: 0
LNS iteration #9 ========================================
- worst case average CPI: 1.060
- worst case efficiency: 0.653
- efficiency to beat: 0.653
- normalized lower bound 975
--- checking solution
--- solution ok! Maximum rounding error: 0.000051
- solution found, obj var is: 2426
- de-normalized obj var: 0.745560
- time (local/global): 0.006/0.101
- branches (local/global): 399/2433
- fails (local/global): 181/1041
- lns time: 0.012000
- lns branches: 399
- lns fails: 181
LNS iteration #10 ========================================
- worst case average CPI: 1.060
- worst case efficiency: 0.654
- efficiency to beat: 0.654
- normalized lower bound 984
--- checking solution
--- solution ok! Maximum rounding error: 0.000089
- solution found, obj var is: 2045
- de-normalized obj var: 0.722700
- time (local/global): 0.000/0.107
- branches (local/global): 22/2455
- fails (local/global): 0/1041
- lns time: 0.006000
- lns branches: 22
- lns fails: 0
LNS iteration #11 ========================================
- worst case average CPI: 1.060
- worst case efficiency: 0.656
- efficiency to beat: 0.656
- normalized lower bound 1011
--- checking solution
--- solution ok! Maximum rounding error: 0.000154
- solution found, obj var is: 3115
- de-normalized obj var: 0.786900
- time (local/global): 0.006/0.119
- branches (local/global): 456/2911
- fails (local/global): 200/1241
- lns time: 0.012000
- lns branches: 456
- lns fails: 200
LNS iteration #12 ========================================
- worst case average CPI: 1.060
- worst case efficiency: 0.660
- efficiency to beat: 0.660
- normalized lower bound 1088
--- checking solution
--- solution ok! Maximum rounding error: 0.000038
- solution found, obj var is: 2035
- de-normalized obj var: 0.722100
- time (local/global): 0.000/0.125
- branches (local/global): 22/2933
- fails (local/global): 0/1241
- lns time: 0.006000
- lns branches: 22
- lns fails: 0
LNS iteration #13 ========================================
- worst case average CPI: 1.060
- worst case efficiency: 0.661
- efficiency to beat: 0.661
- normalized lower bound 1093
--- checking solution
--- solution ok! Maximum rounding error: 0.000029
- solution found, obj var is: 1418
- de-normalized obj var: 0.685080
- time (local/global): 0.003/0.134
- branches (local/global): 241/3174
- fails (local/global): 100/1341
- lns time: 0.009000
- lns branches: 241
- lns fails: 100
LNS iteration #14 ========================================
- worst case average CPI: 1.060
- worst case efficiency: 0.661
- efficiency to beat: 0.661
- normalized lower bound 1101
--- checking solution
--- solution ok! Maximum rounding error: 0.000076
- solution found, obj var is: 1476
- de-normalized obj var: 0.688560
- time (local/global): 0.000/0.140
- branches (local/global): 22/3196
- fails (local/global): 0/1341
- lns time: 0.006000
- lns branches: 22
- lns fails: 0
LNS iteration #15 ========================================
- worst case average CPI: 1.060
- worst case efficiency: 0.661
- efficiency to beat: 0.661
- normalized lower bound 1099
--- checking solution
--- solution ok! Maximum rounding error: 0.000039
- solution found, obj var is: 1588
- de-normalized obj var: 0.695280
- time (local/global): 0.001/0.147
- branches (local/global): 23/3219
- fails (local/global): 4/1345
- lns time: 0.006000
- lns branches: 23
- lns fails: 4
LNS iteration #16 ========================================
- worst case average CPI: 1.060
- worst case efficiency: 0.664
- efficiency to beat: 0.664
- normalized lower bound 1152
--- checking solution
--- solution ok! Maximum rounding error: 0.000112
- solution found, obj var is: 1184
- de-normalized obj var: 0.671040
- time (local/global): 0.003/0.155
- branches (local/global): 233/3452
- fails (local/global): 100/1445
- lns time: 0.009000
- lns branches: 233
- lns fails: 100
LNS iteration #17 ========================================
- worst case average CPI: 1.060
- worst case efficiency: 0.665
- efficiency to beat: 0.665
- normalized lower bound 1169
--- checking solution
--- solution ok! Maximum rounding error: 0.000021
- solution found, obj var is: 1211
- de-normalized obj var: 0.672660
- time (local/global): 0.005/0.166
- branches (local/global): 240/3692
- fails (local/global): 100/1545
- lns time: 0.011000
- lns branches: 240
- lns fails: 100
LNS iteration #18 ========================================
- worst case average CPI: 1.060
- worst case efficiency: 0.667
- efficiency to beat: 0.667
- normalized lower bound 1194
--- checking solution
--- solution ok! Maximum rounding error: 0.000030
- solution found, obj var is: 1280
- de-normalized obj var: 0.676800
- time (local/global): 0.018/0.190
- branches (local/global): 788/4480
- fails (local/global): 369/1914
- lns time: 0.025000
- lns branches: 788
- lns fails: 369
LNS iteration #19 ========================================
- worst case average CPI: 1.060
- worst case efficiency: 0.667
- efficiency to beat: 0.667
- normalized lower bound 1207
--- checking solution
XXX Rounding error: 6
--- solution ok! Maximum rounding error: 0.000090
- solution found, obj var is: 1749
- de-normalized obj var: 0.704940
- time (local/global): 0.003/0.200
- branches (local/global): 215/4695
- fails (local/global): 96/2010
- lns time: 0.012000
- lns branches: 215
- lns fails: 96
LNS iteration #20 ========================================
- worst case average CPI: 1.060
- worst case efficiency: 0.671
- efficiency to beat: 0.671
- normalized lower bound 1261
--- checking solution
--- solution ok! Maximum rounding error: 0.000104
- solution found, obj var is: 1322
- de-normalized obj var: 0.679320
- time (local/global): 0.005/0.214
- branches (local/global): 235/4930
- fails (local/global): 100/2110
- lns time: 0.011000
- lns branches: 235
- lns fails: 100
LNS iteration #21 ========================================
- worst case average CPI: 1.060
- worst case efficiency: 0.672
- efficiency to beat: 0.672
- normalized lower bound 1285
--- checking solution
--- solution ok! Maximum rounding error: 0.000036
- solution found, obj var is: 1336
- de-normalized obj var: 0.680160
- time (local/global): 0.074/0.294
- branches (local/global): 3606/8536
- fails (local/global): 1702/3812
- lns time: 0.080000
- lns branches: 3606
- lns fails: 1702
LNS iteration #22 ========================================
- worst case average CPI: 1.060
- worst case efficiency: 0.674
- efficiency to beat: 0.674
- normalized lower bound 1313
--- checking solution
--- solution ok! Maximum rounding error: 0.000097
- solution found, obj var is: 1496
- de-normalized obj var: 0.689760
- time (local/global): 0.007/0.307
- branches (local/global): 494/9030
- fails (local/global): 220/4032
- lns time: 0.013000
- lns branches: 494
- lns fails: 220
LNS iteration #23 ========================================
- worst case average CPI: 1.060
- worst case efficiency: 0.675
- efficiency to beat: 0.675
- normalized lower bound 1339
--- checking solution
--- solution ok! Maximum rounding error: 0.000041
- solution found, obj var is: 1431
- de-normalized obj var: 0.685860
- time (local/global): 0.000/0.313
- branches (local/global): 23/9053
- fails (local/global): 0/4032
- lns time: 0.006000
- lns branches: 23
- lns fails: 0
LNS iteration #24 ========================================
- worst case average CPI: 1.060
- worst case efficiency: 0.680
- efficiency to beat: 0.680
- normalized lower bound 1412
--- checking solution
--- solution ok! Maximum rounding error: 0.000019
- solution found, obj var is: 1428
- de-normalized obj var: 0.685680
- time (local/global): 0.013/0.332
- branches (local/global): 869/9922
- fails (local/global): 400/4432
- lns time: 0.019000
- lns branches: 869
- lns fails: 400
LNS iteration #25 ========================================
- worst case average CPI: 1.060
- worst case efficiency: 0.681
- efficiency to beat: 0.681
- normalized lower bound 1440
--- checking solution
--- solution ok! Maximum rounding error: 0.000052
- solution found, obj var is: 1510
- de-normalized obj var: 0.690600
- time (local/global): 0.021/0.359
- branches (local/global): 1310/11232
- fails (local/global): 605/5037
- lns time: 0.027000
- lns branches: 1310
- lns fails: 605
LNS iteration #26 ========================================
- worst case average CPI: 1.060
- worst case efficiency: 0.682
- efficiency to beat: 0.682
- normalized lower bound 1456
--- checking solution
--- solution ok! Maximum rounding error: 0.000000
- solution found, obj var is: 1505
- de-normalized obj var: 0.690300
- time (local/global): 0.008/0.373
- branches (local/global): 485/11717
- fails (local/global): 218/5255
- lns time: 0.014000
- lns branches: 485
- lns fails: 218
LNS iteration #27 ========================================
- worst case average CPI: 1.060
- worst case efficiency: 0.685
- efficiency to beat: 0.685
- normalized lower bound 1493
--- checking solution
--- solution ok! Maximum rounding error: 0.000056
- solution found, obj var is: 2027
- de-normalized obj var: 0.721620
- time (local/global): 0.004/0.383
- branches (local/global): 235/11952
- fails (local/global): 100/5355
- lns time: 0.011000
- lns branches: 235
- lns fails: 100
LNS iteration #28 ========================================
- worst case average CPI: 1.060
- worst case efficiency: 0.686
- efficiency to beat: 0.686
- normalized lower bound 1522
--- checking solution
--- solution ok! Maximum rounding error: 0.000007
- solution found, obj var is: 2022
- de-normalized obj var: 0.721320
- time (local/global): 0.012/0.402
- branches (local/global): 874/12826
- fails (local/global): 400/5755
- lns time: 0.018000
- lns branches: 874
- lns fails: 400
LNS iteration #29 ========================================
- worst case average CPI: 1.060
- worst case efficiency: 0.686
- efficiency to beat: 0.686
- normalized lower bound 1524
--- checking solution
--- solution ok! Maximum rounding error: 0.000064
- solution found, obj var is: 1694
- de-normalized obj var: 0.701640
- time (local/global): 0.001/0.409
- branches (local/global): 104/12930
- fails (local/global): 42/5797
- lns time: 0.007000
- lns branches: 104
- lns fails: 42
LNS iteration #30 ========================================
- worst case average CPI: 1.060
- worst case efficiency: 0.688
- efficiency to beat: 0.688
- normalized lower bound 1544
--- checking solution
--- solution ok! Maximum rounding error: 0.000057
- solution found, obj var is: 1816
- de-normalized obj var: 0.708960
- time (local/global): 0.009/0.424
- branches (local/global): 374/13304
- fails (local/global): 169/5966
- lns time: 0.016000
- lns branches: 374
- lns fails: 169
LNS iteration #31 ========================================
- worst case average CPI: 1.060
- worst case efficiency: 0.688
- efficiency to beat: 0.688
- normalized lower bound 1543
--- checking solution
--- solution ok! Maximum rounding error: 0.000045
- solution found, obj var is: 1770
- de-normalized obj var: 0.706200
- time (local/global): 0.122/0.553
- branches (local/global): 7004/20308
- fails (local/global): 3380/9346
- lns time: 0.128000
- lns branches: 7004
- lns fails: 3380
LNS iteration #32 ========================================
- worst case average CPI: 1.060
- worst case efficiency: 0.688
- efficiency to beat: 0.688
- normalized lower bound 1557
--- checking solution
--- solution ok! Maximum rounding error: 0.000508
- solution found, obj var is: 1969
- de-normalized obj var: 0.718140
- time (local/global): 0.020/0.579
- branches (local/global): 1091/21399
- fails (local/global): 500/9846
- lns time: 0.026000
- lns branches: 1091
- lns fails: 500
LNS iteration #33 ========================================
- worst case average CPI: 1.060
- worst case efficiency: 0.691
- efficiency to beat: 0.691
- normalized lower bound 1605
--- checking solution
--- solution ok! Maximum rounding error: 0.000075
- solution found, obj var is: 1628
- de-normalized obj var: 0.697680
- time (local/global): 0.036/0.621
- branches (local/global): 1302/22701
- fails (local/global): 601/10447
- lns time: 0.044000
- lns branches: 1302
- lns fails: 601
LNS iteration #34 ========================================
- worst case average CPI: 1.060
- worst case efficiency: 0.691
- efficiency to beat: 0.691
- normalized lower bound 1606
--- checking solution
--- solution ok! Maximum rounding error: 0.000057
- solution found, obj var is: 1625
- de-normalized obj var: 0.697500
- time (local/global): 0.158/0.787
- branches (local/global): 10015/32716
- fails (local/global): 4807/15254
- lns time: 0.169000
- lns branches: 10015
- lns fails: 4807
LNS iteration #35 ========================================
- worst case average CPI: 0.951
- worst case efficiency: 0.692
- efficiency to beat: 0.692
- normalized lower bound 1620
--- checking solution
--- solution ok! Maximum rounding error: 0.000059
- solution found, obj var is: 1910
- de-normalized obj var: 0.714600
- time (local/global): 0.003/0.801
- branches (local/global): 233/32949
- fails (local/global): 100/15354
- lns time: 0.009000
- lns branches: 233
- lns fails: 100
LNS iteration #36 ========================================
- worst case average CPI: 0.951
- worst case efficiency: 0.696
- efficiency to beat: 0.696
- normalized lower bound 1691
--- checking solution
--- solution ok! Maximum rounding error: 0.000062
- solution found, obj var is: 1791
- de-normalized obj var: 0.707460
- time (local/global): 0.522/1.329
- branches (local/global): 25579/58528
- fails (local/global): 12373/27727
- lns time: 0.528000
- lns branches: 25579
- lns fails: 12373
LNS iteration #37 ========================================
- worst case average CPI: 1.060
- worst case efficiency: 0.697
- efficiency to beat: 0.697
- normalized lower bound 1693
--- checking solution
--- solution ok! Maximum rounding error: 0.000062
- solution found, obj var is: 1706
- de-normalized obj var: 0.702360
- time (local/global): 0.039/1.374
- branches (local/global): 2766/61294
- fails (local/global): 1303/29030
- lns time: 0.045000
- lns branches: 2766
- lns fails: 1303
LNS iteration #38 ========================================
- worst case average CPI: 1.060
- worst case efficiency: 0.699
- efficiency to beat: 0.699
- normalized lower bound 1730
--- checking solution
--- solution ok! Maximum rounding error: 0.000089
- solution found, obj var is: 1745
- de-normalized obj var: 0.704700
- time (local/global): 0.000/1.380
- branches (local/global): 30/61324
- fails (local/global): 4/29034
- lns time: 0.006000
- lns branches: 30
- lns fails: 4
LNS iteration #39 ========================================
- worst case average CPI: 1.060
- worst case efficiency: 0.702
- efficiency to beat: 0.702
- normalized lower bound 1789
--- checking solution
--- solution ok! Maximum rounding error: 0.000034
- solution found, obj var is: 2012
- de-normalized obj var: 0.720720
- time (local/global): 0.016/1.402
- branches (local/global): 1124/62448
- fails (local/global): 517/29551
- lns time: 0.024000
- lns branches: 1124
- lns fails: 517
LNS iteration #40 ========================================
- worst case average CPI: 1.060
- worst case efficiency: 0.705
- efficiency to beat: 0.705
- normalized lower bound 1828
--- checking solution
--- solution ok! Maximum rounding error: 0.000001
- solution found, obj var is: 2075
- de-normalized obj var: 0.724500
- time (local/global): 0.033/1.443
- branches (local/global): 2965/65413
- fails (local/global): 1400/30951
- lns time: 0.039000
- lns branches: 2965
- lns fails: 1400
LNS iteration #41 ========================================
- worst case average CPI: 1.106
- worst case efficiency: 0.704
- efficiency to beat: 0.704
- normalized lower bound 1813
--- checking solution
--- solution ok! Maximum rounding error: 0.000123
- solution found, obj var is: 1982
- de-normalized obj var: 0.718920
- time (local/global): 0.000/1.449
- branches (local/global): 27/65440
- fails (local/global): 2/30953
- lns time: 0.006000
- lns branches: 27
- lns fails: 2
LNS iteration #42 ========================================
- worst case average CPI: 1.106
- worst case efficiency: 0.705
- efficiency to beat: 0.705
- normalized lower bound 1830
- lns time: 3.006000
- lns branches: 163142
- lns fails: 79772
LNS iteration #43 ========================================
- worst case average CPI: 1.106
- worst case efficiency: 0.705
- efficiency to beat: 0.705
- normalized lower bound 1830
--- checking solution
--- solution ok! Maximum rounding error: 0.000047
- solution found, obj var is: 1856
- de-normalized obj var: 0.711360
- time (local/global): 0.005/4.466
- branches (local/global): 294/228876
- fails (local/global): 129/110854
- lns time: 0.011000
- lns branches: 294
- lns fails: 129
LNS iteration #44 ========================================
- worst case average CPI: 1.106
- worst case efficiency: 0.704
- efficiency to beat: 0.704
- normalized lower bound 1818
--- checking solution
--- solution ok! Maximum rounding error: 0.000092
- solution found, obj var is: 1840
- de-normalized obj var: 0.710400
- time (local/global): 0.309/4.781
- branches (local/global): 16164/245040
- fails (local/global): 7850/118704
- lns time: 0.315000
- lns branches: 16164
- lns fails: 7850
LNS iteration #45 ========================================
- worst case average CPI: 1.106
- worst case efficiency: 0.706
- efficiency to beat: 0.706
- normalized lower bound 1857
--- checking solution
--- solution ok! Maximum rounding error: 0.000241
- solution found, obj var is: 1857
- de-normalized obj var: 0.711420
- time (local/global): 1.275/6.062
- branches (local/global): 64219/309259
- fails (local/global): 31211/149915
- lns time: 1.281000
- lns branches: 64219
- lns fails: 31211
LNS iteration #46 ========================================
- worst case average CPI: 1.053
- worst case efficiency: 0.709
- efficiency to beat: 0.709
- normalized lower bound 1901
--- checking solution
--- solution ok! Maximum rounding error: 0.000019
- solution found, obj var is: 1981
- de-normalized obj var: 0.718860
- time (local/global): 0.005/6.073
- branches (local/global): 436/309695
- fails (local/global): 201/150116
- lns time: 0.011000
- lns branches: 436
- lns fails: 201
LNS iteration #47 ========================================
- worst case average CPI: 1.053
- worst case efficiency: 0.710
- efficiency to beat: 0.710
- normalized lower bound 1925
--- checking solution
--- solution ok! Maximum rounding error: 0.000044
- solution found, obj var is: 1981
- de-normalized obj var: 0.718860
- time (local/global): 0.001/6.080
- branches (local/global): 26/309721
- fails (local/global): 3/150119
- lns time: 0.007000
- lns branches: 26
- lns fails: 3
LNS iteration #48 ========================================
- worst case average CPI: 0.930
- worst case efficiency: 0.710
- efficiency to beat: 0.710
- normalized lower bound 1925
--- checking solution
--- solution ok! Maximum rounding error: 0.000024
- solution found, obj var is: 1959
- de-normalized obj var: 0.717540
- time (local/global): 0.348/6.434
- branches (local/global): 19612/329333
- fails (local/global): 9499/159618
- lns time: 0.358000
- lns branches: 19612
- lns fails: 9499
LNS iteration #49 ========================================
- worst case average CPI: 0.930
- worst case efficiency: 0.711
- efficiency to beat: 0.711
- normalized lower bound 1935
--- checking solution
--- solution ok! Maximum rounding error: 0.000033
- solution found, obj var is: 2286
- de-normalized obj var: 0.737160
- time (local/global): 0.005/6.449
- branches (local/global): 231/329564
- fails (local/global): 101/159719
- lns time: 0.017000
- lns branches: 231
- lns fails: 101
LNS iteration #50 ========================================
- worst case average CPI: 0.930
- worst case efficiency: 0.711
- efficiency to beat: 0.711
- normalized lower bound 1939
--- checking solution
--- solution ok! Maximum rounding error: 0.000051
- solution found, obj var is: 2196
- de-normalized obj var: 0.731760
- time (local/global): 0.040/6.501
- branches (local/global): 2675/332239
- fails (local/global): 1270/160989
- lns time: 0.047000
- lns branches: 2675
- lns fails: 1270
LNS iteration #51 ========================================
- worst case average CPI: 0.930
- worst case efficiency: 0.713
- efficiency to beat: 0.713
- normalized lower bound 1970
--- checking solution
--- solution ok! Maximum rounding error: 0.000166
- solution found, obj var is: 2248
- de-normalized obj var: 0.734880
- time (local/global): 0.006/6.514
- branches (local/global): 452/332691
- fails (local/global): 200/161189
- lns time: 0.012000
- lns branches: 452
- lns fails: 200
LNS iteration #52 ========================================
- worst case average CPI: 0.930
- worst case efficiency: 0.714
- efficiency to beat: 0.714
- normalized lower bound 1986
--- checking solution
XXX Rounding error: 6
--- solution ok! Maximum rounding error: 0.000244
- solution found, obj var is: 2015
- de-normalized obj var: 0.720900
- time (local/global): 0.053/6.573
- branches (local/global): 2978/335669
- fails (local/global): 1408/162597
- lns time: 0.063000
- lns branches: 2978
- lns fails: 1408
LNS iteration #53 ========================================
- worst case average CPI: 0.930
- worst case efficiency: 0.715
- efficiency to beat: 0.715
- normalized lower bound 2006
--- checking solution
--- solution ok! Maximum rounding error: 0.000113
- solution found, obj var is: 2008
- de-normalized obj var: 0.720480
- time (local/global): 0.014/6.597
- branches (local/global): 599/336268
- fails (local/global): 273/162870
- lns time: 0.020000
- lns branches: 599
- lns fails: 273
LNS iteration #54 ========================================
- worst case average CPI: 0.930
- worst case efficiency: 0.717
- efficiency to beat: 0.717
- normalized lower bound 2033
--- checking solution
--- solution ok! Maximum rounding error: 0.000087
- solution found, obj var is: 2212
- de-normalized obj var: 0.732720
- time (local/global): 0.003/6.606
- branches (local/global): 254/336522
- fails (local/global): 114/162984
- lns time: 0.008000
- lns branches: 254
- lns fails: 114
LNS iteration #55 ========================================
- worst case average CPI: 0.930
- worst case efficiency: 0.720
- efficiency to beat: 0.720
- normalized lower bound 2091
--- checking solution
--- solution ok! Maximum rounding error: 0.000196
- solution found, obj var is: 2091
- de-normalized obj var: 0.725460
- time (local/global): 0.016/6.627
- branches (local/global): 1433/337955
- fails (local/global): 665/163649
- lns time: 0.022000
- lns branches: 1433
- lns fails: 665
LNS iteration #56 ========================================
- worst case average CPI: 0.930
- worst case efficiency: 0.721
- efficiency to beat: 0.721
- normalized lower bound 2096
--- checking solution
--- solution ok! Maximum rounding error: 0.000096
- solution found, obj var is: 2158
- de-normalized obj var: 0.729480
- time (local/global): 0.006/6.639
- branches (local/global): 268/338223
- fails (local/global): 117/163766
- lns time: 0.012000
- lns branches: 268
- lns fails: 117
LNS iteration #57 ========================================
- worst case average CPI: 0.930
- worst case efficiency: 0.722
- efficiency to beat: 0.722
- normalized lower bound 2117
--- checking solution
--- solution ok! Maximum rounding error: 0.000000
- solution found, obj var is: 2129
- de-normalized obj var: 0.727740
- time (local/global): 0.043/6.688
- branches (local/global): 2744/340967
- fails (local/global): 1300/165066
- lns time: 0.049000
- lns branches: 2744
- lns fails: 1300
LNS iteration #58 ========================================
- worst case average CPI: 0.930
- worst case efficiency: 0.724
- efficiency to beat: 0.724
- normalized lower bound 2144
--- checking solution
--- solution ok! Maximum rounding error: 0.000112
- solution found, obj var is: 2163
- de-normalized obj var: 0.729780
- time (local/global): 0.038/6.732
- branches (local/global): 2763/343730
- fails (local/global): 1304/166370
- lns time: 0.045000
- lns branches: 2763
- lns fails: 1304
LNS iteration #59 ========================================
- worst case average CPI: 0.930
- worst case efficiency: 0.725
- efficiency to beat: 0.725
- normalized lower bound 2167
--- checking solution
--- solution ok! Maximum rounding error: 0.000007
- solution found, obj var is: 2454
- de-normalized obj var: 0.747240
- time (local/global): 0.018/6.757
- branches (local/global): 1671/345401
- fails (local/global): 802/167172
- lns time: 0.023000
- lns branches: 1671
- lns fails: 802
LNS iteration #60 ========================================
- worst case average CPI: 0.930
- worst case efficiency: 0.726
- efficiency to beat: 0.726
- normalized lower bound 2176
--- checking solution
--- solution ok! Maximum rounding error: 0.000025
- solution found, obj var is: 2224
- de-normalized obj var: 0.733440
- time (local/global): 0.077/6.839
- branches (local/global): 7308/352709
- fails (local/global): 3560/170732
- lns time: 0.082000
- lns branches: 7308
- lns fails: 3560
LNS iteration #61 ========================================
- worst case average CPI: 0.930
- worst case efficiency: 0.726
- efficiency to beat: 0.726
- normalized lower bound 2188
--- checking solution
--- solution ok! Maximum rounding error: 0.000044
- solution found, obj var is: 2188
- de-normalized obj var: 0.731280
- time (local/global): 0.001/6.845
- branches (local/global): 92/352801
- fails (local/global): 37/170769
- lns time: 0.007000
- lns branches: 92
- lns fails: 37
LNS iteration #62 ========================================
- worst case average CPI: 0.930
- worst case efficiency: 0.728
- efficiency to beat: 0.728
- normalized lower bound 2217
--- checking solution
--- solution ok! Maximum rounding error: 0.000054
- solution found, obj var is: 2741
- de-normalized obj var: 0.764460
- time (local/global): 0.002/6.853
- branches (local/global): 227/353028
- fails (local/global): 100/170869
- lns time: 0.007000
- lns branches: 227
- lns fails: 100
LNS iteration #63 ========================================
- worst case average CPI: 0.930
- worst case efficiency: 0.729
- efficiency to beat: 0.729
- normalized lower bound 2236
--- checking solution
--- solution ok! Maximum rounding error: 0.000000
- solution found, obj var is: 2310
- de-normalized obj var: 0.738600
- time (local/global): 0.048/6.906
- branches (local/global): 4213/357241
- fails (local/global): 2035/172904
- lns time: 0.053000
- lns branches: 4213
- lns fails: 2035
LNS iteration #64 ========================================
- worst case average CPI: 0.930
- worst case efficiency: 0.730
- efficiency to beat: 0.730
- normalized lower bound 2245
--- checking solution
--- solution ok! Maximum rounding error: 0.000019
- solution found, obj var is: 2279
- de-normalized obj var: 0.736740
- time (local/global): 0.220/7.131
- branches (local/global): 14413/371654
- fails (local/global): 6968/179872
- lns time: 0.226000
- lns branches: 14413
- lns fails: 6968
LNS iteration #65 ========================================
- worst case average CPI: 0.930
- worst case efficiency: 0.732
- efficiency to beat: 0.732
- normalized lower bound 2278
- lns time: 3.008000
- lns branches: 145308
- lns fails: 71042
LNS iteration #66 ========================================
- worst case average CPI: 0.930
- worst case efficiency: 0.732
- efficiency to beat: 0.732
- normalized lower bound 2278
--- checking solution
--- solution ok! Maximum rounding error: 0.000071
- solution found, obj var is: 2278
- de-normalized obj var: 0.736680
- time (local/global): 0.094/10.239
- branches (local/global): 6294/523256
- fails (local/global): 3025/253939
- lns time: 0.101000
- lns branches: 6294
- lns fails: 3025
LNS iteration #67 ========================================
- worst case average CPI: 0.930
- worst case efficiency: 0.732
- efficiency to beat: 0.732
- normalized lower bound 2284
--- checking solution
--- solution ok! Maximum rounding error: 0.000058
- solution found, obj var is: 2327
- de-normalized obj var: 0.739620
- time (local/global): 0.010/10.256
- branches (local/global): 874/524130
- fails (local/global): 400/254339
- lns time: 0.016000
- lns branches: 874
- lns fails: 400
LNS iteration #68 ========================================
- worst case average CPI: 0.930
- worst case efficiency: 0.733
- efficiency to beat: 0.733
- normalized lower bound 2299
--- checking solution
--- solution ok! Maximum rounding error: 0.000025
- solution found, obj var is: 2431
- de-normalized obj var: 0.745860
- time (local/global): 0.040/10.302
- branches (local/global): 2310/526440
- fails (local/global): 1100/255439
- lns time: 0.047000
- lns branches: 2310
- lns fails: 1100
LNS iteration #69 ========================================
- worst case average CPI: 0.930
- worst case efficiency: 0.734
- efficiency to beat: 0.734
- normalized lower bound 2325
--- checking solution
--- solution ok! Maximum rounding error: 0.000062
- solution found, obj var is: 2418
- de-normalized obj var: 0.745080
- time (local/global): 0.145/10.454
- branches (local/global): 11699/538139
- fails (local/global): 5605/261044
- lns time: 0.151000
- lns branches: 11699
- lns fails: 5605
LNS iteration #70 ========================================
- worst case average CPI: 0.930
- worst case efficiency: 0.735
- efficiency to beat: 0.735
- normalized lower bound 2336
--- checking solution
--- solution ok! Maximum rounding error: 0.000061
- solution found, obj var is: 2349
- de-normalized obj var: 0.740940
- time (local/global): 0.064/10.524
- branches (local/global): 4218/542357
- fails (local/global): 2000/263044
- lns time: 0.070000
- lns branches: 4218
- lns fails: 2000
LNS iteration #71 ========================================
- worst case average CPI: 0.930
- worst case efficiency: 0.736
- efficiency to beat: 0.736
- normalized lower bound 2353
--- checking solution
--- solution ok! Maximum rounding error: 0.000005
- solution found, obj var is: 2467
- de-normalized obj var: 0.748020
- time (local/global): 2.290/12.820
- branches (local/global): 142825/685182
- fails (local/global): 69790/332834
- lns time: 2.296000
- lns branches: 142825
- lns fails: 69790
LNS iteration #72 ========================================
- worst case average CPI: 0.930
- worst case efficiency: 0.737
- efficiency to beat: 0.737
- normalized lower bound 2363
- lns time: 3.007000
- lns branches: 154387
- lns fails: 75503
LNS iteration #73 ========================================
- worst case average CPI: 0.930
- worst case efficiency: 0.737
- efficiency to beat: 0.737
- normalized lower bound 2363
--- checking solution
--- solution ok! Maximum rounding error: 0.000014
- solution found, obj var is: 2368
- de-normalized obj var: 0.742080
- time (local/global): 0.011/15.844
- branches (local/global): 702/840271
- fails (local/global): 347/408684
- lns time: 0.018000
- lns branches: 702
- lns fails: 347
LNS iteration #74 ========================================
- worst case average CPI: 0.930
- worst case efficiency: 0.737
- efficiency to beat: 0.737
- normalized lower bound 2367
--- checking solution
--- solution ok! Maximum rounding error: 0.000079
- solution found, obj var is: 2501
- de-normalized obj var: 0.750060
- time (local/global): 2.052/17.903
- branches (local/global): 140740/981011
- fails (local/global): 68738/477422
- lns time: 2.058000
- lns branches: 140740
- lns fails: 68738
LNS iteration #75 ========================================
- worst case average CPI: 0.930
- worst case efficiency: 0.737
- efficiency to beat: 0.737
- normalized lower bound 2374
- lns time: 3.009000
- lns branches: 172525
- lns fails: 84399
LNS iteration #76 ========================================
- worst case average CPI: 0.930
- worst case efficiency: 0.737
- efficiency to beat: 0.737
- normalized lower bound 2374
--- checking solution
--- solution ok! Maximum rounding error: 0.000038
- solution found, obj var is: 2464
- de-normalized obj var: 0.747840
- time (local/global): 0.437/21.355
- branches (local/global): 23556/1177092
- fails (local/global): 11412/573233
- lns time: 0.447000
- lns branches: 23556
- lns fails: 11412
LNS iteration #77 ========================================
- worst case average CPI: 0.930
- worst case efficiency: 0.738
- efficiency to beat: 0.738
- normalized lower bound 2386
--- checking solution
--- solution ok! Maximum rounding error: 0.000014
- solution found, obj var is: 2628
- de-normalized obj var: 0.757680
- time (local/global): 0.186/21.551
- branches (local/global): 10961/1188053
- fails (local/global): 5255/578488
- lns time: 0.192000
- lns branches: 10961
- lns fails: 5255
LNS iteration #78 ========================================
- worst case average CPI: 0.930
- worst case efficiency: 0.739
- efficiency to beat: 0.739
- normalized lower bound 2402
--- checking solution
--- solution ok! Maximum rounding error: 0.000046
- solution found, obj var is: 2417
- de-normalized obj var: 0.745020
- time (local/global): 0.511/22.068
- branches (local/global): 24845/1212898
- fails (local/global): 12028/590516
- lns time: 0.517000
- lns branches: 24845
- lns fails: 12028
LNS iteration #79 ========================================
- worst case average CPI: 0.930
- worst case efficiency: 0.740
- efficiency to beat: 0.740
- normalized lower bound 2416
--- checking solution
--- solution ok! Maximum rounding error: 0.000090
- solution found, obj var is: 2422
- de-normalized obj var: 0.745320
- time (local/global): 0.001/22.075
- branches (local/global): 81/1212979
- fails (local/global): 37/590553
- lns time: 0.006000
- lns branches: 81
- lns fails: 37
LNS iteration #80 ========================================
- worst case average CPI: 0.930
- worst case efficiency: 0.742
- efficiency to beat: 0.742
- normalized lower bound 2458
--- checking solution
--- solution ok! Maximum rounding error: 0.000019
- solution found, obj var is: 2481
- de-normalized obj var: 0.748860
- time (local/global): 1.694/23.774
- branches (local/global): 110572/1323551
- fails (local/global): 54464/645017
- lns time: 1.703000
- lns branches: 110572
- lns fails: 54464
LNS iteration #81 ========================================
- worst case average CPI: 0.857
- worst case efficiency: 0.744
- efficiency to beat: 0.744
- normalized lower bound 2482
--- checking solution
--- solution ok! Maximum rounding error: 0.000000
- solution found, obj var is: 2493
- de-normalized obj var: 0.749580
- time (local/global): 0.019/23.802
- branches (local/global): 1295/1324846
- fails (local/global): 600/645617
- lns time: 0.028000
- lns branches: 1295
- lns fails: 600
LNS iteration #82 ========================================
- worst case average CPI: 0.857
- worst case efficiency: 0.744
- efficiency to beat: 0.744
- normalized lower bound 2488
--- checking solution
--- solution ok! Maximum rounding error: 0.000000
- solution found, obj var is: 2601
- de-normalized obj var: 0.756060
- time (local/global): 0.052/23.863
- branches (local/global): 3698/1328544
- fails (local/global): 1757/647374
- lns time: 0.057000
- lns branches: 3698
- lns fails: 1757
LNS iteration #83 ========================================
- worst case average CPI: 0.930
- worst case efficiency: 0.745
- efficiency to beat: 0.745
- normalized lower bound 2500
--- checking solution
--- solution ok! Maximum rounding error: 0.000030
- solution found, obj var is: 2505
- de-normalized obj var: 0.750300
- time (local/global): 0.001/23.869
- branches (local/global): 78/1328622
- fails (local/global): 33/647407
- lns time: 0.006000
- lns branches: 78
- lns fails: 33
LNS iteration #84 ========================================
- worst case average CPI: 0.930
- worst case efficiency: 0.745
- efficiency to beat: 0.745
- normalized lower bound 2503
--- checking solution
--- solution ok! Maximum rounding error: 0.000047
- solution found, obj var is: 2704
- de-normalized obj var: 0.762240
- time (local/global): 0.001/23.875
- branches (local/global): 32/1328654
- fails (local/global): 6/647413
- lns time: 0.007000
- lns branches: 32
- lns fails: 6
LNS iteration #85 ========================================
- worst case average CPI: 0.930
- worst case efficiency: 0.745
- efficiency to beat: 0.745
- normalized lower bound 2505
--- checking solution
--- solution ok! Maximum rounding error: 0.000029
- solution found, obj var is: 2539
- de-normalized obj var: 0.752340
- time (local/global): 0.100/23.981
- branches (local/global): 4424/1333078
- fails (local/global): 2100/649513
- lns time: 0.108000
- lns branches: 4424
- lns fails: 2100
LNS iteration #86 ========================================
- worst case average CPI: 0.930
- worst case efficiency: 0.746
- efficiency to beat: 0.746
- normalized lower bound 2511
--- checking solution
--- solution ok! Maximum rounding error: 0.000066
- solution found, obj var is: 2537
- de-normalized obj var: 0.752220
- time (local/global): 0.003/23.992
- branches (local/global): 78/1333156
- fails (local/global): 31/649544
- lns time: 0.009000
- lns branches: 78
- lns fails: 31
LNS iteration #87 ========================================
- worst case average CPI: 0.930
- worst case efficiency: 0.747
- efficiency to beat: 0.747
- normalized lower bound 2530
--- checking solution
--- solution ok! Maximum rounding error: 0.000083
- solution found, obj var is: 2540
- de-normalized obj var: 0.752400
- time (local/global): 1.772/25.770
- branches (local/global): 99117/1432273
- fails (local/global): 48500/698044
- lns time: 1.778000
- lns branches: 99117
- lns fails: 48500
LNS iteration #88 ========================================
- worst case average CPI: 0.930
- worst case efficiency: 0.748
- efficiency to beat: 0.748
- normalized lower bound 2549
- lns time: 3.006000
- lns branches: 172296
- lns fails: 84330
LNS iteration #89 ========================================
- worst case average CPI: 0.930
- worst case efficiency: 0.748
- efficiency to beat: 0.748
- normalized lower bound 2549
--- checking solution
--- solution ok! Maximum rounding error: 0.000176
- solution found, obj var is: 2550
- de-normalized obj var: 0.753000
- time (local/global): 0.292/29.074
- branches (local/global): 17883/1622452
- fails (local/global): 8654/791028
- lns time: 0.300000
- lns branches: 17883
- lns fails: 8654
LNS iteration #90 ========================================
- worst case average CPI: 0.930
- worst case efficiency: 0.749
- efficiency to beat: 0.749
- normalized lower bound 2563
--- checking solution
--- solution ok! Maximum rounding error: 0.000020
- solution found, obj var is: 2593
- de-normalized obj var: 0.755580
- time (local/global): 0.003/29.085
- branches (local/global): 129/1622581
- fails (local/global): 54/791082
- lns time: 0.012000
- lns branches: 129
- lns fails: 54
LNS iteration #91 ========================================
- worst case average CPI: 0.930
- worst case efficiency: 0.747
- efficiency to beat: 0.747
- normalized lower bound 2540
--- checking solution
--- solution ok! Maximum rounding error: 0.000097
- solution found, obj var is: 3040
- de-normalized obj var: 0.782400
- time (local/global): 0.097/29.191
- branches (local/global): 5111/1627692
- fails (local/global): 2430/793512
- lns time: 0.103000
- lns branches: 5111
- lns fails: 2430
LNS iteration #92 ========================================
- worst case average CPI: 0.930
- worst case efficiency: 0.749
- efficiency to beat: 0.749
- normalized lower bound 2574
--- checking solution
--- solution ok! Maximum rounding error: 0.000244
- solution found, obj var is: 2596
- de-normalized obj var: 0.755760
- time (local/global): 0.007/29.204
- branches (local/global): 231/1627923
- fails (local/global): 100/793612
- lns time: 0.017000
- lns branches: 231
- lns fails: 100
LNS iteration #93 ========================================
- worst case average CPI: 0.930
- worst case efficiency: 0.749
- efficiency to beat: 0.749
- normalized lower bound 2574
--- checking solution
--- solution ok! Maximum rounding error: 0.000012
- solution found, obj var is: 2586
- de-normalized obj var: 0.755160
- time (local/global): 0.112/29.326
- branches (local/global): 6874/1634797
- fails (local/global): 3300/796912
- lns time: 0.118000
- lns branches: 6874
- lns fails: 3300
LNS iteration #94 ========================================
- worst case average CPI: 0.930
- worst case efficiency: 0.750
- efficiency to beat: 0.750
- normalized lower bound 2578
--- checking solution
--- solution ok! Maximum rounding error: 0.000184
- solution found, obj var is: 2707
- de-normalized obj var: 0.762420
- time (local/global): 0.248/29.580
- branches (local/global): 17788/1652585
- fails (local/global): 8605/805517
- lns time: 0.254000
- lns branches: 17788
- lns fails: 8605
LNS iteration #95 ========================================
- worst case average CPI: 0.930
- worst case efficiency: 0.753
- efficiency to beat: 0.753
- normalized lower bound 2633
--- checking solution
--- solution ok! Maximum rounding error: 0.000071
- solution found, obj var is: 2652
- de-normalized obj var: 0.759120
- time (local/global): 0.178/29.764
- branches (local/global): 9278/1661863
- fails (local/global): 4465/809982
- lns time: 0.185000
- lns branches: 9278
- lns fails: 4465
LNS iteration #96 ========================================
- worst case average CPI: 0.930
- worst case efficiency: 0.753
- efficiency to beat: 0.753
- normalized lower bound 2637
--- checking solution
--- solution ok! Maximum rounding error: 0.000082
- solution found, obj var is: 2834
- de-normalized obj var: 0.770040
- time (local/global): 0.025/29.796
- branches (local/global): 1087/1662950
- fails (local/global): 503/810485
- lns time: 0.031000
- lns branches: 1087
- lns fails: 503
LNS iteration #97 ========================================
- worst case average CPI: 0.930
- worst case efficiency: 0.753
- efficiency to beat: 0.753
- normalized lower bound 2638
--- checking solution
--- solution ok! Maximum rounding error: 0.000037
- solution found, obj var is: 2704
- de-normalized obj var: 0.762240
- time (local/global): 0.890/30.692
- branches (local/global): 60559/1723509
- fails (local/global): 29387/839872
- lns time: 0.898000
- lns branches: 60559
- lns fails: 29387
LNS iteration #98 ========================================
- worst case average CPI: 0.979
- worst case efficiency: 0.753
- efficiency to beat: 0.753
- normalized lower bound 2641
--- checking solution
--- solution ok! Maximum rounding error: 0.000011
- solution found, obj var is: 2682
- de-normalized obj var: 0.760920
- time (local/global): 2.360/33.060
- branches (local/global): 161785/1885294
- fails (local/global): 79101/918973
- lns time: 2.368000
- lns branches: 161785
- lns fails: 79101
LNS iteration #99 ========================================
- worst case average CPI: 0.979
- worst case efficiency: 0.755
- efficiency to beat: 0.755
- normalized lower bound 2670
--- checking solution
--- solution ok! Maximum rounding error: 0.000071
- solution found, obj var is: 2919
- de-normalized obj var: 0.775140
- time (local/global): 0.016/33.084
- branches (local/global): 1181/1886475
- fails (local/global): 552/919525
- lns time: 0.022000
- lns branches: 1181
- lns fails: 552
LNS iteration #100 ========================================
- worst case average CPI: 0.979
- worst case efficiency: 0.755
- efficiency to beat: 0.755
- normalized lower bound 2666
--- checking solution
--- solution ok! Maximum rounding error: 0.000041
- solution found, obj var is: 2668
- de-normalized obj var: 0.760080
- time (local/global): 2.207/35.297
- branches (local/global): 94551/1981026
- fails (local/global): 46215/965740
- lns time: 2.212000
- lns branches: 94551
- lns fails: 46215
LNS iteration #101 ========================================
- worst case average CPI: 0.979
- worst case efficiency: 0.755
- efficiency to beat: 0.755
- normalized lower bound 2670
--- checking solution
--- solution ok! Maximum rounding error: 0.000079
- solution found, obj var is: 2886
- de-normalized obj var: 0.773160
- time (local/global): 0.013/35.315
- branches (local/global): 915/1981941
- fails (local/global): 425/966165
- lns time: 0.019000
- lns branches: 915
- lns fails: 425
LNS iteration #102 ========================================
- worst case average CPI: 0.979
- worst case efficiency: 0.755
- efficiency to beat: 0.755
- normalized lower bound 2665
--- checking solution
--- solution ok! Maximum rounding error: 0.000331
- solution found, obj var is: 2768
- de-normalized obj var: 0.766080
- time (local/global): 1.431/36.752
- branches (local/global): 95167/2077108
- fails (local/global): 46502/1012667
- lns time: 1.437000
- lns branches: 95167
- lns fails: 46502
LNS iteration #103 ========================================
- worst case average CPI: 0.808
- worst case efficiency: 0.756
- efficiency to beat: 0.756
- normalized lower bound 2684
--- checking solution
--- solution ok! Maximum rounding error: 0.000078
- solution found, obj var is: 2696
- de-normalized obj var: 0.761760
- time (local/global): 0.316/37.074
- branches (local/global): 20328/2097436
- fails (local/global): 9853/1022520
- lns time: 0.323000
- lns branches: 20328
- lns fails: 9853
LNS iteration #104 ========================================
- worst case average CPI: 0.808
- worst case efficiency: 0.757
- efficiency to beat: 0.757
- normalized lower bound 2698
--- checking solution
--- solution ok! Maximum rounding error: 0.000302
- solution found, obj var is: 2893
- de-normalized obj var: 0.773580
- time (local/global): 0.098/37.179
- branches (local/global): 5241/2102677
- fails (local/global): 2502/1025022
- lns time: 0.104000
- lns branches: 5241
- lns fails: 2502
LNS iteration #105 ========================================
- worst case average CPI: 0.808
- worst case efficiency: 0.758
- efficiency to beat: 0.758
- normalized lower bound 2718
- lns time: 3.006000
- lns branches: 161703
- lns fails: 79180
LNS iteration #106 ========================================
- worst case average CPI: 0.808
- worst case efficiency: 0.758
- efficiency to beat: 0.758
- normalized lower bound 2718
--- checking solution
--- solution ok! Maximum rounding error: 0.000072
- solution found, obj var is: 2726
- de-normalized obj var: 0.763560
- time (local/global): 1.917/42.108
- branches (local/global): 114953/2379333
- fails (local/global): 56287/1160489
- lns time: 1.927000
- lns branches: 114953
- lns fails: 56287
LNS iteration #107 ========================================
- worst case average CPI: 0.808
- worst case efficiency: 0.759
- efficiency to beat: 0.759
- normalized lower bound 2738
- lns time: 3.006000
- lns branches: 182621
- lns fails: 89425
LNS iteration #108 ========================================
- worst case average CPI: 0.808
- worst case efficiency: 0.759
- efficiency to beat: 0.759
- normalized lower bound 2738
- lns time: 3.006000
- lns branches: 190701
- lns fails: 93563
LNS iteration #109 ========================================
- worst case average CPI: 0.808
- worst case efficiency: 0.759
- efficiency to beat: 0.759
- normalized lower bound 2738
--- checking solution
--- solution ok! Maximum rounding error: 0.000010
- solution found, obj var is: 2765
- de-normalized obj var: 0.765900
- time (local/global): 0.133/48.263
- branches (local/global): 10951/2763606
- fails (local/global): 5349/1348826
- lns time: 0.139000
- lns branches: 10951
- lns fails: 5349
LNS iteration #110 ========================================
- worst case average CPI: 0.808
- worst case efficiency: 0.758
- efficiency to beat: 0.758
- normalized lower bound 2719
- lns time: 3.006000
- lns branches: 196515
- lns fails: 96494
LNS iteration #111 ========================================
- worst case average CPI: 0.808
- worst case efficiency: 0.758
- efficiency to beat: 0.758
- normalized lower bound 2719
- lns time: 3.006000
- lns branches: 161776
- lns fails: 79172
LNS iteration #112 ========================================
- worst case average CPI: 0.808
- worst case efficiency: 0.758
- efficiency to beat: 0.758
- normalized lower bound 2719
--- checking solution
--- solution ok! Maximum rounding error: 0.000034
- solution found, obj var is: 2727
- de-normalized obj var: 0.763620
- time (local/global): 0.134/54.415
- branches (local/global): 9574/3131471
- fails (local/global): 4606/1529098
- lns time: 0.140000
- lns branches: 9574
- lns fails: 4606
LNS iteration #113 ========================================
- worst case average CPI: 0.767
- worst case efficiency: 0.760
- efficiency to beat: 0.760
- normalized lower bound 2742
- lns time: 3.006000
- lns branches: 156500
- lns fails: 76501
LNS iteration #114 ========================================
- worst case average CPI: 0.767
- worst case efficiency: 0.760
- efficiency to beat: 0.760
- normalized lower bound 2742
--- checking solution
--- solution ok! Maximum rounding error: 0.000306
- solution found, obj var is: 2774
- de-normalized obj var: 0.766440
- time (local/global): 1.933/59.360
- branches (local/global): 118183/3406154
- fails (local/global): 57651/1663250
- lns time: 1.939000
- lns branches: 118183
- lns fails: 57651
LNS iteration #115 ========================================
- worst case average CPI: 0.767
- worst case efficiency: 0.760
- efficiency to beat: 0.760
- normalized lower bound 2752
--- checking solution
--- solution ok! Maximum rounding error: 0.000071
- solution found, obj var is: 2763
- de-normalized obj var: 0.765780
- time (local/global): 1.366/60.732
- branches (local/global): 65386/3471540
- fails (local/global): 31803/1695053
- lns time: 1.372000
- lns branches: 65386
- lns fails: 31803
LNS iteration #116 ========================================
- worst case average CPI: 0.767
- worst case efficiency: 0.761
- efficiency to beat: 0.761
- normalized lower bound 2770
- lns time: 3.005000
- lns branches: 221368
- lns fails: 109400
LNS iteration #117 ========================================
- worst case average CPI: 0.767
- worst case efficiency: 0.761
- efficiency to beat: 0.761
- normalized lower bound 2770
--- checking solution
--- solution ok! Maximum rounding error: 0.000097
- solution found, obj var is: 2890
- de-normalized obj var: 0.773400
- time (local/global): 0.055/63.798
- branches (local/global): 3246/3696154
- fails (local/global): 1583/1806036
- lns time: 0.060000
- lns branches: 3246
- lns fails: 1583
LNS iteration #118 ========================================
- worst case average CPI: 0.767
- worst case efficiency: 0.763
- efficiency to beat: 0.763
- normalized lower bound 2794
- lns time: 3.007000
- lns branches: 191117
- lns fails: 93765
LNS iteration #119 ========================================
- worst case average CPI: 0.767
- worst case efficiency: 0.763
- efficiency to beat: 0.763
- normalized lower bound 2794
--- checking solution
--- solution ok! Maximum rounding error: 0.000159
- solution found, obj var is: 2860
- de-normalized obj var: 0.771600
- time (local/global): 0.149/66.959
- branches (local/global): 8524/3895795
- fails (local/global): 4106/1903907
- lns time: 0.155000
- lns branches: 8524
- lns fails: 4106
LNS iteration #120 ========================================
- worst case average CPI: 0.767
- worst case efficiency: 0.763
- efficiency to beat: 0.763
- normalized lower bound 2794
--- checking solution
--- solution ok! Maximum rounding error: 0.000080
- solution found, obj var is: 2813
- de-normalized obj var: 0.768780
- time (local/global): 2.691/69.656
- branches (local/global): 174282/4070077
- fails (local/global): 85286/1989193
- lns time: 2.698000
- lns branches: 174282
- lns fails: 85286
LNS iteration #121 ========================================
- worst case average CPI: 0.767
- worst case efficiency: 0.763
- efficiency to beat: 0.763
- normalized lower bound 2796
- lns time: 3.006000
- lns branches: 160402
- lns fails: 78550
LNS iteration #122 ========================================
- worst case average CPI: 0.767
- worst case efficiency: 0.763
- efficiency to beat: 0.763
- normalized lower bound 2796
- lns time: 3.006000
- lns branches: 177290
- lns fails: 86888
LNS iteration #123 ========================================
- worst case average CPI: 0.767
- worst case efficiency: 0.763
- efficiency to beat: 0.763
- normalized lower bound 2796
--- checking solution
--- solution ok! Maximum rounding error: 0.000045
- solution found, obj var is: 2804
- de-normalized obj var: 0.768240
- time (local/global): 0.008/75.683
- branches (local/global): 468/4408237
- fails (local/global): 217/2154848
- lns time: 0.013000
- lns branches: 468
- lns fails: 217
LNS iteration #124 ========================================
- worst case average CPI: 0.767
- worst case efficiency: 0.763
- efficiency to beat: 0.763
- normalized lower bound 2805
- lns time: 3.006000
- lns branches: 158785
- lns fails: 77461
LNS iteration #125 ========================================
- worst case average CPI: 0.767
- worst case efficiency: 0.763
- efficiency to beat: 0.763
- normalized lower bound 2805
- lns time: 3.005000
- lns branches: 220272
- lns fails: 108916
LNS iteration #126 ========================================
- worst case average CPI: 0.767
- worst case efficiency: 0.763
- efficiency to beat: 0.763
- normalized lower bound 2805
- lns time: 3.006000
- lns branches: 166877
- lns fails: 81727
LNS iteration #127 ========================================
- worst case average CPI: 0.767
- worst case efficiency: 0.763
- efficiency to beat: 0.763
- normalized lower bound 2805
--- checking solution
--- solution ok! Maximum rounding error: 0.000101
- solution found, obj var is: 2820
- de-normalized obj var: 0.769200
- time (local/global): 0.143/84.848
- branches (local/global): 7263/4961434
- fails (local/global): 3485/2426437
- lns time: 0.149000
- lns branches: 7263
- lns fails: 3485
LNS iteration #128 ========================================
- worst case average CPI: 0.767
- worst case efficiency: 0.764
- efficiency to beat: 0.764
- normalized lower bound 2811
- lns time: 3.007000
- lns branches: 203339
- lns fails: 99854
LNS iteration #129 ========================================
- worst case average CPI: 0.767
- worst case efficiency: 0.764
- efficiency to beat: 0.764
- normalized lower bound 2811
- lns time: 2.147000
- lns branches: 121484
- lns fails: 59475

LNS optimization is over========================================
initial worst case average CPI: 2.089
final worst case average CPI: 0.767
initial worst case efficiency: 0.631
final worst case efficiency: 0.764
number of iterations: 130
total time: 90008.000000
total branches: 5286257
total fails: 2585766

Final Solution: 0->0, 1->3, 2->8, 3->21, 4->7, 5->31, 6->6, 7->41, 8->14, 9->25, 10->6, 11->20, 12->29, 13->34, 14->40, 15->41, 16->22, 17->14, 18->9, 19->6, 20->20, 21->0, 22->36, 23->6, 24->3, 25->44, 26->14, 27->17, 28->22, 29->34, 30->34, 31->16, 32->33, 33->4, 34->3, 35->2, 36->20, 37->5, 38->16, 39->5, 40->20, 41->42, 42->43, 43->28, 44->46, 45->18, 46->32, 47->39, 48->37, 49->21, 50->4, 51->19, 52->33, 53->8, 54->19, 55->45, 56->9, 57->21, 58->6, 59->44, 60->36, 61->10, 62->33, 63->31, 64->24, 65->18, 66->38, 67->15, 68->40, 69->39, 70->20, 71->25, 72->38, 73->34, 74->47, 75->12, 76->26, 77->6, 78->16, 79->1, 80->9, 81->33, 82->3, 83->13, 84->30, 85->19, 86->21, 87->24, 88->11, 89->11, 90->41, 91->0, 92->38, 93->19, 94->41, 95->36, 96->34, 97->31, 98->27, 99->19, 100->22, 101->31, 102->47, 103->33, 104->14, 105->40, 106->15, 107->42, 108->1, 109->34, 110->13, 111->19, 112->44, 113->23, 114->3, 115->11, 116->22, 117->9, 118->14, 119->29, 120->30, 121->42, 122->37, 123->21, 124->27, 125->38, 126->18, 127->25, 128->43, 129->17, 130->17, 131->22, 132->16, 133->33, 134->14, 135->28, 136->21, 137->7, 138->0, 139->26, 140->37, 141->9, 142->32, 143->20, 144->44, 145->8, 146->46, 147->2, 148->24, 149->5, 150->45, 151->7, 152->32, 153->27, 154->45, 155->23, 156->9, 157->11, 158->12, 159->2, 160->24, 161->44, 162->17, 163->32, 164->12, 165->2, 166->36, 167->5, 168->18, 169->3, 170->35, 171->4, 172->35, 173->1, 174->2, 175->1, 176->11, 177->42, 178->42, 179->13, 180->5, 181->47, 182->35, 183->46, 184->40, 185->40, 186->5, 187->15, 188->26, 189->30, 190->0, 191->31, 192->7, 193->30, 194->29, 195->43, 196->29, 197->43, 198->27, 199->28, 200->17, 201->18, 202->31, 203->23, 204->29, 205->24, 206->8, 207->25, 208->7, 209->27, 210->40, 211->47, 212->15, 213->41, 214->11, 215->27, 216->13, 217->28, 218->47, 219->29, 220->17, 221->24, 222->16, 223->36, 224->43, 225->23, 226->8, 227->35, 228->16, 229->26, 230->30, 231->22, 232->46, 233->32, 234->4, 235->39, 236->10, 237->10, 238->25, 239->12, 240->43, 241->13, 242->45, 243->39, 244->23, 245->12, 246->12, 247->46, 248->47, 249->37, 250->25, 251->39, 252->35, 253->37, 254->44, 255->2, 256->35, 257->4, 258->10, 259->41, 260->38, 261->46, 262->10, 263->15, 264->30, 265->28, 266->38, 267->7, 268->15, 269->8, 270->10, 271->37, 272->26, 273->18, 274->45, 275->26, 276->1, 277->13, 278->1, 279->39, 280->42, 281->23, 282->32, 283->28, 284->45, 285->0, 286->4, 287->36

Average CPI map:
	7.32,	1.84,	1.47,	1.51,	1.27,	1.60
	1.86,	5.64,	2.70,	5.59,	3.22,	1.52
	0.81,	3.78,	4.97,	5.94,	5.07,	1.17
	1.07,	6.02,	5.16,	6.16,	4.38,	1.41
	1.09,	3.94,	5.27,	7.41,	4.87,	1.54
	1.82,	6.79,	7.14,	7.41,	6.30,	1.00
	0.77,	4.14,	6.55,	6.93,	5.34,	1.96
	1.68,	2.80,	3.48,	2.69,	2.57,	1.06

Efficiency map:
	0.997,	0.930,	0.932,	0.934,	0.935,	1.003
	0.808,	0.841,	0.769,	0.816,	0.778,	0.844
	0.822,	0.774,	0.766,	0.765,	0.770,	0.766
	0.816,	0.772,	0.769,	0.788,	0.769,	0.902
	0.820,	0.771,	0.768,	0.764,	0.780,	0.799
	0.813,	0.820,	0.773,	0.816,	0.811,	0.820
	0.806,	0.772,	0.764,	0.770,	0.799,	0.855
	0.832,	0.766,	0.777,	0.771,	0.766,	0.790
