LocalSolver 4.0 (MacOS64, build 20131224)
Copyright (C) 2013 Bouygues SA, Aix-Marseille University, CNRS.
All rights reserved (see Terms and Conditions for details).

Load localsolver_res/tawd_ls.lsp...
Run input...
ANNs For the Platform:
4,2,1,6.45294,0.0174524,1.58234,2.29305,2.12057,3.95113,12.7206,-19.3278,5.58789,9.38298,0.00306445,0.00353919,0.795949
4,2,1,3.10684,7.56359,0.502116,0.637049,12.0356,-2.9013,-3.22211,-0.368567,-0.562298,-7.37831,2.38595,1.22203,-0.360292
4,2,1,4.88387,44.8399,1.27345,1.24496,49.1775,-8.83277,-3.12983,-1.00946,11.7,-3.01002,0.132635,0.00372271,0.673996
4,2,1,4.73045,19.3982,0.449241,0.753865,25.7092,17.3605,0.0558085,-8.91516,0.49993,10.3396,4.06312,-0.0136297,-3.24599
4,2,1,-7.16849,-10.0957,-0.518885,-0.00359459,5.93351,5.62684,52.0516,1.48603,1.30274,57.2311,0.250578,0.137157,0.417379
4,2,1,0.412706,-2.89716,0.137754,-2.57826,11.0947,121.374,858.444,-136.26,-14917.8,-1308.92,-3.36558,-0.000403784,4.17997
4,2,1,-8.8269,-0.482244,-0.0820712,-0.0562713,-10.1617,9.78118,-7.01882,-0.428151,-0.0606718,2.56012,-8.54699,-0.509991,-7.23704
4,2,1,2.19881,4.94147,0.541452,0.107587,6.45213,1.0452,0.405805,0.555763,3.64728,1.95727,0.425683,-0.00188273,0.383643
4,2,1,-6.13316,1.92598,-0.0562274,-0.0731719,-4.60606,0.509071,7.79918,0.393802,0.0114563,7.9345,-1.13416,0.310582,-0.637365
4,2,1,1.73462,2.97854,0.276167,0.0859465,3.6912,3.09203,3.25403,0.324282,0.112495,4.06123,0.954718,-0.48836,0.344765
4,2,1,1.57339,3.84603,-3.4467,0.7429,2.75709,2.1802,5.09535,0.482172,0.106131,6.49189,-0.0251827,0.433535,0.393482
4,2,1,4.13514,21.6229,1.1931,0.354612,24.1372,25.5916,0.432728,-12.6725,-0.45345,15.3428,0.194819,-0.0364695,0.647465
4,2,1,-0.728632,5.60079,1.78098,1.8429,-5.74354,-3.26566,-13.0026,-0.907163,-0.31822,-15.3707,-0.427666,-0.224298,0.154329
4,2,1,3.81854,-4.98219,-0.293924,-0.103604,-6.7034,2.28654,4.72568,0.469524,0.115005,6.05901,-0.511241,0.421809,-0.121549
4,2,1,-1.23773,5.98591,0.224555,-0.359337,6.05767,2.3852,3.4706,0.220977,0.179377,4.88772,0.199751,0.432231,0.177791
4,2,1,1.12189,4.09326,0.850801,0.171671,-5.17646,-1.9656,-4.07995,-0.210811,-0.113853,-5.17242,-2.70452,-0.46094,-2.36326
4,2,1,2.08858,4.80174,0.367584,0.109336,6.02292,4.32969,4.35157,0.772172,10.015,-0.96022,0.43933,4.17055e-05,0.365228
4,2,1,1.18806,3.00188,0.124753,0.00191203,3.75084,1.03049,2.7808,0.137818,0.0250058,4.01619,-1.05018,2.49176,-0.635083
4,2,1,3.11788,10.9247,0.699295,0.170953,13.0959,-11.4646,-5.88946,11.0137,8.74787,-11.701,0.236706,0.0216102,0.59131
4,2,1,7.53568,1.94998,-2.27776,-1.91765,0.451708,2.13206,4.27547,0.333162,0.0864645,5.45063,-0.0153486,0.447774,0.366202
4,2,1,-2.12436,-3.29848,-0.0965154,-0.0454545,-3.86293,4.27042,3.64797,0.106703,0.057602,4.81479,-1.28015,-0.815344,0.346524
4,2,1,2.06313,3.99765,-9.94001e-06,0.200591,5.05136,-0.024567,-3.22765,-1.84842,1.73493,-3.87425,0.446216,-0.0350173,0.320411
4,2,1,3.3952,3.19239,0.219932,0.0459907,4.0724,1.85184,2.9352,0.236295,0.0535068,3.62882,-0.516849,0.990723,0.337742
4,2,1,-6.32145,2.68844,0.160066,0.0633176,-3.81442,9.03888,1.31396,0.253255,-0.0684612,6.93971,1.83579,0.440423,2.20116
4,2,1,-4.54148,-0.217309,1.86369,-0.409034,0.0885675,-3.10698,-12.3715,-0.753639,-0.275832,-14.544,0.00344558,-0.233405,0.57337
4,2,1,-0.743367,6.86662,-0.19496,-0.0184317,7.54898,2.69258,3.24789,0.437511,0.121848,4.97423,0.830361,0.39615,-0.417087
4,2,1,2.07654,3.2533,0.103762,0.0837251,4.40922,1.95615,-2.57949,-0.10147,-0.0485499,-3.72005,0.479113,-0.433879,-0.0966803
4,2,1,-0.480501,-0.00331725,1.67452,0.764966,-1.53387,1.99113,3.67475,0.0228188,0.0287235,4.64739,0.15721,0.465135,0.487915
4,2,1,1.11584,-5.79333,-0.212675,0.376981,-6.64888,2.45003,3.54368,0.313683,0.144659,5.05472,-0.777178,0.423599,-0.389995
4,2,1,2.39093,1.70258,-0.183288,-0.314006,4.06496,2.34881,2.91375,-0.0230153,-0.18977,5.26307,-1.33645,1.84807,0.292237
4,2,1,0.88022,3.23795,0.179315,0.0205209,3.57684,0.764441,2.74982,0.156077,0.0273373,3.62313,-0.980719,2.16912,-0.37872
4,2,1,-1.27932,7.09751,-0.0490235,0.455487,7.14709,-2.57722,-4.06233,-0.410784,-0.0433739,-5.6171,0.164894,-0.408714,0.23583
4,2,1,0.623158,5.01876,0.194867,0.0365944,4.99458,-16.0815,2.94826,-1.82463,-1.90388,-9.56395,0.291148,-0.155001,0.360694
4,2,1,1.86251,3.92056,0.158781,0.0575693,4.93436,0.681285,4.09563,1.09826,-3.65606,2.09524,0.482473,-0.00448292,0.322397
4,2,1,3.33939,3.52877,0.262622,0.0607689,4.45842,2.23218,3.37107,0.256541,0.0516206,4.05014,-1.2701,1.7162,0.365737
4,2,1,5.0585,4.68315,2.53887,0.128578,8.9709,3.62833,11.0789,1.32555,0.190392,13.8026,-0.126366,0.350541,0.580103
4,2,1,4.99986,2.75557,1.33036,-0.0119951,6.91685,4.23025,5.34568,1.08928,0.0379928,8.80363,-0.700785,0.958812,0.547325
4,2,1,1.95024,3.24732,0.229322,0.0270089,3.53624,1.62575,3.04977,0.230194,0.0319079,3.46966,-1.34015,1.81817,0.333213
4,2,1,2.11055,5.16581,0.225183,0.0767342,6.2013,3.43647,-3.10756,1.22453,-6.27082,5.92438,0.428242,2.12665,-1.75474
4,2,1,10.028,2.55152,-0.0579427,-0.0186516,-2.98054,2.14055,4.33639,0.203596,0.057269,5.47668,0.0078111,0.436528,0.371941
4,2,1,1.80421,3.45533,0.27065,0.0337725,4.14172,3.00203,3.65885,0.26995,0.0620062,4.37924,0.892686,-0.440136,0.355377
4,2,1,-2.76424,-10.7675,-0.741451,-0.141046,-12.927,13.6995,2.51611,0.90934,27.76,15.1973,-0.260938,-0.00175312,0.546274
4,2,1,2.26659,3.88332,0.083697,0.287373,-5.89957,3.07548,7.5942,0.285535,0.141703,9.90558,1.94369,0.273352,2.47758
4,2,1,5.41472,-1.35343,-0.0808605,2.27411,0.928252,2.55844,6.15687,0.338903,0.0735359,7.47381,-0.0148119,0.388691,0.423615
4,2,1,4.53285,3.66527,0.130055,0.0722232,4.95325,-2.1632,-3.34312,-0.11633,-0.0577237,-3.98867,-0.759785,-1.19124,0.379449
4,2,1,2.36669,5.75119,0.132783,0.0812059,6.8845,-8.68015,-0.488627,0.811521,2.16444,0.277436,0.40839,0.00790296,0.400784
4,2,1,0.583762,8.58805,0.307497,0.0165495,8.61973,-7.32584,1.34397,-0.0108636,-0.0260377,-6.96836,0.266022,-5.2323,-4.69173
4,2,1,1.76683,-0.336959,-0.116305,-0.0696435,-1.62311,2.51027,5.65249,0.180271,0.0657051,7.97995,-0.0500539,0.457869,0.308072
Workload Information:
0.822202, 1.03693, 0.576976, 3.61605, 3.89835, 2.0495, 0.5, 1.27889, 3.11919, 0.751166, 3.15822, 3.19253, 1.85188, 1.784, 1.98891, 4.63716, 0.555712, 1.18234, 0.5, 1.71343, 0.994135, 3.09443, 2.69763, 3.00038, 1.98211, 2.27377, 1.91712, 1.88123, 1.78375, 2.16201, 2.39605, 2.3869, 1.20719, 1.56076, 2.60248, 1.84663, 2.62657, 2.37566, 0.721892, 0.73276, 2.79826, 2.74486, 0.5, 1.84905, 4.00113, 2.00266, 1.86305, 1.7841, 3.3957, 0.5, 3.37115, 1.71734, 2.01574, 1.00006, 2.33235, 0.907894, 1.92003, 2.49172, 1.97915, 2.36887, 0.897262, 3.45424, 2.84769, 2.21824, 2.08257, 0.5, 0.639426, 0.5, 3.79278, 2.74457, 1.31356, 3.00967, 2.02057, 1.82647, 0.823463, 1.45008, 2.80056, 3.07885, 1.79288, 2.02898, 1.89328, 2.17166, 2.45822, 1.65498, 1.8358, 2.39425, 1.43032, 1.78828, 2.37552, 2.17583, 0.5, 0.731085, 0.861213, 2.84868, 3.67892, 3.3801, 3.35293, 1.06079, 2.39516, 2.00835, 1.33842, 1.84435, 0.588556, 2.83028, 3.69538, 1.36061, 3.02517, 0.5, 0.550459, 0.602651, 0.931703, 2.75636, 4.2002, 2.95863, 3.38172, 2.35425, 0.5, 2.04737, 2.57186, 1.1448, 0.5, 2.83378, 2.97744, 2.05238, 2.88634, 0.750057, 4.17159, 1.33515, 0.690573, 2.8313, 0.5, 2.47139, 21.2536, 9.71935, 26.2397, 24.4538, 24.0133, 26.3202, 12.9733, 15.8205, 16.4545, 35, 19.1206, 32.631, 0.5, 2.30977, 1.00696, 1.80931, 1.56134, 4.81262, 1.98746, 2.25654, 1.56531, 1.89278, 2.19437, 2.10355, 4.06932, 2.63585, 2.36012, 0.674881, 0.5, 1.75983, 11.395, 22.7298, 21.6593, 35, 22.4994, 18.7165, 25.1279, 24.7518, 3.96816, 29.1898, 26.6711, 22.2912, 19.041, 19.8969, 14.5628, 30.3099, 20.8656, 27.3238, 0.5, 2.58027, 1.39463, 1.89467, 3.44538, 2.18505, 2.995, 0.779683, 1.10151, 2.0619, 1.94578, 3.11613, 2.22775, 2.20418, 1.64147, 1.65098, 2.42005, 1.85557, 26.2354, 16.8492, 25.7157, 23.4695, 23.8466, 15.8835, 19.4906, 35, 20.7529, 22.1737, 16.3682, 18.2145, 1.42512, 34.7831, 9.95029, 34.7868, 16.0547, 35, 1.85093, 3.66256, 1.23621, 1.03314, 1.64496, 2.57219, 2.51038, 1.97016, 2.43242, 2.53065, 2.05639, 0.5, 1.36001, 2.31327, 1.90728, 2.14544, 2.20865, 2.06535, 1.45245, 2.34827, 2.21373, 2.3091, 1.90416, 1.77229, 1.6424, 2.36952, 2.78981, 1.2392, 1.02584, 2.93322, 1.57511, 3.56747, 0.785944, 4.13503, 0.5, 1.43644, 2.34065, 1.07513, 2.40504, 2.00058, 2.25765, 1.92094, 1.29166, 0.5, 0.871675, 2.43035, 3.92671, 2.9796, 1.26283, 3.57321, 0.705942, 0.5, 5.06186, 0.89616, 2.37925, 2.398, 1.24377, 0.762687, 2.21961, 2.99668, 3.19817, 0.643531, 1.36463, 0.604851, 3.6371, 2.55172, 2.36529, 2.23317, 2.33473, 0.659972, 2.24374, 2.16309
cpi min/max: 0.5/35
neighbors of 0: 1 6, number of others: 45
neighbors of 1: 0 2 6 7, number of others: 43
neighbors of 2: 1 3 7 8, number of others: 43
neighbors of 3: 2 4 8 9, number of others: 43
neighbors of 4: 3 5 9 10, number of others: 43
neighbors of 5: 4 10 11, number of others: 44
neighbors of 6: 0 1 7 12, number of others: 43
neighbors of 7: 1 2 6 8 12 13, number of others: 41
neighbors of 8: 2 3 7 9 13 14, number of others: 41
neighbors of 9: 3 4 8 10 14 15, number of others: 41
neighbors of 10: 4 5 9 11 15 16, number of others: 41
neighbors of 11: 5 10 16 17, number of others: 43
neighbors of 12: 6 7 13 18, number of others: 43
neighbors of 13: 7 8 12 14 18 19, number of others: 41
neighbors of 14: 8 9 13 15 19 20, number of others: 41
neighbors of 15: 9 10 14 16 20 21, number of others: 41
neighbors of 16: 10 11 15 17 21 22, number of others: 41
neighbors of 17: 11 16 22 23, number of others: 43
neighbors of 18: 12 13 19 24, number of others: 43
neighbors of 19: 13 14 18 20 24 25, number of others: 41
neighbors of 20: 14 15 19 21 25 26, number of others: 41
neighbors of 21: 15 16 20 22 26 27, number of others: 41
neighbors of 22: 16 17 21 23 27 28, number of others: 41
neighbors of 23: 17 22 28 29, number of others: 43
neighbors of 24: 18 19 25 30, number of others: 43
neighbors of 25: 19 20 24 26 30 31, number of others: 41
neighbors of 26: 20 21 25 27 31 32, number of others: 41
neighbors of 27: 21 22 26 28 32 33, number of others: 41
neighbors of 28: 22 23 27 29 33 34, number of others: 41
neighbors of 29: 23 28 34 35, number of others: 43
neighbors of 30: 24 25 31 36, number of others: 43
neighbors of 31: 25 26 30 32 36 37, number of others: 41
neighbors of 32: 26 27 31 33 37 38, number of others: 41
neighbors of 33: 27 28 32 34 38 39, number of others: 41
neighbors of 34: 28 29 33 35 39 40, number of others: 41
neighbors of 35: 29 34 40 41, number of others: 43
neighbors of 36: 30 31 37 42, number of others: 43
neighbors of 37: 31 32 36 38 42 43, number of others: 41
neighbors of 38: 32 33 37 39 43 44, number of others: 41
neighbors of 39: 33 34 38 40 44 45, number of others: 41
neighbors of 40: 34 35 39 41 45 46, number of others: 41
neighbors of 41: 35 40 46 47, number of others: 43
neighbors of 42: 36 37 43, number of others: 44
neighbors of 43: 37 38 42 44, number of others: 43
neighbors of 44: 38 39 43 45, number of others: 43
neighbors of 45: 39 40 44 46, number of others: 43
neighbors of 46: 40 41 45 47, number of others: 43
neighbors of 47: 41 46, number of others: 45
Run model...
Preprocess model 0% ...Preprocess model 16% ...Preprocess model 32% ...Preprocess model 48% ...Preprocess model 66% ...Preprocess model 84% ...Preprocess model 100% ...
Close model 0% ...Close model 9% ...Close model 18% ...Close model 27% ...Close model 36% ...Close model 45% ...Close model 54% ...Close model 63% ...Close model 72% ...Close model 81% ...Close model 91% ...Close model 100% ...
Run param...
Run solver...
Initialize threads 0% ...Initialize threads 100% ...
Push initial solutions 0% ...Push initial solutions 100% ...

Model: 
  expressions = 44729, operands = 116736
  decisions = 13824, constraints = 336, objectives = 1

Param: 
  time limit = 90 sec, no iteration limit
  seed = 801, nb threads = 1, annealing level = 1

Objectives:
  Obj 0: maximize, no bound

Phases:
  Phase 0: time limit = 90 sec, no iteration limit, optimized objective = 0


Computed bounds:
  Obj 0: upper bound = 0.664125


Phase 0:
[0 sec, 0 itr]: infeas = (336, 336, 576), mov = 0, inf < 0.1%, acc < 0.1%, imp = 0

worst case efficiency: 0.998464
[1 sec, 23503 itr]: obj = (0.0514659), mov = 23503, inf = 96.6%, acc = 3.2%, imp = 135

worst case efficiency: 0.63088
[2 sec, 42124 itr]: obj = (0.147914), mov = 42124, inf = 98%, acc = 1.9%, imp = 183

worst case efficiency: 0.688748
[3 sec, 50018 itr]: obj = (0.164408), mov = 50018, inf = 98.2%, acc = 1.7%, imp = 225

worst case efficiency: 0.698645
[4 sec, 55359 itr]: obj = (0.242015), mov = 55359, inf = 98.3%, acc = 1.6%, imp = 273

worst case efficiency: 0.745209
[5 sec, 59657 itr]: obj = (0.252528), mov = 59657, inf = 98.4%, acc = 1.6%, imp = 301

worst case efficiency: 0.751517
[6 sec, 63590 itr]: obj = (0.282901), mov = 63590, inf = 98.5%, acc = 1.5%, imp = 339

worst case efficiency: 0.76974
[7 sec, 67564 itr]: obj = (0.294686), mov = 67564, inf = 98.5%, acc = 1.5%, imp = 384

worst case efficiency: 0.776812
[8 sec, 71376 itr]: obj = (0.306522), mov = 71376, inf = 98.5%, acc = 1.5%, imp = 405

worst case efficiency: 0.783913
[9 sec, 75082 itr]: obj = (0.306522), mov = 75082, inf = 98.6%, acc = 1.4%, imp = 405

worst case efficiency: 0.783913
[10 sec, 78817 itr]: obj = (0.306522), mov = 78817, inf = 98.7%, acc = 1.3%, imp = 405

worst case efficiency: 0.783913
[11 sec, 82457 itr]: obj = (0.306522), mov = 82457, inf = 98.7%, acc = 1.3%, imp = 405

worst case efficiency: 0.783913
[12 sec, 86122 itr]: obj = (0.306522), mov = 86122, inf = 98.8%, acc = 1.2%, imp = 405

worst case efficiency: 0.783913
[13 sec, 89831 itr]: obj = (0.306522), mov = 89831, inf = 98.8%, acc = 1.2%, imp = 405

worst case efficiency: 0.783913
[14 sec, 93552 itr]: obj = (0.306522), mov = 93552, inf = 98.9%, acc = 1.1%, imp = 405

worst case efficiency: 0.783913
[15 sec, 97697 itr]: obj = (0.306522), mov = 97697, inf = 98.9%, acc = 1.1%, imp = 405

worst case efficiency: 0.783913
[16 sec, 102040 itr]: obj = (0.306522), mov = 102040, inf = 99%, acc = 1%, imp = 405

worst case efficiency: 0.783913
[17 sec, 106897 itr]: obj = (0.306522), mov = 106897, inf = 99%, acc = 1%, imp = 405

worst case efficiency: 0.783913
[18 sec, 112060 itr]: obj = (0.306522), mov = 112060, inf = 99.1%, acc = 1%, imp = 405

worst case efficiency: 0.783913
[19 sec, 117795 itr]: obj = (0.306522), mov = 117795, inf = 99.1%, acc = 0.9%, imp = 405

worst case efficiency: 0.783913
[20 sec, 124923 itr]: obj = (0.306522), mov = 124923, inf = 99.2%, acc = 0.9%, imp = 405

worst case efficiency: 0.783913
[21 sec, 133897 itr]: obj = (0.306522), mov = 133897, inf = 99.2%, acc = 0.8%, imp = 405

worst case efficiency: 0.783913
[22 sec, 151178 itr]: obj = (0.306522), mov = 151178, inf = 99.3%, acc = 0.7%, imp = 405

worst case efficiency: 0.783913
[23 sec, 173609 itr]: obj = (0.306522), mov = 173609, inf = 99.4%, acc = 0.7%, imp = 405

worst case efficiency: 0.783913
[24 sec, 192881 itr]: obj = (0.306656), mov = 192881, inf = 99.5%, acc = 0.6%, imp = 406

worst case efficiency: 0.783993
[25 sec, 212108 itr]: obj = (0.306769), mov = 212108, inf = 99.5%, acc = 0.6%, imp = 407

worst case efficiency: 0.784061
[26 sec, 230494 itr]: obj = (0.306807), mov = 230494, inf = 99.5%, acc = 0.5%, imp = 408

worst case efficiency: 0.784084
[27 sec, 249529 itr]: obj = (0.307219), mov = 249529, inf = 99.6%, acc = 0.5%, imp = 410

worst case efficiency: 0.784331
[28 sec, 268454 itr]: obj = (0.307285), mov = 268454, inf = 99.6%, acc = 0.5%, imp = 412

worst case efficiency: 0.784371
[29 sec, 287203 itr]: obj = (0.307537), mov = 287203, inf = 99.6%, acc = 0.4%, imp = 413

worst case efficiency: 0.784522
[30 sec, 305966 itr]: obj = (0.309315), mov = 305966, inf = 99.7%, acc = 0.4%, imp = 414

worst case efficiency: 0.785589
[31 sec, 324471 itr]: obj = (0.309443), mov = 324471, inf = 99.7%, acc = 0.4%, imp = 417

worst case efficiency: 0.785666
[32 sec, 342877 itr]: obj = (0.310055), mov = 342877, inf = 99.7%, acc = 0.4%, imp = 422

worst case efficiency: 0.786033
[33 sec, 360992 itr]: obj = (0.310443), mov = 360992, inf = 99.7%, acc = 0.4%, imp = 425

worst case efficiency: 0.786266
[34 sec, 378024 itr]: obj = (0.31077), mov = 378024, inf = 99.7%, acc = 0.3%, imp = 428

worst case efficiency: 0.786462
[35 sec, 395035 itr]: obj = (0.310876), mov = 395035, inf = 99.7%, acc = 0.3%, imp = 430

worst case efficiency: 0.786525
[36 sec, 410666 itr]: obj = (0.311099), mov = 410666, inf = 99.7%, acc = 0.3%, imp = 433

worst case efficiency: 0.78666
[37 sec, 427479 itr]: obj = (0.311099), mov = 427479, inf = 99.8%, acc = 0.3%, imp = 433

worst case efficiency: 0.78666
[38 sec, 443857 itr]: obj = (0.311178), mov = 443857, inf = 99.8%, acc = 0.3%, imp = 435

worst case efficiency: 0.786707
[39 sec, 461074 itr]: obj = (0.311482), mov = 461074, inf = 99.8%, acc = 0.3%, imp = 436

worst case efficiency: 0.786889
[40 sec, 478048 itr]: obj = (0.311613), mov = 478048, inf = 99.8%, acc = 0.3%, imp = 437

worst case efficiency: 0.786968
[41 sec, 494500 itr]: obj = (0.315488), mov = 494500, inf = 99.8%, acc = 0.3%, imp = 439

worst case efficiency: 0.789293
[42 sec, 511489 itr]: obj = (0.315661), mov = 511489, inf = 99.8%, acc = 0.3%, imp = 440

worst case efficiency: 0.789397
[43 sec, 527878 itr]: obj = (0.316009), mov = 527878, inf = 99.8%, acc = 0.3%, imp = 441

worst case efficiency: 0.789605
[44 sec, 544260 itr]: obj = (0.316973), mov = 544260, inf = 99.8%, acc = 0.3%, imp = 443

worst case efficiency: 0.790184
[45 sec, 561037 itr]: obj = (0.317239), mov = 561037, inf = 99.8%, acc = 0.3%, imp = 444

worst case efficiency: 0.790343
[46 sec, 577491 itr]: obj = (0.317956), mov = 577491, inf = 99.8%, acc = 0.3%, imp = 446

worst case efficiency: 0.790774
[47 sec, 593514 itr]: obj = (0.318641), mov = 593514, inf = 99.8%, acc = 0.2%, imp = 447

worst case efficiency: 0.791184
[48 sec, 609382 itr]: obj = (0.318676), mov = 609382, inf = 99.8%, acc = 0.2%, imp = 448

worst case efficiency: 0.791206
[49 sec, 625130 itr]: obj = (0.319305), mov = 625130, inf = 99.8%, acc = 0.2%, imp = 449

worst case efficiency: 0.791583
[50 sec, 641382 itr]: obj = (0.320624), mov = 641382, inf = 99.8%, acc = 0.2%, imp = 452

worst case efficiency: 0.792374
[51 sec, 657115 itr]: obj = (0.320885), mov = 657115, inf = 99.9%, acc = 0.2%, imp = 454

worst case efficiency: 0.792531
[52 sec, 672710 itr]: obj = (0.321164), mov = 672710, inf = 99.9%, acc = 0.2%, imp = 456

worst case efficiency: 0.792699
[53 sec, 688112 itr]: obj = (0.321266), mov = 688112, inf = 99.9%, acc = 0.2%, imp = 458

worst case efficiency: 0.79276
[54 sec, 704697 itr]: obj = (0.32269), mov = 704697, inf = 99.9%, acc = 0.2%, imp = 460

worst case efficiency: 0.793614
[55 sec, 716476 itr]: obj = (0.322995), mov = 716476, inf = 99.9%, acc = 0.2%, imp = 462

worst case efficiency: 0.793797
[56 sec, 731804 itr]: obj = (0.322995), mov = 731804, inf = 99.9%, acc = 0.2%, imp = 462

worst case efficiency: 0.793797
[57 sec, 747873 itr]: obj = (0.323181), mov = 747873, inf = 99.9%, acc = 0.2%, imp = 463

worst case efficiency: 0.793909
[58 sec, 765321 itr]: obj = (0.323181), mov = 765321, inf = 99.9%, acc = 0.2%, imp = 463

worst case efficiency: 0.793909
[59 sec, 783068 itr]: obj = (0.323573), mov = 783068, inf = 99.9%, acc = 0.2%, imp = 465

worst case efficiency: 0.794144
[60 sec, 800715 itr]: obj = (0.323573), mov = 800715, inf = 99.9%, acc = 0.2%, imp = 465

worst case efficiency: 0.794144
[61 sec, 817935 itr]: obj = (0.323607), mov = 817935, inf = 99.9%, acc = 0.2%, imp = 466

worst case efficiency: 0.794164
[62 sec, 834391 itr]: obj = (0.323607), mov = 834391, inf = 99.9%, acc = 0.2%, imp = 466

worst case efficiency: 0.794164
[63 sec, 851158 itr]: obj = (0.323936), mov = 851158, inf = 99.9%, acc = 0.2%, imp = 469

worst case efficiency: 0.794362
[64 sec, 867694 itr]: obj = (0.324625), mov = 867694, inf = 99.9%, acc = 0.2%, imp = 471

worst case efficiency: 0.794775
[65 sec, 884238 itr]: obj = (0.324637), mov = 884238, inf = 99.9%, acc = 0.2%, imp = 472

worst case efficiency: 0.794782
[66 sec, 898629 itr]: obj = (0.324669), mov = 898629, inf = 99.9%, acc = 0.2%, imp = 473

worst case efficiency: 0.794801
[67 sec, 913026 itr]: obj = (0.324669), mov = 913026, inf = 99.9%, acc = 0.2%, imp = 473

worst case efficiency: 0.794801
[68 sec, 927502 itr]: obj = (0.324778), mov = 927502, inf = 99.9%, acc = 0.2%, imp = 474

worst case efficiency: 0.794867
[69 sec, 943923 itr]: obj = (0.32503), mov = 943923, inf = 99.9%, acc = 0.2%, imp = 475

worst case efficiency: 0.795018
[70 sec, 960484 itr]: obj = (0.32503), mov = 960484, inf = 99.9%, acc = 0.2%, imp = 475

worst case efficiency: 0.795018
[71 sec, 977000 itr]: obj = (0.325494), mov = 977000, inf = 99.9%, acc = 0.2%, imp = 477

worst case efficiency: 0.795296
[72 sec, 994174 itr]: obj = (0.325632), mov = 994174, inf = 99.9%, acc = 0.2%, imp = 479

worst case efficiency: 0.795379
[73 sec, 1011129 itr]: obj = (0.325632), mov = 1011129, inf = 99.9%, acc = 0.2%, imp = 479

worst case efficiency: 0.795379
[74 sec, 1028579 itr]: obj = (0.326687), mov = 1028579, inf = 99.9%, acc = 0.2%, imp = 484

worst case efficiency: 0.796012
[75 sec, 1045293 itr]: obj = (0.326851), mov = 1045293, inf = 99.9%, acc = 0.2%, imp = 485

worst case efficiency: 0.79611
[76 sec, 1061926 itr]: obj = (0.326976), mov = 1061926, inf = 99.9%, acc = 0.2%, imp = 486

worst case efficiency: 0.796186
[77 sec, 1076788 itr]: obj = (0.326976), mov = 1076788, inf = 99.9%, acc = 0.2%, imp = 486

worst case efficiency: 0.796186
[78 sec, 1090008 itr]: obj = (0.326989), mov = 1090008, inf = 99.9%, acc = 0.2%, imp = 487

worst case efficiency: 0.796193
[79 sec, 1102202 itr]: obj = (0.326989), mov = 1102202, inf = 99.9%, acc = 0.2%, imp = 487

worst case efficiency: 0.796193
[80 sec, 1117895 itr]: obj = (0.326989), mov = 1117895, inf = 99.9%, acc = 0.2%, imp = 487

worst case efficiency: 0.796193
[81 sec, 1131814 itr]: obj = (0.327095), mov = 1131814, inf = 99.9%, acc = 0.2%, imp = 488

worst case efficiency: 0.796257
[82 sec, 1147832 itr]: obj = (0.327272), mov = 1147832, inf = 99.9%, acc = 0.2%, imp = 490

worst case efficiency: 0.796363
[83 sec, 1164788 itr]: obj = (0.327329), mov = 1164788, inf = 99.9%, acc = 0.2%, imp = 491

worst case efficiency: 0.796397
[84 sec, 1182290 itr]: obj = (0.327329), mov = 1182290, inf = 99.9%, acc = 0.2%, imp = 491

worst case efficiency: 0.796397
[85 sec, 1199706 itr]: obj = (0.327575), mov = 1199706, inf = 99.9%, acc = 0.2%, imp = 492

worst case efficiency: 0.796545
[86 sec, 1214791 itr]: obj = (0.329074), mov = 1214791, inf = 99.9%, acc = 0.2%, imp = 498

worst case efficiency: 0.797444
[87 sec, 1231645 itr]: obj = (0.329074), mov = 1231645, inf = 99.9%, acc = 0.2%, imp = 498

worst case efficiency: 0.797444
[88 sec, 1247913 itr]: obj = (0.329225), mov = 1247913, inf = 99.9%, acc = 0.2%, imp = 500

worst case efficiency: 0.797535
[89 sec, 1264900 itr]: obj = (0.329464), mov = 1264900, inf = 99.9%, acc = 0.2%, imp = 502

worst case efficiency: 0.797679
[90 sec, 1280948 itr]: obj = (0.329832), mov = 1280948, inf = 99.9%, acc < 0.1%, imp = 504

worst case efficiency: 0.797899
[90 sec, 1280948 itr]: obj = (0.329832), mov = 1280948, inf = 99.9%, acc < 0.1%, imp = 504

worst case efficiency: 0.797899
1280948 iterations, 1280948 moves performed in 90 seconds
Feasible solution: obj = (0.329832)

Run output...
FINAL SOLUTION
Worst case efficiency: 0.797899
Mapping: 0->16, 1->20, 2->0, 3->14, 4->15, 5->30, 6->1, 7->32, 8->16, 9->40, 10->42, 11->11, 12->38, 13->45, 14->10, 15->45, 16->12, 17->41, 18->29, 19->28, 20->18, 21->15, 22->45, 23->9, 24->12, 25->18, 26->21, 27->13, 28->24, 29->3, 30->6, 31->30, 32->6, 33->24, 34->29, 35->41, 36->35, 37->34, 38->41, 39->23, 40->20, 41->22, 42->17, 43->33, 44->14, 45->3, 46->2, 47->23, 48->9, 49->36, 50->8, 51->47, 52->43, 53->32, 54->17, 55->23, 56->31, 57->19, 58->19, 59->22, 60->44, 61->6, 62->8, 63->15, 64->8, 65->36, 66->47, 67->1, 68->31, 69->4, 70->9, 71->34, 72->4, 73->36, 74->12, 75->31, 76->20, 77->11, 78->25, 79->26, 80->25, 81->17, 82->47, 83->35, 84->7, 85->35, 86->7, 87->24, 88->31, 89->37, 90->42, 91->47, 92->40, 93->46, 94->14, 95->26, 96->46, 97->5, 98->33, 99->7, 100->29, 101->5, 102->0, 103->26, 104->37, 105->2, 106->45, 107->2, 108->47, 109->17, 110->33, 111->1, 112->39, 113->38, 114->38, 115->12, 116->17, 117->18, 118->40, 119->30, 120->24, 121->4, 122->25, 123->10, 124->25, 125->2, 126->25, 127->41, 128->35, 129->42, 130->24, 131->42, 132->46, 133->34, 134->33, 135->32, 136->28, 137->20, 138->32, 139->27, 140->33, 141->27, 142->11, 143->8, 144->41, 145->34, 146->43, 147->28, 148->19, 149->10, 150->39, 151->37, 152->0, 153->29, 154->27, 155->18, 156->16, 157->5, 158->42, 159->6, 160->36, 161->36, 162->45, 163->15, 164->25, 165->21, 166->20, 167->9, 168->31, 169->44, 170->17, 171->5, 172->37, 173->13, 174->26, 175->10, 176->14, 177->19, 178->31, 179->39, 180->44, 181->10, 182->8, 183->15, 184->11, 185->3, 186->46, 187->8, 188->0, 189->29, 190->41, 191->21, 192->36, 193->27, 194->20, 195->30, 196->39, 197->38, 198->5, 199->7, 200->14, 201->9, 202->44, 203->4, 204->7, 205->16, 206->22, 207->38, 208->28, 209->45, 210->6, 211->40, 212->35, 213->43, 214->22, 215->34, 216->44, 217->13, 218->7, 219->22, 220->1, 221->34, 222->19, 223->5, 224->35, 225->14, 226->15, 227->44, 228->4, 229->21, 230->6, 231->27, 232->2, 233->28, 234->9, 235->26, 236->33, 237->46, 238->39, 239->38, 240->10, 241->18, 242->19, 243->32, 244->2, 245->40, 246->37, 247->21, 248->22, 249->13, 250->30, 251->37, 252->46, 253->29, 254->21, 255->40, 256->0, 257->39, 258->3, 259->3, 260->11, 261->28, 262->16, 263->13, 264->3, 265->11, 266->23, 267->0, 268->26, 269->24, 270->1, 271->16, 272->43, 273->23, 274->42, 275->12, 276->18, 277->1, 278->30, 279->23, 280->32, 281->13, 282->12, 283->43, 284->4, 285->47, 286->43, 287->27
Number of tasks per core:
	6	6	6	6	6	6
	6	6	6	6	6	6
	6	6	6	6	6	6
	6	6	6	6	6	6
	6	6	6	6	6	6
	6	6	6	6	6	6
	6	6	6	6	6	6
	6	6	6	6	6	6
Average CPI map:
	1.09833	1.40402	1.2847	1.56737	4.52953	10.4894
	1.84413	7.14176	7.18445	8.55801	5.49558	5.54705
	1.84625	6.25023	9.01754	5.98199	8.22257	1.67914
	2.16442	6.94039	9.51613	8.05317	7.29007	0.916372
	1.17149	5.8968	5.78175	9.92127	8.06666	1.57845
	1.51614	9.25533	7.4304	8.34731	9.16444	3.29151
	1.21901	6.30174	5.66564	6.6261	7.31686	1.2553
	2.25677	7.25504	8.72443	6.95892	5.85	1.12608
Efficiency map:
	0.99722	0.907307	0.920158	0.906569	0.999983	1.00307
	0.814075	0.830485	0.857479	0.872531	0.833067	0.907576
	0.831821	0.817064	0.90734	0.808385	0.813183	0.805016
	0.8499	0.814733	0.853639	0.854167	0.797899	0.99932
	0.821226	0.797938	0.799901	0.903244	0.859669	0.808414
	0.799285	0.874757	0.821025	0.817664	0.927727	0.852579
	0.818564	0.808178	0.801488	0.83778	0.801818	0.818769
	0.837042	0.826553	0.8545	0.864203	0.944417	0.798106
==============================================================================
Local Solver optimizer for EML demonstration
==============================================================================

Option values: --wld-idx 17 --global-tlim 90 --seed 801

Starting the Optimization Process
