LocalSolver 4.0 (MacOS64, build 20131224)
Copyright (C) 2013 Bouygues SA, Aix-Marseille University, CNRS.
All rights reserved (see Terms and Conditions for details).

Load localsolver_res/tawd_ls.lsp...
Run input...
ANNs For the Platform:
4,2,1,6.45294,0.0174524,1.58234,2.29305,2.12057,3.95113,12.7206,-19.3278,5.58789,9.38298,0.00306445,0.00353919,0.795949
4,2,1,3.10684,7.56359,0.502116,0.637049,12.0356,-2.9013,-3.22211,-0.368567,-0.562298,-7.37831,2.38595,1.22203,-0.360292
4,2,1,4.88387,44.8399,1.27345,1.24496,49.1775,-8.83277,-3.12983,-1.00946,11.7,-3.01002,0.132635,0.00372271,0.673996
4,2,1,4.73045,19.3982,0.449241,0.753865,25.7092,17.3605,0.0558085,-8.91516,0.49993,10.3396,4.06312,-0.0136297,-3.24599
4,2,1,-7.16849,-10.0957,-0.518885,-0.00359459,5.93351,5.62684,52.0516,1.48603,1.30274,57.2311,0.250578,0.137157,0.417379
4,2,1,0.412706,-2.89716,0.137754,-2.57826,11.0947,121.374,858.444,-136.26,-14917.8,-1308.92,-3.36558,-0.000403784,4.17997
4,2,1,-8.8269,-0.482244,-0.0820712,-0.0562713,-10.1617,9.78118,-7.01882,-0.428151,-0.0606718,2.56012,-8.54699,-0.509991,-7.23704
4,2,1,2.19881,4.94147,0.541452,0.107587,6.45213,1.0452,0.405805,0.555763,3.64728,1.95727,0.425683,-0.00188273,0.383643
4,2,1,-6.13316,1.92598,-0.0562274,-0.0731719,-4.60606,0.509071,7.79918,0.393802,0.0114563,7.9345,-1.13416,0.310582,-0.637365
4,2,1,1.73462,2.97854,0.276167,0.0859465,3.6912,3.09203,3.25403,0.324282,0.112495,4.06123,0.954718,-0.48836,0.344765
4,2,1,1.57339,3.84603,-3.4467,0.7429,2.75709,2.1802,5.09535,0.482172,0.106131,6.49189,-0.0251827,0.433535,0.393482
4,2,1,4.13514,21.6229,1.1931,0.354612,24.1372,25.5916,0.432728,-12.6725,-0.45345,15.3428,0.194819,-0.0364695,0.647465
4,2,1,-0.728632,5.60079,1.78098,1.8429,-5.74354,-3.26566,-13.0026,-0.907163,-0.31822,-15.3707,-0.427666,-0.224298,0.154329
4,2,1,3.81854,-4.98219,-0.293924,-0.103604,-6.7034,2.28654,4.72568,0.469524,0.115005,6.05901,-0.511241,0.421809,-0.121549
4,2,1,-1.23773,5.98591,0.224555,-0.359337,6.05767,2.3852,3.4706,0.220977,0.179377,4.88772,0.199751,0.432231,0.177791
4,2,1,1.12189,4.09326,0.850801,0.171671,-5.17646,-1.9656,-4.07995,-0.210811,-0.113853,-5.17242,-2.70452,-0.46094,-2.36326
4,2,1,2.08858,4.80174,0.367584,0.109336,6.02292,4.32969,4.35157,0.772172,10.015,-0.96022,0.43933,4.17055e-05,0.365228
4,2,1,1.18806,3.00188,0.124753,0.00191203,3.75084,1.03049,2.7808,0.137818,0.0250058,4.01619,-1.05018,2.49176,-0.635083
4,2,1,3.11788,10.9247,0.699295,0.170953,13.0959,-11.4646,-5.88946,11.0137,8.74787,-11.701,0.236706,0.0216102,0.59131
4,2,1,7.53568,1.94998,-2.27776,-1.91765,0.451708,2.13206,4.27547,0.333162,0.0864645,5.45063,-0.0153486,0.447774,0.366202
4,2,1,-2.12436,-3.29848,-0.0965154,-0.0454545,-3.86293,4.27042,3.64797,0.106703,0.057602,4.81479,-1.28015,-0.815344,0.346524
4,2,1,2.06313,3.99765,-9.94001e-06,0.200591,5.05136,-0.024567,-3.22765,-1.84842,1.73493,-3.87425,0.446216,-0.0350173,0.320411
4,2,1,3.3952,3.19239,0.219932,0.0459907,4.0724,1.85184,2.9352,0.236295,0.0535068,3.62882,-0.516849,0.990723,0.337742
4,2,1,-6.32145,2.68844,0.160066,0.0633176,-3.81442,9.03888,1.31396,0.253255,-0.0684612,6.93971,1.83579,0.440423,2.20116
4,2,1,-4.54148,-0.217309,1.86369,-0.409034,0.0885675,-3.10698,-12.3715,-0.753639,-0.275832,-14.544,0.00344558,-0.233405,0.57337
4,2,1,-0.743367,6.86662,-0.19496,-0.0184317,7.54898,2.69258,3.24789,0.437511,0.121848,4.97423,0.830361,0.39615,-0.417087
4,2,1,2.07654,3.2533,0.103762,0.0837251,4.40922,1.95615,-2.57949,-0.10147,-0.0485499,-3.72005,0.479113,-0.433879,-0.0966803
4,2,1,-0.480501,-0.00331725,1.67452,0.764966,-1.53387,1.99113,3.67475,0.0228188,0.0287235,4.64739,0.15721,0.465135,0.487915
4,2,1,1.11584,-5.79333,-0.212675,0.376981,-6.64888,2.45003,3.54368,0.313683,0.144659,5.05472,-0.777178,0.423599,-0.389995
4,2,1,2.39093,1.70258,-0.183288,-0.314006,4.06496,2.34881,2.91375,-0.0230153,-0.18977,5.26307,-1.33645,1.84807,0.292237
4,2,1,0.88022,3.23795,0.179315,0.0205209,3.57684,0.764441,2.74982,0.156077,0.0273373,3.62313,-0.980719,2.16912,-0.37872
4,2,1,-1.27932,7.09751,-0.0490235,0.455487,7.14709,-2.57722,-4.06233,-0.410784,-0.0433739,-5.6171,0.164894,-0.408714,0.23583
4,2,1,0.623158,5.01876,0.194867,0.0365944,4.99458,-16.0815,2.94826,-1.82463,-1.90388,-9.56395,0.291148,-0.155001,0.360694
4,2,1,1.86251,3.92056,0.158781,0.0575693,4.93436,0.681285,4.09563,1.09826,-3.65606,2.09524,0.482473,-0.00448292,0.322397
4,2,1,3.33939,3.52877,0.262622,0.0607689,4.45842,2.23218,3.37107,0.256541,0.0516206,4.05014,-1.2701,1.7162,0.365737
4,2,1,5.0585,4.68315,2.53887,0.128578,8.9709,3.62833,11.0789,1.32555,0.190392,13.8026,-0.126366,0.350541,0.580103
4,2,1,4.99986,2.75557,1.33036,-0.0119951,6.91685,4.23025,5.34568,1.08928,0.0379928,8.80363,-0.700785,0.958812,0.547325
4,2,1,1.95024,3.24732,0.229322,0.0270089,3.53624,1.62575,3.04977,0.230194,0.0319079,3.46966,-1.34015,1.81817,0.333213
4,2,1,2.11055,5.16581,0.225183,0.0767342,6.2013,3.43647,-3.10756,1.22453,-6.27082,5.92438,0.428242,2.12665,-1.75474
4,2,1,10.028,2.55152,-0.0579427,-0.0186516,-2.98054,2.14055,4.33639,0.203596,0.057269,5.47668,0.0078111,0.436528,0.371941
4,2,1,1.80421,3.45533,0.27065,0.0337725,4.14172,3.00203,3.65885,0.26995,0.0620062,4.37924,0.892686,-0.440136,0.355377
4,2,1,-2.76424,-10.7675,-0.741451,-0.141046,-12.927,13.6995,2.51611,0.90934,27.76,15.1973,-0.260938,-0.00175312,0.546274
4,2,1,2.26659,3.88332,0.083697,0.287373,-5.89957,3.07548,7.5942,0.285535,0.141703,9.90558,1.94369,0.273352,2.47758
4,2,1,5.41472,-1.35343,-0.0808605,2.27411,0.928252,2.55844,6.15687,0.338903,0.0735359,7.47381,-0.0148119,0.388691,0.423615
4,2,1,4.53285,3.66527,0.130055,0.0722232,4.95325,-2.1632,-3.34312,-0.11633,-0.0577237,-3.98867,-0.759785,-1.19124,0.379449
4,2,1,2.36669,5.75119,0.132783,0.0812059,6.8845,-8.68015,-0.488627,0.811521,2.16444,0.277436,0.40839,0.00790296,0.400784
4,2,1,0.583762,8.58805,0.307497,0.0165495,8.61973,-7.32584,1.34397,-0.0108636,-0.0260377,-6.96836,0.266022,-5.2323,-4.69173
4,2,1,1.76683,-0.336959,-0.116305,-0.0696435,-1.62311,2.51027,5.65249,0.180271,0.0657051,7.97995,-0.0500539,0.457869,0.308072
Workload Information:
2.32528, 2.69661, 2.33489, 2.61968, 1.39219, 0.631348, 2.14457, 2.09786, 2.0156, 1.40994, 1.98032, 2.35171, 2.14681, 5.51269, 0.508952, 0.535891, 0.5, 2.79566, 3.22107, 2.76887, 0.692256, 1.46167, 0.850599, 3.00553, 2.23892, 1.87871, 1.2304, 2.62408, 1.53786, 2.49003, 2.48813, 1.34152, 1.20766, 2.56005, 2.63035, 1.77229, 2.66158, 1.90349, 1.20222, 0.5, 2.9669, 2.76581, 1.98381, 1.59411, 2.21138, 1.7083, 2.1388, 2.3636, 2.19001, 0.5, 4.03973, 1.23369, 3.32551, 0.711065, 3.24643, 1.1781, 4.52644, 1.21575, 0.964015, 0.869259, 0.938447, 3.922, 0.843693, 1.07256, 1.25476, 3.96854, 1.39503, 3.56897, 0.5, 2.38786, 2.90278, 1.24536, 2.93462, 0.896481, 1.06807, 2.45856, 1.87207, 2.7702, 1.69628, 2.78384, 1.12446, 0.5, 4.4353, 1.46012, 2.38702, 1.72511, 2.41288, 0.580633, 2.60767, 2.28668, 3.58483, 1.62044, 2.45795, 1.4516, 1.25484, 1.63034, 0.91103, 2.63715, 3.19185, 2.24391, 1.0621, 1.95395, 1.32327, 1.66125, 1.74398, 2.48313, 2.38041, 2.40796, 2.4193, 1.97648, 3.89831, 1.45677, 1.43626, 0.812887, 1.06923, 2.69108, 2.69001, 2.40738, 0.5, 2.6423, 2.42072, 2.2702, 2.33269, 1.11317, 2.14266, 1.72055, 1.81811, 2.32174, 0.5, 1.62056, 3.11018, 2.62942, 0.707084, 5.29154, 0.5, 1.5014, 0.779448, 3.22052, 0.5, 1.39923, 2.29096, 2.96028, 0.653012, 4.19651, 2.63646, 4.68393, 16.8611, 9.38735, 10.584, 15.8471, 12.4193, 11.3196, 8.5879, 5.72528, 10.3222, 11.6257, 2.31026, 0.923478, 2.2913, 2.17043, 2.2971, 2.00743, 2.10152, 2.2143, 1.84459, 1.79931, 2.20512, 1.83515, 2.41186, 0.899128, 2.56038, 3.06383, 0.544909, 2.51989, 0.713665, 2.36931, 5.49921, 0.839979, 0.5, 2.07783, 5.95985, 14.7485, 5.49833, 11.4358, 10.0437, 12.3138, 10.8716, 6.94639, 11.4038, 9.4133, 11.2042, 10.1607, 2.11606, 2.1784, 1.63394, 2.49925, 1.77286, 1.79949, 2.09519, 0.5, 3.13735, 2.57248, 0.589622, 3.10535, 0.5, 2.33476, 2.6411, 2.10101, 1.2168, 3.20633, 0.714263, 1.016, 4.23816, 2.98103, 2.23276, 0.817779, 2.06887, 21.1907, 15.5591, 1.76883, 12.7602, 6.65228, 9.39986, 0.989694, 12.6479, 13.8169, 5.73979, 17.4058, 0.553682, 0.732482, 4.94519, 3.15069, 2.11795, 0.5, 2.1616, 1.82805, 1.98405, 2.41493, 1.33159, 2.27978, 1.97777, 1.89826, 2.04107, 2.08565, 1.86146, 2.1358, 1.84052, 2.09338, 3.1304, 0.617474, 1.88191, 2.43632, 1.05405, 2.49331, 2.40819, 2.42397, 2.30645, 1.31403, 1.10261, 2.56829, 2.2386, 2.10825, 2.51723, 1.46503, 1.65952, 0.5, 3.22461, 0.849226, 3.22171, 2.54493, 1.44435, 2.97665, 2.08928, 0.529936, 4.44981, 0.509979, 2.21915, 2.3045, 1.9667, 1.74361, 1.68983, 2.07621, 0.917113, 3.85127, 2.09248, 1.7479, 0.810541, 2.58069
cpi min/max: 0.5/21.1907
neighbors of 0: 1 6, number of others: 45
neighbors of 1: 0 2 6 7, number of others: 43
neighbors of 2: 1 3 7 8, number of others: 43
neighbors of 3: 2 4 8 9, number of others: 43
neighbors of 4: 3 5 9 10, number of others: 43
neighbors of 5: 4 10 11, number of others: 44
neighbors of 6: 0 1 7 12, number of others: 43
neighbors of 7: 1 2 6 8 12 13, number of others: 41
neighbors of 8: 2 3 7 9 13 14, number of others: 41
neighbors of 9: 3 4 8 10 14 15, number of others: 41
neighbors of 10: 4 5 9 11 15 16, number of others: 41
neighbors of 11: 5 10 16 17, number of others: 43
neighbors of 12: 6 7 13 18, number of others: 43
neighbors of 13: 7 8 12 14 18 19, number of others: 41
neighbors of 14: 8 9 13 15 19 20, number of others: 41
neighbors of 15: 9 10 14 16 20 21, number of others: 41
neighbors of 16: 10 11 15 17 21 22, number of others: 41
neighbors of 17: 11 16 22 23, number of others: 43
neighbors of 18: 12 13 19 24, number of others: 43
neighbors of 19: 13 14 18 20 24 25, number of others: 41
neighbors of 20: 14 15 19 21 25 26, number of others: 41
neighbors of 21: 15 16 20 22 26 27, number of others: 41
neighbors of 22: 16 17 21 23 27 28, number of others: 41
neighbors of 23: 17 22 28 29, number of others: 43
neighbors of 24: 18 19 25 30, number of others: 43
neighbors of 25: 19 20 24 26 30 31, number of others: 41
neighbors of 26: 20 21 25 27 31 32, number of others: 41
neighbors of 27: 21 22 26 28 32 33, number of others: 41
neighbors of 28: 22 23 27 29 33 34, number of others: 41
neighbors of 29: 23 28 34 35, number of others: 43
neighbors of 30: 24 25 31 36, number of others: 43
neighbors of 31: 25 26 30 32 36 37, number of others: 41
neighbors of 32: 26 27 31 33 37 38, number of others: 41
neighbors of 33: 27 28 32 34 38 39, number of others: 41
neighbors of 34: 28 29 33 35 39 40, number of others: 41
neighbors of 35: 29 34 40 41, number of others: 43
neighbors of 36: 30 31 37 42, number of others: 43
neighbors of 37: 31 32 36 38 42 43, number of others: 41
neighbors of 38: 32 33 37 39 43 44, number of others: 41
neighbors of 39: 33 34 38 40 44 45, number of others: 41
neighbors of 40: 34 35 39 41 45 46, number of others: 41
neighbors of 41: 35 40 46 47, number of others: 43
neighbors of 42: 36 37 43, number of others: 44
neighbors of 43: 37 38 42 44, number of others: 43
neighbors of 44: 38 39 43 45, number of others: 43
neighbors of 45: 39 40 44 46, number of others: 43
neighbors of 46: 40 41 45 47, number of others: 43
neighbors of 47: 41 46, number of others: 45
Run model...
Preprocess model 0% ...Preprocess model 16% ...Preprocess model 32% ...Preprocess model 48% ...Preprocess model 66% ...Preprocess model 84% ...Preprocess model 100% ...
Close model 0% ...Close model 9% ...Close model 18% ...Close model 27% ...Close model 36% ...Close model 45% ...Close model 54% ...Close model 63% ...Close model 72% ...Close model 81% ...Close model 91% ...Close model 100% ...
Run param...
Run solver...
Initialize threads 0% ...Initialize threads 100% ...
Push initial solutions 0% ...Push initial solutions 100% ...

Model: 
  expressions = 44736, operands = 116736
  decisions = 13824, constraints = 336, objectives = 1

Param: 
  time limit = 90 sec, no iteration limit
  seed = 101, nb threads = 1, annealing level = 1

Objectives:
  Obj 0: maximize, no bound

Phases:
  Phase 0: time limit = 90 sec, no iteration limit, optimized objective = 0


Computed bounds:
  Obj 0: upper bound = 0.664123


Phase 0:
[0 sec, 0 itr]: infeas = (336, 336, 576), mov = 0, inf < 0.1%, acc < 0.1%, imp = 0

worst case efficiency: 0.998464
[1 sec, 27517 itr]: obj = (0.058394), mov = 27517, inf = 95.9%, acc = 3.6%, imp = 187

worst case efficiency: 0.635036
[2 sec, 51346 itr]: obj = (0.0687461), mov = 51346, inf = 96.9%, acc = 2.7%, imp = 249

worst case efficiency: 0.641248
[3 sec, 72746 itr]: obj = (0.0850163), mov = 72746, inf = 97.1%, acc = 2.4%, imp = 299

worst case efficiency: 0.65101
[4 sec, 91092 itr]: obj = (0.0975123), mov = 91092, inf = 96.6%, acc = 2.7%, imp = 368

worst case efficiency: 0.658507
[5 sec, 110827 itr]: obj = (0.108727), mov = 110827, inf = 96.3%, acc = 2.8%, imp = 417

worst case efficiency: 0.665236
[6 sec, 131727 itr]: obj = (0.125534), mov = 131727, inf = 96%, acc = 3%, imp = 479

worst case efficiency: 0.67532
[7 sec, 149912 itr]: obj = (0.13566), mov = 149912, inf = 95.8%, acc = 3%, imp = 540

worst case efficiency: 0.681396
[8 sec, 170736 itr]: obj = (0.145197), mov = 170736, inf = 95.7%, acc = 3%, imp = 609

worst case efficiency: 0.687118
[9 sec, 192546 itr]: obj = (0.150732), mov = 192546, inf = 95.5%, acc = 3%, imp = 652

worst case efficiency: 0.690439
[10 sec, 215861 itr]: obj = (0.159079), mov = 215861, inf = 95.3%, acc = 3%, imp = 698

worst case efficiency: 0.695447
[11 sec, 238984 itr]: obj = (0.161529), mov = 238984, inf = 95.4%, acc = 2.9%, imp = 726

worst case efficiency: 0.696917
[12 sec, 262257 itr]: obj = (0.162283), mov = 262257, inf = 95.5%, acc = 2.7%, imp = 748

worst case efficiency: 0.69737
[13 sec, 286673 itr]: obj = (0.168758), mov = 286673, inf = 95.6%, acc = 2.6%, imp = 791

worst case efficiency: 0.701255
[14 sec, 309601 itr]: obj = (0.178046), mov = 309601, inf = 95.8%, acc = 2.5%, imp = 831

worst case efficiency: 0.706828
[15 sec, 334067 itr]: obj = (0.181587), mov = 334067, inf = 95.9%, acc = 2.4%, imp = 859

worst case efficiency: 0.708952
[16 sec, 356684 itr]: obj = (0.184525), mov = 356684, inf = 96%, acc = 2.3%, imp = 887

worst case efficiency: 0.710715
[17 sec, 378451 itr]: obj = (0.186692), mov = 378451, inf = 96.1%, acc = 2.3%, imp = 912

worst case efficiency: 0.712015
[18 sec, 400817 itr]: obj = (0.19016), mov = 400817, inf = 96.2%, acc = 2.2%, imp = 945

worst case efficiency: 0.714096
[19 sec, 421849 itr]: obj = (0.192124), mov = 421849, inf = 96.3%, acc = 2.2%, imp = 970

worst case efficiency: 0.715274
[20 sec, 442416 itr]: obj = (0.198021), mov = 442416, inf = 96.3%, acc = 2.1%, imp = 999

worst case efficiency: 0.718812
[21 sec, 464203 itr]: obj = (0.200968), mov = 464203, inf = 96.4%, acc = 2%, imp = 1033

worst case efficiency: 0.720581
[22 sec, 485755 itr]: obj = (0.205029), mov = 485755, inf = 96.5%, acc = 2%, imp = 1067

worst case efficiency: 0.723018
[23 sec, 507199 itr]: obj = (0.207901), mov = 507199, inf = 96.6%, acc = 1.9%, imp = 1092

worst case efficiency: 0.724741
[24 sec, 528079 itr]: obj = (0.209932), mov = 528079, inf = 96.6%, acc = 1.9%, imp = 1112

worst case efficiency: 0.725959
[25 sec, 549272 itr]: obj = (0.210918), mov = 549272, inf = 96.7%, acc = 1.8%, imp = 1125

worst case efficiency: 0.726551
[26 sec, 569206 itr]: obj = (0.211256), mov = 569206, inf = 96.8%, acc = 1.8%, imp = 1136

worst case efficiency: 0.726754
[27 sec, 590872 itr]: obj = (0.212793), mov = 590872, inf = 96.8%, acc = 1.7%, imp = 1150

worst case efficiency: 0.727676
[28 sec, 608373 itr]: obj = (0.215629), mov = 608373, inf = 96.9%, acc = 1.7%, imp = 1163

worst case efficiency: 0.729377
[29 sec, 626421 itr]: obj = (0.217327), mov = 626421, inf = 96.9%, acc = 1.7%, imp = 1183

worst case efficiency: 0.730396
[30 sec, 645532 itr]: obj = (0.220142), mov = 645532, inf = 97%, acc = 1.7%, imp = 1201

worst case efficiency: 0.732085
[31 sec, 668479 itr]: obj = (0.220589), mov = 668479, inf = 97%, acc = 1.6%, imp = 1210

worst case efficiency: 0.732353
[32 sec, 697188 itr]: obj = (0.220724), mov = 697188, inf = 97.1%, acc = 1.6%, imp = 1214

worst case efficiency: 0.732434
[33 sec, 727488 itr]: obj = (0.221084), mov = 727488, inf = 97.1%, acc = 1.6%, imp = 1218

worst case efficiency: 0.73265
[34 sec, 763665 itr]: obj = (0.221303), mov = 763665, inf = 97.1%, acc = 1.5%, imp = 1222

worst case efficiency: 0.732782
[35 sec, 799905 itr]: obj = (0.221384), mov = 799905, inf = 97.1%, acc = 1.5%, imp = 1225

worst case efficiency: 0.73283
[36 sec, 834447 itr]: obj = (0.222201), mov = 834447, inf = 97.2%, acc = 1.5%, imp = 1231

worst case efficiency: 0.73332
[37 sec, 864655 itr]: obj = (0.222201), mov = 864655, inf = 97.2%, acc = 1.5%, imp = 1231

worst case efficiency: 0.73332
[38 sec, 899227 itr]: obj = (0.222542), mov = 899227, inf = 97.2%, acc = 1.4%, imp = 1238

worst case efficiency: 0.733525
[39 sec, 932868 itr]: obj = (0.222583), mov = 932868, inf = 97.2%, acc = 1.4%, imp = 1242

worst case efficiency: 0.73355
[40 sec, 965742 itr]: obj = (0.222733), mov = 965742, inf = 97.2%, acc = 1.4%, imp = 1251

worst case efficiency: 0.73364
[41 sec, 997554 itr]: obj = (0.222981), mov = 997554, inf = 97.2%, acc = 1.4%, imp = 1261

worst case efficiency: 0.733789
[42 sec, 1031023 itr]: obj = (0.223047), mov = 1031023, inf = 97.2%, acc = 1.3%, imp = 1268

worst case efficiency: 0.733828
[43 sec, 1061768 itr]: obj = (0.223296), mov = 1061768, inf = 97.2%, acc = 1.3%, imp = 1279

worst case efficiency: 0.733978
[44 sec, 1093867 itr]: obj = (0.223441), mov = 1093867, inf = 97.2%, acc = 1.3%, imp = 1286

worst case efficiency: 0.734065
[45 sec, 1128614 itr]: obj = (0.223465), mov = 1128614, inf = 97.2%, acc = 1.3%, imp = 1290

worst case efficiency: 0.734079
[46 sec, 1162899 itr]: obj = (0.223633), mov = 1162899, inf = 97.2%, acc = 1.2%, imp = 1302

worst case efficiency: 0.73418
[47 sec, 1196783 itr]: obj = (0.223683), mov = 1196783, inf = 97.2%, acc = 1.2%, imp = 1308

worst case efficiency: 0.73421
[48 sec, 1226448 itr]: obj = (0.223704), mov = 1226448, inf = 97.2%, acc = 1.2%, imp = 1312

worst case efficiency: 0.734222
[49 sec, 1260613 itr]: obj = (0.223781), mov = 1260613, inf = 97.2%, acc = 1.2%, imp = 1317

worst case efficiency: 0.734269
[50 sec, 1297377 itr]: obj = (0.223781), mov = 1297377, inf = 97.2%, acc = 1.2%, imp = 1317

worst case efficiency: 0.734269
[51 sec, 1328194 itr]: obj = (0.223803), mov = 1328194, inf = 97.2%, acc = 1.2%, imp = 1318

worst case efficiency: 0.734282
[52 sec, 1358507 itr]: obj = (0.223883), mov = 1358507, inf = 97.2%, acc = 1.2%, imp = 1324

worst case efficiency: 0.73433
[53 sec, 1391613 itr]: obj = (0.223984), mov = 1391613, inf = 97.2%, acc = 1.2%, imp = 1331

worst case efficiency: 0.73439
[54 sec, 1428061 itr]: obj = (0.224083), mov = 1428061, inf = 97.2%, acc = 1.1%, imp = 1334

worst case efficiency: 0.73445
[55 sec, 1465497 itr]: obj = (0.224288), mov = 1465497, inf = 97.2%, acc = 1.1%, imp = 1338

worst case efficiency: 0.734573
[56 sec, 1502835 itr]: obj = (0.224416), mov = 1502835, inf = 97.3%, acc = 1.1%, imp = 1339

worst case efficiency: 0.73465
[57 sec, 1540170 itr]: obj = (0.224605), mov = 1540170, inf = 97.3%, acc = 1.1%, imp = 1341

worst case efficiency: 0.734763
[58 sec, 1577954 itr]: obj = (0.224605), mov = 1577954, inf = 97.4%, acc = 1.1%, imp = 1342

worst case efficiency: 0.734763
[59 sec, 1614473 itr]: obj = (0.22473), mov = 1614473, inf = 97.4%, acc = 1.1%, imp = 1347

worst case efficiency: 0.734838
[60 sec, 1651490 itr]: obj = (0.225126), mov = 1651490, inf = 97.4%, acc = 1%, imp = 1355

worst case efficiency: 0.735076
[61 sec, 1684833 itr]: obj = (0.22515), mov = 1684833, inf = 97.5%, acc = 1%, imp = 1359

worst case efficiency: 0.73509
[62 sec, 1720260 itr]: obj = (0.22602), mov = 1720260, inf = 97.5%, acc = 1%, imp = 1371

worst case efficiency: 0.735612
[63 sec, 1753656 itr]: obj = (0.226097), mov = 1753656, inf = 97.5%, acc = 1%, imp = 1376

worst case efficiency: 0.735658
[64 sec, 1786949 itr]: obj = (0.226894), mov = 1786949, inf = 97.5%, acc = 1%, imp = 1384

worst case efficiency: 0.736136
[65 sec, 1818918 itr]: obj = (0.226901), mov = 1818918, inf = 97.5%, acc = 1%, imp = 1386

worst case efficiency: 0.736141
[66 sec, 1853471 itr]: obj = (0.227212), mov = 1853471, inf = 97.5%, acc = 1%, imp = 1389

worst case efficiency: 0.736327
[67 sec, 1886234 itr]: obj = (0.229113), mov = 1886234, inf = 97.6%, acc = 1%, imp = 1404

worst case efficiency: 0.737468
[68 sec, 1923741 itr]: obj = (0.229285), mov = 1923741, inf = 97.6%, acc = 1%, imp = 1409

worst case efficiency: 0.737571
[69 sec, 1960782 itr]: obj = (0.229285), mov = 1960782, inf = 97.6%, acc = 0.9%, imp = 1409

worst case efficiency: 0.737571
[70 sec, 1998237 itr]: obj = (0.229383), mov = 1998237, inf = 97.6%, acc = 0.9%, imp = 1412

worst case efficiency: 0.73763
[71 sec, 2032645 itr]: obj = (0.229606), mov = 2032645, inf = 97.6%, acc = 0.9%, imp = 1417

worst case efficiency: 0.737764
[72 sec, 2068134 itr]: obj = (0.229606), mov = 2068134, inf = 97.6%, acc = 0.9%, imp = 1419

worst case efficiency: 0.737764
[73 sec, 2104644 itr]: obj = (0.229835), mov = 2104644, inf = 97.6%, acc = 0.9%, imp = 1427

worst case efficiency: 0.737901
[74 sec, 2139952 itr]: obj = (0.230472), mov = 2139952, inf = 97.6%, acc = 0.9%, imp = 1445

worst case efficiency: 0.738283
[75 sec, 2175441 itr]: obj = (0.23165), mov = 2175441, inf = 97.6%, acc = 0.9%, imp = 1463

worst case efficiency: 0.73899
[76 sec, 2210925 itr]: obj = (0.232045), mov = 2210925, inf = 97.6%, acc = 0.9%, imp = 1472

worst case efficiency: 0.739227
[77 sec, 2246619 itr]: obj = (0.232445), mov = 2246619, inf = 97.7%, acc = 0.9%, imp = 1486

worst case efficiency: 0.739467
[78 sec, 2282191 itr]: obj = (0.233404), mov = 2282191, inf = 97.7%, acc = 0.9%, imp = 1501

worst case efficiency: 0.740043
[79 sec, 2315736 itr]: obj = (0.234), mov = 2315736, inf = 97.7%, acc = 0.9%, imp = 1514

worst case efficiency: 0.7404
[80 sec, 2348223 itr]: obj = (0.235329), mov = 2348223, inf = 97.7%, acc = 0.9%, imp = 1516

worst case efficiency: 0.741198
[81 sec, 2381227 itr]: obj = (0.235525), mov = 2381227, inf = 97.7%, acc = 0.9%, imp = 1518

worst case efficiency: 0.741315
[82 sec, 2417478 itr]: obj = (0.235644), mov = 2417478, inf = 97.7%, acc = 0.9%, imp = 1525

worst case efficiency: 0.741386
[83 sec, 2449735 itr]: obj = (0.235644), mov = 2449735, inf = 97.7%, acc = 0.9%, imp = 1525

worst case efficiency: 0.741386
[84 sec, 2486260 itr]: obj = (0.235736), mov = 2486260, inf = 97.7%, acc = 0.9%, imp = 1534

worst case efficiency: 0.741442
[85 sec, 2519249 itr]: obj = (0.235736), mov = 2519249, inf = 97.7%, acc = 0.9%, imp = 1534

worst case efficiency: 0.741442
[86 sec, 2552739 itr]: obj = (0.235736), mov = 2552739, inf = 97.7%, acc = 0.9%, imp = 1534

worst case efficiency: 0.741442
[87 sec, 2582041 itr]: obj = (0.235736), mov = 2582041, inf = 97.7%, acc = 0.9%, imp = 1534

worst case efficiency: 0.741442
[88 sec, 2615557 itr]: obj = (0.235736), mov = 2615557, inf = 97.7%, acc = 0.9%, imp = 1534

worst case efficiency: 0.741442
[89 sec, 2652912 itr]: obj = (0.236083), mov = 2652912, inf = 97.7%, acc = 0.9%, imp = 1547

worst case efficiency: 0.74165
[90 sec, 2686810 itr]: obj = (0.236148), mov = 2686810, inf = 97.7%, acc = 0.9%, imp = 1555

worst case efficiency: 0.741689
[90 sec, 2686810 itr]: obj = (0.236148), mov = 2686810, inf = 97.7%, acc = 0.9%, imp = 1555

worst case efficiency: 0.741689
2686810 iterations, 2686810 moves performed in 90 seconds
Feasible solution: obj = (0.236148)

Run output...
FINAL SOLUTION
Worst case efficiency: 0.741689
Mapping: 0->16, 1->38, 2->6, 3->5, 4->29, 5->23, 6->20, 7->10, 8->30, 9->36, 10->7, 11->31, 12->36, 13->7, 14->35, 15->12, 16->17, 17->21, 18->26, 19->15, 20->18, 21->12, 22->17, 23->1, 24->43, 25->8, 26->11, 27->33, 28->3, 29->31, 30->26, 31->11, 32->24, 33->34, 34->39, 35->24, 36->46, 37->27, 38->46, 39->24, 40->23, 41->39, 42->22, 43->44, 44->38, 45->19, 46->7, 47->11, 48->14, 49->37, 50->8, 51->11, 52->33, 53->35, 54->22, 55->2, 56->8, 57->11, 58->6, 59->35, 60->41, 61->13, 62->47, 63->18, 64->42, 65->22, 66->25, 67->45, 68->0, 69->16, 70->38, 71->12, 72->28, 73->0, 74->18, 75->38, 76->29, 77->32, 78->36, 79->14, 80->12, 81->0, 82->31, 83->42, 84->25, 85->46, 86->40, 87->12, 88->40, 89->13, 90->28, 91->21, 92->19, 93->1, 94->5, 95->41, 96->2, 97->39, 98->32, 99->33, 100->8, 101->9, 102->4, 103->27, 104->19, 105->6, 106->36, 107->45, 108->19, 109->15, 110->44, 111->29, 112->30, 113->35, 114->18, 115->37, 116->5, 117->45, 118->42, 119->34, 120->10, 121->2, 122->36, 123->35, 124->0, 125->17, 126->34, 127->45, 128->47, 129->41, 130->33, 131->40, 132->29, 133->27, 134->17, 135->2, 136->0, 137->37, 138->29, 139->11, 140->45, 141->31, 142->0, 143->8, 144->44, 145->24, 146->15, 147->43, 148->26, 149->37, 150->10, 151->46, 152->14, 153->34, 154->21, 155->33, 156->16, 157->47, 158->21, 159->15, 160->45, 161->34, 162->1, 163->2, 164->36, 165->3, 166->2, 167->4, 168->10, 169->3, 170->39, 171->39, 172->47, 173->23, 174->6, 175->13, 176->5, 177->35, 178->18, 179->21, 180->14, 181->37, 182->44, 183->25, 184->9, 185->32, 186->22, 187->31, 188->13, 189->39, 190->43, 191->40, 192->9, 193->33, 194->6, 195->26, 196->23, 197->46, 198->30, 199->5, 200->10, 201->28, 202->47, 203->14, 204->30, 205->4, 206->28, 207->10, 208->8, 209->16, 210->41, 211->42, 212->44, 213->27, 214->30, 215->3, 216->20, 217->32, 218->21, 219->46, 220->25, 221->28, 222->34, 223->41, 224->27, 225->20, 226->32, 227->19, 228->41, 229->3, 230->22, 231->16, 232->13, 233->1, 234->7, 235->43, 236->26, 237->37, 238->5, 239->13, 240->20, 241->22, 242->23, 243->15, 244->20, 245->29, 246->20, 247->40, 248->16, 249->3, 250->15, 251->38, 252->4, 253->32, 254->9, 255->31, 256->7, 257->23, 258->43, 259->25, 260->25, 261->24, 262->19, 263->43, 264->6, 265->12, 266->4, 267->24, 268->28, 269->27, 270->1, 271->9, 272->47, 273->42, 274->26, 275->4, 276->17, 277->9, 278->40, 279->30, 280->42, 281->44, 282->1, 283->38, 284->7, 285->17, 286->18, 287->14
Number of tasks per core:
	6	6	6	6	6	6
	6	6	6	6	6	6
	6	6	6	6	6	6
	6	6	6	6	6	6
	6	6	6	6	6	6
	6	6	6	6	6	6
	6	6	6	6	6	6
	6	6	6	6	6	6
Average CPI map:
	0.911933	1.57002	1.71336	1.06734	1.71364	2.31589
	1.63153	2.69872	2.82005	3.63384	4.09801	1.46403
	0.908003	4.06325	4.20127	4.62407	2.7518	1.25637
	0.868776	4.70876	3.95169	5.77777	4.48564	1.87435
	1.85356	5.46415	4.20439	4.50503	3.60117	1.34399
	1.67057	3.60128	7.94994	4.18464	4.0255	0.809219
	1.96845	6.57037	2.75949	3.84514	3.64512	1.0745
	1.07511	4.5377	3.3236	2.54902	3.4128	0.915163
Efficiency map:
	0.99722	0.882235	0.957679	0.854801	0.915603	1.00307
	0.747057	0.741735	0.745071	0.75607	0.783196	0.856481
	0.819265	0.747246	0.74678	0.754018	0.742502	0.765396
	0.813451	0.746074	0.744612	0.769472	0.760313	0.832289
	0.822922	0.749437	0.741829	0.741689	0.753875	0.786518
	0.7935	0.761612	0.857932	0.764689	0.751749	0.816128
	0.870909	0.751086	0.742187	0.784381	0.75759	0.810569
	0.812582	0.747837	0.743229	0.767266	0.82768	0.781093
==============================================================================
Local Solver optimizer for EML demonstration
==============================================================================

Option values: --wld-idx 0 --global-tlim 90 --seed 101

Starting the Optimization Process
