LocalSolver 4.0 (MacOS64, build 20131224)
Copyright (C) 2013 Bouygues SA, Aix-Marseille University, CNRS.
All rights reserved (see Terms and Conditions for details).

Load localsolver_res/tawd_ls.lsp...
Run input...
ANNs For the Platform:
4,2,1,6.45294,0.0174524,1.58234,2.29305,2.12057,3.95113,12.7206,-19.3278,5.58789,9.38298,0.00306445,0.00353919,0.795949
4,2,1,3.10684,7.56359,0.502116,0.637049,12.0356,-2.9013,-3.22211,-0.368567,-0.562298,-7.37831,2.38595,1.22203,-0.360292
4,2,1,4.88387,44.8399,1.27345,1.24496,49.1775,-8.83277,-3.12983,-1.00946,11.7,-3.01002,0.132635,0.00372271,0.673996
4,2,1,4.73045,19.3982,0.449241,0.753865,25.7092,17.3605,0.0558085,-8.91516,0.49993,10.3396,4.06312,-0.0136297,-3.24599
4,2,1,-7.16849,-10.0957,-0.518885,-0.00359459,5.93351,5.62684,52.0516,1.48603,1.30274,57.2311,0.250578,0.137157,0.417379
4,2,1,0.412706,-2.89716,0.137754,-2.57826,11.0947,121.374,858.444,-136.26,-14917.8,-1308.92,-3.36558,-0.000403784,4.17997
4,2,1,-8.8269,-0.482244,-0.0820712,-0.0562713,-10.1617,9.78118,-7.01882,-0.428151,-0.0606718,2.56012,-8.54699,-0.509991,-7.23704
4,2,1,2.19881,4.94147,0.541452,0.107587,6.45213,1.0452,0.405805,0.555763,3.64728,1.95727,0.425683,-0.00188273,0.383643
4,2,1,-6.13316,1.92598,-0.0562274,-0.0731719,-4.60606,0.509071,7.79918,0.393802,0.0114563,7.9345,-1.13416,0.310582,-0.637365
4,2,1,1.73462,2.97854,0.276167,0.0859465,3.6912,3.09203,3.25403,0.324282,0.112495,4.06123,0.954718,-0.48836,0.344765
4,2,1,1.57339,3.84603,-3.4467,0.7429,2.75709,2.1802,5.09535,0.482172,0.106131,6.49189,-0.0251827,0.433535,0.393482
4,2,1,4.13514,21.6229,1.1931,0.354612,24.1372,25.5916,0.432728,-12.6725,-0.45345,15.3428,0.194819,-0.0364695,0.647465
4,2,1,-0.728632,5.60079,1.78098,1.8429,-5.74354,-3.26566,-13.0026,-0.907163,-0.31822,-15.3707,-0.427666,-0.224298,0.154329
4,2,1,3.81854,-4.98219,-0.293924,-0.103604,-6.7034,2.28654,4.72568,0.469524,0.115005,6.05901,-0.511241,0.421809,-0.121549
4,2,1,-1.23773,5.98591,0.224555,-0.359337,6.05767,2.3852,3.4706,0.220977,0.179377,4.88772,0.199751,0.432231,0.177791
4,2,1,1.12189,4.09326,0.850801,0.171671,-5.17646,-1.9656,-4.07995,-0.210811,-0.113853,-5.17242,-2.70452,-0.46094,-2.36326
4,2,1,2.08858,4.80174,0.367584,0.109336,6.02292,4.32969,4.35157,0.772172,10.015,-0.96022,0.43933,4.17055e-05,0.365228
4,2,1,1.18806,3.00188,0.124753,0.00191203,3.75084,1.03049,2.7808,0.137818,0.0250058,4.01619,-1.05018,2.49176,-0.635083
4,2,1,3.11788,10.9247,0.699295,0.170953,13.0959,-11.4646,-5.88946,11.0137,8.74787,-11.701,0.236706,0.0216102,0.59131
4,2,1,7.53568,1.94998,-2.27776,-1.91765,0.451708,2.13206,4.27547,0.333162,0.0864645,5.45063,-0.0153486,0.447774,0.366202
4,2,1,-2.12436,-3.29848,-0.0965154,-0.0454545,-3.86293,4.27042,3.64797,0.106703,0.057602,4.81479,-1.28015,-0.815344,0.346524
4,2,1,2.06313,3.99765,-9.94001e-06,0.200591,5.05136,-0.024567,-3.22765,-1.84842,1.73493,-3.87425,0.446216,-0.0350173,0.320411
4,2,1,3.3952,3.19239,0.219932,0.0459907,4.0724,1.85184,2.9352,0.236295,0.0535068,3.62882,-0.516849,0.990723,0.337742
4,2,1,-6.32145,2.68844,0.160066,0.0633176,-3.81442,9.03888,1.31396,0.253255,-0.0684612,6.93971,1.83579,0.440423,2.20116
4,2,1,-4.54148,-0.217309,1.86369,-0.409034,0.0885675,-3.10698,-12.3715,-0.753639,-0.275832,-14.544,0.00344558,-0.233405,0.57337
4,2,1,-0.743367,6.86662,-0.19496,-0.0184317,7.54898,2.69258,3.24789,0.437511,0.121848,4.97423,0.830361,0.39615,-0.417087
4,2,1,2.07654,3.2533,0.103762,0.0837251,4.40922,1.95615,-2.57949,-0.10147,-0.0485499,-3.72005,0.479113,-0.433879,-0.0966803
4,2,1,-0.480501,-0.00331725,1.67452,0.764966,-1.53387,1.99113,3.67475,0.0228188,0.0287235,4.64739,0.15721,0.465135,0.487915
4,2,1,1.11584,-5.79333,-0.212675,0.376981,-6.64888,2.45003,3.54368,0.313683,0.144659,5.05472,-0.777178,0.423599,-0.389995
4,2,1,2.39093,1.70258,-0.183288,-0.314006,4.06496,2.34881,2.91375,-0.0230153,-0.18977,5.26307,-1.33645,1.84807,0.292237
4,2,1,0.88022,3.23795,0.179315,0.0205209,3.57684,0.764441,2.74982,0.156077,0.0273373,3.62313,-0.980719,2.16912,-0.37872
4,2,1,-1.27932,7.09751,-0.0490235,0.455487,7.14709,-2.57722,-4.06233,-0.410784,-0.0433739,-5.6171,0.164894,-0.408714,0.23583
4,2,1,0.623158,5.01876,0.194867,0.0365944,4.99458,-16.0815,2.94826,-1.82463,-1.90388,-9.56395,0.291148,-0.155001,0.360694
4,2,1,1.86251,3.92056,0.158781,0.0575693,4.93436,0.681285,4.09563,1.09826,-3.65606,2.09524,0.482473,-0.00448292,0.322397
4,2,1,3.33939,3.52877,0.262622,0.0607689,4.45842,2.23218,3.37107,0.256541,0.0516206,4.05014,-1.2701,1.7162,0.365737
4,2,1,5.0585,4.68315,2.53887,0.128578,8.9709,3.62833,11.0789,1.32555,0.190392,13.8026,-0.126366,0.350541,0.580103
4,2,1,4.99986,2.75557,1.33036,-0.0119951,6.91685,4.23025,5.34568,1.08928,0.0379928,8.80363,-0.700785,0.958812,0.547325
4,2,1,1.95024,3.24732,0.229322,0.0270089,3.53624,1.62575,3.04977,0.230194,0.0319079,3.46966,-1.34015,1.81817,0.333213
4,2,1,2.11055,5.16581,0.225183,0.0767342,6.2013,3.43647,-3.10756,1.22453,-6.27082,5.92438,0.428242,2.12665,-1.75474
4,2,1,10.028,2.55152,-0.0579427,-0.0186516,-2.98054,2.14055,4.33639,0.203596,0.057269,5.47668,0.0078111,0.436528,0.371941
4,2,1,1.80421,3.45533,0.27065,0.0337725,4.14172,3.00203,3.65885,0.26995,0.0620062,4.37924,0.892686,-0.440136,0.355377
4,2,1,-2.76424,-10.7675,-0.741451,-0.141046,-12.927,13.6995,2.51611,0.90934,27.76,15.1973,-0.260938,-0.00175312,0.546274
4,2,1,2.26659,3.88332,0.083697,0.287373,-5.89957,3.07548,7.5942,0.285535,0.141703,9.90558,1.94369,0.273352,2.47758
4,2,1,5.41472,-1.35343,-0.0808605,2.27411,0.928252,2.55844,6.15687,0.338903,0.0735359,7.47381,-0.0148119,0.388691,0.423615
4,2,1,4.53285,3.66527,0.130055,0.0722232,4.95325,-2.1632,-3.34312,-0.11633,-0.0577237,-3.98867,-0.759785,-1.19124,0.379449
4,2,1,2.36669,5.75119,0.132783,0.0812059,6.8845,-8.68015,-0.488627,0.811521,2.16444,0.277436,0.40839,0.00790296,0.400784
4,2,1,0.583762,8.58805,0.307497,0.0165495,8.61973,-7.32584,1.34397,-0.0108636,-0.0260377,-6.96836,0.266022,-5.2323,-4.69173
4,2,1,1.76683,-0.336959,-0.116305,-0.0696435,-1.62311,2.51027,5.65249,0.180271,0.0657051,7.97995,-0.0500539,0.457869,0.308072
Workload Information:
3.11484, 1.31985, 3.06196, 2.24868, 1.56505, 0.689625, 2.94788, 4.22163, 0.5, 1.0955, 1.12584, 2.10916, 2.16532, 2.8622, 0.5, 3.9949, 1.10726, 1.37032, 0.840907, 1.02263, 5.44189, 3.42573, 0.5, 0.76885, 2.69363, 3.3641, 1.18983, 2.6822, 0.772127, 1.29811, 1.52187, 0.86324, 2.80671, 3.00534, 0.5, 3.30284, 2.12224, 1.93669, 2.21617, 1.98871, 1.86562, 1.87058, 2.39572, 0.65529, 0.894178, 2.74223, 2.47322, 2.83936, 3.04446, 0.671981, 2.00403, 0.71065, 2.52319, 3.04569, 3.15744, 1.00197, 0.51089, 0.5, 1.93431, 4.89539, 1.42669, 2.93932, 0.5, 1.77978, 3.33895, 2.01526, 2.53642, 1.64555, 1.64284, 1.76686, 2.51944, 1.88888, 2.09478, 1.99304, 2.10934, 2.07176, 2.10164, 1.62943, 4.71945, 0.944256, 1.22478, 0.907209, 2.84864, 1.35566, 1.29569, 1.0915, 2.45619, 1.42612, 2.69527, 3.03521, 2.44238, 2.14992, 2.14672, 1.82336, 1.14075, 2.29686, 1.07415, 1.0764, 3.20396, 2.56241, 3.42599, 0.657095, 2.17662, 0.5, 2.14023, 2.97797, 2.45487, 1.75032, 2.22379, 0.5, 0.873372, 1.46214, 5.50263, 1.43807, 2.3066, 0.5, 3.14549, 2.3214, 3.13423, 0.59228, 1.51608, 2.54255, 2.34912, 1.89862, 1.75884, 1.93478, 1.45848, 2.87459, 2.5519, 2.89483, 0.5, 1.7202, 22.9088, 20.9588, 19.8077, 17.8279, 23.9168, 26.58, 12.0166, 35, 17.52, 24.9915, 26.7989, 15.673, 1.76953, 3.54949, 0.937844, 3.29155, 1.95158, 0.5, 3.18083, 1.83118, 1.74062, 1.38675, 1.93425, 1.92638, 2.35013, 0.5, 2.474, 1.75192, 0.560141, 4.3638, 1.19019, 1.0697, 2.03575, 3.31605, 3.35632, 1.03198, 28.768, 13.8994, 0.611224, 25.0785, 29.237, 34.4058, 6.05207, 13.3041, 15.2356, 10.9548, 0.5, 13.9534, 2.33803, 1.06575, 2.09857, 2.33305, 2.16404, 2.00055, 2.61542, 1.54177, 0.5, 1.79488, 3.20907, 2.33885, 4.12849, 0.927456, 2.24663, 0.5, 0.680962, 3.51646, 0.608593, 2.05161, 1.06879, 1.42931, 0.669232, 6.17247, 12.5992, 21.4084, 28.5877, 25.309, 23.2977, 20.798, 31.1414, 35, 2.78184, 9.42673, 29.7011, 23.9489, 1.98877, 2.11658, 1.56475, 2.40997, 0.638422, 3.28151, 2.06456, 1.54087, 0.824402, 2.76175, 4.30842, 0.5, 1.85735, 1.85229, 1.81619, 1.95836, 2.23531, 2.2805, 2.91727, 2.90424, 0.5, 1.93073, 1.76373, 1.98403, 0.656259, 2.57474, 2.62819, 0.5, 2.86465, 2.77616, 4.14294, 0.657899, 0.5, 2.95018, 1.77226, 1.97673, 2.34938, 2.38527, 1.19575, 1.9998, 2.17922, 1.89058, 2.14808, 1.89555, 2.14984, 1.6986, 2.00209, 2.10584, 2.28654, 0.759182, 3.18437, 0.5, 3.47319, 1.79672, 3.13449, 0.5, 2.0656, 2.79866, 2.72589, 0.775361, 2.64321, 0.571303, 4.27622, 2.0708, 1.93847, 0.5, 3.6644, 1.06602, 0.5, 2.50283, 1.40451, 2.86225
cpi min/max: 0.5/35
neighbors of 0: 1 6, number of others: 45
neighbors of 1: 0 2 6 7, number of others: 43
neighbors of 2: 1 3 7 8, number of others: 43
neighbors of 3: 2 4 8 9, number of others: 43
neighbors of 4: 3 5 9 10, number of others: 43
neighbors of 5: 4 10 11, number of others: 44
neighbors of 6: 0 1 7 12, number of others: 43
neighbors of 7: 1 2 6 8 12 13, number of others: 41
neighbors of 8: 2 3 7 9 13 14, number of others: 41
neighbors of 9: 3 4 8 10 14 15, number of others: 41
neighbors of 10: 4 5 9 11 15 16, number of others: 41
neighbors of 11: 5 10 16 17, number of others: 43
neighbors of 12: 6 7 13 18, number of others: 43
neighbors of 13: 7 8 12 14 18 19, number of others: 41
neighbors of 14: 8 9 13 15 19 20, number of others: 41
neighbors of 15: 9 10 14 16 20 21, number of others: 41
neighbors of 16: 10 11 15 17 21 22, number of others: 41
neighbors of 17: 11 16 22 23, number of others: 43
neighbors of 18: 12 13 19 24, number of others: 43
neighbors of 19: 13 14 18 20 24 25, number of others: 41
neighbors of 20: 14 15 19 21 25 26, number of others: 41
neighbors of 21: 15 16 20 22 26 27, number of others: 41
neighbors of 22: 16 17 21 23 27 28, number of others: 41
neighbors of 23: 17 22 28 29, number of others: 43
neighbors of 24: 18 19 25 30, number of others: 43
neighbors of 25: 19 20 24 26 30 31, number of others: 41
neighbors of 26: 20 21 25 27 31 32, number of others: 41
neighbors of 27: 21 22 26 28 32 33, number of others: 41
neighbors of 28: 22 23 27 29 33 34, number of others: 41
neighbors of 29: 23 28 34 35, number of others: 43
neighbors of 30: 24 25 31 36, number of others: 43
neighbors of 31: 25 26 30 32 36 37, number of others: 41
neighbors of 32: 26 27 31 33 37 38, number of others: 41
neighbors of 33: 27 28 32 34 38 39, number of others: 41
neighbors of 34: 28 29 33 35 39 40, number of others: 41
neighbors of 35: 29 34 40 41, number of others: 43
neighbors of 36: 30 31 37 42, number of others: 43
neighbors of 37: 31 32 36 38 42 43, number of others: 41
neighbors of 38: 32 33 37 39 43 44, number of others: 41
neighbors of 39: 33 34 38 40 44 45, number of others: 41
neighbors of 40: 34 35 39 41 45 46, number of others: 41
neighbors of 41: 35 40 46 47, number of others: 43
neighbors of 42: 36 37 43, number of others: 44
neighbors of 43: 37 38 42 44, number of others: 43
neighbors of 44: 38 39 43 45, number of others: 43
neighbors of 45: 39 40 44 46, number of others: 43
neighbors of 46: 40 41 45 47, number of others: 43
neighbors of 47: 41 46, number of others: 45
Run model...
Preprocess model 0% ...Preprocess model 16% ...Preprocess model 32% ...Preprocess model 48% ...Preprocess model 66% ...Preprocess model 84% ...Preprocess model 100% ...
Close model 0% ...Close model 9% ...Close model 18% ...Close model 27% ...Close model 36% ...Close model 45% ...Close model 54% ...Close model 63% ...Close model 72% ...Close model 81% ...Close model 91% ...Close model 100% ...
Run param...
Run solver...
Initialize threads 0% ...Initialize threads 100% ...
Push initial solutions 0% ...Push initial solutions 100% ...

Model: 
  expressions = 44726, operands = 116736
  decisions = 13824, constraints = 336, objectives = 1

Param: 
  time limit = 90 sec, no iteration limit
  seed = 501, nb threads = 1, annealing level = 1

Objectives:
  Obj 0: maximize, no bound

Phases:
  Phase 0: time limit = 90 sec, no iteration limit, optimized objective = 0


Computed bounds:
  Obj 0: upper bound = 0.664125


Phase 0:
[0 sec, 0 itr]: infeas = (336, 336, 576), mov = 0, inf < 0.1%, acc < 0.1%, imp = 0

worst case efficiency: 0.998464
[1 sec, 1664 itr]: infeas = (46, 46, 58), mov = 1664, inf = 77.3%, acc = 21.1%, imp = 97

worst case efficiency: 0.624767
[2 sec, 27071 itr]: obj = (0.0699275), mov = 27071, inf = 97.7%, acc = 2.2%, imp = 146

worst case efficiency: 0.641957
[3 sec, 42647 itr]: obj = (0.0794814), mov = 42647, inf = 98.4%, acc = 1.6%, imp = 184

worst case efficiency: 0.647689
[4 sec, 50468 itr]: obj = (0.0946448), mov = 50468, inf = 98.5%, acc = 1.5%, imp = 225

worst case efficiency: 0.656787
[5 sec, 56438 itr]: obj = (0.111247), mov = 56438, inf = 98.6%, acc = 1.4%, imp = 281

worst case efficiency: 0.666748
[6 sec, 61765 itr]: obj = (0.161486), mov = 61765, inf = 98.6%, acc = 1.4%, imp = 331

worst case efficiency: 0.696891
[7 sec, 66797 itr]: obj = (0.17291), mov = 66797, inf = 98.6%, acc = 1.4%, imp = 383

worst case efficiency: 0.703746
[8 sec, 71607 itr]: obj = (0.182009), mov = 71607, inf = 98.7%, acc = 1.3%, imp = 429

worst case efficiency: 0.709205
[9 sec, 76394 itr]: obj = (0.202537), mov = 76394, inf = 98.7%, acc = 1.3%, imp = 480

worst case efficiency: 0.721522
[10 sec, 81068 itr]: obj = (0.215596), mov = 81068, inf = 98.7%, acc = 1.3%, imp = 523

worst case efficiency: 0.729357
[11 sec, 85793 itr]: obj = (0.229301), mov = 85793, inf = 98.7%, acc = 1.3%, imp = 573

worst case efficiency: 0.73758
[12 sec, 90410 itr]: obj = (0.247768), mov = 90410, inf = 98.7%, acc = 1.3%, imp = 612

worst case efficiency: 0.748661
[13 sec, 95120 itr]: obj = (0.254481), mov = 95120, inf = 98.8%, acc = 1.3%, imp = 641

worst case efficiency: 0.752689
[14 sec, 99881 itr]: obj = (0.269586), mov = 99881, inf = 98.8%, acc = 1.2%, imp = 695

worst case efficiency: 0.761751
[15 sec, 104679 itr]: obj = (0.271316), mov = 104679, inf = 98.8%, acc = 1.2%, imp = 718

worst case efficiency: 0.762789
[16 sec, 109350 itr]: obj = (0.271316), mov = 109350, inf = 98.9%, acc = 1.2%, imp = 718

worst case efficiency: 0.762789
[17 sec, 114074 itr]: obj = (0.271316), mov = 114074, inf = 98.9%, acc = 1.1%, imp = 718

worst case efficiency: 0.762789
[18 sec, 118777 itr]: obj = (0.271316), mov = 118777, inf = 99%, acc = 1.1%, imp = 718

worst case efficiency: 0.762789
[19 sec, 123601 itr]: obj = (0.271316), mov = 123601, inf = 99%, acc = 1%, imp = 718

worst case efficiency: 0.762789
[20 sec, 128277 itr]: obj = (0.271316), mov = 128277, inf = 99%, acc = 1%, imp = 718

worst case efficiency: 0.762789
[21 sec, 132913 itr]: obj = (0.271316), mov = 132913, inf = 99.1%, acc = 1%, imp = 718

worst case efficiency: 0.762789
[22 sec, 137397 itr]: obj = (0.271316), mov = 137397, inf = 99.1%, acc = 0.9%, imp = 718

worst case efficiency: 0.762789
[23 sec, 141867 itr]: obj = (0.271316), mov = 141867, inf = 99.1%, acc = 0.9%, imp = 718

worst case efficiency: 0.762789
[24 sec, 146724 itr]: obj = (0.271316), mov = 146724, inf = 99.2%, acc = 0.9%, imp = 718

worst case efficiency: 0.762789
[25 sec, 151889 itr]: obj = (0.271316), mov = 151889, inf = 99.2%, acc = 0.9%, imp = 718

worst case efficiency: 0.762789
[26 sec, 157432 itr]: obj = (0.271316), mov = 157432, inf = 99.2%, acc = 0.8%, imp = 718

worst case efficiency: 0.762789
[27 sec, 163303 itr]: obj = (0.271316), mov = 163303, inf = 99.2%, acc = 0.8%, imp = 718

worst case efficiency: 0.762789
[28 sec, 169839 itr]: obj = (0.271316), mov = 169839, inf = 99.3%, acc = 0.8%, imp = 718

worst case efficiency: 0.762789
[29 sec, 177197 itr]: obj = (0.271316), mov = 177197, inf = 99.3%, acc = 0.8%, imp = 718

worst case efficiency: 0.762789
[30 sec, 186017 itr]: obj = (0.271316), mov = 186017, inf = 99.3%, acc = 0.7%, imp = 718

worst case efficiency: 0.762789
[31 sec, 196784 itr]: obj = (0.271316), mov = 196784, inf = 99.4%, acc = 0.7%, imp = 718

worst case efficiency: 0.762789
[32 sec, 211096 itr]: obj = (0.271316), mov = 211096, inf = 99.4%, acc = 0.7%, imp = 718

worst case efficiency: 0.762789
[33 sec, 227513 itr]: obj = (0.271316), mov = 227513, inf = 99.4%, acc = 0.6%, imp = 718

worst case efficiency: 0.762789
[34 sec, 243977 itr]: obj = (0.271316), mov = 243977, inf = 99.5%, acc = 0.6%, imp = 718

worst case efficiency: 0.762789
[35 sec, 260083 itr]: obj = (0.271316), mov = 260083, inf = 99.5%, acc = 0.6%, imp = 718

worst case efficiency: 0.762789
[36 sec, 275669 itr]: obj = (0.271316), mov = 275669, inf = 99.5%, acc = 0.5%, imp = 718

worst case efficiency: 0.762789
[37 sec, 291694 itr]: obj = (0.271316), mov = 291694, inf = 99.5%, acc = 0.5%, imp = 718

worst case efficiency: 0.762789
[38 sec, 307442 itr]: obj = (0.271316), mov = 307442, inf = 99.6%, acc = 0.5%, imp = 718

worst case efficiency: 0.762789
[39 sec, 323599 itr]: obj = (0.271316), mov = 323599, inf = 99.6%, acc = 0.5%, imp = 718

worst case efficiency: 0.762789
[40 sec, 339452 itr]: obj = (0.271316), mov = 339452, inf = 99.6%, acc = 0.5%, imp = 718

worst case efficiency: 0.762789
[41 sec, 355342 itr]: obj = (0.271316), mov = 355342, inf = 99.6%, acc = 0.5%, imp = 718

worst case efficiency: 0.762789
[42 sec, 371206 itr]: obj = (0.271316), mov = 371206, inf = 99.6%, acc = 0.5%, imp = 718

worst case efficiency: 0.762789
[43 sec, 387252 itr]: obj = (0.271316), mov = 387252, inf = 99.6%, acc = 0.4%, imp = 718

worst case efficiency: 0.762789
[44 sec, 403542 itr]: obj = (0.271316), mov = 403542, inf = 99.6%, acc = 0.4%, imp = 718

worst case efficiency: 0.762789
[45 sec, 419422 itr]: obj = (0.271316), mov = 419422, inf = 99.6%, acc = 0.4%, imp = 718

worst case efficiency: 0.762789
[46 sec, 435141 itr]: obj = (0.271316), mov = 435141, inf = 99.6%, acc = 0.4%, imp = 718

worst case efficiency: 0.762789
[47 sec, 451483 itr]: obj = (0.271316), mov = 451483, inf = 99.7%, acc = 0.4%, imp = 718

worst case efficiency: 0.762789
[48 sec, 467588 itr]: obj = (0.271316), mov = 467588, inf = 99.7%, acc = 0.4%, imp = 718

worst case efficiency: 0.762789
[49 sec, 483426 itr]: obj = (0.271316), mov = 483426, inf = 99.7%, acc = 0.4%, imp = 718

worst case efficiency: 0.762789
[50 sec, 499199 itr]: obj = (0.271316), mov = 499199, inf = 99.7%, acc = 0.4%, imp = 720

worst case efficiency: 0.762789
[51 sec, 515378 itr]: obj = (0.271316), mov = 515378, inf = 99.7%, acc = 0.4%, imp = 720

worst case efficiency: 0.762789
[52 sec, 531242 itr]: obj = (0.271316), mov = 531242, inf = 99.7%, acc = 0.4%, imp = 720

worst case efficiency: 0.762789
[53 sec, 546610 itr]: obj = (0.271316), mov = 546610, inf = 99.7%, acc = 0.4%, imp = 720

worst case efficiency: 0.762789
[54 sec, 562386 itr]: obj = (0.271316), mov = 562386, inf = 99.7%, acc = 0.4%, imp = 720

worst case efficiency: 0.762789
[55 sec, 578190 itr]: obj = (0.271316), mov = 578190, inf = 99.7%, acc = 0.4%, imp = 720

worst case efficiency: 0.762789
[56 sec, 594833 itr]: obj = (0.271316), mov = 594833, inf = 99.7%, acc = 0.4%, imp = 720

worst case efficiency: 0.762789
[57 sec, 610817 itr]: obj = (0.271316), mov = 610817, inf = 99.7%, acc = 0.4%, imp = 720

worst case efficiency: 0.762789
[58 sec, 626514 itr]: obj = (0.271316), mov = 626514, inf = 99.7%, acc = 0.4%, imp = 720

worst case efficiency: 0.762789
[59 sec, 642054 itr]: obj = (0.271316), mov = 642054, inf = 99.7%, acc = 0.4%, imp = 720

worst case efficiency: 0.762789
[60 sec, 658552 itr]: obj = (0.271316), mov = 658552, inf = 99.7%, acc = 0.3%, imp = 720

worst case efficiency: 0.762789
[61 sec, 674909 itr]: obj = (0.271316), mov = 674909, inf = 99.7%, acc = 0.3%, imp = 720

worst case efficiency: 0.762789
[62 sec, 690917 itr]: obj = (0.271316), mov = 690917, inf = 99.7%, acc = 0.3%, imp = 720

worst case efficiency: 0.762789
[63 sec, 706738 itr]: obj = (0.271316), mov = 706738, inf = 99.7%, acc = 0.3%, imp = 720

worst case efficiency: 0.762789
[64 sec, 722372 itr]: obj = (0.271316), mov = 722372, inf = 99.7%, acc = 0.3%, imp = 720

worst case efficiency: 0.762789
[65 sec, 738356 itr]: obj = (0.271316), mov = 738356, inf = 99.7%, acc = 0.3%, imp = 720

worst case efficiency: 0.762789
[66 sec, 754056 itr]: obj = (0.271316), mov = 754056, inf = 99.7%, acc = 0.3%, imp = 720

worst case efficiency: 0.762789
[67 sec, 769712 itr]: obj = (0.271316), mov = 769712, inf = 99.7%, acc = 0.3%, imp = 720

worst case efficiency: 0.762789
[68 sec, 785430 itr]: obj = (0.271316), mov = 785430, inf = 99.7%, acc = 0.3%, imp = 720

worst case efficiency: 0.762789
[69 sec, 801727 itr]: obj = (0.271316), mov = 801727, inf = 99.8%, acc = 0.3%, imp = 720

worst case efficiency: 0.762789
[70 sec, 817935 itr]: obj = (0.271316), mov = 817935, inf = 99.8%, acc = 0.3%, imp = 720

worst case efficiency: 0.762789
[71 sec, 833513 itr]: obj = (0.271316), mov = 833513, inf = 99.8%, acc = 0.3%, imp = 720

worst case efficiency: 0.762789
[72 sec, 843044 itr]: obj = (0.271316), mov = 843044, inf = 99.8%, acc = 0.3%, imp = 720

worst case efficiency: 0.762789
[73 sec, 856491 itr]: obj = (0.271316), mov = 856491, inf = 99.8%, acc = 0.3%, imp = 720

worst case efficiency: 0.762789
[74 sec, 872438 itr]: obj = (0.271316), mov = 872438, inf = 99.8%, acc = 0.3%, imp = 720

worst case efficiency: 0.762789
[75 sec, 889088 itr]: obj = (0.271316), mov = 889088, inf = 99.8%, acc = 0.3%, imp = 720

worst case efficiency: 0.762789
[76 sec, 904942 itr]: obj = (0.271316), mov = 904942, inf = 99.8%, acc = 0.3%, imp = 720

worst case efficiency: 0.762789
[77 sec, 920943 itr]: obj = (0.271316), mov = 920943, inf = 99.8%, acc = 0.3%, imp = 720

worst case efficiency: 0.762789
[78 sec, 937145 itr]: obj = (0.271316), mov = 937145, inf = 99.8%, acc = 0.3%, imp = 720

worst case efficiency: 0.762789
[79 sec, 953144 itr]: obj = (0.271316), mov = 953144, inf = 99.8%, acc = 0.3%, imp = 720

worst case efficiency: 0.762789
[80 sec, 968988 itr]: obj = (0.271316), mov = 968988, inf = 99.8%, acc = 0.3%, imp = 720

worst case efficiency: 0.762789
[81 sec, 985388 itr]: obj = (0.271316), mov = 985388, inf = 99.8%, acc = 0.3%, imp = 720

worst case efficiency: 0.762789
[82 sec, 1001504 itr]: obj = (0.271316), mov = 1001504, inf = 99.8%, acc = 0.3%, imp = 720

worst case efficiency: 0.762789
[83 sec, 1017151 itr]: obj = (0.271316), mov = 1017151, inf = 99.8%, acc = 0.3%, imp = 720

worst case efficiency: 0.762789
[84 sec, 1032994 itr]: obj = (0.271316), mov = 1032994, inf = 99.8%, acc = 0.3%, imp = 720

worst case efficiency: 0.762789
[85 sec, 1048758 itr]: obj = (0.271316), mov = 1048758, inf = 99.8%, acc = 0.3%, imp = 720

worst case efficiency: 0.762789
[86 sec, 1064933 itr]: obj = (0.271316), mov = 1064933, inf = 99.8%, acc = 0.3%, imp = 720

worst case efficiency: 0.762789
[87 sec, 1080888 itr]: obj = (0.271316), mov = 1080888, inf = 99.8%, acc = 0.3%, imp = 720

worst case efficiency: 0.762789
[88 sec, 1097249 itr]: obj = (0.271316), mov = 1097249, inf = 99.8%, acc = 0.3%, imp = 720

worst case efficiency: 0.762789
[89 sec, 1113139 itr]: obj = (0.271316), mov = 1113139, inf = 99.8%, acc = 0.3%, imp = 720

worst case efficiency: 0.762789
[90 sec, 1129169 itr]: obj = (0.271316), mov = 1129169, inf = 99.8%, acc = 0.3%, imp = 720

worst case efficiency: 0.762789
[90 sec, 1129169 itr]: obj = (0.271316), mov = 1129169, inf = 99.8%, acc = 0.3%, imp = 720

worst case efficiency: 0.762789
1129169 iterations, 1129169 moves performed in 90 seconds
Feasible solution: obj = (0.271316)

Run output...
FINAL SOLUTION
Worst case efficiency: 0.762789
Mapping: 0->25, 1->4, 2->20, 3->6, 4->24, 5->18, 6->44, 7->13, 8->6, 9->42, 10->22, 11->7, 12->6, 13->36, 14->11, 15->26, 16->35, 17->16, 18->0, 19->46, 20->27, 21->34, 22->41, 23->40, 24->30, 25->33, 26->0, 27->16, 28->2, 29->2, 30->24, 31->0, 32->44, 33->38, 34->18, 35->17, 36->2, 37->9, 38->24, 39->2, 40->21, 41->46, 42->16, 43->11, 44->43, 45->11, 46->27, 47->20, 48->28, 49->40, 50->5, 51->11, 52->23, 53->15, 54->25, 55->5, 56->1, 57->29, 58->8, 59->10, 60->5, 61->19, 62->11, 63->33, 64->26, 65->28, 66->14, 67->1, 68->40, 69->34, 70->3, 71->9, 72->38, 73->20, 74->24, 75->37, 76->22, 77->44, 78->30, 79->0, 80->43, 81->10, 82->39, 83->38, 84->32, 85->4, 86->20, 87->34, 88->32, 89->8, 90->10, 91->4, 92->24, 93->0, 94->27, 95->45, 96->23, 97->41, 98->30, 99->12, 100->12, 101->2, 102->25, 103->18, 104->29, 105->7, 106->13, 107->18, 108->21, 109->3, 110->42, 111->10, 112->45, 113->33, 114->45, 115->22, 116->7, 117->16, 118->23, 119->23, 120->44, 121->21, 122->32, 123->35, 124->41, 125->25, 126->39, 127->20, 128->19, 129->15, 130->12, 131->7, 132->16, 133->33, 134->28, 135->44, 136->33, 137->6, 138->31, 139->40, 140->15, 141->21, 142->27, 143->20, 144->1, 145->39, 146->31, 147->15, 148->14, 149->11, 150->45, 151->7, 152->36, 153->47, 154->35, 155->1, 156->47, 157->29, 158->30, 159->1, 160->4, 161->8, 162->3, 163->5, 164->39, 165->13, 166->31, 167->17, 168->19, 169->8, 170->47, 171->14, 172->38, 173->32, 174->13, 175->25, 176->22, 177->37, 178->23, 179->9, 180->37, 181->3, 182->46, 183->8, 184->9, 185->14, 186->14, 187->42, 188->42, 189->43, 190->31, 191->15, 192->29, 193->22, 194->2, 195->35, 196->47, 197->30, 198->35, 199->45, 200->38, 201->41, 202->5, 203->21, 204->46, 205->26, 206->12, 207->34, 208->39, 209->22, 210->10, 211->43, 212->36, 213->7, 214->17, 215->31, 216->6, 217->21, 218->47, 219->26, 220->41, 221->37, 222->40, 223->41, 224->43, 225->40, 226->19, 227->3, 228->28, 229->15, 230->36, 231->16, 232->46, 233->37, 234->19, 235->9, 236->42, 237->29, 238->9, 239->6, 240->42, 241->12, 242->38, 243->4, 244->13, 245->27, 246->28, 247->0, 248->32, 249->8, 250->34, 251->4, 252->26, 253->1, 254->33, 255->28, 256->27, 257->17, 258->45, 259->35, 260->34, 261->14, 262->24, 263->44, 264->17, 265->10, 266->31, 267->17, 268->13, 269->23, 270->26, 271->47, 272->29, 273->37, 274->18, 275->43, 276->19, 277->3, 278->25, 279->30, 280->36, 281->5, 282->32, 283->36, 284->12, 285->46, 286->39, 287->18
Number of tasks per core:
	6	6	6	6	6	6
	6	6	6	6	6	6
	6	6	6	6	6	6
	6	6	6	6	6	6
	6	6	6	6	6	6
	6	6	6	6	6	6
	6	6	6	6	6	6
	6	6	6	6	6	6
Average CPI map:
	1.05325	1.66492	1.51415	1.05778	1.26636	1.11194
	5.91113	3.53512	4.75267	4.10183	6.93462	0.934695
	6.35847	3.73041	5.98019	5.1572	5.60614	6.45217
	1.50468	7.35469	4.81636	6.65208	6.78144	1.60343
	1.92687	4.66067	6.10601	6.8017	5.47793	1.87751
	3.11305	7.77552	7.48505	8.77554	5.97498	1.32404
	2.03422	3.9542	6.56496	5.76575	7.15166	1.15731
	0.86115	6.75227	4.80564	2.91443	3.72152	1.1823
Efficiency map:
	0.997219	0.909814	0.930559	0.832651	0.914566	1.00307
	0.995614	0.76279	0.886905	0.767105	0.778904	0.857304
	0.885329	0.77206	0.782091	0.774197	0.772586	0.923579
	0.822435	0.870097	0.790613	0.81172	0.762947	0.877853
	0.881515	0.762789	0.82035	0.78163	0.786237	0.812405
	0.943352	0.801467	0.795064	0.838375	0.803193	0.821893
	0.857928	0.779324	0.774195	0.780238	0.782228	0.813411
	0.810017	0.788854	0.795783	0.765235	0.833558	0.79225
==============================================================================
Local Solver optimizer for EML demonstration
==============================================================================

Option values: --wld-idx 10 --global-tlim 90 --seed 501

Starting the Optimization Process
