LocalSolver 4.0 (MacOS64, build 20131224)
Copyright (C) 2013 Bouygues SA, Aix-Marseille University, CNRS.
All rights reserved (see Terms and Conditions for details).

Load localsolver_res/tawd_ls.lsp...
Run input...
ANNs For the Platform:
4,2,1,6.45294,0.0174524,1.58234,2.29305,2.12057,3.95113,12.7206,-19.3278,5.58789,9.38298,0.00306445,0.00353919,0.795949
4,2,1,3.10684,7.56359,0.502116,0.637049,12.0356,-2.9013,-3.22211,-0.368567,-0.562298,-7.37831,2.38595,1.22203,-0.360292
4,2,1,4.88387,44.8399,1.27345,1.24496,49.1775,-8.83277,-3.12983,-1.00946,11.7,-3.01002,0.132635,0.00372271,0.673996
4,2,1,4.73045,19.3982,0.449241,0.753865,25.7092,17.3605,0.0558085,-8.91516,0.49993,10.3396,4.06312,-0.0136297,-3.24599
4,2,1,-7.16849,-10.0957,-0.518885,-0.00359459,5.93351,5.62684,52.0516,1.48603,1.30274,57.2311,0.250578,0.137157,0.417379
4,2,1,0.412706,-2.89716,0.137754,-2.57826,11.0947,121.374,858.444,-136.26,-14917.8,-1308.92,-3.36558,-0.000403784,4.17997
4,2,1,-8.8269,-0.482244,-0.0820712,-0.0562713,-10.1617,9.78118,-7.01882,-0.428151,-0.0606718,2.56012,-8.54699,-0.509991,-7.23704
4,2,1,2.19881,4.94147,0.541452,0.107587,6.45213,1.0452,0.405805,0.555763,3.64728,1.95727,0.425683,-0.00188273,0.383643
4,2,1,-6.13316,1.92598,-0.0562274,-0.0731719,-4.60606,0.509071,7.79918,0.393802,0.0114563,7.9345,-1.13416,0.310582,-0.637365
4,2,1,1.73462,2.97854,0.276167,0.0859465,3.6912,3.09203,3.25403,0.324282,0.112495,4.06123,0.954718,-0.48836,0.344765
4,2,1,1.57339,3.84603,-3.4467,0.7429,2.75709,2.1802,5.09535,0.482172,0.106131,6.49189,-0.0251827,0.433535,0.393482
4,2,1,4.13514,21.6229,1.1931,0.354612,24.1372,25.5916,0.432728,-12.6725,-0.45345,15.3428,0.194819,-0.0364695,0.647465
4,2,1,-0.728632,5.60079,1.78098,1.8429,-5.74354,-3.26566,-13.0026,-0.907163,-0.31822,-15.3707,-0.427666,-0.224298,0.154329
4,2,1,3.81854,-4.98219,-0.293924,-0.103604,-6.7034,2.28654,4.72568,0.469524,0.115005,6.05901,-0.511241,0.421809,-0.121549
4,2,1,-1.23773,5.98591,0.224555,-0.359337,6.05767,2.3852,3.4706,0.220977,0.179377,4.88772,0.199751,0.432231,0.177791
4,2,1,1.12189,4.09326,0.850801,0.171671,-5.17646,-1.9656,-4.07995,-0.210811,-0.113853,-5.17242,-2.70452,-0.46094,-2.36326
4,2,1,2.08858,4.80174,0.367584,0.109336,6.02292,4.32969,4.35157,0.772172,10.015,-0.96022,0.43933,4.17055e-05,0.365228
4,2,1,1.18806,3.00188,0.124753,0.00191203,3.75084,1.03049,2.7808,0.137818,0.0250058,4.01619,-1.05018,2.49176,-0.635083
4,2,1,3.11788,10.9247,0.699295,0.170953,13.0959,-11.4646,-5.88946,11.0137,8.74787,-11.701,0.236706,0.0216102,0.59131
4,2,1,7.53568,1.94998,-2.27776,-1.91765,0.451708,2.13206,4.27547,0.333162,0.0864645,5.45063,-0.0153486,0.447774,0.366202
4,2,1,-2.12436,-3.29848,-0.0965154,-0.0454545,-3.86293,4.27042,3.64797,0.106703,0.057602,4.81479,-1.28015,-0.815344,0.346524
4,2,1,2.06313,3.99765,-9.94001e-06,0.200591,5.05136,-0.024567,-3.22765,-1.84842,1.73493,-3.87425,0.446216,-0.0350173,0.320411
4,2,1,3.3952,3.19239,0.219932,0.0459907,4.0724,1.85184,2.9352,0.236295,0.0535068,3.62882,-0.516849,0.990723,0.337742
4,2,1,-6.32145,2.68844,0.160066,0.0633176,-3.81442,9.03888,1.31396,0.253255,-0.0684612,6.93971,1.83579,0.440423,2.20116
4,2,1,-4.54148,-0.217309,1.86369,-0.409034,0.0885675,-3.10698,-12.3715,-0.753639,-0.275832,-14.544,0.00344558,-0.233405,0.57337
4,2,1,-0.743367,6.86662,-0.19496,-0.0184317,7.54898,2.69258,3.24789,0.437511,0.121848,4.97423,0.830361,0.39615,-0.417087
4,2,1,2.07654,3.2533,0.103762,0.0837251,4.40922,1.95615,-2.57949,-0.10147,-0.0485499,-3.72005,0.479113,-0.433879,-0.0966803
4,2,1,-0.480501,-0.00331725,1.67452,0.764966,-1.53387,1.99113,3.67475,0.0228188,0.0287235,4.64739,0.15721,0.465135,0.487915
4,2,1,1.11584,-5.79333,-0.212675,0.376981,-6.64888,2.45003,3.54368,0.313683,0.144659,5.05472,-0.777178,0.423599,-0.389995
4,2,1,2.39093,1.70258,-0.183288,-0.314006,4.06496,2.34881,2.91375,-0.0230153,-0.18977,5.26307,-1.33645,1.84807,0.292237
4,2,1,0.88022,3.23795,0.179315,0.0205209,3.57684,0.764441,2.74982,0.156077,0.0273373,3.62313,-0.980719,2.16912,-0.37872
4,2,1,-1.27932,7.09751,-0.0490235,0.455487,7.14709,-2.57722,-4.06233,-0.410784,-0.0433739,-5.6171,0.164894,-0.408714,0.23583
4,2,1,0.623158,5.01876,0.194867,0.0365944,4.99458,-16.0815,2.94826,-1.82463,-1.90388,-9.56395,0.291148,-0.155001,0.360694
4,2,1,1.86251,3.92056,0.158781,0.0575693,4.93436,0.681285,4.09563,1.09826,-3.65606,2.09524,0.482473,-0.00448292,0.322397
4,2,1,3.33939,3.52877,0.262622,0.0607689,4.45842,2.23218,3.37107,0.256541,0.0516206,4.05014,-1.2701,1.7162,0.365737
4,2,1,5.0585,4.68315,2.53887,0.128578,8.9709,3.62833,11.0789,1.32555,0.190392,13.8026,-0.126366,0.350541,0.580103
4,2,1,4.99986,2.75557,1.33036,-0.0119951,6.91685,4.23025,5.34568,1.08928,0.0379928,8.80363,-0.700785,0.958812,0.547325
4,2,1,1.95024,3.24732,0.229322,0.0270089,3.53624,1.62575,3.04977,0.230194,0.0319079,3.46966,-1.34015,1.81817,0.333213
4,2,1,2.11055,5.16581,0.225183,0.0767342,6.2013,3.43647,-3.10756,1.22453,-6.27082,5.92438,0.428242,2.12665,-1.75474
4,2,1,10.028,2.55152,-0.0579427,-0.0186516,-2.98054,2.14055,4.33639,0.203596,0.057269,5.47668,0.0078111,0.436528,0.371941
4,2,1,1.80421,3.45533,0.27065,0.0337725,4.14172,3.00203,3.65885,0.26995,0.0620062,4.37924,0.892686,-0.440136,0.355377
4,2,1,-2.76424,-10.7675,-0.741451,-0.141046,-12.927,13.6995,2.51611,0.90934,27.76,15.1973,-0.260938,-0.00175312,0.546274
4,2,1,2.26659,3.88332,0.083697,0.287373,-5.89957,3.07548,7.5942,0.285535,0.141703,9.90558,1.94369,0.273352,2.47758
4,2,1,5.41472,-1.35343,-0.0808605,2.27411,0.928252,2.55844,6.15687,0.338903,0.0735359,7.47381,-0.0148119,0.388691,0.423615
4,2,1,4.53285,3.66527,0.130055,0.0722232,4.95325,-2.1632,-3.34312,-0.11633,-0.0577237,-3.98867,-0.759785,-1.19124,0.379449
4,2,1,2.36669,5.75119,0.132783,0.0812059,6.8845,-8.68015,-0.488627,0.811521,2.16444,0.277436,0.40839,0.00790296,0.400784
4,2,1,0.583762,8.58805,0.307497,0.0165495,8.61973,-7.32584,1.34397,-0.0108636,-0.0260377,-6.96836,0.266022,-5.2323,-4.69173
4,2,1,1.76683,-0.336959,-0.116305,-0.0696435,-1.62311,2.51027,5.65249,0.180271,0.0657051,7.97995,-0.0500539,0.457869,0.308072
Workload Information:
0.972575, 2.39708, 1.10988, 0.590115, 2.58177, 4.34858, 0.5, 1.03667, 2.36382, 0.612766, 3.57534, 3.91141, 1.53204, 1.85105, 4.67066, 0.5, 0.6393, 2.80695, 13.572, 11.5707, 5.78405, 1.9676, 3.78843, 23.3172, 3.32744, 18.1633, 17.1306, 7.28002, 12.9949, 1.10378, 1.90526, 2.45448, 1.46299, 2.49448, 1.50742, 2.17537, 2.51368, 2.46304, 2.01304, 1.88034, 1.14183, 1.98806, 2.41115, 2.15852, 1.81141, 1.37689, 2.11544, 2.12659, 14.241, 15.1094, 5.59434, 15.7059, 5.7725, 3.57682, 10.6036, 11.2391, 10.6929, 7.39745, 9.05378, 11.0131, 9.26518, 8.19654, 3.98137, 6.80209, 11.9629, 19.7919, 2.29059, 1.7813, 1.95388, 1.60408, 2.19396, 2.17619, 3.01605, 1.42464, 2.53107, 0.629612, 3.18414, 1.21449, 0.858703, 2.41671, 2.0058, 1.96992, 2.39201, 2.35686, 0.906531, 2.81277, 0.641091, 4.01414, 0.512801, 3.11266, 1.29375, 3.07795, 1.05474, 3.58323, 0.5, 2.49033, 0.813519, 2.64727, 2.57569, 0.5, 2.6701, 2.79341, 0.838942, 0.639214, 4.65179, 3.15641, 0.5, 2.21365, 0.822736, 1.76103, 3.18847, 1.62129, 3.12014, 1.48633, 0.856542, 3.11118, 0.734933, 1.39642, 2.67217, 3.22875, 2.33159, 2.2639, 2.43214, 0.610603, 2.72188, 1.63988, 0.838625, 2.88699, 0.5, 4.7624, 1.22551, 1.78647, 2.69998, 0.968234, 2.62558, 2.53529, 2.67092, 0.5, 1.83021, 0.705851, 2.55879, 2.46593, 1.96498, 2.47424, 0.757559, 4.31369, 0.5, 1.76552, 4.10794, 0.555287, 0.948601, 2.08102, 2.35583, 2.07851, 2.32456, 2.21146, 3.39997, 0.5, 2.10716, 1.45376, 2.94558, 1.59353, 1.84764, 1.28335, 6.56344, 0.5, 1.24181, 0.563758, 0.5, 3.44047, 1.82506, 1.52724, 3.49939, 1.20783, 0.5, 2.74182, 2.42425, 2.52648, 1.167, 2.64046, 1.58248, 4.07144, 0.672312, 0.5, 4.6308, 0.542965, 3.10362, 2.06947, 0.5, 0.636549, 2.62714, 3.06321, 1.7173, 2.11514, 0.653563, 3.4178, 1.74094, 2.35526, 2.27769, 1.52815, 1.97292, 2.64313, 1.15193, 2.42618, 2.36577, 1.7214, 0.530125, 2.67858, 2.26666, 2.43746, 2.29013, 2.83215, 1.9097, 2.04107, 1.27906, 1.64788, 1.13966, 4.91036, 2.18005, 1.36552, 1.85803, 0.546382, 1.86867, 2.12365, 1.72341, 1.64876, 2.39067, 2.24484, 2.67214, 2.48739, 2.3493, 1.05876, 2.06872, 1.36369, 2.23285, 2.10667, 1.6163, 2.10851, 1.89827, 2.0374, 1.19725, 3.74648, 1.12694, 1.76902, 0.5, 3.6603, 2.25271, 1.96708, 1.64466, 1.87493, 1.98718, 2.27345, 1.27521, 0.5, 2.63387, 2.36776, 2.66633, 2.55683, 1.63328, 1.66022, 0.770267, 3.53181, 0.677605, 3.72681, 2.49276, 2.95295, 2.51765, 1.08754, 0.5, 2.4491, 1.9564, 0.5, 3.14584, 2.26871, 0.660473, 3.46857, 0.975609, 1.64126, 2.93782, 2.28308, 1.04524, 3.117, 1.79099, 0.5, 2.6142, 1.96334, 2.28364, 2.84784
cpi min/max: 0.5/23.3172
neighbors of 0: 1 6, number of others: 45
neighbors of 1: 0 2 6 7, number of others: 43
neighbors of 2: 1 3 7 8, number of others: 43
neighbors of 3: 2 4 8 9, number of others: 43
neighbors of 4: 3 5 9 10, number of others: 43
neighbors of 5: 4 10 11, number of others: 44
neighbors of 6: 0 1 7 12, number of others: 43
neighbors of 7: 1 2 6 8 12 13, number of others: 41
neighbors of 8: 2 3 7 9 13 14, number of others: 41
neighbors of 9: 3 4 8 10 14 15, number of others: 41
neighbors of 10: 4 5 9 11 15 16, number of others: 41
neighbors of 11: 5 10 16 17, number of others: 43
neighbors of 12: 6 7 13 18, number of others: 43
neighbors of 13: 7 8 12 14 18 19, number of others: 41
neighbors of 14: 8 9 13 15 19 20, number of others: 41
neighbors of 15: 9 10 14 16 20 21, number of others: 41
neighbors of 16: 10 11 15 17 21 22, number of others: 41
neighbors of 17: 11 16 22 23, number of others: 43
neighbors of 18: 12 13 19 24, number of others: 43
neighbors of 19: 13 14 18 20 24 25, number of others: 41
neighbors of 20: 14 15 19 21 25 26, number of others: 41
neighbors of 21: 15 16 20 22 26 27, number of others: 41
neighbors of 22: 16 17 21 23 27 28, number of others: 41
neighbors of 23: 17 22 28 29, number of others: 43
neighbors of 24: 18 19 25 30, number of others: 43
neighbors of 25: 19 20 24 26 30 31, number of others: 41
neighbors of 26: 20 21 25 27 31 32, number of others: 41
neighbors of 27: 21 22 26 28 32 33, number of others: 41
neighbors of 28: 22 23 27 29 33 34, number of others: 41
neighbors of 29: 23 28 34 35, number of others: 43
neighbors of 30: 24 25 31 36, number of others: 43
neighbors of 31: 25 26 30 32 36 37, number of others: 41
neighbors of 32: 26 27 31 33 37 38, number of others: 41
neighbors of 33: 27 28 32 34 38 39, number of others: 41
neighbors of 34: 28 29 33 35 39 40, number of others: 41
neighbors of 35: 29 34 40 41, number of others: 43
neighbors of 36: 30 31 37 42, number of others: 43
neighbors of 37: 31 32 36 38 42 43, number of others: 41
neighbors of 38: 32 33 37 39 43 44, number of others: 41
neighbors of 39: 33 34 38 40 44 45, number of others: 41
neighbors of 40: 34 35 39 41 45 46, number of others: 41
neighbors of 41: 35 40 46 47, number of others: 43
neighbors of 42: 36 37 43, number of others: 44
neighbors of 43: 37 38 42 44, number of others: 43
neighbors of 44: 38 39 43 45, number of others: 43
neighbors of 45: 39 40 44 46, number of others: 43
neighbors of 46: 40 41 45 47, number of others: 43
neighbors of 47: 41 46, number of others: 45
Run model...
Preprocess model 0% ...Preprocess model 16% ...Preprocess model 32% ...Preprocess model 48% ...Preprocess model 66% ...Preprocess model 84% ...Preprocess model 100% ...
Close model 0% ...Close model 9% ...Close model 18% ...Close model 27% ...Close model 36% ...Close model 45% ...Close model 54% ...Close model 63% ...Close model 72% ...Close model 81% ...Close model 91% ...Close model 100% ...
Run param...
Run solver...
Initialize threads 0% ...Initialize threads 100% ...
Push initial solutions 0% ...Push initial solutions 100% ...

Model: 
  expressions = 44731, operands = 116736
  decisions = 13824, constraints = 336, objectives = 1

Param: 
  time limit = 90 sec, no iteration limit
  seed = 201, nb threads = 1, annealing level = 1

Objectives:
  Obj 0: maximize, no bound

Phases:
  Phase 0: time limit = 90 sec, no iteration limit, optimized objective = 0


Computed bounds:
  Obj 0: upper bound = 0.664124


Phase 0:
[0 sec, 0 itr]: infeas = (336, 336, 576), mov = 0, inf < 0.1%, acc < 0.1%, imp = 0

worst case efficiency: 0.998464
[1 sec, 2202 itr]: infeas = (29, 29, 40), mov = 2202, inf = 69.5%, acc = 27.4%, imp = 124

worst case efficiency: 0.624361
[2 sec, 18520 itr]: obj = (0.0468823), mov = 18520, inf = 93.4%, acc = 5.7%, imp = 186

worst case efficiency: 0.628129
[3 sec, 33456 itr]: obj = (0.0699831), mov = 33456, inf = 95.8%, acc = 3.7%, imp = 231

worst case efficiency: 0.64199
[4 sec, 44019 itr]: obj = (0.0890826), mov = 44019, inf = 96.5%, acc = 3%, imp = 261

worst case efficiency: 0.65345
[5 sec, 53262 itr]: obj = (0.0994813), mov = 53262, inf = 96.8%, acc = 2.8%, imp = 306

worst case efficiency: 0.659689
[6 sec, 60876 itr]: obj = (0.108404), mov = 60876, inf = 96.9%, acc = 2.6%, imp = 360

worst case efficiency: 0.665042
[7 sec, 68210 itr]: obj = (0.112298), mov = 68210, inf = 96.8%, acc = 2.6%, imp = 404

worst case efficiency: 0.667379
[8 sec, 75633 itr]: obj = (0.118096), mov = 75633, inf = 96.9%, acc = 2.5%, imp = 446

worst case efficiency: 0.670858
[9 sec, 83303 itr]: obj = (0.131831), mov = 83303, inf = 97%, acc = 2.4%, imp = 498

worst case efficiency: 0.679099
[10 sec, 91109 itr]: obj = (0.13899), mov = 91109, inf = 97%, acc = 2.3%, imp = 544

worst case efficiency: 0.683394
[11 sec, 97016 itr]: obj = (0.145089), mov = 97016, inf = 97%, acc = 2.3%, imp = 581

worst case efficiency: 0.687054
[12 sec, 104286 itr]: obj = (0.154912), mov = 104286, inf = 97.1%, acc = 2.2%, imp = 631

worst case efficiency: 0.692947
[13 sec, 110784 itr]: obj = (0.160325), mov = 110784, inf = 97.1%, acc = 2.2%, imp = 660

worst case efficiency: 0.696195
[14 sec, 118349 itr]: obj = (0.165129), mov = 118349, inf = 97.2%, acc = 2.1%, imp = 701

worst case efficiency: 0.699078
[15 sec, 125879 itr]: obj = (0.167084), mov = 125879, inf = 97.3%, acc = 2%, imp = 729

worst case efficiency: 0.70025
[16 sec, 133027 itr]: obj = (0.170275), mov = 133027, inf = 97.3%, acc = 2%, imp = 769

worst case efficiency: 0.702165
[17 sec, 140114 itr]: obj = (0.173688), mov = 140114, inf = 97.4%, acc = 1.9%, imp = 799

worst case efficiency: 0.704213
[18 sec, 147379 itr]: obj = (0.174664), mov = 147379, inf = 97.4%, acc = 1.8%, imp = 818

worst case efficiency: 0.704798
[19 sec, 154384 itr]: obj = (0.176504), mov = 154384, inf = 97.5%, acc = 1.8%, imp = 839

worst case efficiency: 0.705902
[20 sec, 161417 itr]: obj = (0.178993), mov = 161417, inf = 97.5%, acc = 1.7%, imp = 866

worst case efficiency: 0.707396
[21 sec, 168494 itr]: obj = (0.180835), mov = 168494, inf = 97.6%, acc = 1.7%, imp = 881

worst case efficiency: 0.708501
[22 sec, 175370 itr]: obj = (0.182313), mov = 175370, inf = 97.6%, acc = 1.6%, imp = 906

worst case efficiency: 0.709388
[23 sec, 182478 itr]: obj = (0.18362), mov = 182478, inf = 97.7%, acc = 1.6%, imp = 921

worst case efficiency: 0.710172
[24 sec, 189452 itr]: obj = (0.184369), mov = 189452, inf = 97.7%, acc = 1.6%, imp = 938

worst case efficiency: 0.710622
[25 sec, 196654 itr]: obj = (0.190037), mov = 196654, inf = 97.7%, acc = 1.5%, imp = 965

worst case efficiency: 0.714022
[26 sec, 203602 itr]: obj = (0.191427), mov = 203602, inf = 97.8%, acc = 1.5%, imp = 981

worst case efficiency: 0.714856
[27 sec, 210493 itr]: obj = (0.192983), mov = 210493, inf = 97.8%, acc = 1.5%, imp = 1009

worst case efficiency: 0.71579
[28 sec, 217256 itr]: obj = (0.194121), mov = 217256, inf = 97.8%, acc = 1.4%, imp = 1030

worst case efficiency: 0.716473
[29 sec, 224034 itr]: obj = (0.195184), mov = 224034, inf = 97.8%, acc = 1.4%, imp = 1058

worst case efficiency: 0.71711
[30 sec, 230682 itr]: obj = (0.196259), mov = 230682, inf = 97.8%, acc = 1.4%, imp = 1078

worst case efficiency: 0.717755
[31 sec, 237544 itr]: obj = (0.196713), mov = 237544, inf = 97.8%, acc = 1.4%, imp = 1094

worst case efficiency: 0.718028
[32 sec, 244115 itr]: obj = (0.199548), mov = 244115, inf = 97.9%, acc = 1.4%, imp = 1123

worst case efficiency: 0.719729
[33 sec, 250613 itr]: obj = (0.201612), mov = 250613, inf = 97.9%, acc = 1.4%, imp = 1148

worst case efficiency: 0.720967
[34 sec, 257162 itr]: obj = (0.204415), mov = 257162, inf = 97.9%, acc = 1.4%, imp = 1171

worst case efficiency: 0.722649
[35 sec, 263959 itr]: obj = (0.20487), mov = 263959, inf = 97.9%, acc = 1.3%, imp = 1182

worst case efficiency: 0.722922
[36 sec, 270815 itr]: obj = (0.208273), mov = 270815, inf = 98%, acc = 1.3%, imp = 1203

worst case efficiency: 0.724964
[37 sec, 277874 itr]: obj = (0.208746), mov = 277874, inf = 98%, acc = 1.3%, imp = 1212

worst case efficiency: 0.725248
[38 sec, 285052 itr]: obj = (0.208757), mov = 285052, inf = 98%, acc = 1.3%, imp = 1213

worst case efficiency: 0.725254
[39 sec, 292725 itr]: obj = (0.208757), mov = 292725, inf = 98%, acc = 1.2%, imp = 1213

worst case efficiency: 0.725254
[40 sec, 301998 itr]: obj = (0.208757), mov = 301998, inf = 98.1%, acc = 1.2%, imp = 1213

worst case efficiency: 0.725254
[41 sec, 314601 itr]: obj = (0.208757), mov = 314601, inf = 98.1%, acc = 1.2%, imp = 1213

worst case efficiency: 0.725254
[42 sec, 347982 itr]: obj = (0.208757), mov = 347982, inf = 98.1%, acc = 1.1%, imp = 1213

worst case efficiency: 0.725254
[43 sec, 388529 itr]: obj = (0.208757), mov = 388529, inf = 98.2%, acc = 1%, imp = 1213

worst case efficiency: 0.725254
[44 sec, 429727 itr]: obj = (0.208757), mov = 429727, inf = 98.2%, acc = 1%, imp = 1213

worst case efficiency: 0.725254
[45 sec, 469613 itr]: obj = (0.208757), mov = 469613, inf = 98.3%, acc = 0.9%, imp = 1213

worst case efficiency: 0.725254
[46 sec, 510206 itr]: obj = (0.208757), mov = 510206, inf = 98.3%, acc = 0.9%, imp = 1213

worst case efficiency: 0.725254
[47 sec, 551418 itr]: obj = (0.208757), mov = 551418, inf = 98.4%, acc = 0.8%, imp = 1213

worst case efficiency: 0.725254
[48 sec, 592073 itr]: obj = (0.208757), mov = 592073, inf = 98.4%, acc = 0.8%, imp = 1213

worst case efficiency: 0.725254
[49 sec, 632115 itr]: obj = (0.208757), mov = 632115, inf = 98.4%, acc = 0.8%, imp = 1213

worst case efficiency: 0.725254
[50 sec, 674400 itr]: obj = (0.208757), mov = 674400, inf = 98.4%, acc = 0.7%, imp = 1213

worst case efficiency: 0.725254
[51 sec, 715529 itr]: obj = (0.208757), mov = 715529, inf = 98.4%, acc = 0.7%, imp = 1213

worst case efficiency: 0.725254
[52 sec, 756180 itr]: obj = (0.208757), mov = 756180, inf = 98.4%, acc = 0.7%, imp = 1213

worst case efficiency: 0.725254
[53 sec, 797998 itr]: obj = (0.208763), mov = 797998, inf = 98.4%, acc = 0.7%, imp = 1214

worst case efficiency: 0.725258
[54 sec, 839961 itr]: obj = (0.208778), mov = 839961, inf = 98.4%, acc = 0.7%, imp = 1216

worst case efficiency: 0.725267
[55 sec, 881373 itr]: obj = (0.208778), mov = 881373, inf = 98.5%, acc = 0.6%, imp = 1216

worst case efficiency: 0.725267
[56 sec, 923396 itr]: obj = (0.208827), mov = 923396, inf = 98.5%, acc = 0.6%, imp = 1219

worst case efficiency: 0.725296
[57 sec, 963683 itr]: obj = (0.208931), mov = 963683, inf = 98.5%, acc = 0.6%, imp = 1222

worst case efficiency: 0.725359
[58 sec, 1004926 itr]: obj = (0.209314), mov = 1004926, inf = 98.5%, acc = 0.6%, imp = 1230

worst case efficiency: 0.725589
[59 sec, 1046997 itr]: obj = (0.209429), mov = 1046997, inf = 98.5%, acc = 0.6%, imp = 1232

worst case efficiency: 0.725657
[60 sec, 1087862 itr]: obj = (0.210265), mov = 1087862, inf = 98.5%, acc = 0.6%, imp = 1237

worst case efficiency: 0.726159
[61 sec, 1127055 itr]: obj = (0.210702), mov = 1127055, inf = 98.4%, acc = 0.6%, imp = 1239

worst case efficiency: 0.726421
[62 sec, 1168711 itr]: obj = (0.21139), mov = 1168711, inf = 98.4%, acc = 0.6%, imp = 1244

worst case efficiency: 0.726834
[63 sec, 1209193 itr]: obj = (0.21144), mov = 1209193, inf = 98.5%, acc = 0.6%, imp = 1246

worst case efficiency: 0.726864
[64 sec, 1248071 itr]: obj = (0.211452), mov = 1248071, inf = 98.5%, acc = 0.6%, imp = 1247

worst case efficiency: 0.726871
[65 sec, 1289048 itr]: obj = (0.211452), mov = 1289048, inf = 98.5%, acc = 0.6%, imp = 1247

worst case efficiency: 0.726871
[66 sec, 1328479 itr]: obj = (0.212036), mov = 1328479, inf = 98.5%, acc = 0.6%, imp = 1249

worst case efficiency: 0.727221
[67 sec, 1369135 itr]: obj = (0.212067), mov = 1369135, inf = 98.5%, acc = 0.6%, imp = 1251

worst case efficiency: 0.72724
[68 sec, 1410270 itr]: obj = (0.21207), mov = 1410270, inf = 98.5%, acc = 0.6%, imp = 1252

worst case efficiency: 0.727242
[69 sec, 1451213 itr]: obj = (0.212079), mov = 1451213, inf = 98.5%, acc = 0.6%, imp = 1254

worst case efficiency: 0.727248
[70 sec, 1492534 itr]: obj = (0.21212), mov = 1492534, inf = 98.5%, acc = 0.6%, imp = 1255

worst case efficiency: 0.727272
[71 sec, 1533812 itr]: obj = (0.21215), mov = 1533812, inf = 98.5%, acc = 0.6%, imp = 1257

worst case efficiency: 0.72729
[72 sec, 1575055 itr]: obj = (0.212186), mov = 1575055, inf = 98.5%, acc = 0.6%, imp = 1259

worst case efficiency: 0.727312
[73 sec, 1613724 itr]: obj = (0.212193), mov = 1613724, inf = 98.5%, acc = 0.6%, imp = 1260

worst case efficiency: 0.727316
[74 sec, 1654255 itr]: obj = (0.212348), mov = 1654255, inf = 98.5%, acc = 0.6%, imp = 1262

worst case efficiency: 0.727409
[75 sec, 1694893 itr]: obj = (0.212348), mov = 1694893, inf = 98.5%, acc = 0.6%, imp = 1262

worst case efficiency: 0.727409
[76 sec, 1734635 itr]: obj = (0.212375), mov = 1734635, inf = 98.5%, acc = 0.6%, imp = 1263

worst case efficiency: 0.727425
[77 sec, 1774663 itr]: obj = (0.212497), mov = 1774663, inf = 98.5%, acc = 0.6%, imp = 1267

worst case efficiency: 0.727498
[78 sec, 1814140 itr]: obj = (0.212661), mov = 1814140, inf = 98.5%, acc = 0.6%, imp = 1270

worst case efficiency: 0.727597
[79 sec, 1854854 itr]: obj = (0.212669), mov = 1854854, inf = 98.5%, acc = 0.6%, imp = 1271

worst case efficiency: 0.727602
[80 sec, 1895503 itr]: obj = (0.214305), mov = 1895503, inf = 98.6%, acc = 0.6%, imp = 1278

worst case efficiency: 0.728583
[81 sec, 1936364 itr]: obj = (0.21455), mov = 1936364, inf = 98.6%, acc = 0.6%, imp = 1286

worst case efficiency: 0.72873
[82 sec, 1976450 itr]: obj = (0.214569), mov = 1976450, inf = 98.6%, acc = 0.6%, imp = 1287

worst case efficiency: 0.728742
[83 sec, 2017294 itr]: obj = (0.214611), mov = 2017294, inf = 98.6%, acc = 0.6%, imp = 1289

worst case efficiency: 0.728766
[84 sec, 2056527 itr]: obj = (0.215152), mov = 2056527, inf = 98.6%, acc = 0.6%, imp = 1294

worst case efficiency: 0.729091
[85 sec, 2096865 itr]: obj = (0.215214), mov = 2096865, inf = 98.6%, acc = 0.6%, imp = 1296

worst case efficiency: 0.729128
[86 sec, 2137842 itr]: obj = (0.215243), mov = 2137842, inf = 98.6%, acc = 0.6%, imp = 1298

worst case efficiency: 0.729146
[87 sec, 2176761 itr]: obj = (0.215332), mov = 2176761, inf = 98.6%, acc = 0.6%, imp = 1301

worst case efficiency: 0.729199
[88 sec, 2217040 itr]: obj = (0.215341), mov = 2217040, inf = 98.7%, acc = 0.6%, imp = 1302

worst case efficiency: 0.729205
[89 sec, 2258163 itr]: obj = (0.215399), mov = 2258163, inf = 98.7%, acc = 0.6%, imp = 1303

worst case efficiency: 0.729239
[90 sec, 2298292 itr]: obj = (0.215401), mov = 2298292, inf = 98.7%, acc = 0.6%, imp = 1304

worst case efficiency: 0.72924
[90 sec, 2298292 itr]: obj = (0.215401), mov = 2298292, inf = 98.7%, acc = 0.6%, imp = 1304

worst case efficiency: 0.72924
2298292 iterations, 2298292 moves performed in 90 seconds
Feasible solution: obj = (0.215401)

Run output...
FINAL SOLUTION
Worst case efficiency: 0.72924
Mapping: 0->23, 1->2, 2->36, 3->3, 4->27, 5->9, 6->46, 7->45, 8->33, 9->0, 10->32, 11->15, 12->34, 13->8, 14->38, 15->41, 16->5, 17->20, 18->39, 19->44, 20->32, 21->5, 22->32, 23->34, 24->20, 25->31, 26->45, 27->28, 28->21, 29->46, 30->41, 31->9, 32->18, 33->22, 34->37, 35->27, 36->22, 37->16, 38->34, 39->39, 40->6, 41->30, 42->39, 43->8, 44->1, 45->29, 46->11, 47->44, 48->16, 49->46, 50->9, 51->19, 52->19, 53->33, 54->26, 55->25, 56->15, 57->27, 58->13, 59->28, 60->26, 61->21, 62->40, 63->32, 64->15, 65->37, 66->43, 67->28, 68->7, 69->30, 70->30, 71->9, 72->21, 73->35, 74->10, 75->18, 76->14, 77->47, 78->11, 79->38, 80->25, 81->30, 82->7, 83->25, 84->36, 85->44, 86->24, 87->13, 88->18, 89->16, 90->26, 91->22, 92->29, 93->32, 94->41, 95->44, 96->3, 97->38, 98->31, 99->29, 100->14, 101->20, 102->35, 103->2, 104->20, 105->33, 106->29, 107->40, 108->12, 109->1, 110->10, 111->3, 112->11, 113->35, 114->1, 115->40, 116->1, 117->41, 118->21, 119->6, 120->4, 121->13, 122->12, 123->41, 124->9, 125->24, 126->0, 127->10, 128->3, 129->45, 130->12, 131->34, 132->27, 133->47, 134->40, 135->20, 136->17, 137->29, 138->3, 139->45, 140->10, 141->25, 142->19, 143->37, 144->24, 145->10, 146->36, 147->36, 148->8, 149->42, 150->47, 151->6, 152->11, 153->23, 154->21, 155->7, 156->31, 157->2, 158->39, 159->47, 160->31, 161->19, 162->23, 163->17, 164->14, 165->35, 166->4, 167->1, 168->0, 169->37, 170->19, 171->16, 172->38, 173->47, 174->6, 175->33, 176->14, 177->5, 178->2, 179->37, 180->34, 181->43, 182->5, 183->47, 184->25, 185->12, 186->33, 187->8, 188->0, 189->12, 190->22, 191->14, 192->4, 193->24, 194->41, 195->31, 196->39, 197->13, 198->11, 199->15, 200->43, 201->43, 202->35, 203->7, 204->26, 205->10, 206->42, 207->45, 208->39, 209->8, 210->40, 211->27, 212->28, 213->7, 214->42, 215->1, 216->23, 217->38, 218->43, 219->17, 220->8, 221->42, 222->17, 223->2, 224->42, 225->46, 226->22, 227->23, 228->24, 229->6, 230->16, 231->34, 232->38, 233->18, 234->17, 235->28, 236->19, 237->9, 238->40, 239->28, 240->5, 241->13, 242->11, 243->43, 244->36, 245->26, 246->46, 247->4, 248->18, 249->30, 250->37, 251->42, 252->17, 253->0, 254->33, 255->44, 256->21, 257->32, 258->3, 259->5, 260->0, 261->30, 262->36, 263->45, 264->25, 265->22, 266->26, 267->18, 268->2, 269->15, 270->23, 271->29, 272->7, 273->13, 274->24, 275->27, 276->4, 277->46, 278->14, 279->12, 280->35, 281->20, 282->44, 283->6, 284->31, 285->15, 286->4, 287->16
Number of tasks per core:
	6	6	6	6	6	6
	6	6	6	6	6	6
	6	6	6	6	6	6
	6	6	6	6	6	6
	6	6	6	6	6	6
	6	6	6	6	6	6
	6	6	6	6	6	6
	6	6	6	6	6	6
Average CPI map:
	0.620276	1.22926	1.22116	1.16474	1.75284	1.44386
	1.6565	2.36174	2.41375	3.234	2.86673	1.97579
	1.32383	3.95038	3.47383	5.41797	4.42351	1.78275
	1.11688	4.74638	3.20531	5.31175	2.67615	1.70661
	1.41438	4.19854	4.95105	3.52588	4.35471	0.738604
	2.19379	5.51942	4.34833	2.92939	5.215	1.07451
	0.909924	5.30694	3.36885	3.99637	2.6867	0.927641
	1.15129	2.48786	3.85986	5.00682	3.70932	1.04882
Efficiency map:
	0.99722	0.873631	0.907391	0.808818	0.979163	1.00307
	0.736985	0.730071	0.744892	0.751279	0.729406	0.847423
	0.822101	0.751526	0.735453	0.754466	0.737386	0.863746
	0.815379	0.738356	0.76138	0.795601	0.731016	0.880487
	0.823551	0.743465	0.72924	0.74044	0.736281	0.762504
	0.899358	0.827529	0.732506	0.739331	0.743348	0.816937
	0.807918	0.771651	0.745545	0.742419	0.729665	0.806453
	0.812767	0.737036	0.773395	0.730138	0.802562	0.785841
==============================================================================
Local Solver optimizer for EML demonstration
==============================================================================

Option values: --wld-idx 7 --global-tlim 90 --seed 201

Starting the Optimization Process
