LocalSolver 4.0 (MacOS64, build 20131224)
Copyright (C) 2013 Bouygues SA, Aix-Marseille University, CNRS.
All rights reserved (see Terms and Conditions for details).

Load localsolver_res/tawd_ls.lsp...
Run input...
ANNs For the Platform:
4,2,1,6.45294,0.0174524,1.58234,2.29305,2.12057,3.95113,12.7206,-19.3278,5.58789,9.38298,0.00306445,0.00353919,0.795949
4,2,1,3.10684,7.56359,0.502116,0.637049,12.0356,-2.9013,-3.22211,-0.368567,-0.562298,-7.37831,2.38595,1.22203,-0.360292
4,2,1,4.88387,44.8399,1.27345,1.24496,49.1775,-8.83277,-3.12983,-1.00946,11.7,-3.01002,0.132635,0.00372271,0.673996
4,2,1,4.73045,19.3982,0.449241,0.753865,25.7092,17.3605,0.0558085,-8.91516,0.49993,10.3396,4.06312,-0.0136297,-3.24599
4,2,1,-7.16849,-10.0957,-0.518885,-0.00359459,5.93351,5.62684,52.0516,1.48603,1.30274,57.2311,0.250578,0.137157,0.417379
4,2,1,0.412706,-2.89716,0.137754,-2.57826,11.0947,121.374,858.444,-136.26,-14917.8,-1308.92,-3.36558,-0.000403784,4.17997
4,2,1,-8.8269,-0.482244,-0.0820712,-0.0562713,-10.1617,9.78118,-7.01882,-0.428151,-0.0606718,2.56012,-8.54699,-0.509991,-7.23704
4,2,1,2.19881,4.94147,0.541452,0.107587,6.45213,1.0452,0.405805,0.555763,3.64728,1.95727,0.425683,-0.00188273,0.383643
4,2,1,-6.13316,1.92598,-0.0562274,-0.0731719,-4.60606,0.509071,7.79918,0.393802,0.0114563,7.9345,-1.13416,0.310582,-0.637365
4,2,1,1.73462,2.97854,0.276167,0.0859465,3.6912,3.09203,3.25403,0.324282,0.112495,4.06123,0.954718,-0.48836,0.344765
4,2,1,1.57339,3.84603,-3.4467,0.7429,2.75709,2.1802,5.09535,0.482172,0.106131,6.49189,-0.0251827,0.433535,0.393482
4,2,1,4.13514,21.6229,1.1931,0.354612,24.1372,25.5916,0.432728,-12.6725,-0.45345,15.3428,0.194819,-0.0364695,0.647465
4,2,1,-0.728632,5.60079,1.78098,1.8429,-5.74354,-3.26566,-13.0026,-0.907163,-0.31822,-15.3707,-0.427666,-0.224298,0.154329
4,2,1,3.81854,-4.98219,-0.293924,-0.103604,-6.7034,2.28654,4.72568,0.469524,0.115005,6.05901,-0.511241,0.421809,-0.121549
4,2,1,-1.23773,5.98591,0.224555,-0.359337,6.05767,2.3852,3.4706,0.220977,0.179377,4.88772,0.199751,0.432231,0.177791
4,2,1,1.12189,4.09326,0.850801,0.171671,-5.17646,-1.9656,-4.07995,-0.210811,-0.113853,-5.17242,-2.70452,-0.46094,-2.36326
4,2,1,2.08858,4.80174,0.367584,0.109336,6.02292,4.32969,4.35157,0.772172,10.015,-0.96022,0.43933,4.17055e-05,0.365228
4,2,1,1.18806,3.00188,0.124753,0.00191203,3.75084,1.03049,2.7808,0.137818,0.0250058,4.01619,-1.05018,2.49176,-0.635083
4,2,1,3.11788,10.9247,0.699295,0.170953,13.0959,-11.4646,-5.88946,11.0137,8.74787,-11.701,0.236706,0.0216102,0.59131
4,2,1,7.53568,1.94998,-2.27776,-1.91765,0.451708,2.13206,4.27547,0.333162,0.0864645,5.45063,-0.0153486,0.447774,0.366202
4,2,1,-2.12436,-3.29848,-0.0965154,-0.0454545,-3.86293,4.27042,3.64797,0.106703,0.057602,4.81479,-1.28015,-0.815344,0.346524
4,2,1,2.06313,3.99765,-9.94001e-06,0.200591,5.05136,-0.024567,-3.22765,-1.84842,1.73493,-3.87425,0.446216,-0.0350173,0.320411
4,2,1,3.3952,3.19239,0.219932,0.0459907,4.0724,1.85184,2.9352,0.236295,0.0535068,3.62882,-0.516849,0.990723,0.337742
4,2,1,-6.32145,2.68844,0.160066,0.0633176,-3.81442,9.03888,1.31396,0.253255,-0.0684612,6.93971,1.83579,0.440423,2.20116
4,2,1,-4.54148,-0.217309,1.86369,-0.409034,0.0885675,-3.10698,-12.3715,-0.753639,-0.275832,-14.544,0.00344558,-0.233405,0.57337
4,2,1,-0.743367,6.86662,-0.19496,-0.0184317,7.54898,2.69258,3.24789,0.437511,0.121848,4.97423,0.830361,0.39615,-0.417087
4,2,1,2.07654,3.2533,0.103762,0.0837251,4.40922,1.95615,-2.57949,-0.10147,-0.0485499,-3.72005,0.479113,-0.433879,-0.0966803
4,2,1,-0.480501,-0.00331725,1.67452,0.764966,-1.53387,1.99113,3.67475,0.0228188,0.0287235,4.64739,0.15721,0.465135,0.487915
4,2,1,1.11584,-5.79333,-0.212675,0.376981,-6.64888,2.45003,3.54368,0.313683,0.144659,5.05472,-0.777178,0.423599,-0.389995
4,2,1,2.39093,1.70258,-0.183288,-0.314006,4.06496,2.34881,2.91375,-0.0230153,-0.18977,5.26307,-1.33645,1.84807,0.292237
4,2,1,0.88022,3.23795,0.179315,0.0205209,3.57684,0.764441,2.74982,0.156077,0.0273373,3.62313,-0.980719,2.16912,-0.37872
4,2,1,-1.27932,7.09751,-0.0490235,0.455487,7.14709,-2.57722,-4.06233,-0.410784,-0.0433739,-5.6171,0.164894,-0.408714,0.23583
4,2,1,0.623158,5.01876,0.194867,0.0365944,4.99458,-16.0815,2.94826,-1.82463,-1.90388,-9.56395,0.291148,-0.155001,0.360694
4,2,1,1.86251,3.92056,0.158781,0.0575693,4.93436,0.681285,4.09563,1.09826,-3.65606,2.09524,0.482473,-0.00448292,0.322397
4,2,1,3.33939,3.52877,0.262622,0.0607689,4.45842,2.23218,3.37107,0.256541,0.0516206,4.05014,-1.2701,1.7162,0.365737
4,2,1,5.0585,4.68315,2.53887,0.128578,8.9709,3.62833,11.0789,1.32555,0.190392,13.8026,-0.126366,0.350541,0.580103
4,2,1,4.99986,2.75557,1.33036,-0.0119951,6.91685,4.23025,5.34568,1.08928,0.0379928,8.80363,-0.700785,0.958812,0.547325
4,2,1,1.95024,3.24732,0.229322,0.0270089,3.53624,1.62575,3.04977,0.230194,0.0319079,3.46966,-1.34015,1.81817,0.333213
4,2,1,2.11055,5.16581,0.225183,0.0767342,6.2013,3.43647,-3.10756,1.22453,-6.27082,5.92438,0.428242,2.12665,-1.75474
4,2,1,10.028,2.55152,-0.0579427,-0.0186516,-2.98054,2.14055,4.33639,0.203596,0.057269,5.47668,0.0078111,0.436528,0.371941
4,2,1,1.80421,3.45533,0.27065,0.0337725,4.14172,3.00203,3.65885,0.26995,0.0620062,4.37924,0.892686,-0.440136,0.355377
4,2,1,-2.76424,-10.7675,-0.741451,-0.141046,-12.927,13.6995,2.51611,0.90934,27.76,15.1973,-0.260938,-0.00175312,0.546274
4,2,1,2.26659,3.88332,0.083697,0.287373,-5.89957,3.07548,7.5942,0.285535,0.141703,9.90558,1.94369,0.273352,2.47758
4,2,1,5.41472,-1.35343,-0.0808605,2.27411,0.928252,2.55844,6.15687,0.338903,0.0735359,7.47381,-0.0148119,0.388691,0.423615
4,2,1,4.53285,3.66527,0.130055,0.0722232,4.95325,-2.1632,-3.34312,-0.11633,-0.0577237,-3.98867,-0.759785,-1.19124,0.379449
4,2,1,2.36669,5.75119,0.132783,0.0812059,6.8845,-8.68015,-0.488627,0.811521,2.16444,0.277436,0.40839,0.00790296,0.400784
4,2,1,0.583762,8.58805,0.307497,0.0165495,8.61973,-7.32584,1.34397,-0.0108636,-0.0260377,-6.96836,0.266022,-5.2323,-4.69173
4,2,1,1.76683,-0.336959,-0.116305,-0.0696435,-1.62311,2.51027,5.65249,0.180271,0.0657051,7.97995,-0.0500539,0.457869,0.308072
Workload Information:
3.11484, 1.31985, 3.06196, 2.24868, 1.56505, 0.689625, 2.94788, 4.22163, 0.5, 1.0955, 1.12584, 2.10916, 2.16532, 2.8622, 0.5, 3.9949, 1.10726, 1.37032, 0.840907, 1.02263, 5.44189, 3.42573, 0.5, 0.76885, 2.69363, 3.3641, 1.18983, 2.6822, 0.772127, 1.29811, 1.52187, 0.86324, 2.80671, 3.00534, 0.5, 3.30284, 2.12224, 1.93669, 2.21617, 1.98871, 1.86562, 1.87058, 2.39572, 0.65529, 0.894178, 2.74223, 2.47322, 2.83936, 3.04446, 0.671981, 2.00403, 0.71065, 2.52319, 3.04569, 3.15744, 1.00197, 0.51089, 0.5, 1.93431, 4.89539, 1.42669, 2.93932, 0.5, 1.77978, 3.33895, 2.01526, 2.53642, 1.64555, 1.64284, 1.76686, 2.51944, 1.88888, 2.09478, 1.99304, 2.10934, 2.07176, 2.10164, 1.62943, 4.71945, 0.944256, 1.22478, 0.907209, 2.84864, 1.35566, 1.29569, 1.0915, 2.45619, 1.42612, 2.69527, 3.03521, 2.44238, 2.14992, 2.14672, 1.82336, 1.14075, 2.29686, 1.07415, 1.0764, 3.20396, 2.56241, 3.42599, 0.657095, 2.17662, 0.5, 2.14023, 2.97797, 2.45487, 1.75032, 2.22379, 0.5, 0.873372, 1.46214, 5.50263, 1.43807, 2.3066, 0.5, 3.14549, 2.3214, 3.13423, 0.59228, 1.51608, 2.54255, 2.34912, 1.89862, 1.75884, 1.93478, 1.45848, 2.87459, 2.5519, 2.89483, 0.5, 1.7202, 22.9088, 20.9588, 19.8077, 17.8279, 23.9168, 26.58, 12.0166, 35, 17.52, 24.9915, 26.7989, 15.673, 1.76953, 3.54949, 0.937844, 3.29155, 1.95158, 0.5, 3.18083, 1.83118, 1.74062, 1.38675, 1.93425, 1.92638, 2.35013, 0.5, 2.474, 1.75192, 0.560141, 4.3638, 1.19019, 1.0697, 2.03575, 3.31605, 3.35632, 1.03198, 28.768, 13.8994, 0.611224, 25.0785, 29.237, 34.4058, 6.05207, 13.3041, 15.2356, 10.9548, 0.5, 13.9534, 2.33803, 1.06575, 2.09857, 2.33305, 2.16404, 2.00055, 2.61542, 1.54177, 0.5, 1.79488, 3.20907, 2.33885, 4.12849, 0.927456, 2.24663, 0.5, 0.680962, 3.51646, 0.608593, 2.05161, 1.06879, 1.42931, 0.669232, 6.17247, 12.5992, 21.4084, 28.5877, 25.309, 23.2977, 20.798, 31.1414, 35, 2.78184, 9.42673, 29.7011, 23.9489, 1.98877, 2.11658, 1.56475, 2.40997, 0.638422, 3.28151, 2.06456, 1.54087, 0.824402, 2.76175, 4.30842, 0.5, 1.85735, 1.85229, 1.81619, 1.95836, 2.23531, 2.2805, 2.91727, 2.90424, 0.5, 1.93073, 1.76373, 1.98403, 0.656259, 2.57474, 2.62819, 0.5, 2.86465, 2.77616, 4.14294, 0.657899, 0.5, 2.95018, 1.77226, 1.97673, 2.34938, 2.38527, 1.19575, 1.9998, 2.17922, 1.89058, 2.14808, 1.89555, 2.14984, 1.6986, 2.00209, 2.10584, 2.28654, 0.759182, 3.18437, 0.5, 3.47319, 1.79672, 3.13449, 0.5, 2.0656, 2.79866, 2.72589, 0.775361, 2.64321, 0.571303, 4.27622, 2.0708, 1.93847, 0.5, 3.6644, 1.06602, 0.5, 2.50283, 1.40451, 2.86225
cpi min/max: 0.5/35
neighbors of 0: 1 6, number of others: 45
neighbors of 1: 0 2 6 7, number of others: 43
neighbors of 2: 1 3 7 8, number of others: 43
neighbors of 3: 2 4 8 9, number of others: 43
neighbors of 4: 3 5 9 10, number of others: 43
neighbors of 5: 4 10 11, number of others: 44
neighbors of 6: 0 1 7 12, number of others: 43
neighbors of 7: 1 2 6 8 12 13, number of others: 41
neighbors of 8: 2 3 7 9 13 14, number of others: 41
neighbors of 9: 3 4 8 10 14 15, number of others: 41
neighbors of 10: 4 5 9 11 15 16, number of others: 41
neighbors of 11: 5 10 16 17, number of others: 43
neighbors of 12: 6 7 13 18, number of others: 43
neighbors of 13: 7 8 12 14 18 19, number of others: 41
neighbors of 14: 8 9 13 15 19 20, number of others: 41
neighbors of 15: 9 10 14 16 20 21, number of others: 41
neighbors of 16: 10 11 15 17 21 22, number of others: 41
neighbors of 17: 11 16 22 23, number of others: 43
neighbors of 18: 12 13 19 24, number of others: 43
neighbors of 19: 13 14 18 20 24 25, number of others: 41
neighbors of 20: 14 15 19 21 25 26, number of others: 41
neighbors of 21: 15 16 20 22 26 27, number of others: 41
neighbors of 22: 16 17 21 23 27 28, number of others: 41
neighbors of 23: 17 22 28 29, number of others: 43
neighbors of 24: 18 19 25 30, number of others: 43
neighbors of 25: 19 20 24 26 30 31, number of others: 41
neighbors of 26: 20 21 25 27 31 32, number of others: 41
neighbors of 27: 21 22 26 28 32 33, number of others: 41
neighbors of 28: 22 23 27 29 33 34, number of others: 41
neighbors of 29: 23 28 34 35, number of others: 43
neighbors of 30: 24 25 31 36, number of others: 43
neighbors of 31: 25 26 30 32 36 37, number of others: 41
neighbors of 32: 26 27 31 33 37 38, number of others: 41
neighbors of 33: 27 28 32 34 38 39, number of others: 41
neighbors of 34: 28 29 33 35 39 40, number of others: 41
neighbors of 35: 29 34 40 41, number of others: 43
neighbors of 36: 30 31 37 42, number of others: 43
neighbors of 37: 31 32 36 38 42 43, number of others: 41
neighbors of 38: 32 33 37 39 43 44, number of others: 41
neighbors of 39: 33 34 38 40 44 45, number of others: 41
neighbors of 40: 34 35 39 41 45 46, number of others: 41
neighbors of 41: 35 40 46 47, number of others: 43
neighbors of 42: 36 37 43, number of others: 44
neighbors of 43: 37 38 42 44, number of others: 43
neighbors of 44: 38 39 43 45, number of others: 43
neighbors of 45: 39 40 44 46, number of others: 43
neighbors of 46: 40 41 45 47, number of others: 43
neighbors of 47: 41 46, number of others: 45
Run model...
Preprocess model 0% ...Preprocess model 16% ...Preprocess model 32% ...Preprocess model 48% ...Preprocess model 66% ...Preprocess model 84% ...Preprocess model 100% ...
Close model 0% ...Close model 9% ...Close model 18% ...Close model 27% ...Close model 36% ...Close model 45% ...Close model 54% ...Close model 63% ...Close model 72% ...Close model 81% ...Close model 91% ...Close model 100% ...
Run param...
Run solver...
Initialize threads 0% ...Initialize threads 100% ...
Push initial solutions 0% ...Push initial solutions 100% ...

Model: 
  expressions = 44726, operands = 116736
  decisions = 13824, constraints = 336, objectives = 1

Param: 
  time limit = 90 sec, no iteration limit
  seed = 701, nb threads = 1, annealing level = 1

Objectives:
  Obj 0: maximize, no bound

Phases:
  Phase 0: time limit = 90 sec, no iteration limit, optimized objective = 0


Computed bounds:
  Obj 0: upper bound = 0.664125


Phase 0:
[0 sec, 0 itr]: infeas = (336, 336, 576), mov = 0, inf < 0.1%, acc < 0.1%, imp = 0

worst case efficiency: 0.998464
[1 sec, 2412 itr]: infeas = (5, 5, 8), mov = 2412, inf = 61.1%, acc = 34.5%, imp = 129

worst case efficiency: 0.632867
[2 sec, 22859 itr]: obj = (0.0643136), mov = 22859, inf = 93.9%, acc = 5.5%, imp = 171

worst case efficiency: 0.638588
[3 sec, 36693 itr]: obj = (0.0805769), mov = 36693, inf = 96.1%, acc = 3.6%, imp = 228

worst case efficiency: 0.648346
[4 sec, 46869 itr]: obj = (0.099219), mov = 46869, inf = 96.8%, acc = 2.9%, imp = 268

worst case efficiency: 0.659531
[5 sec, 55142 itr]: obj = (0.099219), mov = 55142, inf = 97.3%, acc = 2.5%, imp = 268

worst case efficiency: 0.659531
[6 sec, 62367 itr]: obj = (0.111397), mov = 62367, inf = 97.5%, acc = 2.3%, imp = 310

worst case efficiency: 0.666838
[7 sec, 68799 itr]: obj = (0.145963), mov = 68799, inf = 97.7%, acc = 2.2%, imp = 359

worst case efficiency: 0.687578
[8 sec, 74490 itr]: obj = (0.155583), mov = 74490, inf = 97.8%, acc = 2.1%, imp = 395

worst case efficiency: 0.69335
[9 sec, 79781 itr]: obj = (0.172901), mov = 79781, inf = 97.9%, acc = 2%, imp = 425

worst case efficiency: 0.703741
[10 sec, 84774 itr]: obj = (0.190797), mov = 84774, inf = 98%, acc = 1.9%, imp = 468

worst case efficiency: 0.714478
[11 sec, 89609 itr]: obj = (0.208363), mov = 89609, inf = 98%, acc = 1.9%, imp = 538

worst case efficiency: 0.725018
[12 sec, 94354 itr]: obj = (0.216313), mov = 94354, inf = 98.1%, acc = 1.8%, imp = 562

worst case efficiency: 0.729788
[13 sec, 99159 itr]: obj = (0.228552), mov = 99159, inf = 98.1%, acc = 1.8%, imp = 606

worst case efficiency: 0.737131
[14 sec, 103964 itr]: obj = (0.237838), mov = 103964, inf = 98.2%, acc = 1.7%, imp = 639

worst case efficiency: 0.742703
[15 sec, 108794 itr]: obj = (0.243095), mov = 108794, inf = 98.2%, acc = 1.7%, imp = 660

worst case efficiency: 0.745857
[16 sec, 113564 itr]: obj = (0.248245), mov = 113564, inf = 98.3%, acc = 1.6%, imp = 686

worst case efficiency: 0.748947
[17 sec, 118243 itr]: obj = (0.248245), mov = 118243, inf = 98.4%, acc = 1.6%, imp = 686

worst case efficiency: 0.748947
[18 sec, 122963 itr]: obj = (0.248245), mov = 122963, inf = 98.4%, acc = 1.5%, imp = 686

worst case efficiency: 0.748947
[19 sec, 127838 itr]: obj = (0.248245), mov = 127838, inf = 98.5%, acc = 1.5%, imp = 686

worst case efficiency: 0.748947
[20 sec, 132864 itr]: obj = (0.248245), mov = 132864, inf = 98.6%, acc = 1.4%, imp = 686

worst case efficiency: 0.748947
[21 sec, 138031 itr]: obj = (0.248245), mov = 138031, inf = 98.6%, acc = 1.4%, imp = 686

worst case efficiency: 0.748947
[22 sec, 143534 itr]: obj = (0.248245), mov = 143534, inf = 98.7%, acc = 1.3%, imp = 686

worst case efficiency: 0.748947
[23 sec, 149177 itr]: obj = (0.248245), mov = 149177, inf = 98.7%, acc = 1.3%, imp = 686

worst case efficiency: 0.748947
[24 sec, 155002 itr]: obj = (0.248245), mov = 155002, inf = 98.8%, acc = 1.2%, imp = 686

worst case efficiency: 0.748947
[25 sec, 161065 itr]: obj = (0.248245), mov = 161065, inf = 98.8%, acc = 1.2%, imp = 686

worst case efficiency: 0.748947
[26 sec, 167642 itr]: obj = (0.248245), mov = 167642, inf = 98.9%, acc = 1.1%, imp = 686

worst case efficiency: 0.748947
[27 sec, 175503 itr]: obj = (0.248245), mov = 175503, inf = 98.9%, acc = 1.1%, imp = 686

worst case efficiency: 0.748947
[28 sec, 185746 itr]: obj = (0.248245), mov = 185746, inf = 99%, acc = 1%, imp = 686

worst case efficiency: 0.748947
[29 sec, 199524 itr]: obj = (0.248245), mov = 199524, inf = 99%, acc = 1%, imp = 686

worst case efficiency: 0.748947
[30 sec, 223368 itr]: obj = (0.248245), mov = 223368, inf = 99.1%, acc = 0.9%, imp = 686

worst case efficiency: 0.748947
[31 sec, 249273 itr]: obj = (0.248245), mov = 249273, inf = 99.2%, acc = 0.8%, imp = 686

worst case efficiency: 0.748947
[32 sec, 272882 itr]: obj = (0.248245), mov = 272882, inf = 99.3%, acc = 0.8%, imp = 686

worst case efficiency: 0.748947
[33 sec, 298615 itr]: obj = (0.248245), mov = 298615, inf = 99.3%, acc = 0.7%, imp = 686

worst case efficiency: 0.748947
[34 sec, 324366 itr]: obj = (0.248245), mov = 324366, inf = 99.3%, acc = 0.7%, imp = 686

worst case efficiency: 0.748947
[35 sec, 353635 itr]: obj = (0.248245), mov = 353635, inf = 99.3%, acc = 0.7%, imp = 686

worst case efficiency: 0.748947
[36 sec, 385841 itr]: obj = (0.248245), mov = 385841, inf = 99.3%, acc = 0.7%, imp = 686

worst case efficiency: 0.748947
[37 sec, 418034 itr]: obj = (0.248245), mov = 418034, inf = 99.3%, acc = 0.7%, imp = 687

worst case efficiency: 0.748947
[38 sec, 450528 itr]: obj = (0.248245), mov = 450528, inf = 99.3%, acc = 0.7%, imp = 687

worst case efficiency: 0.748947
[39 sec, 483505 itr]: obj = (0.248245), mov = 483505, inf = 99.2%, acc = 0.7%, imp = 687

worst case efficiency: 0.748947
[40 sec, 515918 itr]: obj = (0.248245), mov = 515918, inf = 99.2%, acc = 0.7%, imp = 687

worst case efficiency: 0.748947
[41 sec, 549457 itr]: obj = (0.248245), mov = 549457, inf = 99.3%, acc = 0.7%, imp = 687

worst case efficiency: 0.748947
[42 sec, 582871 itr]: obj = (0.248245), mov = 582871, inf = 99.3%, acc = 0.7%, imp = 687

worst case efficiency: 0.748947
[43 sec, 616178 itr]: obj = (0.248245), mov = 616178, inf = 99.3%, acc = 0.7%, imp = 687

worst case efficiency: 0.748947
[44 sec, 649861 itr]: obj = (0.248245), mov = 649861, inf = 99.3%, acc = 0.7%, imp = 687

worst case efficiency: 0.748947
[45 sec, 683373 itr]: obj = (0.248245), mov = 683373, inf = 99.3%, acc = 0.7%, imp = 687

worst case efficiency: 0.748947
[46 sec, 716810 itr]: obj = (0.248245), mov = 716810, inf = 99.3%, acc = 0.7%, imp = 687

worst case efficiency: 0.748947
[47 sec, 746689 itr]: obj = (0.248245), mov = 746689, inf = 99.3%, acc = 0.7%, imp = 687

worst case efficiency: 0.748947
[48 sec, 767456 itr]: obj = (0.248245), mov = 767456, inf = 99.3%, acc = 0.7%, imp = 687

worst case efficiency: 0.748947
[49 sec, 796666 itr]: obj = (0.248245), mov = 796666, inf = 99.3%, acc = 0.7%, imp = 687

worst case efficiency: 0.748947
[50 sec, 830707 itr]: obj = (0.248245), mov = 830707, inf = 99.3%, acc = 0.7%, imp = 687

worst case efficiency: 0.748947
[51 sec, 865092 itr]: obj = (0.248245), mov = 865092, inf = 99.3%, acc = 0.7%, imp = 687

worst case efficiency: 0.748947
[52 sec, 898157 itr]: obj = (0.248245), mov = 898157, inf = 99.3%, acc = 0.7%, imp = 687

worst case efficiency: 0.748947
[53 sec, 931719 itr]: obj = (0.248245), mov = 931719, inf = 99.3%, acc = 0.7%, imp = 687

worst case efficiency: 0.748947
[54 sec, 965031 itr]: obj = (0.248245), mov = 965031, inf = 99.3%, acc = 0.7%, imp = 687

worst case efficiency: 0.748947
[55 sec, 998286 itr]: obj = (0.248245), mov = 998286, inf = 99.3%, acc = 0.7%, imp = 687

worst case efficiency: 0.748947
[56 sec, 1031580 itr]: obj = (0.248245), mov = 1031580, inf = 99.3%, acc = 0.7%, imp = 687

worst case efficiency: 0.748947
[57 sec, 1063626 itr]: obj = (0.248245), mov = 1063626, inf = 99.3%, acc = 0.7%, imp = 687

worst case efficiency: 0.748947
[58 sec, 1096127 itr]: obj = (0.248245), mov = 1096127, inf = 99.3%, acc = 0.7%, imp = 687

worst case efficiency: 0.748947
[59 sec, 1129738 itr]: obj = (0.248245), mov = 1129738, inf = 99.3%, acc = 0.7%, imp = 687

worst case efficiency: 0.748947
[60 sec, 1163752 itr]: obj = (0.248245), mov = 1163752, inf = 99.3%, acc = 0.7%, imp = 687

worst case efficiency: 0.748947
[61 sec, 1197332 itr]: obj = (0.248245), mov = 1197332, inf = 99.3%, acc = 0.6%, imp = 687

worst case efficiency: 0.748947
[62 sec, 1230870 itr]: obj = (0.248245), mov = 1230870, inf = 99.3%, acc = 0.6%, imp = 687

worst case efficiency: 0.748947
[63 sec, 1263152 itr]: obj = (0.248245), mov = 1263152, inf = 99.3%, acc = 0.6%, imp = 687

worst case efficiency: 0.748947
[64 sec, 1296748 itr]: obj = (0.248245), mov = 1296748, inf = 99.3%, acc = 0.6%, imp = 687

worst case efficiency: 0.748947
[65 sec, 1330230 itr]: obj = (0.248245), mov = 1330230, inf = 99.3%, acc = 0.6%, imp = 687

worst case efficiency: 0.748947
[66 sec, 1363118 itr]: obj = (0.248245), mov = 1363118, inf = 99.3%, acc = 0.6%, imp = 687

worst case efficiency: 0.748947
[67 sec, 1396316 itr]: obj = (0.248245), mov = 1396316, inf = 99.3%, acc = 0.6%, imp = 687

worst case efficiency: 0.748947
[68 sec, 1429820 itr]: obj = (0.248245), mov = 1429820, inf = 99.3%, acc = 0.6%, imp = 687

worst case efficiency: 0.748947
[69 sec, 1463014 itr]: obj = (0.248245), mov = 1463014, inf = 99.3%, acc = 0.6%, imp = 687

worst case efficiency: 0.748947
[70 sec, 1496616 itr]: obj = (0.248245), mov = 1496616, inf = 99.3%, acc = 0.6%, imp = 687

worst case efficiency: 0.748947
[71 sec, 1530667 itr]: obj = (0.248245), mov = 1530667, inf = 99.3%, acc = 0.6%, imp = 687

worst case efficiency: 0.748947
[72 sec, 1564045 itr]: obj = (0.248245), mov = 1564045, inf = 99.3%, acc = 0.6%, imp = 687

worst case efficiency: 0.748947
[73 sec, 1597647 itr]: obj = (0.248245), mov = 1597647, inf = 99.3%, acc = 0.6%, imp = 687

worst case efficiency: 0.748947
[74 sec, 1631389 itr]: obj = (0.248245), mov = 1631389, inf = 99.3%, acc = 0.6%, imp = 687

worst case efficiency: 0.748947
[75 sec, 1664706 itr]: obj = (0.248245), mov = 1664706, inf = 99.3%, acc = 0.6%, imp = 687

worst case efficiency: 0.748947
[76 sec, 1697665 itr]: obj = (0.248245), mov = 1697665, inf = 99.3%, acc = 0.6%, imp = 687

worst case efficiency: 0.748947
[77 sec, 1730238 itr]: obj = (0.248245), mov = 1730238, inf = 99.3%, acc = 0.6%, imp = 687

worst case efficiency: 0.748947
[78 sec, 1763374 itr]: obj = (0.248245), mov = 1763374, inf = 99.3%, acc = 0.6%, imp = 687

worst case efficiency: 0.748947
[79 sec, 1795997 itr]: obj = (0.248245), mov = 1795997, inf = 99.3%, acc = 0.6%, imp = 687

worst case efficiency: 0.748947
[80 sec, 1829543 itr]: obj = (0.248245), mov = 1829543, inf = 99.3%, acc = 0.6%, imp = 687

worst case efficiency: 0.748947
[81 sec, 1863459 itr]: obj = (0.248245), mov = 1863459, inf = 99.3%, acc = 0.6%, imp = 687

worst case efficiency: 0.748947
[82 sec, 1896980 itr]: obj = (0.248245), mov = 1896980, inf = 99.3%, acc = 0.6%, imp = 687

worst case efficiency: 0.748947
[83 sec, 1930680 itr]: obj = (0.248245), mov = 1930680, inf = 99.3%, acc = 0.6%, imp = 687

worst case efficiency: 0.748947
[84 sec, 1964483 itr]: obj = (0.248245), mov = 1964483, inf = 99.3%, acc = 0.6%, imp = 687

worst case efficiency: 0.748947
[85 sec, 1998708 itr]: obj = (0.248245), mov = 1998708, inf = 99.3%, acc = 0.6%, imp = 687

worst case efficiency: 0.748947
[86 sec, 2031860 itr]: obj = (0.248245), mov = 2031860, inf = 99.3%, acc = 0.6%, imp = 687

worst case efficiency: 0.748947
[87 sec, 2065407 itr]: obj = (0.248245), mov = 2065407, inf = 99.3%, acc = 0.6%, imp = 687

worst case efficiency: 0.748947
[88 sec, 2099268 itr]: obj = (0.248245), mov = 2099268, inf = 99.3%, acc = 0.6%, imp = 687

worst case efficiency: 0.748947
[89 sec, 2132892 itr]: obj = (0.248245), mov = 2132892, inf = 99.3%, acc = 0.6%, imp = 687

worst case efficiency: 0.748947
[90 sec, 2165906 itr]: obj = (0.248245), mov = 2165906, inf = 99.3%, acc = 0.6%, imp = 687

worst case efficiency: 0.748947
[90 sec, 2165906 itr]: obj = (0.248245), mov = 2165906, inf = 99.3%, acc = 0.6%, imp = 687

worst case efficiency: 0.748947
2165906 iterations, 2165906 moves performed in 90 seconds
Feasible solution: obj = (0.248245)

Run output...
FINAL SOLUTION
Worst case efficiency: 0.748947
Mapping: 0->25, 1->28, 2->12, 3->1, 4->11, 5->3, 6->38, 7->39, 8->4, 9->18, 10->8, 11->28, 12->17, 13->29, 14->17, 15->11, 16->3, 17->1, 18->1, 19->5, 20->8, 21->9, 22->30, 23->44, 24->35, 25->16, 26->38, 27->18, 28->21, 29->42, 30->47, 31->4, 32->25, 33->31, 34->36, 35->37, 36->8, 37->34, 38->8, 39->3, 40->9, 41->46, 42->34, 43->36, 44->36, 45->38, 46->1, 47->27, 48->15, 49->16, 50->11, 51->5, 52->10, 53->32, 54->13, 55->11, 56->29, 57->42, 58->30, 59->47, 60->47, 61->5, 62->2, 63->2, 64->8, 65->22, 66->33, 67->40, 68->31, 69->18, 70->37, 71->2, 72->46, 73->26, 74->43, 75->24, 76->14, 77->11, 78->9, 79->41, 80->30, 81->1, 82->29, 83->19, 84->36, 85->24, 86->10, 87->4, 88->14, 89->6, 90->26, 91->9, 92->26, 93->28, 94->12, 95->45, 96->24, 97->43, 98->31, 99->45, 100->32, 101->23, 102->7, 103->4, 104->44, 105->37, 106->19, 107->4, 108->45, 109->47, 110->23, 111->5, 112->33, 113->18, 114->34, 115->11, 116->34, 117->7, 118->39, 119->21, 120->14, 121->43, 122->12, 123->6, 124->17, 125->35, 126->6, 127->33, 128->15, 129->13, 130->47, 131->41, 132->10, 133->15, 134->34, 135->14, 136->16, 137->7, 138->33, 139->7, 140->33, 141->15, 142->13, 143->21, 144->41, 145->16, 146->30, 147->12, 148->27, 149->17, 150->1, 151->3, 152->4, 153->0, 154->40, 155->28, 156->9, 157->23, 158->40, 159->10, 160->2, 161->20, 162->6, 163->22, 164->23, 165->13, 166->44, 167->46, 168->20, 169->38, 170->26, 171->21, 172->31, 173->19, 174->25, 175->40, 176->37, 177->19, 178->23, 179->9, 180->22, 181->0, 182->27, 183->25, 184->42, 185->39, 186->33, 187->24, 188->24, 189->29, 190->16, 191->5, 192->44, 193->41, 194->0, 195->2, 196->29, 197->19, 198->2, 199->37, 200->22, 201->17, 202->42, 203->46, 204->38, 205->44, 206->43, 207->22, 208->28, 209->39, 210->27, 211->26, 212->25, 213->26, 214->32, 215->15, 216->7, 217->22, 218->46, 219->45, 220->21, 221->16, 222->15, 223->35, 224->10, 225->14, 226->39, 227->3, 228->6, 229->41, 230->18, 231->21, 232->40, 233->45, 234->13, 235->43, 236->7, 237->30, 238->42, 239->34, 240->0, 241->35, 242->27, 243->17, 244->43, 245->47, 246->25, 247->20, 248->3, 249->18, 250->5, 251->44, 252->46, 253->32, 254->6, 255->37, 256->23, 257->8, 258->28, 259->36, 260->0, 261->30, 262->41, 263->32, 264->20, 265->31, 266->40, 267->36, 268->14, 269->27, 270->38, 271->32, 272->20, 273->39, 274->10, 275->12, 276->19, 277->29, 278->24, 279->45, 280->35, 281->42, 282->0, 283->20, 284->35, 285->13, 286->31, 287->12
Number of tasks per core:
	6	6	6	6	6	6
	6	6	6	6	6	6
	6	6	6	6	6	6
	6	6	6	6	6	6
	6	6	6	6	6	6
	6	6	6	6	6	6
	6	6	6	6	6	6
	6	6	6	6	6	6
Average CPI map:
	1.8616	1.83686	0.972898	1.1028	1.13005	1.70764
	1.7726	11.4278	2.68928	4.74405	5.53174	1.78256
	2.24683	6.93123	5.06264	12.9267	6.33216	1.14225
	1.95817	9.22179	6.53464	7.45213	5.6529	1.12424
	1.75923	3.53858	8.60335	7.07597	5.43741	1.54481
	1.37104	6.54214	6.86064	7.1776	5.26271	1.86375
	0.956785	4.68121	6.08552	6.21026	4.1296	1.53597
	1.14919	6.68081	5.62983	2.30739	2.51399	1.93669
Efficiency map:
	0.99722	0.95719	0.913841	0.832263	0.912941	1.00307
	0.84297	0.890799	0.748947	0.795109	0.760284	0.841929
	0.846943	0.867381	0.75108	0.945153	0.749225	0.770117
	0.854488	0.858299	0.764722	0.763774	0.758081	0.950715
	0.824738	0.749702	0.809387	0.823194	0.754715	0.799473
	0.78615	0.752195	0.749025	0.866387	0.810327	0.823357
	0.808728	0.792728	0.769028	0.824512	0.75603	0.839118
	0.81445	0.808762	0.777802	0.748947	0.75419	0.817415
==============================================================================
Local Solver optimizer for EML demonstration
==============================================================================

Option values: --wld-idx 10 --global-tlim 90 --seed 701

Starting the Optimization Process
