LocalSolver 4.0 (MacOS64, build 20131224)
Copyright (C) 2013 Bouygues SA, Aix-Marseille University, CNRS.
All rights reserved (see Terms and Conditions for details).

Load localsolver_res/tawd_ls.lsp...
Run input...
ANNs For the Platform:
4,2,1,6.45294,0.0174524,1.58234,2.29305,2.12057,3.95113,12.7206,-19.3278,5.58789,9.38298,0.00306445,0.00353919,0.795949
4,2,1,3.10684,7.56359,0.502116,0.637049,12.0356,-2.9013,-3.22211,-0.368567,-0.562298,-7.37831,2.38595,1.22203,-0.360292
4,2,1,4.88387,44.8399,1.27345,1.24496,49.1775,-8.83277,-3.12983,-1.00946,11.7,-3.01002,0.132635,0.00372271,0.673996
4,2,1,4.73045,19.3982,0.449241,0.753865,25.7092,17.3605,0.0558085,-8.91516,0.49993,10.3396,4.06312,-0.0136297,-3.24599
4,2,1,-7.16849,-10.0957,-0.518885,-0.00359459,5.93351,5.62684,52.0516,1.48603,1.30274,57.2311,0.250578,0.137157,0.417379
4,2,1,0.412706,-2.89716,0.137754,-2.57826,11.0947,121.374,858.444,-136.26,-14917.8,-1308.92,-3.36558,-0.000403784,4.17997
4,2,1,-8.8269,-0.482244,-0.0820712,-0.0562713,-10.1617,9.78118,-7.01882,-0.428151,-0.0606718,2.56012,-8.54699,-0.509991,-7.23704
4,2,1,2.19881,4.94147,0.541452,0.107587,6.45213,1.0452,0.405805,0.555763,3.64728,1.95727,0.425683,-0.00188273,0.383643
4,2,1,-6.13316,1.92598,-0.0562274,-0.0731719,-4.60606,0.509071,7.79918,0.393802,0.0114563,7.9345,-1.13416,0.310582,-0.637365
4,2,1,1.73462,2.97854,0.276167,0.0859465,3.6912,3.09203,3.25403,0.324282,0.112495,4.06123,0.954718,-0.48836,0.344765
4,2,1,1.57339,3.84603,-3.4467,0.7429,2.75709,2.1802,5.09535,0.482172,0.106131,6.49189,-0.0251827,0.433535,0.393482
4,2,1,4.13514,21.6229,1.1931,0.354612,24.1372,25.5916,0.432728,-12.6725,-0.45345,15.3428,0.194819,-0.0364695,0.647465
4,2,1,-0.728632,5.60079,1.78098,1.8429,-5.74354,-3.26566,-13.0026,-0.907163,-0.31822,-15.3707,-0.427666,-0.224298,0.154329
4,2,1,3.81854,-4.98219,-0.293924,-0.103604,-6.7034,2.28654,4.72568,0.469524,0.115005,6.05901,-0.511241,0.421809,-0.121549
4,2,1,-1.23773,5.98591,0.224555,-0.359337,6.05767,2.3852,3.4706,0.220977,0.179377,4.88772,0.199751,0.432231,0.177791
4,2,1,1.12189,4.09326,0.850801,0.171671,-5.17646,-1.9656,-4.07995,-0.210811,-0.113853,-5.17242,-2.70452,-0.46094,-2.36326
4,2,1,2.08858,4.80174,0.367584,0.109336,6.02292,4.32969,4.35157,0.772172,10.015,-0.96022,0.43933,4.17055e-05,0.365228
4,2,1,1.18806,3.00188,0.124753,0.00191203,3.75084,1.03049,2.7808,0.137818,0.0250058,4.01619,-1.05018,2.49176,-0.635083
4,2,1,3.11788,10.9247,0.699295,0.170953,13.0959,-11.4646,-5.88946,11.0137,8.74787,-11.701,0.236706,0.0216102,0.59131
4,2,1,7.53568,1.94998,-2.27776,-1.91765,0.451708,2.13206,4.27547,0.333162,0.0864645,5.45063,-0.0153486,0.447774,0.366202
4,2,1,-2.12436,-3.29848,-0.0965154,-0.0454545,-3.86293,4.27042,3.64797,0.106703,0.057602,4.81479,-1.28015,-0.815344,0.346524
4,2,1,2.06313,3.99765,-9.94001e-06,0.200591,5.05136,-0.024567,-3.22765,-1.84842,1.73493,-3.87425,0.446216,-0.0350173,0.320411
4,2,1,3.3952,3.19239,0.219932,0.0459907,4.0724,1.85184,2.9352,0.236295,0.0535068,3.62882,-0.516849,0.990723,0.337742
4,2,1,-6.32145,2.68844,0.160066,0.0633176,-3.81442,9.03888,1.31396,0.253255,-0.0684612,6.93971,1.83579,0.440423,2.20116
4,2,1,-4.54148,-0.217309,1.86369,-0.409034,0.0885675,-3.10698,-12.3715,-0.753639,-0.275832,-14.544,0.00344558,-0.233405,0.57337
4,2,1,-0.743367,6.86662,-0.19496,-0.0184317,7.54898,2.69258,3.24789,0.437511,0.121848,4.97423,0.830361,0.39615,-0.417087
4,2,1,2.07654,3.2533,0.103762,0.0837251,4.40922,1.95615,-2.57949,-0.10147,-0.0485499,-3.72005,0.479113,-0.433879,-0.0966803
4,2,1,-0.480501,-0.00331725,1.67452,0.764966,-1.53387,1.99113,3.67475,0.0228188,0.0287235,4.64739,0.15721,0.465135,0.487915
4,2,1,1.11584,-5.79333,-0.212675,0.376981,-6.64888,2.45003,3.54368,0.313683,0.144659,5.05472,-0.777178,0.423599,-0.389995
4,2,1,2.39093,1.70258,-0.183288,-0.314006,4.06496,2.34881,2.91375,-0.0230153,-0.18977,5.26307,-1.33645,1.84807,0.292237
4,2,1,0.88022,3.23795,0.179315,0.0205209,3.57684,0.764441,2.74982,0.156077,0.0273373,3.62313,-0.980719,2.16912,-0.37872
4,2,1,-1.27932,7.09751,-0.0490235,0.455487,7.14709,-2.57722,-4.06233,-0.410784,-0.0433739,-5.6171,0.164894,-0.408714,0.23583
4,2,1,0.623158,5.01876,0.194867,0.0365944,4.99458,-16.0815,2.94826,-1.82463,-1.90388,-9.56395,0.291148,-0.155001,0.360694
4,2,1,1.86251,3.92056,0.158781,0.0575693,4.93436,0.681285,4.09563,1.09826,-3.65606,2.09524,0.482473,-0.00448292,0.322397
4,2,1,3.33939,3.52877,0.262622,0.0607689,4.45842,2.23218,3.37107,0.256541,0.0516206,4.05014,-1.2701,1.7162,0.365737
4,2,1,5.0585,4.68315,2.53887,0.128578,8.9709,3.62833,11.0789,1.32555,0.190392,13.8026,-0.126366,0.350541,0.580103
4,2,1,4.99986,2.75557,1.33036,-0.0119951,6.91685,4.23025,5.34568,1.08928,0.0379928,8.80363,-0.700785,0.958812,0.547325
4,2,1,1.95024,3.24732,0.229322,0.0270089,3.53624,1.62575,3.04977,0.230194,0.0319079,3.46966,-1.34015,1.81817,0.333213
4,2,1,2.11055,5.16581,0.225183,0.0767342,6.2013,3.43647,-3.10756,1.22453,-6.27082,5.92438,0.428242,2.12665,-1.75474
4,2,1,10.028,2.55152,-0.0579427,-0.0186516,-2.98054,2.14055,4.33639,0.203596,0.057269,5.47668,0.0078111,0.436528,0.371941
4,2,1,1.80421,3.45533,0.27065,0.0337725,4.14172,3.00203,3.65885,0.26995,0.0620062,4.37924,0.892686,-0.440136,0.355377
4,2,1,-2.76424,-10.7675,-0.741451,-0.141046,-12.927,13.6995,2.51611,0.90934,27.76,15.1973,-0.260938,-0.00175312,0.546274
4,2,1,2.26659,3.88332,0.083697,0.287373,-5.89957,3.07548,7.5942,0.285535,0.141703,9.90558,1.94369,0.273352,2.47758
4,2,1,5.41472,-1.35343,-0.0808605,2.27411,0.928252,2.55844,6.15687,0.338903,0.0735359,7.47381,-0.0148119,0.388691,0.423615
4,2,1,4.53285,3.66527,0.130055,0.0722232,4.95325,-2.1632,-3.34312,-0.11633,-0.0577237,-3.98867,-0.759785,-1.19124,0.379449
4,2,1,2.36669,5.75119,0.132783,0.0812059,6.8845,-8.68015,-0.488627,0.811521,2.16444,0.277436,0.40839,0.00790296,0.400784
4,2,1,0.583762,8.58805,0.307497,0.0165495,8.61973,-7.32584,1.34397,-0.0108636,-0.0260377,-6.96836,0.266022,-5.2323,-4.69173
4,2,1,1.76683,-0.336959,-0.116305,-0.0696435,-1.62311,2.51027,5.65249,0.180271,0.0657051,7.97995,-0.0500539,0.457869,0.308072
Workload Information:
0.822202, 1.03693, 0.576976, 3.61605, 3.89835, 2.0495, 0.5, 1.27889, 3.11919, 0.751166, 3.15822, 3.19253, 1.85188, 1.784, 1.98891, 4.63716, 0.555712, 1.18234, 0.5, 1.71343, 0.994135, 3.09443, 2.69763, 3.00038, 1.98211, 2.27377, 1.91712, 1.88123, 1.78375, 2.16201, 2.39605, 2.3869, 1.20719, 1.56076, 2.60248, 1.84663, 2.62657, 2.37566, 0.721892, 0.73276, 2.79826, 2.74486, 0.5, 1.84905, 4.00113, 2.00266, 1.86305, 1.7841, 3.3957, 0.5, 3.37115, 1.71734, 2.01574, 1.00006, 2.33235, 0.907894, 1.92003, 2.49172, 1.97915, 2.36887, 0.897262, 3.45424, 2.84769, 2.21824, 2.08257, 0.5, 0.639426, 0.5, 3.79278, 2.74457, 1.31356, 3.00967, 2.02057, 1.82647, 0.823463, 1.45008, 2.80056, 3.07885, 1.79288, 2.02898, 1.89328, 2.17166, 2.45822, 1.65498, 1.8358, 2.39425, 1.43032, 1.78828, 2.37552, 2.17583, 0.5, 0.731085, 0.861213, 2.84868, 3.67892, 3.3801, 3.35293, 1.06079, 2.39516, 2.00835, 1.33842, 1.84435, 0.588556, 2.83028, 3.69538, 1.36061, 3.02517, 0.5, 0.550459, 0.602651, 0.931703, 2.75636, 4.2002, 2.95863, 3.38172, 2.35425, 0.5, 2.04737, 2.57186, 1.1448, 0.5, 2.83378, 2.97744, 2.05238, 2.88634, 0.750057, 4.17159, 1.33515, 0.690573, 2.8313, 0.5, 2.47139, 21.2536, 9.71935, 26.2397, 24.4538, 24.0133, 26.3202, 12.9733, 15.8205, 16.4545, 35, 19.1206, 32.631, 0.5, 2.30977, 1.00696, 1.80931, 1.56134, 4.81262, 1.98746, 2.25654, 1.56531, 1.89278, 2.19437, 2.10355, 4.06932, 2.63585, 2.36012, 0.674881, 0.5, 1.75983, 11.395, 22.7298, 21.6593, 35, 22.4994, 18.7165, 25.1279, 24.7518, 3.96816, 29.1898, 26.6711, 22.2912, 19.041, 19.8969, 14.5628, 30.3099, 20.8656, 27.3238, 0.5, 2.58027, 1.39463, 1.89467, 3.44538, 2.18505, 2.995, 0.779683, 1.10151, 2.0619, 1.94578, 3.11613, 2.22775, 2.20418, 1.64147, 1.65098, 2.42005, 1.85557, 26.2354, 16.8492, 25.7157, 23.4695, 23.8466, 15.8835, 19.4906, 35, 20.7529, 22.1737, 16.3682, 18.2145, 1.42512, 34.7831, 9.95029, 34.7868, 16.0547, 35, 1.85093, 3.66256, 1.23621, 1.03314, 1.64496, 2.57219, 2.51038, 1.97016, 2.43242, 2.53065, 2.05639, 0.5, 1.36001, 2.31327, 1.90728, 2.14544, 2.20865, 2.06535, 1.45245, 2.34827, 2.21373, 2.3091, 1.90416, 1.77229, 1.6424, 2.36952, 2.78981, 1.2392, 1.02584, 2.93322, 1.57511, 3.56747, 0.785944, 4.13503, 0.5, 1.43644, 2.34065, 1.07513, 2.40504, 2.00058, 2.25765, 1.92094, 1.29166, 0.5, 0.871675, 2.43035, 3.92671, 2.9796, 1.26283, 3.57321, 0.705942, 0.5, 5.06186, 0.89616, 2.37925, 2.398, 1.24377, 0.762687, 2.21961, 2.99668, 3.19817, 0.643531, 1.36463, 0.604851, 3.6371, 2.55172, 2.36529, 2.23317, 2.33473, 0.659972, 2.24374, 2.16309
cpi min/max: 0.5/35
neighbors of 0: 1 6, number of others: 45
neighbors of 1: 0 2 6 7, number of others: 43
neighbors of 2: 1 3 7 8, number of others: 43
neighbors of 3: 2 4 8 9, number of others: 43
neighbors of 4: 3 5 9 10, number of others: 43
neighbors of 5: 4 10 11, number of others: 44
neighbors of 6: 0 1 7 12, number of others: 43
neighbors of 7: 1 2 6 8 12 13, number of others: 41
neighbors of 8: 2 3 7 9 13 14, number of others: 41
neighbors of 9: 3 4 8 10 14 15, number of others: 41
neighbors of 10: 4 5 9 11 15 16, number of others: 41
neighbors of 11: 5 10 16 17, number of others: 43
neighbors of 12: 6 7 13 18, number of others: 43
neighbors of 13: 7 8 12 14 18 19, number of others: 41
neighbors of 14: 8 9 13 15 19 20, number of others: 41
neighbors of 15: 9 10 14 16 20 21, number of others: 41
neighbors of 16: 10 11 15 17 21 22, number of others: 41
neighbors of 17: 11 16 22 23, number of others: 43
neighbors of 18: 12 13 19 24, number of others: 43
neighbors of 19: 13 14 18 20 24 25, number of others: 41
neighbors of 20: 14 15 19 21 25 26, number of others: 41
neighbors of 21: 15 16 20 22 26 27, number of others: 41
neighbors of 22: 16 17 21 23 27 28, number of others: 41
neighbors of 23: 17 22 28 29, number of others: 43
neighbors of 24: 18 19 25 30, number of others: 43
neighbors of 25: 19 20 24 26 30 31, number of others: 41
neighbors of 26: 20 21 25 27 31 32, number of others: 41
neighbors of 27: 21 22 26 28 32 33, number of others: 41
neighbors of 28: 22 23 27 29 33 34, number of others: 41
neighbors of 29: 23 28 34 35, number of others: 43
neighbors of 30: 24 25 31 36, number of others: 43
neighbors of 31: 25 26 30 32 36 37, number of others: 41
neighbors of 32: 26 27 31 33 37 38, number of others: 41
neighbors of 33: 27 28 32 34 38 39, number of others: 41
neighbors of 34: 28 29 33 35 39 40, number of others: 41
neighbors of 35: 29 34 40 41, number of others: 43
neighbors of 36: 30 31 37 42, number of others: 43
neighbors of 37: 31 32 36 38 42 43, number of others: 41
neighbors of 38: 32 33 37 39 43 44, number of others: 41
neighbors of 39: 33 34 38 40 44 45, number of others: 41
neighbors of 40: 34 35 39 41 45 46, number of others: 41
neighbors of 41: 35 40 46 47, number of others: 43
neighbors of 42: 36 37 43, number of others: 44
neighbors of 43: 37 38 42 44, number of others: 43
neighbors of 44: 38 39 43 45, number of others: 43
neighbors of 45: 39 40 44 46, number of others: 43
neighbors of 46: 40 41 45 47, number of others: 43
neighbors of 47: 41 46, number of others: 45
Run model...
Preprocess model 0% ...Preprocess model 16% ...Preprocess model 32% ...Preprocess model 48% ...Preprocess model 66% ...Preprocess model 84% ...Preprocess model 100% ...
Close model 0% ...Close model 9% ...Close model 18% ...Close model 27% ...Close model 36% ...Close model 45% ...Close model 54% ...Close model 63% ...Close model 72% ...Close model 81% ...Close model 91% ...Close model 100% ...
Run param...
Run solver...
Initialize threads 0% ...Initialize threads 100% ...
Push initial solutions 0% ...Push initial solutions 100% ...

Model: 
  expressions = 44729, operands = 116736
  decisions = 13824, constraints = 336, objectives = 1

Param: 
  time limit = 90 sec, no iteration limit
  seed = 101, nb threads = 1, annealing level = 1

Objectives:
  Obj 0: maximize, no bound

Phases:
  Phase 0: time limit = 90 sec, no iteration limit, optimized objective = 0


Computed bounds:
  Obj 0: upper bound = 0.664125


Phase 0:
[0 sec, 0 itr]: infeas = (336, 336, 576), mov = 0, inf < 0.1%, acc < 0.1%, imp = 0

worst case efficiency: 0.998464
[1 sec, 4308 itr]: obj = (0.100401), mov = 4308, inf = 81.6%, acc = 17%, imp = 156

worst case efficiency: 0.660241
[2 sec, 31201 itr]: obj = (0.133118), mov = 31201, inf = 97.4%, acc = 2.5%, imp = 178

worst case efficiency: 0.679871
[3 sec, 48123 itr]: obj = (0.145784), mov = 48123, inf = 98.3%, acc = 1.7%, imp = 206

worst case efficiency: 0.68747
[4 sec, 57650 itr]: obj = (0.177317), mov = 57650, inf = 98.5%, acc = 1.5%, imp = 250

worst case efficiency: 0.70639
[5 sec, 63474 itr]: obj = (0.183875), mov = 63474, inf = 98.6%, acc = 1.4%, imp = 279

worst case efficiency: 0.710325
[6 sec, 68320 itr]: obj = (0.192325), mov = 68320, inf = 98.6%, acc = 1.4%, imp = 308

worst case efficiency: 0.715395
[7 sec, 72730 itr]: obj = (0.203231), mov = 72730, inf = 98.7%, acc = 1.3%, imp = 341

worst case efficiency: 0.721938
[8 sec, 77009 itr]: obj = (0.237681), mov = 77009, inf = 98.7%, acc = 1.3%, imp = 378

worst case efficiency: 0.742608
[9 sec, 81035 itr]: obj = (0.24918), mov = 81035, inf = 98.7%, acc = 1.3%, imp = 414

worst case efficiency: 0.749508
[10 sec, 85038 itr]: obj = (0.25045), mov = 85038, inf = 98.8%, acc = 1.3%, imp = 433

worst case efficiency: 0.75027
[11 sec, 89025 itr]: obj = (0.261795), mov = 89025, inf = 98.8%, acc = 1.2%, imp = 465

worst case efficiency: 0.757077
[12 sec, 93045 itr]: obj = (0.270587), mov = 93045, inf = 98.8%, acc = 1.2%, imp = 504

worst case efficiency: 0.762352
[13 sec, 96948 itr]: obj = (0.278048), mov = 96948, inf = 98.8%, acc = 1.2%, imp = 541

worst case efficiency: 0.766829
[14 sec, 100770 itr]: obj = (0.288542), mov = 100770, inf = 98.8%, acc = 1.2%, imp = 577

worst case efficiency: 0.773125
[15 sec, 104649 itr]: obj = (0.295226), mov = 104649, inf = 98.8%, acc = 1.2%, imp = 612

worst case efficiency: 0.777136
[16 sec, 108427 itr]: obj = (0.303916), mov = 108427, inf = 98.9%, acc = 1.2%, imp = 638

worst case efficiency: 0.782349
[17 sec, 112224 itr]: obj = (0.313694), mov = 112224, inf = 98.9%, acc = 1.2%, imp = 667

worst case efficiency: 0.788217
[18 sec, 116047 itr]: obj = (0.316264), mov = 116047, inf = 98.9%, acc = 1.2%, imp = 697

worst case efficiency: 0.789758
[19 sec, 119932 itr]: obj = (0.322954), mov = 119932, inf = 98.9%, acc = 1.1%, imp = 725

worst case efficiency: 0.793772
[20 sec, 123729 itr]: obj = (0.328504), mov = 123729, inf = 98.9%, acc = 1.1%, imp = 760

worst case efficiency: 0.797102
[21 sec, 127561 itr]: obj = (0.330913), mov = 127561, inf = 98.9%, acc = 1.1%, imp = 786

worst case efficiency: 0.798548
[22 sec, 131389 itr]: obj = (0.333575), mov = 131389, inf = 98.9%, acc = 1.1%, imp = 815

worst case efficiency: 0.800145
[23 sec, 135275 itr]: obj = (0.33387), mov = 135275, inf = 99%, acc = 1.1%, imp = 819

worst case efficiency: 0.800322
[24 sec, 139017 itr]: obj = (0.33387), mov = 139017, inf = 99%, acc = 1.1%, imp = 819

worst case efficiency: 0.800322
[25 sec, 142821 itr]: obj = (0.33387), mov = 142821, inf = 99%, acc = 1%, imp = 819

worst case efficiency: 0.800322
[26 sec, 146654 itr]: obj = (0.33387), mov = 146654, inf = 99%, acc = 1%, imp = 819

worst case efficiency: 0.800322
[27 sec, 150738 itr]: obj = (0.33387), mov = 150738, inf = 99.1%, acc = 1%, imp = 819

worst case efficiency: 0.800322
[28 sec, 154860 itr]: obj = (0.33387), mov = 154860, inf = 99.1%, acc = 1%, imp = 819

worst case efficiency: 0.800322
[29 sec, 159287 itr]: obj = (0.33387), mov = 159287, inf = 99.1%, acc = 0.9%, imp = 819

worst case efficiency: 0.800322
[30 sec, 163853 itr]: obj = (0.33387), mov = 163853, inf = 99.1%, acc = 0.9%, imp = 819

worst case efficiency: 0.800322
[31 sec, 168970 itr]: obj = (0.33387), mov = 168970, inf = 99.2%, acc = 0.9%, imp = 819

worst case efficiency: 0.800322
[32 sec, 174740 itr]: obj = (0.33387), mov = 174740, inf = 99.2%, acc = 0.9%, imp = 819

worst case efficiency: 0.800322
[33 sec, 181102 itr]: obj = (0.33387), mov = 181102, inf = 99.2%, acc = 0.8%, imp = 819

worst case efficiency: 0.800322
[34 sec, 188968 itr]: obj = (0.33387), mov = 188968, inf = 99.3%, acc = 0.8%, imp = 819

worst case efficiency: 0.800322
[35 sec, 200391 itr]: obj = (0.33387), mov = 200391, inf = 99.3%, acc = 0.8%, imp = 819

worst case efficiency: 0.800322
[36 sec, 216018 itr]: obj = (0.33387), mov = 216018, inf = 99.4%, acc = 0.7%, imp = 819

worst case efficiency: 0.800322
[37 sec, 231584 itr]: obj = (0.33387), mov = 231584, inf = 99.4%, acc = 0.7%, imp = 819

worst case efficiency: 0.800322
[38 sec, 246701 itr]: obj = (0.33387), mov = 246701, inf = 99.4%, acc = 0.6%, imp = 819

worst case efficiency: 0.800322
[39 sec, 262220 itr]: obj = (0.33387), mov = 262220, inf = 99.5%, acc = 0.6%, imp = 819

worst case efficiency: 0.800322
[40 sec, 277680 itr]: obj = (0.33387), mov = 277680, inf = 99.5%, acc = 0.6%, imp = 819

worst case efficiency: 0.800322
[41 sec, 292863 itr]: obj = (0.33387), mov = 292863, inf = 99.5%, acc = 0.5%, imp = 819

worst case efficiency: 0.800322
[42 sec, 308606 itr]: obj = (0.33387), mov = 308606, inf = 99.6%, acc = 0.5%, imp = 819

worst case efficiency: 0.800322
[43 sec, 323730 itr]: obj = (0.33387), mov = 323730, inf = 99.6%, acc = 0.5%, imp = 819

worst case efficiency: 0.800322
[44 sec, 338645 itr]: obj = (0.33387), mov = 338645, inf = 99.6%, acc = 0.5%, imp = 819

worst case efficiency: 0.800322
[45 sec, 354248 itr]: obj = (0.33387), mov = 354248, inf = 99.6%, acc = 0.5%, imp = 819

worst case efficiency: 0.800322
[46 sec, 370301 itr]: obj = (0.33387), mov = 370301, inf = 99.6%, acc = 0.4%, imp = 819

worst case efficiency: 0.800322
[47 sec, 386106 itr]: obj = (0.33387), mov = 386106, inf = 99.6%, acc = 0.4%, imp = 819

worst case efficiency: 0.800322
[48 sec, 402214 itr]: obj = (0.33387), mov = 402214, inf = 99.7%, acc = 0.4%, imp = 819

worst case efficiency: 0.800322
[49 sec, 416984 itr]: obj = (0.33387), mov = 416984, inf = 99.7%, acc = 0.4%, imp = 819

worst case efficiency: 0.800322
[50 sec, 432457 itr]: obj = (0.33387), mov = 432457, inf = 99.7%, acc = 0.4%, imp = 819

worst case efficiency: 0.800322
[51 sec, 448272 itr]: obj = (0.33387), mov = 448272, inf = 99.7%, acc = 0.4%, imp = 819

worst case efficiency: 0.800322
[52 sec, 464100 itr]: obj = (0.33387), mov = 464100, inf = 99.7%, acc = 0.4%, imp = 819

worst case efficiency: 0.800322
[53 sec, 479855 itr]: obj = (0.33387), mov = 479855, inf = 99.7%, acc = 0.4%, imp = 819

worst case efficiency: 0.800322
[54 sec, 495310 itr]: obj = (0.33387), mov = 495310, inf = 99.7%, acc = 0.4%, imp = 819

worst case efficiency: 0.800322
[55 sec, 510474 itr]: obj = (0.33387), mov = 510474, inf = 99.7%, acc = 0.3%, imp = 819

worst case efficiency: 0.800322
[56 sec, 525869 itr]: obj = (0.33387), mov = 525869, inf = 99.7%, acc = 0.3%, imp = 819

worst case efficiency: 0.800322
[57 sec, 541509 itr]: obj = (0.33387), mov = 541509, inf = 99.8%, acc = 0.3%, imp = 819

worst case efficiency: 0.800322
[58 sec, 557158 itr]: obj = (0.33387), mov = 557158, inf = 99.8%, acc = 0.3%, imp = 819

worst case efficiency: 0.800322
[59 sec, 572892 itr]: obj = (0.33387), mov = 572892, inf = 99.8%, acc = 0.3%, imp = 819

worst case efficiency: 0.800322
[60 sec, 588217 itr]: obj = (0.33387), mov = 588217, inf = 99.8%, acc = 0.3%, imp = 819

worst case efficiency: 0.800322
[61 sec, 603505 itr]: obj = (0.33387), mov = 603505, inf = 99.8%, acc = 0.3%, imp = 819

worst case efficiency: 0.800322
[62 sec, 619086 itr]: obj = (0.33387), mov = 619086, inf = 99.8%, acc = 0.3%, imp = 819

worst case efficiency: 0.800322
[63 sec, 634416 itr]: obj = (0.33387), mov = 634416, inf = 99.8%, acc = 0.3%, imp = 819

worst case efficiency: 0.800322
[64 sec, 650004 itr]: obj = (0.33387), mov = 650004, inf = 99.8%, acc = 0.3%, imp = 819

worst case efficiency: 0.800322
[65 sec, 665378 itr]: obj = (0.33387), mov = 665378, inf = 99.8%, acc = 0.3%, imp = 819

worst case efficiency: 0.800322
[66 sec, 680576 itr]: obj = (0.33387), mov = 680576, inf = 99.8%, acc = 0.3%, imp = 819

worst case efficiency: 0.800322
[67 sec, 695306 itr]: obj = (0.33387), mov = 695306, inf = 99.8%, acc = 0.3%, imp = 819

worst case efficiency: 0.800322
[68 sec, 710526 itr]: obj = (0.33387), mov = 710526, inf = 99.8%, acc = 0.3%, imp = 819

worst case efficiency: 0.800322
[69 sec, 725153 itr]: obj = (0.33387), mov = 725153, inf = 99.8%, acc = 0.3%, imp = 819

worst case efficiency: 0.800322
[70 sec, 739727 itr]: obj = (0.33387), mov = 739727, inf = 99.8%, acc = 0.3%, imp = 819

worst case efficiency: 0.800322
[71 sec, 754965 itr]: obj = (0.33387), mov = 754965, inf = 99.8%, acc = 0.3%, imp = 819

worst case efficiency: 0.800322
[72 sec, 770214 itr]: obj = (0.33387), mov = 770214, inf = 99.8%, acc = 0.3%, imp = 819

worst case efficiency: 0.800322
[73 sec, 785201 itr]: obj = (0.33387), mov = 785201, inf = 99.8%, acc = 0.3%, imp = 819

worst case efficiency: 0.800322
[74 sec, 800485 itr]: obj = (0.33387), mov = 800485, inf = 99.8%, acc = 0.2%, imp = 819

worst case efficiency: 0.800322
[75 sec, 815132 itr]: obj = (0.33387), mov = 815132, inf = 99.8%, acc = 0.2%, imp = 819

worst case efficiency: 0.800322
[76 sec, 828528 itr]: obj = (0.33387), mov = 828528, inf = 99.8%, acc = 0.2%, imp = 819

worst case efficiency: 0.800322
[77 sec, 838629 itr]: obj = (0.33387), mov = 838629, inf = 99.9%, acc = 0.2%, imp = 819

worst case efficiency: 0.800322
[78 sec, 852583 itr]: obj = (0.33387), mov = 852583, inf = 99.9%, acc = 0.2%, imp = 819

worst case efficiency: 0.800322
[79 sec, 866964 itr]: obj = (0.33387), mov = 866964, inf = 99.9%, acc = 0.2%, imp = 819

worst case efficiency: 0.800322
[80 sec, 879426 itr]: obj = (0.33387), mov = 879426, inf = 99.9%, acc = 0.2%, imp = 819

worst case efficiency: 0.800322
[81 sec, 893404 itr]: obj = (0.33387), mov = 893404, inf = 99.9%, acc = 0.2%, imp = 819

worst case efficiency: 0.800322
[82 sec, 908386 itr]: obj = (0.33387), mov = 908386, inf = 99.9%, acc = 0.2%, imp = 819

worst case efficiency: 0.800322
[83 sec, 923060 itr]: obj = (0.33387), mov = 923060, inf = 99.9%, acc = 0.2%, imp = 819

worst case efficiency: 0.800322
[84 sec, 938664 itr]: obj = (0.33387), mov = 938664, inf = 99.9%, acc = 0.2%, imp = 819

worst case efficiency: 0.800322
[85 sec, 951777 itr]: obj = (0.33387), mov = 951777, inf = 99.9%, acc = 0.2%, imp = 819

worst case efficiency: 0.800322
[86 sec, 966148 itr]: obj = (0.33387), mov = 966148, inf = 99.9%, acc = 0.2%, imp = 819

worst case efficiency: 0.800322
[87 sec, 979799 itr]: obj = (0.33387), mov = 979799, inf = 99.9%, acc = 0.2%, imp = 819

worst case efficiency: 0.800322
[88 sec, 994510 itr]: obj = (0.33387), mov = 994510, inf = 99.9%, acc = 0.2%, imp = 819

worst case efficiency: 0.800322
[89 sec, 1008068 itr]: obj = (0.33387), mov = 1008068, inf = 99.9%, acc = 0.2%, imp = 819

worst case efficiency: 0.800322
[90 sec, 1021700 itr]: obj = (0.33387), mov = 1021700, inf = 99.9%, acc = 0.2%, imp = 819

worst case efficiency: 0.800322
[90 sec, 1021700 itr]: obj = (0.33387), mov = 1021700, inf = 99.9%, acc = 0.2%, imp = 819

worst case efficiency: 0.800322
1021700 iterations, 1021700 moves performed in 90 seconds
Feasible solution: obj = (0.33387)

Run output...
FINAL SOLUTION
Worst case efficiency: 0.800322
Mapping: 0->42, 1->11, 2->3, 3->38, 4->28, 5->19, 6->18, 7->1, 8->9, 9->43, 10->22, 11->39, 12->38, 13->18, 14->4, 15->27, 16->17, 17->10, 18->29, 19->24, 20->17, 21->3, 22->33, 23->38, 24->12, 25->26, 26->6, 27->35, 28->26, 29->36, 30->22, 31->45, 32->46, 33->15, 34->3, 35->33, 36->16, 37->7, 38->2, 39->31, 40->7, 41->13, 42->1, 43->45, 44->25, 45->35, 46->39, 47->4, 48->14, 49->42, 50->7, 51->20, 52->17, 53->36, 54->21, 55->6, 56->44, 57->26, 58->36, 59->44, 60->5, 61->29, 62->27, 63->37, 64->16, 65->41, 66->47, 67->35, 68->26, 69->14, 70->6, 71->40, 72->16, 73->32, 74->18, 75->38, 76->32, 77->13, 78->45, 79->7, 80->15, 81->3, 82->10, 83->14, 84->20, 85->28, 86->42, 87->0, 88->32, 89->35, 90->36, 91->43, 92->42, 93->30, 94->24, 95->9, 96->8, 97->2, 98->34, 99->5, 100->19, 101->25, 102->11, 103->40, 104->10, 105->34, 106->40, 107->30, 108->1, 109->41, 110->47, 111->21, 112->33, 113->27, 114->21, 115->30, 116->42, 117->23, 118->30, 119->46, 120->41, 121->33, 122->12, 123->3, 124->23, 125->43, 126->25, 127->18, 128->41, 129->23, 130->0, 131->38, 132->18, 133->29, 134->16, 135->15, 136->43, 137->38, 138->16, 139->39, 140->31, 141->8, 142->37, 143->15, 144->2, 145->14, 146->35, 147->6, 148->20, 149->4, 150->37, 151->4, 152->22, 153->36, 154->37, 155->29, 156->13, 157->28, 158->23, 159->17, 160->1, 161->45, 162->20, 163->24, 164->25, 165->46, 166->45, 167->8, 168->9, 169->21, 170->39, 171->44, 172->27, 173->20, 174->7, 175->34, 176->28, 177->10, 178->19, 179->32, 180->0, 181->12, 182->2, 183->23, 184->37, 185->20, 186->31, 187->18, 188->47, 189->25, 190->12, 191->22, 192->40, 193->40, 194->24, 195->46, 196->21, 197->5, 198->33, 199->39, 200->32, 201->22, 202->6, 203->32, 204->43, 205->14, 206->40, 207->11, 208->35, 209->19, 210->31, 211->31, 212->34, 213->15, 214->13, 215->26, 216->3, 217->31, 218->44, 219->2, 220->0, 221->8, 222->10, 223->24, 224->8, 225->17, 226->17, 227->0, 228->29, 229->5, 230->11, 231->5, 232->24, 233->30, 234->46, 235->37, 236->36, 237->33, 238->34, 239->0, 240->4, 241->16, 242->9, 243->42, 244->41, 245->11, 246->15, 247->28, 248->9, 249->12, 250->43, 251->5, 252->19, 253->47, 254->1, 255->23, 256->7, 257->21, 258->34, 259->30, 260->41, 261->19, 262->13, 263->13, 264->27, 265->22, 266->12, 267->2, 268->27, 269->47, 270->8, 271->46, 272->44, 273->6, 274->44, 275->28, 276->39, 277->10, 278->1, 279->29, 280->9, 281->4, 282->14, 283->45, 284->25, 285->11, 286->47, 287->26
Number of tasks per core:
	6	6	6	6	6	6
	6	6	6	6	6	6
	6	6	6	6	6	6
	6	6	6	6	6	6
	6	6	6	6	6	6
	6	6	6	6	6	6
	6	6	6	6	6	6
	6	6	6	6	6	6
Average CPI map:
	1.11759	1.09984	0.868409	2.05814	2.50605	1.77606
	5.09287	5.31212	10.7422	6.47335	6.79997	4.88328
	2.38776	5.47567	7.91172	16.1501	8.05205	1.47125
	4.41265	7.87317	6.83097	6.26053	6.21307	2.33673
	5.65708	6.01216	7.91752	7.23988	5.00923	2.957
	1.80669	10.0088	12.6543	6.68713	6.13313	3.98914
	1.62462	5.21906	6.45166	7.48194	5.675	0.698456
	0.892156	7.70605	6.36305	5.42021	7.14224	1.14795
Efficiency map:
	0.99722	0.897332	0.917435	0.939999	0.999988	1.00307
	0.992457	0.83558	0.956435	0.800322	0.800476	0.865071
	0.845277	0.849361	0.849423	0.966271	0.883126	0.802404
	0.86259	0.829988	0.837338	0.807432	0.806095	0.855289
	0.956822	0.80871	0.84834	0.801328	0.800322	0.853672
	0.815968	0.853529	0.908946	0.823724	0.801749	0.848392
	0.824114	0.816357	0.802057	0.854071	0.845582	0.812301
	0.812236	0.800528	0.836679	0.819551	0.892243	0.80677
==============================================================================
Local Solver optimizer for EML demonstration
==============================================================================

Option values: --wld-idx 17 --global-tlim 90 --seed 101

Starting the Optimization Process
