LocalSolver 4.0 (MacOS64, build 20131224)
Copyright (C) 2013 Bouygues SA, Aix-Marseille University, CNRS.
All rights reserved (see Terms and Conditions for details).

Load localsolver_res/tawd_ls.lsp...
Run input...
ANNs For the Platform:
4,2,1,6.45294,0.0174524,1.58234,2.29305,2.12057,3.95113,12.7206,-19.3278,5.58789,9.38298,0.00306445,0.00353919,0.795949
4,2,1,3.10684,7.56359,0.502116,0.637049,12.0356,-2.9013,-3.22211,-0.368567,-0.562298,-7.37831,2.38595,1.22203,-0.360292
4,2,1,4.88387,44.8399,1.27345,1.24496,49.1775,-8.83277,-3.12983,-1.00946,11.7,-3.01002,0.132635,0.00372271,0.673996
4,2,1,4.73045,19.3982,0.449241,0.753865,25.7092,17.3605,0.0558085,-8.91516,0.49993,10.3396,4.06312,-0.0136297,-3.24599
4,2,1,-7.16849,-10.0957,-0.518885,-0.00359459,5.93351,5.62684,52.0516,1.48603,1.30274,57.2311,0.250578,0.137157,0.417379
4,2,1,0.412706,-2.89716,0.137754,-2.57826,11.0947,121.374,858.444,-136.26,-14917.8,-1308.92,-3.36558,-0.000403784,4.17997
4,2,1,-8.8269,-0.482244,-0.0820712,-0.0562713,-10.1617,9.78118,-7.01882,-0.428151,-0.0606718,2.56012,-8.54699,-0.509991,-7.23704
4,2,1,2.19881,4.94147,0.541452,0.107587,6.45213,1.0452,0.405805,0.555763,3.64728,1.95727,0.425683,-0.00188273,0.383643
4,2,1,-6.13316,1.92598,-0.0562274,-0.0731719,-4.60606,0.509071,7.79918,0.393802,0.0114563,7.9345,-1.13416,0.310582,-0.637365
4,2,1,1.73462,2.97854,0.276167,0.0859465,3.6912,3.09203,3.25403,0.324282,0.112495,4.06123,0.954718,-0.48836,0.344765
4,2,1,1.57339,3.84603,-3.4467,0.7429,2.75709,2.1802,5.09535,0.482172,0.106131,6.49189,-0.0251827,0.433535,0.393482
4,2,1,4.13514,21.6229,1.1931,0.354612,24.1372,25.5916,0.432728,-12.6725,-0.45345,15.3428,0.194819,-0.0364695,0.647465
4,2,1,-0.728632,5.60079,1.78098,1.8429,-5.74354,-3.26566,-13.0026,-0.907163,-0.31822,-15.3707,-0.427666,-0.224298,0.154329
4,2,1,3.81854,-4.98219,-0.293924,-0.103604,-6.7034,2.28654,4.72568,0.469524,0.115005,6.05901,-0.511241,0.421809,-0.121549
4,2,1,-1.23773,5.98591,0.224555,-0.359337,6.05767,2.3852,3.4706,0.220977,0.179377,4.88772,0.199751,0.432231,0.177791
4,2,1,1.12189,4.09326,0.850801,0.171671,-5.17646,-1.9656,-4.07995,-0.210811,-0.113853,-5.17242,-2.70452,-0.46094,-2.36326
4,2,1,2.08858,4.80174,0.367584,0.109336,6.02292,4.32969,4.35157,0.772172,10.015,-0.96022,0.43933,4.17055e-05,0.365228
4,2,1,1.18806,3.00188,0.124753,0.00191203,3.75084,1.03049,2.7808,0.137818,0.0250058,4.01619,-1.05018,2.49176,-0.635083
4,2,1,3.11788,10.9247,0.699295,0.170953,13.0959,-11.4646,-5.88946,11.0137,8.74787,-11.701,0.236706,0.0216102,0.59131
4,2,1,7.53568,1.94998,-2.27776,-1.91765,0.451708,2.13206,4.27547,0.333162,0.0864645,5.45063,-0.0153486,0.447774,0.366202
4,2,1,-2.12436,-3.29848,-0.0965154,-0.0454545,-3.86293,4.27042,3.64797,0.106703,0.057602,4.81479,-1.28015,-0.815344,0.346524
4,2,1,2.06313,3.99765,-9.94001e-06,0.200591,5.05136,-0.024567,-3.22765,-1.84842,1.73493,-3.87425,0.446216,-0.0350173,0.320411
4,2,1,3.3952,3.19239,0.219932,0.0459907,4.0724,1.85184,2.9352,0.236295,0.0535068,3.62882,-0.516849,0.990723,0.337742
4,2,1,-6.32145,2.68844,0.160066,0.0633176,-3.81442,9.03888,1.31396,0.253255,-0.0684612,6.93971,1.83579,0.440423,2.20116
4,2,1,-4.54148,-0.217309,1.86369,-0.409034,0.0885675,-3.10698,-12.3715,-0.753639,-0.275832,-14.544,0.00344558,-0.233405,0.57337
4,2,1,-0.743367,6.86662,-0.19496,-0.0184317,7.54898,2.69258,3.24789,0.437511,0.121848,4.97423,0.830361,0.39615,-0.417087
4,2,1,2.07654,3.2533,0.103762,0.0837251,4.40922,1.95615,-2.57949,-0.10147,-0.0485499,-3.72005,0.479113,-0.433879,-0.0966803
4,2,1,-0.480501,-0.00331725,1.67452,0.764966,-1.53387,1.99113,3.67475,0.0228188,0.0287235,4.64739,0.15721,0.465135,0.487915
4,2,1,1.11584,-5.79333,-0.212675,0.376981,-6.64888,2.45003,3.54368,0.313683,0.144659,5.05472,-0.777178,0.423599,-0.389995
4,2,1,2.39093,1.70258,-0.183288,-0.314006,4.06496,2.34881,2.91375,-0.0230153,-0.18977,5.26307,-1.33645,1.84807,0.292237
4,2,1,0.88022,3.23795,0.179315,0.0205209,3.57684,0.764441,2.74982,0.156077,0.0273373,3.62313,-0.980719,2.16912,-0.37872
4,2,1,-1.27932,7.09751,-0.0490235,0.455487,7.14709,-2.57722,-4.06233,-0.410784,-0.0433739,-5.6171,0.164894,-0.408714,0.23583
4,2,1,0.623158,5.01876,0.194867,0.0365944,4.99458,-16.0815,2.94826,-1.82463,-1.90388,-9.56395,0.291148,-0.155001,0.360694
4,2,1,1.86251,3.92056,0.158781,0.0575693,4.93436,0.681285,4.09563,1.09826,-3.65606,2.09524,0.482473,-0.00448292,0.322397
4,2,1,3.33939,3.52877,0.262622,0.0607689,4.45842,2.23218,3.37107,0.256541,0.0516206,4.05014,-1.2701,1.7162,0.365737
4,2,1,5.0585,4.68315,2.53887,0.128578,8.9709,3.62833,11.0789,1.32555,0.190392,13.8026,-0.126366,0.350541,0.580103
4,2,1,4.99986,2.75557,1.33036,-0.0119951,6.91685,4.23025,5.34568,1.08928,0.0379928,8.80363,-0.700785,0.958812,0.547325
4,2,1,1.95024,3.24732,0.229322,0.0270089,3.53624,1.62575,3.04977,0.230194,0.0319079,3.46966,-1.34015,1.81817,0.333213
4,2,1,2.11055,5.16581,0.225183,0.0767342,6.2013,3.43647,-3.10756,1.22453,-6.27082,5.92438,0.428242,2.12665,-1.75474
4,2,1,10.028,2.55152,-0.0579427,-0.0186516,-2.98054,2.14055,4.33639,0.203596,0.057269,5.47668,0.0078111,0.436528,0.371941
4,2,1,1.80421,3.45533,0.27065,0.0337725,4.14172,3.00203,3.65885,0.26995,0.0620062,4.37924,0.892686,-0.440136,0.355377
4,2,1,-2.76424,-10.7675,-0.741451,-0.141046,-12.927,13.6995,2.51611,0.90934,27.76,15.1973,-0.260938,-0.00175312,0.546274
4,2,1,2.26659,3.88332,0.083697,0.287373,-5.89957,3.07548,7.5942,0.285535,0.141703,9.90558,1.94369,0.273352,2.47758
4,2,1,5.41472,-1.35343,-0.0808605,2.27411,0.928252,2.55844,6.15687,0.338903,0.0735359,7.47381,-0.0148119,0.388691,0.423615
4,2,1,4.53285,3.66527,0.130055,0.0722232,4.95325,-2.1632,-3.34312,-0.11633,-0.0577237,-3.98867,-0.759785,-1.19124,0.379449
4,2,1,2.36669,5.75119,0.132783,0.0812059,6.8845,-8.68015,-0.488627,0.811521,2.16444,0.277436,0.40839,0.00790296,0.400784
4,2,1,0.583762,8.58805,0.307497,0.0165495,8.61973,-7.32584,1.34397,-0.0108636,-0.0260377,-6.96836,0.266022,-5.2323,-4.69173
4,2,1,1.76683,-0.336959,-0.116305,-0.0696435,-1.62311,2.51027,5.65249,0.180271,0.0657051,7.97995,-0.0500539,0.457869,0.308072
Workload Information:
0.5, 3.81296, 3.87583, 2.27713, 1.03321, 0.500884, 1.62568, 1.80856, 1.09966, 2.84771, 1.76371, 2.85469, 1.17437, 2.58049, 1.80979, 2.67232, 1.28661, 2.47642, 1.95892, 1.85795, 1.92912, 2.19539, 2.04301, 2.01562, 2.20498, 2.19371, 2.01148, 1.50578, 2.07573, 2.00832, 0.84475, 3.40524, 2.69364, 1.4952, 0.5, 3.06118, 2.70627, 2.36264, 1.8097, 1.10072, 1.22972, 2.79096, 0.647386, 1.61021, 2.33738, 0.5, 1.14249, 5.76253, 1.72541, 2.42155, 1.60517, 1.01494, 3.29655, 1.93639, 4.99356, 1.79488, 1.67445, 0.580958, 2.14963, 0.806525, 2.0154, 2.61515, 1.24017, 1.8084, 1.91464, 2.40624, 0.806722, 1.47745, 2.20499, 3.51697, 3.2042, 0.789676, 0.59456, 0.96265, 2.6067, 2.31696, 4.87612, 0.643004, 3.43285, 0.620382, 1.21686, 3.3258, 1.96387, 1.44024, 0.94898, 0.5, 2.9513, 2.93378, 2.57022, 2.09572, 0.5, 0.803253, 2.6402, 1.36485, 2.10134, 4.59036, 4.34096, 0.763328, 2.03923, 3.41068, 0.675672, 0.770143, 1.67581, 1.22702, 1.90911, 5.07827, 1.60978, 0.5, 0.5, 2.2436, 1.37725, 3.70589, 2.56693, 1.60633, 1.28532, 3.34844, 2.04848, 1.70325, 3.11451, 0.5, 3.8257, 2.66265, 2.54595, 1.1641, 0.5, 1.30161, 2.53083, 2.19387, 2.97221, 2.09707, 1.40411, 0.801911, 2.8914, 2.64037, 3.34792, 2.11958, 0.5, 0.500726, 3.2597, 3.62041, 2.92232, 0.5, 0.666623, 1.03095, 0.5, 2.42712, 1.97779, 3.12511, 1.82064, 2.14934, 4.48429, 1.75809, 1.56529, 1.12895, 1.55094, 1.51243, 1.7981, 2.43541, 2.2263, 2.13666, 1.52789, 1.87564, 3.47137, 0.836303, 3.2841, 0.5, 3.22641, 0.681832, 2.96647, 1.01755, 2.6172, 1.64574, 2.97296, 0.780062, 2.58977, 2.69655, 2.12138, 1.87539, 1.42695, 1.28997, 2.12806, 2.34382, 2.54858, 1.79019, 2.66604, 0.523303, 2.29381, 2.06349, 1.60978, 1.89733, 1.89669, 2.23891, 2.79868, 3.03558, 2.81649, 1.137, 0.5, 1.71225, 1.36767, 2.66207, 0.611308, 2.16961, 2.12982, 3.05952, 2.52021, 2.09371, 2.37688, 2.11109, 0.698712, 2.19939, 0.5, 1.38675, 4.78868, 0.827206, 0.83915, 3.65821, 0.5, 3.40403, 3.53304, 2.72326, 1.07935, 0.760316, 1.82307, 1.24257, 1.66177, 2.36872, 2.60941, 2.29446, 1.9379, 1.82532, 2.37006, 2.32553, 2.08922, 1.45196, 2.46326, 1.26431, 0.5, 1.20221, 5.76015, 0.810084, 0.632594, 0.603053, 3.04023, 1.39346, 0.89507, 5.43559, 4.12522, 1.91597, 0.5, 0.776778, 3.94175, 0.740289, 3.29175, 4.13465, 1.61764, 1.51594, 0.793463, 0.646556, 3.12918, 4.30524, 1.54304, 0.728343, 0.5, 1.7942, 0.5, 0.54231, 1.24576, 3.8789, 4.25341, 1.57962, 1.22202, 4.17073, 0.58695, 2.40113, 0.756322, 2.86285, 0.5, 2.51082, 2.69678, 1.02573, 2.18458, 3.08209, 3.15324, 1.74242, 2.93218, 1.25367, 0.863003, 2.05549
cpi min/max: 0.5/5.76253
neighbors of 0: 1 6, number of others: 45
neighbors of 1: 0 2 6 7, number of others: 43
neighbors of 2: 1 3 7 8, number of others: 43
neighbors of 3: 2 4 8 9, number of others: 43
neighbors of 4: 3 5 9 10, number of others: 43
neighbors of 5: 4 10 11, number of others: 44
neighbors of 6: 0 1 7 12, number of others: 43
neighbors of 7: 1 2 6 8 12 13, number of others: 41
neighbors of 8: 2 3 7 9 13 14, number of others: 41
neighbors of 9: 3 4 8 10 14 15, number of others: 41
neighbors of 10: 4 5 9 11 15 16, number of others: 41
neighbors of 11: 5 10 16 17, number of others: 43
neighbors of 12: 6 7 13 18, number of others: 43
neighbors of 13: 7 8 12 14 18 19, number of others: 41
neighbors of 14: 8 9 13 15 19 20, number of others: 41
neighbors of 15: 9 10 14 16 20 21, number of others: 41
neighbors of 16: 10 11 15 17 21 22, number of others: 41
neighbors of 17: 11 16 22 23, number of others: 43
neighbors of 18: 12 13 19 24, number of others: 43
neighbors of 19: 13 14 18 20 24 25, number of others: 41
neighbors of 20: 14 15 19 21 25 26, number of others: 41
neighbors of 21: 15 16 20 22 26 27, number of others: 41
neighbors of 22: 16 17 21 23 27 28, number of others: 41
neighbors of 23: 17 22 28 29, number of others: 43
neighbors of 24: 18 19 25 30, number of others: 43
neighbors of 25: 19 20 24 26 30 31, number of others: 41
neighbors of 26: 20 21 25 27 31 32, number of others: 41
neighbors of 27: 21 22 26 28 32 33, number of others: 41
neighbors of 28: 22 23 27 29 33 34, number of others: 41
neighbors of 29: 23 28 34 35, number of others: 43
neighbors of 30: 24 25 31 36, number of others: 43
neighbors of 31: 25 26 30 32 36 37, number of others: 41
neighbors of 32: 26 27 31 33 37 38, number of others: 41
neighbors of 33: 27 28 32 34 38 39, number of others: 41
neighbors of 34: 28 29 33 35 39 40, number of others: 41
neighbors of 35: 29 34 40 41, number of others: 43
neighbors of 36: 30 31 37 42, number of others: 43
neighbors of 37: 31 32 36 38 42 43, number of others: 41
neighbors of 38: 32 33 37 39 43 44, number of others: 41
neighbors of 39: 33 34 38 40 44 45, number of others: 41
neighbors of 40: 34 35 39 41 45 46, number of others: 41
neighbors of 41: 35 40 46 47, number of others: 43
neighbors of 42: 36 37 43, number of others: 44
neighbors of 43: 37 38 42 44, number of others: 43
neighbors of 44: 38 39 43 45, number of others: 43
neighbors of 45: 39 40 44 46, number of others: 43
neighbors of 46: 40 41 45 47, number of others: 43
neighbors of 47: 41 46, number of others: 45
Run model...
Preprocess model 0% ...Preprocess model 16% ...Preprocess model 32% ...Preprocess model 48% ...Preprocess model 66% ...Preprocess model 84% ...Preprocess model 100% ...
Close model 0% ...Close model 9% ...Close model 18% ...Close model 27% ...Close model 36% ...Close model 45% ...Close model 54% ...Close model 63% ...Close model 72% ...Close model 81% ...Close model 91% ...Close model 100% ...
Run param...
Run solver...
Initialize threads 0% ...Initialize threads 100% ...
Push initial solutions 0% ...Push initial solutions 100% ...

Model: 
  expressions = 44729, operands = 116736
  decisions = 13824, constraints = 336, objectives = 1

Param: 
  time limit = 90 sec, no iteration limit
  seed = 601, nb threads = 1, annealing level = 1

Objectives:
  Obj 0: maximize, no bound

Phases:
  Phase 0: time limit = 90 sec, no iteration limit, optimized objective = 0


Computed bounds:
  Obj 0: upper bound = 0.664123


Phase 0:
[0 sec, 0 itr]: infeas = (336, 336, 576), mov = 0, inf < 0.1%, acc < 0.1%, imp = 0

worst case efficiency: 0.998464
[1 sec, 3050 itr]: obj = (0.0152568), mov = 3050, inf = 62.6%, acc = 34.1%, imp = 150

worst case efficiency: 0.609154
[2 sec, 18335 itr]: obj = (0.0387745), mov = 18335, inf = 93.4%, acc = 6.1%, imp = 202

worst case efficiency: 0.623265
[3 sec, 31389 itr]: obj = (0.0504318), mov = 31389, inf = 95.9%, acc = 3.8%, imp = 255

worst case efficiency: 0.630259
[4 sec, 41795 itr]: obj = (0.0618387), mov = 41795, inf = 96.8%, acc = 3.1%, imp = 310

worst case efficiency: 0.637103
[5 sec, 49790 itr]: obj = (0.0658541), mov = 49790, inf = 97.1%, acc = 2.7%, imp = 343

worst case efficiency: 0.639512
[6 sec, 56524 itr]: obj = (0.0694156), mov = 56524, inf = 97.3%, acc = 2.5%, imp = 384

worst case efficiency: 0.641649
[7 sec, 62559 itr]: obj = (0.0784127), mov = 62559, inf = 97.5%, acc = 2.4%, imp = 422

worst case efficiency: 0.647048
[8 sec, 68446 itr]: obj = (0.0819075), mov = 68446, inf = 97.6%, acc = 2.2%, imp = 464

worst case efficiency: 0.649144
[9 sec, 73978 itr]: obj = (0.0837523), mov = 73978, inf = 97.7%, acc = 2.1%, imp = 494

worst case efficiency: 0.650251
[10 sec, 79174 itr]: obj = (0.0875057), mov = 79174, inf = 97.8%, acc = 2.1%, imp = 532

worst case efficiency: 0.652503
[11 sec, 84465 itr]: obj = (0.0888622), mov = 84465, inf = 97.9%, acc = 2%, imp = 566

worst case efficiency: 0.653317
[12 sec, 89507 itr]: obj = (0.0916049), mov = 89507, inf = 97.9%, acc = 2%, imp = 609

worst case efficiency: 0.654963
[13 sec, 94268 itr]: obj = (0.0946664), mov = 94268, inf = 98%, acc = 1.9%, imp = 644

worst case efficiency: 0.6568
[14 sec, 99135 itr]: obj = (0.0983765), mov = 99135, inf = 98%, acc = 1.9%, imp = 685

worst case efficiency: 0.659026
[15 sec, 104387 itr]: obj = (0.100478), mov = 104387, inf = 98.1%, acc = 1.8%, imp = 706

worst case efficiency: 0.660287
[16 sec, 109550 itr]: obj = (0.100478), mov = 109550, inf = 98.2%, acc = 1.7%, imp = 706

worst case efficiency: 0.660287
[17 sec, 114770 itr]: obj = (0.10081), mov = 114770, inf = 98.2%, acc = 1.7%, imp = 718

worst case efficiency: 0.660486
[18 sec, 120105 itr]: obj = (0.101908), mov = 120105, inf = 98.3%, acc = 1.6%, imp = 742

worst case efficiency: 0.661145
[19 sec, 125165 itr]: obj = (0.103535), mov = 125165, inf = 98.3%, acc = 1.6%, imp = 780

worst case efficiency: 0.662121
[20 sec, 130303 itr]: obj = (0.104716), mov = 130303, inf = 98.3%, acc = 1.5%, imp = 810

worst case efficiency: 0.66283
[21 sec, 135513 itr]: obj = (0.104939), mov = 135513, inf = 98.4%, acc = 1.5%, imp = 817

worst case efficiency: 0.662964
[22 sec, 140758 itr]: obj = (0.104939), mov = 140758, inf = 98.4%, acc = 1.4%, imp = 817

worst case efficiency: 0.662964
[23 sec, 146078 itr]: obj = (0.104939), mov = 146078, inf = 98.5%, acc = 1.4%, imp = 817

worst case efficiency: 0.662964
[24 sec, 151641 itr]: obj = (0.104939), mov = 151641, inf = 98.5%, acc = 1.4%, imp = 817

worst case efficiency: 0.662964
[25 sec, 157466 itr]: obj = (0.104939), mov = 157466, inf = 98.6%, acc = 1.3%, imp = 817

worst case efficiency: 0.662964
[26 sec, 163347 itr]: obj = (0.104939), mov = 163347, inf = 98.6%, acc = 1.3%, imp = 817

worst case efficiency: 0.662964
[27 sec, 169427 itr]: obj = (0.104939), mov = 169427, inf = 98.6%, acc = 1.3%, imp = 817

worst case efficiency: 0.662964
[28 sec, 176535 itr]: obj = (0.104939), mov = 176535, inf = 98.6%, acc = 1.2%, imp = 817

worst case efficiency: 0.662964
[29 sec, 185039 itr]: obj = (0.104939), mov = 185039, inf = 98.7%, acc = 1.2%, imp = 817

worst case efficiency: 0.662964
[30 sec, 197265 itr]: obj = (0.104966), mov = 197265, inf = 98.7%, acc = 1.1%, imp = 819

worst case efficiency: 0.662979
[31 sec, 215304 itr]: obj = (0.105557), mov = 215304, inf = 98.7%, acc = 1.1%, imp = 843

worst case efficiency: 0.663334
[32 sec, 237262 itr]: obj = (0.108817), mov = 237262, inf = 98.7%, acc = 1.1%, imp = 874

worst case efficiency: 0.66529
[33 sec, 267865 itr]: obj = (0.111258), mov = 267865, inf = 98.7%, acc = 1.1%, imp = 890

worst case efficiency: 0.666755
[34 sec, 299663 itr]: obj = (0.114047), mov = 299663, inf = 98.6%, acc = 1.1%, imp = 908

worst case efficiency: 0.668428
[35 sec, 331150 itr]: obj = (0.114267), mov = 331150, inf = 98.5%, acc = 1.1%, imp = 910

worst case efficiency: 0.66856
[36 sec, 362884 itr]: obj = (0.114267), mov = 362884, inf = 98.5%, acc = 1.1%, imp = 910

worst case efficiency: 0.66856
[37 sec, 394705 itr]: obj = (0.117726), mov = 394705, inf = 98.4%, acc = 1.2%, imp = 925

worst case efficiency: 0.670636
[38 sec, 425912 itr]: obj = (0.118094), mov = 425912, inf = 98.3%, acc = 1.2%, imp = 936

worst case efficiency: 0.670856
[39 sec, 457084 itr]: obj = (0.12151), mov = 457084, inf = 98.3%, acc = 1.2%, imp = 958

worst case efficiency: 0.672906
[40 sec, 488912 itr]: obj = (0.12209), mov = 488912, inf = 98.2%, acc = 1.2%, imp = 971

worst case efficiency: 0.673254
[41 sec, 520732 itr]: obj = (0.125319), mov = 520732, inf = 98.1%, acc = 1.2%, imp = 989

worst case efficiency: 0.675191
[42 sec, 552129 itr]: obj = (0.125401), mov = 552129, inf = 98.1%, acc = 1.2%, imp = 991

worst case efficiency: 0.675241
[43 sec, 583389 itr]: obj = (0.133125), mov = 583389, inf = 98%, acc = 1.2%, imp = 998

worst case efficiency: 0.679875
[44 sec, 614127 itr]: obj = (0.133826), mov = 614127, inf = 98%, acc = 1.3%, imp = 1004

worst case efficiency: 0.680296
[45 sec, 645860 itr]: obj = (0.133887), mov = 645860, inf = 97.9%, acc = 1.3%, imp = 1007

worst case efficiency: 0.680332
[46 sec, 677450 itr]: obj = (0.134339), mov = 677450, inf = 97.9%, acc = 1.3%, imp = 1012

worst case efficiency: 0.680604
[47 sec, 709088 itr]: obj = (0.135918), mov = 709088, inf = 97.9%, acc = 1.3%, imp = 1027

worst case efficiency: 0.681551
[48 sec, 741307 itr]: obj = (0.135977), mov = 741307, inf = 97.8%, acc = 1.3%, imp = 1031

worst case efficiency: 0.681586
[49 sec, 773457 itr]: obj = (0.135993), mov = 773457, inf = 97.8%, acc = 1.2%, imp = 1033

worst case efficiency: 0.681596
[50 sec, 805099 itr]: obj = (0.136141), mov = 805099, inf = 97.8%, acc = 1.2%, imp = 1041

worst case efficiency: 0.681685
[51 sec, 838209 itr]: obj = (0.136162), mov = 838209, inf = 97.7%, acc = 1.2%, imp = 1044

worst case efficiency: 0.681697
[52 sec, 870592 itr]: obj = (0.136377), mov = 870592, inf = 97.7%, acc = 1.2%, imp = 1051

worst case efficiency: 0.681826
[53 sec, 902846 itr]: obj = (0.136634), mov = 902846, inf = 97.7%, acc = 1.2%, imp = 1061

worst case efficiency: 0.68198
[54 sec, 934755 itr]: obj = (0.136786), mov = 934755, inf = 97.7%, acc = 1.2%, imp = 1068

worst case efficiency: 0.682072
[55 sec, 967092 itr]: obj = (0.13714), mov = 967092, inf = 97.7%, acc = 1.2%, imp = 1082

worst case efficiency: 0.682284
[56 sec, 999728 itr]: obj = (0.137221), mov = 999728, inf = 97.7%, acc = 1.2%, imp = 1091

worst case efficiency: 0.682333
[57 sec, 1032222 itr]: obj = (0.137385), mov = 1032222, inf = 97.6%, acc = 1.2%, imp = 1105

worst case efficiency: 0.682431
[58 sec, 1064886 itr]: obj = (0.137447), mov = 1064886, inf = 97.6%, acc = 1.2%, imp = 1115

worst case efficiency: 0.682468
[59 sec, 1097302 itr]: obj = (0.137447), mov = 1097302, inf = 97.6%, acc = 1.2%, imp = 1115

worst case efficiency: 0.682468
[60 sec, 1129017 itr]: obj = (0.137452), mov = 1129017, inf = 97.6%, acc = 1.2%, imp = 1118

worst case efficiency: 0.682471
[61 sec, 1158721 itr]: obj = (0.137471), mov = 1158721, inf = 97.6%, acc = 1.2%, imp = 1123

worst case efficiency: 0.682483
[62 sec, 1189518 itr]: obj = (0.137495), mov = 1189518, inf = 97.6%, acc = 1.2%, imp = 1128

worst case efficiency: 0.682497
[63 sec, 1222274 itr]: obj = (0.137497), mov = 1222274, inf = 97.6%, acc = 1.1%, imp = 1129

worst case efficiency: 0.682498
[64 sec, 1254299 itr]: obj = (0.137497), mov = 1254299, inf = 97.6%, acc = 1.1%, imp = 1129

worst case efficiency: 0.682498
[65 sec, 1286302 itr]: obj = (0.137715), mov = 1286302, inf = 97.6%, acc = 1.1%, imp = 1136

worst case efficiency: 0.682629
[66 sec, 1317537 itr]: obj = (0.137838), mov = 1317537, inf = 97.5%, acc = 1.1%, imp = 1139

worst case efficiency: 0.682703
[67 sec, 1347871 itr]: obj = (0.137838), mov = 1347871, inf = 97.5%, acc = 1.1%, imp = 1140

worst case efficiency: 0.682703
[68 sec, 1379979 itr]: obj = (0.137849), mov = 1379979, inf = 97.5%, acc = 1.1%, imp = 1142

worst case efficiency: 0.682709
[69 sec, 1409040 itr]: obj = (0.138477), mov = 1409040, inf = 97.5%, acc = 1.1%, imp = 1150

worst case efficiency: 0.683086
[70 sec, 1440096 itr]: obj = (0.138477), mov = 1440096, inf = 97.5%, acc = 1.1%, imp = 1150

worst case efficiency: 0.683086
[71 sec, 1470659 itr]: obj = (0.138717), mov = 1470659, inf = 97.5%, acc = 1.1%, imp = 1158

worst case efficiency: 0.68323
[72 sec, 1502594 itr]: obj = (0.138888), mov = 1502594, inf = 97.5%, acc = 1.1%, imp = 1178

worst case efficiency: 0.683333
[73 sec, 1534530 itr]: obj = (0.138904), mov = 1534530, inf = 97.5%, acc = 1.1%, imp = 1180

worst case efficiency: 0.683343
[74 sec, 1566437 itr]: obj = (0.138909), mov = 1566437, inf = 97.5%, acc = 1.1%, imp = 1182

worst case efficiency: 0.683345
[75 sec, 1598851 itr]: obj = (0.138924), mov = 1598851, inf = 97.5%, acc = 1.1%, imp = 1185

worst case efficiency: 0.683354
[76 sec, 1631537 itr]: obj = (0.13894), mov = 1631537, inf = 97.5%, acc = 1.1%, imp = 1188

worst case efficiency: 0.683364
[77 sec, 1663562 itr]: obj = (0.138949), mov = 1663562, inf = 97.5%, acc = 1.1%, imp = 1191

worst case efficiency: 0.68337
[78 sec, 1692700 itr]: obj = (0.138968), mov = 1692700, inf = 97.5%, acc = 1.1%, imp = 1193

worst case efficiency: 0.683381
[79 sec, 1723334 itr]: obj = (0.138979), mov = 1723334, inf = 97.5%, acc = 1.1%, imp = 1195

worst case efficiency: 0.683387
[80 sec, 1753167 itr]: obj = (0.139), mov = 1753167, inf = 97.5%, acc = 1.1%, imp = 1201

worst case efficiency: 0.6834
[81 sec, 1783635 itr]: obj = (0.139735), mov = 1783635, inf = 97.5%, acc = 1.1%, imp = 1208

worst case efficiency: 0.683841
[82 sec, 1814815 itr]: obj = (0.140587), mov = 1814815, inf = 97.5%, acc = 1.1%, imp = 1216

worst case efficiency: 0.684352
[83 sec, 1843777 itr]: obj = (0.141034), mov = 1843777, inf = 97.5%, acc = 1.1%, imp = 1224

worst case efficiency: 0.684621
[84 sec, 1875801 itr]: obj = (0.141043), mov = 1875801, inf = 97.5%, acc = 1.1%, imp = 1225

worst case efficiency: 0.684626
[85 sec, 1905183 itr]: obj = (0.14172), mov = 1905183, inf = 97.5%, acc = 1.1%, imp = 1232

worst case efficiency: 0.685032
[86 sec, 1936726 itr]: obj = (0.14172), mov = 1936726, inf = 97.5%, acc = 1.1%, imp = 1233

worst case efficiency: 0.685032
[87 sec, 1969240 itr]: obj = (0.142743), mov = 1969240, inf = 97.5%, acc = 1.1%, imp = 1254

worst case efficiency: 0.685646
[88 sec, 2001185 itr]: obj = (0.14283), mov = 2001185, inf = 97.5%, acc = 1.1%, imp = 1263

worst case efficiency: 0.685698
[89 sec, 2033705 itr]: obj = (0.142844), mov = 2033705, inf = 97.5%, acc = 1.1%, imp = 1271

worst case efficiency: 0.685706
[90 sec, 2064000 itr]: obj = (0.142864), mov = 2064000, inf = 97.5%, acc = 1.1%, imp = 1276

worst case efficiency: 0.685718
[90 sec, 2064000 itr]: obj = (0.142864), mov = 2064000, inf = 97.5%, acc = 1.1%, imp = 1276

worst case efficiency: 0.685718
2064000 iterations, 2064000 moves performed in 90 seconds
Feasible solution: obj = (0.142864)

Run output...
FINAL SOLUTION
Worst case efficiency: 0.685718
Mapping: 0->29, 1->28, 2->44, 3->14, 4->18, 5->17, 6->30, 7->34, 8->24, 9->21, 10->34, 11->14, 12->23, 13->27, 14->6, 15->10, 16->3, 17->46, 18->19, 19->8, 20->19, 21->24, 22->39, 23->7, 24->46, 25->39, 26->37, 27->40, 28->27, 29->40, 30->36, 31->30, 32->33, 33->11, 34->42, 35->43, 36->40, 37->35, 38->17, 39->43, 40->12, 41->44, 42->41, 43->31, 44->27, 45->47, 46->1, 47->26, 48->5, 49->45, 50->7, 51->18, 52->16, 53->7, 54->39, 55->20, 56->34, 57->17, 58->38, 59->2, 60->38, 61->40, 62->7, 63->31, 64->20, 65->14, 66->4, 67->12, 68->40, 69->38, 70->25, 71->0, 72->30, 73->4, 74->1, 75->33, 76->20, 77->47, 78->37, 79->42, 80->43, 81->14, 82->20, 83->43, 84->35, 85->17, 86->15, 87->44, 88->13, 89->19, 90->29, 91->6, 92->31, 93->0, 94->36, 95->31, 96->16, 97->47, 98->26, 99->22, 100->42, 101->3, 102->26, 103->18, 104->21, 105->28, 106->5, 107->5, 108->35, 109->13, 110->43, 111->8, 112->32, 113->6, 114->2, 115->6, 116->15, 117->24, 118->22, 119->0, 120->15, 121->21, 122->22, 123->42, 124->1, 125->45, 126->22, 127->38, 128->44, 129->38, 130->43, 131->11, 132->9, 133->19, 134->14, 135->21, 136->29, 137->3, 138->26, 139->22, 140->13, 141->36, 142->8, 143->30, 144->1, 145->25, 146->16, 147->45, 148->9, 149->21, 150->14, 151->12, 152->12, 153->1, 154->10, 155->39, 156->45, 157->13, 158->32, 159->37, 160->2, 161->30, 162->8, 163->0, 164->26, 165->0, 166->44, 167->18, 168->9, 169->46, 170->26, 171->27, 172->33, 173->23, 174->28, 175->10, 176->20, 177->8, 178->12, 179->11, 180->37, 181->25, 182->22, 183->10, 184->13, 185->23, 186->17, 187->25, 188->41, 189->25, 190->31, 191->11, 192->28, 193->34, 194->25, 195->45, 196->47, 197->24, 198->4, 199->33, 200->29, 201->19, 202->33, 203->46, 204->32, 205->9, 206->45, 207->15, 208->46, 209->34, 210->41, 211->11, 212->33, 213->2, 214->4, 215->13, 216->6, 217->46, 218->7, 219->11, 220->36, 221->2, 222->12, 223->35, 224->4, 225->37, 226->20, 227->15, 228->40, 229->1, 230->27, 231->10, 232->19, 233->37, 234->9, 235->3, 236->17, 237->36, 238->7, 239->42, 240->41, 241->35, 242->38, 243->41, 244->24, 245->21, 246->9, 247->16, 248->0, 249->23, 250->10, 251->3, 252->15, 253->32, 254->16, 255->24, 256->29, 257->42, 258->44, 259->27, 260->18, 261->47, 262->29, 263->36, 264->5, 265->2, 266->5, 267->39, 268->32, 269->6, 270->23, 271->39, 272->35, 273->5, 274->4, 275->8, 276->30, 277->16, 278->32, 279->3, 280->28, 281->31, 282->28, 283->41, 284->34, 285->47, 286->18, 287->23
Number of tasks per core:
	6	6	6	6	6	6
	6	6	6	6	6	6
	6	6	6	6	6	6
	6	6	6	6	6	6
	6	6	6	6	6	6
	6	6	6	6	6	6
	6	6	6	6	6	6
	6	6	6	6	6	6
Average CPI map:
	0.748472	1.28391	0.958262	0.9313	1.06571	1.33035
	1.60791	2.68176	2.40668	2.72678	2.49621	1.656
	1.54676	2.7493	3.11601	2.7538	2.60995	1.03089
	1.06051	2.14716	2.54672	2.854	2.96182	1.08867
	1.52026	2.45874	3.10643	2.55244	3.26958	0.567462
	1.50534	2.60466	3.06638	2.92736	2.23565	1.0407
	1.25364	2.25496	2.50219	3.13206	2.16307	1.08761
	0.736133	1.60006	3.15473	2.02671	2.14354	0.731392
Efficiency map:
	0.99722	0.852735	0.90635	0.753649	0.93227	1.00307
	0.719782	0.696378	0.685741	0.716746	0.702232	0.843686
	0.846047	0.715034	0.713429	0.706707	0.690728	0.749649
	0.817602	0.685729	0.689883	0.701625	0.741179	0.947967
	0.829975	0.688949	0.689971	0.685718	0.719878	0.74896
	0.779208	0.687084	0.705344	0.721504	0.686104	0.815246
	0.806382	0.685908	0.715941	0.70311	0.689745	0.805955
	0.803036	0.686568	0.806416	0.686022	0.6906	0.772015
==============================================================================
Local Solver optimizer for EML demonstration
==============================================================================

Option values: --wld-idx 11 --global-tlim 90 --seed 601

Starting the Optimization Process
