==============================================================================
LNS optimizer for EML demonstration
==============================================================================

Option values: --wld-idx 12 --prec 10000 --step 0 --global-tlim 90 --global-iter 1000 --local-tlim 3 --local-nsol 1 --restart-base 100 --restart-strat luby --seed 801

Starting the Optimization Process
reserved_tasks None
Finding a first solution
LNS iteration #0 ========================================
- worst case average CPI: 2.102
- worst case efficiency: 0.631
- efficiency to beat: 0.631
- normalized lower bound 593
--- checking solution
--- solution ok! Maximum rounding error: 0.000051
- solution found, obj var is: 654
- de-normalized obj var: 0.639240
- time (local/global): 0.001/0.001
- branches (local/global): 24/24
- fails (local/global): 1/1
- lns time: 0.007000
- lns branches: 24
- lns fails: 1
LNS iteration #1 ========================================
- worst case average CPI: 1.984
- worst case efficiency: 0.632
- efficiency to beat: 0.632
- normalized lower bound 615
--- checking solution
--- solution ok! Maximum rounding error: 0.000104
- solution found, obj var is: 1000
- de-normalized obj var: 0.660000
- time (local/global): 0.001/0.008
- branches (local/global): 20/44
- fails (local/global): 0/1
- lns time: 0.006000
- lns branches: 20
- lns fails: 0
LNS iteration #2 ========================================
- worst case average CPI: 1.984
- worst case efficiency: 0.637
- efficiency to beat: 0.637
- normalized lower bound 707
--- checking solution
--- solution ok! Maximum rounding error: 0.000063
- solution found, obj var is: 732
- de-normalized obj var: 0.643920
- time (local/global): 0.001/0.014
- branches (local/global): 23/67
- fails (local/global): 0/1
- lns time: 0.006000
- lns branches: 23
- lns fails: 0
LNS iteration #3 ========================================
- worst case average CPI: 1.831
- worst case efficiency: 0.639
- efficiency to beat: 0.639
- normalized lower bound 726
--- checking solution
--- solution ok! Maximum rounding error: 0.000107
- solution found, obj var is: 1119
- de-normalized obj var: 0.667140
- time (local/global): 0.001/0.020
- branches (local/global): 27/94
- fails (local/global): 2/3
- lns time: 0.006000
- lns branches: 27
- lns fails: 2
LNS iteration #4 ========================================
- worst case average CPI: 1.831
- worst case efficiency: 0.643
- efficiency to beat: 0.643
- normalized lower bound 800
--- checking solution
--- solution ok! Maximum rounding error: 0.000052
- solution found, obj var is: 1370
- de-normalized obj var: 0.682200
- time (local/global): 0.001/0.026
- branches (local/global): 28/122
- fails (local/global): 3/6
- lns time: 0.006000
- lns branches: 28
- lns fails: 3
LNS iteration #5 ========================================
- worst case average CPI: 1.831
- worst case efficiency: 0.643
- efficiency to beat: 0.643
- normalized lower bound 806
--- checking solution
--- solution ok! Maximum rounding error: 0.000042
- solution found, obj var is: 893
- de-normalized obj var: 0.653580
- time (local/global): 0.000/0.031
- branches (local/global): 16/138
- fails (local/global): 0/6
- lns time: 0.005000
- lns branches: 16
- lns fails: 0
LNS iteration #6 ========================================
- worst case average CPI: 1.831
- worst case efficiency: 0.644
- efficiency to beat: 0.644
- normalized lower bound 816
--- checking solution
--- solution ok! Maximum rounding error: 0.000125
- solution found, obj var is: 958
- de-normalized obj var: 0.657480
- time (local/global): 0.000/0.036
- branches (local/global): 20/158
- fails (local/global): 0/6
- lns time: 0.006000
- lns branches: 20
- lns fails: 0
LNS iteration #7 ========================================
- worst case average CPI: 1.740
- worst case efficiency: 0.644
- efficiency to beat: 0.644
- normalized lower bound 822
--- checking solution
--- solution ok! Maximum rounding error: 0.000042
- solution found, obj var is: 1932
- de-normalized obj var: 0.715920
- time (local/global): 0.001/0.043
- branches (local/global): 29/187
- fails (local/global): 3/9
- lns time: 0.006000
- lns branches: 29
- lns fails: 3
LNS iteration #8 ========================================
- worst case average CPI: 1.740
- worst case efficiency: 0.645
- efficiency to beat: 0.645
- normalized lower bound 840
--- checking solution
--- solution ok! Maximum rounding error: 0.000085
- solution found, obj var is: 1183
- de-normalized obj var: 0.670980
- time (local/global): 0.001/0.049
- branches (local/global): 27/214
- fails (local/global): 2/11
- lns time: 0.007000
- lns branches: 27
- lns fails: 2
LNS iteration #9 ========================================
- worst case average CPI: 1.883
- worst case efficiency: 0.649
- efficiency to beat: 0.649
- normalized lower bound 895
--- checking solution
--- solution ok! Maximum rounding error: 0.000071
- solution found, obj var is: 1265
- de-normalized obj var: 0.675900
- time (local/global): 0.001/0.056
- branches (local/global): 24/238
- fails (local/global): 1/12
- lns time: 0.006000
- lns branches: 24
- lns fails: 1
LNS iteration #10 ========================================
- worst case average CPI: 1.883
- worst case efficiency: 0.649
- efficiency to beat: 0.649
- normalized lower bound 908
--- checking solution
--- solution ok! Maximum rounding error: 0.000468
- solution found, obj var is: 929
- de-normalized obj var: 0.655740
- time (local/global): 0.001/0.062
- branches (local/global): 43/281
- fails (local/global): 11/23
- lns time: 0.006000
- lns branches: 43
- lns fails: 11
LNS iteration #11 ========================================
- worst case average CPI: 1.445
- worst case efficiency: 0.652
- efficiency to beat: 0.652
- normalized lower bound 944
--- checking solution
--- solution ok! Maximum rounding error: 0.000000
- solution found, obj var is: 1039
- de-normalized obj var: 0.662340
- time (local/global): 0.001/0.068
- branches (local/global): 28/309
- fails (local/global): 3/26
- lns time: 0.006000
- lns branches: 28
- lns fails: 3
LNS iteration #12 ========================================
- worst case average CPI: 1.115
- worst case efficiency: 0.655
- efficiency to beat: 0.655
- normalized lower bound 1002
--- checking solution
--- solution ok! Maximum rounding error: 0.000055
- solution found, obj var is: 1009
- de-normalized obj var: 0.660540
- time (local/global): 0.012/0.085
- branches (local/global): 878/1187
- fails (local/global): 402/428
- lns time: 0.017000
- lns branches: 878
- lns fails: 402
LNS iteration #13 ========================================
- worst case average CPI: 1.115
- worst case efficiency: 0.656
- efficiency to beat: 0.656
- normalized lower bound 1019
--- checking solution
--- solution ok! Maximum rounding error: 0.000262
- solution found, obj var is: 1143
- de-normalized obj var: 0.668580
- time (local/global): 0.001/0.091
- branches (local/global): 22/1209
- fails (local/global): 0/428
- lns time: 0.006000
- lns branches: 22
- lns fails: 0
LNS iteration #14 ========================================
- worst case average CPI: 1.115
- worst case efficiency: 0.656
- efficiency to beat: 0.656
- normalized lower bound 1019
--- checking solution
--- solution ok! Maximum rounding error: 0.000084
- solution found, obj var is: 1573
- de-normalized obj var: 0.694380
- time (local/global): 0.001/0.097
- branches (local/global): 22/1231
- fails (local/global): 0/428
- lns time: 0.006000
- lns branches: 22
- lns fails: 0
LNS iteration #15 ========================================
- worst case average CPI: 1.115
- worst case efficiency: 0.659
- efficiency to beat: 0.659
- normalized lower bound 1059
--- checking solution
--- solution ok! Maximum rounding error: 0.000045
- solution found, obj var is: 1095
- de-normalized obj var: 0.665700
- time (local/global): 0.001/0.103
- branches (local/global): 45/1276
- fails (local/global): 12/440
- lns time: 0.006000
- lns branches: 45
- lns fails: 12
LNS iteration #16 ========================================
- worst case average CPI: 1.115
- worst case efficiency: 0.661
- efficiency to beat: 0.661
- normalized lower bound 1094
--- checking solution
--- solution ok! Maximum rounding error: 0.000048
- solution found, obj var is: 1523
- de-normalized obj var: 0.691380
- time (local/global): 0.001/0.109
- branches (local/global): 20/1296
- fails (local/global): 0/440
- lns time: 0.006000
- lns branches: 20
- lns fails: 0
LNS iteration #17 ========================================
- worst case average CPI: 1.115
- worst case efficiency: 0.662
- efficiency to beat: 0.662
- normalized lower bound 1121
--- checking solution
--- solution ok! Maximum rounding error: 0.000092
- solution found, obj var is: 1158
- de-normalized obj var: 0.669480
- time (local/global): 0.002/0.116
- branches (local/global): 95/1391
- fails (local/global): 38/478
- lns time: 0.008000
- lns branches: 95
- lns fails: 38
LNS iteration #18 ========================================
- worst case average CPI: 1.115
- worst case efficiency: 0.662
- efficiency to beat: 0.662
- normalized lower bound 1110
--- checking solution
--- solution ok! Maximum rounding error: 0.000073
- solution found, obj var is: 1192
- de-normalized obj var: 0.671520
- time (local/global): 0.000/0.122
- branches (local/global): 22/1413
- fails (local/global): 0/478
- lns time: 0.006000
- lns branches: 22
- lns fails: 0
LNS iteration #19 ========================================
- worst case average CPI: 1.115
- worst case efficiency: 0.663
- efficiency to beat: 0.663
- normalized lower bound 1142
--- checking solution
--- solution ok! Maximum rounding error: 0.000061
- solution found, obj var is: 1145
- de-normalized obj var: 0.668700
- time (local/global): 0.000/0.128
- branches (local/global): 20/1433
- fails (local/global): 0/478
- lns time: 0.006000
- lns branches: 20
- lns fails: 0
LNS iteration #20 ========================================
- worst case average CPI: 1.115
- worst case efficiency: 0.664
- efficiency to beat: 0.664
- normalized lower bound 1142
--- checking solution
--- solution ok! Maximum rounding error: 0.000075
- solution found, obj var is: 1608
- de-normalized obj var: 0.696480
- time (local/global): 0.001/0.135
- branches (local/global): 22/1455
- fails (local/global): 1/479
- lns time: 0.006000
- lns branches: 22
- lns fails: 1
LNS iteration #21 ========================================
- worst case average CPI: 1.115
- worst case efficiency: 0.665
- efficiency to beat: 0.665
- normalized lower bound 1159
--- checking solution
--- solution ok! Maximum rounding error: 0.000046
- solution found, obj var is: 1182
- de-normalized obj var: 0.670920
- time (local/global): 0.002/0.142
- branches (local/global): 21/1476
- fails (local/global): 0/479
- lns time: 0.011000
- lns branches: 21
- lns fails: 0
LNS iteration #22 ========================================
- worst case average CPI: 1.115
- worst case efficiency: 0.667
- efficiency to beat: 0.667
- normalized lower bound 1205
--- checking solution
--- solution ok! Maximum rounding error: 0.000046
- solution found, obj var is: 1460
- de-normalized obj var: 0.687600
- time (local/global): 0.001/0.152
- branches (local/global): 28/1504
- fails (local/global): 3/482
- lns time: 0.008000
- lns branches: 28
- lns fails: 3
LNS iteration #23 ========================================
- worst case average CPI: 1.115
- worst case efficiency: 0.669
- efficiency to beat: 0.669
- normalized lower bound 1228
--- checking solution
--- solution ok! Maximum rounding error: 0.000068
- solution found, obj var is: 1276
- de-normalized obj var: 0.676560
- time (local/global): 0.001/0.160
- branches (local/global): 33/1537
- fails (local/global): 6/488
- lns time: 0.007000
- lns branches: 33
- lns fails: 6
LNS iteration #24 ========================================
- worst case average CPI: 1.064
- worst case efficiency: 0.669
- efficiency to beat: 0.669
- normalized lower bound 1234
--- checking solution
--- solution ok! Maximum rounding error: 0.000114
- solution found, obj var is: 1242
- de-normalized obj var: 0.674520
- time (local/global): 0.002/0.168
- branches (local/global): 90/1627
- fails (local/global): 35/523
- lns time: 0.011000
- lns branches: 90
- lns fails: 35
LNS iteration #25 ========================================
- worst case average CPI: 1.064
- worst case efficiency: 0.670
- efficiency to beat: 0.670
- normalized lower bound 1247
--- checking solution
--- solution ok! Maximum rounding error: 0.000000
- solution found, obj var is: 1391
- de-normalized obj var: 0.683460
- time (local/global): 0.001/0.178
- branches (local/global): 24/1651
- fails (local/global): 1/524
- lns time: 0.006000
- lns branches: 24
- lns fails: 1
LNS iteration #26 ========================================
- worst case average CPI: 1.064
- worst case efficiency: 0.670
- efficiency to beat: 0.670
- normalized lower bound 1250
--- checking solution
--- solution ok! Maximum rounding error: 0.000049
- solution found, obj var is: 2266
- de-normalized obj var: 0.735960
- time (local/global): 0.001/0.184
- branches (local/global): 24/1675
- fails (local/global): 2/526
- lns time: 0.006000
- lns branches: 24
- lns fails: 2
LNS iteration #27 ========================================
- worst case average CPI: 1.064
- worst case efficiency: 0.671
- efficiency to beat: 0.671
- normalized lower bound 1264
--- checking solution
--- solution ok! Maximum rounding error: 0.000061
- solution found, obj var is: 1491
- de-normalized obj var: 0.689460
- time (local/global): 0.013/0.202
- branches (local/global): 1096/2771
- fails (local/global): 503/1029
- lns time: 0.018000
- lns branches: 1096
- lns fails: 503
LNS iteration #28 ========================================
- worst case average CPI: 1.064
- worst case efficiency: 0.673
- efficiency to beat: 0.673
- normalized lower bound 1308
--- checking solution
--- solution ok! Maximum rounding error: 0.000026
- solution found, obj var is: 1350
- de-normalized obj var: 0.681000
- time (local/global): 0.012/0.219
- branches (local/global): 452/3223
- fails (local/global): 200/1229
- lns time: 0.017000
- lns branches: 452
- lns fails: 200
LNS iteration #29 ========================================
- worst case average CPI: 1.064
- worst case efficiency: 0.674
- efficiency to beat: 0.674
- normalized lower bound 1320
--- checking solution
--- solution ok! Maximum rounding error: 0.000039
- solution found, obj var is: 1422
- de-normalized obj var: 0.685320
- time (local/global): 0.010/0.234
- branches (local/global): 887/4110
- fails (local/global): 409/1638
- lns time: 0.015000
- lns branches: 887
- lns fails: 409
LNS iteration #30 ========================================
- worst case average CPI: 1.064
- worst case efficiency: 0.677
- efficiency to beat: 0.677
- normalized lower bound 1361
--- checking solution
--- solution ok! Maximum rounding error: 0.000048
- solution found, obj var is: 1451
- de-normalized obj var: 0.687060
- time (local/global): 0.038/0.277
- branches (local/global): 2965/7075
- fails (local/global): 1401/3039
- lns time: 0.044000
- lns branches: 2965
- lns fails: 1401
LNS iteration #31 ========================================
- worst case average CPI: 1.064
- worst case efficiency: 0.677
- efficiency to beat: 0.677
- normalized lower bound 1366
--- checking solution
--- solution ok! Maximum rounding error: 0.000053
- solution found, obj var is: 1432
- de-normalized obj var: 0.685920
- time (local/global): 0.004/0.287
- branches (local/global): 160/7235
- fails (local/global): 70/3109
- lns time: 0.012000
- lns branches: 160
- lns fails: 70
LNS iteration #32 ========================================
- worst case average CPI: 1.064
- worst case efficiency: 0.679
- efficiency to beat: 0.679
- normalized lower bound 1398
--- checking solution
--- solution ok! Maximum rounding error: 0.000001
- solution found, obj var is: 1656
- de-normalized obj var: 0.699360
- time (local/global): 0.001/0.296
- branches (local/global): 23/7258
- fails (local/global): 1/3110
- lns time: 0.010000
- lns branches: 23
- lns fails: 1
LNS iteration #33 ========================================
- worst case average CPI: 1.064
- worst case efficiency: 0.681
- efficiency to beat: 0.681
- normalized lower bound 1435
--- checking solution
--- solution ok! Maximum rounding error: 0.000069
- solution found, obj var is: 2210
- de-normalized obj var: 0.732600
- time (local/global): 0.001/0.306
- branches (local/global): 57/7315
- fails (local/global): 18/3128
- lns time: 0.007000
- lns branches: 57
- lns fails: 18
LNS iteration #34 ========================================
- worst case average CPI: 1.064
- worst case efficiency: 0.686
- efficiency to beat: 0.686
- normalized lower bound 1517
--- checking solution
--- solution ok! Maximum rounding error: 0.000085
- solution found, obj var is: 1522
- de-normalized obj var: 0.691320
- time (local/global): 0.001/0.313
- branches (local/global): 18/7333
- fails (local/global): 0/3128
- lns time: 0.011000
- lns branches: 18
- lns fails: 0
LNS iteration #35 ========================================
- worst case average CPI: 1.064
- worst case efficiency: 0.687
- efficiency to beat: 0.687
- normalized lower bound 1528
--- checking solution
--- solution ok! Maximum rounding error: 0.000032
- solution found, obj var is: 1622
- de-normalized obj var: 0.697320
- time (local/global): 0.054/0.377
- branches (local/global): 2987/10320
- fails (local/global): 1409/4537
- lns time: 0.060000
- lns branches: 2987
- lns fails: 1409
LNS iteration #36 ========================================
- worst case average CPI: 1.064
- worst case efficiency: 0.688
- efficiency to beat: 0.688
- normalized lower bound 1559
--- checking solution
--- solution ok! Maximum rounding error: 0.000008
- solution found, obj var is: 1589
- de-normalized obj var: 0.695340
- time (local/global): 0.007/0.390
- branches (local/global): 243/10563
- fails (local/global): 102/4639
- lns time: 0.013000
- lns branches: 243
- lns fails: 102
LNS iteration #37 ========================================
- worst case average CPI: 1.064
- worst case efficiency: 0.689
- efficiency to beat: 0.689
- normalized lower bound 1561
--- checking solution
--- solution ok! Maximum rounding error: 0.000030
- solution found, obj var is: 1705
- de-normalized obj var: 0.702300
- time (local/global): 0.001/0.397
- branches (local/global): 22/10585
- fails (local/global): 1/4640
- lns time: 0.010000
- lns branches: 22
- lns fails: 1
LNS iteration #38 ========================================
- worst case average CPI: 1.064
- worst case efficiency: 0.691
- efficiency to beat: 0.691
- normalized lower bound 1593
--- checking solution
--- solution ok! Maximum rounding error: 0.000088
- solution found, obj var is: 1599
- de-normalized obj var: 0.695940
- time (local/global): 0.002/0.408
- branches (local/global): 79/10664
- fails (local/global): 29/4669
- lns time: 0.009000
- lns branches: 79
- lns fails: 29
LNS iteration #39 ========================================
- worst case average CPI: 1.064
- worst case efficiency: 0.691
- efficiency to beat: 0.691
- normalized lower bound 1601
--- checking solution
--- solution ok! Maximum rounding error: 0.000022
- solution found, obj var is: 2098
- de-normalized obj var: 0.725880
- time (local/global): 0.002/0.417
- branches (local/global): 27/10691
- fails (local/global): 3/4672
- lns time: 0.012000
- lns branches: 27
- lns fails: 3
LNS iteration #40 ========================================
- worst case average CPI: 1.064
- worst case efficiency: 0.689
- efficiency to beat: 0.689
- normalized lower bound 1572
- lns time: 3.005000
- lns branches: 158008
- lns fails: 77174
LNS iteration #41 ========================================
- worst case average CPI: 1.064
- worst case efficiency: 0.689
- efficiency to beat: 0.689
- normalized lower bound 1572
--- checking solution
--- solution ok! Maximum rounding error: 0.000137
- solution found, obj var is: 1708
- de-normalized obj var: 0.702480
- time (local/global): 0.002/3.434
- branches (local/global): 24/168723
- fails (local/global): 1/81847
- lns time: 0.011000
- lns branches: 24
- lns fails: 1
LNS iteration #42 ========================================
- worst case average CPI: 1.064
- worst case efficiency: 0.694
- efficiency to beat: 0.694
- normalized lower bound 1654
--- checking solution
--- solution ok! Maximum rounding error: 0.000083
- solution found, obj var is: 1674
- de-normalized obj var: 0.700440
- time (local/global): 0.001/3.444
- branches (local/global): 66/168789
- fails (local/global): 27/81874
- lns time: 0.031000
- lns branches: 66
- lns fails: 27
LNS iteration #43 ========================================
- worst case average CPI: 1.064
- worst case efficiency: 0.695
- efficiency to beat: 0.695
- normalized lower bound 1663
- lns time: 3.009000
- lns branches: 133204
- lns fails: 65109
LNS iteration #44 ========================================
- worst case average CPI: 1.064
- worst case efficiency: 0.695
- efficiency to beat: 0.695
- normalized lower bound 1663
--- checking solution
--- solution ok! Maximum rounding error: 0.000070
- solution found, obj var is: 1711
- de-normalized obj var: 0.702660
- time (local/global): 0.023/6.506
- branches (local/global): 1736/303729
- fails (local/global): 811/147794
- lns time: 0.030000
- lns branches: 1736
- lns fails: 811
LNS iteration #45 ========================================
- worst case average CPI: 1.391
- worst case efficiency: 0.695
- efficiency to beat: 0.695
- normalized lower bound 1669
--- checking solution
--- solution ok! Maximum rounding error: 0.000096
- solution found, obj var is: 1727
- de-normalized obj var: 0.703620
- time (local/global): 0.040/6.553
- branches (local/global): 2778/306507
- fails (local/global): 1309/149103
- lns time: 0.046000
- lns branches: 2778
- lns fails: 1309
LNS iteration #46 ========================================
- worst case average CPI: 1.391
- worst case efficiency: 0.696
- efficiency to beat: 0.696
- normalized lower bound 1676
--- checking solution
--- solution ok! Maximum rounding error: 0.000014
- solution found, obj var is: 2010
- de-normalized obj var: 0.720600
- time (local/global): 0.000/6.559
- branches (local/global): 25/306532
- fails (local/global): 3/149106
- lns time: 0.007000
- lns branches: 25
- lns fails: 3
LNS iteration #47 ========================================
- worst case average CPI: 1.385
- worst case efficiency: 0.699
- efficiency to beat: 0.699
- normalized lower bound 1727
--- checking solution
--- solution ok! Maximum rounding error: 0.000000
- solution found, obj var is: 1760
- de-normalized obj var: 0.705600
- time (local/global): 0.010/6.576
- branches (local/global): 883/307415
- fails (local/global): 404/149510
- lns time: 0.016000
- lns branches: 883
- lns fails: 404
LNS iteration #48 ========================================
- worst case average CPI: 1.385
- worst case efficiency: 0.700
- efficiency to beat: 0.700
- normalized lower bound 1746
--- checking solution
--- solution ok! Maximum rounding error: 0.000022
- solution found, obj var is: 1789
- de-normalized obj var: 0.707340
- time (local/global): 0.546/7.128
- branches (local/global): 33791/341206
- fails (local/global): 16401/165911
- lns time: 0.554000
- lns branches: 33791
- lns fails: 16401
LNS iteration #49 ========================================
- worst case average CPI: 1.385
- worst case efficiency: 0.701
- efficiency to beat: 0.701
- normalized lower bound 1764
--- checking solution
--- solution ok! Maximum rounding error: 0.000015
- solution found, obj var is: 2072
- de-normalized obj var: 0.724320
- time (local/global): 0.000/7.136
- branches (local/global): 24/341230
- fails (local/global): 1/165912
- lns time: 0.006000
- lns branches: 24
- lns fails: 1
LNS iteration #50 ========================================
- worst case average CPI: 1.124
- worst case efficiency: 0.702
- efficiency to beat: 0.702
- normalized lower bound 1781
--- checking solution
--- solution ok! Maximum rounding error: 0.000030
- solution found, obj var is: 1792
- de-normalized obj var: 0.707520
- time (local/global): 0.921/8.063
- branches (local/global): 39702/380932
- fails (local/global): 19371/185283
- lns time: 0.926000
- lns branches: 39702
- lns fails: 19371
LNS iteration #51 ========================================
- worst case average CPI: 1.124
- worst case efficiency: 0.703
- efficiency to beat: 0.703
- normalized lower bound 1795
--- checking solution
--- solution ok! Maximum rounding error: 0.000059
- solution found, obj var is: 1826
- de-normalized obj var: 0.709560
- time (local/global): 0.001/8.069
- branches (local/global): 22/380954
- fails (local/global): 0/185283
- lns time: 0.012000
- lns branches: 22
- lns fails: 0
LNS iteration #52 ========================================
- worst case average CPI: 1.124
- worst case efficiency: 0.704
- efficiency to beat: 0.704
- normalized lower bound 1819
--- checking solution
--- solution ok! Maximum rounding error: 0.000008
- solution found, obj var is: 1819
- de-normalized obj var: 0.709140
- time (local/global): 0.007/8.087
- branches (local/global): 401/381355
- fails (local/global): 182/185465
- lns time: 0.016000
- lns branches: 401
- lns fails: 182
LNS iteration #53 ========================================
- worst case average CPI: 1.124
- worst case efficiency: 0.706
- efficiency to beat: 0.706
- normalized lower bound 1843
--- checking solution
--- solution ok! Maximum rounding error: 0.000051
- solution found, obj var is: 1848
- de-normalized obj var: 0.710880
- time (local/global): 0.001/8.097
- branches (local/global): 21/381376
- fails (local/global): 0/185465
- lns time: 0.015000
- lns branches: 21
- lns fails: 0
LNS iteration #54 ========================================
- worst case average CPI: 1.124
- worst case efficiency: 0.706
- efficiency to beat: 0.706
- normalized lower bound 1844
--- checking solution
--- solution ok! Maximum rounding error: 0.000187
- solution found, obj var is: 1924
- de-normalized obj var: 0.715440
- time (local/global): 0.001/8.112
- branches (local/global): 53/381429
- fails (local/global): 17/185482
- lns time: 0.008000
- lns branches: 53
- lns fails: 17
LNS iteration #55 ========================================
- worst case average CPI: 1.124
- worst case efficiency: 0.707
- efficiency to beat: 0.707
- normalized lower bound 1873
--- checking solution
--- solution ok! Maximum rounding error: 0.000028
- solution found, obj var is: 1887
- de-normalized obj var: 0.713220
- time (local/global): 0.004/8.123
- branches (local/global): 157/381586
- fails (local/global): 68/185550
- lns time: 0.014000
- lns branches: 157
- lns fails: 68
LNS iteration #56 ========================================
- worst case average CPI: 1.124
- worst case efficiency: 0.708
- efficiency to beat: 0.708
- normalized lower bound 1883
--- checking solution
--- solution ok! Maximum rounding error: 0.000050
- solution found, obj var is: 1905
- de-normalized obj var: 0.714300
- time (local/global): 0.007/8.140
- branches (local/global): 339/381925
- fails (local/global): 154/185704
- lns time: 0.012000
- lns branches: 339
- lns fails: 154
LNS iteration #57 ========================================
- worst case average CPI: 1.124
- worst case efficiency: 0.709
- efficiency to beat: 0.709
- normalized lower bound 1908
--- checking solution
--- solution ok! Maximum rounding error: 0.000000
- solution found, obj var is: 1913
- de-normalized obj var: 0.714780
- time (local/global): 0.055/8.200
- branches (local/global): 3405/385330
- fails (local/global): 1618/187322
- lns time: 0.063000
- lns branches: 3405
- lns fails: 1618
LNS iteration #58 ========================================
- worst case average CPI: 1.124
- worst case efficiency: 0.709
- efficiency to beat: 0.709
- normalized lower bound 1909
--- checking solution
--- solution ok! Maximum rounding error: 0.000049
- solution found, obj var is: 1911
- de-normalized obj var: 0.714660
- time (local/global): 0.021/8.229
- branches (local/global): 1083/386413
- fails (local/global): 501/187823
- lns time: 0.029000
- lns branches: 1083
- lns fails: 501
LNS iteration #59 ========================================
- worst case average CPI: 1.124
- worst case efficiency: 0.711
- efficiency to beat: 0.711
- normalized lower bound 1926
--- checking solution
--- solution ok! Maximum rounding error: 0.000041
- solution found, obj var is: 1942
- de-normalized obj var: 0.716520
- time (local/global): 0.029/8.266
- branches (local/global): 1510/387923
- fails (local/global): 711/188534
- lns time: 0.034000
- lns branches: 1510
- lns fails: 711
LNS iteration #60 ========================================
- worst case average CPI: 1.124
- worst case efficiency: 0.711
- efficiency to beat: 0.711
- normalized lower bound 1934
--- checking solution
--- solution ok! Maximum rounding error: 0.000337
- solution found, obj var is: 2234
- de-normalized obj var: 0.734040
- time (local/global): 0.000/8.271
- branches (local/global): 20/387943
- fails (local/global): 2/188536
- lns time: 0.005000
- lns branches: 20
- lns fails: 2
LNS iteration #61 ========================================
- worst case average CPI: 1.124
- worst case efficiency: 0.714
- efficiency to beat: 0.714
- normalized lower bound 1987
--- checking solution
--- solution ok! Maximum rounding error: 0.000056
- solution found, obj var is: 2007
- de-normalized obj var: 0.720420
- time (local/global): 0.014/8.290
- branches (local/global): 867/388810
- fails (local/global): 400/188936
- lns time: 0.019000
- lns branches: 867
- lns fails: 400
LNS iteration #62 ========================================
- worst case average CPI: 1.124
- worst case efficiency: 0.714
- efficiency to beat: 0.714
- normalized lower bound 1990
--- checking solution
--- solution ok! Maximum rounding error: 0.000000
- solution found, obj var is: 2094
- de-normalized obj var: 0.725640
- time (local/global): 0.302/8.597
- branches (local/global): 20613/409423
- fails (local/global): 10102/199038
- lns time: 0.307000
- lns branches: 20613
- lns fails: 10102
LNS iteration #63 ========================================
- worst case average CPI: 1.124
- worst case efficiency: 0.715
- efficiency to beat: 0.715
- normalized lower bound 1995
--- checking solution
--- solution ok! Maximum rounding error: 0.000180
- solution found, obj var is: 2072
- de-normalized obj var: 0.724320
- time (local/global): 0.002/8.604
- branches (local/global): 61/409484
- fails (local/global): 21/199059
- lns time: 0.010000
- lns branches: 61
- lns fails: 21
LNS iteration #64 ========================================
- worst case average CPI: 1.124
- worst case efficiency: 0.717
- efficiency to beat: 0.717
- normalized lower bound 2028
--- checking solution
--- solution ok! Maximum rounding error: 0.000050
- solution found, obj var is: 2187
- de-normalized obj var: 0.731220
- time (local/global): 0.000/8.612
- branches (local/global): 24/409508
- fails (local/global): 1/199060
- lns time: 0.006000
- lns branches: 24
- lns fails: 1
LNS iteration #65 ========================================
- worst case average CPI: 1.124
- worst case efficiency: 0.719
- efficiency to beat: 0.719
- normalized lower bound 2068
--- checking solution
--- solution ok! Maximum rounding error: 0.000026
- solution found, obj var is: 2076
- de-normalized obj var: 0.724560
- time (local/global): 0.018/8.636
- branches (local/global): 949/410457
- fails (local/global): 442/199502
- lns time: 0.026000
- lns branches: 949
- lns fails: 442
LNS iteration #66 ========================================
- worst case average CPI: 1.124
- worst case efficiency: 0.721
- efficiency to beat: 0.721
- normalized lower bound 2096
--- checking solution
--- solution ok! Maximum rounding error: 0.000029
- solution found, obj var is: 2170
- de-normalized obj var: 0.730200
- time (local/global): 0.002/8.646
- branches (local/global): 144/410601
- fails (local/global): 62/199564
- lns time: 0.010000
- lns branches: 144
- lns fails: 62
LNS iteration #67 ========================================
- worst case average CPI: 1.124
- worst case efficiency: 0.722
- efficiency to beat: 0.722
- normalized lower bound 2112
--- checking solution
--- solution ok! Maximum rounding error: 0.000084
- solution found, obj var is: 2115
- de-normalized obj var: 0.726900
- time (local/global): 0.650/9.304
- branches (local/global): 40648/451249
- fails (local/global): 19819/219383
- lns time: 0.656000
- lns branches: 40648
- lns fails: 19819
LNS iteration #68 ========================================
- worst case average CPI: 1.057
- worst case efficiency: 0.723
- efficiency to beat: 0.723
- normalized lower bound 2136
--- checking solution
--- solution ok! Maximum rounding error: 0.000029
- solution found, obj var is: 2136
- de-normalized obj var: 0.728160
- time (local/global): 0.005/9.315
- branches (local/global): 241/451490
- fails (local/global): 104/219487
- lns time: 0.010000
- lns branches: 241
- lns fails: 104
LNS iteration #69 ========================================
- worst case average CPI: 1.057
- worst case efficiency: 0.723
- efficiency to beat: 0.723
- normalized lower bound 2126
--- checking solution
--- solution ok! Maximum rounding error: 0.000000
- solution found, obj var is: 2152
- de-normalized obj var: 0.729120
- time (local/global): 0.038/9.358
- branches (local/global): 2966/454456
- fails (local/global): 1400/220887
- lns time: 0.043000
- lns branches: 2966
- lns fails: 1400
LNS iteration #70 ========================================
- worst case average CPI: 1.161
- worst case efficiency: 0.725
- efficiency to beat: 0.725
- normalized lower bound 2165
--- checking solution
--- solution ok! Maximum rounding error: 0.000011
- solution found, obj var is: 2203
- de-normalized obj var: 0.732180
- time (local/global): 0.001/9.364
- branches (local/global): 26/454482
- fails (local/global): 4/220891
- lns time: 0.007000
- lns branches: 26
- lns fails: 4
LNS iteration #71 ========================================
- worst case average CPI: 1.161
- worst case efficiency: 0.727
- efficiency to beat: 0.727
- normalized lower bound 2202
--- checking solution
--- solution ok! Maximum rounding error: 0.000000
- solution found, obj var is: 2276
- de-normalized obj var: 0.736560
- time (local/global): 0.002/9.372
- branches (local/global): 58/454540
- fails (local/global): 21/220912
- lns time: 0.007000
- lns branches: 58
- lns fails: 21
LNS iteration #72 ========================================
- worst case average CPI: 1.143
- worst case efficiency: 0.727
- efficiency to beat: 0.727
- normalized lower bound 2204
--- checking solution
--- solution ok! Maximum rounding error: 0.000021
- solution found, obj var is: 2227
- de-normalized obj var: 0.733620
- time (local/global): 0.010/9.387
- branches (local/global): 455/454995
- fails (local/global): 202/221114
- lns time: 0.015000
- lns branches: 455
- lns fails: 202
LNS iteration #73 ========================================
- worst case average CPI: 1.143
- worst case efficiency: 0.728
- efficiency to beat: 0.728
- normalized lower bound 2214
--- checking solution
--- solution ok! Maximum rounding error: 0.000328
- solution found, obj var is: 2419
- de-normalized obj var: 0.745140
- time (local/global): 0.001/9.393
- branches (local/global): 47/455042
- fails (local/global): 13/221127
- lns time: 0.011000
- lns branches: 47
- lns fails: 13
LNS iteration #74 ========================================
- worst case average CPI: 0.854
- worst case efficiency: 0.729
- efficiency to beat: 0.729
- normalized lower bound 2229
--- checking solution
--- solution ok! Maximum rounding error: 0.000158
- solution found, obj var is: 2249
- de-normalized obj var: 0.734940
- time (local/global): 0.716/10.119
- branches (local/global): 28405/483447
- fails (local/global): 13786/234913
- lns time: 0.721000
- lns branches: 28405
- lns fails: 13786
LNS iteration #75 ========================================
- worst case average CPI: 0.854
- worst case efficiency: 0.729
- efficiency to beat: 0.729
- normalized lower bound 2231
--- checking solution
--- solution ok! Maximum rounding error: 0.000047
- solution found, obj var is: 2359
- de-normalized obj var: 0.741540
- time (local/global): 0.001/10.125
- branches (local/global): 22/483469
- fails (local/global): 1/234914
- lns time: 0.006000
- lns branches: 22
- lns fails: 1
LNS iteration #76 ========================================
- worst case average CPI: 0.854
- worst case efficiency: 0.730
- efficiency to beat: 0.730
- normalized lower bound 2245
--- checking solution
--- solution ok! Maximum rounding error: 0.000003
- solution found, obj var is: 2247
- de-normalized obj var: 0.734820
- time (local/global): 0.685/10.815
- branches (local/global): 56744/540213
- fails (local/global): 27606/262520
- lns time: 0.690000
- lns branches: 56744
- lns fails: 27606
LNS iteration #77 ========================================
- worst case average CPI: 1.143
- worst case efficiency: 0.730
- efficiency to beat: 0.730
- normalized lower bound 2254
--- checking solution
--- solution ok! Maximum rounding error: 0.000027
- solution found, obj var is: 2254
- de-normalized obj var: 0.735240
- time (local/global): 0.029/10.849
- branches (local/global): 2244/542457
- fails (local/global): 1062/263582
- lns time: 0.036000
- lns branches: 2244
- lns fails: 1062
LNS iteration #78 ========================================
- worst case average CPI: 0.900
- worst case efficiency: 0.731
- efficiency to beat: 0.731
- normalized lower bound 2267
--- checking solution
--- solution ok! Maximum rounding error: 0.000068
- solution found, obj var is: 2270
- de-normalized obj var: 0.736200
- time (local/global): 0.286/11.142
- branches (local/global): 14060/556517
- fails (local/global): 6819/270401
- lns time: 0.293000
- lns branches: 14060
- lns fails: 6819
LNS iteration #79 ========================================
- worst case average CPI: 0.739
- worst case efficiency: 0.731
- efficiency to beat: 0.731
- normalized lower bound 2262
--- checking solution
--- solution ok! Maximum rounding error: 0.000034
- solution found, obj var is: 2336
- de-normalized obj var: 0.740160
- time (local/global): 0.001/11.150
- branches (local/global): 21/556538
- fails (local/global): 0/270401
- lns time: 0.006000
- lns branches: 21
- lns fails: 0
LNS iteration #80 ========================================
- worst case average CPI: 0.739
- worst case efficiency: 0.731
- efficiency to beat: 0.731
- normalized lower bound 2271
- lns time: 3.005000
- lns branches: 216385
- lns fails: 107005
LNS iteration #81 ========================================
- worst case average CPI: 0.739
- worst case efficiency: 0.731
- efficiency to beat: 0.731
- normalized lower bound 2271
--- checking solution
--- solution ok! Maximum rounding error: 0.000104
- solution found, obj var is: 2319
- de-normalized obj var: 0.739140
- time (local/global): 0.320/14.480
- branches (local/global): 20386/793309
- fails (local/global): 9864/387270
- lns time: 0.326000
- lns branches: 20386
- lns fails: 9864
LNS iteration #82 ========================================
- worst case average CPI: 0.739
- worst case efficiency: 0.732
- efficiency to beat: 0.732
- normalized lower bound 2286
--- checking solution
--- solution ok! Maximum rounding error: 0.000041
- solution found, obj var is: 2296
- de-normalized obj var: 0.737760
- time (local/global): 0.005/14.491
- branches (local/global): 141/793450
- fails (local/global): 61/387331
- lns time: 0.010000
- lns branches: 141
- lns fails: 61
LNS iteration #83 ========================================
- worst case average CPI: 0.739
- worst case efficiency: 0.734
- efficiency to beat: 0.734
- normalized lower bound 2318
--- checking solution
--- solution ok! Maximum rounding error: 0.000031
- solution found, obj var is: 2378
- de-normalized obj var: 0.742680
- time (local/global): 0.009/14.505
- branches (local/global): 486/793936
- fails (local/global): 228/387559
- lns time: 0.014000
- lns branches: 486
- lns fails: 228
LNS iteration #84 ========================================
- worst case average CPI: 0.739
- worst case efficiency: 0.736
- efficiency to beat: 0.736
- normalized lower bound 2356
--- checking solution
--- solution ok! Maximum rounding error: 0.000000
- solution found, obj var is: 2388
- de-normalized obj var: 0.743280
- time (local/global): 1.590/16.100
- branches (local/global): 73781/867717
- fails (local/global): 35952/423511
- lns time: 1.595000
- lns branches: 73781
- lns fails: 35952
LNS iteration #85 ========================================
- worst case average CPI: 0.739
- worst case efficiency: 0.737
- efficiency to beat: 0.737
- normalized lower bound 2362
--- checking solution
--- solution ok! Maximum rounding error: 0.000027
- solution found, obj var is: 2441
- de-normalized obj var: 0.746460
- time (local/global): 0.705/16.810
- branches (local/global): 42148/909865
- fails (local/global): 20514/444025
- lns time: 0.710000
- lns branches: 42148
- lns fails: 20514
LNS iteration #86 ========================================
- worst case average CPI: 0.739
- worst case efficiency: 0.738
- efficiency to beat: 0.738
- normalized lower bound 2380
--- checking solution
--- solution ok! Maximum rounding error: 0.000076
- solution found, obj var is: 2581
- de-normalized obj var: 0.754860
- time (local/global): 0.095/16.910
- branches (local/global): 3814/913679
- fails (local/global): 1800/445825
- lns time: 0.109000
- lns branches: 3814
- lns fails: 1800
LNS iteration #87 ========================================
- worst case average CPI: 0.739
- worst case efficiency: 0.738
- efficiency to beat: 0.738
- normalized lower bound 2388
- lns time: 3.007000
- lns branches: 165848
- lns fails: 81185
LNS iteration #88 ========================================
- worst case average CPI: 0.739
- worst case efficiency: 0.738
- efficiency to beat: 0.738
- normalized lower bound 2388
--- checking solution
--- solution ok! Maximum rounding error: 0.000095
- solution found, obj var is: 2414
- de-normalized obj var: 0.744840
- time (local/global): 0.021/19.952
- branches (local/global): 1081/1080608
- fails (local/global): 501/527511
- lns time: 0.027000
- lns branches: 1081
- lns fails: 501
LNS iteration #89 ========================================
- worst case average CPI: 0.739
- worst case efficiency: 0.738
- efficiency to beat: 0.738
- normalized lower bound 2389
--- checking solution
--- solution ok! Maximum rounding error: 0.000352
- solution found, obj var is: 2436
- de-normalized obj var: 0.746160
- time (local/global): 0.599/20.557
- branches (local/global): 32782/1113390
- fails (local/global): 15942/543453
- lns time: 0.605000
- lns branches: 32782
- lns fails: 15942
LNS iteration #90 ========================================
- worst case average CPI: 0.739
- worst case efficiency: 0.739
- efficiency to beat: 0.739
- normalized lower bound 2398
--- checking solution
--- solution ok! Maximum rounding error: 0.000077
- solution found, obj var is: 2419
- de-normalized obj var: 0.745140
- time (local/global): 0.001/20.564
- branches (local/global): 29/1113419
- fails (local/global): 5/543458
- lns time: 0.007000
- lns branches: 29
- lns fails: 5
LNS iteration #91 ========================================
- worst case average CPI: 0.739
- worst case efficiency: 0.739
- efficiency to beat: 0.739
- normalized lower bound 2403
--- checking solution
--- solution ok! Maximum rounding error: 0.000054
- solution found, obj var is: 2406
- de-normalized obj var: 0.744360
- time (local/global): 0.008/20.578
- branches (local/global): 844/1114263
- fails (local/global): 402/543860
- lns time: 0.013000
- lns branches: 844
- lns fails: 402
LNS iteration #92 ========================================
- worst case average CPI: 0.758
- worst case efficiency: 0.740
- efficiency to beat: 0.740
- normalized lower bound 2414
--- checking solution
--- solution ok! Maximum rounding error: 0.000113
- solution found, obj var is: 2442
- de-normalized obj var: 0.746520
- time (local/global): 0.133/20.716
- branches (local/global): 7019/1121282
- fails (local/global): 3370/547230
- lns time: 0.140000
- lns branches: 7019
- lns fails: 3370
LNS iteration #93 ========================================
- worst case average CPI: 0.758
- worst case efficiency: 0.740
- efficiency to beat: 0.740
- normalized lower bound 2417
--- checking solution
--- solution ok! Maximum rounding error: 0.000064
- solution found, obj var is: 2423
- de-normalized obj var: 0.745380
- time (local/global): 0.002/20.725
- branches (local/global): 56/1121338
- fails (local/global): 18/547248
- lns time: 0.007000
- lns branches: 56
- lns fails: 18
LNS iteration #94 ========================================
- worst case average CPI: 0.758
- worst case efficiency: 0.740
- efficiency to beat: 0.740
- normalized lower bound 2423
--- checking solution
--- solution ok! Maximum rounding error: 0.000340
- solution found, obj var is: 2504
- de-normalized obj var: 0.750240
- time (local/global): 0.004/20.734
- branches (local/global): 242/1121580
- fails (local/global): 100/547348
- lns time: 0.009000
- lns branches: 242
- lns fails: 100
LNS iteration #95 ========================================
- worst case average CPI: 0.758
- worst case efficiency: 0.741
- efficiency to beat: 0.741
- normalized lower bound 2435
--- checking solution
--- solution ok! Maximum rounding error: 0.000059
- solution found, obj var is: 2456
- de-normalized obj var: 0.747360
- time (local/global): 0.058/20.797
- branches (local/global): 3229/1124809
- fails (local/global): 1539/548887
- lns time: 0.064000
- lns branches: 3229
- lns fails: 1539
LNS iteration #96 ========================================
- worst case average CPI: 0.758
- worst case efficiency: 0.742
- efficiency to beat: 0.742
- normalized lower bound 2451
- lns time: 3.005000
- lns branches: 193170
- lns fails: 94800
LNS iteration #97 ========================================
- worst case average CPI: 0.758
- worst case efficiency: 0.742
- efficiency to beat: 0.742
- normalized lower bound 2451
--- checking solution
--- solution ok! Maximum rounding error: 0.000065
- solution found, obj var is: 2493
- de-normalized obj var: 0.749580
- time (local/global): 0.163/23.971
- branches (local/global): 8776/1326755
- fails (local/global): 4218/647905
- lns time: 0.169000
- lns branches: 8776
- lns fails: 4218
LNS iteration #98 ========================================
- worst case average CPI: 0.758
- worst case efficiency: 0.742
- efficiency to beat: 0.742
- normalized lower bound 2454
--- checking solution
--- solution ok! Maximum rounding error: 0.000073
- solution found, obj var is: 2517
- de-normalized obj var: 0.751020
- time (local/global): 0.028/24.005
- branches (local/global): 2480/1329235
- fails (local/global): 1186/649091
- lns time: 0.033000
- lns branches: 2480
- lns fails: 1186
LNS iteration #99 ========================================
- worst case average CPI: 0.758
- worst case efficiency: 0.743
- efficiency to beat: 0.743
- normalized lower bound 2474
--- checking solution
--- solution ok! Maximum rounding error: 0.000066
- solution found, obj var is: 2595
- de-normalized obj var: 0.755700
- time (local/global): 0.005/24.015
- branches (local/global): 550/1329785
- fails (local/global): 268/649359
- lns time: 0.009000
- lns branches: 550
- lns fails: 268
LNS iteration #100 ========================================
- worst case average CPI: 0.758
- worst case efficiency: 0.745
- efficiency to beat: 0.745
- normalized lower bound 2492
--- checking solution
--- solution ok! Maximum rounding error: 0.000014
- solution found, obj var is: 3361
- de-normalized obj var: 0.801660
- time (local/global): 0.004/24.023
- branches (local/global): 241/1330026
- fails (local/global): 100/649459
- lns time: 0.012000
- lns branches: 241
- lns fails: 100
LNS iteration #101 ========================================
- worst case average CPI: 0.758
- worst case efficiency: 0.745
- efficiency to beat: 0.745
- normalized lower bound 2500
--- checking solution
--- solution ok! Maximum rounding error: 0.000056
- solution found, obj var is: 2743
- de-normalized obj var: 0.764580
- time (local/global): 0.850/24.881
- branches (local/global): 46489/1376515
- fails (local/global): 22604/672063
- lns time: 0.855000
- lns branches: 46489
- lns fails: 22604
LNS iteration #102 ========================================
- worst case average CPI: 0.996
- worst case efficiency: 0.746
- efficiency to beat: 0.746
- normalized lower bound 2524
--- checking solution
--- solution ok! Maximum rounding error: 0.000004
- solution found, obj var is: 2543
- de-normalized obj var: 0.752580
- time (local/global): 0.305/25.191
- branches (local/global): 20040/1396555
- fails (local/global): 9701/681764
- lns time: 0.310000
- lns branches: 20040
- lns fails: 9701
LNS iteration #103 ========================================
- worst case average CPI: 0.996
- worst case efficiency: 0.746
- efficiency to beat: 0.746
- normalized lower bound 2525
- lns time: 3.005000
- lns branches: 143032
- lns fails: 69950
LNS iteration #104 ========================================
- worst case average CPI: 0.996
- worst case efficiency: 0.746
- efficiency to beat: 0.746
- normalized lower bound 2525
--- checking solution
--- solution ok! Maximum rounding error: 0.000009
- solution found, obj var is: 2561
- de-normalized obj var: 0.753660
- time (local/global): 0.020/28.221
- branches (local/global): 1102/1540689
- fails (local/global): 507/752221
- lns time: 0.025000
- lns branches: 1102
- lns fails: 507
LNS iteration #105 ========================================
- worst case average CPI: 0.996
- worst case efficiency: 0.746
- efficiency to beat: 0.746
- normalized lower bound 2513
- lns time: 3.005000
- lns branches: 152917
- lns fails: 74983
LNS iteration #106 ========================================
- worst case average CPI: 0.996
- worst case efficiency: 0.746
- efficiency to beat: 0.746
- normalized lower bound 2513
--- checking solution
--- solution ok! Maximum rounding error: 0.000332
- solution found, obj var is: 2524
- de-normalized obj var: 0.751440
- time (local/global): 0.001/31.232
- branches (local/global): 26/1693632
- fails (local/global): 2/827206
- lns time: 0.006000
- lns branches: 26
- lns fails: 2
LNS iteration #107 ========================================
- worst case average CPI: 0.996
- worst case efficiency: 0.747
- efficiency to beat: 0.747
- normalized lower bound 2535
--- checking solution
--- solution ok! Maximum rounding error: 0.000211
- solution found, obj var is: 2535
- de-normalized obj var: 0.752100
- time (local/global): 0.020/31.257
- branches (local/global): 1298/1694930
- fails (local/global): 601/827807
- lns time: 0.025000
- lns branches: 1298
- lns fails: 601
LNS iteration #108 ========================================
- worst case average CPI: 0.996
- worst case efficiency: 0.747
- efficiency to beat: 0.747
- normalized lower bound 2538
--- checking solution
--- solution ok! Maximum rounding error: 0.000068
- solution found, obj var is: 2550
- de-normalized obj var: 0.753000
- time (local/global): 0.080/31.342
- branches (local/global): 4507/1699437
- fails (local/global): 2142/829949
- lns time: 0.085000
- lns branches: 4507
- lns fails: 2142
LNS iteration #109 ========================================
- worst case average CPI: 0.996
- worst case efficiency: 0.748
- efficiency to beat: 0.748
- normalized lower bound 2549
- lns time: 3.005000
- lns branches: 168434
- lns fails: 82459
LNS iteration #110 ========================================
- worst case average CPI: 0.996
- worst case efficiency: 0.748
- efficiency to beat: 0.748
- normalized lower bound 2549
--- checking solution
--- solution ok! Maximum rounding error: 0.000127
- solution found, obj var is: 2570
- de-normalized obj var: 0.754200
- time (local/global): 1.695/36.047
- branches (local/global): 131367/1999238
- fails (local/global): 64101/976509
- lns time: 1.701000
- lns branches: 131367
- lns fails: 64101
LNS iteration #111 ========================================
- worst case average CPI: 0.996
- worst case efficiency: 0.749
- efficiency to beat: 0.749
- normalized lower bound 2573
--- checking solution
--- solution ok! Maximum rounding error: 0.000042
- solution found, obj var is: 2577
- de-normalized obj var: 0.754620
- time (local/global): 1.338/37.391
- branches (local/global): 67642/2066880
- fails (local/global): 32957/1009466
- lns time: 1.344000
- lns branches: 67642
- lns fails: 32957
LNS iteration #112 ========================================
- worst case average CPI: 0.986
- worst case efficiency: 0.750
- efficiency to beat: 0.750
- normalized lower bound 2578
--- checking solution
--- solution ok! Maximum rounding error: 0.000042
- solution found, obj var is: 2670
- de-normalized obj var: 0.760200
- time (local/global): 0.304/37.701
- branches (local/global): 17106/2083986
- fails (local/global): 8290/1017756
- lns time: 0.312000
- lns branches: 17106
- lns fails: 8290
LNS iteration #113 ========================================
- worst case average CPI: 0.715
- worst case efficiency: 0.750
- efficiency to beat: 0.750
- normalized lower bound 2592
--- checking solution
--- solution ok! Maximum rounding error: 0.000074
- solution found, obj var is: 2671
- de-normalized obj var: 0.760260
- time (local/global): 0.001/37.710
- branches (local/global): 43/2084029
- fails (local/global): 11/1017767
- lns time: 0.009000
- lns branches: 43
- lns fails: 11
LNS iteration #114 ========================================
- worst case average CPI: 0.715
- worst case efficiency: 0.751
- efficiency to beat: 0.751
- normalized lower bound 2594
--- checking solution
--- solution ok! Maximum rounding error: 0.000067
- solution found, obj var is: 2710
- de-normalized obj var: 0.762600
- time (local/global): 0.004/37.722
- branches (local/global): 255/2084284
- fails (local/global): 109/1017876
- lns time: 0.010000
- lns branches: 255
- lns fails: 109
LNS iteration #115 ========================================
- worst case average CPI: 0.715
- worst case efficiency: 0.752
- efficiency to beat: 0.752
- normalized lower bound 2612
--- checking solution
--- solution ok! Maximum rounding error: 0.000044
- solution found, obj var is: 2616
- de-normalized obj var: 0.756960
- time (local/global): 0.010/37.738
- branches (local/global): 541/2084825
- fails (local/global): 251/1018127
- lns time: 0.015000
- lns branches: 541
- lns fails: 251
LNS iteration #116 ========================================
- worst case average CPI: 0.715
- worst case efficiency: 0.752
- efficiency to beat: 0.752
- normalized lower bound 2611
--- checking solution
--- solution ok! Maximum rounding error: 0.000000
- solution found, obj var is: 2620
- de-normalized obj var: 0.757200
- time (local/global): 0.003/37.746
- branches (local/global): 82/2084907
- fails (local/global): 31/1018158
- lns time: 0.008000
- lns branches: 82
- lns fails: 31
LNS iteration #117 ========================================
- worst case average CPI: 0.715
- worst case efficiency: 0.752
- efficiency to beat: 0.752
- normalized lower bound 2623
--- checking solution
--- solution ok! Maximum rounding error: 0.000021
- solution found, obj var is: 2838
- de-normalized obj var: 0.770280
- time (local/global): 0.014/37.765
- branches (local/global): 1021/2085928
- fails (local/global): 488/1018646
- lns time: 0.019000
- lns branches: 1021
- lns fails: 488
LNS iteration #118 ========================================
- worst case average CPI: 0.715
- worst case efficiency: 0.753
- efficiency to beat: 0.753
- normalized lower bound 2638
--- checking solution
--- solution ok! Maximum rounding error: 0.000072
- solution found, obj var is: 2666
- de-normalized obj var: 0.759960
- time (local/global): 0.004/37.774
- branches (local/global): 233/2086161
- fails (local/global): 100/1018746
- lns time: 0.009000
- lns branches: 233
- lns fails: 100
LNS iteration #119 ========================================
- worst case average CPI: 0.715
- worst case efficiency: 0.754
- efficiency to beat: 0.754
- normalized lower bound 2645
--- checking solution
--- solution ok! Maximum rounding error: 0.000070
- solution found, obj var is: 2661
- de-normalized obj var: 0.759660
- time (local/global): 0.061/37.840
- branches (local/global): 5050/2091211
- fails (local/global): 2401/1021147
- lns time: 0.066000
- lns branches: 5050
- lns fails: 2401
LNS iteration #120 ========================================
- worst case average CPI: 0.715
- worst case efficiency: 0.755
- efficiency to beat: 0.755
- normalized lower bound 2662
--- checking solution
--- solution ok! Maximum rounding error: 0.000010
- solution found, obj var is: 2670
- de-normalized obj var: 0.760200
- time (local/global): 2.750/40.595
- branches (local/global): 138887/2230098
- fails (local/global): 67893/1089040
- lns time: 2.756000
- lns branches: 138887
- lns fails: 67893
LNS iteration #121 ========================================
- worst case average CPI: 0.939
- worst case efficiency: 0.754
- efficiency to beat: 0.754
- normalized lower bound 2658
--- checking solution
--- solution ok! Maximum rounding error: 0.000203
- solution found, obj var is: 3150
- de-normalized obj var: 0.789000
- time (local/global): 0.171/40.772
- branches (local/global): 6724/2236822
- fails (local/global): 3220/1092260
- lns time: 0.183000
- lns branches: 6724
- lns fails: 3220
LNS iteration #122 ========================================
- worst case average CPI: 0.939
- worst case efficiency: 0.755
- efficiency to beat: 0.755
- normalized lower bound 2662
- lns time: 3.007000
- lns branches: 137021
- lns fails: 67027
LNS iteration #123 ========================================
- worst case average CPI: 0.939
- worst case efficiency: 0.755
- efficiency to beat: 0.755
- normalized lower bound 2662
--- checking solution
--- solution ok! Maximum rounding error: 0.000038
- solution found, obj var is: 2721
- de-normalized obj var: 0.763260
- time (local/global): 0.450/44.241
- branches (local/global): 15506/2389349
- fails (local/global): 7526/1166813
- lns time: 0.458000
- lns branches: 15506
- lns fails: 7526
LNS iteration #124 ========================================
- worst case average CPI: 0.939
- worst case efficiency: 0.756
- efficiency to beat: 0.756
- normalized lower bound 2683
--- checking solution
--- solution ok! Maximum rounding error: 0.000046
- solution found, obj var is: 2725
- de-normalized obj var: 0.763500
- time (local/global): 0.002/44.251
- branches (local/global): 31/2389380
- fails (local/global): 6/1166819
- lns time: 0.012000
- lns branches: 31
- lns fails: 6
LNS iteration #125 ========================================
- worst case average CPI: 0.939
- worst case efficiency: 0.757
- efficiency to beat: 0.757
- normalized lower bound 2707
--- checking solution
--- solution ok! Maximum rounding error: 0.000002
- solution found, obj var is: 2779
- de-normalized obj var: 0.766740
- time (local/global): 1.775/46.036
- branches (local/global): 67219/2456599
- fails (local/global): 32755/1199574
- lns time: 1.784000
- lns branches: 67219
- lns fails: 32755
LNS iteration #126 ========================================
- worst case average CPI: 0.939
- worst case efficiency: 0.758
- efficiency to beat: 0.758
- normalized lower bound 2717
- lns time: 3.007000
- lns branches: 128984
- lns fails: 63123
LNS iteration #127 ========================================
- worst case average CPI: 0.939
- worst case efficiency: 0.758
- efficiency to beat: 0.758
- normalized lower bound 2717
--- checking solution
--- solution ok! Maximum rounding error: 0.000046
- solution found, obj var is: 2722
- de-normalized obj var: 0.763320
- time (local/global): 0.017/49.069
- branches (local/global): 450/2586033
- fails (local/global): 201/1262898
- lns time: 0.029000
- lns branches: 450
- lns fails: 201
LNS iteration #128 ========================================
- worst case average CPI: 0.939
- worst case efficiency: 0.759
- efficiency to beat: 0.759
- normalized lower bound 2730
--- checking solution
--- solution ok! Maximum rounding error: 0.000087
- solution found, obj var is: 2732
- de-normalized obj var: 0.763920
- time (local/global): 0.082/49.163
- branches (local/global): 4261/2590294
- fails (local/global): 2015/1264913
- lns time: 0.089000
- lns branches: 4261
- lns fails: 2015
LNS iteration #129 ========================================
- worst case average CPI: 0.939
- worst case efficiency: 0.760
- efficiency to beat: 0.760
- normalized lower bound 2755
--- checking solution
--- solution ok! Maximum rounding error: 0.000016
- solution found, obj var is: 2773
- de-normalized obj var: 0.766380
- time (local/global): 0.041/49.211
- branches (local/global): 1220/2591514
- fails (local/global): 569/1265482
- lns time: 0.056000
- lns branches: 1220
- lns fails: 569
LNS iteration #130 ========================================
- worst case average CPI: 0.939
- worst case efficiency: 0.760
- efficiency to beat: 0.760
- normalized lower bound 2758
--- checking solution
--- solution ok! Maximum rounding error: 0.000051
- solution found, obj var is: 2863
- de-normalized obj var: 0.771780
- time (local/global): 0.115/49.341
- branches (local/global): 5186/2596700
- fails (local/global): 2479/1267961
- lns time: 0.124000
- lns branches: 5186
- lns fails: 2479
LNS iteration #131 ========================================
- worst case average CPI: 0.955
- worst case efficiency: 0.761
- efficiency to beat: 0.761
- normalized lower bound 2760
--- checking solution
--- solution ok! Maximum rounding error: 0.000017
- solution found, obj var is: 2780
- de-normalized obj var: 0.766800
- time (local/global): 0.014/49.364
- branches (local/global): 1163/2597863
- fails (local/global): 540/1268501
- lns time: 0.021000
- lns branches: 1163
- lns fails: 540
LNS iteration #132 ========================================
- worst case average CPI: 0.955
- worst case efficiency: 0.763
- efficiency to beat: 0.763
- normalized lower bound 2793
- lns time: 3.005000
- lns branches: 187796
- lns fails: 92216
LNS iteration #133 ========================================
- worst case average CPI: 0.955
- worst case efficiency: 0.763
- efficiency to beat: 0.763
- normalized lower bound 2793
--- checking solution
--- solution ok! Maximum rounding error: 0.000067
- solution found, obj var is: 2809
- de-normalized obj var: 0.768540
- time (local/global): 0.003/52.379
- branches (local/global): 226/2785885
- fails (local/global): 101/1360818
- lns time: 0.008000
- lns branches: 226
- lns fails: 101
LNS iteration #134 ========================================
- worst case average CPI: 0.955
- worst case efficiency: 0.763
- efficiency to beat: 0.763
- normalized lower bound 2804
- lns time: 3.006000
- lns branches: 141087
- lns fails: 69073
LNS iteration #135 ========================================
- worst case average CPI: 0.955
- worst case efficiency: 0.763
- efficiency to beat: 0.763
- normalized lower bound 2804
--- checking solution
--- solution ok! Maximum rounding error: 0.000088
- solution found, obj var is: 2808
- de-normalized obj var: 0.768480
- time (local/global): 0.365/55.755
- branches (local/global): 18043/2945015
- fails (local/global): 8747/1438638
- lns time: 0.370000
- lns branches: 18043
- lns fails: 8747
LNS iteration #136 ========================================
- worst case average CPI: 0.955
- worst case efficiency: 0.764
- efficiency to beat: 0.764
- normalized lower bound 2809
- lns time: 3.005000
- lns branches: 183345
- lns fails: 90140
LNS iteration #137 ========================================
- worst case average CPI: 0.955
- worst case efficiency: 0.764
- efficiency to beat: 0.764
- normalized lower bound 2809
- lns time: 3.005000
- lns branches: 247046
- lns fails: 121034
LNS iteration #138 ========================================
- worst case average CPI: 0.955
- worst case efficiency: 0.764
- efficiency to beat: 0.764
- normalized lower bound 2809
--- checking solution
--- solution ok! Maximum rounding error: 0.000067
- solution found, obj var is: 2810
- de-normalized obj var: 0.768600
- time (local/global): 0.414/62.184
- branches (local/global): 28076/3403482
- fails (local/global): 13782/1663594
- lns time: 0.422000
- lns branches: 28076
- lns fails: 13782
LNS iteration #139 ========================================
- worst case average CPI: 0.955
- worst case efficiency: 0.764
- efficiency to beat: 0.764
- normalized lower bound 2812
- lns time: 3.013000
- lns branches: 114828
- lns fails: 56148
LNS iteration #140 ========================================
- worst case average CPI: 0.955
- worst case efficiency: 0.764
- efficiency to beat: 0.764
- normalized lower bound 2812
--- checking solution
--- solution ok! Maximum rounding error: 0.000018
- solution found, obj var is: 2818
- de-normalized obj var: 0.769080
- time (local/global): 0.363/65.568
- branches (local/global): 14919/3533229
- fails (local/global): 7303/1727045
- lns time: 0.368000
- lns branches: 14919
- lns fails: 7303
LNS iteration #141 ========================================
- worst case average CPI: 0.955
- worst case efficiency: 0.765
- efficiency to beat: 0.765
- normalized lower bound 2835
--- checking solution
--- solution ok! Maximum rounding error: 0.000091
- solution found, obj var is: 2858
- de-normalized obj var: 0.771480
- time (local/global): 0.676/66.249
- branches (local/global): 24134/3557363
- fails (local/global): 11703/1738748
- lns time: 0.682000
- lns branches: 24134
- lns fails: 11703
LNS iteration #142 ========================================
- worst case average CPI: 0.955
- worst case efficiency: 0.766
- efficiency to beat: 0.766
- normalized lower bound 2845
- lns time: 3.005000
- lns branches: 132530
- lns fails: 64739
LNS iteration #143 ========================================
- worst case average CPI: 0.955
- worst case efficiency: 0.766
- efficiency to beat: 0.766
- normalized lower bound 2845
- lns time: 3.010000
- lns branches: 155049
- lns fails: 75692
LNS iteration #144 ========================================
- worst case average CPI: 0.955
- worst case efficiency: 0.766
- efficiency to beat: 0.766
- normalized lower bound 2845
--- checking solution
--- solution ok! Maximum rounding error: 0.000052
- solution found, obj var is: 2942
- de-normalized obj var: 0.776520
- time (local/global): 0.075/72.345
- branches (local/global): 2672/3847614
- fails (local/global): 1298/1880477
- lns time: 0.080000
- lns branches: 2672
- lns fails: 1298
LNS iteration #145 ========================================
- worst case average CPI: 0.925
- worst case efficiency: 0.766
- efficiency to beat: 0.766
- normalized lower bound 2851
--- checking solution
--- solution ok! Maximum rounding error: 0.000162
- solution found, obj var is: 2876
- de-normalized obj var: 0.772560
- time (local/global): 0.038/72.388
- branches (local/global): 1323/3848937
- fails (local/global): 614/1881091
- lns time: 0.046000
- lns branches: 1323
- lns fails: 614
LNS iteration #146 ========================================
- worst case average CPI: 0.925
- worst case efficiency: 0.766
- efficiency to beat: 0.766
- normalized lower bound 2858
--- checking solution
--- solution ok! Maximum rounding error: 0.000043
- solution found, obj var is: 2862
- de-normalized obj var: 0.771720
- time (local/global): 0.057/72.453
- branches (local/global): 2801/3851738
- fails (local/global): 1329/1882420
- lns time: 0.066000
- lns branches: 2801
- lns fails: 1329
LNS iteration #147 ========================================
- worst case average CPI: 0.925
- worst case efficiency: 0.767
- efficiency to beat: 0.767
- normalized lower bound 2867
--- checking solution
--- solution ok! Maximum rounding error: 0.000000
- solution found, obj var is: 2886
- de-normalized obj var: 0.773160
- time (local/global): 0.770/73.232
- branches (local/global): 31711/3883449
- fails (local/global): 15357/1897777
- lns time: 0.782000
- lns branches: 31711
- lns fails: 15357
LNS iteration #148 ========================================
- worst case average CPI: 0.925
- worst case efficiency: 0.768
- efficiency to beat: 0.768
- normalized lower bound 2887
--- checking solution
--- solution ok! Maximum rounding error: 0.000058
- solution found, obj var is: 2963
- de-normalized obj var: 0.777780
- time (local/global): 0.427/73.671
- branches (local/global): 14611/3898060
- fails (local/global): 7089/1904866
- lns time: 0.434000
- lns branches: 14611
- lns fails: 7089
LNS iteration #149 ========================================
- worst case average CPI: 0.925
- worst case efficiency: 0.768
- efficiency to beat: 0.768
- normalized lower bound 2885
--- checking solution
--- solution ok! Maximum rounding error: 0.000000
- solution found, obj var is: 2956
- de-normalized obj var: 0.777360
- time (local/global): 0.529/74.207
- branches (local/global): 23691/3921751
- fails (local/global): 11476/1916342
- lns time: 0.544000
- lns branches: 23691
- lns fails: 11476
LNS iteration #150 ========================================
- worst case average CPI: 0.878
- worst case efficiency: 0.770
- efficiency to beat: 0.770
- normalized lower bound 2910
- lns time: 3.007000
- lns branches: 144669
- lns fails: 70673
LNS iteration #151 ========================================
- worst case average CPI: 0.878
- worst case efficiency: 0.770
- efficiency to beat: 0.770
- normalized lower bound 2910
--- checking solution
--- solution ok! Maximum rounding error: 0.000045
- solution found, obj var is: 2932
- de-normalized obj var: 0.775920
- time (local/global): 2.689/79.918
- branches (local/global): 163057/4229477
- fails (local/global): 79798/2066813
- lns time: 2.695000
- lns branches: 163057
- lns fails: 79798
LNS iteration #152 ========================================
- worst case average CPI: 0.878
- worst case efficiency: 0.770
- efficiency to beat: 0.770
- normalized lower bound 2924
--- checking solution
--- solution ok! Maximum rounding error: 0.000045
- solution found, obj var is: 2936
- de-normalized obj var: 0.776160
- time (local/global): 0.040/79.964
- branches (local/global): 2522/4231999
- fails (local/global): 1203/2068016
- lns time: 0.046000
- lns branches: 2522
- lns fails: 1203
LNS iteration #153 ========================================
- worst case average CPI: 0.878
- worst case efficiency: 0.771
- efficiency to beat: 0.771
- normalized lower bound 2939
--- checking solution
--- solution ok! Maximum rounding error: 0.000275
- solution found, obj var is: 3072
- de-normalized obj var: 0.784320
- time (local/global): 0.056/80.026
- branches (local/global): 2692/4234691
- fails (local/global): 1284/2069300
- lns time: 0.062000
- lns branches: 2692
- lns fails: 1284
LNS iteration #154 ========================================
- worst case average CPI: 0.878
- worst case efficiency: 0.772
- efficiency to beat: 0.772
- normalized lower bound 2950
--- checking solution
--- solution ok! Maximum rounding error: 0.000088
- solution found, obj var is: 2950
- de-normalized obj var: 0.777000
- time (local/global): 0.079/80.111
- branches (local/global): 4609/4239300
- fails (local/global): 2240/2071540
- lns time: 0.084000
- lns branches: 4609
- lns fails: 2240
LNS iteration #155 ========================================
- worst case average CPI: 0.878
- worst case efficiency: 0.772
- efficiency to beat: 0.772
- normalized lower bound 2954
- lns time: 3.005000
- lns branches: 184205
- lns fails: 90351
LNS iteration #156 ========================================
- worst case average CPI: 0.878
- worst case efficiency: 0.772
- efficiency to beat: 0.772
- normalized lower bound 2954
- lns time: 3.005000
- lns branches: 163922
- lns fails: 80590
LNS iteration #157 ========================================
- worst case average CPI: 0.878
- worst case efficiency: 0.772
- efficiency to beat: 0.772
- normalized lower bound 2954
--- checking solution
--- solution ok! Maximum rounding error: 0.000042
- solution found, obj var is: 2974
- de-normalized obj var: 0.778440
- time (local/global): 0.214/86.340
- branches (local/global): 17992/4605419
- fails (local/global): 8696/2251177
- lns time: 0.221000
- lns branches: 17992
- lns fails: 8696
LNS iteration #158 ========================================
- worst case average CPI: 0.878
- worst case efficiency: 0.772
- efficiency to beat: 0.772
- normalized lower bound 2955
- lns time: 3.006000
- lns branches: 146832
- lns fails: 71740
LNS iteration #159 ========================================
- worst case average CPI: 0.878
- worst case efficiency: 0.772
- efficiency to beat: 0.772
- normalized lower bound 2955
--- checking solution
--- solution ok! Maximum rounding error: 0.000050
- solution found, obj var is: 3314
- de-normalized obj var: 0.798840
- time (local/global): 0.016/89.369
- branches (local/global): 873/4753124
- fails (local/global): 406/2323323
- lns time: 0.022000
- lns branches: 873
- lns fails: 406
LNS iteration #160 ========================================
- worst case average CPI: 0.878
- worst case efficiency: 0.772
- efficiency to beat: 0.772
- normalized lower bound 2955
- lns time: 0.631000
- lns branches: 32685
- lns fails: 15914

LNS optimization is over========================================
initial worst case average CPI: 2.102
final worst case average CPI: 0.878
initial worst case efficiency: 0.631
final worst case efficiency: 0.772
number of iterations: 161
total time: 90006.000000
total branches: 4785809
total fails: 2339237

Final Solution: 0->28, 1->43, 2->42, 3->5, 4->20, 5->20, 6->0, 7->30, 8->7, 9->6, 10->19, 11->8, 12->6, 13->30, 14->39, 15->10, 16->23, 17->3, 18->17, 19->43, 20->29, 21->27, 22->19, 23->17, 24->30, 25->45, 26->5, 27->37, 28->47, 29->38, 30->2, 31->41, 32->18, 33->8, 34->14, 35->1, 36->26, 37->21, 38->22, 39->45, 40->44, 41->17, 42->9, 43->19, 44->40, 45->1, 46->23, 47->0, 48->37, 49->18, 50->40, 51->33, 52->24, 53->47, 54->8, 55->29, 56->8, 57->26, 58->32, 59->35, 60->23, 61->18, 62->0, 63->9, 64->21, 65->19, 66->42, 67->43, 68->18, 69->22, 70->18, 71->45, 72->44, 73->6, 74->16, 75->8, 76->3, 77->0, 78->5, 79->28, 80->42, 81->34, 82->0, 83->5, 84->38, 85->31, 86->2, 87->40, 88->42, 89->4, 90->22, 91->18, 92->7, 93->6, 94->35, 95->36, 96->16, 97->12, 98->24, 99->23, 100->7, 101->45, 102->36, 103->27, 104->17, 105->34, 106->45, 107->32, 108->16, 109->35, 110->44, 111->17, 112->33, 113->6, 114->32, 115->12, 116->44, 117->20, 118->38, 119->40, 120->13, 121->10, 122->32, 123->29, 124->25, 125->35, 126->4, 127->43, 128->7, 129->35, 130->33, 131->20, 132->14, 133->39, 134->24, 135->17, 136->11, 137->30, 138->27, 139->16, 140->24, 141->33, 142->27, 143->27, 144->3, 145->31, 146->2, 147->41, 148->45, 149->29, 150->5, 151->23, 152->7, 153->10, 154->20, 155->33, 156->12, 157->23, 158->38, 159->10, 160->32, 161->3, 162->6, 163->4, 164->16, 165->22, 166->21, 167->3, 168->37, 169->26, 170->40, 171->4, 172->21, 173->44, 174->9, 175->2, 176->41, 177->15, 178->14, 179->30, 180->1, 181->37, 182->47, 183->5, 184->1, 185->34, 186->46, 187->36, 188->22, 189->24, 190->26, 191->21, 192->32, 193->39, 194->14, 195->44, 196->7, 197->14, 198->25, 199->46, 200->43, 201->28, 202->39, 203->42, 204->37, 205->16, 206->38, 207->27, 208->10, 209->22, 210->25, 211->31, 212->29, 213->11, 214->15, 215->34, 216->19, 217->47, 218->11, 219->41, 220->34, 221->13, 222->24, 223->3, 224->25, 225->30, 226->39, 227->25, 228->46, 229->31, 230->41, 231->12, 232->41, 233->11, 234->29, 235->15, 236->34, 237->46, 238->39, 239->12, 240->4, 241->28, 242->13, 243->13, 244->1, 245->11, 246->11, 247->36, 248->15, 249->28, 250->10, 251->46, 252->12, 253->37, 254->38, 255->36, 256->35, 257->43, 258->36, 259->40, 260->13, 261->2, 262->31, 263->8, 264->15, 265->20, 266->15, 267->28, 268->21, 269->13, 270->14, 271->9, 272->47, 273->4, 274->2, 275->25, 276->31, 277->26, 278->19, 279->0, 280->33, 281->9, 282->9, 283->1, 284->26, 285->46, 286->47, 287->42

Average CPI map:
	7.31,	1.26,	0.88,	1.48,	1.38,	1.53
	1.63,	3.57,	2.64,	4.62,	5.62,	1.61
	1.37,	4.06,	7.42,	7.19,	4.32,	1.52
	1.09,	4.94,	7.35,	7.21,	5.03,	1.59
	1.14,	3.71,	5.46,	6.04,	5.59,	1.16
	1.77,	6.40,	7.39,	5.47,	3.42,	1.40
	1.10,	7.17,	4.79,	5.92,	3.06,	1.70
	1.48,	2.80,	5.65,	3.03,	2.48,	1.27

Efficiency map:
	0.997,	0.921,	0.924,	0.863,	0.913,	1.003
	0.794,	0.776,	0.773,	0.803,	0.779,	0.841
	0.823,	0.808,	0.774,	0.786,	0.776,	0.784
	0.816,	0.778,	0.782,	0.803,	0.799,	0.873
	0.819,	0.781,	0.777,	0.773,	0.787,	0.782
	0.836,	0.799,	0.782,	0.772,	0.785,	0.822
	0.812,	0.778,	0.778,	0.778,	0.776,	0.817
	0.819,	0.776,	0.821,	0.772,	0.778,	0.807
