==============================================================================
LNS optimizer for EML demonstration
==============================================================================

Option values: --wld-idx 6 --prec 10000 --step 0 --global-tlim 90 --global-iter 1000 --local-tlim 3 --local-nsol 1 --restart-base 100 --restart-strat luby --seed 0

Starting the Optimization Process
LNS iteration #0 ========================================
- worst case average CPI: 2.535
- worst case efficiency: 0.650
- efficiency to beat: 0.650
- normalized lower bound 922
--- checking solution
--- solution ok! Maximum rounding error: 0.000068
- solution found, obj var is: 1240
- de-normalized obj var: 0.674400
- time (local/global): 0.001/0.001
- branches (local/global): 22/22
- fails (local/global): 0/0
- lns time: 0.007000
- lns branches: 22
- lns fails: 0
LNS iteration #1 ========================================
- worst case average CPI: 2.283
- worst case efficiency: 0.674
- efficiency to beat: 0.674
- normalized lower bound 1325
--- checking solution
--- solution ok! Maximum rounding error: 0.000029
- solution found, obj var is: 1363
- de-normalized obj var: 0.681780
- time (local/global): 0.003/0.010
- branches (local/global): 1214/1236
- fails (local/global): 565/565
- lns time: 0.028000
- lns branches: 1214
- lns fails: 565
LNS iteration #2 ========================================
- worst case average CPI: 2.378
- worst case efficiency: 0.681
- efficiency to beat: 0.681
- normalized lower bound 1441
--- checking solution
--- solution ok! Maximum rounding error: 0.000036
- solution found, obj var is: 1453
- de-normalized obj var: 0.687180
- time (local/global): 0.001/0.036
- branches (local/global): 233/1469
- fails (local/global): 103/668
- lns time: 0.008000
- lns branches: 233
- lns fails: 103
LNS iteration #3 ========================================
- worst case average CPI: 2.100
- worst case efficiency: 0.682
- efficiency to beat: 0.682
- normalized lower bound 1447
--- checking solution
--- solution ok! Maximum rounding error: 0.000066
- solution found, obj var is: 2281
- de-normalized obj var: 0.736860
- time (local/global): 0.002/0.045
- branches (local/global): 22/1491
- fails (local/global): 0/668
- lns time: 0.006000
- lns branches: 22
- lns fails: 0
LNS iteration #4 ========================================
- worst case average CPI: 1.352
- worst case efficiency: 0.682
- efficiency to beat: 0.682
- normalized lower bound 1459
--- checking solution
--- solution ok! Maximum rounding error: 0.000085
- solution found, obj var is: 3595
- de-normalized obj var: 0.815700
- time (local/global): 0.002/0.051
- branches (local/global): 22/1513
- fails (local/global): 0/668
- lns time: 0.006000
- lns branches: 22
- lns fails: 0
LNS iteration #5 ========================================
- worst case average CPI: 1.352
- worst case efficiency: 0.684
- efficiency to beat: 0.684
- normalized lower bound 1491
--- checking solution
--- solution ok! Maximum rounding error: 0.000058
- solution found, obj var is: 1751
- de-normalized obj var: 0.705060
- time (local/global): 0.002/0.057
- branches (local/global): 80/1593
- fails (local/global): 29/697
- lns time: 0.007000
- lns branches: 80
- lns fails: 29
LNS iteration #6 ========================================
- worst case average CPI: 1.352
- worst case efficiency: 0.689
- efficiency to beat: 0.689
- normalized lower bound 1560
--- checking solution
--- solution ok! Maximum rounding error: 0.000055
- solution found, obj var is: 1598
- de-normalized obj var: 0.695880
- time (local/global): 0.001/0.063
- branches (local/global): 16/1609
- fails (local/global): 0/697
- lns time: 0.005000
- lns branches: 16
- lns fails: 0
LNS iteration #7 ========================================
- worst case average CPI: 1.352
- worst case efficiency: 0.690
- efficiency to beat: 0.690
- normalized lower bound 1583
--- checking solution
--- solution ok! Maximum rounding error: 0.000003
- solution found, obj var is: 2482
- de-normalized obj var: 0.748920
- time (local/global): 0.002/0.069
- branches (local/global): 22/1631
- fails (local/global): 0/697
- lns time: 0.006000
- lns branches: 22
- lns fails: 0
LNS iteration #8 ========================================
- worst case average CPI: 1.352
- worst case efficiency: 0.693
- efficiency to beat: 0.693
- normalized lower bound 1635
--- checking solution
--- solution ok! Maximum rounding error: 0.000085
- solution found, obj var is: 2172
- de-normalized obj var: 0.730320
- time (local/global): 0.002/0.075
- branches (local/global): 247/1878
- fails (local/global): 106/803
- lns time: 0.009000
- lns branches: 247
- lns fails: 106
LNS iteration #9 ========================================
- worst case average CPI: 1.352
- worst case efficiency: 0.695
- efficiency to beat: 0.695
- normalized lower bound 1674
--- checking solution
--- solution ok! Maximum rounding error: 0.000074
- solution found, obj var is: 1750
- de-normalized obj var: 0.705000
- time (local/global): 0.002/0.084
- branches (local/global): 23/1901
- fails (local/global): 0/803
- lns time: 0.006000
- lns branches: 23
- lns fails: 0
LNS iteration #10 ========================================
- worst case average CPI: 1.352
- worst case efficiency: 0.695
- efficiency to beat: 0.695
- normalized lower bound 1659
--- checking solution
--- solution ok! Maximum rounding error: 0.000101
- solution found, obj var is: 2140
- de-normalized obj var: 0.728400
- time (local/global): -0.002/0.086
- branches (local/global): 27/1928
- fails (local/global): 3/806
- lns time: 0.013000
- lns branches: 27
- lns fails: 3
LNS iteration #11 ========================================
- worst case average CPI: 1.352
- worst case efficiency: 0.701
- efficiency to beat: 0.701
- normalized lower bound 1773
--- checking solution
--- solution ok! Maximum rounding error: 0.000002
- solution found, obj var is: 2255
- de-normalized obj var: 0.735300
- time (local/global): 0.005/0.106
- branches (local/global): 20/1948
- fails (local/global): 0/806
- lns time: 0.007000
- lns branches: 20
- lns fails: 0
LNS iteration #12 ========================================
- worst case average CPI: 1.352
- worst case efficiency: 0.703
- efficiency to beat: 0.703
- normalized lower bound 1808
--- checking solution
--- solution ok! Maximum rounding error: 0.000176
- solution found, obj var is: 2535
- de-normalized obj var: 0.752100
- time (local/global): 0.002/0.110
- branches (local/global): 22/1970
- fails (local/global): 0/806
- lns time: 0.006000
- lns branches: 22
- lns fails: 0
LNS iteration #13 ========================================
- worst case average CPI: 1.352
- worst case efficiency: 0.704
- efficiency to beat: 0.704
- normalized lower bound 1816
--- checking solution
--- solution ok! Maximum rounding error: 0.000053
- solution found, obj var is: 1937
- de-normalized obj var: 0.716220
- time (local/global): 0.002/0.116
- branches (local/global): 20/1990
- fails (local/global): 0/806
- lns time: 0.006000
- lns branches: 20
- lns fails: 0
LNS iteration #14 ========================================
- worst case average CPI: 1.472
- worst case efficiency: 0.707
- efficiency to beat: 0.707
- normalized lower bound 1874
--- checking solution
--- solution ok! Maximum rounding error: 0.000146
- solution found, obj var is: 2050
- de-normalized obj var: 0.723000
- time (local/global): 0.003/0.123
- branches (local/global): 2535/4525
- fails (local/global): 1200/2006
- lns time: 0.052000
- lns branches: 2535
- lns fails: 1200
LNS iteration #15 ========================================
- worst case average CPI: 1.472
- worst case efficiency: 0.708
- efficiency to beat: 0.708
- normalized lower bound 1889
--- checking solution
--- solution ok! Maximum rounding error: 0.000095
- solution found, obj var is: 1931
- de-normalized obj var: 0.715860
- time (local/global): 0.002/0.174
- branches (local/global): 21/4546
- fails (local/global): 0/2006
- lns time: 0.006000
- lns branches: 21
- lns fails: 0
LNS iteration #16 ========================================
- worst case average CPI: 1.472
- worst case efficiency: 0.709
- efficiency to beat: 0.709
- normalized lower bound 1897
--- checking solution
--- solution ok! Maximum rounding error: 0.000071
- solution found, obj var is: 1936
- de-normalized obj var: 0.716160
- time (local/global): 0.002/0.180
- branches (local/global): 24/4570
- fails (local/global): 1/2007
- lns time: 0.006000
- lns branches: 24
- lns fails: 1
LNS iteration #17 ========================================
- worst case average CPI: 1.472
- worst case efficiency: 0.716
- efficiency to beat: 0.716
- normalized lower bound 2015
--- checking solution
--- solution ok! Maximum rounding error: 0.000001
- solution found, obj var is: 3644
- de-normalized obj var: 0.818640
- time (local/global): 0.001/0.185
- branches (local/global): 16/4586
- fails (local/global): 0/2007
- lns time: 0.005000
- lns branches: 16
- lns fails: 0
LNS iteration #18 ========================================
- worst case average CPI: 1.472
- worst case efficiency: 0.716
- efficiency to beat: 0.716
- normalized lower bound 2021
--- checking solution
--- solution ok! Maximum rounding error: 0.000000
- solution found, obj var is: 2093
- de-normalized obj var: 0.725580
- time (local/global): 0.003/0.192
- branches (local/global): 237/4823
- fails (local/global): 100/2107
- lns time: 0.008000
- lns branches: 237
- lns fails: 100
LNS iteration #19 ========================================
- worst case average CPI: 1.472
- worst case efficiency: 0.716
- efficiency to beat: 0.716
- normalized lower bound 2025
--- checking solution
--- solution ok! Maximum rounding error: 0.000066
- solution found, obj var is: 3056
- de-normalized obj var: 0.783360
- time (local/global): 0.002/0.199
- branches (local/global): 240/5063
- fails (local/global): 100/2207
- lns time: 0.010000
- lns branches: 240
- lns fails: 100
LNS iteration #20 ========================================
- worst case average CPI: 1.472
- worst case efficiency: 0.720
- efficiency to beat: 0.720
- normalized lower bound 2082
--- checking solution
--- solution ok! Maximum rounding error: 0.000062
- solution found, obj var is: 2827
- de-normalized obj var: 0.769620
- time (local/global): 0.002/0.209
- branches (local/global): 235/5298
- fails (local/global): 100/2307
- lns time: 0.009000
- lns branches: 235
- lns fails: 100
LNS iteration #21 ========================================
- worst case average CPI: 1.314
- worst case efficiency: 0.719
- efficiency to beat: 0.719
- normalized lower bound 2074
--- checking solution
--- solution ok! Maximum rounding error: 0.000061
- solution found, obj var is: 2404
- de-normalized obj var: 0.744240
- time (local/global): 0.003/0.219
- branches (local/global): 76/5374
- fails (local/global): 28/2335
- lns time: 0.006000
- lns branches: 76
- lns fails: 28
LNS iteration #22 ========================================
- worst case average CPI: 1.472
- worst case efficiency: 0.722
- efficiency to beat: 0.722
- normalized lower bound 2110
--- checking solution
--- solution ok! Maximum rounding error: 0.000034
- solution found, obj var is: 3608
- de-normalized obj var: 0.816480
- time (local/global): 0.002/0.224
- branches (local/global): 22/5396
- fails (local/global): 0/2335
- lns time: 0.006000
- lns branches: 22
- lns fails: 0
LNS iteration #23 ========================================
- worst case average CPI: 1.452
- worst case efficiency: 0.725
- efficiency to beat: 0.725
- normalized lower bound 2165
--- checking solution
--- solution ok! Maximum rounding error: 0.000014
- solution found, obj var is: 2401
- de-normalized obj var: 0.744060
- time (local/global): 0.002/0.230
- branches (local/global): 22/5418
- fails (local/global): 0/2335
- lns time: 0.006000
- lns branches: 22
- lns fails: 0
LNS iteration #24 ========================================
- worst case average CPI: 1.309
- worst case efficiency: 0.726
- efficiency to beat: 0.726
- normalized lower bound 2186
--- checking solution
--- solution ok! Maximum rounding error: 0.000076
- solution found, obj var is: 2197
- de-normalized obj var: 0.731820
- time (local/global): 0.002/0.236
- branches (local/global): 25/5443
- fails (local/global): 6/2341
- lns time: 0.005000
- lns branches: 25
- lns fails: 6
LNS iteration #25 ========================================
- worst case average CPI: 1.309
- worst case efficiency: 0.728
- efficiency to beat: 0.728
- normalized lower bound 2213
--- checking solution
--- solution ok! Maximum rounding error: 0.000128
- solution found, obj var is: 2248
- de-normalized obj var: 0.734880
- time (local/global): 0.002/0.241
- branches (local/global): 248/5691
- fails (local/global): 104/2445
- lns time: 0.008000
- lns branches: 248
- lns fails: 104
LNS iteration #26 ========================================
- worst case average CPI: 1.309
- worst case efficiency: 0.729
- efficiency to beat: 0.729
- normalized lower bound 2229
--- checking solution
--- solution ok! Maximum rounding error: 0.000100
- solution found, obj var is: 3836
- de-normalized obj var: 0.830160
- time (local/global): 0.002/0.249
- branches (local/global): 22/5713
- fails (local/global): 0/2445
- lns time: 0.006000
- lns branches: 22
- lns fails: 0
LNS iteration #27 ========================================
- worst case average CPI: 1.389
- worst case efficiency: 0.732
- efficiency to beat: 0.732
- normalized lower bound 2282
--- checking solution
--- solution ok! Maximum rounding error: 0.000068
- solution found, obj var is: 2321
- de-normalized obj var: 0.739260
- time (local/global): 0.002/0.255
- branches (local/global): 22/5735
- fails (local/global): 0/2445
- lns time: 0.008000
- lns branches: 22
- lns fails: 0
LNS iteration #28 ========================================
- worst case average CPI: 1.632
- worst case efficiency: 0.736
- efficiency to beat: 0.736
- normalized lower bound 2349
--- checking solution
--- solution ok! Maximum rounding error: 0.000033
- solution found, obj var is: 2672
- de-normalized obj var: 0.760320
- time (local/global): 0.002/0.263
- branches (local/global): 36/5771
- fails (local/global): 9/2454
- lns time: 0.006000
- lns branches: 36
- lns fails: 9
LNS iteration #29 ========================================
- worst case average CPI: 1.632
- worst case efficiency: 0.739
- efficiency to beat: 0.739
- normalized lower bound 2398
--- checking solution
--- solution ok! Maximum rounding error: 0.000159
- solution found, obj var is: 2612
- de-normalized obj var: 0.756720
- time (local/global): 0.003/0.270
- branches (local/global): 75/5846
- fails (local/global): 26/2480
- lns time: 0.006000
- lns branches: 75
- lns fails: 26
LNS iteration #30 ========================================
- worst case average CPI: 1.632
- worst case efficiency: 0.739
- efficiency to beat: 0.739
- normalized lower bound 2404
--- checking solution
--- solution ok! Maximum rounding error: 0.000019
- solution found, obj var is: 2407
- de-normalized obj var: 0.744420
- time (local/global): 0.003/0.276
- branches (local/global): 48/5894
- fails (local/global): 15/2495
- lns time: 0.006000
- lns branches: 48
- lns fails: 15
LNS iteration #31 ========================================
- worst case average CPI: 1.576
- worst case efficiency: 0.741
- efficiency to beat: 0.741
- normalized lower bound 2436
--- checking solution
--- solution ok! Maximum rounding error: 0.000096
- solution found, obj var is: 2446
- de-normalized obj var: 0.746760
- time (local/global): 0.002/0.281
- branches (local/global): 344/6238
- fails (local/global): 155/2650
- lns time: 0.011000
- lns branches: 344
- lns fails: 155
LNS iteration #32 ========================================
- worst case average CPI: 1.576
- worst case efficiency: 0.744
- efficiency to beat: 0.744
- normalized lower bound 2490
--- checking solution
--- solution ok! Maximum rounding error: 0.000049
- solution found, obj var is: 2647
- de-normalized obj var: 0.758820
- time (local/global): 0.003/0.293
- branches (local/global): 137/6375
- fails (local/global): 57/2707
- lns time: 0.007000
- lns branches: 137
- lns fails: 57
LNS iteration #33 ========================================
- worst case average CPI: 1.576
- worst case efficiency: 0.747
- efficiency to beat: 0.747
- normalized lower bound 2530
--- checking solution
--- solution ok! Maximum rounding error: 0.000061
- solution found, obj var is: 3218
- de-normalized obj var: 0.793080
- time (local/global): 0.003/0.300
- branches (local/global): 458/6833
- fails (local/global): 201/2908
- lns time: 0.011000
- lns branches: 458
- lns fails: 201
LNS iteration #34 ========================================
- worst case average CPI: 1.576
- worst case efficiency: 0.748
- efficiency to beat: 0.748
- normalized lower bound 2551
--- checking solution
--- solution ok! Maximum rounding error: 0.000134
- solution found, obj var is: 3325
- de-normalized obj var: 0.799500
- time (local/global): 0.003/0.311
- branches (local/global): 25/6858
- fails (local/global): 2/2910
- lns time: 0.006000
- lns branches: 25
- lns fails: 2
LNS iteration #35 ========================================
- worst case average CPI: 1.245
- worst case efficiency: 0.751
- efficiency to beat: 0.751
- normalized lower bound 2596
--- checking solution
--- solution ok! Maximum rounding error: 0.000179
- solution found, obj var is: 2873
- de-normalized obj var: 0.772380
- time (local/global): 0.003/0.317
- branches (local/global): 317/7175
- fails (local/global): 139/3049
- lns time: 0.011000
- lns branches: 317
- lns fails: 139
LNS iteration #36 ========================================
- worst case average CPI: 1.245
- worst case efficiency: 0.754
- efficiency to beat: 0.754
- normalized lower bound 2659
--- checking solution
--- solution ok! Maximum rounding error: 0.000027
- solution found, obj var is: 3226
- de-normalized obj var: 0.793560
- time (local/global): 0.001/0.326
- branches (local/global): 442/7617
- fails (local/global): 205/3254
- lns time: 0.010000
- lns branches: 442
- lns fails: 205
LNS iteration #37 ========================================
- worst case average CPI: 1.245
- worst case efficiency: 0.758
- efficiency to beat: 0.758
- normalized lower bound 2714
--- checking solution
--- solution ok! Maximum rounding error: 0.000065
- solution found, obj var is: 3225
- de-normalized obj var: 0.793500
- time (local/global): -0.004/0.331
- branches (local/global): 873/8490
- fails (local/global): 400/3654
- lns time: 0.027000
- lns branches: 873
- lns fails: 400
LNS iteration #38 ========================================
- worst case average CPI: 1.245
- worst case efficiency: 0.759
- efficiency to beat: 0.759
- normalized lower bound 2730
--- checking solution
--- solution ok! Maximum rounding error: 0.000021
- solution found, obj var is: 2771
- de-normalized obj var: 0.766260
- time (local/global): 0.002/0.364
- branches (local/global): 10039/18529
- fails (local/global): 4805/8459
- lns time: 0.120000
- lns branches: 10039
- lns fails: 4805
LNS iteration #39 ========================================
- worst case average CPI: 1.245
- worst case efficiency: 0.760
- efficiency to beat: 0.760
- normalized lower bound 2751
--- checking solution
--- solution ok! Maximum rounding error: 0.000057
- solution found, obj var is: 2785
- de-normalized obj var: 0.767100
- time (local/global): 0.002/0.484
- branches (local/global): 32/18561
- fails (local/global): 6/8465
- lns time: 0.006000
- lns branches: 32
- lns fails: 6
LNS iteration #40 ========================================
- worst case average CPI: 1.245
- worst case efficiency: 0.761
- efficiency to beat: 0.761
- normalized lower bound 2764
--- checking solution
--- solution ok! Maximum rounding error: 0.000030
- solution found, obj var is: 3140
- de-normalized obj var: 0.788400
- time (local/global): 0.001/0.489
- branches (local/global): 15/18576
- fails (local/global): 0/8465
- lns time: 0.005000
- lns branches: 15
- lns fails: 0
LNS iteration #41 ========================================
- worst case average CPI: 1.245
- worst case efficiency: 0.761
- efficiency to beat: 0.761
- normalized lower bound 2769
--- checking solution
--- solution ok! Maximum rounding error: 0.000035
- solution found, obj var is: 2802
- de-normalized obj var: 0.768120
- time (local/global): 0.003/0.496
- branches (local/global): 17549/36125
- fails (local/global): 8500/16965
- lns time: 0.244000
- lns branches: 17549
- lns fails: 8500
LNS iteration #42 ========================================
- worst case average CPI: 1.245
- worst case efficiency: 0.766
- efficiency to beat: 0.766
- normalized lower bound 2846
--- checking solution
--- solution ok! Maximum rounding error: 0.000042
- solution found, obj var is: 3033
- de-normalized obj var: 0.781980
- time (local/global): -0.002/0.735
- branches (local/global): 9631/45756
- fails (local/global): 4600/21565
- lns time: 0.138000
- lns branches: 9631
- lns fails: 4600
LNS iteration #43 ========================================
- worst case average CPI: 1.245
- worst case efficiency: 0.767
- efficiency to beat: 0.767
- normalized lower bound 2872
--- checking solution
--- solution ok! Maximum rounding error: 0.000038
- solution found, obj var is: 2890
- de-normalized obj var: 0.773400
- time (local/global): 0.003/0.878
- branches (local/global): 34634/80390
- fails (local/global): 16862/38427
- lns time: 0.570000
- lns branches: 34634
- lns fails: 16862
LNS iteration #44 ========================================
- worst case average CPI: 1.234
- worst case efficiency: 0.770
- efficiency to beat: 0.770
- normalized lower bound 2912
--- checking solution
--- solution ok! Maximum rounding error: 0.000017
- solution found, obj var is: 2965
- de-normalized obj var: 0.777900
- time (local/global): 0.002/1.447
- branches (local/global): 96/80486
- fails (local/global): 38/38465
- lns time: 0.007000
- lns branches: 96
- lns fails: 38
LNS iteration #45 ========================================
- worst case average CPI: 1.234
- worst case efficiency: 0.768
- efficiency to beat: 0.768
- normalized lower bound 2891
--- checking solution
--- solution ok! Maximum rounding error: 0.000102
- solution found, obj var is: 3535
- de-normalized obj var: 0.812100
- time (local/global): 0.003/1.455
- branches (local/global): 1299/81785
- fails (local/global): 601/39066
- lns time: 0.027000
- lns branches: 1299
- lns fails: 601
LNS iteration #46 ========================================
- worst case average CPI: 1.234
- worst case efficiency: 0.772
- efficiency to beat: 0.772
- normalized lower bound 2945
--- checking solution
--- solution ok! Maximum rounding error: 0.000048
- solution found, obj var is: 3429
- de-normalized obj var: 0.805740
- time (local/global): 0.002/1.481
- branches (local/global): 1681/83466
- fails (local/global): 790/39856
- lns time: 0.040000
- lns branches: 1681
- lns fails: 790
LNS iteration #47 ========================================
- worst case average CPI: 1.234
- worst case efficiency: 0.777
- efficiency to beat: 0.777
- normalized lower bound 3036
--- checking solution
--- solution ok! Maximum rounding error: 0.000000
- solution found, obj var is: 3498
- de-normalized obj var: 0.809880
- time (local/global): 0.003/1.522
- branches (local/global): 6676/90142
- fails (local/global): 3210/43066
- lns time: 0.095000
- lns branches: 6676
- lns fails: 3210
LNS iteration #48 ========================================
- worst case average CPI: 1.234
- worst case efficiency: 0.779
- efficiency to beat: 0.779
- normalized lower bound 3065
--- checking solution
--- solution ok! Maximum rounding error: 0.000087
- solution found, obj var is: 3134
- de-normalized obj var: 0.788040
- time (local/global): 0.003/1.617
- branches (local/global): 2533/92675
- fails (local/global): 1200/44266
- lns time: 0.041000
- lns branches: 2533
- lns fails: 1200
LNS iteration #49 ========================================
- worst case average CPI: 1.234
- worst case efficiency: 0.780
- efficiency to beat: 0.780
- normalized lower bound 3078
--- checking solution
--- solution ok! Maximum rounding error: 0.000176
- solution found, obj var is: 3080
- de-normalized obj var: 0.784800
- time (local/global): 0.001/1.656
- branches (local/global): 26372/119047
- fails (local/global): 12916/57182
- lns time: 0.254000
- lns branches: 26372
- lns fails: 12916
LNS iteration #50 ========================================
- worst case average CPI: 1.234
- worst case efficiency: 0.783
- efficiency to beat: 0.783
- normalized lower bound 3135
--- checking solution
--- solution ok! Maximum rounding error: 0.000228
- solution found, obj var is: 3614
- de-normalized obj var: 0.816840
- time (local/global): 0.002/1.911
- branches (local/global): 866/119913
- fails (local/global): 400/57582
- lns time: 0.016000
- lns branches: 866
- lns fails: 400
LNS iteration #51 ========================================
- worst case average CPI: 1.234
- worst case efficiency: 0.785
- efficiency to beat: 0.785
- normalized lower bound 3166
--- checking solution
--- solution ok! Maximum rounding error: 0.000199
- solution found, obj var is: 3395
- de-normalized obj var: 0.803700
- time (local/global): 0.002/1.927
- branches (local/global): 455/120368
- fails (local/global): 200/57782
- lns time: 0.010000
- lns branches: 455
- lns fails: 200
LNS iteration #52 ========================================
- worst case average CPI: 1.234
- worst case efficiency: 0.785
- efficiency to beat: 0.785
- normalized lower bound 3169
--- checking solution
--- solution ok! Maximum rounding error: 0.000064
- solution found, obj var is: 3211
- de-normalized obj var: 0.792660
- time (local/global): 0.003/1.938
- branches (local/global): 69/120437
- fails (local/global): 24/57806
- lns time: 0.006000
- lns branches: 69
- lns fails: 24
LNS iteration #53 ========================================
- worst case average CPI: 1.234
- worst case efficiency: 0.786
- efficiency to beat: 0.786
- normalized lower bound 3183
--- checking solution
--- solution ok! Maximum rounding error: 0.000061
- solution found, obj var is: 3248
- de-normalized obj var: 0.794880
- time (local/global): 0.002/1.943
- branches (local/global): 1302/121739
- fails (local/global): 601/58407
- lns time: 0.025000
- lns branches: 1302
- lns fails: 601
LNS iteration #54 ========================================
- worst case average CPI: 1.234
- worst case efficiency: 0.788
- efficiency to beat: 0.788
- normalized lower bound 3217
--- checking solution
--- solution ok! Maximum rounding error: 0.000063
- solution found, obj var is: 3228
- de-normalized obj var: 0.793680
- time (local/global): 0.001/1.967
- branches (local/global): 1285/123024
- fails (local/global): 611/59018
- lns time: 0.018000
- lns branches: 1285
- lns fails: 611
LNS iteration #55 ========================================
- worst case average CPI: 1.076
- worst case efficiency: 0.791
- efficiency to beat: 0.791
- normalized lower bound 3270
--- checking solution
--- solution ok! Maximum rounding error: 0.000040
- solution found, obj var is: 3375
- de-normalized obj var: 0.802500
- time (local/global): 0.002/1.986
- branches (local/global): 3818/126842
- fails (local/global): 1801/60819
- lns time: 0.065000
- lns branches: 3818
- lns fails: 1801
LNS iteration #56 ========================================
- worst case average CPI: 1.076
- worst case efficiency: 0.795
- efficiency to beat: 0.795
- normalized lower bound 3327
--- checking solution
--- solution ok! Maximum rounding error: 0.000058
- solution found, obj var is: 3376
- de-normalized obj var: 0.802560
- time (local/global): 0.002/2.051
- branches (local/global): 9232/136074
- fails (local/global): 4423/65242
- lns time: 0.094000
- lns branches: 9232
- lns fails: 4423
LNS iteration #57 ========================================
- worst case average CPI: 1.076
- worst case efficiency: 0.795
- efficiency to beat: 0.795
- normalized lower bound 3329
--- checking solution
--- solution ok! Maximum rounding error: 0.000001
- solution found, obj var is: 3724
- de-normalized obj var: 0.823440
- time (local/global): 0.002/2.145
- branches (local/global): 879/136953
- fails (local/global): 404/65646
- lns time: 0.021000
- lns branches: 879
- lns fails: 404
LNS iteration #58 ========================================
- worst case average CPI: 1.076
- worst case efficiency: 0.797
- efficiency to beat: 0.797
- normalized lower bound 3368
--- checking solution
--- solution ok! Maximum rounding error: 0.000010
- solution found, obj var is: 3456
- de-normalized obj var: 0.807360
- time (local/global): 0.002/2.166
- branches (local/global): 22/136975
- fails (local/global): 0/65646
- lns time: 0.006000
- lns branches: 22
- lns fails: 0
LNS iteration #59 ========================================
- worst case average CPI: 1.076
- worst case efficiency: 0.802
- efficiency to beat: 0.802
- normalized lower bound 3447
--- checking solution
--- solution ok! Maximum rounding error: 0.000027
- solution found, obj var is: 3501
- de-normalized obj var: 0.810060
- time (local/global): 0.004/2.174
- branches (local/global): 334/137309
- fails (local/global): 151/65797
- lns time: 0.011000
- lns branches: 334
- lns fails: 151
LNS iteration #60 ========================================
- worst case average CPI: 1.076
- worst case efficiency: 0.802
- efficiency to beat: 0.802
- normalized lower bound 3458
--- checking solution
--- solution ok! Maximum rounding error: 0.000053
- solution found, obj var is: 3588
- de-normalized obj var: 0.815280
- time (local/global): 0.002/2.183
- branches (local/global): 865/138174
- fails (local/global): 401/66198
- lns time: 0.017000
- lns branches: 865
- lns fails: 401
LNS iteration #61 ========================================
- worst case average CPI: 1.076
- worst case efficiency: 0.803
- efficiency to beat: 0.803
- normalized lower bound 3461
--- checking solution
--- solution ok! Maximum rounding error: 0.000050
- solution found, obj var is: 3535
- de-normalized obj var: 0.812100
- time (local/global): 0.003/2.201
- branches (local/global): 241/138415
- fails (local/global): 105/66303
- lns time: 0.009000
- lns branches: 241
- lns fails: 105
LNS iteration #62 ========================================
- worst case average CPI: 1.076
- worst case efficiency: 0.804
- efficiency to beat: 0.804
- normalized lower bound 3485
--- checking solution
--- solution ok! Maximum rounding error: 0.000008
- solution found, obj var is: 3552
- de-normalized obj var: 0.813120
- time (local/global): 0.003/2.210
- branches (local/global): 1784/140199
- fails (local/global): 836/67139
- lns time: 0.034000
- lns branches: 1784
- lns fails: 836
LNS iteration #63 ========================================
- worst case average CPI: 1.024
- worst case efficiency: 0.806
- efficiency to beat: 0.806
- normalized lower bound 3521
--- checking solution
--- solution ok! Maximum rounding error: 0.000063
- solution found, obj var is: 3554
- de-normalized obj var: 0.813240
- time (local/global): 0.003/2.244
- branches (local/global): 376/140575
- fails (local/global): 170/67309
- lns time: 0.011000
- lns branches: 376
- lns fails: 170
LNS iteration #64 ========================================
- worst case average CPI: 1.024
- worst case efficiency: 0.807
- efficiency to beat: 0.807
- normalized lower bound 3531
- lns time: 3.005000
- lns branches: 201382
- lns fails: 98800
LNS iteration #65 ========================================
- worst case average CPI: 1.024
- worst case efficiency: 0.807
- efficiency to beat: 0.807
- normalized lower bound 3531
--- checking solution
--- solution ok! Maximum rounding error: 0.000061
- solution found, obj var is: 3533
- de-normalized obj var: 0.811980
- time (local/global): 0.003/5.260
- branches (local/global): 3626/345583
- fails (local/global): 1717/167826
- lns time: 0.066000
- lns branches: 3626
- lns fails: 1717
LNS iteration #66 ========================================
- worst case average CPI: 1.024
- worst case efficiency: 0.805
- efficiency to beat: 0.805
- normalized lower bound 3505
--- checking solution
--- solution ok! Maximum rounding error: 0.000035
- solution found, obj var is: 3538
- de-normalized obj var: 0.812280
- time (local/global): 0.002/5.325
- branches (local/global): 5048/350631
- fails (local/global): 2401/170227
- lns time: 0.081000
- lns branches: 5048
- lns fails: 2401
LNS iteration #67 ========================================
- worst case average CPI: 1.024
- worst case efficiency: 0.809
- efficiency to beat: 0.809
- normalized lower bound 3563
--- checking solution
--- solution ok! Maximum rounding error: 0.000059
- solution found, obj var is: 3701
- de-normalized obj var: 0.822060
- time (local/global): 0.002/5.406
- branches (local/global): 282/350913
- fails (local/global): 124/170351
- lns time: 0.011000
- lns branches: 282
- lns fails: 124
LNS iteration #68 ========================================
- worst case average CPI: 1.024
- worst case efficiency: 0.810
- efficiency to beat: 0.810
- normalized lower bound 3586
--- checking solution
--- solution ok! Maximum rounding error: 0.000097
- solution found, obj var is: 3588
- de-normalized obj var: 0.815280
- time (local/global): 0.003/5.418
- branches (local/global): 444/351357
- fails (local/global): 200/170551
- lns time: 0.012000
- lns branches: 444
- lns fails: 200
LNS iteration #69 ========================================
- worst case average CPI: 0.591
- worst case efficiency: 0.811
- efficiency to beat: 0.811
- normalized lower bound 3597
--- checking solution
--- solution ok! Maximum rounding error: 0.000079
- solution found, obj var is: 3682
- de-normalized obj var: 0.820920
- time (local/global): 0.003/5.430
- branches (local/global): 41/351398
- fails (local/global): 11/170562
- lns time: 0.006000
- lns branches: 41
- lns fails: 11
LNS iteration #70 ========================================
- worst case average CPI: 0.591
- worst case efficiency: 0.811
- efficiency to beat: 0.811
- normalized lower bound 3607
--- checking solution
--- solution ok! Maximum rounding error: 0.000499
- solution found, obj var is: 3629
- de-normalized obj var: 0.817740
- time (local/global): 0.001/5.434
- branches (local/global): 50435/401833
- fails (local/global): 24804/195366
- lns time: 0.630000
- lns branches: 50435
- lns fails: 24804
LNS iteration #71 ========================================
- worst case average CPI: 0.591
- worst case efficiency: 0.812
- efficiency to beat: 0.812
- normalized lower bound 3615
--- checking solution
--- solution ok! Maximum rounding error: 0.000125
- solution found, obj var is: 3781
- de-normalized obj var: 0.826860
- time (local/global): 0.003/6.066
- branches (local/global): 3444/405277
- fails (local/global): 1634/197000
- lns time: 0.057000
- lns branches: 3444
- lns fails: 1634
LNS iteration #72 ========================================
- worst case average CPI: 0.591
- worst case efficiency: 0.813
- efficiency to beat: 0.813
- normalized lower bound 3635
- lns time: 3.005000
- lns branches: 212948
- lns fails: 104579
LNS iteration #73 ========================================
- worst case average CPI: 0.591
- worst case efficiency: 0.813
- efficiency to beat: 0.813
- normalized lower bound 3635
--- checking solution
--- solution ok! Maximum rounding error: 0.000068
- solution found, obj var is: 3644
- de-normalized obj var: 0.818640
- time (local/global): 0.002/9.127
- branches (local/global): 2781/621006
- fails (local/global): 1325/302904
- lns time: 0.059000
- lns branches: 2781
- lns fails: 1325
LNS iteration #74 ========================================
- worst case average CPI: 0.591
- worst case efficiency: 0.813
- efficiency to beat: 0.813
- normalized lower bound 3635
--- checking solution
--- solution ok! Maximum rounding error: 0.000000
- solution found, obj var is: 3709
- de-normalized obj var: 0.822540
- time (local/global): 0.001/9.185
- branches (local/global): 242/621248
- fails (local/global): 102/303006
- lns time: 0.009000
- lns branches: 242
- lns fails: 102
LNS iteration #75 ========================================
- worst case average CPI: 0.591
- worst case efficiency: 0.818
- efficiency to beat: 0.818
- normalized lower bound 3714
--- checking solution
--- solution ok! Maximum rounding error: 0.000020
- solution found, obj var is: 3814
- de-normalized obj var: 0.828840
- time (local/global): 0.002/9.195
- branches (local/global): 22/621270
- fails (local/global): 0/303006
- lns time: 0.006000
- lns branches: 22
- lns fails: 0
LNS iteration #76 ========================================
- worst case average CPI: 0.591
- worst case efficiency: 0.818
- efficiency to beat: 0.818
- normalized lower bound 3714
--- checking solution
--- solution ok! Maximum rounding error: 0.000471
- solution found, obj var is: 3824
- de-normalized obj var: 0.829440
- time (local/global): 0.000/9.199
- branches (local/global): 3399/624669
- fails (local/global): 1619/304625
- lns time: 0.058000
- lns branches: 3399
- lns fails: 1619
LNS iteration #77 ========================================
- worst case average CPI: 0.591
- worst case efficiency: 0.818
- efficiency to beat: 0.818
- normalized lower bound 3719
--- checking solution
--- solution ok! Maximum rounding error: 0.000038
- solution found, obj var is: 3719
- de-normalized obj var: 0.823140
- time (local/global): 0.002/9.259
- branches (local/global): 2943/627612
- fails (local/global): 1400/306025
- lns time: 0.044000
- lns branches: 2943
- lns fails: 1400
LNS iteration #78 ========================================
- worst case average CPI: 0.591
- worst case efficiency: 0.819
- efficiency to beat: 0.819
- normalized lower bound 3727
--- checking solution
--- solution ok! Maximum rounding error: 0.000030
- solution found, obj var is: 3735
- de-normalized obj var: 0.824100
- time (local/global): 0.000/9.301
- branches (local/global): 107339/734951
- fails (local/global): 52529/358554
- lns time: 1.613000
- lns branches: 107339
- lns fails: 52529
LNS iteration #79 ========================================
- worst case average CPI: 0.591
- worst case efficiency: 0.819
- efficiency to beat: 0.819
- normalized lower bound 3734
--- checking solution
--- solution ok! Maximum rounding error: 0.000057
- solution found, obj var is: 3747
- de-normalized obj var: 0.824820
- time (local/global): 0.002/10.916
- branches (local/global): 96942/831893
- fails (local/global): 47439/405993
- lns time: 1.478000
- lns branches: 96942
- lns fails: 47439
LNS iteration #80 ========================================
- worst case average CPI: 0.591
- worst case efficiency: 0.819
- efficiency to beat: 0.819
- normalized lower bound 3741
--- checking solution
--- solution ok! Maximum rounding error: 0.000058
- solution found, obj var is: 3807
- de-normalized obj var: 0.828420
- time (local/global): 0.003/12.395
- branches (local/global): 239/832132
- fails (local/global): 101/406094
- lns time: 0.008000
- lns branches: 239
- lns fails: 101
LNS iteration #81 ========================================
- worst case average CPI: 0.591
- worst case efficiency: 0.820
- efficiency to beat: 0.820
- normalized lower bound 3756
--- checking solution
--- solution ok! Maximum rounding error: 0.000141
- solution found, obj var is: 3869
- de-normalized obj var: 0.832140
- time (local/global): 0.003/12.403
- branches (local/global): 47742/879874
- fails (local/global): 23262/429356
- lns time: 0.959000
- lns branches: 47742
- lns fails: 23262
LNS iteration #82 ========================================
- worst case average CPI: 0.591
- worst case efficiency: 0.822
- efficiency to beat: 0.822
- normalized lower bound 3777
--- checking solution
--- solution ok! Maximum rounding error: 0.000029
- solution found, obj var is: 3799
- de-normalized obj var: 0.827940
- time (local/global): 0.002/13.361
- branches (local/global): 24/879898
- fails (local/global): 1/429357
- lns time: 0.006000
- lns branches: 24
- lns fails: 1
LNS iteration #83 ========================================
- worst case average CPI: 0.591
- worst case efficiency: 0.822
- efficiency to beat: 0.822
- normalized lower bound 3779
--- checking solution
--- solution ok! Maximum rounding error: 0.000089
- solution found, obj var is: 3818
- de-normalized obj var: 0.829080
- time (local/global): 0.002/13.367
- branches (local/global): 1992/881890
- fails (local/global): 941/430298
- lns time: 0.035000
- lns branches: 1992
- lns fails: 941
LNS iteration #84 ========================================
- worst case average CPI: 0.591
- worst case efficiency: 0.822
- efficiency to beat: 0.822
- normalized lower bound 3781
- lns time: 3.005000
- lns branches: 157107
- lns fails: 76861
LNS iteration #85 ========================================
- worst case average CPI: 0.591
- worst case efficiency: 0.822
- efficiency to beat: 0.822
- normalized lower bound 3781
- lns time: 3.005000
- lns branches: 231286
- lns fails: 113677
LNS iteration #86 ========================================
- worst case average CPI: 0.591
- worst case efficiency: 0.822
- efficiency to beat: 0.822
- normalized lower bound 3781
--- checking solution
--- solution ok! Maximum rounding error: 0.000033
- solution found, obj var is: 3852
- de-normalized obj var: 0.831120
- time (local/global): 0.002/19.412
- branches (local/global): 24/1270307
- fails (local/global): 1/620837
- lns time: 0.006000
- lns branches: 24
- lns fails: 1
LNS iteration #87 ========================================
- worst case average CPI: 0.591
- worst case efficiency: 0.823
- efficiency to beat: 0.823
- normalized lower bound 3798
--- checking solution
--- solution ok! Maximum rounding error: 0.000070
- solution found, obj var is: 3802
- de-normalized obj var: 0.828120
- time (local/global): 0.002/19.418
- branches (local/global): 41624/1311931
- fails (local/global): 20273/641110
- lns time: 0.504000
- lns branches: 41624
- lns fails: 20273
LNS iteration #88 ========================================
- worst case average CPI: 0.692
- worst case efficiency: 0.823
- efficiency to beat: 0.823
- normalized lower bound 3802
--- checking solution
--- solution ok! Maximum rounding error: 0.000132
- solution found, obj var is: 3807
- de-normalized obj var: 0.828420
- time (local/global): 0.002/19.922
- branches (local/global): 19224/1331155
- fails (local/global): 9301/650411
- lns time: 0.361000
- lns branches: 19224
- lns fails: 9301
LNS iteration #89 ========================================
- worst case average CPI: 0.692
- worst case efficiency: 0.823
- efficiency to beat: 0.823
- normalized lower bound 3807
--- checking solution
--- solution ok! Maximum rounding error: 0.000057
- solution found, obj var is: 3839
- de-normalized obj var: 0.830340
- time (local/global): 0.002/20.283
- branches (local/global): 2326/1333481
- fails (local/global): 1111/651522
- lns time: 0.054000
- lns branches: 2326
- lns fails: 1111
LNS iteration #90 ========================================
- worst case average CPI: 0.692
- worst case efficiency: 0.825
- efficiency to beat: 0.825
- normalized lower bound 3836
--- checking solution
--- solution ok! Maximum rounding error: 0.000021
- solution found, obj var is: 3836
- de-normalized obj var: 0.830160
- time (local/global): 0.002/20.337
- branches (local/global): 2018/1335499
- fails (local/global): 972/652494
- lns time: 0.031000
- lns branches: 2018
- lns fails: 972
LNS iteration #91 ========================================
- worst case average CPI: 0.692
- worst case efficiency: 0.825
- efficiency to beat: 0.825
- normalized lower bound 3838
--- checking solution
--- solution ok! Maximum rounding error: 0.000152
- solution found, obj var is: 3868
- de-normalized obj var: 0.832080
- time (local/global): 0.002/20.368
- branches (local/global): 5071/1340570
- fails (local/global): 2420/654914
- lns time: 0.074000
- lns branches: 5071
- lns fails: 2420
LNS iteration #92 ========================================
- worst case average CPI: 0.692
- worst case efficiency: 0.826
- efficiency to beat: 0.826
- normalized lower bound 3846
- lns time: 3.005000
- lns branches: 186740
- lns fails: 91470
LNS iteration #93 ========================================
- worst case average CPI: 0.692
- worst case efficiency: 0.826
- efficiency to beat: 0.826
- normalized lower bound 3846
--- checking solution
--- solution ok! Maximum rounding error: 0.000083
- solution found, obj var is: 3852
- de-normalized obj var: 0.831120
- time (local/global): 0.002/23.447
- branches (local/global): 10991/1538301
- fails (local/global): 5262/751646
- lns time: 0.232000
- lns branches: 10991
- lns fails: 5262
LNS iteration #94 ========================================
- worst case average CPI: 0.692
- worst case efficiency: 0.826
- efficiency to beat: 0.826
- normalized lower bound 3854
--- checking solution
--- solution ok! Maximum rounding error: 0.000043
- solution found, obj var is: 3856
- de-normalized obj var: 0.831360
- time (local/global): 0.002/23.679
- branches (local/global): 330/1538631
- fails (local/global): 146/751792
- lns time: 0.013000
- lns branches: 330
- lns fails: 146
LNS iteration #95 ========================================
- worst case average CPI: 0.692
- worst case efficiency: 0.827
- efficiency to beat: 0.827
- normalized lower bound 3875
--- checking solution
--- solution ok! Maximum rounding error: 0.000106
- solution found, obj var is: 3921
- de-normalized obj var: 0.835260
- time (local/global): 0.001/23.691
- branches (local/global): 3907/1542538
- fails (local/global): 1894/753686
- lns time: 0.052000
- lns branches: 3907
- lns fails: 1894
LNS iteration #96 ========================================
- worst case average CPI: 0.692
- worst case efficiency: 0.828
- efficiency to beat: 0.828
- normalized lower bound 3878
--- checking solution
--- solution ok! Maximum rounding error: 0.000080
- solution found, obj var is: 3936
- de-normalized obj var: 0.836160
- time (local/global): 0.003/23.745
- branches (local/global): 3418/1545956
- fails (local/global): 1626/755312
- lns time: 0.066000
- lns branches: 3418
- lns fails: 1626
LNS iteration #97 ========================================
- worst case average CPI: 0.692
- worst case efficiency: 0.829
- efficiency to beat: 0.829
- normalized lower bound 3907
--- checking solution
--- solution ok! Maximum rounding error: 0.000257
- solution found, obj var is: 4350
- de-normalized obj var: 0.861000
- time (local/global): 0.003/23.811
- branches (local/global): 121669/1667625
- fails (local/global): 59440/814752
- lns time: 1.710000
- lns branches: 121669
- lns fails: 59440
LNS iteration #98 ========================================
- worst case average CPI: 0.735
- worst case efficiency: 0.829
- efficiency to beat: 0.829
- normalized lower bound 3894
--- checking solution
--- solution ok! Maximum rounding error: 0.000000
- solution found, obj var is: 3913
- de-normalized obj var: 0.834780
- time (local/global): 0.002/25.520
- branches (local/global): 242/1667867
- fails (local/global): 102/814854
- lns time: 0.009000
- lns branches: 242
- lns fails: 102
LNS iteration #99 ========================================
- worst case average CPI: 0.735
- worst case efficiency: 0.830
- efficiency to beat: 0.830
- normalized lower bound 3918
- lns time: 3.005000
- lns branches: 219852
- lns fails: 108671
LNS iteration #100 ========================================
- worst case average CPI: 0.735
- worst case efficiency: 0.830
- efficiency to beat: 0.830
- normalized lower bound 3918
--- checking solution
--- solution ok! Maximum rounding error: 0.000076
- solution found, obj var is: 3992
- de-normalized obj var: 0.839520
- time (local/global): 0.002/28.534
- branches (local/global): 20279/1907998
- fails (local/global): 9816/933341
- lns time: 0.330000
- lns branches: 20279
- lns fails: 9816
LNS iteration #101 ========================================
- worst case average CPI: 0.735
- worst case efficiency: 0.830
- efficiency to beat: 0.830
- normalized lower bound 3923
--- checking solution
--- solution ok! Maximum rounding error: 0.000117
- solution found, obj var is: 4205
- de-normalized obj var: 0.852300
- time (local/global): 0.003/28.865
- branches (local/global): 38/1908036
- fails (local/global): 9/933350
- lns time: 0.006000
- lns branches: 38
- lns fails: 9
LNS iteration #102 ========================================
- worst case average CPI: 0.735
- worst case efficiency: 0.831
- efficiency to beat: 0.831
- normalized lower bound 3933
--- checking solution
--- solution ok! Maximum rounding error: 0.000080
- solution found, obj var is: 3988
- de-normalized obj var: 0.839280
- time (local/global): 0.002/28.870
- branches (local/global): 2867/1910903
- fails (local/global): 1358/934708
- lns time: 0.051000
- lns branches: 2867
- lns fails: 1358
LNS iteration #103 ========================================
- worst case average CPI: 0.735
- worst case efficiency: 0.831
- efficiency to beat: 0.831
- normalized lower bound 3933
--- checking solution
--- solution ok! Maximum rounding error: 0.000037
- solution found, obj var is: 3945
- de-normalized obj var: 0.836700
- time (local/global): -0.002/28.917
- branches (local/global): 475/1911378
- fails (local/global): 213/934921
- lns time: 0.017000
- lns branches: 475
- lns fails: 213
LNS iteration #104 ========================================
- worst case average CPI: 0.929
- worst case efficiency: 0.832
- efficiency to beat: 0.832
- normalized lower bound 3943
--- checking solution
--- solution ok! Maximum rounding error: 0.000032
- solution found, obj var is: 3998
- de-normalized obj var: 0.839880
- time (local/global): -0.001/28.935
- branches (local/global): 70445/1981823
- fails (local/global): 34376/969297
- lns time: 1.018000
- lns branches: 70445
- lns fails: 34376
LNS iteration #105 ========================================
- worst case average CPI: 0.840
- worst case efficiency: 0.832
- efficiency to beat: 0.832
- normalized lower bound 3954
--- checking solution
--- solution ok! Maximum rounding error: 0.000049
- solution found, obj var is: 3975
- de-normalized obj var: 0.838500
- time (local/global): 0.002/29.956
- branches (local/global): 139901/2121724
- fails (local/global): 68415/1037712
- lns time: 2.122000
- lns branches: 139901
- lns fails: 68415
LNS iteration #106 ========================================
- worst case average CPI: 0.840
- worst case efficiency: 0.832
- efficiency to beat: 0.832
- normalized lower bound 3955
--- checking solution
--- solution ok! Maximum rounding error: 0.000041
- solution found, obj var is: 4053
- de-normalized obj var: 0.843180
- time (local/global): 0.002/32.078
- branches (local/global): 17967/2139691
- fails (local/global): 8707/1046419
- lns time: 0.241000
- lns branches: 17967
- lns fails: 8707
LNS iteration #107 ========================================
- worst case average CPI: 0.840
- worst case efficiency: 0.832
- efficiency to beat: 0.832
- normalized lower bound 3959
--- checking solution
--- solution ok! Maximum rounding error: 0.000048
- solution found, obj var is: 3976
- de-normalized obj var: 0.838560
- time (local/global): 0.002/32.319
- branches (local/global): 103841/2243532
- fails (local/global): 50651/1097070
- lns time: 1.402000
- lns branches: 103841
- lns fails: 50651
LNS iteration #108 ========================================
- worst case average CPI: 0.740
- worst case efficiency: 0.833
- efficiency to beat: 0.833
- normalized lower bound 3967
- lns time: 3.005000
- lns branches: 189105
- lns fails: 92935
LNS iteration #109 ========================================
- worst case average CPI: 0.740
- worst case efficiency: 0.833
- efficiency to beat: 0.833
- normalized lower bound 3967
--- checking solution
--- solution ok! Maximum rounding error: 0.000308
- solution found, obj var is: 3973
- de-normalized obj var: 0.838380
- time (local/global): 0.003/36.727
- branches (local/global): 49971/2482608
- fails (local/global): 24335/1214340
- lns time: 0.845000
- lns branches: 49971
- lns fails: 24335
LNS iteration #110 ========================================
- worst case average CPI: 0.740
- worst case efficiency: 0.834
- efficiency to beat: 0.834
- normalized lower bound 3983
--- checking solution
--- solution ok! Maximum rounding error: 0.000108
- solution found, obj var is: 4037
- de-normalized obj var: 0.842220
- time (local/global): 0.003/37.572
- branches (local/global): 6664/2489272
- fails (local/global): 3204/1217544
- lns time: 0.079000
- lns branches: 6664
- lns fails: 3204
LNS iteration #111 ========================================
- worst case average CPI: 0.740
- worst case efficiency: 0.835
- efficiency to beat: 0.835
- normalized lower bound 3993
- lns time: 3.005000
- lns branches: 180294
- lns fails: 88303
LNS iteration #112 ========================================
- worst case average CPI: 0.740
- worst case efficiency: 0.835
- efficiency to beat: 0.835
- normalized lower bound 3993
--- checking solution
--- solution ok! Maximum rounding error: 0.000020
- solution found, obj var is: 4007
- de-normalized obj var: 0.840420
- time (local/global): 0.002/40.655
- branches (local/global): 3373/2672939
- fails (local/global): 1601/1307448
- lns time: 0.046000
- lns branches: 3373
- lns fails: 1601
LNS iteration #113 ========================================
- worst case average CPI: 0.740
- worst case efficiency: 0.835
- efficiency to beat: 0.835
- normalized lower bound 4008
- lns time: 3.005000
- lns branches: 221777
- lns fails: 108921
LNS iteration #114 ========================================
- worst case average CPI: 0.740
- worst case efficiency: 0.835
- efficiency to beat: 0.835
- normalized lower bound 4008
--- checking solution
--- solution ok! Maximum rounding error: 0.000087
- solution found, obj var is: 4081
- de-normalized obj var: 0.844860
- time (local/global): 0.005/43.709
- branches (local/global): 74204/2968920
- fails (local/global): 36260/1452629
- lns time: 1.227000
- lns branches: 74204
- lns fails: 36260
LNS iteration #115 ========================================
- worst case average CPI: 0.740
- worst case efficiency: 0.835
- efficiency to beat: 0.835
- normalized lower bound 3996
--- checking solution
--- solution ok! Maximum rounding error: 0.000072
- solution found, obj var is: 4024
- de-normalized obj var: 0.841440
- time (local/global): 0.002/44.933
- branches (local/global): 32796/3001716
- fails (local/global): 15943/1468572
- lns time: 0.516000
- lns branches: 32796
- lns fails: 15943
LNS iteration #116 ========================================
- worst case average CPI: 0.740
- worst case efficiency: 0.836
- efficiency to beat: 0.836
- normalized lower bound 4011
--- checking solution
--- solution ok! Maximum rounding error: 0.000034
- solution found, obj var is: 4025
- de-normalized obj var: 0.841500
- time (local/global): 0.006/45.453
- branches (local/global): 104141/3105857
- fails (local/global): 50953/1519525
- lns time: 1.844000
- lns branches: 104141
- lns fails: 50953
LNS iteration #117 ========================================
- worst case average CPI: 0.740
- worst case efficiency: 0.833
- efficiency to beat: 0.833
- normalized lower bound 3973
--- checking solution
--- solution ok! Maximum rounding error: 0.000011
- solution found, obj var is: 4055
- de-normalized obj var: 0.843300
- time (local/global): 0.003/47.294
- branches (local/global): 59931/3165788
- fails (local/global): 29204/1548729
- lns time: 1.104000
- lns branches: 59931
- lns fails: 29204
LNS iteration #118 ========================================
- worst case average CPI: 0.740
- worst case efficiency: 0.835
- efficiency to beat: 0.835
- normalized lower bound 3997
- lns time: 3.005000
- lns branches: 198798
- lns fails: 97572
LNS iteration #119 ========================================
- worst case average CPI: 0.740
- worst case efficiency: 0.835
- efficiency to beat: 0.835
- normalized lower bound 3997
- lns time: 3.005000
- lns branches: 180351
- lns fails: 88374
LNS iteration #120 ========================================
- worst case average CPI: 0.740
- worst case efficiency: 0.835
- efficiency to beat: 0.835
- normalized lower bound 3997
- lns time: 3.005000
- lns branches: 247797
- lns fails: 121640
LNS iteration #121 ========================================
- worst case average CPI: 0.740
- worst case efficiency: 0.835
- efficiency to beat: 0.835
- normalized lower bound 3997
--- checking solution
--- solution ok! Maximum rounding error: 0.000074
- solution found, obj var is: 4003
- de-normalized obj var: 0.840180
- time (local/global): 0.003/57.413
- branches (local/global): 35/3792769
- fails (local/global): 8/1856323
- lns time: 0.006000
- lns branches: 35
- lns fails: 8
LNS iteration #122 ========================================
- worst case average CPI: 0.740
- worst case efficiency: 0.836
- efficiency to beat: 0.836
- normalized lower bound 4024
--- checking solution
--- solution ok! Maximum rounding error: 0.000059
- solution found, obj var is: 4032
- de-normalized obj var: 0.841920
- time (local/global): 0.002/57.418
- branches (local/global): 19496/3812265
- fails (local/global): 9448/1865771
- lns time: 0.286000
- lns branches: 19496
- lns fails: 9448
LNS iteration #123 ========================================
- worst case average CPI: 0.740
- worst case efficiency: 0.837
- efficiency to beat: 0.837
- normalized lower bound 4028
--- checking solution
--- solution ok! Maximum rounding error: 0.000077
- solution found, obj var is: 4028
- de-normalized obj var: 0.841680
- time (local/global): 0.003/57.705
- branches (local/global): 36409/3848674
- fails (local/global): 17760/1883531
- lns time: 0.618000
- lns branches: 36409
- lns fails: 17760
LNS iteration #124 ========================================
- worst case average CPI: 0.740
- worst case efficiency: 0.837
- efficiency to beat: 0.837
- normalized lower bound 4035
--- checking solution
--- solution ok! Maximum rounding error: 0.000037
- solution found, obj var is: 4037
- de-normalized obj var: 0.842220
- time (local/global): 0.003/58.323
- branches (local/global): 91797/3940471
- fails (local/global): 44970/1928501
- lns time: 1.789000
- lns branches: 91797
- lns fails: 44970
LNS iteration #125 ========================================
- worst case average CPI: 0.740
- worst case efficiency: 0.840
- efficiency to beat: 0.840
- normalized lower bound 4082
--- checking solution
--- solution ok! Maximum rounding error: 0.000058
- solution found, obj var is: 4178
- de-normalized obj var: 0.850680
- time (local/global): 0.002/60.111
- branches (local/global): 109807/4050278
- fails (local/global): 53735/1982236
- lns time: 1.393000
- lns branches: 109807
- lns fails: 53735
LNS iteration #126 ========================================
- worst case average CPI: 0.530
- worst case efficiency: 0.841
- efficiency to beat: 0.841
- normalized lower bound 4094
--- checking solution
--- solution ok! Maximum rounding error: 0.000035
- solution found, obj var is: 4109
- de-normalized obj var: 0.846540
- time (local/global): 0.003/61.505
- branches (local/global): 98719/4148997
- fails (local/global): 48291/2030527
- lns time: 1.388000
- lns branches: 98719
- lns fails: 48291
LNS iteration #127 ========================================
- worst case average CPI: 0.530
- worst case efficiency: 0.840
- efficiency to beat: 0.840
- normalized lower bound 4080
- lns time: 3.005000
- lns branches: 226284
- lns fails: 111257
LNS iteration #128 ========================================
- worst case average CPI: 0.530
- worst case efficiency: 0.840
- efficiency to beat: 0.840
- normalized lower bound 4080
- lns time: 3.005000
- lns branches: 114786
- lns fails: 56250
LNS iteration #129 ========================================
- worst case average CPI: 0.530
- worst case efficiency: 0.840
- efficiency to beat: 0.840
- normalized lower bound 4080
- lns time: 3.005000
- lns branches: 192241
- lns fails: 94312
LNS iteration #130 ========================================
- worst case average CPI: 0.530
- worst case efficiency: 0.840
- efficiency to beat: 0.840
- normalized lower bound 4080
--- checking solution
--- solution ok! Maximum rounding error: 0.000174
- solution found, obj var is: 4083
- de-normalized obj var: 0.844980
- time (local/global): 0.002/71.907
- branches (local/global): 1089/4683397
- fails (local/global): 502/2292848
- lns time: 0.022000
- lns branches: 1089
- lns fails: 502
LNS iteration #131 ========================================
- worst case average CPI: 0.530
- worst case efficiency: 0.841
- efficiency to beat: 0.841
- normalized lower bound 4096
--- checking solution
--- solution ok! Maximum rounding error: 0.000027
- solution found, obj var is: 4130
- de-normalized obj var: 0.847800
- time (local/global): 0.003/71.930
- branches (local/global): 9405/4692802
- fails (local/global): 4508/2297356
- lns time: 0.132000
- lns branches: 9405
- lns fails: 4508
LNS iteration #132 ========================================
- worst case average CPI: 0.530
- worst case efficiency: 0.841
- efficiency to beat: 0.841
- normalized lower bound 4097
- lns time: 3.005000
- lns branches: 163374
- lns fails: 79971
LNS iteration #133 ========================================
- worst case average CPI: 0.530
- worst case efficiency: 0.841
- efficiency to beat: 0.841
- normalized lower bound 4097
--- checking solution
--- solution ok! Maximum rounding error: 0.000028
- solution found, obj var is: 4108
- de-normalized obj var: 0.846480
- time (local/global): 0.003/75.067
- branches (local/global): 216599/5072775
- fails (local/global): 106408/2483735
- lns time: 2.917000
- lns branches: 216599
- lns fails: 106408
LNS iteration #134 ========================================
- worst case average CPI: 0.740
- worst case efficiency: 0.840
- efficiency to beat: 0.840
- normalized lower bound 4085
--- checking solution
--- solution ok! Maximum rounding error: 0.000059
- solution found, obj var is: 4121
- de-normalized obj var: 0.847260
- time (local/global): 0.003/77.984
- branches (local/global): 136946/5209721
- fails (local/global): 67058/2550793
- lns time: 2.296000
- lns branches: 136946
- lns fails: 67058
LNS iteration #135 ========================================
- worst case average CPI: 0.654
- worst case efficiency: 0.841
- efficiency to beat: 0.841
- normalized lower bound 4096
- lns time: 3.005000
- lns branches: 228701
- lns fails: 112167
LNS iteration #136 ========================================
- worst case average CPI: 0.654
- worst case efficiency: 0.841
- efficiency to beat: 0.841
- normalized lower bound 4096
- lns time: 3.005000
- lns branches: 216521
- lns fails: 106193
LNS iteration #137 ========================================
- worst case average CPI: 0.654
- worst case efficiency: 0.841
- efficiency to beat: 0.841
- normalized lower bound 4096
--- checking solution
--- solution ok! Maximum rounding error: 0.000000
- solution found, obj var is: 4213
- de-normalized obj var: 0.852780
- time (local/global): 0.003/86.290
- branches (local/global): 26207/5681150
- fails (local/global): 12683/2781836
- lns time: 0.407000
- lns branches: 26207
- lns fails: 12683
LNS iteration #138 ========================================
- worst case average CPI: 0.654
- worst case efficiency: 0.841
- efficiency to beat: 0.841
- normalized lower bound 4098
- lns time: 3.005000
- lns branches: 240768
- lns fails: 118019
LNS iteration #139 ========================================
- worst case average CPI: 0.654
- worst case efficiency: 0.841
- efficiency to beat: 0.841
- normalized lower bound 4098
- lns time: 0.306000
- lns branches: 22963
- lns fails: 11151

LNS optimization is over========================================
initial worst case average CPI: 2.535
final worst case average CPI: 0.654
initial worst case efficiency: 0.650
final worst case efficiency: 0.841
number of iterations: 140
total time: 90005.000000
total branches: 5944881
total fails: 2911006

Final Solution: 0->25, 1->0, 2->26, 3->40, 4->47, 5->36, 6->3, 7->12, 8->42, 9->9, 10->34, 11->34, 12->36, 13->1, 14->36, 15->24, 16->26, 17->32, 18->39, 19->35, 20->25, 21->40, 22->28, 23->30, 24->16, 25->46, 26->35, 27->27, 28->13, 29->30, 30->7, 31->38, 32->27, 33->44, 34->41, 35->38, 36->22, 37->9, 38->0, 39->18, 40->8, 41->18, 42->37, 43->24, 44->27, 45->2, 46->7, 47->46, 48->37, 49->0, 50->44, 51->11, 52->23, 53->27, 54->12, 55->16, 56->18, 57->0, 58->36, 59->31, 60->7, 61->44, 62->6, 63->46, 64->41, 65->35, 66->5, 67->10, 68->33, 69->18, 70->3, 71->19, 72->15, 73->21, 74->12, 75->14, 76->43, 77->23, 78->26, 79->35, 80->44, 81->39, 82->22, 83->15, 84->25, 85->3, 86->7, 87->43, 88->33, 89->34, 90->26, 91->27, 92->39, 93->46, 94->16, 95->47, 96->12, 97->32, 98->37, 99->39, 100->45, 101->13, 102->20, 103->21, 104->14, 105->25, 106->28, 107->3, 108->39, 109->13, 110->19, 111->14, 112->34, 113->18, 114->31, 115->27, 116->17, 117->21, 118->47, 119->33, 120->44, 121->32, 122->37, 123->22, 124->21, 125->37, 126->21, 127->36, 128->15, 129->6, 130->35, 131->35, 132->24, 133->38, 134->1, 135->30, 136->3, 137->14, 138->46, 139->11, 140->32, 141->22, 142->13, 143->43, 144->33, 145->8, 146->13, 147->7, 148->15, 149->45, 150->42, 151->18, 152->1, 153->4, 154->8, 155->2, 156->25, 157->26, 158->28, 159->15, 160->1, 161->38, 162->24, 163->4, 164->28, 165->19, 166->2, 167->12, 168->13, 169->30, 170->10, 171->11, 172->6, 173->6, 174->22, 175->2, 176->17, 177->10, 178->23, 179->9, 180->29, 181->20, 182->16, 183->46, 184->11, 185->37, 186->26, 187->31, 188->9, 189->28, 190->9, 191->38, 192->12, 193->40, 194->0, 195->10, 196->25, 197->39, 198->19, 199->29, 200->42, 201->43, 202->4, 203->8, 204->23, 205->19, 206->23, 207->5, 208->24, 209->1, 210->5, 211->20, 212->29, 213->6, 214->42, 215->38, 216->15, 217->29, 218->10, 219->4, 220->11, 221->22, 222->17, 223->45, 224->47, 225->47, 226->20, 227->8, 228->45, 229->14, 230->19, 231->9, 232->33, 233->0, 234->16, 235->2, 236->20, 237->33, 238->14, 239->28, 240->45, 241->24, 242->5, 243->23, 244->21, 245->30, 246->45, 247->34, 248->6, 249->4, 250->40, 251->34, 252->4, 253->8, 254->1, 255->3, 256->11, 257->5, 258->17, 259->17, 260->17, 261->32, 262->41, 263->5, 264->7, 265->42, 266->42, 267->16, 268->31, 269->36, 270->31, 271->2, 272->10, 273->30, 274->41, 275->20, 276->41, 277->43, 278->29, 279->40, 280->32, 281->31, 282->43, 283->47, 284->40, 285->44, 286->41, 287->29

Average CPI map:
	7.68,	6.56,	0.93,	1.19,	0.65,	1.07
	2.04,	6.34,	4.57,	7.68,	5.53,	3.62
	3.36,	7.76,	7.77,	8.24,	7.49,	1.72
	2.96,	6.10,	5.45,	10.01,	6.69,	1.53
	1.76,	8.53,	10.90,	7.39,	7.41,	2.49
	1.83,	7.12,	7.77,	10.37,	7.28,	1.77
	1.79,	10.10,	10.55,	8.36,	6.13,	2.47
	2.12,	3.37,	5.60,	4.83,	5.73,	3.38

Efficiency map:
	0.997,	0.994,	0.919,	0.871,	0.912,	1.003
	0.869,	0.845,	0.862,	0.886,	0.842,	0.848
	0.847,	0.867,	0.844,	0.859,	0.846,	0.853
	0.846,	0.843,	0.844,	0.849,	0.841,	0.891
	0.865,	0.881,	0.866,	0.853,	0.856,	0.866
	0.851,	0.852,	0.846,	0.846,	0.845,	0.858
	0.871,	0.847,	0.847,	0.850,	0.862,	0.931
	0.851,	0.856,	0.851,	0.857,	0.847,	0.870
