LocalSolver 4.0 (MacOS64, build 20131224)
Copyright (C) 2013 Bouygues SA, Aix-Marseille University, CNRS.
All rights reserved (see Terms and Conditions for details).

Load localsolver_res/tawd_ls.lsp...
Run input...
ANNs For the Platform:
4,2,1,6.45294,0.0174524,1.58234,2.29305,2.12057,3.95113,12.7206,-19.3278,5.58789,9.38298,0.00306445,0.00353919,0.795949
4,2,1,3.10684,7.56359,0.502116,0.637049,12.0356,-2.9013,-3.22211,-0.368567,-0.562298,-7.37831,2.38595,1.22203,-0.360292
4,2,1,4.88387,44.8399,1.27345,1.24496,49.1775,-8.83277,-3.12983,-1.00946,11.7,-3.01002,0.132635,0.00372271,0.673996
4,2,1,4.73045,19.3982,0.449241,0.753865,25.7092,17.3605,0.0558085,-8.91516,0.49993,10.3396,4.06312,-0.0136297,-3.24599
4,2,1,-7.16849,-10.0957,-0.518885,-0.00359459,5.93351,5.62684,52.0516,1.48603,1.30274,57.2311,0.250578,0.137157,0.417379
4,2,1,0.412706,-2.89716,0.137754,-2.57826,11.0947,121.374,858.444,-136.26,-14917.8,-1308.92,-3.36558,-0.000403784,4.17997
4,2,1,-8.8269,-0.482244,-0.0820712,-0.0562713,-10.1617,9.78118,-7.01882,-0.428151,-0.0606718,2.56012,-8.54699,-0.509991,-7.23704
4,2,1,2.19881,4.94147,0.541452,0.107587,6.45213,1.0452,0.405805,0.555763,3.64728,1.95727,0.425683,-0.00188273,0.383643
4,2,1,-6.13316,1.92598,-0.0562274,-0.0731719,-4.60606,0.509071,7.79918,0.393802,0.0114563,7.9345,-1.13416,0.310582,-0.637365
4,2,1,1.73462,2.97854,0.276167,0.0859465,3.6912,3.09203,3.25403,0.324282,0.112495,4.06123,0.954718,-0.48836,0.344765
4,2,1,1.57339,3.84603,-3.4467,0.7429,2.75709,2.1802,5.09535,0.482172,0.106131,6.49189,-0.0251827,0.433535,0.393482
4,2,1,4.13514,21.6229,1.1931,0.354612,24.1372,25.5916,0.432728,-12.6725,-0.45345,15.3428,0.194819,-0.0364695,0.647465
4,2,1,-0.728632,5.60079,1.78098,1.8429,-5.74354,-3.26566,-13.0026,-0.907163,-0.31822,-15.3707,-0.427666,-0.224298,0.154329
4,2,1,3.81854,-4.98219,-0.293924,-0.103604,-6.7034,2.28654,4.72568,0.469524,0.115005,6.05901,-0.511241,0.421809,-0.121549
4,2,1,-1.23773,5.98591,0.224555,-0.359337,6.05767,2.3852,3.4706,0.220977,0.179377,4.88772,0.199751,0.432231,0.177791
4,2,1,1.12189,4.09326,0.850801,0.171671,-5.17646,-1.9656,-4.07995,-0.210811,-0.113853,-5.17242,-2.70452,-0.46094,-2.36326
4,2,1,2.08858,4.80174,0.367584,0.109336,6.02292,4.32969,4.35157,0.772172,10.015,-0.96022,0.43933,4.17055e-05,0.365228
4,2,1,1.18806,3.00188,0.124753,0.00191203,3.75084,1.03049,2.7808,0.137818,0.0250058,4.01619,-1.05018,2.49176,-0.635083
4,2,1,3.11788,10.9247,0.699295,0.170953,13.0959,-11.4646,-5.88946,11.0137,8.74787,-11.701,0.236706,0.0216102,0.59131
4,2,1,7.53568,1.94998,-2.27776,-1.91765,0.451708,2.13206,4.27547,0.333162,0.0864645,5.45063,-0.0153486,0.447774,0.366202
4,2,1,-2.12436,-3.29848,-0.0965154,-0.0454545,-3.86293,4.27042,3.64797,0.106703,0.057602,4.81479,-1.28015,-0.815344,0.346524
4,2,1,2.06313,3.99765,-9.94001e-06,0.200591,5.05136,-0.024567,-3.22765,-1.84842,1.73493,-3.87425,0.446216,-0.0350173,0.320411
4,2,1,3.3952,3.19239,0.219932,0.0459907,4.0724,1.85184,2.9352,0.236295,0.0535068,3.62882,-0.516849,0.990723,0.337742
4,2,1,-6.32145,2.68844,0.160066,0.0633176,-3.81442,9.03888,1.31396,0.253255,-0.0684612,6.93971,1.83579,0.440423,2.20116
4,2,1,-4.54148,-0.217309,1.86369,-0.409034,0.0885675,-3.10698,-12.3715,-0.753639,-0.275832,-14.544,0.00344558,-0.233405,0.57337
4,2,1,-0.743367,6.86662,-0.19496,-0.0184317,7.54898,2.69258,3.24789,0.437511,0.121848,4.97423,0.830361,0.39615,-0.417087
4,2,1,2.07654,3.2533,0.103762,0.0837251,4.40922,1.95615,-2.57949,-0.10147,-0.0485499,-3.72005,0.479113,-0.433879,-0.0966803
4,2,1,-0.480501,-0.00331725,1.67452,0.764966,-1.53387,1.99113,3.67475,0.0228188,0.0287235,4.64739,0.15721,0.465135,0.487915
4,2,1,1.11584,-5.79333,-0.212675,0.376981,-6.64888,2.45003,3.54368,0.313683,0.144659,5.05472,-0.777178,0.423599,-0.389995
4,2,1,2.39093,1.70258,-0.183288,-0.314006,4.06496,2.34881,2.91375,-0.0230153,-0.18977,5.26307,-1.33645,1.84807,0.292237
4,2,1,0.88022,3.23795,0.179315,0.0205209,3.57684,0.764441,2.74982,0.156077,0.0273373,3.62313,-0.980719,2.16912,-0.37872
4,2,1,-1.27932,7.09751,-0.0490235,0.455487,7.14709,-2.57722,-4.06233,-0.410784,-0.0433739,-5.6171,0.164894,-0.408714,0.23583
4,2,1,0.623158,5.01876,0.194867,0.0365944,4.99458,-16.0815,2.94826,-1.82463,-1.90388,-9.56395,0.291148,-0.155001,0.360694
4,2,1,1.86251,3.92056,0.158781,0.0575693,4.93436,0.681285,4.09563,1.09826,-3.65606,2.09524,0.482473,-0.00448292,0.322397
4,2,1,3.33939,3.52877,0.262622,0.0607689,4.45842,2.23218,3.37107,0.256541,0.0516206,4.05014,-1.2701,1.7162,0.365737
4,2,1,5.0585,4.68315,2.53887,0.128578,8.9709,3.62833,11.0789,1.32555,0.190392,13.8026,-0.126366,0.350541,0.580103
4,2,1,4.99986,2.75557,1.33036,-0.0119951,6.91685,4.23025,5.34568,1.08928,0.0379928,8.80363,-0.700785,0.958812,0.547325
4,2,1,1.95024,3.24732,0.229322,0.0270089,3.53624,1.62575,3.04977,0.230194,0.0319079,3.46966,-1.34015,1.81817,0.333213
4,2,1,2.11055,5.16581,0.225183,0.0767342,6.2013,3.43647,-3.10756,1.22453,-6.27082,5.92438,0.428242,2.12665,-1.75474
4,2,1,10.028,2.55152,-0.0579427,-0.0186516,-2.98054,2.14055,4.33639,0.203596,0.057269,5.47668,0.0078111,0.436528,0.371941
4,2,1,1.80421,3.45533,0.27065,0.0337725,4.14172,3.00203,3.65885,0.26995,0.0620062,4.37924,0.892686,-0.440136,0.355377
4,2,1,-2.76424,-10.7675,-0.741451,-0.141046,-12.927,13.6995,2.51611,0.90934,27.76,15.1973,-0.260938,-0.00175312,0.546274
4,2,1,2.26659,3.88332,0.083697,0.287373,-5.89957,3.07548,7.5942,0.285535,0.141703,9.90558,1.94369,0.273352,2.47758
4,2,1,5.41472,-1.35343,-0.0808605,2.27411,0.928252,2.55844,6.15687,0.338903,0.0735359,7.47381,-0.0148119,0.388691,0.423615
4,2,1,4.53285,3.66527,0.130055,0.0722232,4.95325,-2.1632,-3.34312,-0.11633,-0.0577237,-3.98867,-0.759785,-1.19124,0.379449
4,2,1,2.36669,5.75119,0.132783,0.0812059,6.8845,-8.68015,-0.488627,0.811521,2.16444,0.277436,0.40839,0.00790296,0.400784
4,2,1,0.583762,8.58805,0.307497,0.0165495,8.61973,-7.32584,1.34397,-0.0108636,-0.0260377,-6.96836,0.266022,-5.2323,-4.69173
4,2,1,1.76683,-0.336959,-0.116305,-0.0696435,-1.62311,2.51027,5.65249,0.180271,0.0657051,7.97995,-0.0500539,0.457869,0.308072
Workload Information:
2.90519, 3.00187, 2.59408, 0.764911, 0.602349, 2.1316, 0.945185, 2.18256, 2.29122, 2.06357, 2.25563, 2.26183, 1.9514, 2.07615, 1.46262, 2.1898, 2.08454, 2.23549, 0.578052, 2.78771, 2.71554, 1.39733, 2.5547, 1.96666, 1.77915, 2.29415, 2.28815, 1.52202, 2.04631, 2.07021, 0.705144, 3.52595, 0.577794, 4.35465, 2.00297, 0.8335, 2.27118, 1.69393, 2.16483, 2.14014, 1.47659, 2.25333, 2.1552, 2.09153, 4.46658, 0.968409, 1.81829, 0.5, 0.671436, 0.5, 3.58689, 5.41061, 1.06563, 0.765436, 2.44583, 0.5, 2.00023, 2.50143, 3.50006, 1.05246, 0.830313, 0.692026, 1.66722, 2.58658, 3.77569, 2.44817, 1.53474, 2.44819, 2.51045, 2.51047, 0.5, 2.49615, 2.07622, 1.75409, 2.42361, 1.82052, 1.43757, 2.48798, 0.674821, 1.93223, 1.22573, 2.59825, 3.23437, 2.3346, 2.02062, 1.56531, 0.685947, 2.50408, 2.53617, 2.68787, 2.18405, 1.74593, 2.38926, 1.61039, 2.05674, 2.01363, 2.79678, 2.81147, 0.814836, 0.5, 2.45418, 2.62273, 0.605606, 3.33616, 0.5, 3.92751, 2.85574, 0.774989, 4.03938, 1.63878, 2.82253, 0.5, 1.6534, 1.3459, 1.54685, 0.5, 2.79143, 2.7573, 1.90179, 2.50264, 3.17346, 1.34045, 1.67046, 0.944843, 3.21848, 1.65231, 0.5, 2.50508, 3.06415, 1.40992, 2.53316, 1.98769, 2.20824, 1.55341, 0.511615, 3.33439, 2.34796, 2.04439, 2.065, 2.08406, 2.0553, 2.22587, 1.59248, 1.97728, 1.10884, 2.33107, 0.734037, 1.20233, 5.75006, 0.873654, 2.11678, 2.13263, 1.99938, 2.2624, 1.61199, 1.87683, 1.92695, 2.1557, 2.19942, 2.03818, 1.83717, 1.84259, 1.06903, 1.63587, 2.1269, 2.24311, 3.16967, 1.75542, 2.27664, 2.31265, 2.80435, 1.44689, 1.45856, 1.7009, 3.03613, 0.892094, 1.26678, 3.03981, 2.10236, 1.66282, 0.894979, 0.940761, 1.88205, 0.974263, 2.63175, 4.67619, 2.46838, 1.70812, 2.64584, 1.40925, 1.87971, 1.88871, 35, 27.3053, 9.19818, 23.0218, 9.20599, 28.2687, 3.11393, 1.54415, 2.22701, 2.23798, 2.37693, 0.5, 35, 12.4549, 16.6137, 25.8873, 23.624, 18.4201, 3.5718, 2.28371, 0.5, 0.566681, 1.96172, 3.11608, 4.6502, 0.651365, 0.5, 0.509514, 2.67246, 3.01647, 0.959727, 0.5, 3.60859, 0.857319, 1.36745, 4.70692, 1.79929, 2.43769, 1.7069, 1.48299, 1.99055, 2.58259, 1.43298, 1.11253, 3.52307, 3.52528, 1.46405, 0.942092, 0.664891, 1.93508, 3.20626, 3.19041, 1.50792, 1.49543, 2.18655, 1.25744, 2.12228, 2.26964, 2.25767, 1.90641, 0.52902, 2.58977, 3.92245, 0.5, 0.607089, 3.85167, 0.5, 2.51582, 3.21189, 1.11241, 1.68973, 2.97016, 30.6793, 35, 4.2256, 22.2669, 31.2751, 8.55314, 0.766831, 3.50378, 1.21244, 1.36904, 1.13738, 4.01053, 28.0884, 20.8486, 15.6235, 35, 19.1319, 13.3075, 3.14793, 0.715389, 2.92986, 3.64648, 1.06034, 0.5
cpi min/max: 0.5/35
neighbors of 0: 1 6, number of others: 45
neighbors of 1: 0 2 6 7, number of others: 43
neighbors of 2: 1 3 7 8, number of others: 43
neighbors of 3: 2 4 8 9, number of others: 43
neighbors of 4: 3 5 9 10, number of others: 43
neighbors of 5: 4 10 11, number of others: 44
neighbors of 6: 0 1 7 12, number of others: 43
neighbors of 7: 1 2 6 8 12 13, number of others: 41
neighbors of 8: 2 3 7 9 13 14, number of others: 41
neighbors of 9: 3 4 8 10 14 15, number of others: 41
neighbors of 10: 4 5 9 11 15 16, number of others: 41
neighbors of 11: 5 10 16 17, number of others: 43
neighbors of 12: 6 7 13 18, number of others: 43
neighbors of 13: 7 8 12 14 18 19, number of others: 41
neighbors of 14: 8 9 13 15 19 20, number of others: 41
neighbors of 15: 9 10 14 16 20 21, number of others: 41
neighbors of 16: 10 11 15 17 21 22, number of others: 41
neighbors of 17: 11 16 22 23, number of others: 43
neighbors of 18: 12 13 19 24, number of others: 43
neighbors of 19: 13 14 18 20 24 25, number of others: 41
neighbors of 20: 14 15 19 21 25 26, number of others: 41
neighbors of 21: 15 16 20 22 26 27, number of others: 41
neighbors of 22: 16 17 21 23 27 28, number of others: 41
neighbors of 23: 17 22 28 29, number of others: 43
neighbors of 24: 18 19 25 30, number of others: 43
neighbors of 25: 19 20 24 26 30 31, number of others: 41
neighbors of 26: 20 21 25 27 31 32, number of others: 41
neighbors of 27: 21 22 26 28 32 33, number of others: 41
neighbors of 28: 22 23 27 29 33 34, number of others: 41
neighbors of 29: 23 28 34 35, number of others: 43
neighbors of 30: 24 25 31 36, number of others: 43
neighbors of 31: 25 26 30 32 36 37, number of others: 41
neighbors of 32: 26 27 31 33 37 38, number of others: 41
neighbors of 33: 27 28 32 34 38 39, number of others: 41
neighbors of 34: 28 29 33 35 39 40, number of others: 41
neighbors of 35: 29 34 40 41, number of others: 43
neighbors of 36: 30 31 37 42, number of others: 43
neighbors of 37: 31 32 36 38 42 43, number of others: 41
neighbors of 38: 32 33 37 39 43 44, number of others: 41
neighbors of 39: 33 34 38 40 44 45, number of others: 41
neighbors of 40: 34 35 39 41 45 46, number of others: 41
neighbors of 41: 35 40 46 47, number of others: 43
neighbors of 42: 36 37 43, number of others: 44
neighbors of 43: 37 38 42 44, number of others: 43
neighbors of 44: 38 39 43 45, number of others: 43
neighbors of 45: 39 40 44 46, number of others: 43
neighbors of 46: 40 41 45 47, number of others: 43
neighbors of 47: 41 46, number of others: 45
Run model...
Preprocess model 0% ...Preprocess model 16% ...Preprocess model 32% ...Preprocess model 48% ...Preprocess model 66% ...Preprocess model 84% ...Preprocess model 100% ...
Close model 0% ...Close model 9% ...Close model 18% ...Close model 27% ...Close model 36% ...Close model 45% ...Close model 54% ...Close model 63% ...Close model 72% ...Close model 81% ...Close model 91% ...Close model 100% ...
Run param...
Run solver...
Initialize threads 0% ...Initialize threads 100% ...
Push initial solutions 0% ...Push initial solutions 100% ...

Model: 
  expressions = 44731, operands = 116736
  decisions = 13824, constraints = 336, objectives = 1

Param: 
  time limit = 90 sec, no iteration limit
  seed = 801, nb threads = 1, annealing level = 1

Objectives:
  Obj 0: maximize, no bound

Phases:
  Phase 0: time limit = 90 sec, no iteration limit, optimized objective = 0


Computed bounds:
  Obj 0: upper bound = 0.664125


Phase 0:
[0 sec, 0 itr]: infeas = (336, 336, 576), mov = 0, inf < 0.1%, acc < 0.1%, imp = 0

worst case efficiency: 0.998464
[1 sec, 4588 itr]: obj = (0.046382), mov = 4588, inf = 84.6%, acc = 14.3%, imp = 118

worst case efficiency: 0.627829
[2 sec, 26051 itr]: obj = (0.05666), mov = 26051, inf = 97.2%, acc = 2.7%, imp = 154

worst case efficiency: 0.633996
[3 sec, 39284 itr]: obj = (0.0650664), mov = 39284, inf = 98.1%, acc = 1.9%, imp = 193

worst case efficiency: 0.63904
[4 sec, 47626 itr]: obj = (0.0774293), mov = 47626, inf = 98.3%, acc = 1.7%, imp = 235

worst case efficiency: 0.646458
[5 sec, 52893 itr]: obj = (0.0815724), mov = 52893, inf = 98.4%, acc = 1.6%, imp = 269

worst case efficiency: 0.648943
[6 sec, 56910 itr]: obj = (0.0879184), mov = 56910, inf = 98.5%, acc = 1.5%, imp = 300

worst case efficiency: 0.652751
[7 sec, 60496 itr]: obj = (0.0989387), mov = 60496, inf = 98.5%, acc = 1.5%, imp = 340

worst case efficiency: 0.659363
[8 sec, 63770 itr]: obj = (0.10453), mov = 63770, inf = 98.5%, acc = 1.5%, imp = 373

worst case efficiency: 0.662718
[9 sec, 66794 itr]: obj = (0.106161), mov = 66794, inf = 98.6%, acc = 1.5%, imp = 403

worst case efficiency: 0.663696
[10 sec, 69782 itr]: obj = (0.112287), mov = 69782, inf = 98.6%, acc = 1.4%, imp = 437

worst case efficiency: 0.667372
[11 sec, 72683 itr]: obj = (0.123996), mov = 72683, inf = 98.6%, acc = 1.4%, imp = 475

worst case efficiency: 0.674398
[12 sec, 75554 itr]: obj = (0.137136), mov = 75554, inf = 98.6%, acc = 1.4%, imp = 514

worst case efficiency: 0.682282
[13 sec, 78395 itr]: obj = (0.141383), mov = 78395, inf = 98.6%, acc = 1.4%, imp = 532

worst case efficiency: 0.68483
[14 sec, 81222 itr]: obj = (0.155655), mov = 81222, inf = 98.6%, acc = 1.4%, imp = 562

worst case efficiency: 0.693393
[15 sec, 83856 itr]: obj = (0.158132), mov = 83856, inf = 98.6%, acc = 1.4%, imp = 589

worst case efficiency: 0.694879
[16 sec, 86661 itr]: obj = (0.160955), mov = 86661, inf = 98.7%, acc = 1.4%, imp = 608

worst case efficiency: 0.696573
[17 sec, 89532 itr]: obj = (0.163825), mov = 89532, inf = 98.7%, acc = 1.4%, imp = 628

worst case efficiency: 0.698295
[18 sec, 92242 itr]: obj = (0.165477), mov = 92242, inf = 98.7%, acc = 1.3%, imp = 647

worst case efficiency: 0.699286
[19 sec, 95072 itr]: obj = (0.165477), mov = 95072, inf = 98.7%, acc = 1.3%, imp = 647

worst case efficiency: 0.699286
[20 sec, 97924 itr]: obj = (0.167949), mov = 97924, inf = 98.7%, acc = 1.3%, imp = 676

worst case efficiency: 0.70077
[21 sec, 100906 itr]: obj = (0.170063), mov = 100906, inf = 98.8%, acc = 1.3%, imp = 698

worst case efficiency: 0.702038
[22 sec, 103875 itr]: obj = (0.183443), mov = 103875, inf = 98.8%, acc = 1.3%, imp = 733

worst case efficiency: 0.710066
[23 sec, 106360 itr]: obj = (0.188277), mov = 106360, inf = 98.8%, acc = 1.3%, imp = 758

worst case efficiency: 0.712966
[24 sec, 108923 itr]: obj = (0.189634), mov = 108923, inf = 98.8%, acc = 1.3%, imp = 778

worst case efficiency: 0.713781
[25 sec, 111606 itr]: obj = (0.1919), mov = 111606, inf = 98.8%, acc = 1.3%, imp = 799

worst case efficiency: 0.71514
[26 sec, 114418 itr]: obj = (0.195521), mov = 114418, inf = 98.8%, acc = 1.2%, imp = 827

worst case efficiency: 0.717313
[27 sec, 116875 itr]: obj = (0.198592), mov = 116875, inf = 98.8%, acc = 1.2%, imp = 848

worst case efficiency: 0.719155
[28 sec, 119554 itr]: obj = (0.200637), mov = 119554, inf = 98.8%, acc = 1.2%, imp = 874

worst case efficiency: 0.720382
[29 sec, 122401 itr]: obj = (0.201902), mov = 122401, inf = 98.8%, acc = 1.2%, imp = 892

worst case efficiency: 0.721141
[30 sec, 125262 itr]: obj = (0.206724), mov = 125262, inf = 98.8%, acc = 1.2%, imp = 917

worst case efficiency: 0.724034
[31 sec, 128126 itr]: obj = (0.214814), mov = 128126, inf = 98.8%, acc = 1.2%, imp = 947

worst case efficiency: 0.728888
[32 sec, 130992 itr]: obj = (0.215701), mov = 130992, inf = 98.9%, acc = 1.2%, imp = 966

worst case efficiency: 0.72942
[33 sec, 133795 itr]: obj = (0.217027), mov = 133795, inf = 98.9%, acc = 1.2%, imp = 989

worst case efficiency: 0.730216
[34 sec, 136428 itr]: obj = (0.21765), mov = 136428, inf = 98.9%, acc = 1.2%, imp = 1006

worst case efficiency: 0.73059
[35 sec, 139248 itr]: obj = (0.218546), mov = 139248, inf = 98.9%, acc = 1.2%, imp = 1023

worst case efficiency: 0.731128
[36 sec, 142120 itr]: obj = (0.222557), mov = 142120, inf = 98.9%, acc = 1.2%, imp = 1050

worst case efficiency: 0.733534
[37 sec, 144921 itr]: obj = (0.224193), mov = 144921, inf = 98.9%, acc = 1.2%, imp = 1070

worst case efficiency: 0.734516
[38 sec, 147697 itr]: obj = (0.224458), mov = 147697, inf = 98.9%, acc = 1.1%, imp = 1080

worst case efficiency: 0.734675
[39 sec, 150462 itr]: obj = (0.224458), mov = 150462, inf = 98.9%, acc = 1.1%, imp = 1080

worst case efficiency: 0.734675
[40 sec, 153320 itr]: obj = (0.224458), mov = 153320, inf = 99%, acc = 1.1%, imp = 1080

worst case efficiency: 0.734675
[41 sec, 156236 itr]: obj = (0.224458), mov = 156236, inf = 99%, acc = 1.1%, imp = 1080

worst case efficiency: 0.734675
[42 sec, 158952 itr]: obj = (0.224458), mov = 158952, inf = 99%, acc = 1.1%, imp = 1080

worst case efficiency: 0.734675
[43 sec, 161785 itr]: obj = (0.224458), mov = 161785, inf = 99%, acc = 1.1%, imp = 1080

worst case efficiency: 0.734675
[44 sec, 164470 itr]: obj = (0.224458), mov = 164470, inf = 99%, acc = 1%, imp = 1080

worst case efficiency: 0.734675
[45 sec, 167215 itr]: obj = (0.224458), mov = 167215, inf = 99%, acc = 1%, imp = 1080

worst case efficiency: 0.734675
[46 sec, 170037 itr]: obj = (0.224458), mov = 170037, inf = 99.1%, acc = 1%, imp = 1080

worst case efficiency: 0.734675
[47 sec, 172966 itr]: obj = (0.224458), mov = 172966, inf = 99.1%, acc = 1%, imp = 1080

worst case efficiency: 0.734675
[48 sec, 175864 itr]: obj = (0.224458), mov = 175864, inf = 99.1%, acc = 1%, imp = 1080

worst case efficiency: 0.734675
[49 sec, 178971 itr]: obj = (0.224458), mov = 178971, inf = 99.1%, acc = 1%, imp = 1080

worst case efficiency: 0.734675
[50 sec, 182179 itr]: obj = (0.224458), mov = 182179, inf = 99.1%, acc = 0.9%, imp = 1080

worst case efficiency: 0.734675
[51 sec, 185437 itr]: obj = (0.224458), mov = 185437, inf = 99.1%, acc = 0.9%, imp = 1080

worst case efficiency: 0.734675
[52 sec, 188832 itr]: obj = (0.224458), mov = 188832, inf = 99.2%, acc = 0.9%, imp = 1080

worst case efficiency: 0.734675
[53 sec, 192544 itr]: obj = (0.224458), mov = 192544, inf = 99.2%, acc = 0.9%, imp = 1080

worst case efficiency: 0.734675
[54 sec, 196167 itr]: obj = (0.224458), mov = 196167, inf = 99.2%, acc = 0.9%, imp = 1080

worst case efficiency: 0.734675
[55 sec, 200033 itr]: obj = (0.224458), mov = 200033, inf = 99.2%, acc = 0.9%, imp = 1080

worst case efficiency: 0.734675
[56 sec, 204376 itr]: obj = (0.224458), mov = 204376, inf = 99.2%, acc = 0.8%, imp = 1080

worst case efficiency: 0.734675
[57 sec, 208931 itr]: obj = (0.224458), mov = 208931, inf = 99.2%, acc = 0.8%, imp = 1080

worst case efficiency: 0.734675
[58 sec, 214170 itr]: obj = (0.224458), mov = 214170, inf = 99.3%, acc = 0.8%, imp = 1080

worst case efficiency: 0.734675
[59 sec, 220013 itr]: obj = (0.224458), mov = 220013, inf = 99.3%, acc = 0.8%, imp = 1080

worst case efficiency: 0.734675
[60 sec, 226962 itr]: obj = (0.224458), mov = 226962, inf = 99.3%, acc = 0.8%, imp = 1080

worst case efficiency: 0.734675
[61 sec, 235914 itr]: obj = (0.224458), mov = 235914, inf = 99.3%, acc = 0.7%, imp = 1080

worst case efficiency: 0.734675
[62 sec, 247080 itr]: obj = (0.224458), mov = 247080, inf = 99.4%, acc = 0.7%, imp = 1080

worst case efficiency: 0.734675
[63 sec, 258760 itr]: obj = (0.224458), mov = 258760, inf = 99.4%, acc = 0.7%, imp = 1080

worst case efficiency: 0.734675
[64 sec, 270325 itr]: obj = (0.224458), mov = 270325, inf = 99.4%, acc = 0.7%, imp = 1080

worst case efficiency: 0.734675
[65 sec, 282039 itr]: obj = (0.224458), mov = 282039, inf = 99.5%, acc = 0.6%, imp = 1080

worst case efficiency: 0.734675
[66 sec, 293423 itr]: obj = (0.224458), mov = 293423, inf = 99.5%, acc = 0.6%, imp = 1080

worst case efficiency: 0.734675
[67 sec, 305489 itr]: obj = (0.224458), mov = 305489, inf = 99.5%, acc = 0.6%, imp = 1080

worst case efficiency: 0.734675
[68 sec, 316954 itr]: obj = (0.224458), mov = 316954, inf = 99.5%, acc = 0.6%, imp = 1080

worst case efficiency: 0.734675
[69 sec, 328625 itr]: obj = (0.224458), mov = 328625, inf = 99.5%, acc = 0.5%, imp = 1080

worst case efficiency: 0.734675
[70 sec, 340224 itr]: obj = (0.224458), mov = 340224, inf = 99.6%, acc = 0.5%, imp = 1080

worst case efficiency: 0.734675
[71 sec, 351751 itr]: obj = (0.224458), mov = 351751, inf = 99.6%, acc = 0.5%, imp = 1080

worst case efficiency: 0.734675
[72 sec, 363606 itr]: obj = (0.224458), mov = 363606, inf = 99.6%, acc = 0.5%, imp = 1080

worst case efficiency: 0.734675
[73 sec, 374984 itr]: obj = (0.224458), mov = 374984, inf = 99.6%, acc = 0.5%, imp = 1080

worst case efficiency: 0.734675
[74 sec, 386691 itr]: obj = (0.224458), mov = 386691, inf = 99.6%, acc = 0.5%, imp = 1080

worst case efficiency: 0.734675
[75 sec, 398305 itr]: obj = (0.224458), mov = 398305, inf = 99.6%, acc = 0.5%, imp = 1080

worst case efficiency: 0.734675
[76 sec, 409643 itr]: obj = (0.224458), mov = 409643, inf = 99.6%, acc = 0.5%, imp = 1080

worst case efficiency: 0.734675
[77 sec, 421381 itr]: obj = (0.224458), mov = 421381, inf = 99.6%, acc = 0.4%, imp = 1080

worst case efficiency: 0.734675
[78 sec, 433288 itr]: obj = (0.224458), mov = 433288, inf = 99.7%, acc = 0.4%, imp = 1080

worst case efficiency: 0.734675
[79 sec, 445185 itr]: obj = (0.224458), mov = 445185, inf = 99.7%, acc = 0.4%, imp = 1080

worst case efficiency: 0.734675
[80 sec, 456811 itr]: obj = (0.224458), mov = 456811, inf = 99.7%, acc = 0.4%, imp = 1080

worst case efficiency: 0.734675
[81 sec, 468765 itr]: obj = (0.224458), mov = 468765, inf = 99.7%, acc = 0.4%, imp = 1080

worst case efficiency: 0.734675
[82 sec, 480915 itr]: obj = (0.224458), mov = 480915, inf = 99.7%, acc = 0.4%, imp = 1080

worst case efficiency: 0.734675
[83 sec, 492618 itr]: obj = (0.224458), mov = 492618, inf = 99.7%, acc = 0.4%, imp = 1080

worst case efficiency: 0.734675
[84 sec, 504343 itr]: obj = (0.224458), mov = 504343, inf = 99.7%, acc = 0.4%, imp = 1080

worst case efficiency: 0.734675
[85 sec, 516034 itr]: obj = (0.224458), mov = 516034, inf = 99.7%, acc = 0.4%, imp = 1080

worst case efficiency: 0.734675
[86 sec, 527643 itr]: obj = (0.224458), mov = 527643, inf = 99.7%, acc = 0.4%, imp = 1080

worst case efficiency: 0.734675
[87 sec, 539350 itr]: obj = (0.224458), mov = 539350, inf = 99.7%, acc = 0.4%, imp = 1080

worst case efficiency: 0.734675
[88 sec, 550793 itr]: obj = (0.224458), mov = 550793, inf = 99.7%, acc = 0.4%, imp = 1080

worst case efficiency: 0.734675
[89 sec, 561159 itr]: obj = (0.224458), mov = 561159, inf = 99.7%, acc = 0.3%, imp = 1080

worst case efficiency: 0.734675
[90 sec, 572371 itr]: obj = (0.224458), mov = 572371, inf = 99.7%, acc = 0.3%, imp = 1080

worst case efficiency: 0.734675
[90 sec, 572371 itr]: obj = (0.224458), mov = 572371, inf = 99.7%, acc = 0.3%, imp = 1080

worst case efficiency: 0.734675
572371 iterations, 572371 moves performed in 90 seconds
Feasible solution: obj = (0.224458)

Run output...
FINAL SOLUTION
Worst case efficiency: 0.734675
Mapping: 0->32, 1->40, 2->26, 3->23, 4->36, 5->6, 6->16, 7->14, 8->8, 9->18, 10->8, 11->46, 12->33, 13->8, 14->28, 15->19, 16->13, 17->16, 18->1, 19->7, 20->25, 21->41, 22->13, 23->46, 24->45, 25->10, 26->14, 27->34, 28->28, 29->8, 30->5, 31->13, 32->2, 33->25, 34->27, 35->23, 36->10, 37->4, 38->25, 39->44, 40->4, 41->4, 42->14, 43->24, 44->14, 45->29, 46->30, 47->47, 48->42, 49->0, 50->24, 51->22, 52->3, 53->36, 54->35, 55->2, 56->7, 57->38, 58->10, 59->35, 60->1, 61->11, 62->15, 63->26, 64->24, 65->21, 66->0, 67->28, 68->12, 69->40, 70->17, 71->12, 72->40, 73->29, 74->43, 75->12, 76->38, 77->43, 78->29, 79->2, 80->29, 81->24, 82->12, 83->32, 84->44, 85->22, 86->17, 87->29, 88->30, 89->28, 90->46, 91->1, 92->28, 93->16, 94->5, 95->4, 96->10, 97->34, 98->47, 99->11, 100->40, 101->45, 102->30, 103->41, 104->35, 105->11, 106->31, 107->36, 108->9, 109->20, 110->19, 111->5, 112->21, 113->21, 114->39, 115->0, 116->44, 117->40, 118->27, 119->32, 120->20, 121->47, 122->5, 123->3, 124->25, 125->9, 126->17, 127->41, 128->37, 129->16, 130->15, 131->6, 132->35, 133->43, 134->0, 135->13, 136->39, 137->37, 138->18, 139->18, 140->16, 141->4, 142->22, 143->37, 144->21, 145->24, 146->47, 147->37, 148->7, 149->3, 150->14, 151->39, 152->44, 153->31, 154->45, 155->10, 156->6, 157->39, 158->15, 159->3, 160->24, 161->33, 162->1, 163->7, 164->34, 165->8, 166->19, 167->46, 168->41, 169->32, 170->40, 171->30, 172->42, 173->27, 174->22, 175->23, 176->33, 177->23, 178->42, 179->21, 180->4, 181->18, 182->15, 183->36, 184->38, 185->43, 186->41, 187->30, 188->27, 189->38, 190->5, 191->2, 192->27, 193->31, 194->9, 195->38, 196->12, 197->21, 198->19, 199->11, 200->10, 201->9, 202->31, 203->3, 204->20, 205->22, 206->45, 207->19, 208->34, 209->32, 210->12, 211->45, 212->36, 213->17, 214->42, 215->18, 216->26, 217->0, 218->42, 219->2, 220->26, 221->44, 222->17, 223->36, 224->26, 225->37, 226->47, 227->13, 228->43, 229->39, 230->6, 231->6, 232->9, 233->13, 234->3, 235->20, 236->31, 237->8, 238->35, 239->11, 240->17, 241->27, 242->33, 243->46, 244->47, 245->42, 246->44, 247->11, 248->29, 249->15, 250->31, 251->46, 252->0, 253->20, 254->34, 255->1, 256->2, 257->26, 258->18, 259->38, 260->9, 261->1, 262->34, 263->20, 264->16, 265->37, 266->25, 267->45, 268->15, 269->33, 270->6, 271->25, 272->23, 273->23, 274->30, 275->43, 276->28, 277->14, 278->33, 279->7, 280->19, 281->39, 282->22, 283->5, 284->7, 285->32, 286->41, 287->35
Number of tasks per core:
	6	6	6	6	6	6
	6	6	6	6	6	6
	6	6	6	6	6	6
	6	6	6	6	6	6
	6	6	6	6	6	6
	6	6	6	6	6	6
	6	6	6	6	6	6
	6	6	6	6	6	6
Average CPI map:
	0.704457	0.972622	1.00255	1.14255	1.75972	1.25457
	1.66716	8.35062	2.41027	3.72171	2.49434	1.4772
	3.80655	3.13152	5.67631	6.9711	6.48927	0.646208
	1.79491	9.38586	7.74745	6.08131	4.53457	1.35197
	2.70344	3.36381	3.32726	7.5311	6.52045	1.54157
	1.54208	6.76352	5.3536	5.40728	5.94943	1.36176
	0.686173	7.35758	5.58627	3.98806	2.60073	2.17399
	1.36492	2.82517	2.3591	7.86302	2.2108	1.04412
Efficiency map:
	0.99722	0.871679	0.9105	0.823885	0.972767	1.00307
	0.776831	0.875088	0.760346	0.744843	0.734675	0.840438
	0.933304	0.734761	0.794259	0.811875	0.760475	0.745243
	0.824653	0.899775	0.825992	0.75177	0.750603	0.929878
	0.916827	0.734871	0.746752	0.829772	0.792998	0.814477
	0.802684	0.847413	0.734675	0.749235	0.800679	0.819879
	0.807533	0.792964	0.764785	0.734846	0.740637	0.854387
	0.816842	0.735684	0.737119	0.869148	0.755422	0.786184
==============================================================================
Local Solver optimizer for EML demonstration
==============================================================================

Option values: --wld-idx 12 --global-tlim 90 --seed 801

Starting the Optimization Process
