LocalSolver 4.0 (MacOS64, build 20131224)
Copyright (C) 2013 Bouygues SA, Aix-Marseille University, CNRS.
All rights reserved (see Terms and Conditions for details).

Load localsolver_res/tawd_ls.lsp...
Run input...
ANNs For the Platform:
4,2,1,6.45294,0.0174524,1.58234,2.29305,2.12057,3.95113,12.7206,-19.3278,5.58789,9.38298,0.00306445,0.00353919,0.795949
4,2,1,3.10684,7.56359,0.502116,0.637049,12.0356,-2.9013,-3.22211,-0.368567,-0.562298,-7.37831,2.38595,1.22203,-0.360292
4,2,1,4.88387,44.8399,1.27345,1.24496,49.1775,-8.83277,-3.12983,-1.00946,11.7,-3.01002,0.132635,0.00372271,0.673996
4,2,1,4.73045,19.3982,0.449241,0.753865,25.7092,17.3605,0.0558085,-8.91516,0.49993,10.3396,4.06312,-0.0136297,-3.24599
4,2,1,-7.16849,-10.0957,-0.518885,-0.00359459,5.93351,5.62684,52.0516,1.48603,1.30274,57.2311,0.250578,0.137157,0.417379
4,2,1,0.412706,-2.89716,0.137754,-2.57826,11.0947,121.374,858.444,-136.26,-14917.8,-1308.92,-3.36558,-0.000403784,4.17997
4,2,1,-8.8269,-0.482244,-0.0820712,-0.0562713,-10.1617,9.78118,-7.01882,-0.428151,-0.0606718,2.56012,-8.54699,-0.509991,-7.23704
4,2,1,2.19881,4.94147,0.541452,0.107587,6.45213,1.0452,0.405805,0.555763,3.64728,1.95727,0.425683,-0.00188273,0.383643
4,2,1,-6.13316,1.92598,-0.0562274,-0.0731719,-4.60606,0.509071,7.79918,0.393802,0.0114563,7.9345,-1.13416,0.310582,-0.637365
4,2,1,1.73462,2.97854,0.276167,0.0859465,3.6912,3.09203,3.25403,0.324282,0.112495,4.06123,0.954718,-0.48836,0.344765
4,2,1,1.57339,3.84603,-3.4467,0.7429,2.75709,2.1802,5.09535,0.482172,0.106131,6.49189,-0.0251827,0.433535,0.393482
4,2,1,4.13514,21.6229,1.1931,0.354612,24.1372,25.5916,0.432728,-12.6725,-0.45345,15.3428,0.194819,-0.0364695,0.647465
4,2,1,-0.728632,5.60079,1.78098,1.8429,-5.74354,-3.26566,-13.0026,-0.907163,-0.31822,-15.3707,-0.427666,-0.224298,0.154329
4,2,1,3.81854,-4.98219,-0.293924,-0.103604,-6.7034,2.28654,4.72568,0.469524,0.115005,6.05901,-0.511241,0.421809,-0.121549
4,2,1,-1.23773,5.98591,0.224555,-0.359337,6.05767,2.3852,3.4706,0.220977,0.179377,4.88772,0.199751,0.432231,0.177791
4,2,1,1.12189,4.09326,0.850801,0.171671,-5.17646,-1.9656,-4.07995,-0.210811,-0.113853,-5.17242,-2.70452,-0.46094,-2.36326
4,2,1,2.08858,4.80174,0.367584,0.109336,6.02292,4.32969,4.35157,0.772172,10.015,-0.96022,0.43933,4.17055e-05,0.365228
4,2,1,1.18806,3.00188,0.124753,0.00191203,3.75084,1.03049,2.7808,0.137818,0.0250058,4.01619,-1.05018,2.49176,-0.635083
4,2,1,3.11788,10.9247,0.699295,0.170953,13.0959,-11.4646,-5.88946,11.0137,8.74787,-11.701,0.236706,0.0216102,0.59131
4,2,1,7.53568,1.94998,-2.27776,-1.91765,0.451708,2.13206,4.27547,0.333162,0.0864645,5.45063,-0.0153486,0.447774,0.366202
4,2,1,-2.12436,-3.29848,-0.0965154,-0.0454545,-3.86293,4.27042,3.64797,0.106703,0.057602,4.81479,-1.28015,-0.815344,0.346524
4,2,1,2.06313,3.99765,-9.94001e-06,0.200591,5.05136,-0.024567,-3.22765,-1.84842,1.73493,-3.87425,0.446216,-0.0350173,0.320411
4,2,1,3.3952,3.19239,0.219932,0.0459907,4.0724,1.85184,2.9352,0.236295,0.0535068,3.62882,-0.516849,0.990723,0.337742
4,2,1,-6.32145,2.68844,0.160066,0.0633176,-3.81442,9.03888,1.31396,0.253255,-0.0684612,6.93971,1.83579,0.440423,2.20116
4,2,1,-4.54148,-0.217309,1.86369,-0.409034,0.0885675,-3.10698,-12.3715,-0.753639,-0.275832,-14.544,0.00344558,-0.233405,0.57337
4,2,1,-0.743367,6.86662,-0.19496,-0.0184317,7.54898,2.69258,3.24789,0.437511,0.121848,4.97423,0.830361,0.39615,-0.417087
4,2,1,2.07654,3.2533,0.103762,0.0837251,4.40922,1.95615,-2.57949,-0.10147,-0.0485499,-3.72005,0.479113,-0.433879,-0.0966803
4,2,1,-0.480501,-0.00331725,1.67452,0.764966,-1.53387,1.99113,3.67475,0.0228188,0.0287235,4.64739,0.15721,0.465135,0.487915
4,2,1,1.11584,-5.79333,-0.212675,0.376981,-6.64888,2.45003,3.54368,0.313683,0.144659,5.05472,-0.777178,0.423599,-0.389995
4,2,1,2.39093,1.70258,-0.183288,-0.314006,4.06496,2.34881,2.91375,-0.0230153,-0.18977,5.26307,-1.33645,1.84807,0.292237
4,2,1,0.88022,3.23795,0.179315,0.0205209,3.57684,0.764441,2.74982,0.156077,0.0273373,3.62313,-0.980719,2.16912,-0.37872
4,2,1,-1.27932,7.09751,-0.0490235,0.455487,7.14709,-2.57722,-4.06233,-0.410784,-0.0433739,-5.6171,0.164894,-0.408714,0.23583
4,2,1,0.623158,5.01876,0.194867,0.0365944,4.99458,-16.0815,2.94826,-1.82463,-1.90388,-9.56395,0.291148,-0.155001,0.360694
4,2,1,1.86251,3.92056,0.158781,0.0575693,4.93436,0.681285,4.09563,1.09826,-3.65606,2.09524,0.482473,-0.00448292,0.322397
4,2,1,3.33939,3.52877,0.262622,0.0607689,4.45842,2.23218,3.37107,0.256541,0.0516206,4.05014,-1.2701,1.7162,0.365737
4,2,1,5.0585,4.68315,2.53887,0.128578,8.9709,3.62833,11.0789,1.32555,0.190392,13.8026,-0.126366,0.350541,0.580103
4,2,1,4.99986,2.75557,1.33036,-0.0119951,6.91685,4.23025,5.34568,1.08928,0.0379928,8.80363,-0.700785,0.958812,0.547325
4,2,1,1.95024,3.24732,0.229322,0.0270089,3.53624,1.62575,3.04977,0.230194,0.0319079,3.46966,-1.34015,1.81817,0.333213
4,2,1,2.11055,5.16581,0.225183,0.0767342,6.2013,3.43647,-3.10756,1.22453,-6.27082,5.92438,0.428242,2.12665,-1.75474
4,2,1,10.028,2.55152,-0.0579427,-0.0186516,-2.98054,2.14055,4.33639,0.203596,0.057269,5.47668,0.0078111,0.436528,0.371941
4,2,1,1.80421,3.45533,0.27065,0.0337725,4.14172,3.00203,3.65885,0.26995,0.0620062,4.37924,0.892686,-0.440136,0.355377
4,2,1,-2.76424,-10.7675,-0.741451,-0.141046,-12.927,13.6995,2.51611,0.90934,27.76,15.1973,-0.260938,-0.00175312,0.546274
4,2,1,2.26659,3.88332,0.083697,0.287373,-5.89957,3.07548,7.5942,0.285535,0.141703,9.90558,1.94369,0.273352,2.47758
4,2,1,5.41472,-1.35343,-0.0808605,2.27411,0.928252,2.55844,6.15687,0.338903,0.0735359,7.47381,-0.0148119,0.388691,0.423615
4,2,1,4.53285,3.66527,0.130055,0.0722232,4.95325,-2.1632,-3.34312,-0.11633,-0.0577237,-3.98867,-0.759785,-1.19124,0.379449
4,2,1,2.36669,5.75119,0.132783,0.0812059,6.8845,-8.68015,-0.488627,0.811521,2.16444,0.277436,0.40839,0.00790296,0.400784
4,2,1,0.583762,8.58805,0.307497,0.0165495,8.61973,-7.32584,1.34397,-0.0108636,-0.0260377,-6.96836,0.266022,-5.2323,-4.69173
4,2,1,1.76683,-0.336959,-0.116305,-0.0696435,-1.62311,2.51027,5.65249,0.180271,0.0657051,7.97995,-0.0500539,0.457869,0.308072
Workload Information:
1.94365, 1.72274, 3.0003, 2.67473, 0.708817, 1.94976, 2.19814, 1.98059, 1.65253, 2.4329, 1.55026, 2.18558, 1.48288, 2.34618, 2.63831, 0.569931, 2.33748, 2.62522, 0.804851, 1.52861, 1.80011, 2.60212, 2.33104, 2.93327, 1.94532, 4.65093, 0.878058, 0.5, 1.06048, 2.96521, 2.23336, 2.27321, 1.83764, 2.40798, 2.09804, 1.14978, 2.18893, 1.90383, 1.76951, 2.21741, 1.98643, 1.93389, 1.55668, 2.88121, 2.46075, 0.911159, 3.03305, 1.15715, 0.591041, 1.89129, 1.07596, 6.14979, 0.665151, 1.62677, 0.767756, 4.62481, 4.39743, 1.19803, 0.511976, 0.5, 1.96853, 2.16397, 1.90805, 2.06591, 1.81344, 2.0801, 3.14364, 2.68947, 3.07273, 0.992259, 1.12898, 0.972916, 1.28574, 3.11346, 2.32277, 3.49911, 0.5, 1.27892, 2.49159, 1.16019, 1.80184, 1.58221, 2.66877, 2.29539, 3.32212, 0.892106, 1.63738, 3.35417, 0.746758, 2.04747, 3.13617, 0.50463, 0.5, 2.24314, 3.80159, 1.81447, 3.23507, 1.39096, 1.87515, 0.5, 4.3616, 0.637222, 1.13916, 0.822893, 4.33047, 0.600166, 4.60731, 0.5, 1.53706, 1.61894, 2.89586, 3.09672, 1.62184, 1.22957, 2.25583, 2.5967, 1.38999, 1.90329, 1.28025, 2.57393, 5.29231, 1.79515, 1.08895, 2.52152, 0.5, 0.802071, 1.39208, 4.15828, 1.19659, 3.60276, 0.832847, 0.817443, 1.42375, 3.38068, 3.5672, 1.98301, 0.5, 1.14536, 2.08175, 1.67462, 1.4119, 2.48904, 2.36101, 1.98167, 0.831055, 2.3706, 2.51188, 1.69479, 2.39317, 2.1985, 2.14689, 1.49416, 2.03144, 2.24304, 1.86527, 2.21921, 0.5, 3.26911, 3.04269, 1.6405, 0.513251, 3.03445, 2.40604, 1.29186, 1.22159, 4.02385, 2.55665, 0.5, 0.5, 1.05656, 1.97776, 3.13619, 0.881539, 4.44794, 3.45001, 1.15696, 1.77274, 2.26232, 0.5, 2.85797, 2.69944, 2.17428, 2.35897, 0.949505, 1.29318, 2.52463, 2.31628, 1.77659, 2.19046, 1.3835, 2.0286, 2.30457, 2.11015, 1.89318, 1.85647, 1.92611, 2.07169, 2.1424, 13.0536, 21.2619, 23.5566, 26.8842, 25.3488, 21.8948, 1.7748, 0.834071, 3.4189, 0.867087, 3.53284, 1.57231, 3.08433, 0.5, 0.925509, 1.9174, 3.21161, 2.36115, 3.31126, 0.804972, 5.2321, 0.809171, 1.18812, 0.654377, 3.01691, 2.54381, 1.23675, 1.63031, 2.58394, 0.988287, 0.619142, 2.15659, 3.61914, 1.34939, 3.50477, 0.750974, 1.35392, 1.40387, 2.36883, 1.9597, 2.43715, 2.47654, 1.52286, 2.39294, 2.11697, 2.54111, 2.11235, 1.31377, 2.14366, 1.8421, 2.27972, 2.50482, 1.00258, 2.22712, 4.00905, 0.693261, 2.39196, 3.76351, 0.5, 0.642218, 2.10021, 2.42915, 1.13832, 3.29873, 0.550335, 2.48325, 1.22267, 2.23415, 4.01466, 1.01903, 3.00948, 0.5, 3.52561, 1.02266, 1.11455, 2.19579, 2.65783, 1.48356, 1.83991, 1.85062, 2.77056, 0.5, 2.90158, 2.13732, 1.16738, 1.15033, 2.96474, 3.88986, 1.97515, 0.852553
cpi min/max: 0.5/26.8842
neighbors of 0: 1 6, number of others: 45
neighbors of 1: 0 2 6 7, number of others: 43
neighbors of 2: 1 3 7 8, number of others: 43
neighbors of 3: 2 4 8 9, number of others: 43
neighbors of 4: 3 5 9 10, number of others: 43
neighbors of 5: 4 10 11, number of others: 44
neighbors of 6: 0 1 7 12, number of others: 43
neighbors of 7: 1 2 6 8 12 13, number of others: 41
neighbors of 8: 2 3 7 9 13 14, number of others: 41
neighbors of 9: 3 4 8 10 14 15, number of others: 41
neighbors of 10: 4 5 9 11 15 16, number of others: 41
neighbors of 11: 5 10 16 17, number of others: 43
neighbors of 12: 6 7 13 18, number of others: 43
neighbors of 13: 7 8 12 14 18 19, number of others: 41
neighbors of 14: 8 9 13 15 19 20, number of others: 41
neighbors of 15: 9 10 14 16 20 21, number of others: 41
neighbors of 16: 10 11 15 17 21 22, number of others: 41
neighbors of 17: 11 16 22 23, number of others: 43
neighbors of 18: 12 13 19 24, number of others: 43
neighbors of 19: 13 14 18 20 24 25, number of others: 41
neighbors of 20: 14 15 19 21 25 26, number of others: 41
neighbors of 21: 15 16 20 22 26 27, number of others: 41
neighbors of 22: 16 17 21 23 27 28, number of others: 41
neighbors of 23: 17 22 28 29, number of others: 43
neighbors of 24: 18 19 25 30, number of others: 43
neighbors of 25: 19 20 24 26 30 31, number of others: 41
neighbors of 26: 20 21 25 27 31 32, number of others: 41
neighbors of 27: 21 22 26 28 32 33, number of others: 41
neighbors of 28: 22 23 27 29 33 34, number of others: 41
neighbors of 29: 23 28 34 35, number of others: 43
neighbors of 30: 24 25 31 36, number of others: 43
neighbors of 31: 25 26 30 32 36 37, number of others: 41
neighbors of 32: 26 27 31 33 37 38, number of others: 41
neighbors of 33: 27 28 32 34 38 39, number of others: 41
neighbors of 34: 28 29 33 35 39 40, number of others: 41
neighbors of 35: 29 34 40 41, number of others: 43
neighbors of 36: 30 31 37 42, number of others: 43
neighbors of 37: 31 32 36 38 42 43, number of others: 41
neighbors of 38: 32 33 37 39 43 44, number of others: 41
neighbors of 39: 33 34 38 40 44 45, number of others: 41
neighbors of 40: 34 35 39 41 45 46, number of others: 41
neighbors of 41: 35 40 46 47, number of others: 43
neighbors of 42: 36 37 43, number of others: 44
neighbors of 43: 37 38 42 44, number of others: 43
neighbors of 44: 38 39 43 45, number of others: 43
neighbors of 45: 39 40 44 46, number of others: 43
neighbors of 46: 40 41 45 47, number of others: 43
neighbors of 47: 41 46, number of others: 45
Run model...
Preprocess model 0% ...Preprocess model 16% ...Preprocess model 32% ...Preprocess model 48% ...Preprocess model 66% ...Preprocess model 84% ...Preprocess model 100% ...
Close model 0% ...Close model 9% ...Close model 18% ...Close model 27% ...Close model 36% ...Close model 45% ...Close model 54% ...Close model 63% ...Close model 72% ...Close model 81% ...Close model 91% ...Close model 100% ...
Run param...
Run solver...
Initialize threads 0% ...Initialize threads 100% ...
Push initial solutions 0% ...Push initial solutions 100% ...

Model: 
  expressions = 44734, operands = 116736
  decisions = 13824, constraints = 336, objectives = 1

Param: 
  time limit = 90 sec, no iteration limit
  seed = 501, nb threads = 1, annealing level = 1

Objectives:
  Obj 0: maximize, no bound

Phases:
  Phase 0: time limit = 90 sec, no iteration limit, optimized objective = 0


Computed bounds:
  Obj 0: upper bound = 0.664125


Phase 0:
[0 sec, 0 itr]: infeas = (336, 336, 576), mov = 0, inf < 0.1%, acc < 0.1%, imp = 0

worst case efficiency: 0.998464
[1 sec, 2228 itr]: infeas = (11, 11, 24), mov = 2228, inf = 71.2%, acc = 26.3%, imp = 114

worst case efficiency: 0.603178
[2 sec, 23769 itr]: obj = (0.0460127), mov = 23769, inf = 93.5%, acc = 5.7%, imp = 179

worst case efficiency: 0.627608
[3 sec, 44062 itr]: obj = (0.0507154), mov = 44062, inf = 96.4%, acc = 3.3%, imp = 211

worst case efficiency: 0.630429
[4 sec, 60810 itr]: obj = (0.0651857), mov = 60810, inf = 97.2%, acc = 2.5%, imp = 260

worst case efficiency: 0.639111
[5 sec, 74240 itr]: obj = (0.0710968), mov = 74240, inf = 97.5%, acc = 2.3%, imp = 316

worst case efficiency: 0.642658
[6 sec, 86355 itr]: obj = (0.0737558), mov = 86355, inf = 97.6%, acc = 2.1%, imp = 352

worst case efficiency: 0.644253
[7 sec, 97633 itr]: obj = (0.0780941), mov = 97633, inf = 97.6%, acc = 2.1%, imp = 382

worst case efficiency: 0.646856
[8 sec, 109176 itr]: obj = (0.0913032), mov = 109176, inf = 97.6%, acc = 2%, imp = 453

worst case efficiency: 0.654782
[9 sec, 120594 itr]: obj = (0.0948715), mov = 120594, inf = 97.6%, acc = 2%, imp = 502

worst case efficiency: 0.656923
[10 sec, 131688 itr]: obj = (0.100118), mov = 131688, inf = 97.6%, acc = 2%, imp = 552

worst case efficiency: 0.660071
[11 sec, 142605 itr]: obj = (0.107223), mov = 142605, inf = 97.5%, acc = 2%, imp = 624

worst case efficiency: 0.664334
[12 sec, 153898 itr]: obj = (0.112548), mov = 153898, inf = 97.5%, acc = 2%, imp = 671

worst case efficiency: 0.667529
[13 sec, 165086 itr]: obj = (0.118095), mov = 165086, inf = 97.5%, acc = 1.9%, imp = 717

worst case efficiency: 0.670857
[14 sec, 175636 itr]: obj = (0.130452), mov = 175636, inf = 97.5%, acc = 1.9%, imp = 768

worst case efficiency: 0.678271
[15 sec, 186214 itr]: obj = (0.137529), mov = 186214, inf = 97.6%, acc = 1.8%, imp = 825

worst case efficiency: 0.682517
[16 sec, 196303 itr]: obj = (0.141152), mov = 196303, inf = 97.6%, acc = 1.8%, imp = 867

worst case efficiency: 0.684691
[17 sec, 206296 itr]: obj = (0.14278), mov = 206296, inf = 97.7%, acc = 1.7%, imp = 901

worst case efficiency: 0.685668
[18 sec, 216367 itr]: obj = (0.146861), mov = 216367, inf = 97.7%, acc = 1.7%, imp = 937

worst case efficiency: 0.688116
[19 sec, 226220 itr]: obj = (0.154676), mov = 226220, inf = 97.8%, acc = 1.7%, imp = 988

worst case efficiency: 0.692806
[20 sec, 235997 itr]: obj = (0.159142), mov = 235997, inf = 97.8%, acc = 1.6%, imp = 1035

worst case efficiency: 0.695485
[21 sec, 245858 itr]: obj = (0.1629), mov = 245858, inf = 97.8%, acc = 1.6%, imp = 1068

worst case efficiency: 0.69774
[22 sec, 255647 itr]: obj = (0.164871), mov = 255647, inf = 97.8%, acc = 1.6%, imp = 1092

worst case efficiency: 0.698923
[23 sec, 265108 itr]: obj = (0.168566), mov = 265108, inf = 97.9%, acc = 1.5%, imp = 1119

worst case efficiency: 0.70114
[24 sec, 274705 itr]: obj = (0.172204), mov = 274705, inf = 97.9%, acc = 1.5%, imp = 1157

worst case efficiency: 0.703323
[25 sec, 284027 itr]: obj = (0.173765), mov = 284027, inf = 97.9%, acc = 1.5%, imp = 1187

worst case efficiency: 0.704259
[26 sec, 293886 itr]: obj = (0.177833), mov = 293886, inf = 97.9%, acc = 1.5%, imp = 1223

worst case efficiency: 0.7067
[27 sec, 303155 itr]: obj = (0.181883), mov = 303155, inf = 98%, acc = 1.4%, imp = 1254

worst case efficiency: 0.70913
[28 sec, 312792 itr]: obj = (0.186743), mov = 312792, inf = 98%, acc = 1.4%, imp = 1285

worst case efficiency: 0.712046
[29 sec, 322138 itr]: obj = (0.187436), mov = 322138, inf = 98%, acc = 1.4%, imp = 1301

worst case efficiency: 0.712462
[30 sec, 331181 itr]: obj = (0.187436), mov = 331181, inf = 98.1%, acc = 1.4%, imp = 1301

worst case efficiency: 0.712462
[31 sec, 341488 itr]: obj = (0.187605), mov = 341488, inf = 98.1%, acc = 1.3%, imp = 1302

worst case efficiency: 0.712563
[32 sec, 352764 itr]: obj = (0.191447), mov = 352764, inf = 98.2%, acc = 1.3%, imp = 1323

worst case efficiency: 0.714868
[33 sec, 365785 itr]: obj = (0.193127), mov = 365785, inf = 98.2%, acc = 1.3%, imp = 1351

worst case efficiency: 0.715876
[34 sec, 381405 itr]: obj = (0.193808), mov = 381405, inf = 98.2%, acc = 1.2%, imp = 1369

worst case efficiency: 0.716285
[35 sec, 399998 itr]: obj = (0.194653), mov = 399998, inf = 98.2%, acc = 1.2%, imp = 1390

worst case efficiency: 0.716792
[36 sec, 425591 itr]: obj = (0.195751), mov = 425591, inf = 98.3%, acc = 1.2%, imp = 1415

worst case efficiency: 0.717451
[37 sec, 455009 itr]: obj = (0.195965), mov = 455009, inf = 98.3%, acc = 1.2%, imp = 1422

worst case efficiency: 0.717579
[38 sec, 484678 itr]: obj = (0.196359), mov = 484678, inf = 98.3%, acc = 1.1%, imp = 1436

worst case efficiency: 0.717815
[39 sec, 520966 itr]: obj = (0.196421), mov = 520966, inf = 98.3%, acc = 1.1%, imp = 1443

worst case efficiency: 0.717853
[40 sec, 559679 itr]: obj = (0.196513), mov = 559679, inf = 98.3%, acc = 1%, imp = 1450

worst case efficiency: 0.717908
[41 sec, 597558 itr]: obj = (0.196573), mov = 597558, inf = 98.3%, acc = 1%, imp = 1456

worst case efficiency: 0.717944
[42 sec, 635847 itr]: obj = (0.196593), mov = 635847, inf = 98.3%, acc = 1%, imp = 1460

worst case efficiency: 0.717956
[43 sec, 673790 itr]: obj = (0.196629), mov = 673790, inf = 98.3%, acc = 0.9%, imp = 1468

worst case efficiency: 0.717977
[44 sec, 712023 itr]: obj = (0.19666), mov = 712023, inf = 98.4%, acc = 0.9%, imp = 1472

worst case efficiency: 0.717996
[45 sec, 751473 itr]: obj = (0.196688), mov = 751473, inf = 98.4%, acc = 0.9%, imp = 1476

worst case efficiency: 0.718013
[46 sec, 790262 itr]: obj = (0.1967), mov = 790262, inf = 98.4%, acc = 0.9%, imp = 1478

worst case efficiency: 0.71802
[47 sec, 829297 itr]: obj = (0.196717), mov = 829297, inf = 98.4%, acc = 0.8%, imp = 1480

worst case efficiency: 0.71803
[48 sec, 868844 itr]: obj = (0.196721), mov = 868844, inf = 98.4%, acc = 0.8%, imp = 1483

worst case efficiency: 0.718033
[49 sec, 908114 itr]: obj = (0.196724), mov = 908114, inf = 98.4%, acc = 0.8%, imp = 1484

worst case efficiency: 0.718035
[50 sec, 947696 itr]: obj = (0.196729), mov = 947696, inf = 98.4%, acc = 0.8%, imp = 1486

worst case efficiency: 0.718038
[51 sec, 986745 itr]: obj = (0.19674), mov = 986745, inf = 98.4%, acc = 0.8%, imp = 1489

worst case efficiency: 0.718044
[52 sec, 1025596 itr]: obj = (0.19674), mov = 1025596, inf = 98.4%, acc = 0.7%, imp = 1489

worst case efficiency: 0.718044
[53 sec, 1062893 itr]: obj = (0.19674), mov = 1062893, inf = 98.4%, acc = 0.7%, imp = 1490

worst case efficiency: 0.718044
[54 sec, 1101101 itr]: obj = (0.196761), mov = 1101101, inf = 98.4%, acc = 0.7%, imp = 1494

worst case efficiency: 0.718057
[55 sec, 1139422 itr]: obj = (0.196771), mov = 1139422, inf = 98.4%, acc = 0.7%, imp = 1496

worst case efficiency: 0.718062
[56 sec, 1176919 itr]: obj = (0.196774), mov = 1176919, inf = 98.4%, acc = 0.7%, imp = 1498

worst case efficiency: 0.718064
[57 sec, 1214601 itr]: obj = (0.19678), mov = 1214601, inf = 98.4%, acc = 0.7%, imp = 1500

worst case efficiency: 0.718068
[58 sec, 1251090 itr]: obj = (0.196798), mov = 1251090, inf = 98.5%, acc = 0.7%, imp = 1503

worst case efficiency: 0.718079
[59 sec, 1289104 itr]: obj = (0.196798), mov = 1289104, inf = 98.5%, acc = 0.7%, imp = 1503

worst case efficiency: 0.718079
[60 sec, 1326182 itr]: obj = (0.196833), mov = 1326182, inf = 98.5%, acc = 0.7%, imp = 1506

worst case efficiency: 0.7181
[61 sec, 1364366 itr]: obj = (0.196833), mov = 1364366, inf = 98.5%, acc = 0.6%, imp = 1507

worst case efficiency: 0.7181
[62 sec, 1402580 itr]: obj = (0.196843), mov = 1402580, inf = 98.5%, acc = 0.6%, imp = 1509

worst case efficiency: 0.718106
[63 sec, 1440514 itr]: obj = (0.196843), mov = 1440514, inf = 98.6%, acc = 0.6%, imp = 1509

worst case efficiency: 0.718106
[64 sec, 1464825 itr]: obj = (0.196887), mov = 1464825, inf = 98.6%, acc = 0.6%, imp = 1511

worst case efficiency: 0.718132
[65 sec, 1498609 itr]: obj = (0.196898), mov = 1498609, inf = 98.6%, acc = 0.6%, imp = 1512

worst case efficiency: 0.718139
[66 sec, 1532559 itr]: obj = (0.196898), mov = 1532559, inf = 98.6%, acc = 0.6%, imp = 1513

worst case efficiency: 0.718139
[67 sec, 1570779 itr]: obj = (0.196933), mov = 1570779, inf = 98.6%, acc = 0.6%, imp = 1517

worst case efficiency: 0.71816
[68 sec, 1608682 itr]: obj = (0.19699), mov = 1608682, inf = 98.6%, acc = 0.6%, imp = 1519

worst case efficiency: 0.718194
[69 sec, 1646162 itr]: obj = (0.197086), mov = 1646162, inf = 98.6%, acc = 0.6%, imp = 1525

worst case efficiency: 0.718252
[70 sec, 1683759 itr]: obj = (0.197202), mov = 1683759, inf = 98.6%, acc = 0.6%, imp = 1528

worst case efficiency: 0.718321
[71 sec, 1721694 itr]: obj = (0.197245), mov = 1721694, inf = 98.6%, acc = 0.6%, imp = 1531

worst case efficiency: 0.718347
[72 sec, 1759799 itr]: obj = (0.197262), mov = 1759799, inf = 98.7%, acc = 0.6%, imp = 1533

worst case efficiency: 0.718357
[73 sec, 1797956 itr]: obj = (0.197308), mov = 1797956, inf = 98.7%, acc = 0.6%, imp = 1534

worst case efficiency: 0.718385
[74 sec, 1835225 itr]: obj = (0.197382), mov = 1835225, inf = 98.7%, acc = 0.6%, imp = 1535

worst case efficiency: 0.718429
[75 sec, 1873455 itr]: obj = (0.197382), mov = 1873455, inf = 98.7%, acc = 0.6%, imp = 1535

worst case efficiency: 0.718429
[76 sec, 1910918 itr]: obj = (0.197457), mov = 1910918, inf = 98.7%, acc = 0.6%, imp = 1536

worst case efficiency: 0.718474
[77 sec, 1948168 itr]: obj = (0.197512), mov = 1948168, inf = 98.7%, acc = 0.6%, imp = 1538

worst case efficiency: 0.718507
[78 sec, 1984209 itr]: obj = (0.197528), mov = 1984209, inf = 98.7%, acc = 0.6%, imp = 1540

worst case efficiency: 0.718517
[79 sec, 2021435 itr]: obj = (0.197664), mov = 2021435, inf = 98.7%, acc = 0.6%, imp = 1543

worst case efficiency: 0.718598
[80 sec, 2059007 itr]: obj = (0.197938), mov = 2059007, inf = 98.7%, acc = 0.6%, imp = 1547

worst case efficiency: 0.718763
[81 sec, 2096624 itr]: obj = (0.197996), mov = 2096624, inf = 98.7%, acc = 0.6%, imp = 1549

worst case efficiency: 0.718797
[82 sec, 2133610 itr]: obj = (0.19816), mov = 2133610, inf = 98.7%, acc = 0.6%, imp = 1552

worst case efficiency: 0.718896
[83 sec, 2172350 itr]: obj = (0.198186), mov = 2172350, inf = 98.8%, acc = 0.6%, imp = 1556

worst case efficiency: 0.718912
[84 sec, 2211314 itr]: obj = (0.198193), mov = 2211314, inf = 98.8%, acc = 0.6%, imp = 1557

worst case efficiency: 0.718916
[85 sec, 2248881 itr]: obj = (0.198193), mov = 2248881, inf = 98.8%, acc = 0.6%, imp = 1557

worst case efficiency: 0.718916
[86 sec, 2287660 itr]: obj = (0.198341), mov = 2287660, inf = 98.8%, acc = 0.6%, imp = 1563

worst case efficiency: 0.719004
[87 sec, 2326911 itr]: obj = (0.198459), mov = 2326911, inf = 98.8%, acc = 0.5%, imp = 1573

worst case efficiency: 0.719075
[88 sec, 2365451 itr]: obj = (0.198487), mov = 2365451, inf = 98.8%, acc = 0.5%, imp = 1577

worst case efficiency: 0.719092
[89 sec, 2403088 itr]: obj = (0.198596), mov = 2403088, inf = 98.8%, acc = 0.5%, imp = 1584

worst case efficiency: 0.719158
[90 sec, 2441105 itr]: obj = (0.19861), mov = 2441105, inf = 98.8%, acc = 0.5%, imp = 1587

worst case efficiency: 0.719166
[90 sec, 2441105 itr]: obj = (0.19861), mov = 2441105, inf = 98.8%, acc = 0.5%, imp = 1587

worst case efficiency: 0.719166
2441105 iterations, 2441105 moves performed in 90 seconds
Feasible solution: obj = (0.19861)

Run output...
FINAL SOLUTION
Worst case efficiency: 0.719166
Mapping: 0->46, 1->25, 2->31, 3->37, 4->2, 5->37, 6->8, 7->26, 8->16, 9->15, 10->26, 11->22, 12->5, 13->39, 14->44, 15->17, 16->46, 17->44, 18->23, 19->41, 20->5, 21->21, 22->4, 23->32, 24->39, 25->14, 26->30, 27->1, 28->24, 29->38, 30->42, 31->45, 32->46, 33->11, 34->5, 35->20, 36->46, 37->34, 38->6, 39->41, 40->45, 41->22, 42->43, 43->27, 44->28, 45->24, 46->38, 47->3, 48->0, 49->35, 50->12, 51->22, 52->2, 53->6, 54->2, 55->43, 56->8, 57->5, 58->3, 59->0, 60->40, 61->8, 62->41, 63->43, 64->26, 65->39, 66->14, 67->32, 68->6, 69->36, 70->6, 71->42, 72->23, 73->9, 74->21, 75->40, 76->29, 77->1, 78->28, 79->25, 80->43, 81->11, 82->22, 83->10, 84->31, 85->18, 86->34, 87->39, 88->12, 89->11, 90->7, 91->18, 92->0, 93->25, 94->32, 95->40, 96->27, 97->26, 98->11, 99->36, 100->15, 101->24, 102->19, 103->12, 104->32, 105->30, 106->11, 107->29, 108->2, 109->8, 110->28, 111->34, 112->26, 113->17, 114->9, 115->28, 116->20, 117->45, 118->23, 119->14, 120->13, 121->19, 122->20, 123->13, 124->47, 125->47, 126->42, 127->33, 128->18, 129->38, 130->17, 131->18, 132->47, 133->15, 134->9, 135->45, 136->3, 137->4, 138->47, 139->43, 140->18, 141->46, 142->10, 143->30, 144->11, 145->8, 146->15, 147->47, 148->5, 149->27, 150->15, 151->36, 152->7, 153->43, 154->10, 155->44, 156->24, 157->33, 158->9, 159->6, 160->30, 161->16, 162->21, 163->25, 164->23, 165->21, 166->28, 167->29, 168->1, 169->3, 170->1, 171->7, 172->6, 173->27, 174->13, 175->1, 176->7, 177->7, 178->12, 179->35, 180->15, 181->38, 182->40, 183->12, 184->4, 185->32, 186->10, 187->45, 188->44, 189->35, 190->16, 191->41, 192->31, 193->16, 194->47, 195->41, 196->40, 197->27, 198->34, 199->25, 200->16, 201->20, 202->26, 203->19, 204->5, 205->0, 206->14, 207->2, 208->31, 209->17, 210->16, 211->29, 212->29, 213->36, 214->38, 215->13, 216->22, 217->35, 218->39, 219->4, 220->1, 221->35, 222->34, 223->23, 224->42, 225->46, 226->14, 227->23, 228->4, 229->13, 230->44, 231->25, 232->31, 233->0, 234->20, 235->42, 236->39, 237->44, 238->27, 239->38, 240->42, 241->37, 242->10, 243->37, 244->41, 245->17, 246->9, 247->19, 248->45, 249->14, 250->36, 251->13, 252->33, 253->12, 254->33, 255->33, 256->24, 257->20, 258->31, 259->21, 260->3, 261->22, 262->24, 263->21, 264->29, 265->10, 266->40, 267->30, 268->19, 269->2, 270->28, 271->18, 272->36, 273->4, 274->7, 275->19, 276->17, 277->34, 278->9, 279->30, 280->32, 281->8, 282->3, 283->35, 284->37, 285->37, 286->33, 287->0
Number of tasks per core:
	6	6	6	6	6	6
	6	6	6	6	6	6
	6	6	6	6	6	6
	6	6	6	6	6	6
	6	6	6	6	6	6
	6	6	6	6	6	6
	6	6	6	6	6	6
	6	6	6	6	6	6
Average CPI map:
	0.67144	1.10029	0.840979	0.921899	1.39895	1.79117
	1.68667	2.49945	2.48107	2.81557	2.19818	2.2252
	0.798063	3.00145	3.14603	2.92223	5.87495	1.22639
	0.974222	5.19404	5.41818	2.7112	3.258	1.35409
	0.693199	4.8382	5.61766	2.89038	2.75453	0.691364
	0.915362	2.9284	3.19684	3.26118	4.09318	1.45707
	1.17016	2.73552	2.91057	2.88778	2.62124	1.99952
	1.46031	2.32782	2.54201	2.03371	2.07118	1.39314
Efficiency map:
	0.99722	0.847197	0.904602	0.764158	0.919966	1.00307
	0.772624	0.720641	0.739171	0.736951	0.719236	0.847932
	0.818159	0.719243	0.728089	0.719997	0.780738	0.774848
	0.813349	0.725642	0.72005	0.721415	0.721264	0.924513
	0.814715	0.719224	0.752688	0.720172	0.720244	0.757101
	0.763987	0.721745	0.722002	0.723113	0.739874	0.821501
	0.806171	0.7249	0.737114	0.720812	0.719173	0.883848
	0.836447	0.719166	0.735228	0.719475	0.723248	0.796845
==============================================================================
Local Solver optimizer for EML demonstration
==============================================================================

Option values: --wld-idx 16 --global-tlim 90 --seed 501

Starting the Optimization Process
