LocalSolver 4.0 (MacOS64, build 20131224)
Copyright (C) 2013 Bouygues SA, Aix-Marseille University, CNRS.
All rights reserved (see Terms and Conditions for details).

Load localsolver_res/tawd_ls.lsp...
Run input...
ANNs For the Platform:
4,2,1,6.45294,0.0174524,1.58234,2.29305,2.12057,3.95113,12.7206,-19.3278,5.58789,9.38298,0.00306445,0.00353919,0.795949
4,2,1,3.10684,7.56359,0.502116,0.637049,12.0356,-2.9013,-3.22211,-0.368567,-0.562298,-7.37831,2.38595,1.22203,-0.360292
4,2,1,4.88387,44.8399,1.27345,1.24496,49.1775,-8.83277,-3.12983,-1.00946,11.7,-3.01002,0.132635,0.00372271,0.673996
4,2,1,4.73045,19.3982,0.449241,0.753865,25.7092,17.3605,0.0558085,-8.91516,0.49993,10.3396,4.06312,-0.0136297,-3.24599
4,2,1,-7.16849,-10.0957,-0.518885,-0.00359459,5.93351,5.62684,52.0516,1.48603,1.30274,57.2311,0.250578,0.137157,0.417379
4,2,1,0.412706,-2.89716,0.137754,-2.57826,11.0947,121.374,858.444,-136.26,-14917.8,-1308.92,-3.36558,-0.000403784,4.17997
4,2,1,-8.8269,-0.482244,-0.0820712,-0.0562713,-10.1617,9.78118,-7.01882,-0.428151,-0.0606718,2.56012,-8.54699,-0.509991,-7.23704
4,2,1,2.19881,4.94147,0.541452,0.107587,6.45213,1.0452,0.405805,0.555763,3.64728,1.95727,0.425683,-0.00188273,0.383643
4,2,1,-6.13316,1.92598,-0.0562274,-0.0731719,-4.60606,0.509071,7.79918,0.393802,0.0114563,7.9345,-1.13416,0.310582,-0.637365
4,2,1,1.73462,2.97854,0.276167,0.0859465,3.6912,3.09203,3.25403,0.324282,0.112495,4.06123,0.954718,-0.48836,0.344765
4,2,1,1.57339,3.84603,-3.4467,0.7429,2.75709,2.1802,5.09535,0.482172,0.106131,6.49189,-0.0251827,0.433535,0.393482
4,2,1,4.13514,21.6229,1.1931,0.354612,24.1372,25.5916,0.432728,-12.6725,-0.45345,15.3428,0.194819,-0.0364695,0.647465
4,2,1,-0.728632,5.60079,1.78098,1.8429,-5.74354,-3.26566,-13.0026,-0.907163,-0.31822,-15.3707,-0.427666,-0.224298,0.154329
4,2,1,3.81854,-4.98219,-0.293924,-0.103604,-6.7034,2.28654,4.72568,0.469524,0.115005,6.05901,-0.511241,0.421809,-0.121549
4,2,1,-1.23773,5.98591,0.224555,-0.359337,6.05767,2.3852,3.4706,0.220977,0.179377,4.88772,0.199751,0.432231,0.177791
4,2,1,1.12189,4.09326,0.850801,0.171671,-5.17646,-1.9656,-4.07995,-0.210811,-0.113853,-5.17242,-2.70452,-0.46094,-2.36326
4,2,1,2.08858,4.80174,0.367584,0.109336,6.02292,4.32969,4.35157,0.772172,10.015,-0.96022,0.43933,4.17055e-05,0.365228
4,2,1,1.18806,3.00188,0.124753,0.00191203,3.75084,1.03049,2.7808,0.137818,0.0250058,4.01619,-1.05018,2.49176,-0.635083
4,2,1,3.11788,10.9247,0.699295,0.170953,13.0959,-11.4646,-5.88946,11.0137,8.74787,-11.701,0.236706,0.0216102,0.59131
4,2,1,7.53568,1.94998,-2.27776,-1.91765,0.451708,2.13206,4.27547,0.333162,0.0864645,5.45063,-0.0153486,0.447774,0.366202
4,2,1,-2.12436,-3.29848,-0.0965154,-0.0454545,-3.86293,4.27042,3.64797,0.106703,0.057602,4.81479,-1.28015,-0.815344,0.346524
4,2,1,2.06313,3.99765,-9.94001e-06,0.200591,5.05136,-0.024567,-3.22765,-1.84842,1.73493,-3.87425,0.446216,-0.0350173,0.320411
4,2,1,3.3952,3.19239,0.219932,0.0459907,4.0724,1.85184,2.9352,0.236295,0.0535068,3.62882,-0.516849,0.990723,0.337742
4,2,1,-6.32145,2.68844,0.160066,0.0633176,-3.81442,9.03888,1.31396,0.253255,-0.0684612,6.93971,1.83579,0.440423,2.20116
4,2,1,-4.54148,-0.217309,1.86369,-0.409034,0.0885675,-3.10698,-12.3715,-0.753639,-0.275832,-14.544,0.00344558,-0.233405,0.57337
4,2,1,-0.743367,6.86662,-0.19496,-0.0184317,7.54898,2.69258,3.24789,0.437511,0.121848,4.97423,0.830361,0.39615,-0.417087
4,2,1,2.07654,3.2533,0.103762,0.0837251,4.40922,1.95615,-2.57949,-0.10147,-0.0485499,-3.72005,0.479113,-0.433879,-0.0966803
4,2,1,-0.480501,-0.00331725,1.67452,0.764966,-1.53387,1.99113,3.67475,0.0228188,0.0287235,4.64739,0.15721,0.465135,0.487915
4,2,1,1.11584,-5.79333,-0.212675,0.376981,-6.64888,2.45003,3.54368,0.313683,0.144659,5.05472,-0.777178,0.423599,-0.389995
4,2,1,2.39093,1.70258,-0.183288,-0.314006,4.06496,2.34881,2.91375,-0.0230153,-0.18977,5.26307,-1.33645,1.84807,0.292237
4,2,1,0.88022,3.23795,0.179315,0.0205209,3.57684,0.764441,2.74982,0.156077,0.0273373,3.62313,-0.980719,2.16912,-0.37872
4,2,1,-1.27932,7.09751,-0.0490235,0.455487,7.14709,-2.57722,-4.06233,-0.410784,-0.0433739,-5.6171,0.164894,-0.408714,0.23583
4,2,1,0.623158,5.01876,0.194867,0.0365944,4.99458,-16.0815,2.94826,-1.82463,-1.90388,-9.56395,0.291148,-0.155001,0.360694
4,2,1,1.86251,3.92056,0.158781,0.0575693,4.93436,0.681285,4.09563,1.09826,-3.65606,2.09524,0.482473,-0.00448292,0.322397
4,2,1,3.33939,3.52877,0.262622,0.0607689,4.45842,2.23218,3.37107,0.256541,0.0516206,4.05014,-1.2701,1.7162,0.365737
4,2,1,5.0585,4.68315,2.53887,0.128578,8.9709,3.62833,11.0789,1.32555,0.190392,13.8026,-0.126366,0.350541,0.580103
4,2,1,4.99986,2.75557,1.33036,-0.0119951,6.91685,4.23025,5.34568,1.08928,0.0379928,8.80363,-0.700785,0.958812,0.547325
4,2,1,1.95024,3.24732,0.229322,0.0270089,3.53624,1.62575,3.04977,0.230194,0.0319079,3.46966,-1.34015,1.81817,0.333213
4,2,1,2.11055,5.16581,0.225183,0.0767342,6.2013,3.43647,-3.10756,1.22453,-6.27082,5.92438,0.428242,2.12665,-1.75474
4,2,1,10.028,2.55152,-0.0579427,-0.0186516,-2.98054,2.14055,4.33639,0.203596,0.057269,5.47668,0.0078111,0.436528,0.371941
4,2,1,1.80421,3.45533,0.27065,0.0337725,4.14172,3.00203,3.65885,0.26995,0.0620062,4.37924,0.892686,-0.440136,0.355377
4,2,1,-2.76424,-10.7675,-0.741451,-0.141046,-12.927,13.6995,2.51611,0.90934,27.76,15.1973,-0.260938,-0.00175312,0.546274
4,2,1,2.26659,3.88332,0.083697,0.287373,-5.89957,3.07548,7.5942,0.285535,0.141703,9.90558,1.94369,0.273352,2.47758
4,2,1,5.41472,-1.35343,-0.0808605,2.27411,0.928252,2.55844,6.15687,0.338903,0.0735359,7.47381,-0.0148119,0.388691,0.423615
4,2,1,4.53285,3.66527,0.130055,0.0722232,4.95325,-2.1632,-3.34312,-0.11633,-0.0577237,-3.98867,-0.759785,-1.19124,0.379449
4,2,1,2.36669,5.75119,0.132783,0.0812059,6.8845,-8.68015,-0.488627,0.811521,2.16444,0.277436,0.40839,0.00790296,0.400784
4,2,1,0.583762,8.58805,0.307497,0.0165495,8.61973,-7.32584,1.34397,-0.0108636,-0.0260377,-6.96836,0.266022,-5.2323,-4.69173
4,2,1,1.76683,-0.336959,-0.116305,-0.0696435,-1.62311,2.51027,5.65249,0.180271,0.0657051,7.97995,-0.0500539,0.457869,0.308072
Workload Information:
2.55359, 2.36117, 0.573532, 2.29872, 2.64543, 1.56757, 1.64625, 1.52824, 1.43803, 0.5, 3.64814, 3.23935, 2.51107, 2.40504, 2.72906, 2.62251, 0.5, 1.23232, 2.20879, 1.20027, 0.5, 5.53224, 0.994675, 1.56401, 1.61236, 0.5, 4.21228, 2.68281, 0.831039, 2.16151, 4.10149, 1.69636, 1.32855, 1.90991, 2.46369, 0.5, 2.06286, 2.17432, 2.44801, 2.31855, 1.94914, 1.04712, 0.5, 3.40758, 0.692599, 0.581298, 3.95491, 2.86361, 3.40809, 0.55863, 0.5, 4.06533, 0.728905, 2.73904, 1.09989, 0.5, 3.11603, 4.30389, 2.12124, 0.858948, 1.79955, 2.07464, 1.89003, 1.92703, 2.08784, 2.2209, 0.91615, 2.83479, 2.3763, 0.840966, 2.02627, 3.00552, 0.930088, 4.13549, 0.907767, 3.06438, 0.894031, 2.06824, 0.5, 3.39243, 2.32285, 0.984231, 4.27939, 0.521107, 1.92992, 2.6927, 0.606388, 3.40636, 2.86463, 0.5, 0.769231, 2.15511, 2.37213, 2.15005, 2.14917, 2.40431, 2.008, 2.01354, 1.8307, 2.11466, 1.93379, 2.09931, 2.78209, 2.86996, 0.624814, 2.52425, 2.69888, 0.5, 2.60002, 0.5, 2.55397, 2.20386, 2.44118, 1.70097, 2.19957, 3.88385, 0.909231, 0.61331, 1.61421, 2.77983, 1.52734, 2.40316, 2.38423, 1.9802, 1.84871, 1.85637, 1.69252, 0.5, 2.40423, 2.1761, 1.91143, 3.31573, 1.42531, 4.22734, 0.962699, 0.5, 0.680057, 4.20459, 3.36067, 3.62207, 2.07557, 0.698655, 0.5, 1.74304, 1.10969, 0.896667, 2.3006, 2.96707, 1.81721, 2.90877, 2.8252, 3.51572, 1.32983, 1.039, 1.93841, 1.35184, 3.35032, 2.99665, 2.84917, 0.87015, 1.43371, 0.5, 1.04984, 2.15255, 2.28473, 2.20354, 1.94725, 2.36208, 3.17786, 2.84797, 0.703695, 0.695322, 0.564924, 4.01022, 1.0335, 1.27125, 0.589603, 4.29137, 2.09966, 2.71461, 1.30416, 1.33529, 2.18506, 1.33513, 5.34037, 0.5, 2.64882, 3.53865, 0.5, 3.29267, 0.756623, 1.26323, 0.5, 2.27668, 1.685, 1.8148, 2.35731, 3.36622, 2.52334, 2.31358, 2.47449, 2.05636, 0.951763, 1.68047, 4.83694, 8.8023, 13.8034, 0.83421, 27.4394, 4.28373, 13.8001, 12.8991, 9.04167, 0.5, 10.4205, 13.3387, 2.16182, 2.17339, 2.40504, 2.0239, 1.43849, 1.79737, 2.93771, 2.80105, 2.00619, 1.16265, 0.5, 2.59241, 2.07594, 2.18482, 1.40789, 2.3826, 2.13165, 1.8171, 1.50139, 3.08218, 1.8065, 0.603463, 2.5178, 2.48866, 14.6043, 10.687, 0.5, 14.1735, 7.84635, 12.1889, 17.4451, 4.65895, 16.1089, 7.99628, 11.6184, 2.17231, 3.15289, 1.3518, 1.20014, 3.24318, 2.55199, 0.5, 0.5, 1.5547, 2.47587, 2.08944, 2.69116, 2.68883, 1.34601, 1.47435, 2.67901, 1.99912, 2.6342, 1.86732, 0.953892, 1.68086, 2.14936, 2.77665, 1.54645, 2.89279, 2.29255, 7.04134, 20.331, 6.35332, 7.11756, 16.8643, 11.703, 8.39222, 10.1196, 9.35711, 12.3621, 8.06594
cpi min/max: 0.5/27.4394
neighbors of 0: 1 6, number of others: 45
neighbors of 1: 0 2 6 7, number of others: 43
neighbors of 2: 1 3 7 8, number of others: 43
neighbors of 3: 2 4 8 9, number of others: 43
neighbors of 4: 3 5 9 10, number of others: 43
neighbors of 5: 4 10 11, number of others: 44
neighbors of 6: 0 1 7 12, number of others: 43
neighbors of 7: 1 2 6 8 12 13, number of others: 41
neighbors of 8: 2 3 7 9 13 14, number of others: 41
neighbors of 9: 3 4 8 10 14 15, number of others: 41
neighbors of 10: 4 5 9 11 15 16, number of others: 41
neighbors of 11: 5 10 16 17, number of others: 43
neighbors of 12: 6 7 13 18, number of others: 43
neighbors of 13: 7 8 12 14 18 19, number of others: 41
neighbors of 14: 8 9 13 15 19 20, number of others: 41
neighbors of 15: 9 10 14 16 20 21, number of others: 41
neighbors of 16: 10 11 15 17 21 22, number of others: 41
neighbors of 17: 11 16 22 23, number of others: 43
neighbors of 18: 12 13 19 24, number of others: 43
neighbors of 19: 13 14 18 20 24 25, number of others: 41
neighbors of 20: 14 15 19 21 25 26, number of others: 41
neighbors of 21: 15 16 20 22 26 27, number of others: 41
neighbors of 22: 16 17 21 23 27 28, number of others: 41
neighbors of 23: 17 22 28 29, number of others: 43
neighbors of 24: 18 19 25 30, number of others: 43
neighbors of 25: 19 20 24 26 30 31, number of others: 41
neighbors of 26: 20 21 25 27 31 32, number of others: 41
neighbors of 27: 21 22 26 28 32 33, number of others: 41
neighbors of 28: 22 23 27 29 33 34, number of others: 41
neighbors of 29: 23 28 34 35, number of others: 43
neighbors of 30: 24 25 31 36, number of others: 43
neighbors of 31: 25 26 30 32 36 37, number of others: 41
neighbors of 32: 26 27 31 33 37 38, number of others: 41
neighbors of 33: 27 28 32 34 38 39, number of others: 41
neighbors of 34: 28 29 33 35 39 40, number of others: 41
neighbors of 35: 29 34 40 41, number of others: 43
neighbors of 36: 30 31 37 42, number of others: 43
neighbors of 37: 31 32 36 38 42 43, number of others: 41
neighbors of 38: 32 33 37 39 43 44, number of others: 41
neighbors of 39: 33 34 38 40 44 45, number of others: 41
neighbors of 40: 34 35 39 41 45 46, number of others: 41
neighbors of 41: 35 40 46 47, number of others: 43
neighbors of 42: 36 37 43, number of others: 44
neighbors of 43: 37 38 42 44, number of others: 43
neighbors of 44: 38 39 43 45, number of others: 43
neighbors of 45: 39 40 44 46, number of others: 43
neighbors of 46: 40 41 45 47, number of others: 43
neighbors of 47: 41 46, number of others: 45
Run model...
Preprocess model 0% ...Preprocess model 16% ...Preprocess model 32% ...Preprocess model 48% ...Preprocess model 66% ...Preprocess model 84% ...Preprocess model 100% ...
Close model 0% ...Close model 9% ...Close model 18% ...Close model 27% ...Close model 36% ...Close model 45% ...Close model 54% ...Close model 63% ...Close model 72% ...Close model 81% ...Close model 91% ...Close model 100% ...
Run param...
Run solver...
Initialize threads 0% ...Initialize threads 100% ...
Push initial solutions 0% ...Push initial solutions 100% ...

Model: 
  expressions = 44725, operands = 116736
  decisions = 13824, constraints = 336, objectives = 1

Param: 
  time limit = 90 sec, no iteration limit
  seed = 801, nb threads = 1, annealing level = 1

Objectives:
  Obj 0: maximize, no bound

Phases:
  Phase 0: time limit = 90 sec, no iteration limit, optimized objective = 0


Computed bounds:
  Obj 0: upper bound = 0.664124


Phase 0:
[0 sec, 0 itr]: infeas = (336, 336, 576), mov = 0, inf < 0.1%, acc < 0.1%, imp = 0

worst case efficiency: 0.998464
[1 sec, 12496 itr]: obj = (0.0520991), mov = 12496, inf = 93.4%, acc = 6%, imp = 150

worst case efficiency: 0.631259
[2 sec, 37230 itr]: obj = (0.066614), mov = 37230, inf = 96.5%, acc = 2.9%, imp = 204

worst case efficiency: 0.639968
[3 sec, 56441 itr]: obj = (0.073748), mov = 56441, inf = 96.8%, acc = 2.6%, imp = 247

worst case efficiency: 0.644249
[4 sec, 73238 itr]: obj = (0.0817433), mov = 73238, inf = 96.9%, acc = 2.4%, imp = 304

worst case efficiency: 0.649046
[5 sec, 88875 itr]: obj = (0.0868248), mov = 88875, inf = 97.1%, acc = 2.2%, imp = 338

worst case efficiency: 0.652095
[6 sec, 103548 itr]: obj = (0.0983738), mov = 103548, inf = 97.3%, acc = 2.1%, imp = 376

worst case efficiency: 0.659024
[7 sec, 117064 itr]: obj = (0.113339), mov = 117064, inf = 97.3%, acc = 2.1%, imp = 426

worst case efficiency: 0.668003
[8 sec, 129555 itr]: obj = (0.120209), mov = 129555, inf = 97.3%, acc = 2%, imp = 465

worst case efficiency: 0.672125
[9 sec, 142148 itr]: obj = (0.129108), mov = 142148, inf = 97.3%, acc = 2%, imp = 507

worst case efficiency: 0.677465
[10 sec, 154549 itr]: obj = (0.134895), mov = 154549, inf = 97.3%, acc = 2%, imp = 536

worst case efficiency: 0.680937
[11 sec, 166904 itr]: obj = (0.138255), mov = 166904, inf = 97.4%, acc = 1.9%, imp = 560

worst case efficiency: 0.682953
[12 sec, 178732 itr]: obj = (0.141826), mov = 178732, inf = 97.4%, acc = 1.9%, imp = 593

worst case efficiency: 0.685096
[13 sec, 190801 itr]: obj = (0.14837), mov = 190801, inf = 97.5%, acc = 1.8%, imp = 635

worst case efficiency: 0.689022
[14 sec, 201819 itr]: obj = (0.152353), mov = 201819, inf = 97.6%, acc = 1.8%, imp = 666

worst case efficiency: 0.691412
[15 sec, 213035 itr]: obj = (0.154208), mov = 213035, inf = 97.6%, acc = 1.7%, imp = 683

worst case efficiency: 0.692525
[16 sec, 224047 itr]: obj = (0.156646), mov = 224047, inf = 97.7%, acc = 1.7%, imp = 704

worst case efficiency: 0.693988
[17 sec, 234896 itr]: obj = (0.166315), mov = 234896, inf = 97.7%, acc = 1.7%, imp = 743

worst case efficiency: 0.699789
[18 sec, 245470 itr]: obj = (0.170248), mov = 245470, inf = 97.7%, acc = 1.7%, imp = 773

worst case efficiency: 0.702149
[19 sec, 255881 itr]: obj = (0.173977), mov = 255881, inf = 97.7%, acc = 1.7%, imp = 809

worst case efficiency: 0.704386
[20 sec, 266208 itr]: obj = (0.176499), mov = 266208, inf = 97.7%, acc = 1.7%, imp = 840

worst case efficiency: 0.705899
[21 sec, 276634 itr]: obj = (0.186929), mov = 276634, inf = 97.7%, acc = 1.7%, imp = 873

worst case efficiency: 0.712158
[22 sec, 286942 itr]: obj = (0.189973), mov = 286942, inf = 97.7%, acc = 1.7%, imp = 907

worst case efficiency: 0.713984
[23 sec, 297673 itr]: obj = (0.196859), mov = 297673, inf = 97.7%, acc = 1.6%, imp = 950

worst case efficiency: 0.718116
[24 sec, 307783 itr]: obj = (0.197335), mov = 307783, inf = 97.7%, acc = 1.6%, imp = 961

worst case efficiency: 0.718401
[25 sec, 318362 itr]: obj = (0.199355), mov = 318362, inf = 97.7%, acc = 1.6%, imp = 981

worst case efficiency: 0.719613
[26 sec, 329132 itr]: obj = (0.201114), mov = 329132, inf = 97.7%, acc = 1.6%, imp = 1011

worst case efficiency: 0.720668
[27 sec, 339622 itr]: obj = (0.203252), mov = 339622, inf = 97.7%, acc = 1.5%, imp = 1041

worst case efficiency: 0.721951
[28 sec, 350297 itr]: obj = (0.205051), mov = 350297, inf = 97.8%, acc = 1.5%, imp = 1066

worst case efficiency: 0.72303
[29 sec, 360126 itr]: obj = (0.208004), mov = 360126, inf = 97.8%, acc = 1.5%, imp = 1091

worst case efficiency: 0.724802
[30 sec, 370970 itr]: obj = (0.210725), mov = 370970, inf = 97.8%, acc = 1.5%, imp = 1119

worst case efficiency: 0.726435
[31 sec, 382866 itr]: obj = (0.212272), mov = 382866, inf = 97.8%, acc = 1.5%, imp = 1137

worst case efficiency: 0.727363
[32 sec, 396323 itr]: obj = (0.22253), mov = 396323, inf = 97.7%, acc = 1.5%, imp = 1169

worst case efficiency: 0.733518
[33 sec, 410327 itr]: obj = (0.224072), mov = 410327, inf = 97.7%, acc = 1.5%, imp = 1188

worst case efficiency: 0.734443
[34 sec, 424174 itr]: obj = (0.224165), mov = 424174, inf = 97.7%, acc = 1.5%, imp = 1199

worst case efficiency: 0.734499
[35 sec, 436825 itr]: obj = (0.224791), mov = 436825, inf = 97.7%, acc = 1.5%, imp = 1208

worst case efficiency: 0.734874
[36 sec, 451058 itr]: obj = (0.226532), mov = 451058, inf = 97.7%, acc = 1.4%, imp = 1224

worst case efficiency: 0.735919
[37 sec, 465981 itr]: obj = (0.230654), mov = 465981, inf = 97.7%, acc = 1.4%, imp = 1246

worst case efficiency: 0.738392
[38 sec, 479854 itr]: obj = (0.231599), mov = 479854, inf = 97.7%, acc = 1.4%, imp = 1259

worst case efficiency: 0.738959
[39 sec, 493867 itr]: obj = (0.232067), mov = 493867, inf = 97.7%, acc = 1.4%, imp = 1264

worst case efficiency: 0.73924
[40 sec, 518321 itr]: obj = (0.232443), mov = 518321, inf = 97.7%, acc = 1.4%, imp = 1270

worst case efficiency: 0.739466
[41 sec, 555478 itr]: obj = (0.233056), mov = 555478, inf = 97.7%, acc = 1.4%, imp = 1275

worst case efficiency: 0.739834
[42 sec, 592479 itr]: obj = (0.233294), mov = 592479, inf = 97.6%, acc = 1.3%, imp = 1282

worst case efficiency: 0.739976
[43 sec, 628671 itr]: obj = (0.233987), mov = 628671, inf = 97.6%, acc = 1.3%, imp = 1289

worst case efficiency: 0.740392
[44 sec, 664494 itr]: obj = (0.234172), mov = 664494, inf = 97.7%, acc = 1.3%, imp = 1292

worst case efficiency: 0.740503
[45 sec, 701154 itr]: obj = (0.23419), mov = 701154, inf = 97.7%, acc = 1.3%, imp = 1293

worst case efficiency: 0.740514
[46 sec, 738191 itr]: obj = (0.234351), mov = 738191, inf = 97.7%, acc = 1.2%, imp = 1298

worst case efficiency: 0.740611
[47 sec, 774982 itr]: obj = (0.234467), mov = 774982, inf = 97.7%, acc = 1.2%, imp = 1300

worst case efficiency: 0.74068
[48 sec, 812685 itr]: obj = (0.234943), mov = 812685, inf = 97.7%, acc = 1.2%, imp = 1309

worst case efficiency: 0.740966
[49 sec, 847157 itr]: obj = (0.236072), mov = 847157, inf = 97.6%, acc = 1.2%, imp = 1322

worst case efficiency: 0.741643
[50 sec, 883324 itr]: obj = (0.236513), mov = 883324, inf = 97.6%, acc = 1.2%, imp = 1328

worst case efficiency: 0.741908
[51 sec, 919985 itr]: obj = (0.23675), mov = 919985, inf = 97.5%, acc = 1.2%, imp = 1336

worst case efficiency: 0.74205
[52 sec, 956893 itr]: obj = (0.237432), mov = 956893, inf = 97.5%, acc = 1.2%, imp = 1349

worst case efficiency: 0.742459
[53 sec, 994367 itr]: obj = (0.237529), mov = 994367, inf = 97.5%, acc = 1.2%, imp = 1353

worst case efficiency: 0.742517
[54 sec, 1027873 itr]: obj = (0.237545), mov = 1027873, inf = 97.5%, acc = 1.2%, imp = 1355

worst case efficiency: 0.742527
[55 sec, 1063458 itr]: obj = (0.237776), mov = 1063458, inf = 97.5%, acc = 1.2%, imp = 1361

worst case efficiency: 0.742665
[56 sec, 1091062 itr]: obj = (0.23795), mov = 1091062, inf = 97.5%, acc = 1.2%, imp = 1370

worst case efficiency: 0.74277
[57 sec, 1122796 itr]: obj = (0.238159), mov = 1122796, inf = 97.5%, acc = 1.2%, imp = 1375

worst case efficiency: 0.742895
[58 sec, 1158533 itr]: obj = (0.238169), mov = 1158533, inf = 97.5%, acc = 1.2%, imp = 1378

worst case efficiency: 0.742901
[59 sec, 1196025 itr]: obj = (0.238205), mov = 1196025, inf = 97.5%, acc = 1.2%, imp = 1380

worst case efficiency: 0.742923
[60 sec, 1233132 itr]: obj = (0.238299), mov = 1233132, inf = 97.5%, acc = 1.1%, imp = 1382

worst case efficiency: 0.742979
[61 sec, 1269904 itr]: obj = (0.238661), mov = 1269904, inf = 97.5%, acc = 1.1%, imp = 1387

worst case efficiency: 0.743196
[62 sec, 1306251 itr]: obj = (0.238703), mov = 1306251, inf = 97.5%, acc = 1.1%, imp = 1393

worst case efficiency: 0.743222
[63 sec, 1343335 itr]: obj = (0.238703), mov = 1343335, inf = 97.5%, acc = 1.1%, imp = 1393

worst case efficiency: 0.743222
[64 sec, 1380813 itr]: obj = (0.238711), mov = 1380813, inf = 97.6%, acc = 1.1%, imp = 1395

worst case efficiency: 0.743226
[65 sec, 1418425 itr]: obj = (0.238795), mov = 1418425, inf = 97.6%, acc = 1.1%, imp = 1399

worst case efficiency: 0.743277
[66 sec, 1455217 itr]: obj = (0.238795), mov = 1455217, inf = 97.6%, acc = 1.1%, imp = 1399

worst case efficiency: 0.743277
[67 sec, 1492815 itr]: obj = (0.238795), mov = 1492815, inf = 97.6%, acc = 1.1%, imp = 1399

worst case efficiency: 0.743277
[68 sec, 1529488 itr]: obj = (0.238795), mov = 1529488, inf = 97.7%, acc = 1.1%, imp = 1399

worst case efficiency: 0.743277
[69 sec, 1565611 itr]: obj = (0.238798), mov = 1565611, inf = 97.7%, acc = 1.1%, imp = 1400

worst case efficiency: 0.743279
[70 sec, 1601952 itr]: obj = (0.23886), mov = 1601952, inf = 97.7%, acc = 1%, imp = 1403

worst case efficiency: 0.743316
[71 sec, 1639223 itr]: obj = (0.238952), mov = 1639223, inf = 97.7%, acc = 1%, imp = 1413

worst case efficiency: 0.743371
[72 sec, 1676396 itr]: obj = (0.238963), mov = 1676396, inf = 97.7%, acc = 1%, imp = 1419

worst case efficiency: 0.743378
[73 sec, 1713259 itr]: obj = (0.23966), mov = 1713259, inf = 97.8%, acc = 1%, imp = 1432

worst case efficiency: 0.743796
[74 sec, 1750836 itr]: obj = (0.239983), mov = 1750836, inf = 97.8%, acc = 1%, imp = 1444

worst case efficiency: 0.74399
[75 sec, 1787729 itr]: obj = (0.240104), mov = 1787729, inf = 97.8%, acc = 1%, imp = 1448

worst case efficiency: 0.744063
[76 sec, 1824535 itr]: obj = (0.240104), mov = 1824535, inf = 97.8%, acc = 1%, imp = 1448

worst case efficiency: 0.744063
[77 sec, 1862216 itr]: obj = (0.240104), mov = 1862216, inf = 97.8%, acc = 1%, imp = 1448

worst case efficiency: 0.744063
[78 sec, 1899287 itr]: obj = (0.240104), mov = 1899287, inf = 97.8%, acc = 1%, imp = 1448

worst case efficiency: 0.744063
[79 sec, 1935766 itr]: obj = (0.240219), mov = 1935766, inf = 97.8%, acc = 1%, imp = 1452

worst case efficiency: 0.744131
[80 sec, 1972981 itr]: obj = (0.240501), mov = 1972981, inf = 97.8%, acc = 1%, imp = 1461

worst case efficiency: 0.744301
[81 sec, 2009601 itr]: obj = (0.240501), mov = 2009601, inf = 97.8%, acc = 1%, imp = 1462

worst case efficiency: 0.744301
[82 sec, 2046016 itr]: obj = (0.2407), mov = 2046016, inf = 97.8%, acc = 1%, imp = 1466

worst case efficiency: 0.74442
[83 sec, 2076768 itr]: obj = (0.240898), mov = 2076768, inf = 97.8%, acc = 1%, imp = 1469

worst case efficiency: 0.744539
[84 sec, 2110897 itr]: obj = (0.240898), mov = 2110897, inf = 97.8%, acc = 1%, imp = 1470

worst case efficiency: 0.744539
[85 sec, 2147279 itr]: obj = (0.241001), mov = 2147279, inf = 97.8%, acc = 1%, imp = 1475

worst case efficiency: 0.744601
[86 sec, 2184433 itr]: obj = (0.241017), mov = 2184433, inf = 97.8%, acc = 1%, imp = 1477

worst case efficiency: 0.74461
[87 sec, 2222083 itr]: obj = (0.241032), mov = 2222083, inf = 97.8%, acc = 1%, imp = 1483

worst case efficiency: 0.744619
[88 sec, 2258590 itr]: obj = (0.242064), mov = 2258590, inf = 97.8%, acc = 1%, imp = 1494

worst case efficiency: 0.745238
[89 sec, 2295537 itr]: obj = (0.242451), mov = 2295537, inf = 97.8%, acc = 1%, imp = 1506

worst case efficiency: 0.745471
[90 sec, 2333320 itr]: obj = (0.242698), mov = 2333320, inf = 97.8%, acc = 1%, imp = 1512

worst case efficiency: 0.745619
[90 sec, 2333320 itr]: obj = (0.242698), mov = 2333320, inf = 97.8%, acc = 1%, imp = 1512

worst case efficiency: 0.745619
2333320 iterations, 2333320 moves performed in 90 seconds
Feasible solution: obj = (0.242698)

Run output...
FINAL SOLUTION
Worst case efficiency: 0.745619
Mapping: 0->16, 1->19, 2->23, 3->12, 4->38, 5->6, 6->35, 7->2, 8->29, 9->18, 10->26, 11->13, 12->32, 13->32, 14->38, 15->40, 16->3, 17->45, 18->38, 19->3, 20->2, 21->9, 22->5, 23->1, 24->6, 25->2, 26->31, 27->22, 28->30, 29->40, 30->6, 31->41, 32->2, 33->18, 34->15, 35->41, 36->47, 37->43, 38->22, 39->8, 40->27, 41->30, 42->36, 43->31, 44->23, 45->6, 46->31, 47->39, 48->9, 49->35, 50->29, 51->19, 52->47, 53->38, 54->42, 55->23, 56->13, 57->15, 58->33, 59->23, 60->34, 61->46, 62->11, 63->39, 64->4, 65->37, 66->3, 67->11, 68->25, 69->17, 70->34, 71->10, 72->35, 73->26, 74->18, 75->39, 76->30, 77->5, 78->0, 79->20, 80->14, 81->12, 82->37, 83->0, 84->1, 85->44, 86->47, 87->10, 88->43, 89->0, 90->46, 91->33, 92->27, 93->46, 94->44, 95->20, 96->7, 97->14, 98->44, 99->20, 100->27, 101->19, 102->24, 103->25, 104->47, 105->13, 106->4, 107->0, 108->31, 109->3, 110->4, 111->14, 112->40, 113->35, 114->37, 115->5, 116->2, 117->17, 118->1, 119->16, 120->18, 121->22, 122->43, 123->13, 124->42, 125->39, 126->1, 127->41, 128->26, 129->15, 130->10, 131->7, 132->11, 133->10, 134->45, 135->0, 136->46, 137->10, 138->7, 139->26, 140->36, 141->36, 142->35, 143->24, 144->6, 145->29, 146->32, 147->32, 148->8, 149->31, 150->40, 151->26, 152->30, 153->12, 154->30, 155->17, 156->25, 157->21, 158->16, 159->47, 160->5, 161->1, 162->6, 163->18, 164->21, 165->8, 166->3, 167->21, 168->20, 169->43, 170->41, 171->24, 172->0, 173->14, 174->23, 175->41, 176->11, 177->39, 178->32, 179->16, 180->29, 181->8, 182->40, 183->7, 184->38, 185->41, 186->25, 187->19, 188->42, 189->19, 190->24, 191->23, 192->17, 193->2, 194->47, 195->5, 196->28, 197->16, 198->9, 199->24, 200->20, 201->33, 202->42, 203->29, 204->24, 205->26, 206->27, 207->1, 208->32, 209->40, 210->27, 211->15, 212->28, 213->46, 214->46, 215->44, 216->9, 217->34, 218->4, 219->28, 220->35, 221->3, 222->11, 223->22, 224->8, 225->17, 226->12, 227->5, 228->36, 229->25, 230->12, 231->44, 232->27, 233->10, 234->34, 235->16, 236->43, 237->18, 238->45, 239->28, 240->7, 241->21, 242->12, 243->11, 244->19, 245->14, 246->34, 247->9, 248->15, 249->28, 250->14, 251->21, 252->37, 253->7, 254->42, 255->37, 256->4, 257->36, 258->17, 259->44, 260->28, 261->13, 262->38, 263->21, 264->45, 265->42, 266->15, 267->33, 268->22, 269->9, 270->36, 271->29, 272->4, 273->31, 274->34, 275->30, 276->37, 277->22, 278->20, 279->43, 280->33, 281->45, 282->25, 283->33, 284->39, 285->8, 286->13, 287->45
Number of tasks per core:
	6	6	6	6	6	6
	6	6	6	6	6	6
	6	6	6	6	6	6
	6	6	6	6	6	6
	6	6	6	6	6	6
	6	6	6	6	6	6
	6	6	6	6	6	6
	6	6	6	6	6	6
Average CPI map:
	0.514339	1.35581	1.17378	1.14351	2.40785	2.13128
	1.67037	4.32928	3.17298	3.35863	3.09539	3.97515
	1.12164	4.21857	5.72629	6.77178	2.89093	0.828127
	1.26684	3.86725	5.64912	3.86526	3.33509	0.820302
	2.18793	4.18886	4.35466	5.99837	4.39728	1.25003
	1.48887	3.31004	6.62047	3.9736	4.41537	1.12907
	1.13401	2.89808	3.05897	4.0204	2.7532	0.861885
	1.17914	3.07183	3.99142	5.16484	2.76574	1.09635
Efficiency map:
	0.99722	0.87357	0.908495	0.813666	1.00011	1.00307
	0.75054	0.746554	0.787057	0.746223	0.745729	0.850076
	0.821057	0.74665	0.786039	0.830117	0.761981	0.747235
	0.81621	0.74649	0.826572	0.746686	0.751245	0.994649
	0.831768	0.750473	0.766769	0.798998	0.75138	0.782997
	0.819073	0.760341	0.750129	0.748769	0.745619	0.817121
	0.806579	0.746708	0.747368	0.749914	0.745631	0.805358
	0.811382	0.751436	0.764336	0.750253	0.750829	0.794876
==============================================================================
Local Solver optimizer for EML demonstration
==============================================================================

Option values: --wld-idx 14 --global-tlim 90 --seed 801

Starting the Optimization Process
