==============================================================================
LNS optimizer for EML demonstration
==============================================================================

Option values: --wld-idx 9 --prec 10000 --step 0 --global-tlim 90 --global-iter 1000 --local-tlim 3 --local-nsol 1 --restart-base 100 --restart-strat luby --seed 701

Starting the Optimization Process
reserved_tasks None
Finding a first solution
LNS iteration #0 ========================================
- worst case average CPI: 2.372
- worst case efficiency: 0.655
- efficiency to beat: 0.655
- normalized lower bound 993
--- checking solution
--- solution ok! Maximum rounding error: 0.000088
- solution found, obj var is: 1087
- de-normalized obj var: 0.665220
- time (local/global): 0.001/0.001
- branches (local/global): 26/26
- fails (local/global): 2/2
- lns time: 0.007000
- lns branches: 26
- lns fails: 2
LNS iteration #1 ========================================
- worst case average CPI: 1.994
- worst case efficiency: 0.665
- efficiency to beat: 0.665
- normalized lower bound 1171
--- checking solution
--- solution ok! Maximum rounding error: 0.000145
- solution found, obj var is: 1214
- de-normalized obj var: 0.672840
- time (local/global): 0.006/0.013
- branches (local/global): 461/487
- fails (local/global): 202/204
- lns time: 0.012000
- lns branches: 461
- lns fails: 202
LNS iteration #2 ========================================
- worst case average CPI: 1.842
- worst case efficiency: 0.666
- efficiency to beat: 0.666
- normalized lower bound 1177
--- checking solution
--- solution ok! Maximum rounding error: 0.000148
- solution found, obj var is: 1544
- de-normalized obj var: 0.692640
- time (local/global): 0.001/0.020
- branches (local/global): 75/562
- fails (local/global): 26/230
- lns time: 0.007000
- lns branches: 75
- lns fails: 26
LNS iteration #3 ========================================
- worst case average CPI: 1.842
- worst case efficiency: 0.673
- efficiency to beat: 0.673
- normalized lower bound 1299
--- checking solution
--- solution ok! Maximum rounding error: 0.000052
- solution found, obj var is: 1787
- de-normalized obj var: 0.707220
- time (local/global): 0.000/0.026
- branches (local/global): 22/584
- fails (local/global): 0/230
- lns time: 0.006000
- lns branches: 22
- lns fails: 0
LNS iteration #4 ========================================
- worst case average CPI: 1.435
- worst case efficiency: 0.676
- efficiency to beat: 0.676
- normalized lower bound 1355
--- checking solution
--- solution ok! Maximum rounding error: 0.000057
- solution found, obj var is: 3933
- de-normalized obj var: 0.835980
- time (local/global): 0.000/0.032
- branches (local/global): 16/600
- fails (local/global): 0/230
- lns time: 0.005000
- lns branches: 16
- lns fails: 0
LNS iteration #5 ========================================
- worst case average CPI: 1.435
- worst case efficiency: 0.691
- efficiency to beat: 0.691
- normalized lower bound 1599
--- checking solution
--- solution ok! Maximum rounding error: 0.000054
- solution found, obj var is: 1599
- de-normalized obj var: 0.695940
- time (local/global): 0.011/0.048
- branches (local/global): 869/1469
- fails (local/global): 400/630
- lns time: 0.017000
- lns branches: 869
- lns fails: 400
LNS iteration #6 ========================================
- worst case average CPI: 1.435
- worst case efficiency: 0.691
- efficiency to beat: 0.691
- normalized lower bound 1608
--- checking solution
--- solution ok! Maximum rounding error: 0.000040
- solution found, obj var is: 2522
- de-normalized obj var: 0.751320
- time (local/global): 0.001/0.055
- branches (local/global): 16/1485
- fails (local/global): 2/632
- lns time: 0.006000
- lns branches: 16
- lns fails: 2
LNS iteration #7 ========================================
- worst case average CPI: 1.435
- worst case efficiency: 0.693
- efficiency to beat: 0.693
- normalized lower bound 1630
--- checking solution
--- solution ok! Maximum rounding error: 0.000058
- solution found, obj var is: 1655
- de-normalized obj var: 0.699300
- time (local/global): 0.025/0.085
- branches (local/global): 1761/3246
- fails (local/global): 819/1451
- lns time: 0.031000
- lns branches: 1761
- lns fails: 819
LNS iteration #8 ========================================
- worst case average CPI: 1.435
- worst case efficiency: 0.696
- efficiency to beat: 0.696
- normalized lower bound 1690
--- checking solution
--- solution ok! Maximum rounding error: 0.000034
- solution found, obj var is: 3543
- de-normalized obj var: 0.812580
- time (local/global): 0.000/0.091
- branches (local/global): 10/3256
- fails (local/global): 0/1451
- lns time: 0.005000
- lns branches: 10
- lns fails: 0
LNS iteration #9 ========================================
- worst case average CPI: 1.215
- worst case efficiency: 0.697
- efficiency to beat: 0.697
- normalized lower bound 1705
--- checking solution
--- solution ok! Maximum rounding error: 0.000025
- solution found, obj var is: 2137
- de-normalized obj var: 0.728220
- time (local/global): 0.000/0.096
- branches (local/global): 22/3278
- fails (local/global): 0/1451
- lns time: 0.006000
- lns branches: 22
- lns fails: 0
LNS iteration #10 ========================================
- worst case average CPI: 1.215
- worst case efficiency: 0.697
- efficiency to beat: 0.697
- normalized lower bound 1697
--- checking solution
--- solution ok! Maximum rounding error: 0.000010
- solution found, obj var is: 2034
- de-normalized obj var: 0.722040
- time (local/global): 0.007/0.109
- branches (local/global): 462/3740
- fails (local/global): 202/1653
- lns time: 0.015000
- lns branches: 462
- lns fails: 202
LNS iteration #11 ========================================
- worst case average CPI: 1.215
- worst case efficiency: 0.697
- efficiency to beat: 0.697
- normalized lower bound 1708
--- checking solution
--- solution ok! Maximum rounding error: 0.000043
- solution found, obj var is: 1994
- de-normalized obj var: 0.719640
- time (local/global): 0.155/0.272
- branches (local/global): 8375/12115
- fails (local/global): 4003/5656
- lns time: 0.161000
- lns branches: 8375
- lns fails: 4003
LNS iteration #12 ========================================
- worst case average CPI: 1.215
- worst case efficiency: 0.700
- efficiency to beat: 0.700
- normalized lower bound 1749
--- checking solution
--- solution ok! Maximum rounding error: 0.000016
- solution found, obj var is: 1865
- de-normalized obj var: 0.711900
- time (local/global): 0.015/0.293
- branches (local/global): 1033/13148
- fails (local/global): 483/6139
- lns time: 0.021000
- lns branches: 1033
- lns fails: 483
LNS iteration #13 ========================================
- worst case average CPI: 1.215
- worst case efficiency: 0.702
- efficiency to beat: 0.702
- normalized lower bound 1778
--- checking solution
--- solution ok! Maximum rounding error: 0.000000
- solution found, obj var is: 1878
- de-normalized obj var: 0.712680
- time (local/global): 0.023/0.322
- branches (local/global): 1089/14237
- fails (local/global): 500/6639
- lns time: 0.029000
- lns branches: 1089
- lns fails: 500
LNS iteration #14 ========================================
- worst case average CPI: 1.215
- worst case efficiency: 0.703
- efficiency to beat: 0.703
- normalized lower bound 1807
--- checking solution
--- solution ok! Maximum rounding error: 0.000014
- solution found, obj var is: 1821
- de-normalized obj var: 0.709260
- time (local/global): 0.003/0.331
- branches (local/global): 246/14483
- fails (local/global): 104/6743
- lns time: 0.009000
- lns branches: 246
- lns fails: 104
LNS iteration #15 ========================================
- worst case average CPI: 1.215
- worst case efficiency: 0.704
- efficiency to beat: 0.704
- normalized lower bound 1819
--- checking solution
--- solution ok! Maximum rounding error: 0.000071
- solution found, obj var is: 2039
- de-normalized obj var: 0.722340
- time (local/global): 0.004/0.341
- branches (local/global): 239/14722
- fails (local/global): 101/6844
- lns time: 0.010000
- lns branches: 239
- lns fails: 101
LNS iteration #16 ========================================
- worst case average CPI: 1.215
- worst case efficiency: 0.709
- efficiency to beat: 0.709
- normalized lower bound 1894
--- checking solution
--- solution ok! Maximum rounding error: 0.000018
- solution found, obj var is: 2011
- de-normalized obj var: 0.720660
- time (local/global): 0.003/0.350
- branches (local/global): 240/14962
- fails (local/global): 100/6944
- lns time: 0.009000
- lns branches: 240
- lns fails: 100
LNS iteration #17 ========================================
- worst case average CPI: 1.215
- worst case efficiency: 0.710
- efficiency to beat: 0.710
- normalized lower bound 1919
--- checking solution
--- solution ok! Maximum rounding error: 0.000002
- solution found, obj var is: 1923
- de-normalized obj var: 0.715380
- time (local/global): 0.004/0.360
- branches (local/global): 252/15214
- fails (local/global): 108/7052
- lns time: 0.010000
- lns branches: 252
- lns fails: 108
LNS iteration #18 ========================================
- worst case average CPI: 1.215
- worst case efficiency: 0.712
- efficiency to beat: 0.712
- normalized lower bound 1946
--- checking solution
--- solution ok! Maximum rounding error: 0.000059
- solution found, obj var is: 2492
- de-normalized obj var: 0.749520
- time (local/global): 0.006/0.372
- branches (local/global): 453/15667
- fails (local/global): 200/7252
- lns time: 0.012000
- lns branches: 453
- lns fails: 200
LNS iteration #19 ========================================
- worst case average CPI: 1.215
- worst case efficiency: 0.711
- efficiency to beat: 0.711
- normalized lower bound 1939
--- checking solution
--- solution ok! Maximum rounding error: 0.000056
- solution found, obj var is: 2236
- de-normalized obj var: 0.734160
- time (local/global): 0.001/0.379
- branches (local/global): 33/15700
- fails (local/global): 6/7258
- lns time: 0.007000
- lns branches: 33
- lns fails: 6
LNS iteration #20 ========================================
- worst case average CPI: 1.215
- worst case efficiency: 0.715
- efficiency to beat: 0.715
- normalized lower bound 1998
--- checking solution
--- solution ok! Maximum rounding error: 0.000051
- solution found, obj var is: 2003
- de-normalized obj var: 0.720180
- time (local/global): 0.001/0.386
- branches (local/global): 22/15722
- fails (local/global): 0/7258
- lns time: 0.010000
- lns branches: 22
- lns fails: 0
LNS iteration #21 ========================================
- worst case average CPI: 1.215
- worst case efficiency: 0.716
- efficiency to beat: 0.716
- normalized lower bound 2012
--- checking solution
--- solution ok! Maximum rounding error: 0.000064
- solution found, obj var is: 2131
- de-normalized obj var: 0.727860
- time (local/global): 0.004/0.399
- branches (local/global): 242/15964
- fails (local/global): 105/7363
- lns time: 0.010000
- lns branches: 242
- lns fails: 105
LNS iteration #22 ========================================
- worst case average CPI: 1.215
- worst case efficiency: 0.716
- efficiency to beat: 0.716
- normalized lower bound 2022
--- checking solution
--- solution ok! Maximum rounding error: 0.000022
- solution found, obj var is: 2059
- de-normalized obj var: 0.723540
- time (local/global): 0.023/0.428
- branches (local/global): 1631/17595
- fails (local/global): 767/8130
- lns time: 0.029000
- lns branches: 1631
- lns fails: 767
LNS iteration #23 ========================================
- worst case average CPI: 1.215
- worst case efficiency: 0.718
- efficiency to beat: 0.718
- normalized lower bound 2052
--- checking solution
--- solution ok! Maximum rounding error: 0.000021
- solution found, obj var is: 2323
- de-normalized obj var: 0.739380
- time (local/global): 0.001/0.435
- branches (local/global): 70/17665
- fails (local/global): 24/8154
- lns time: 0.007000
- lns branches: 70
- lns fails: 24
LNS iteration #24 ========================================
- worst case average CPI: 1.215
- worst case efficiency: 0.720
- efficiency to beat: 0.720
- normalized lower bound 2081
--- checking solution
--- solution ok! Maximum rounding error: 0.000065
- solution found, obj var is: 2504
- de-normalized obj var: 0.750240
- time (local/global): 0.000/0.441
- branches (local/global): 22/17687
- fails (local/global): 0/8154
- lns time: 0.006000
- lns branches: 22
- lns fails: 0
LNS iteration #25 ========================================
- worst case average CPI: 1.215
- worst case efficiency: 0.719
- efficiency to beat: 0.719
- normalized lower bound 2072
--- checking solution
--- solution ok! Maximum rounding error: 0.000019
- solution found, obj var is: 2085
- de-normalized obj var: 0.725100
- time (local/global): 0.070/0.517
- branches (local/global): 5083/22770
- fails (local/global): 2421/10575
- lns time: 0.077000
- lns branches: 5083
- lns fails: 2421
LNS iteration #26 ========================================
- worst case average CPI: 1.215
- worst case efficiency: 0.720
- efficiency to beat: 0.720
- normalized lower bound 2090
--- checking solution
--- solution ok! Maximum rounding error: 0.000031
- solution found, obj var is: 2607
- de-normalized obj var: 0.756420
- time (local/global): 0.001/0.525
- branches (local/global): 23/22793
- fails (local/global): 0/10575
- lns time: 0.007000
- lns branches: 23
- lns fails: 0
LNS iteration #27 ========================================
- worst case average CPI: 1.215
- worst case efficiency: 0.723
- efficiency to beat: 0.723
- normalized lower bound 2129
--- checking solution
--- solution ok! Maximum rounding error: 0.000012
- solution found, obj var is: 2426
- de-normalized obj var: 0.745560
- time (local/global): 0.003/0.534
- branches (local/global): 227/23020
- fails (local/global): 100/10675
- lns time: 0.008000
- lns branches: 227
- lns fails: 100
LNS iteration #28 ========================================
- worst case average CPI: 1.215
- worst case efficiency: 0.724
- efficiency to beat: 0.724
- normalized lower bound 2149
--- checking solution
--- solution ok! Maximum rounding error: 0.000045
- solution found, obj var is: 2152
- de-normalized obj var: 0.729120
- time (local/global): 0.043/0.582
- branches (local/global): 2560/25580
- fails (local/global): 1217/11892
- lns time: 0.049000
- lns branches: 2560
- lns fails: 1217
LNS iteration #29 ========================================
- worst case average CPI: 1.215
- worst case efficiency: 0.728
- efficiency to beat: 0.728
- normalized lower bound 2209
--- checking solution
--- solution ok! Maximum rounding error: 0.000061
- solution found, obj var is: 2547
- de-normalized obj var: 0.752820
- time (local/global): 0.004/0.592
- branches (local/global): 353/25933
- fails (local/global): 158/12050
- lns time: 0.010000
- lns branches: 353
- lns fails: 158
LNS iteration #30 ========================================
- worst case average CPI: 1.215
- worst case efficiency: 0.728
- efficiency to beat: 0.728
- normalized lower bound 2217
--- checking solution
--- solution ok! Maximum rounding error: 0.000063
- solution found, obj var is: 2442
- de-normalized obj var: 0.746520
- time (local/global): 0.004/0.602
- branches (local/global): 241/26174
- fails (local/global): 102/12152
- lns time: 0.010000
- lns branches: 241
- lns fails: 102
LNS iteration #31 ========================================
- worst case average CPI: 1.215
- worst case efficiency: 0.731
- efficiency to beat: 0.731
- normalized lower bound 2260
--- checking solution
--- solution ok! Maximum rounding error: 0.000017
- solution found, obj var is: 2430
- de-normalized obj var: 0.745800
- time (local/global): 1.047/1.655
- branches (local/global): 66451/92625
- fails (local/global): 32314/44466
- lns time: 1.057000
- lns branches: 66451
- lns fails: 32314
LNS iteration #32 ========================================
- worst case average CPI: 1.215
- worst case efficiency: 0.732
- efficiency to beat: 0.732
- normalized lower bound 2287
--- checking solution
--- solution ok! Maximum rounding error: 0.000046
- solution found, obj var is: 2358
- de-normalized obj var: 0.741480
- time (local/global): 0.000/1.665
- branches (local/global): 29/92654
- fails (local/global): 4/44470
- lns time: 0.006000
- lns branches: 29
- lns fails: 4
LNS iteration #33 ========================================
- worst case average CPI: 1.215
- worst case efficiency: 0.733
- efficiency to beat: 0.733
- normalized lower bound 2296
--- checking solution
--- solution ok! Maximum rounding error: 0.000762
- solution found, obj var is: 2304
- de-normalized obj var: 0.738240
- time (local/global): 0.004/1.675
- branches (local/global): 240/92894
- fails (local/global): 102/44572
- lns time: 0.010000
- lns branches: 240
- lns fails: 102
LNS iteration #34 ========================================
- worst case average CPI: 1.215
- worst case efficiency: 0.734
- efficiency to beat: 0.734
- normalized lower bound 2320
--- checking solution
--- solution ok! Maximum rounding error: 0.000016
- solution found, obj var is: 2889
- de-normalized obj var: 0.773340
- time (local/global): 0.001/1.682
- branches (local/global): 13/92907
- fails (local/global): 0/44572
- lns time: 0.006000
- lns branches: 13
- lns fails: 0
LNS iteration #35 ========================================
- worst case average CPI: 1.215
- worst case efficiency: 0.739
- efficiency to beat: 0.739
- normalized lower bound 2395
--- checking solution
--- solution ok! Maximum rounding error: 0.000021
- solution found, obj var is: 2426
- de-normalized obj var: 0.745560
- time (local/global): 0.063/1.750
- branches (local/global): 4402/97309
- fails (local/global): 2083/46655
- lns time: 0.069000
- lns branches: 4402
- lns fails: 2083
LNS iteration #36 ========================================
- worst case average CPI: 1.215
- worst case efficiency: 0.741
- efficiency to beat: 0.741
- normalized lower bound 2439
--- checking solution
--- solution ok! Maximum rounding error: 0.000100
- solution found, obj var is: 2590
- de-normalized obj var: 0.755400
- time (local/global): 0.051/1.807
- branches (local/global): 2961/100270
- fails (local/global): 1401/48056
- lns time: 0.057000
- lns branches: 2961
- lns fails: 1401
LNS iteration #37 ========================================
- worst case average CPI: 1.215
- worst case efficiency: 0.743
- efficiency to beat: 0.743
- normalized lower bound 2461
--- checking solution
--- solution ok! Maximum rounding error: 0.000077
- solution found, obj var is: 2522
- de-normalized obj var: 0.751320
- time (local/global): 0.056/1.869
- branches (local/global): 3607/103877
- fails (local/global): 1704/49760
- lns time: 0.062000
- lns branches: 3607
- lns fails: 1704
LNS iteration #38 ========================================
- worst case average CPI: 1.215
- worst case efficiency: 0.745
- efficiency to beat: 0.745
- normalized lower bound 2498
--- checking solution
--- solution ok! Maximum rounding error: 0.000075
- solution found, obj var is: 2554
- de-normalized obj var: 0.753240
- time (local/global): 0.004/1.879
- branches (local/global): 189/104066
- fails (local/global): 84/49844
- lns time: 0.010000
- lns branches: 189
- lns fails: 84
LNS iteration #39 ========================================
- worst case average CPI: 1.215
- worst case efficiency: 0.746
- efficiency to beat: 0.746
- normalized lower bound 2522
--- checking solution
--- solution ok! Maximum rounding error: 0.000082
- solution found, obj var is: 2565
- de-normalized obj var: 0.753900
- time (local/global): 0.010/1.895
- branches (local/global): 515/104581
- fails (local/global): 228/50072
- lns time: 0.016000
- lns branches: 515
- lns fails: 228
LNS iteration #40 ========================================
- worst case average CPI: 1.215
- worst case efficiency: 0.746
- efficiency to beat: 0.746
- normalized lower bound 2524
--- checking solution
--- solution ok! Maximum rounding error: 0.000053
- solution found, obj var is: 2621
- de-normalized obj var: 0.757260
- time (local/global): 0.622/2.523
- branches (local/global): 42790/147371
- fails (local/global): 20800/70872
- lns time: 0.628000
- lns branches: 42790
- lns fails: 20800
LNS iteration #41 ========================================
- worst case average CPI: 1.215
- worst case efficiency: 0.747
- efficiency to beat: 0.747
- normalized lower bound 2532
--- checking solution
--- solution ok! Maximum rounding error: 0.000216
- solution found, obj var is: 2651
- de-normalized obj var: 0.759060
- time (local/global): 0.001/2.530
- branches (local/global): 15/147386
- fails (local/global): 0/70872
- lns time: 0.006000
- lns branches: 15
- lns fails: 0
LNS iteration #42 ========================================
- worst case average CPI: 1.215
- worst case efficiency: 0.748
- efficiency to beat: 0.748
- normalized lower bound 2555
--- checking solution
--- solution ok! Maximum rounding error: 0.000157
- solution found, obj var is: 3585
- de-normalized obj var: 0.815100
- time (local/global): 0.000/2.535
- branches (local/global): 22/147408
- fails (local/global): 0/70872
- lns time: 0.006000
- lns branches: 22
- lns fails: 0
LNS iteration #43 ========================================
- worst case average CPI: 1.215
- worst case efficiency: 0.752
- efficiency to beat: 0.752
- normalized lower bound 2621
--- checking solution
--- solution ok! Maximum rounding error: 0.000033
- solution found, obj var is: 2672
- de-normalized obj var: 0.760320
- time (local/global): 0.005/2.546
- branches (local/global): 400/147808
- fails (local/global): 180/71052
- lns time: 0.011000
- lns branches: 400
- lns fails: 180
LNS iteration #44 ========================================
- worst case average CPI: 1.215
- worst case efficiency: 0.753
- efficiency to beat: 0.753
- normalized lower bound 2639
--- checking solution
--- solution ok! Maximum rounding error: 0.000026
- solution found, obj var is: 2648
- de-normalized obj var: 0.758880
- time (local/global): 0.310/2.862
- branches (local/global): 21012/168820
- fails (local/global): 10158/81210
- lns time: 0.316000
- lns branches: 21012
- lns fails: 10158
LNS iteration #45 ========================================
- worst case average CPI: 1.215
- worst case efficiency: 0.752
- efficiency to beat: 0.752
- normalized lower bound 2612
--- checking solution
--- solution ok! Maximum rounding error: 0.000034
- solution found, obj var is: 2632
- de-normalized obj var: 0.757920
- time (local/global): 0.015/2.883
- branches (local/global): 1081/169901
- fails (local/global): 503/81713
- lns time: 0.021000
- lns branches: 1081
- lns fails: 503
LNS iteration #46 ========================================
- worst case average CPI: 1.289
- worst case efficiency: 0.754
- efficiency to beat: 0.754
- normalized lower bound 2654
--- checking solution
--- solution ok! Maximum rounding error: 0.000162
- solution found, obj var is: 2655
- de-normalized obj var: 0.759300
- time (local/global): 0.004/2.893
- branches (local/global): 332/170233
- fails (local/global): 146/81859
- lns time: 0.010000
- lns branches: 332
- lns fails: 146
LNS iteration #47 ========================================
- worst case average CPI: 1.289
- worst case efficiency: 0.756
- efficiency to beat: 0.756
- normalized lower bound 2685
--- checking solution
XXX Rounding error: 13
--- solution ok! Maximum rounding error: 0.000657
- solution found, obj var is: 2727
- de-normalized obj var: 0.763620
- time (local/global): 0.520/3.419
- branches (local/global): 37594/207827
- fails (local/global): 18309/100168
- lns time: 0.526000
- lns branches: 37594
- lns fails: 18309
LNS iteration #48 ========================================
- worst case average CPI: 1.289
- worst case efficiency: 0.759
- efficiency to beat: 0.759
- normalized lower bound 2732
--- checking solution
--- solution ok! Maximum rounding error: 0.000051
- solution found, obj var is: 2741
- de-normalized obj var: 0.764460
- time (local/global): 0.174/3.599
- branches (local/global): 11543/219370
- fails (local/global): 5559/105727
- lns time: 0.180000
- lns branches: 11543
- lns fails: 5559
LNS iteration #49 ========================================
- worst case average CPI: 1.289
- worst case efficiency: 0.759
- efficiency to beat: 0.759
- normalized lower bound 2728
--- checking solution
--- solution ok! Maximum rounding error: 0.000057
- solution found, obj var is: 2873
- de-normalized obj var: 0.772380
- time (local/global): 0.056/3.661
- branches (local/global): 3380/222750
- fails (local/global): 1600/107327
- lns time: 0.062000
- lns branches: 3380
- lns fails: 1600
LNS iteration #50 ========================================
- worst case average CPI: 1.289
- worst case efficiency: 0.759
- efficiency to beat: 0.759
- normalized lower bound 2731
--- checking solution
--- solution ok! Maximum rounding error: 0.000108
- solution found, obj var is: 2794
- de-normalized obj var: 0.767640
- time (local/global): 0.034/3.701
- branches (local/global): 3637/226387
- fails (local/global): 1757/109084
- lns time: 0.039000
- lns branches: 3637
- lns fails: 1757
LNS iteration #51 ========================================
- worst case average CPI: 1.289
- worst case efficiency: 0.759
- efficiency to beat: 0.759
- normalized lower bound 2737
--- checking solution
--- solution ok! Maximum rounding error: 0.000043
- solution found, obj var is: 3176
- de-normalized obj var: 0.790560
- time (local/global): 0.000/3.706
- branches (local/global): 26/226413
- fails (local/global): 3/109087
- lns time: 0.006000
- lns branches: 26
- lns fails: 3
LNS iteration #52 ========================================
- worst case average CPI: 1.289
- worst case efficiency: 0.762
- efficiency to beat: 0.762
- normalized lower bound 2785
--- checking solution
--- solution ok! Maximum rounding error: 0.000107
- solution found, obj var is: 2792
- de-normalized obj var: 0.767520
- time (local/global): 0.024/3.736
- branches (local/global): 1881/228294
- fails (local/global): 880/109967
- lns time: 0.030000
- lns branches: 1881
- lns fails: 880
LNS iteration #53 ========================================
- worst case average CPI: 1.289
- worst case efficiency: 0.763
- efficiency to beat: 0.763
- normalized lower bound 2802
--- checking solution
--- solution ok! Maximum rounding error: 0.000062
- solution found, obj var is: 2926
- de-normalized obj var: 0.775560
- time (local/global): 0.001/3.743
- branches (local/global): 72/228366
- fails (local/global): 27/109994
- lns time: 0.007000
- lns branches: 72
- lns fails: 27
LNS iteration #54 ========================================
- worst case average CPI: 1.289
- worst case efficiency: 0.765
- efficiency to beat: 0.765
- normalized lower bound 2827
--- checking solution
--- solution ok! Maximum rounding error: 0.000025
- solution found, obj var is: 2854
- de-normalized obj var: 0.771240
- time (local/global): 0.020/3.769
- branches (local/global): 1138/229504
- fails (local/global): 529/110523
- lns time: 0.026000
- lns branches: 1138
- lns fails: 529
LNS iteration #55 ========================================
- worst case average CPI: 1.289
- worst case efficiency: 0.764
- efficiency to beat: 0.764
- normalized lower bound 2823
--- checking solution
--- solution ok! Maximum rounding error: 0.000094
- solution found, obj var is: 3000
- de-normalized obj var: 0.780000
- time (local/global): 0.022/3.797
- branches (local/global): 1496/231000
- fails (local/global): 699/111222
- lns time: 0.028000
- lns branches: 1496
- lns fails: 699
LNS iteration #56 ========================================
- worst case average CPI: 1.289
- worst case efficiency: 0.765
- efficiency to beat: 0.765
- normalized lower bound 2836
--- checking solution
--- solution ok! Maximum rounding error: 0.000031
- solution found, obj var is: 2850
- de-normalized obj var: 0.771000
- time (local/global): 0.144/3.947
- branches (local/global): 12563/243563
- fails (local/global): 6144/117366
- lns time: 0.149000
- lns branches: 12563
- lns fails: 6144
LNS iteration #57 ========================================
- worst case average CPI: 1.289
- worst case efficiency: 0.766
- efficiency to beat: 0.766
- normalized lower bound 2847
--- checking solution
--- solution ok! Maximum rounding error: 0.000115
- solution found, obj var is: 2855
- de-normalized obj var: 0.771300
- time (local/global): 0.743/4.695
- branches (local/global): 55792/299355
- fails (local/global): 27202/144568
- lns time: 0.749000
- lns branches: 55792
- lns fails: 27202
LNS iteration #58 ========================================
- worst case average CPI: 1.289
- worst case efficiency: 0.768
- efficiency to beat: 0.768
- normalized lower bound 2879
--- checking solution
--- solution ok! Maximum rounding error: 0.000063
- solution found, obj var is: 2911
- de-normalized obj var: 0.774660
- time (local/global): 0.053/4.754
- branches (local/global): 3819/303174
- fails (local/global): 1801/146369
- lns time: 0.059000
- lns branches: 3819
- lns fails: 1801
LNS iteration #59 ========================================
- worst case average CPI: 1.289
- worst case efficiency: 0.769
- efficiency to beat: 0.769
- normalized lower bound 2898
- lns time: 3.006000
- lns branches: 197280
- lns fails: 96848
LNS iteration #60 ========================================
- worst case average CPI: 1.289
- worst case efficiency: 0.769
- efficiency to beat: 0.769
- normalized lower bound 2898
--- checking solution
--- solution ok! Maximum rounding error: 0.000108
- solution found, obj var is: 2961
- de-normalized obj var: 0.777660
- time (local/global): 0.085/7.851
- branches (local/global): 6639/507093
- fails (local/global): 3203/246420
- lns time: 0.091000
- lns branches: 6639
- lns fails: 3203
LNS iteration #61 ========================================
- worst case average CPI: 1.151
- worst case efficiency: 0.772
- efficiency to beat: 0.772
- normalized lower bound 2953
- lns time: 3.006000
- lns branches: 208645
- lns fails: 102401
LNS iteration #62 ========================================
- worst case average CPI: 1.151
- worst case efficiency: 0.772
- efficiency to beat: 0.772
- normalized lower bound 2953
--- checking solution
--- solution ok! Maximum rounding error: 0.000064
- solution found, obj var is: 3181
- de-normalized obj var: 0.790860
- time (local/global): 0.861/11.724
- branches (local/global): 42760/758498
- fails (local/global): 20800/369621
- lns time: 0.874000
- lns branches: 42760
- lns fails: 20800
LNS iteration #63 ========================================
- worst case average CPI: 1.151
- worst case efficiency: 0.772
- efficiency to beat: 0.772
- normalized lower bound 2954
--- checking solution
--- solution ok! Maximum rounding error: 0.000053
- solution found, obj var is: 2975
- de-normalized obj var: 0.778500
- time (local/global): 0.438/12.175
- branches (local/global): 26613/785111
- fails (local/global): 12903/382524
- lns time: 0.444000
- lns branches: 26613
- lns fails: 12903
LNS iteration #64 ========================================
- worst case average CPI: 1.151
- worst case efficiency: 0.774
- efficiency to beat: 0.774
- normalized lower bound 2982
--- checking solution
--- solution ok! Maximum rounding error: 0.000073
- solution found, obj var is: 3048
- de-normalized obj var: 0.782880
- time (local/global): 0.174/12.355
- branches (local/global): 8975/794086
- fails (local/global): 4307/386831
- lns time: 0.184000
- lns branches: 8975
- lns fails: 4307
LNS iteration #65 ========================================
- worst case average CPI: 1.151
- worst case efficiency: 0.776
- efficiency to beat: 0.776
- normalized lower bound 3022
--- checking solution
--- solution ok! Maximum rounding error: 0.000073
- solution found, obj var is: 3069
- de-normalized obj var: 0.784140
- time (local/global): 0.857/13.222
- branches (local/global): 40631/834717
- fails (local/global): 19808/406639
- lns time: 0.868000
- lns branches: 40631
- lns fails: 19808
LNS iteration #66 ========================================
- worst case average CPI: 1.151
- worst case efficiency: 0.778
- efficiency to beat: 0.778
- normalized lower bound 3055
--- checking solution
--- solution ok! Maximum rounding error: 0.000078
- solution found, obj var is: 3237
- de-normalized obj var: 0.794220
- time (local/global): 0.001/13.234
- branches (local/global): 23/834740
- fails (local/global): 1/406640
- lns time: 0.008000
- lns branches: 23
- lns fails: 1
LNS iteration #67 ========================================
- worst case average CPI: 1.151
- worst case efficiency: 0.778
- efficiency to beat: 0.778
- normalized lower bound 3055
--- checking solution
--- solution ok! Maximum rounding error: 0.000090
- solution found, obj var is: 3057
- de-normalized obj var: 0.783420
- time (local/global): 0.000/13.241
- branches (local/global): 17/834757
- fails (local/global): 1/406641
- lns time: 0.009000
- lns branches: 17
- lns fails: 1
LNS iteration #68 ========================================
- worst case average CPI: 1.151
- worst case efficiency: 0.782
- efficiency to beat: 0.782
- normalized lower bound 3115
--- checking solution
--- solution ok! Maximum rounding error: 0.000074
- solution found, obj var is: 3325
- de-normalized obj var: 0.799500
- time (local/global): 0.007/13.257
- branches (local/global): 456/835213
- fails (local/global): 201/406842
- lns time: 0.013000
- lns branches: 456
- lns fails: 201
LNS iteration #69 ========================================
- worst case average CPI: 1.151
- worst case efficiency: 0.782
- efficiency to beat: 0.782
- normalized lower bound 3112
--- checking solution
--- solution ok! Maximum rounding error: 0.000076
- solution found, obj var is: 3151
- de-normalized obj var: 0.789060
- time (local/global): 0.134/13.397
- branches (local/global): 9992/845205
- fails (local/global): 4792/411634
- lns time: 0.140000
- lns branches: 9992
- lns fails: 4792
LNS iteration #70 ========================================
- worst case average CPI: 1.151
- worst case efficiency: 0.784
- efficiency to beat: 0.784
- normalized lower bound 3151
- lns time: 3.009000
- lns branches: 189309
- lns fails: 92764
LNS iteration #71 ========================================
- worst case average CPI: 1.151
- worst case efficiency: 0.784
- efficiency to beat: 0.784
- normalized lower bound 3151
--- checking solution
--- solution ok! Maximum rounding error: 0.000026
- solution found, obj var is: 3470
- de-normalized obj var: 0.808200
- time (local/global): 0.256/16.668
- branches (local/global): 17141/1051655
- fails (local/global): 8303/512701
- lns time: 0.262000
- lns branches: 17141
- lns fails: 8303
LNS iteration #72 ========================================
- worst case average CPI: 1.151
- worst case efficiency: 0.785
- efficiency to beat: 0.785
- normalized lower bound 3167
--- checking solution
--- solution ok! Maximum rounding error: 0.000089
- solution found, obj var is: 3451
- de-normalized obj var: 0.807060
- time (local/global): 0.025/16.699
- branches (local/global): 1115/1052770
- fails (local/global): 515/513216
- lns time: 0.031000
- lns branches: 1115
- lns fails: 515
LNS iteration #73 ========================================
- worst case average CPI: 1.151
- worst case efficiency: 0.785
- efficiency to beat: 0.785
- normalized lower bound 3171
--- checking solution
--- solution ok! Maximum rounding error: 0.000048
- solution found, obj var is: 3425
- de-normalized obj var: 0.805500
- time (local/global): 0.001/16.706
- branches (local/global): 25/1052795
- fails (local/global): 2/513218
- lns time: 0.007000
- lns branches: 25
- lns fails: 2
LNS iteration #74 ========================================
- worst case average CPI: 1.151
- worst case efficiency: 0.786
- efficiency to beat: 0.786
- normalized lower bound 3185
--- checking solution
--- solution ok! Maximum rounding error: 0.000087
- solution found, obj var is: 3366
- de-normalized obj var: 0.801960
- time (local/global): 0.000/16.712
- branches (local/global): 22/1052817
- fails (local/global): 0/513218
- lns time: 0.006000
- lns branches: 22
- lns fails: 0
LNS iteration #75 ========================================
- worst case average CPI: 1.151
- worst case efficiency: 0.788
- efficiency to beat: 0.788
- normalized lower bound 3209
--- checking solution
--- solution ok! Maximum rounding error: 0.000144
- solution found, obj var is: 3239
- de-normalized obj var: 0.794340
- time (local/global): 0.011/16.729
- branches (local/global): 944/1053761
- fails (local/global): 436/513654
- lns time: 0.017000
- lns branches: 944
- lns fails: 436
LNS iteration #76 ========================================
- worst case average CPI: 1.151
- worst case efficiency: 0.789
- efficiency to beat: 0.789
- normalized lower bound 3233
--- checking solution
--- solution ok! Maximum rounding error: 0.000035
- solution found, obj var is: 3235
- de-normalized obj var: 0.794100
- time (local/global): 0.014/16.749
- branches (local/global): 1205/1054966
- fails (local/global): 574/514228
- lns time: 0.019000
- lns branches: 1205
- lns fails: 574
LNS iteration #77 ========================================
- worst case average CPI: 1.151
- worst case efficiency: 0.791
- efficiency to beat: 0.791
- normalized lower bound 3259
--- checking solution
--- solution ok! Maximum rounding error: 0.000000
- solution found, obj var is: 3266
- de-normalized obj var: 0.795960
- time (local/global): 0.001/16.755
- branches (local/global): 70/1055036
- fails (local/global): 27/514255
- lns time: 0.007000
- lns branches: 70
- lns fails: 27
LNS iteration #78 ========================================
- worst case average CPI: 1.151
- worst case efficiency: 0.791
- efficiency to beat: 0.791
- normalized lower bound 3259
--- checking solution
--- solution ok! Maximum rounding error: 0.000047
- solution found, obj var is: 3425
- de-normalized obj var: 0.805500
- time (local/global): 0.055/16.816
- branches (local/global): 3102/1058138
- fails (local/global): 1482/515737
- lns time: 0.061000
- lns branches: 3102
- lns fails: 1482
LNS iteration #79 ========================================
- worst case average CPI: 1.151
- worst case efficiency: 0.792
- efficiency to beat: 0.792
- normalized lower bound 3277
- lns time: 3.006000
- lns branches: 192548
- lns fails: 94414
LNS iteration #80 ========================================
- worst case average CPI: 1.151
- worst case efficiency: 0.792
- efficiency to beat: 0.792
- normalized lower bound 3277
--- checking solution
--- solution ok! Maximum rounding error: 0.000073
- solution found, obj var is: 3334
- de-normalized obj var: 0.800040
- time (local/global): 0.007/19.835
- branches (local/global): 572/1251258
- fails (local/global): 260/610411
- lns time: 0.013000
- lns branches: 572
- lns fails: 260
LNS iteration #81 ========================================
- worst case average CPI: 1.151
- worst case efficiency: 0.793
- efficiency to beat: 0.793
- normalized lower bound 3304
--- checking solution
--- solution ok! Maximum rounding error: 0.000036
- solution found, obj var is: 3368
- de-normalized obj var: 0.802080
- time (local/global): 0.009/19.850
- branches (local/global): 449/1251707
- fails (local/global): 201/610612
- lns time: 0.015000
- lns branches: 449
- lns fails: 201
LNS iteration #82 ========================================
- worst case average CPI: 1.151
- worst case efficiency: 0.794
- efficiency to beat: 0.794
- normalized lower bound 3318
--- checking solution
--- solution ok! Maximum rounding error: 0.000210
- solution found, obj var is: 3321
- de-normalized obj var: 0.799260
- time (local/global): 0.145/20.001
- branches (local/global): 10459/1262166
- fails (local/global): 5014/615626
- lns time: 0.151000
- lns branches: 10459
- lns fails: 5014
LNS iteration #83 ========================================
- worst case average CPI: 1.151
- worst case efficiency: 0.793
- efficiency to beat: 0.793
- normalized lower bound 3304
--- checking solution
--- solution ok! Maximum rounding error: 0.000046
- solution found, obj var is: 3323
- de-normalized obj var: 0.799380
- time (local/global): 0.238/20.245
- branches (local/global): 17043/1279209
- fails (local/global): 8261/623887
- lns time: 0.245000
- lns branches: 17043
- lns fails: 8261
LNS iteration #84 ========================================
- worst case average CPI: 1.151
- worst case efficiency: 0.794
- efficiency to beat: 0.794
- normalized lower bound 3324
--- checking solution
--- solution ok! Maximum rounding error: 0.000056
- solution found, obj var is: 3520
- de-normalized obj var: 0.811200
- time (local/global): 0.562/20.814
- branches (local/global): 42441/1321650
- fails (local/global): 20697/644584
- lns time: 0.568000
- lns branches: 42441
- lns fails: 20697
LNS iteration #85 ========================================
- worst case average CPI: 1.151
- worst case efficiency: 0.794
- efficiency to beat: 0.794
- normalized lower bound 3324
--- checking solution
--- solution ok! Maximum rounding error: 0.000049
- solution found, obj var is: 3326
- de-normalized obj var: 0.799560
- time (local/global): 0.050/20.870
- branches (local/global): 4217/1325867
- fails (local/global): 2002/646586
- lns time: 0.056000
- lns branches: 4217
- lns fails: 2002
LNS iteration #86 ========================================
- worst case average CPI: 1.151
- worst case efficiency: 0.796
- efficiency to beat: 0.796
- normalized lower bound 3350
--- checking solution
--- solution ok! Maximum rounding error: 0.000097
- solution found, obj var is: 3353
- de-normalized obj var: 0.801180
- time (local/global): 0.001/20.877
- branches (local/global): 79/1325946
- fails (local/global): 31/646617
- lns time: 0.007000
- lns branches: 79
- lns fails: 31
LNS iteration #87 ========================================
- worst case average CPI: 1.151
- worst case efficiency: 0.797
- efficiency to beat: 0.797
- normalized lower bound 3361
--- checking solution
--- solution ok! Maximum rounding error: 0.000314
- solution found, obj var is: 3369
- de-normalized obj var: 0.802140
- time (local/global): 2.037/22.920
- branches (local/global): 152265/1478211
- fails (local/global): 74403/721020
- lns time: 2.043000
- lns branches: 152265
- lns fails: 74403
LNS iteration #88 ========================================
- worst case average CPI: 1.151
- worst case efficiency: 0.798
- efficiency to beat: 0.798
- normalized lower bound 3387
--- checking solution
--- solution ok! Maximum rounding error: 0.000041
- solution found, obj var is: 3531
- de-normalized obj var: 0.811860
- time (local/global): 0.002/22.928
- branches (local/global): 141/1478352
- fails (local/global): 60/721080
- lns time: 0.008000
- lns branches: 141
- lns fails: 60
LNS iteration #89 ========================================
- worst case average CPI: 1.151
- worst case efficiency: 0.798
- efficiency to beat: 0.798
- normalized lower bound 3388
--- checking solution
--- solution ok! Maximum rounding error: 0.000026
- solution found, obj var is: 3408
- de-normalized obj var: 0.804480
- time (local/global): 0.007/22.941
- branches (local/global): 460/1478812
- fails (local/global): 205/721285
- lns time: 0.013000
- lns branches: 460
- lns fails: 205
LNS iteration #90 ========================================
- worst case average CPI: 1.127
- worst case efficiency: 0.799
- efficiency to beat: 0.799
- normalized lower bound 3407
--- checking solution
--- solution ok! Maximum rounding error: 0.000025
- solution found, obj var is: 3610
- de-normalized obj var: 0.816600
- time (local/global): 0.012/22.959
- branches (local/global): 1128/1479940
- fails (local/global): 535/721820
- lns time: 0.017000
- lns branches: 1128
- lns fails: 535
LNS iteration #91 ========================================
- worst case average CPI: 1.127
- worst case efficiency: 0.800
- efficiency to beat: 0.800
- normalized lower bound 3410
--- checking solution
--- solution ok! Maximum rounding error: 0.000096
- solution found, obj var is: 3435
- de-normalized obj var: 0.806100
- time (local/global): 0.058/23.022
- branches (local/global): 3604/1483544
- fails (local/global): 1704/723524
- lns time: 0.064000
- lns branches: 3604
- lns fails: 1704
LNS iteration #92 ========================================
- worst case average CPI: 1.127
- worst case efficiency: 0.800
- efficiency to beat: 0.800
- normalized lower bound 3411
--- checking solution
--- solution ok! Maximum rounding error: 0.000012
- solution found, obj var is: 3555
- de-normalized obj var: 0.813300
- time (local/global): 0.590/23.618
- branches (local/global): 40479/1524023
- fails (local/global): 19736/743260
- lns time: 0.599000
- lns branches: 40479
- lns fails: 19736
LNS iteration #93 ========================================
- worst case average CPI: 1.127
- worst case efficiency: 0.800
- efficiency to beat: 0.800
- normalized lower bound 3411
--- checking solution
--- solution ok! Maximum rounding error: 0.000040
- solution found, obj var is: 3442
- de-normalized obj var: 0.806520
- time (local/global): 0.669/24.296
- branches (local/global): 48520/1572543
- fails (local/global): 23601/766861
- lns time: 0.681000
- lns branches: 48520
- lns fails: 23601
LNS iteration #94 ========================================
- worst case average CPI: 0.830
- worst case efficiency: 0.800
- efficiency to beat: 0.800
- normalized lower bound 3423
--- checking solution
--- solution ok! Maximum rounding error: 0.000020
- solution found, obj var is: 3444
- de-normalized obj var: 0.806640
- time (local/global): 0.208/24.516
- branches (local/global): 9120/1581663
- fails (local/global): 4400/771261
- lns time: 0.214000
- lns branches: 9120
- lns fails: 4400
LNS iteration #95 ========================================
- worst case average CPI: 0.916
- worst case efficiency: 0.802
- efficiency to beat: 0.802
- normalized lower bound 3454
--- checking solution
--- solution ok! Maximum rounding error: 0.000089
- solution found, obj var is: 3832
- de-normalized obj var: 0.829920
- time (local/global): 0.001/24.523
- branches (local/global): 86/1581749
- fails (local/global): 36/771297
- lns time: 0.007000
- lns branches: 86
- lns fails: 36
LNS iteration #96 ========================================
- worst case average CPI: 0.916
- worst case efficiency: 0.802
- efficiency to beat: 0.802
- normalized lower bound 3457
--- checking solution
--- solution ok! Maximum rounding error: 0.000052
- solution found, obj var is: 3505
- de-normalized obj var: 0.810300
- time (local/global): 1.911/26.440
- branches (local/global): 147242/1728991
- fails (local/global): 72002/843299
- lns time: 1.917000
- lns branches: 147242
- lns fails: 72002
LNS iteration #97 ========================================
- worst case average CPI: 0.916
- worst case efficiency: 0.803
- efficiency to beat: 0.803
- normalized lower bound 3462
--- checking solution
--- solution ok! Maximum rounding error: 0.000074
- solution found, obj var is: 3542
- de-normalized obj var: 0.812520
- time (local/global): 0.083/26.529
- branches (local/global): 3869/1732860
- fails (local/global): 1837/845136
- lns time: 0.089000
- lns branches: 3869
- lns fails: 1837
LNS iteration #98 ========================================
- worst case average CPI: 0.916
- worst case efficiency: 0.804
- efficiency to beat: 0.804
- normalized lower bound 3487
--- checking solution
--- solution ok! Maximum rounding error: 0.000044
- solution found, obj var is: 3526
- de-normalized obj var: 0.811560
- time (local/global): 0.288/26.823
- branches (local/global): 19120/1751980
- fails (local/global): 9266/854402
- lns time: 0.295000
- lns branches: 19120
- lns fails: 9266
LNS iteration #99 ========================================
- worst case average CPI: 0.916
- worst case efficiency: 0.805
- efficiency to beat: 0.805
- normalized lower bound 3496
--- checking solution
--- solution ok! Maximum rounding error: 0.000107
- solution found, obj var is: 3516
- de-normalized obj var: 0.810960
- time (local/global): 0.118/26.948
- branches (local/global): 6858/1758838
- fails (local/global): 3300/857702
- lns time: 0.124000
- lns branches: 6858
- lns fails: 3300
LNS iteration #100 ========================================
- worst case average CPI: 0.916
- worst case efficiency: 0.805
- efficiency to beat: 0.805
- normalized lower bound 3498
--- checking solution
XXX Rounding error: 6
--- solution ok! Maximum rounding error: 0.000274
- solution found, obj var is: 3543
- de-normalized obj var: 0.812580
- time (local/global): 0.010/26.964
- branches (local/global): 450/1759288
- fails (local/global): 201/857903
- lns time: 0.017000
- lns branches: 450
- lns fails: 201
LNS iteration #101 ========================================
- worst case average CPI: 0.916
- worst case efficiency: 0.806
- efficiency to beat: 0.806
- normalized lower bound 3523
--- checking solution
--- solution ok! Maximum rounding error: 0.000034
- solution found, obj var is: 3651
- de-normalized obj var: 0.819060
- time (local/global): 0.109/27.080
- branches (local/global): 9597/1768885
- fails (local/global): 4603/862506
- lns time: 0.115000
- lns branches: 9597
- lns fails: 4603
LNS iteration #102 ========================================
- worst case average CPI: 0.916
- worst case efficiency: 0.808
- efficiency to beat: 0.808
- normalized lower bound 3550
--- checking solution
--- solution ok! Maximum rounding error: 0.000041
- solution found, obj var is: 3582
- de-normalized obj var: 0.814920
- time (local/global): 0.005/27.091
- branches (local/global): 241/1769126
- fails (local/global): 102/862608
- lns time: 0.011000
- lns branches: 241
- lns fails: 102
LNS iteration #103 ========================================
- worst case average CPI: 0.916
- worst case efficiency: 0.811
- efficiency to beat: 0.811
- normalized lower bound 3592
--- checking solution
--- solution ok! Maximum rounding error: 0.000182
- solution found, obj var is: 3600
- de-normalized obj var: 0.816000
- time (local/global): 2.302/29.399
- branches (local/global): 149905/1919031
- fails (local/global): 73300/935908
- lns time: 2.308000
- lns branches: 149905
- lns fails: 73300
LNS iteration #104 ========================================
- worst case average CPI: 0.916
- worst case efficiency: 0.811
- efficiency to beat: 0.811
- normalized lower bound 3600
--- checking solution
--- solution ok! Maximum rounding error: 0.000027
- solution found, obj var is: 3650
- de-normalized obj var: 0.819000
- time (local/global): 0.040/29.445
- branches (local/global): 2743/1921774
- fails (local/global): 1300/937208
- lns time: 0.046000
- lns branches: 2743
- lns fails: 1300
LNS iteration #105 ========================================
- worst case average CPI: 1.151
- worst case efficiency: 0.811
- efficiency to beat: 0.811
- normalized lower bound 3595
--- checking solution
--- solution ok! Maximum rounding error: 0.000135
- solution found, obj var is: 3621
- de-normalized obj var: 0.817260
- time (local/global): 0.354/29.805
- branches (local/global): 18538/1940312
- fails (local/global): 9003/946211
- lns time: 0.360000
- lns branches: 18538
- lns fails: 9003
LNS iteration #106 ========================================
- worst case average CPI: 1.151
- worst case efficiency: 0.812
- efficiency to beat: 0.812
- normalized lower bound 3610
--- checking solution
--- solution ok! Maximum rounding error: 0.000047
- solution found, obj var is: 3627
- de-normalized obj var: 0.817620
- time (local/global): 0.499/30.310
- branches (local/global): 19901/1960213
- fails (local/global): 9647/955858
- lns time: 0.505000
- lns branches: 19901
- lns fails: 9647
LNS iteration #107 ========================================
- worst case average CPI: 1.151
- worst case efficiency: 0.810
- efficiency to beat: 0.810
- normalized lower bound 3592
--- checking solution
--- solution ok! Maximum rounding error: 0.000047
- solution found, obj var is: 3608
- de-normalized obj var: 0.816480
- time (local/global): 0.136/30.452
- branches (local/global): 8155/1968368
- fails (local/global): 3923/959781
- lns time: 0.142000
- lns branches: 8155
- lns fails: 3923
LNS iteration #108 ========================================
- worst case average CPI: 1.151
- worst case efficiency: 0.812
- efficiency to beat: 0.812
- normalized lower bound 3625
--- checking solution
--- solution ok! Maximum rounding error: 0.000063
- solution found, obj var is: 3651
- de-normalized obj var: 0.819060
- time (local/global): 0.707/31.165
- branches (local/global): 42001/2010369
- fails (local/global): 20497/980278
- lns time: 0.713000
- lns branches: 42001
- lns fails: 20497
LNS iteration #109 ========================================
- worst case average CPI: 1.151
- worst case efficiency: 0.813
- efficiency to beat: 0.813
- normalized lower bound 3633
--- checking solution
--- solution ok! Maximum rounding error: 0.000034
- solution found, obj var is: 3686
- de-normalized obj var: 0.821160
- time (local/global): 0.006/31.177
- branches (local/global): 486/2010855
- fails (local/global): 227/980505
- lns time: 0.011000
- lns branches: 486
- lns fails: 227
LNS iteration #110 ========================================
- worst case average CPI: 1.151
- worst case efficiency: 0.813
- efficiency to beat: 0.813
- normalized lower bound 3636
--- checking solution
--- solution ok! Maximum rounding error: 0.000018
- solution found, obj var is: 3666
- de-normalized obj var: 0.819960
- time (local/global): 0.008/31.190
- branches (local/global): 582/2011437
- fails (local/global): 277/980782
- lns time: 0.013000
- lns branches: 582
- lns fails: 277
LNS iteration #111 ========================================
- worst case average CPI: 1.151
- worst case efficiency: 0.813
- efficiency to beat: 0.813
- normalized lower bound 3638
--- checking solution
--- solution ok! Maximum rounding error: 0.000058
- solution found, obj var is: 3648
- de-normalized obj var: 0.818880
- time (local/global): 2.724/33.919
- branches (local/global): 151535/2162972
- fails (local/global): 74003/1054785
- lns time: 2.730000
- lns branches: 151535
- lns fails: 74003
LNS iteration #112 ========================================
- worst case average CPI: 1.151
- worst case efficiency: 0.813
- efficiency to beat: 0.813
- normalized lower bound 3639
--- checking solution
--- solution ok! Maximum rounding error: 0.000055
- solution found, obj var is: 3685
- de-normalized obj var: 0.821100
- time (local/global): 0.353/34.278
- branches (local/global): 23140/2186112
- fails (local/global): 11212/1065997
- lns time: 0.359000
- lns branches: 23140
- lns fails: 11212
LNS iteration #113 ========================================
- worst case average CPI: 1.151
- worst case efficiency: 0.814
- efficiency to beat: 0.814
- normalized lower bound 3652
--- checking solution
--- solution ok! Maximum rounding error: 0.000019
- solution found, obj var is: 3709
- de-normalized obj var: 0.822540
- time (local/global): 0.002/34.286
- branches (local/global): 110/2186222
- fails (local/global): 48/1066045
- lns time: 0.007000
- lns branches: 110
- lns fails: 48
LNS iteration #114 ========================================
- worst case average CPI: 1.151
- worst case efficiency: 0.815
- efficiency to beat: 0.815
- normalized lower bound 3670
--- checking solution
--- solution ok! Maximum rounding error: 0.000202
- solution found, obj var is: 3820
- de-normalized obj var: 0.829200
- time (local/global): 0.221/34.512
- branches (local/global): 11694/2197916
- fails (local/global): 5627/1071672
- lns time: 0.227000
- lns branches: 11694
- lns fails: 5627
LNS iteration #115 ========================================
- worst case average CPI: 0.936
- worst case efficiency: 0.815
- efficiency to beat: 0.815
- normalized lower bound 3675
--- checking solution
--- solution ok! Maximum rounding error: 0.000469
- solution found, obj var is: 3713
- de-normalized obj var: 0.822780
- time (local/global): 0.575/35.093
- branches (local/global): 37567/2235483
- fails (local/global): 18316/1089988
- lns time: 0.581000
- lns branches: 37567
- lns fails: 18316
LNS iteration #116 ========================================
- worst case average CPI: 0.936
- worst case efficiency: 0.816
- efficiency to beat: 0.816
- normalized lower bound 3686
--- checking solution
--- solution ok! Maximum rounding error: 0.000134
- solution found, obj var is: 3690
- de-normalized obj var: 0.821400
- time (local/global): 0.663/35.762
- branches (local/global): 41843/2277326
- fails (local/global): 20412/1110400
- lns time: 0.669000
- lns branches: 41843
- lns fails: 20412
LNS iteration #117 ========================================
- worst case average CPI: 0.936
- worst case efficiency: 0.817
- efficiency to beat: 0.817
- normalized lower bound 3696
--- checking solution
--- solution ok! Maximum rounding error: 0.000038
- solution found, obj var is: 3708
- de-normalized obj var: 0.822480
- time (local/global): 0.682/36.450
- branches (local/global): 58984/2336310
- fails (local/global): 28622/1139022
- lns time: 0.689000
- lns branches: 58984
- lns fails: 28622
LNS iteration #118 ========================================
- worst case average CPI: 0.936
- worst case efficiency: 0.818
- efficiency to beat: 0.818
- normalized lower bound 3720
--- checking solution
--- solution ok! Maximum rounding error: 0.000087
- solution found, obj var is: 3720
- de-normalized obj var: 0.823200
- time (local/global): 0.003/36.460
- branches (local/global): 256/2336566
- fails (local/global): 111/1139133
- lns time: 0.009000
- lns branches: 256
- lns fails: 111
LNS iteration #119 ========================================
- worst case average CPI: 0.936
- worst case efficiency: 0.819
- efficiency to beat: 0.819
- normalized lower bound 3729
--- checking solution
--- solution ok! Maximum rounding error: 0.000054
- solution found, obj var is: 3746
- de-normalized obj var: 0.824760
- time (local/global): 0.285/36.751
- branches (local/global): 20339/2356905
- fails (local/global): 9860/1148993
- lns time: 0.292000
- lns branches: 20339
- lns fails: 9860
LNS iteration #120 ========================================
- worst case average CPI: 1.070
- worst case efficiency: 0.820
- efficiency to beat: 0.820
- normalized lower bound 3745
- lns time: 3.006000
- lns branches: 166574
- lns fails: 81548
LNS iteration #121 ========================================
- worst case average CPI: 1.070
- worst case efficiency: 0.820
- efficiency to beat: 0.820
- normalized lower bound 3745
--- checking solution
--- solution ok! Maximum rounding error: 0.000024
- solution found, obj var is: 3762
- de-normalized obj var: 0.825720
- time (local/global): 1.286/41.050
- branches (local/global): 76089/2599568
- fails (local/global): 37129/1267670
- lns time: 1.292000
- lns branches: 76089
- lns fails: 37129
LNS iteration #122 ========================================
- worst case average CPI: 1.070
- worst case efficiency: 0.819
- efficiency to beat: 0.819
- normalized lower bound 3742
--- checking solution
--- solution ok! Maximum rounding error: 0.000069
- solution found, obj var is: 3854
- de-normalized obj var: 0.831240
- time (local/global): 0.443/41.499
- branches (local/global): 23921/2623489
- fails (local/global): 11600/1279270
- lns time: 0.449000
- lns branches: 23921
- lns fails: 11600
LNS iteration #123 ========================================
- worst case average CPI: 1.070
- worst case efficiency: 0.821
- efficiency to beat: 0.821
- normalized lower bound 3760
--- checking solution
--- solution ok! Maximum rounding error: 0.000017
- solution found, obj var is: 3879
- de-normalized obj var: 0.832740
- time (local/global): 0.129/41.634
- branches (local/global): 7571/2631060
- fails (local/global): 3649/1282919
- lns time: 0.137000
- lns branches: 7571
- lns fails: 3649
LNS iteration #124 ========================================
- worst case average CPI: 0.954
- worst case efficiency: 0.821
- efficiency to beat: 0.821
- normalized lower bound 3768
- lns time: 3.010000
- lns branches: 178520
- lns fails: 87619
LNS iteration #125 ========================================
- worst case average CPI: 0.954
- worst case efficiency: 0.821
- efficiency to beat: 0.821
- normalized lower bound 3768
--- checking solution
--- solution ok! Maximum rounding error: 0.000088
- solution found, obj var is: 3792
- de-normalized obj var: 0.827520
- time (local/global): 0.027/44.679
- branches (local/global): 1297/2810877
- fails (local/global): 607/1371145
- lns time: 0.033000
- lns branches: 1297
- lns fails: 607
LNS iteration #126 ========================================
- worst case average CPI: 0.954
- worst case efficiency: 0.820
- efficiency to beat: 0.820
- normalized lower bound 3747
--- checking solution
--- solution ok! Maximum rounding error: 0.000032
- solution found, obj var is: 3753
- de-normalized obj var: 0.825180
- time (local/global): 0.931/45.616
- branches (local/global): 56299/2867176
- fails (local/global): 27453/1398598
- lns time: 0.939000
- lns branches: 56299
- lns fails: 27453
LNS iteration #127 ========================================
- worst case average CPI: 0.954
- worst case efficiency: 0.821
- efficiency to beat: 0.821
- normalized lower bound 3773
--- checking solution
--- solution ok! Maximum rounding error: 0.000107
- solution found, obj var is: 3782
- de-normalized obj var: 0.826920
- time (local/global): 0.744/46.368
- branches (local/global): 40654/2907830
- fails (local/global): 20015/1418613
- lns time: 0.751000
- lns branches: 40654
- lns fails: 20015
LNS iteration #128 ========================================
- worst case average CPI: 0.954
- worst case efficiency: 0.822
- efficiency to beat: 0.822
- normalized lower bound 3779
--- checking solution
--- solution ok! Maximum rounding error: 0.000103
- solution found, obj var is: 4138
- de-normalized obj var: 0.848280
- time (local/global): 0.018/46.393
- branches (local/global): 1089/2908919
- fails (local/global): 501/1419114
- lns time: 0.024000
- lns branches: 1089
- lns fails: 501
LNS iteration #129 ========================================
- worst case average CPI: 0.954
- worst case efficiency: 0.823
- efficiency to beat: 0.823
- normalized lower bound 3793
--- checking solution
--- solution ok! Maximum rounding error: 0.000069
- solution found, obj var is: 3816
- de-normalized obj var: 0.828960
- time (local/global): 0.993/47.392
- branches (local/global): 62612/2971531
- fails (local/global): 30521/1449635
- lns time: 0.999000
- lns branches: 62612
- lns fails: 30521
LNS iteration #130 ========================================
- worst case average CPI: 0.954
- worst case efficiency: 0.823
- efficiency to beat: 0.823
- normalized lower bound 3802
- lns time: 3.006000
- lns branches: 159089
- lns fails: 77786
LNS iteration #131 ========================================
- worst case average CPI: 0.954
- worst case efficiency: 0.823
- efficiency to beat: 0.823
- normalized lower bound 3802
- lns time: 3.006000
- lns branches: 151575
- lns fails: 74182
LNS iteration #132 ========================================
- worst case average CPI: 0.954
- worst case efficiency: 0.823
- efficiency to beat: 0.823
- normalized lower bound 3802
- lns time: 3.006000
- lns branches: 112820
- lns fails: 55201
LNS iteration #133 ========================================
- worst case average CPI: 0.954
- worst case efficiency: 0.823
- efficiency to beat: 0.823
- normalized lower bound 3802
- lns time: 3.006000
- lns branches: 93638
- lns fails: 45966
LNS iteration #134 ========================================
- worst case average CPI: 0.954
- worst case efficiency: 0.823
- efficiency to beat: 0.823
- normalized lower bound 3802
- lns time: 3.007000
- lns branches: 141632
- lns fails: 69217
LNS iteration #135 ========================================
- worst case average CPI: 0.954
- worst case efficiency: 0.823
- efficiency to beat: 0.823
- normalized lower bound 3802
- lns time: 3.009000
- lns branches: 98144
- lns fails: 48059
LNS iteration #136 ========================================
- worst case average CPI: 0.954
- worst case efficiency: 0.823
- efficiency to beat: 0.823
- normalized lower bound 3802
- lns time: 3.008000
- lns branches: 141920
- lns fails: 69446
LNS iteration #137 ========================================
- worst case average CPI: 0.954
- worst case efficiency: 0.823
- efficiency to beat: 0.823
- normalized lower bound 3802
--- checking solution
--- solution ok! Maximum rounding error: 0.000171
- solution found, obj var is: 3808
- de-normalized obj var: 0.828480
- time (local/global): 0.332/68.778
- branches (local/global): 24203/3894552
- fails (local/global): 11703/1901195
- lns time: 0.338000
- lns branches: 24203
- lns fails: 11703
LNS iteration #138 ========================================
- worst case average CPI: 0.954
- worst case efficiency: 0.825
- efficiency to beat: 0.825
- normalized lower bound 3826
- lns time: 3.006000
- lns branches: 217005
- lns fails: 106724
LNS iteration #139 ========================================
- worst case average CPI: 0.954
- worst case efficiency: 0.825
- efficiency to beat: 0.825
- normalized lower bound 3826
- lns time: 3.006000
- lns branches: 186999
- lns fails: 91821
LNS iteration #140 ========================================
- worst case average CPI: 0.954
- worst case efficiency: 0.825
- efficiency to beat: 0.825
- normalized lower bound 3826
--- checking solution
--- solution ok! Maximum rounding error: 0.000068
- solution found, obj var is: 3833
- de-normalized obj var: 0.829980
- time (local/global): 0.170/74.966
- branches (local/global): 11949/4310505
- fails (local/global): 5754/2105494
- lns time: 0.176000
- lns branches: 11949
- lns fails: 5754
LNS iteration #141 ========================================
- worst case average CPI: 0.954
- worst case efficiency: 0.825
- efficiency to beat: 0.825
- normalized lower bound 3828
- lns time: 3.006000
- lns branches: 173419
- lns fails: 84956
LNS iteration #142 ========================================
- worst case average CPI: 0.954
- worst case efficiency: 0.825
- efficiency to beat: 0.825
- normalized lower bound 3828
--- checking solution
--- solution ok! Maximum rounding error: 0.000170
- solution found, obj var is: 3898
- de-normalized obj var: 0.833880
- time (local/global): 0.674/78.652
- branches (local/global): 24046/4507970
- fails (local/global): 11627/2202077
- lns time: 0.685000
- lns branches: 24046
- lns fails: 11627
LNS iteration #143 ========================================
- worst case average CPI: 1.189
- worst case efficiency: 0.825
- efficiency to beat: 0.825
- normalized lower bound 3829
- lns time: 3.006000
- lns branches: 133767
- lns fails: 65401
LNS iteration #144 ========================================
- worst case average CPI: 1.189
- worst case efficiency: 0.825
- efficiency to beat: 0.825
- normalized lower bound 3829
--- checking solution
--- solution ok! Maximum rounding error: 0.000001
- solution found, obj var is: 3829
- de-normalized obj var: 0.829740
- time (local/global): 1.159/82.828
- branches (local/global): 60353/4702090
- fails (local/global): 29392/2296870
- lns time: 1.169000
- lns branches: 60353
- lns fails: 29392
LNS iteration #145 ========================================
- worst case average CPI: 1.189
- worst case efficiency: 0.826
- efficiency to beat: 0.826
- normalized lower bound 3849
--- checking solution
--- solution ok! Maximum rounding error: 0.000067
- solution found, obj var is: 3888
- de-normalized obj var: 0.833280
- time (local/global): 0.485/83.323
- branches (local/global): 25769/4727859
- fails (local/global): 12501/2309371
- lns time: 0.491000
- lns branches: 25769
- lns fails: 12501
LNS iteration #146 ========================================
- worst case average CPI: 1.189
- worst case efficiency: 0.826
- efficiency to beat: 0.826
- normalized lower bound 3852
--- checking solution
--- solution ok! Maximum rounding error: 0.000068
- solution found, obj var is: 3862
- de-normalized obj var: 0.831720
- time (local/global): 1.097/84.426
- branches (local/global): 65978/4793837
- fails (local/global): 32106/2341477
- lns time: 1.103000
- lns branches: 65978
- lns fails: 32106
LNS iteration #147 ========================================
- worst case average CPI: 1.189
- worst case efficiency: 0.826
- efficiency to beat: 0.826
- normalized lower bound 3854
- lns time: 3.006000
- lns branches: 154030
- lns fails: 75299
LNS iteration #148 ========================================
- worst case average CPI: 1.189
- worst case efficiency: 0.826
- efficiency to beat: 0.826
- normalized lower bound 3854
- lns time: 2.568000
- lns branches: 177039
- lns fails: 86721

LNS optimization is over========================================
initial worst case average CPI: 2.372
final worst case average CPI: 1.189
initial worst case efficiency: 0.655
final worst case efficiency: 0.826
number of iterations: 149
total time: 90006.000000
total branches: 5124906
total fails: 2503497

Final Solution: 0->33, 1->26, 2->35, 3->20, 4->26, 5->8, 6->27, 7->6, 8->10, 9->1, 10->20, 11->6, 12->1, 13->10, 14->37, 15->14, 16->7, 17->40, 18->16, 19->39, 20->34, 21->0, 22->7, 23->21, 24->24, 25->8, 26->13, 27->30, 28->8, 29->1, 30->13, 31->11, 32->9, 33->1, 34->35, 35->36, 36->5, 37->14, 38->34, 39->47, 40->30, 41->19, 42->33, 43->30, 44->43, 45->10, 46->26, 47->39, 48->38, 49->30, 50->46, 51->21, 52->28, 53->18, 54->8, 55->26, 56->40, 57->13, 58->36, 59->11, 60->4, 61->37, 62->43, 63->36, 64->12, 65->10, 66->27, 67->1, 68->19, 69->13, 70->23, 71->12, 72->46, 73->20, 74->2, 75->9, 76->12, 77->40, 78->24, 79->0, 80->14, 81->39, 82->18, 83->12, 84->43, 85->37, 86->9, 87->32, 88->27, 89->7, 90->26, 91->7, 92->25, 93->34, 94->22, 95->13, 96->18, 97->30, 98->19, 99->2, 100->8, 101->25, 102->11, 103->16, 104->30, 105->25, 106->1, 107->47, 108->9, 109->31, 110->0, 111->19, 112->6, 113->2, 114->14, 115->18, 116->4, 117->28, 118->2, 119->29, 120->25, 121->10, 122->44, 123->10, 124->28, 125->16, 126->42, 127->23, 128->23, 129->29, 130->2, 131->25, 132->37, 133->21, 134->8, 135->20, 136->39, 137->46, 138->29, 139->15, 140->11, 141->35, 142->44, 143->6, 144->17, 145->12, 146->2, 147->22, 148->33, 149->40, 150->41, 151->6, 152->11, 153->3, 154->42, 155->35, 156->40, 157->45, 158->0, 159->20, 160->38, 161->27, 162->14, 163->37, 164->20, 165->15, 166->31, 167->19, 168->33, 169->33, 170->45, 171->19, 172->40, 173->26, 174->9, 175->38, 176->41, 177->4, 178->15, 179->36, 180->27, 181->3, 182->23, 183->45, 184->36, 185->41, 186->24, 187->15, 188->25, 189->23, 190->28, 191->44, 192->9, 193->32, 194->18, 195->5, 196->41, 197->39, 198->47, 199->29, 200->3, 201->3, 202->29, 203->29, 204->23, 205->34, 206->0, 207->17, 208->5, 209->6, 210->24, 211->27, 212->43, 213->46, 214->32, 215->47, 216->31, 217->28, 218->5, 219->47, 220->24, 221->36, 222->31, 223->42, 224->31, 225->14, 226->17, 227->47, 228->3, 229->45, 230->39, 231->24, 232->13, 233->12, 234->4, 235->45, 236->11, 237->32, 238->17, 239->15, 240->34, 241->43, 242->4, 243->32, 244->5, 245->34, 246->22, 247->28, 248->22, 249->42, 250->17, 251->41, 252->0, 253->35, 254->16, 255->33, 256->17, 257->38, 258->18, 259->4, 260->3, 261->21, 262->46, 263->38, 264->22, 265->38, 266->44, 267->46, 268->37, 269->42, 270->43, 271->15, 272->5, 273->22, 274->16, 275->44, 276->7, 277->35, 278->21, 279->31, 280->21, 281->16, 282->7, 283->42, 284->44, 285->45, 286->32, 287->41

Average CPI map:
	7.49,	1.49,	1.34,	1.19,	1.21,	1.29
	1.98,	7.10,	6.39,	6.86,	6.52,	1.84
	1.64,	6.64,	7.34,	7.29,	6.00,	1.86
	1.87,	9.13,	7.92,	7.62,	5.63,	1.49
	2.04,	5.82,	10.03,	6.85,	7.59,	2.54
	2.19,	6.56,	7.55,	9.18,	5.27,	1.61
	1.32,	5.97,	5.56,	7.54,	10.15,	1.87
	1.90,	6.06,	7.00,	6.70,	3.64,	1.94

Efficiency map:
	0.997,	0.919,	0.920,	0.870,	0.917,	1.003
	0.846,	0.839,	0.919,	0.832,	0.829,	0.842
	0.830,	0.835,	0.832,	0.839,	0.830,	0.849
	0.827,	0.832,	0.829,	0.826,	0.827,	0.932
	0.830,	0.848,	0.845,	0.842,	0.830,	0.839
	0.842,	0.829,	0.834,	0.833,	0.834,	0.831
	0.835,	0.831,	0.828,	0.827,	0.916,	0.852
	0.829,	0.842,	0.839,	0.842,	0.847,	0.862
