LocalSolver 4.0 (MacOS64, build 20131224)
Copyright (C) 2013 Bouygues SA, Aix-Marseille University, CNRS.
All rights reserved (see Terms and Conditions for details).

Load localsolver_res/tawd_ls.lsp...
Run input...
ANNs For the Platform:
4,2,1,6.45294,0.0174524,1.58234,2.29305,2.12057,3.95113,12.7206,-19.3278,5.58789,9.38298,0.00306445,0.00353919,0.795949
4,2,1,3.10684,7.56359,0.502116,0.637049,12.0356,-2.9013,-3.22211,-0.368567,-0.562298,-7.37831,2.38595,1.22203,-0.360292
4,2,1,4.88387,44.8399,1.27345,1.24496,49.1775,-8.83277,-3.12983,-1.00946,11.7,-3.01002,0.132635,0.00372271,0.673996
4,2,1,4.73045,19.3982,0.449241,0.753865,25.7092,17.3605,0.0558085,-8.91516,0.49993,10.3396,4.06312,-0.0136297,-3.24599
4,2,1,-7.16849,-10.0957,-0.518885,-0.00359459,5.93351,5.62684,52.0516,1.48603,1.30274,57.2311,0.250578,0.137157,0.417379
4,2,1,0.412706,-2.89716,0.137754,-2.57826,11.0947,121.374,858.444,-136.26,-14917.8,-1308.92,-3.36558,-0.000403784,4.17997
4,2,1,-8.8269,-0.482244,-0.0820712,-0.0562713,-10.1617,9.78118,-7.01882,-0.428151,-0.0606718,2.56012,-8.54699,-0.509991,-7.23704
4,2,1,2.19881,4.94147,0.541452,0.107587,6.45213,1.0452,0.405805,0.555763,3.64728,1.95727,0.425683,-0.00188273,0.383643
4,2,1,-6.13316,1.92598,-0.0562274,-0.0731719,-4.60606,0.509071,7.79918,0.393802,0.0114563,7.9345,-1.13416,0.310582,-0.637365
4,2,1,1.73462,2.97854,0.276167,0.0859465,3.6912,3.09203,3.25403,0.324282,0.112495,4.06123,0.954718,-0.48836,0.344765
4,2,1,1.57339,3.84603,-3.4467,0.7429,2.75709,2.1802,5.09535,0.482172,0.106131,6.49189,-0.0251827,0.433535,0.393482
4,2,1,4.13514,21.6229,1.1931,0.354612,24.1372,25.5916,0.432728,-12.6725,-0.45345,15.3428,0.194819,-0.0364695,0.647465
4,2,1,-0.728632,5.60079,1.78098,1.8429,-5.74354,-3.26566,-13.0026,-0.907163,-0.31822,-15.3707,-0.427666,-0.224298,0.154329
4,2,1,3.81854,-4.98219,-0.293924,-0.103604,-6.7034,2.28654,4.72568,0.469524,0.115005,6.05901,-0.511241,0.421809,-0.121549
4,2,1,-1.23773,5.98591,0.224555,-0.359337,6.05767,2.3852,3.4706,0.220977,0.179377,4.88772,0.199751,0.432231,0.177791
4,2,1,1.12189,4.09326,0.850801,0.171671,-5.17646,-1.9656,-4.07995,-0.210811,-0.113853,-5.17242,-2.70452,-0.46094,-2.36326
4,2,1,2.08858,4.80174,0.367584,0.109336,6.02292,4.32969,4.35157,0.772172,10.015,-0.96022,0.43933,4.17055e-05,0.365228
4,2,1,1.18806,3.00188,0.124753,0.00191203,3.75084,1.03049,2.7808,0.137818,0.0250058,4.01619,-1.05018,2.49176,-0.635083
4,2,1,3.11788,10.9247,0.699295,0.170953,13.0959,-11.4646,-5.88946,11.0137,8.74787,-11.701,0.236706,0.0216102,0.59131
4,2,1,7.53568,1.94998,-2.27776,-1.91765,0.451708,2.13206,4.27547,0.333162,0.0864645,5.45063,-0.0153486,0.447774,0.366202
4,2,1,-2.12436,-3.29848,-0.0965154,-0.0454545,-3.86293,4.27042,3.64797,0.106703,0.057602,4.81479,-1.28015,-0.815344,0.346524
4,2,1,2.06313,3.99765,-9.94001e-06,0.200591,5.05136,-0.024567,-3.22765,-1.84842,1.73493,-3.87425,0.446216,-0.0350173,0.320411
4,2,1,3.3952,3.19239,0.219932,0.0459907,4.0724,1.85184,2.9352,0.236295,0.0535068,3.62882,-0.516849,0.990723,0.337742
4,2,1,-6.32145,2.68844,0.160066,0.0633176,-3.81442,9.03888,1.31396,0.253255,-0.0684612,6.93971,1.83579,0.440423,2.20116
4,2,1,-4.54148,-0.217309,1.86369,-0.409034,0.0885675,-3.10698,-12.3715,-0.753639,-0.275832,-14.544,0.00344558,-0.233405,0.57337
4,2,1,-0.743367,6.86662,-0.19496,-0.0184317,7.54898,2.69258,3.24789,0.437511,0.121848,4.97423,0.830361,0.39615,-0.417087
4,2,1,2.07654,3.2533,0.103762,0.0837251,4.40922,1.95615,-2.57949,-0.10147,-0.0485499,-3.72005,0.479113,-0.433879,-0.0966803
4,2,1,-0.480501,-0.00331725,1.67452,0.764966,-1.53387,1.99113,3.67475,0.0228188,0.0287235,4.64739,0.15721,0.465135,0.487915
4,2,1,1.11584,-5.79333,-0.212675,0.376981,-6.64888,2.45003,3.54368,0.313683,0.144659,5.05472,-0.777178,0.423599,-0.389995
4,2,1,2.39093,1.70258,-0.183288,-0.314006,4.06496,2.34881,2.91375,-0.0230153,-0.18977,5.26307,-1.33645,1.84807,0.292237
4,2,1,0.88022,3.23795,0.179315,0.0205209,3.57684,0.764441,2.74982,0.156077,0.0273373,3.62313,-0.980719,2.16912,-0.37872
4,2,1,-1.27932,7.09751,-0.0490235,0.455487,7.14709,-2.57722,-4.06233,-0.410784,-0.0433739,-5.6171,0.164894,-0.408714,0.23583
4,2,1,0.623158,5.01876,0.194867,0.0365944,4.99458,-16.0815,2.94826,-1.82463,-1.90388,-9.56395,0.291148,-0.155001,0.360694
4,2,1,1.86251,3.92056,0.158781,0.0575693,4.93436,0.681285,4.09563,1.09826,-3.65606,2.09524,0.482473,-0.00448292,0.322397
4,2,1,3.33939,3.52877,0.262622,0.0607689,4.45842,2.23218,3.37107,0.256541,0.0516206,4.05014,-1.2701,1.7162,0.365737
4,2,1,5.0585,4.68315,2.53887,0.128578,8.9709,3.62833,11.0789,1.32555,0.190392,13.8026,-0.126366,0.350541,0.580103
4,2,1,4.99986,2.75557,1.33036,-0.0119951,6.91685,4.23025,5.34568,1.08928,0.0379928,8.80363,-0.700785,0.958812,0.547325
4,2,1,1.95024,3.24732,0.229322,0.0270089,3.53624,1.62575,3.04977,0.230194,0.0319079,3.46966,-1.34015,1.81817,0.333213
4,2,1,2.11055,5.16581,0.225183,0.0767342,6.2013,3.43647,-3.10756,1.22453,-6.27082,5.92438,0.428242,2.12665,-1.75474
4,2,1,10.028,2.55152,-0.0579427,-0.0186516,-2.98054,2.14055,4.33639,0.203596,0.057269,5.47668,0.0078111,0.436528,0.371941
4,2,1,1.80421,3.45533,0.27065,0.0337725,4.14172,3.00203,3.65885,0.26995,0.0620062,4.37924,0.892686,-0.440136,0.355377
4,2,1,-2.76424,-10.7675,-0.741451,-0.141046,-12.927,13.6995,2.51611,0.90934,27.76,15.1973,-0.260938,-0.00175312,0.546274
4,2,1,2.26659,3.88332,0.083697,0.287373,-5.89957,3.07548,7.5942,0.285535,0.141703,9.90558,1.94369,0.273352,2.47758
4,2,1,5.41472,-1.35343,-0.0808605,2.27411,0.928252,2.55844,6.15687,0.338903,0.0735359,7.47381,-0.0148119,0.388691,0.423615
4,2,1,4.53285,3.66527,0.130055,0.0722232,4.95325,-2.1632,-3.34312,-0.11633,-0.0577237,-3.98867,-0.759785,-1.19124,0.379449
4,2,1,2.36669,5.75119,0.132783,0.0812059,6.8845,-8.68015,-0.488627,0.811521,2.16444,0.277436,0.40839,0.00790296,0.400784
4,2,1,0.583762,8.58805,0.307497,0.0165495,8.61973,-7.32584,1.34397,-0.0108636,-0.0260377,-6.96836,0.266022,-5.2323,-4.69173
4,2,1,1.76683,-0.336959,-0.116305,-0.0696435,-1.62311,2.51027,5.65249,0.180271,0.0657051,7.97995,-0.0500539,0.457869,0.308072
Workload Information:
2.32528, 2.69661, 2.33489, 2.61968, 1.39219, 0.631348, 2.14457, 2.09786, 2.0156, 1.40994, 1.98032, 2.35171, 2.14681, 5.51269, 0.508952, 0.535891, 0.5, 2.79566, 3.22107, 2.76887, 0.692256, 1.46167, 0.850599, 3.00553, 2.23892, 1.87871, 1.2304, 2.62408, 1.53786, 2.49003, 2.48813, 1.34152, 1.20766, 2.56005, 2.63035, 1.77229, 2.66158, 1.90349, 1.20222, 0.5, 2.9669, 2.76581, 1.98381, 1.59411, 2.21138, 1.7083, 2.1388, 2.3636, 2.19001, 0.5, 4.03973, 1.23369, 3.32551, 0.711065, 3.24643, 1.1781, 4.52644, 1.21575, 0.964015, 0.869259, 0.938447, 3.922, 0.843693, 1.07256, 1.25476, 3.96854, 1.39503, 3.56897, 0.5, 2.38786, 2.90278, 1.24536, 2.93462, 0.896481, 1.06807, 2.45856, 1.87207, 2.7702, 1.69628, 2.78384, 1.12446, 0.5, 4.4353, 1.46012, 2.38702, 1.72511, 2.41288, 0.580633, 2.60767, 2.28668, 3.58483, 1.62044, 2.45795, 1.4516, 1.25484, 1.63034, 0.91103, 2.63715, 3.19185, 2.24391, 1.0621, 1.95395, 1.32327, 1.66125, 1.74398, 2.48313, 2.38041, 2.40796, 2.4193, 1.97648, 3.89831, 1.45677, 1.43626, 0.812887, 1.06923, 2.69108, 2.69001, 2.40738, 0.5, 2.6423, 2.42072, 2.2702, 2.33269, 1.11317, 2.14266, 1.72055, 1.81811, 2.32174, 0.5, 1.62056, 3.11018, 2.62942, 0.707084, 5.29154, 0.5, 1.5014, 0.779448, 3.22052, 0.5, 1.39923, 2.29096, 2.96028, 0.653012, 4.19651, 2.63646, 4.68393, 16.8611, 9.38735, 10.584, 15.8471, 12.4193, 11.3196, 8.5879, 5.72528, 10.3222, 11.6257, 2.31026, 0.923478, 2.2913, 2.17043, 2.2971, 2.00743, 2.10152, 2.2143, 1.84459, 1.79931, 2.20512, 1.83515, 2.41186, 0.899128, 2.56038, 3.06383, 0.544909, 2.51989, 0.713665, 2.36931, 5.49921, 0.839979, 0.5, 2.07783, 5.95985, 14.7485, 5.49833, 11.4358, 10.0437, 12.3138, 10.8716, 6.94639, 11.4038, 9.4133, 11.2042, 10.1607, 2.11606, 2.1784, 1.63394, 2.49925, 1.77286, 1.79949, 2.09519, 0.5, 3.13735, 2.57248, 0.589622, 3.10535, 0.5, 2.33476, 2.6411, 2.10101, 1.2168, 3.20633, 0.714263, 1.016, 4.23816, 2.98103, 2.23276, 0.817779, 2.06887, 21.1907, 15.5591, 1.76883, 12.7602, 6.65228, 9.39986, 0.989694, 12.6479, 13.8169, 5.73979, 17.4058, 0.553682, 0.732482, 4.94519, 3.15069, 2.11795, 0.5, 2.1616, 1.82805, 1.98405, 2.41493, 1.33159, 2.27978, 1.97777, 1.89826, 2.04107, 2.08565, 1.86146, 2.1358, 1.84052, 2.09338, 3.1304, 0.617474, 1.88191, 2.43632, 1.05405, 2.49331, 2.40819, 2.42397, 2.30645, 1.31403, 1.10261, 2.56829, 2.2386, 2.10825, 2.51723, 1.46503, 1.65952, 0.5, 3.22461, 0.849226, 3.22171, 2.54493, 1.44435, 2.97665, 2.08928, 0.529936, 4.44981, 0.509979, 2.21915, 2.3045, 1.9667, 1.74361, 1.68983, 2.07621, 0.917113, 3.85127, 2.09248, 1.7479, 0.810541, 2.58069
cpi min/max: 0.5/21.1907
neighbors of 0: 1 6, number of others: 45
neighbors of 1: 0 2 6 7, number of others: 43
neighbors of 2: 1 3 7 8, number of others: 43
neighbors of 3: 2 4 8 9, number of others: 43
neighbors of 4: 3 5 9 10, number of others: 43
neighbors of 5: 4 10 11, number of others: 44
neighbors of 6: 0 1 7 12, number of others: 43
neighbors of 7: 1 2 6 8 12 13, number of others: 41
neighbors of 8: 2 3 7 9 13 14, number of others: 41
neighbors of 9: 3 4 8 10 14 15, number of others: 41
neighbors of 10: 4 5 9 11 15 16, number of others: 41
neighbors of 11: 5 10 16 17, number of others: 43
neighbors of 12: 6 7 13 18, number of others: 43
neighbors of 13: 7 8 12 14 18 19, number of others: 41
neighbors of 14: 8 9 13 15 19 20, number of others: 41
neighbors of 15: 9 10 14 16 20 21, number of others: 41
neighbors of 16: 10 11 15 17 21 22, number of others: 41
neighbors of 17: 11 16 22 23, number of others: 43
neighbors of 18: 12 13 19 24, number of others: 43
neighbors of 19: 13 14 18 20 24 25, number of others: 41
neighbors of 20: 14 15 19 21 25 26, number of others: 41
neighbors of 21: 15 16 20 22 26 27, number of others: 41
neighbors of 22: 16 17 21 23 27 28, number of others: 41
neighbors of 23: 17 22 28 29, number of others: 43
neighbors of 24: 18 19 25 30, number of others: 43
neighbors of 25: 19 20 24 26 30 31, number of others: 41
neighbors of 26: 20 21 25 27 31 32, number of others: 41
neighbors of 27: 21 22 26 28 32 33, number of others: 41
neighbors of 28: 22 23 27 29 33 34, number of others: 41
neighbors of 29: 23 28 34 35, number of others: 43
neighbors of 30: 24 25 31 36, number of others: 43
neighbors of 31: 25 26 30 32 36 37, number of others: 41
neighbors of 32: 26 27 31 33 37 38, number of others: 41
neighbors of 33: 27 28 32 34 38 39, number of others: 41
neighbors of 34: 28 29 33 35 39 40, number of others: 41
neighbors of 35: 29 34 40 41, number of others: 43
neighbors of 36: 30 31 37 42, number of others: 43
neighbors of 37: 31 32 36 38 42 43, number of others: 41
neighbors of 38: 32 33 37 39 43 44, number of others: 41
neighbors of 39: 33 34 38 40 44 45, number of others: 41
neighbors of 40: 34 35 39 41 45 46, number of others: 41
neighbors of 41: 35 40 46 47, number of others: 43
neighbors of 42: 36 37 43, number of others: 44
neighbors of 43: 37 38 42 44, number of others: 43
neighbors of 44: 38 39 43 45, number of others: 43
neighbors of 45: 39 40 44 46, number of others: 43
neighbors of 46: 40 41 45 47, number of others: 43
neighbors of 47: 41 46, number of others: 45
Run model...
Preprocess model 0% ...Preprocess model 16% ...Preprocess model 32% ...Preprocess model 48% ...Preprocess model 66% ...Preprocess model 84% ...Preprocess model 100% ...
Close model 0% ...Close model 9% ...Close model 18% ...Close model 27% ...Close model 36% ...Close model 45% ...Close model 54% ...Close model 63% ...Close model 72% ...Close model 81% ...Close model 91% ...Close model 100% ...
Run param...
Run solver...
Initialize threads 0% ...Initialize threads 100% ...
Push initial solutions 0% ...Push initial solutions 100% ...

Model: 
  expressions = 44736, operands = 116736
  decisions = 13824, constraints = 336, objectives = 1

Param: 
  time limit = 90 sec, no iteration limit
  seed = 801, nb threads = 1, annealing level = 1

Objectives:
  Obj 0: maximize, no bound

Phases:
  Phase 0: time limit = 90 sec, no iteration limit, optimized objective = 0


Computed bounds:
  Obj 0: upper bound = 0.664123


Phase 0:
[0 sec, 0 itr]: infeas = (336, 336, 576), mov = 0, inf < 0.1%, acc < 0.1%, imp = 0

worst case efficiency: 0.998464
[1 sec, 14036 itr]: obj = (0.0464134), mov = 14036, inf = 94.9%, acc = 4.9%, imp = 143

worst case efficiency: 0.627848
[2 sec, 32308 itr]: obj = (0.0647937), mov = 32308, inf = 97.4%, acc = 2.5%, imp = 193

worst case efficiency: 0.638876
[3 sec, 44017 itr]: obj = (0.0966152), mov = 44017, inf = 97.7%, acc = 2.2%, imp = 257

worst case efficiency: 0.657969
[4 sec, 52773 itr]: obj = (0.105708), mov = 52773, inf = 97.7%, acc = 2.1%, imp = 311

worst case efficiency: 0.663425
[5 sec, 61132 itr]: obj = (0.110789), mov = 61132, inf = 97.6%, acc = 2.1%, imp = 371

worst case efficiency: 0.666474
[6 sec, 69431 itr]: obj = (0.120276), mov = 69431, inf = 97.6%, acc = 2%, imp = 413

worst case efficiency: 0.672166
[7 sec, 77314 itr]: obj = (0.12747), mov = 77314, inf = 97.7%, acc = 2%, imp = 451

worst case efficiency: 0.676482
[8 sec, 85313 itr]: obj = (0.127732), mov = 85313, inf = 97.9%, acc = 1.8%, imp = 453

worst case efficiency: 0.676639
[9 sec, 93120 itr]: obj = (0.131376), mov = 93120, inf = 98%, acc = 1.7%, imp = 482

worst case efficiency: 0.678826
[10 sec, 100590 itr]: obj = (0.141249), mov = 100590, inf = 98%, acc = 1.7%, imp = 525

worst case efficiency: 0.684749
[11 sec, 108345 itr]: obj = (0.152803), mov = 108345, inf = 98%, acc = 1.7%, imp = 582

worst case efficiency: 0.691682
[12 sec, 116406 itr]: obj = (0.165735), mov = 116406, inf = 98%, acc = 1.6%, imp = 624

worst case efficiency: 0.699441
[13 sec, 124498 itr]: obj = (0.167708), mov = 124498, inf = 98%, acc = 1.6%, imp = 651

worst case efficiency: 0.700625
[14 sec, 132503 itr]: obj = (0.168387), mov = 132503, inf = 98%, acc = 1.5%, imp = 661

worst case efficiency: 0.701032
[15 sec, 140508 itr]: obj = (0.17652), mov = 140508, inf = 98%, acc = 1.5%, imp = 692

worst case efficiency: 0.705912
[16 sec, 147602 itr]: obj = (0.185297), mov = 147602, inf = 98%, acc = 1.5%, imp = 729

worst case efficiency: 0.711178
[17 sec, 155659 itr]: obj = (0.19604), mov = 155659, inf = 98%, acc = 1.5%, imp = 766

worst case efficiency: 0.717624
[18 sec, 163450 itr]: obj = (0.20219), mov = 163450, inf = 98%, acc = 1.4%, imp = 798

worst case efficiency: 0.721314
[19 sec, 171434 itr]: obj = (0.207096), mov = 171434, inf = 98%, acc = 1.4%, imp = 830

worst case efficiency: 0.724257
[20 sec, 179202 itr]: obj = (0.211481), mov = 179202, inf = 98.1%, acc = 1.4%, imp = 853

worst case efficiency: 0.726889
[21 sec, 186611 itr]: obj = (0.212495), mov = 186611, inf = 98.1%, acc = 1.4%, imp = 875

worst case efficiency: 0.727497
[22 sec, 194238 itr]: obj = (0.213954), mov = 194238, inf = 98.1%, acc = 1.4%, imp = 894

worst case efficiency: 0.728372
[23 sec, 201879 itr]: obj = (0.218087), mov = 201879, inf = 98.1%, acc = 1.3%, imp = 922

worst case efficiency: 0.730852
[24 sec, 209866 itr]: obj = (0.219706), mov = 209866, inf = 98.1%, acc = 1.3%, imp = 942

worst case efficiency: 0.731824
[25 sec, 218099 itr]: obj = (0.221277), mov = 218099, inf = 98.2%, acc = 1.3%, imp = 966

worst case efficiency: 0.732766
[26 sec, 226201 itr]: obj = (0.224765), mov = 226201, inf = 98.2%, acc = 1.3%, imp = 986

worst case efficiency: 0.734859
[27 sec, 234545 itr]: obj = (0.225601), mov = 234545, inf = 98.2%, acc = 1.2%, imp = 1002

worst case efficiency: 0.735361
[28 sec, 243449 itr]: obj = (0.226933), mov = 243449, inf = 98.2%, acc = 1.2%, imp = 1019

worst case efficiency: 0.73616
[29 sec, 251987 itr]: obj = (0.229021), mov = 251987, inf = 98.2%, acc = 1.2%, imp = 1039

worst case efficiency: 0.737412
[30 sec, 261649 itr]: obj = (0.229502), mov = 261649, inf = 98.2%, acc = 1.2%, imp = 1052

worst case efficiency: 0.737701
[31 sec, 272127 itr]: obj = (0.231601), mov = 272127, inf = 98.2%, acc = 1.2%, imp = 1070

worst case efficiency: 0.73896
[32 sec, 285984 itr]: obj = (0.231799), mov = 285984, inf = 98.2%, acc = 1.1%, imp = 1079

worst case efficiency: 0.73908
[33 sec, 316210 itr]: obj = (0.231942), mov = 316210, inf = 98.1%, acc = 1.1%, imp = 1083

worst case efficiency: 0.739165
[34 sec, 352263 itr]: obj = (0.232075), mov = 352263, inf = 98.1%, acc = 1.1%, imp = 1086

worst case efficiency: 0.739245
[35 sec, 388156 itr]: obj = (0.23214), mov = 388156, inf = 98.1%, acc = 1%, imp = 1090

worst case efficiency: 0.739284
[36 sec, 424654 itr]: obj = (0.23214), mov = 424654, inf = 98%, acc = 1%, imp = 1090

worst case efficiency: 0.739284
[37 sec, 461834 itr]: obj = (0.232211), mov = 461834, inf = 98%, acc = 1%, imp = 1091

worst case efficiency: 0.739327
[38 sec, 499821 itr]: obj = (0.232211), mov = 499821, inf = 98%, acc = 1%, imp = 1093

worst case efficiency: 0.739327
[39 sec, 536285 itr]: obj = (0.232211), mov = 536285, inf = 98%, acc = 0.9%, imp = 1093

worst case efficiency: 0.739327
[40 sec, 573469 itr]: obj = (0.232307), mov = 573469, inf = 98%, acc = 0.9%, imp = 1096

worst case efficiency: 0.739384
[41 sec, 609878 itr]: obj = (0.232307), mov = 609878, inf = 98%, acc = 0.9%, imp = 1097

worst case efficiency: 0.739384
[42 sec, 646854 itr]: obj = (0.232307), mov = 646854, inf = 97.9%, acc = 0.9%, imp = 1097

worst case efficiency: 0.739384
[43 sec, 684370 itr]: obj = (0.232307), mov = 684370, inf = 97.9%, acc = 0.9%, imp = 1097

worst case efficiency: 0.739384
[44 sec, 721469 itr]: obj = (0.232363), mov = 721469, inf = 97.9%, acc = 0.9%, imp = 1099

worst case efficiency: 0.739418
[45 sec, 758215 itr]: obj = (0.232363), mov = 758215, inf = 97.9%, acc = 0.9%, imp = 1099

worst case efficiency: 0.739418
[46 sec, 788494 itr]: obj = (0.232393), mov = 788494, inf = 97.9%, acc = 0.9%, imp = 1100

worst case efficiency: 0.739436
[47 sec, 823300 itr]: obj = (0.232398), mov = 823300, inf = 97.9%, acc = 0.9%, imp = 1102

worst case efficiency: 0.739439
[48 sec, 861068 itr]: obj = (0.232398), mov = 861068, inf = 97.9%, acc = 0.9%, imp = 1102

worst case efficiency: 0.739439
[49 sec, 898154 itr]: obj = (0.232481), mov = 898154, inf = 97.9%, acc = 0.9%, imp = 1104

worst case efficiency: 0.739489
[50 sec, 934201 itr]: obj = (0.232496), mov = 934201, inf = 97.9%, acc = 0.8%, imp = 1107

worst case efficiency: 0.739498
[51 sec, 969960 itr]: obj = (0.232563), mov = 969960, inf = 97.9%, acc = 0.8%, imp = 1109

worst case efficiency: 0.739538
[52 sec, 1005789 itr]: obj = (0.232563), mov = 1005789, inf = 97.9%, acc = 0.8%, imp = 1110

worst case efficiency: 0.739538
[53 sec, 1041229 itr]: obj = (0.232563), mov = 1041229, inf = 97.9%, acc = 0.8%, imp = 1110

worst case efficiency: 0.739538
[54 sec, 1078674 itr]: obj = (0.232582), mov = 1078674, inf = 97.9%, acc = 0.8%, imp = 1112

worst case efficiency: 0.739549
[55 sec, 1116594 itr]: obj = (0.232582), mov = 1116594, inf = 97.9%, acc = 0.8%, imp = 1112

worst case efficiency: 0.739549
[56 sec, 1153941 itr]: obj = (0.232604), mov = 1153941, inf = 97.9%, acc = 0.8%, imp = 1115

worst case efficiency: 0.739562
[57 sec, 1189904 itr]: obj = (0.232826), mov = 1189904, inf = 97.9%, acc = 0.8%, imp = 1121

worst case efficiency: 0.739696
[58 sec, 1227514 itr]: obj = (0.233251), mov = 1227514, inf = 97.9%, acc = 0.8%, imp = 1130

worst case efficiency: 0.739951
[59 sec, 1266109 itr]: obj = (0.233305), mov = 1266109, inf = 97.9%, acc = 0.8%, imp = 1135

worst case efficiency: 0.739983
[60 sec, 1305073 itr]: obj = (0.233463), mov = 1305073, inf = 97.9%, acc = 0.8%, imp = 1140

worst case efficiency: 0.740078
[61 sec, 1343613 itr]: obj = (0.23354), mov = 1343613, inf = 97.9%, acc = 0.8%, imp = 1143

worst case efficiency: 0.740124
[62 sec, 1412482 itr]: obj = (0.233765), mov = 1412482, inf = 97.9%, acc = 0.8%, imp = 1149

worst case efficiency: 0.740259
[63 sec, 1449548 itr]: obj = (0.234157), mov = 1449548, inf = 97.9%, acc = 0.8%, imp = 1156

worst case efficiency: 0.740494
[64 sec, 1486655 itr]: obj = (0.234184), mov = 1486655, inf = 97.9%, acc = 0.8%, imp = 1159

worst case efficiency: 0.74051
[65 sec, 1524015 itr]: obj = (0.234218), mov = 1524015, inf = 97.9%, acc = 0.8%, imp = 1163

worst case efficiency: 0.740531
[66 sec, 1560495 itr]: obj = (0.234626), mov = 1560495, inf = 97.9%, acc = 0.8%, imp = 1173

worst case efficiency: 0.740776
[67 sec, 1598519 itr]: obj = (0.235004), mov = 1598519, inf = 97.9%, acc = 0.8%, imp = 1186

worst case efficiency: 0.741002
[68 sec, 1635805 itr]: obj = (0.236324), mov = 1635805, inf = 97.9%, acc = 0.8%, imp = 1212

worst case efficiency: 0.741795
[69 sec, 1673195 itr]: obj = (0.237623), mov = 1673195, inf = 97.9%, acc = 0.8%, imp = 1221

worst case efficiency: 0.742574
[70 sec, 1710269 itr]: obj = (0.237637), mov = 1710269, inf = 97.9%, acc = 0.8%, imp = 1222

worst case efficiency: 0.742582
[71 sec, 1747891 itr]: obj = (0.237794), mov = 1747891, inf = 97.9%, acc = 0.8%, imp = 1225

worst case efficiency: 0.742676
[72 sec, 1785516 itr]: obj = (0.238086), mov = 1785516, inf = 97.9%, acc = 0.8%, imp = 1230

worst case efficiency: 0.742851
[73 sec, 1822855 itr]: obj = (0.239089), mov = 1822855, inf = 97.9%, acc = 0.8%, imp = 1236

worst case efficiency: 0.743453
[74 sec, 1860417 itr]: obj = (0.23921), mov = 1860417, inf = 97.9%, acc = 0.8%, imp = 1243

worst case efficiency: 0.743526
[75 sec, 1897804 itr]: obj = (0.239228), mov = 1897804, inf = 97.9%, acc = 0.8%, imp = 1244

worst case efficiency: 0.743537
[76 sec, 1933935 itr]: obj = (0.23927), mov = 1933935, inf = 97.9%, acc = 0.8%, imp = 1247

worst case efficiency: 0.743562
[77 sec, 1971549 itr]: obj = (0.239338), mov = 1971549, inf = 97.9%, acc = 0.8%, imp = 1251

worst case efficiency: 0.743603
[78 sec, 2009235 itr]: obj = (0.239338), mov = 2009235, inf = 97.9%, acc = 0.8%, imp = 1251

worst case efficiency: 0.743603
[79 sec, 2040516 itr]: obj = (0.239338), mov = 2040516, inf = 97.9%, acc = 0.8%, imp = 1251

worst case efficiency: 0.743603
[80 sec, 2079025 itr]: obj = (0.23946), mov = 2079025, inf = 97.9%, acc = 0.8%, imp = 1256

worst case efficiency: 0.743676
[81 sec, 2116650 itr]: obj = (0.23946), mov = 2116650, inf = 97.9%, acc = 0.7%, imp = 1257

worst case efficiency: 0.743676
[82 sec, 2154708 itr]: obj = (0.23946), mov = 2154708, inf = 98%, acc = 0.7%, imp = 1257

worst case efficiency: 0.743676
[83 sec, 2193129 itr]: obj = (0.239463), mov = 2193129, inf = 98%, acc = 0.7%, imp = 1258

worst case efficiency: 0.743678
[84 sec, 2231940 itr]: obj = (0.239506), mov = 2231940, inf = 98%, acc = 0.7%, imp = 1259

worst case efficiency: 0.743703
[85 sec, 2270763 itr]: obj = (0.239528), mov = 2270763, inf = 98%, acc = 0.7%, imp = 1261

worst case efficiency: 0.743717
[86 sec, 2304966 itr]: obj = (0.2396), mov = 2304966, inf = 98%, acc = 0.7%, imp = 1265

worst case efficiency: 0.74376
[87 sec, 2340849 itr]: obj = (0.240108), mov = 2340849, inf = 98%, acc = 0.7%, imp = 1271

worst case efficiency: 0.744065
[88 sec, 2377680 itr]: obj = (0.240144), mov = 2377680, inf = 98%, acc = 0.7%, imp = 1275

worst case efficiency: 0.744087
[89 sec, 2414730 itr]: obj = (0.240533), mov = 2414730, inf = 98%, acc = 0.7%, imp = 1284

worst case efficiency: 0.74432
[90 sec, 2450495 itr]: obj = (0.240625), mov = 2450495, inf = 98%, acc = 0.7%, imp = 1287

worst case efficiency: 0.744375
[90 sec, 2450495 itr]: obj = (0.240625), mov = 2450495, inf = 98%, acc = 0.7%, imp = 1287

worst case efficiency: 0.744375
2450495 iterations, 2450495 moves performed in 90 seconds
Feasible solution: obj = (0.240625)

Run output...
FINAL SOLUTION
Worst case efficiency: 0.744375
Mapping: 0->15, 1->20, 2->16, 3->40, 4->12, 5->47, 6->32, 7->11, 8->15, 9->6, 10->42, 11->27, 12->5, 13->22, 14->18, 15->12, 16->35, 17->46, 18->10, 19->17, 20->41, 21->18, 22->2, 23->20, 24->1, 25->37, 26->45, 27->22, 28->9, 29->33, 30->45, 31->15, 32->36, 33->27, 34->1, 35->26, 36->34, 37->4, 38->4, 39->36, 40->22, 41->38, 42->4, 43->1, 44->7, 45->6, 46->3, 47->26, 48->21, 49->47, 50->20, 51->30, 52->39, 53->2, 54->20, 55->8, 56->8, 57->10, 58->23, 59->5, 60->1, 61->9, 62->42, 63->41, 64->46, 65->16, 66->24, 67->26, 68->0, 69->40, 70->37, 71->18, 72->13, 73->30, 74->17, 75->39, 76->37, 77->9, 78->4, 79->31, 80->12, 81->47, 82->8, 83->41, 84->2, 85->24, 86->27, 87->42, 88->25, 89->43, 90->7, 91->6, 92->37, 93->47, 94->41, 95->18, 96->17, 97->31, 98->15, 99->11, 100->29, 101->38, 102->17, 103->3, 104->42, 105->10, 106->16, 107->45, 108->19, 109->14, 110->32, 111->25, 112->1, 113->17, 114->30, 115->34, 116->38, 117->7, 118->0, 119->20, 120->34, 121->26, 122->16, 123->36, 124->5, 125->40, 126->23, 127->22, 128->23, 129->5, 130->30, 131->14, 132->24, 133->19, 134->12, 135->36, 136->0, 137->39, 138->35, 139->11, 140->40, 141->22, 142->2, 143->44, 144->21, 145->32, 146->45, 147->13, 148->21, 149->40, 150->28, 151->34, 152->31, 153->38, 154->33, 155->28, 156->15, 157->0, 158->45, 159->11, 160->8, 161->44, 162->8, 163->7, 164->23, 165->18, 166->10, 167->5, 168->13, 169->3, 170->23, 171->22, 172->35, 173->16, 174->35, 175->23, 176->25, 177->0, 178->47, 179->19, 180->10, 181->25, 182->32, 183->14, 184->46, 185->32, 186->14, 187->21, 188->44, 189->31, 190->19, 191->7, 192->14, 193->43, 194->7, 195->27, 196->36, 197->42, 198->3, 199->35, 200->33, 201->44, 202->18, 203->33, 204->29, 205->26, 206->28, 207->34, 208->28, 209->5, 210->24, 211->29, 212->25, 213->20, 214->13, 215->2, 216->29, 217->15, 218->9, 219->29, 220->10, 221->33, 222->37, 223->46, 224->32, 225->27, 226->38, 227->26, 228->0, 229->11, 230->28, 231->28, 232->24, 233->42, 234->43, 235->29, 236->44, 237->13, 238->4, 239->30, 240->3, 241->27, 242->19, 243->14, 244->11, 245->21, 246->40, 247->4, 248->38, 249->41, 250->30, 251->39, 252->24, 253->33, 254->19, 255->44, 256->31, 257->6, 258->46, 259->9, 260->8, 261->36, 262->37, 263->41, 264->31, 265->3, 266->39, 267->2, 268->39, 269->25, 270->12, 271->34, 272->6, 273->12, 274->45, 275->1, 276->21, 277->43, 278->47, 279->6, 280->9, 281->43, 282->35, 283->16, 284->43, 285->46, 286->17, 287->13
Number of tasks per core:
	6	6	6	6	6	6
	6	6	6	6	6	6
	6	6	6	6	6	6
	6	6	6	6	6	6
	6	6	6	6	6	6
	6	6	6	6	6	6
	6	6	6	6	6	6
	6	6	6	6	6	6
Average CPI map:
	0.682764	1.55801	1.04478	1.54535	1.70179	1.97013
	1.6476	3.70208	2.79618	4.67455	4.64085	1.7509
	0.921138	3.66037	5.18584	5.39587	2.89795	1.28244
	1.20588	4.24036	3.10194	4.45197	3.24159	1.67607
	1.28558	5.18255	4.95261	4.25651	5.9998	1.37398
	1.74521	4.56469	6.86447	4.70009	4.02844	0.612614
	1.36723	3.50477	3.66754	2.98121	4.45111	1.09371
	1.24135	2.18331	4.09803	4.95478	2.98905	0.924942
Efficiency map:
	0.99722	0.883744	0.918752	0.854325	0.994668	1.00307
	0.805121	0.746605	0.751188	0.765882	0.744909	0.843949
	0.819629	0.744376	0.766148	0.744407	0.747199	0.800873
	0.815472	0.751147	0.765109	0.760878	0.744991	0.855247
	0.824824	0.744375	0.753641	0.747155	0.758248	0.789882
	0.834317	0.748377	0.767227	0.797579	0.77159	0.815494
	0.811876	0.745633	0.746836	0.754859	0.766622	0.8138
	0.812356	0.746635	0.793771	0.762571	0.792783	0.780932
==============================================================================
Local Solver optimizer for EML demonstration
==============================================================================

Option values: --wld-idx 0 --global-tlim 90 --seed 801

Starting the Optimization Process
