LocalSolver 4.0 (MacOS64, build 20131224)
Copyright (C) 2013 Bouygues SA, Aix-Marseille University, CNRS.
All rights reserved (see Terms and Conditions for details).

Load localsolver_res/tawd_ls.lsp...
Run input...
ANNs For the Platform:
4,2,1,6.45294,0.0174524,1.58234,2.29305,2.12057,3.95113,12.7206,-19.3278,5.58789,9.38298,0.00306445,0.00353919,0.795949
4,2,1,3.10684,7.56359,0.502116,0.637049,12.0356,-2.9013,-3.22211,-0.368567,-0.562298,-7.37831,2.38595,1.22203,-0.360292
4,2,1,4.88387,44.8399,1.27345,1.24496,49.1775,-8.83277,-3.12983,-1.00946,11.7,-3.01002,0.132635,0.00372271,0.673996
4,2,1,4.73045,19.3982,0.449241,0.753865,25.7092,17.3605,0.0558085,-8.91516,0.49993,10.3396,4.06312,-0.0136297,-3.24599
4,2,1,-7.16849,-10.0957,-0.518885,-0.00359459,5.93351,5.62684,52.0516,1.48603,1.30274,57.2311,0.250578,0.137157,0.417379
4,2,1,0.412706,-2.89716,0.137754,-2.57826,11.0947,121.374,858.444,-136.26,-14917.8,-1308.92,-3.36558,-0.000403784,4.17997
4,2,1,-8.8269,-0.482244,-0.0820712,-0.0562713,-10.1617,9.78118,-7.01882,-0.428151,-0.0606718,2.56012,-8.54699,-0.509991,-7.23704
4,2,1,2.19881,4.94147,0.541452,0.107587,6.45213,1.0452,0.405805,0.555763,3.64728,1.95727,0.425683,-0.00188273,0.383643
4,2,1,-6.13316,1.92598,-0.0562274,-0.0731719,-4.60606,0.509071,7.79918,0.393802,0.0114563,7.9345,-1.13416,0.310582,-0.637365
4,2,1,1.73462,2.97854,0.276167,0.0859465,3.6912,3.09203,3.25403,0.324282,0.112495,4.06123,0.954718,-0.48836,0.344765
4,2,1,1.57339,3.84603,-3.4467,0.7429,2.75709,2.1802,5.09535,0.482172,0.106131,6.49189,-0.0251827,0.433535,0.393482
4,2,1,4.13514,21.6229,1.1931,0.354612,24.1372,25.5916,0.432728,-12.6725,-0.45345,15.3428,0.194819,-0.0364695,0.647465
4,2,1,-0.728632,5.60079,1.78098,1.8429,-5.74354,-3.26566,-13.0026,-0.907163,-0.31822,-15.3707,-0.427666,-0.224298,0.154329
4,2,1,3.81854,-4.98219,-0.293924,-0.103604,-6.7034,2.28654,4.72568,0.469524,0.115005,6.05901,-0.511241,0.421809,-0.121549
4,2,1,-1.23773,5.98591,0.224555,-0.359337,6.05767,2.3852,3.4706,0.220977,0.179377,4.88772,0.199751,0.432231,0.177791
4,2,1,1.12189,4.09326,0.850801,0.171671,-5.17646,-1.9656,-4.07995,-0.210811,-0.113853,-5.17242,-2.70452,-0.46094,-2.36326
4,2,1,2.08858,4.80174,0.367584,0.109336,6.02292,4.32969,4.35157,0.772172,10.015,-0.96022,0.43933,4.17055e-05,0.365228
4,2,1,1.18806,3.00188,0.124753,0.00191203,3.75084,1.03049,2.7808,0.137818,0.0250058,4.01619,-1.05018,2.49176,-0.635083
4,2,1,3.11788,10.9247,0.699295,0.170953,13.0959,-11.4646,-5.88946,11.0137,8.74787,-11.701,0.236706,0.0216102,0.59131
4,2,1,7.53568,1.94998,-2.27776,-1.91765,0.451708,2.13206,4.27547,0.333162,0.0864645,5.45063,-0.0153486,0.447774,0.366202
4,2,1,-2.12436,-3.29848,-0.0965154,-0.0454545,-3.86293,4.27042,3.64797,0.106703,0.057602,4.81479,-1.28015,-0.815344,0.346524
4,2,1,2.06313,3.99765,-9.94001e-06,0.200591,5.05136,-0.024567,-3.22765,-1.84842,1.73493,-3.87425,0.446216,-0.0350173,0.320411
4,2,1,3.3952,3.19239,0.219932,0.0459907,4.0724,1.85184,2.9352,0.236295,0.0535068,3.62882,-0.516849,0.990723,0.337742
4,2,1,-6.32145,2.68844,0.160066,0.0633176,-3.81442,9.03888,1.31396,0.253255,-0.0684612,6.93971,1.83579,0.440423,2.20116
4,2,1,-4.54148,-0.217309,1.86369,-0.409034,0.0885675,-3.10698,-12.3715,-0.753639,-0.275832,-14.544,0.00344558,-0.233405,0.57337
4,2,1,-0.743367,6.86662,-0.19496,-0.0184317,7.54898,2.69258,3.24789,0.437511,0.121848,4.97423,0.830361,0.39615,-0.417087
4,2,1,2.07654,3.2533,0.103762,0.0837251,4.40922,1.95615,-2.57949,-0.10147,-0.0485499,-3.72005,0.479113,-0.433879,-0.0966803
4,2,1,-0.480501,-0.00331725,1.67452,0.764966,-1.53387,1.99113,3.67475,0.0228188,0.0287235,4.64739,0.15721,0.465135,0.487915
4,2,1,1.11584,-5.79333,-0.212675,0.376981,-6.64888,2.45003,3.54368,0.313683,0.144659,5.05472,-0.777178,0.423599,-0.389995
4,2,1,2.39093,1.70258,-0.183288,-0.314006,4.06496,2.34881,2.91375,-0.0230153,-0.18977,5.26307,-1.33645,1.84807,0.292237
4,2,1,0.88022,3.23795,0.179315,0.0205209,3.57684,0.764441,2.74982,0.156077,0.0273373,3.62313,-0.980719,2.16912,-0.37872
4,2,1,-1.27932,7.09751,-0.0490235,0.455487,7.14709,-2.57722,-4.06233,-0.410784,-0.0433739,-5.6171,0.164894,-0.408714,0.23583
4,2,1,0.623158,5.01876,0.194867,0.0365944,4.99458,-16.0815,2.94826,-1.82463,-1.90388,-9.56395,0.291148,-0.155001,0.360694
4,2,1,1.86251,3.92056,0.158781,0.0575693,4.93436,0.681285,4.09563,1.09826,-3.65606,2.09524,0.482473,-0.00448292,0.322397
4,2,1,3.33939,3.52877,0.262622,0.0607689,4.45842,2.23218,3.37107,0.256541,0.0516206,4.05014,-1.2701,1.7162,0.365737
4,2,1,5.0585,4.68315,2.53887,0.128578,8.9709,3.62833,11.0789,1.32555,0.190392,13.8026,-0.126366,0.350541,0.580103
4,2,1,4.99986,2.75557,1.33036,-0.0119951,6.91685,4.23025,5.34568,1.08928,0.0379928,8.80363,-0.700785,0.958812,0.547325
4,2,1,1.95024,3.24732,0.229322,0.0270089,3.53624,1.62575,3.04977,0.230194,0.0319079,3.46966,-1.34015,1.81817,0.333213
4,2,1,2.11055,5.16581,0.225183,0.0767342,6.2013,3.43647,-3.10756,1.22453,-6.27082,5.92438,0.428242,2.12665,-1.75474
4,2,1,10.028,2.55152,-0.0579427,-0.0186516,-2.98054,2.14055,4.33639,0.203596,0.057269,5.47668,0.0078111,0.436528,0.371941
4,2,1,1.80421,3.45533,0.27065,0.0337725,4.14172,3.00203,3.65885,0.26995,0.0620062,4.37924,0.892686,-0.440136,0.355377
4,2,1,-2.76424,-10.7675,-0.741451,-0.141046,-12.927,13.6995,2.51611,0.90934,27.76,15.1973,-0.260938,-0.00175312,0.546274
4,2,1,2.26659,3.88332,0.083697,0.287373,-5.89957,3.07548,7.5942,0.285535,0.141703,9.90558,1.94369,0.273352,2.47758
4,2,1,5.41472,-1.35343,-0.0808605,2.27411,0.928252,2.55844,6.15687,0.338903,0.0735359,7.47381,-0.0148119,0.388691,0.423615
4,2,1,4.53285,3.66527,0.130055,0.0722232,4.95325,-2.1632,-3.34312,-0.11633,-0.0577237,-3.98867,-0.759785,-1.19124,0.379449
4,2,1,2.36669,5.75119,0.132783,0.0812059,6.8845,-8.68015,-0.488627,0.811521,2.16444,0.277436,0.40839,0.00790296,0.400784
4,2,1,0.583762,8.58805,0.307497,0.0165495,8.61973,-7.32584,1.34397,-0.0108636,-0.0260377,-6.96836,0.266022,-5.2323,-4.69173
4,2,1,1.76683,-0.336959,-0.116305,-0.0696435,-1.62311,2.51027,5.65249,0.180271,0.0657051,7.97995,-0.0500539,0.457869,0.308072
Workload Information:
2.14663, 2.02479, 1.89359, 1.56349, 1.99231, 2.37918, 0.5, 4.64321, 1.29555, 1.27451, 0.801023, 3.48571, 1.35756, 3.13681, 0.76655, 0.763286, 5.37017, 0.605627, 1.09499, 2.0888, 1.19086, 2.56111, 1.47022, 3.59401, 1.56712, 1.58944, 2.31755, 0.5, 3.58996, 2.43593, 1.89979, 0.936165, 2.22034, 0.5, 3.28476, 3.15895, 4.92293, 0.5, 4.26664, 0.508778, 1.24295, 0.558706, 2.64815, 2.42779, 1.58519, 0.5, 2.51151, 2.32736, 3.32874, 0.8588, 0.534399, 0.5, 1.05607, 5.72199, 2.77634, 2.77461, 3.08038, 0.5, 2.05678, 0.811884, 3.26688, 1.27378, 1.832, 3.07964, 1.90006, 0.647648, 0.849818, 0.990724, 5.60396, 1.23613, 0.5, 2.81937, 3.72979, 2.04164, 4.28519, 0.509925, 0.5, 0.93345, 2.17549, 2.1189, 1.1002, 2.26458, 2.17031, 2.17051, 2.63723, 1.88098, 1.55706, 2.17168, 1.49877, 2.25427, 4.09476, 4.32573, 0.574872, 1.85697, 0.5, 0.647675, 1.41266, 1.27221, 4.19606, 0.682956, 3.9361, 0.5, 2.15932, 1.46759, 0.5, 6.62421, 0.558376, 0.690502, 1.80062, 2.75261, 1.9554, 0.5, 2.90371, 2.08765, 3.00162, 0.554264, 3.82433, 1.2409, 2.87889, 0.5, 1.40936, 2.80468, 2.78267, 0.696019, 2.4855, 1.82178, 3.43658, 2.28566, 2.92906, 0.994106, 0.657078, 1.69752, 1.89499, 0.536974, 2.40918, 2.37756, 2.15274, 2.62856, 2.51896, 2.78097, 0.845027, 0.5, 3.8085, 1.54654, 2.19013, 1.40759, 1.98482, 2.56301, 0.5, 3.35446, 2.53123, 2.42754, 2.2653, 2.02679, 1.9065, 0.842644, 3.29139, 0.817321, 1.09268, 3.06666, 3.23194, 0.5, 1.96014, 1.90914, 2.28625, 1.55617, 2.20594, 2.08236, 2.17744, 4.30132, 0.5, 2.25791, 1.56596, 1.19737, 3.73564, 0.5, 1.83581, 0.672723, 1.65961, 3.59621, 1.16247, 4.66821, 0.998559, 0.5, 1.38357, 3.2872, 2.90487, 1.80789, 1.46306, 2.61796, 2.70621, 0.5, 4.39257, 1.50195, 0.71856, 1.59818, 0.679775, 3.10896, 1.37039, 1.96239, 1.71933, 2.35119, 2.15007, 2.44663, 2.30783, 2.20642, 1.84407, 1.91115, 1.74172, 1.98881, 2.4335, 2.75899, 0.640331, 2.37685, 1.71619, 2.07413, 2.13611, 2.43, 2.51474, 2.4831, 0.771626, 1.66443, 2.98348, 2.73313, 0.5, 0.891637, 2.0084, 2.88335, 2.47341, 2.01039, 1.05078, 2.28152, 2.05734, 2.12656, 1.08336, 1.77523, 2.52714, 2.79415, 2.2457, 1.57441, 2.14899, 2.09439, 1.60837, 2.09593, 2.62384, 1.42848, 2.39943, 1.71848, 2.64193, 2.42078, 1.94228, 0.877095, 1.01996, 3.34613, 2.37013, 2.80189, 1.50288, 0.95901, 1.40172, 2.19459, 1.96864, 1.88097, 2.79048, 1.7636, 2.54404, 1.31382, 2.37462, 1.34652, 2.4146, 2.00639, 3.3815, 0.89812, 1.5498, 2.25236, 1.65845, 2.25976, 0.640422, 2.89243, 1.55532, 2.85671, 3.51456, 0.540555, 2.46881, 3.15726, 0.5, 1.40866, 3.10722, 1.35806
cpi min/max: 0.5/6.62421
neighbors of 0: 1 6, number of others: 45
neighbors of 1: 0 2 6 7, number of others: 43
neighbors of 2: 1 3 7 8, number of others: 43
neighbors of 3: 2 4 8 9, number of others: 43
neighbors of 4: 3 5 9 10, number of others: 43
neighbors of 5: 4 10 11, number of others: 44
neighbors of 6: 0 1 7 12, number of others: 43
neighbors of 7: 1 2 6 8 12 13, number of others: 41
neighbors of 8: 2 3 7 9 13 14, number of others: 41
neighbors of 9: 3 4 8 10 14 15, number of others: 41
neighbors of 10: 4 5 9 11 15 16, number of others: 41
neighbors of 11: 5 10 16 17, number of others: 43
neighbors of 12: 6 7 13 18, number of others: 43
neighbors of 13: 7 8 12 14 18 19, number of others: 41
neighbors of 14: 8 9 13 15 19 20, number of others: 41
neighbors of 15: 9 10 14 16 20 21, number of others: 41
neighbors of 16: 10 11 15 17 21 22, number of others: 41
neighbors of 17: 11 16 22 23, number of others: 43
neighbors of 18: 12 13 19 24, number of others: 43
neighbors of 19: 13 14 18 20 24 25, number of others: 41
neighbors of 20: 14 15 19 21 25 26, number of others: 41
neighbors of 21: 15 16 20 22 26 27, number of others: 41
neighbors of 22: 16 17 21 23 27 28, number of others: 41
neighbors of 23: 17 22 28 29, number of others: 43
neighbors of 24: 18 19 25 30, number of others: 43
neighbors of 25: 19 20 24 26 30 31, number of others: 41
neighbors of 26: 20 21 25 27 31 32, number of others: 41
neighbors of 27: 21 22 26 28 32 33, number of others: 41
neighbors of 28: 22 23 27 29 33 34, number of others: 41
neighbors of 29: 23 28 34 35, number of others: 43
neighbors of 30: 24 25 31 36, number of others: 43
neighbors of 31: 25 26 30 32 36 37, number of others: 41
neighbors of 32: 26 27 31 33 37 38, number of others: 41
neighbors of 33: 27 28 32 34 38 39, number of others: 41
neighbors of 34: 28 29 33 35 39 40, number of others: 41
neighbors of 35: 29 34 40 41, number of others: 43
neighbors of 36: 30 31 37 42, number of others: 43
neighbors of 37: 31 32 36 38 42 43, number of others: 41
neighbors of 38: 32 33 37 39 43 44, number of others: 41
neighbors of 39: 33 34 38 40 44 45, number of others: 41
neighbors of 40: 34 35 39 41 45 46, number of others: 41
neighbors of 41: 35 40 46 47, number of others: 43
neighbors of 42: 36 37 43, number of others: 44
neighbors of 43: 37 38 42 44, number of others: 43
neighbors of 44: 38 39 43 45, number of others: 43
neighbors of 45: 39 40 44 46, number of others: 43
neighbors of 46: 40 41 45 47, number of others: 43
neighbors of 47: 41 46, number of others: 45
Run model...
Preprocess model 0% ...Preprocess model 16% ...Preprocess model 32% ...Preprocess model 48% ...Preprocess model 66% ...Preprocess model 84% ...Preprocess model 100% ...
Close model 0% ...Close model 9% ...Close model 18% ...Close model 27% ...Close model 36% ...Close model 45% ...Close model 54% ...Close model 63% ...Close model 72% ...Close model 81% ...Close model 91% ...Close model 100% ...
Run param...
Run solver...
Initialize threads 0% ...Initialize threads 100% ...
Push initial solutions 0% ...Push initial solutions 100% ...

Model: 
  expressions = 44727, operands = 116736
  decisions = 13824, constraints = 336, objectives = 1

Param: 
  time limit = 90 sec, no iteration limit
  seed = 201, nb threads = 1, annealing level = 1

Objectives:
  Obj 0: maximize, no bound

Phases:
  Phase 0: time limit = 90 sec, no iteration limit, optimized objective = 0


Computed bounds:
  Obj 0: upper bound = 0.664123


Phase 0:
[0 sec, 0 itr]: infeas = (336, 336, 576), mov = 0, inf < 0.1%, acc < 0.1%, imp = 0

worst case efficiency: 0.998464
[1 sec, 2484 itr]: obj = (0.0114008), mov = 2484, inf = 69%, acc = 28.4%, imp = 134

worst case efficiency: 0.606841
[2 sec, 17526 itr]: obj = (0.0394358), mov = 17526, inf = 95.3%, acc = 4.3%, imp = 166

worst case efficiency: 0.623661
[3 sec, 29967 itr]: obj = (0.0491467), mov = 29967, inf = 97%, acc = 2.8%, imp = 207

worst case efficiency: 0.629488
[4 sec, 39910 itr]: obj = (0.0616952), mov = 39910, inf = 97.5%, acc = 2.4%, imp = 256

worst case efficiency: 0.637017
[5 sec, 47606 itr]: obj = (0.0630017), mov = 47606, inf = 97.7%, acc = 2.1%, imp = 288

worst case efficiency: 0.637801
[6 sec, 53498 itr]: obj = (0.0652085), mov = 53498, inf = 97.8%, acc = 2%, imp = 315

worst case efficiency: 0.639125
[7 sec, 58739 itr]: obj = (0.0661273), mov = 58739, inf = 97.9%, acc = 1.8%, imp = 331

worst case efficiency: 0.639676
[8 sec, 63657 itr]: obj = (0.0731902), mov = 63657, inf = 97.9%, acc = 1.8%, imp = 376

worst case efficiency: 0.643914
[9 sec, 68615 itr]: obj = (0.0743567), mov = 68615, inf = 98%, acc = 1.8%, imp = 401

worst case efficiency: 0.644614
[10 sec, 73613 itr]: obj = (0.0794486), mov = 73613, inf = 98%, acc = 1.7%, imp = 439

worst case efficiency: 0.647669
[11 sec, 78122 itr]: obj = (0.0843218), mov = 78122, inf = 98.1%, acc = 1.7%, imp = 469

worst case efficiency: 0.650593
[12 sec, 82783 itr]: obj = (0.0843326), mov = 82783, inf = 98.1%, acc = 1.6%, imp = 470

worst case efficiency: 0.6506
[13 sec, 87385 itr]: obj = (0.0853932), mov = 87385, inf = 98.2%, acc = 1.6%, imp = 497

worst case efficiency: 0.651236
[14 sec, 92093 itr]: obj = (0.0896688), mov = 92093, inf = 98.2%, acc = 1.6%, imp = 536

worst case efficiency: 0.653801
[15 sec, 96729 itr]: obj = (0.090963), mov = 96729, inf = 98.2%, acc = 1.5%, imp = 566

worst case efficiency: 0.654578
[16 sec, 101016 itr]: obj = (0.0913319), mov = 101016, inf = 98.3%, acc = 1.5%, imp = 585

worst case efficiency: 0.654799
[17 sec, 105589 itr]: obj = (0.0917108), mov = 105589, inf = 98.3%, acc = 1.5%, imp = 603

worst case efficiency: 0.655026
[18 sec, 110208 itr]: obj = (0.0918844), mov = 110208, inf = 98.4%, acc = 1.4%, imp = 616

worst case efficiency: 0.655131
[19 sec, 114899 itr]: obj = (0.0918844), mov = 114899, inf = 98.4%, acc = 1.4%, imp = 616

worst case efficiency: 0.655131
[20 sec, 119395 itr]: obj = (0.0918844), mov = 119395, inf = 98.5%, acc = 1.3%, imp = 616

worst case efficiency: 0.655131
[21 sec, 123632 itr]: obj = (0.0918844), mov = 123632, inf = 98.5%, acc = 1.3%, imp = 616

worst case efficiency: 0.655131
[22 sec, 127590 itr]: obj = (0.0919669), mov = 127590, inf = 98.6%, acc = 1.2%, imp = 619

worst case efficiency: 0.65518
[23 sec, 132479 itr]: obj = (0.0924979), mov = 132479, inf = 98.6%, acc = 1.2%, imp = 638

worst case efficiency: 0.655499
[24 sec, 137665 itr]: obj = (0.0925618), mov = 137665, inf = 98.6%, acc = 1.2%, imp = 650

worst case efficiency: 0.655537
[25 sec, 143305 itr]: obj = (0.0932696), mov = 143305, inf = 98.6%, acc = 1.2%, imp = 662

worst case efficiency: 0.655962
[26 sec, 149315 itr]: obj = (0.0962812), mov = 149315, inf = 98.6%, acc = 1.2%, imp = 687

worst case efficiency: 0.657769
[27 sec, 156566 itr]: obj = (0.0975791), mov = 156566, inf = 98.6%, acc = 1.2%, imp = 711

worst case efficiency: 0.658547
[28 sec, 168177 itr]: obj = (0.0981827), mov = 168177, inf = 98.6%, acc = 1.2%, imp = 729

worst case efficiency: 0.65891
[29 sec, 191893 itr]: obj = (0.098597), mov = 191893, inf = 98.6%, acc = 1.1%, imp = 748

worst case efficiency: 0.659158
[30 sec, 224812 itr]: obj = (0.0987658), mov = 224812, inf = 98.6%, acc = 1%, imp = 754

worst case efficiency: 0.659259
[31 sec, 259052 itr]: obj = (0.0992351), mov = 259052, inf = 98.6%, acc = 1%, imp = 766

worst case efficiency: 0.659541
[32 sec, 290090 itr]: obj = (0.100072), mov = 290090, inf = 98.5%, acc = 1%, imp = 778

worst case efficiency: 0.660043
[33 sec, 323495 itr]: obj = (0.101591), mov = 323495, inf = 98.4%, acc = 1%, imp = 794

worst case efficiency: 0.660955
[34 sec, 356584 itr]: obj = (0.103027), mov = 356584, inf = 98.3%, acc = 1.1%, imp = 806

worst case efficiency: 0.661816
[35 sec, 389776 itr]: obj = (0.103364), mov = 389776, inf = 98.2%, acc = 1.1%, imp = 812

worst case efficiency: 0.662018
[36 sec, 422941 itr]: obj = (0.103701), mov = 422941, inf = 98.2%, acc = 1.2%, imp = 815

worst case efficiency: 0.662221
[37 sec, 452409 itr]: obj = (0.104116), mov = 452409, inf = 98.2%, acc = 1.2%, imp = 819

worst case efficiency: 0.662469
[38 sec, 481931 itr]: obj = (0.104759), mov = 481931, inf = 98.2%, acc = 1.2%, imp = 831

worst case efficiency: 0.662855
[39 sec, 510444 itr]: obj = (0.104884), mov = 510444, inf = 98.1%, acc = 1.2%, imp = 835

worst case efficiency: 0.66293
[40 sec, 538643 itr]: obj = (0.105669), mov = 538643, inf = 98.1%, acc = 1.2%, imp = 840

worst case efficiency: 0.663402
[41 sec, 566500 itr]: obj = (0.106902), mov = 566500, inf = 98.1%, acc = 1.2%, imp = 845

worst case efficiency: 0.664141
[42 sec, 595997 itr]: obj = (0.10692), mov = 595997, inf = 98.1%, acc = 1.3%, imp = 846

worst case efficiency: 0.664152
[43 sec, 629115 itr]: obj = (0.10726), mov = 629115, inf = 98.1%, acc = 1.3%, imp = 850

worst case efficiency: 0.664356
[44 sec, 664022 itr]: obj = (0.107414), mov = 664022, inf = 98.1%, acc = 1.3%, imp = 854

worst case efficiency: 0.664448
[45 sec, 696889 itr]: obj = (0.107578), mov = 696889, inf = 98%, acc = 1.3%, imp = 856

worst case efficiency: 0.664547
[46 sec, 730483 itr]: obj = (0.108269), mov = 730483, inf = 98%, acc = 1.3%, imp = 863

worst case efficiency: 0.664961
[47 sec, 765664 itr]: obj = (0.109002), mov = 765664, inf = 98%, acc = 1.3%, imp = 871

worst case efficiency: 0.665401
[48 sec, 797752 itr]: obj = (0.109464), mov = 797752, inf = 98%, acc = 1.3%, imp = 877

worst case efficiency: 0.665678
[49 sec, 831933 itr]: obj = (0.111056), mov = 831933, inf = 98%, acc = 1.3%, imp = 891

worst case efficiency: 0.666633
[50 sec, 864432 itr]: obj = (0.111783), mov = 864432, inf = 98%, acc = 1.3%, imp = 902

worst case efficiency: 0.66707
[51 sec, 894555 itr]: obj = (0.112993), mov = 894555, inf = 97.9%, acc = 1.3%, imp = 911

worst case efficiency: 0.667796
[52 sec, 927382 itr]: obj = (0.113445), mov = 927382, inf = 97.9%, acc = 1.3%, imp = 923

worst case efficiency: 0.668067
[53 sec, 963838 itr]: obj = (0.113565), mov = 963838, inf = 97.9%, acc = 1.3%, imp = 928

worst case efficiency: 0.668139
[54 sec, 1001432 itr]: obj = (0.11415), mov = 1001432, inf = 97.9%, acc = 1.2%, imp = 941

worst case efficiency: 0.66849
[55 sec, 1034246 itr]: obj = (0.115414), mov = 1034246, inf = 97.9%, acc = 1.2%, imp = 949

worst case efficiency: 0.669248
[56 sec, 1069593 itr]: obj = (0.115495), mov = 1069593, inf = 97.9%, acc = 1.2%, imp = 957

worst case efficiency: 0.669297
[57 sec, 1106621 itr]: obj = (0.11555), mov = 1106621, inf = 97.9%, acc = 1.2%, imp = 965

worst case efficiency: 0.66933
[58 sec, 1140245 itr]: obj = (0.115622), mov = 1140245, inf = 97.9%, acc = 1.2%, imp = 970

worst case efficiency: 0.669373
[59 sec, 1171291 itr]: obj = (0.115623), mov = 1171291, inf = 97.9%, acc = 1.2%, imp = 973

worst case efficiency: 0.669374
[60 sec, 1202785 itr]: obj = (0.115625), mov = 1202785, inf = 97.9%, acc = 1.2%, imp = 974

worst case efficiency: 0.669375
[61 sec, 1236152 itr]: obj = (0.115625), mov = 1236152, inf = 97.9%, acc = 1.2%, imp = 974

worst case efficiency: 0.669375
[62 sec, 1269141 itr]: obj = (0.115913), mov = 1269141, inf = 97.9%, acc = 1.2%, imp = 980

worst case efficiency: 0.669548
[63 sec, 1301357 itr]: obj = (0.116425), mov = 1301357, inf = 97.8%, acc = 1.2%, imp = 983

worst case efficiency: 0.669855
[64 sec, 1334878 itr]: obj = (0.117196), mov = 1334878, inf = 97.8%, acc = 1.2%, imp = 993

worst case efficiency: 0.670317
[65 sec, 1363527 itr]: obj = (0.11755), mov = 1363527, inf = 97.8%, acc = 1.2%, imp = 1004

worst case efficiency: 0.67053
[66 sec, 1393382 itr]: obj = (0.117578), mov = 1393382, inf = 97.8%, acc = 1.2%, imp = 1012

worst case efficiency: 0.670547
[67 sec, 1425197 itr]: obj = (0.117589), mov = 1425197, inf = 97.8%, acc = 1.2%, imp = 1018

worst case efficiency: 0.670553
[68 sec, 1461363 itr]: obj = (0.117603), mov = 1461363, inf = 97.8%, acc = 1.2%, imp = 1022

worst case efficiency: 0.670562
[69 sec, 1495808 itr]: obj = (0.117793), mov = 1495808, inf = 97.8%, acc = 1.2%, imp = 1029

worst case efficiency: 0.670676
[70 sec, 1529920 itr]: obj = (0.117917), mov = 1529920, inf = 97.8%, acc = 1.2%, imp = 1034

worst case efficiency: 0.67075
[71 sec, 1565898 itr]: obj = (0.117927), mov = 1565898, inf = 97.8%, acc = 1.2%, imp = 1036

worst case efficiency: 0.670756
[72 sec, 1603314 itr]: obj = (0.117993), mov = 1603314, inf = 97.8%, acc = 1.2%, imp = 1039

worst case efficiency: 0.670796
[73 sec, 1640573 itr]: obj = (0.118011), mov = 1640573, inf = 97.8%, acc = 1.2%, imp = 1041

worst case efficiency: 0.670807
[74 sec, 1671980 itr]: obj = (0.118628), mov = 1671980, inf = 97.8%, acc = 1.2%, imp = 1063

worst case efficiency: 0.671177
[75 sec, 1705782 itr]: obj = (0.119291), mov = 1705782, inf = 97.8%, acc = 1.2%, imp = 1089

worst case efficiency: 0.671575
[76 sec, 1741130 itr]: obj = (0.119354), mov = 1741130, inf = 97.8%, acc = 1.2%, imp = 1096

worst case efficiency: 0.671613
[77 sec, 1776458 itr]: obj = (0.119434), mov = 1776458, inf = 97.8%, acc = 1.2%, imp = 1102

worst case efficiency: 0.67166
[78 sec, 1809112 itr]: obj = (0.120969), mov = 1809112, inf = 97.8%, acc = 1.2%, imp = 1112

worst case efficiency: 0.672581
[79 sec, 1842893 itr]: obj = (0.121155), mov = 1842893, inf = 97.8%, acc = 1.2%, imp = 1121

worst case efficiency: 0.672693
[80 sec, 1879023 itr]: obj = (0.121244), mov = 1879023, inf = 97.8%, acc = 1.2%, imp = 1125

worst case efficiency: 0.672746
[81 sec, 1915316 itr]: obj = (0.121295), mov = 1915316, inf = 97.8%, acc = 1.2%, imp = 1129

worst case efficiency: 0.672777
[82 sec, 1951180 itr]: obj = (0.121331), mov = 1951180, inf = 97.8%, acc = 1.2%, imp = 1133

worst case efficiency: 0.672799
[83 sec, 1987208 itr]: obj = (0.121731), mov = 1987208, inf = 97.8%, acc = 1.2%, imp = 1138

worst case efficiency: 0.673039
[84 sec, 2020619 itr]: obj = (0.121748), mov = 2020619, inf = 97.7%, acc = 1.2%, imp = 1140

worst case efficiency: 0.673049
[85 sec, 2055737 itr]: obj = (0.121748), mov = 2055737, inf = 97.7%, acc = 1.2%, imp = 1140

worst case efficiency: 0.673049
[86 sec, 2091122 itr]: obj = (0.122311), mov = 2091122, inf = 97.7%, acc = 1.2%, imp = 1152

worst case efficiency: 0.673387
[87 sec, 2127561 itr]: obj = (0.122607), mov = 2127561, inf = 97.7%, acc = 1.2%, imp = 1163

worst case efficiency: 0.673564
[88 sec, 2163459 itr]: obj = (0.122637), mov = 2163459, inf = 97.7%, acc = 1.2%, imp = 1165

worst case efficiency: 0.673582
[89 sec, 2199226 itr]: obj = (0.123495), mov = 2199226, inf = 97.7%, acc = 1.2%, imp = 1174

worst case efficiency: 0.674097
[90 sec, 2236476 itr]: obj = (0.123726), mov = 2236476, inf = 97.7%, acc = 1.2%, imp = 1181

worst case efficiency: 0.674236
[90 sec, 2236476 itr]: obj = (0.123726), mov = 2236476, inf = 97.7%, acc = 1.2%, imp = 1181

worst case efficiency: 0.674236
2236476 iterations, 2236476 moves performed in 90 seconds
Feasible solution: obj = (0.123726)

Run output...
FINAL SOLUTION
Worst case efficiency: 0.674236
Mapping: 0->24, 1->20, 2->20, 3->3, 4->3, 5->39, 6->17, 7->44, 8->46, 9->5, 10->1, 11->45, 12->3, 13->20, 14->18, 15->42, 16->31, 17->18, 18->2, 19->9, 20->5, 21->15, 22->25, 23->26, 24->38, 25->30, 26->37, 27->1, 28->34, 29->11, 30->23, 31->30, 32->8, 33->6, 34->46, 35->35, 36->15, 37->42, 38->26, 39->24, 40->17, 41->12, 42->26, 43->13, 44->17, 45->12, 46->33, 47->40, 48->32, 49->35, 50->11, 51->18, 52->6, 53->43, 54->27, 55->10, 56->25, 57->30, 58->22, 59->11, 60->39, 61->1, 62->6, 63->38, 64->23, 65->36, 66->12, 67->2, 68->21, 69->47, 70->42, 71->28, 72->8, 73->23, 74->32, 75->30, 76->47, 77->0, 78->37, 79->43, 80->3, 81->9, 82->32, 83->15, 84->39, 85->14, 86->24, 87->46, 88->37, 89->32, 90->33, 91->34, 92->35, 93->3, 94->0, 95->17, 96->23, 97->41, 98->10, 99->0, 100->13, 101->6, 102->15, 103->43, 104->17, 105->6, 106->18, 107->44, 108->23, 109->37, 110->16, 111->24, 112->33, 113->26, 114->20, 115->18, 116->34, 117->11, 118->7, 119->5, 120->12, 121->40, 122->16, 123->5, 124->24, 125->20, 126->10, 127->22, 128->13, 129->45, 130->42, 131->21, 132->20, 133->3, 134->44, 135->25, 136->14, 137->10, 138->27, 139->38, 140->1, 141->2, 142->21, 143->7, 144->19, 145->39, 146->7, 147->22, 148->0, 149->46, 150->15, 151->16, 152->40, 153->40, 154->14, 155->12, 156->16, 157->41, 158->45, 159->8, 160->29, 161->6, 162->44, 163->16, 164->27, 165->10, 166->11, 167->29, 168->29, 169->32, 170->43, 171->41, 172->4, 173->30, 174->25, 175->42, 176->31, 177->1, 178->19, 179->34, 180->45, 181->27, 182->46, 183->36, 184->31, 185->43, 186->38, 187->29, 188->2, 189->7, 190->8, 191->1, 192->27, 193->17, 194->47, 195->13, 196->4, 197->5, 198->5, 199->23, 200->19, 201->34, 202->18, 203->15, 204->35, 205->28, 206->9, 207->41, 208->21, 209->39, 210->36, 211->19, 212->4, 213->22, 214->28, 215->9, 216->40, 217->19, 218->31, 219->22, 220->41, 221->36, 222->37, 223->16, 224->47, 225->30, 226->42, 227->38, 228->31, 229->28, 230->24, 231->11, 232->36, 233->33, 234->35, 235->7, 236->22, 237->25, 238->31, 239->21, 240->35, 241->40, 242->47, 243->2, 244->26, 245->29, 246->27, 247->37, 248->13, 249->33, 250->28, 251->46, 252->8, 253->26, 254->10, 255->32, 256->47, 257->4, 258->7, 259->12, 260->33, 261->8, 262->28, 263->9, 264->19, 265->43, 266->9, 267->4, 268->14, 269->36, 270->44, 271->34, 272->45, 273->4, 274->13, 275->14, 276->2, 277->38, 278->44, 279->25, 280->14, 281->0, 282->21, 283->39, 284->0, 285->41, 286->45, 287->29
Number of tasks per core:
	6	6	6	6	6	6
	6	6	6	6	6	6
	6	6	6	6	6	6
	6	6	6	6	6	6
	6	6	6	6	6	6
	6	6	6	6	6	6
	6	6	6	6	6	6
	6	6	6	6	6	6
Average CPI map:
	0.609494	0.765425	1.13086	1.40125	1.24066	1.35679
	1.83538	2.03419	2.43732	2.0683	2.82702	1.5851
	1.05919	2.53192	2.35486	2.79862	2.51654	0.996294
	0.855814	2.21702	2.2956	2.81582	2.38209	1.83619
	1.37479	2.71911	3.0944	3.17363	2.24752	2.01436
	0.937424	2.63723	3.19029	2.67099	3.09759	1.6888
	1.55155	2.24107	2.68473	2.47282	2.27577	1.40648
	0.821461	2.40159	2.43997	1.89866	1.99702	1.01099
Efficiency map:
	0.99722	0.819129	0.90495	0.831204	0.918982	1.00307
	0.783518	0.689373	0.703672	0.696672	0.709362	0.84009
	0.81884	0.678295	0.677248	0.71337	0.70445	0.748102
	0.811454	0.674478	0.683422	0.683715	0.699061	0.886986
	0.816606	0.678512	0.708752	0.735327	0.676891	0.873292
	0.761858	0.677653	0.703568	0.705261	0.674236	0.820855
	0.810205	0.68877	0.693917	0.682135	0.719907	0.822981
	0.804735	0.677721	0.675101	0.677088	0.67628	0.782134
==============================================================================
Local Solver optimizer for EML demonstration
==============================================================================

Option values: --wld-idx 4 --global-tlim 90 --seed 201

Starting the Optimization Process
