LocalSolver 4.0 (MacOS64, build 20131224)
Copyright (C) 2013 Bouygues SA, Aix-Marseille University, CNRS.
All rights reserved (see Terms and Conditions for details).

Load localsolver_res/tawd_ls.lsp...
Run input...
ANNs For the Platform:
4,2,1,6.45294,0.0174524,1.58234,2.29305,2.12057,3.95113,12.7206,-19.3278,5.58789,9.38298,0.00306445,0.00353919,0.795949
4,2,1,3.10684,7.56359,0.502116,0.637049,12.0356,-2.9013,-3.22211,-0.368567,-0.562298,-7.37831,2.38595,1.22203,-0.360292
4,2,1,4.88387,44.8399,1.27345,1.24496,49.1775,-8.83277,-3.12983,-1.00946,11.7,-3.01002,0.132635,0.00372271,0.673996
4,2,1,4.73045,19.3982,0.449241,0.753865,25.7092,17.3605,0.0558085,-8.91516,0.49993,10.3396,4.06312,-0.0136297,-3.24599
4,2,1,-7.16849,-10.0957,-0.518885,-0.00359459,5.93351,5.62684,52.0516,1.48603,1.30274,57.2311,0.250578,0.137157,0.417379
4,2,1,0.412706,-2.89716,0.137754,-2.57826,11.0947,121.374,858.444,-136.26,-14917.8,-1308.92,-3.36558,-0.000403784,4.17997
4,2,1,-8.8269,-0.482244,-0.0820712,-0.0562713,-10.1617,9.78118,-7.01882,-0.428151,-0.0606718,2.56012,-8.54699,-0.509991,-7.23704
4,2,1,2.19881,4.94147,0.541452,0.107587,6.45213,1.0452,0.405805,0.555763,3.64728,1.95727,0.425683,-0.00188273,0.383643
4,2,1,-6.13316,1.92598,-0.0562274,-0.0731719,-4.60606,0.509071,7.79918,0.393802,0.0114563,7.9345,-1.13416,0.310582,-0.637365
4,2,1,1.73462,2.97854,0.276167,0.0859465,3.6912,3.09203,3.25403,0.324282,0.112495,4.06123,0.954718,-0.48836,0.344765
4,2,1,1.57339,3.84603,-3.4467,0.7429,2.75709,2.1802,5.09535,0.482172,0.106131,6.49189,-0.0251827,0.433535,0.393482
4,2,1,4.13514,21.6229,1.1931,0.354612,24.1372,25.5916,0.432728,-12.6725,-0.45345,15.3428,0.194819,-0.0364695,0.647465
4,2,1,-0.728632,5.60079,1.78098,1.8429,-5.74354,-3.26566,-13.0026,-0.907163,-0.31822,-15.3707,-0.427666,-0.224298,0.154329
4,2,1,3.81854,-4.98219,-0.293924,-0.103604,-6.7034,2.28654,4.72568,0.469524,0.115005,6.05901,-0.511241,0.421809,-0.121549
4,2,1,-1.23773,5.98591,0.224555,-0.359337,6.05767,2.3852,3.4706,0.220977,0.179377,4.88772,0.199751,0.432231,0.177791
4,2,1,1.12189,4.09326,0.850801,0.171671,-5.17646,-1.9656,-4.07995,-0.210811,-0.113853,-5.17242,-2.70452,-0.46094,-2.36326
4,2,1,2.08858,4.80174,0.367584,0.109336,6.02292,4.32969,4.35157,0.772172,10.015,-0.96022,0.43933,4.17055e-05,0.365228
4,2,1,1.18806,3.00188,0.124753,0.00191203,3.75084,1.03049,2.7808,0.137818,0.0250058,4.01619,-1.05018,2.49176,-0.635083
4,2,1,3.11788,10.9247,0.699295,0.170953,13.0959,-11.4646,-5.88946,11.0137,8.74787,-11.701,0.236706,0.0216102,0.59131
4,2,1,7.53568,1.94998,-2.27776,-1.91765,0.451708,2.13206,4.27547,0.333162,0.0864645,5.45063,-0.0153486,0.447774,0.366202
4,2,1,-2.12436,-3.29848,-0.0965154,-0.0454545,-3.86293,4.27042,3.64797,0.106703,0.057602,4.81479,-1.28015,-0.815344,0.346524
4,2,1,2.06313,3.99765,-9.94001e-06,0.200591,5.05136,-0.024567,-3.22765,-1.84842,1.73493,-3.87425,0.446216,-0.0350173,0.320411
4,2,1,3.3952,3.19239,0.219932,0.0459907,4.0724,1.85184,2.9352,0.236295,0.0535068,3.62882,-0.516849,0.990723,0.337742
4,2,1,-6.32145,2.68844,0.160066,0.0633176,-3.81442,9.03888,1.31396,0.253255,-0.0684612,6.93971,1.83579,0.440423,2.20116
4,2,1,-4.54148,-0.217309,1.86369,-0.409034,0.0885675,-3.10698,-12.3715,-0.753639,-0.275832,-14.544,0.00344558,-0.233405,0.57337
4,2,1,-0.743367,6.86662,-0.19496,-0.0184317,7.54898,2.69258,3.24789,0.437511,0.121848,4.97423,0.830361,0.39615,-0.417087
4,2,1,2.07654,3.2533,0.103762,0.0837251,4.40922,1.95615,-2.57949,-0.10147,-0.0485499,-3.72005,0.479113,-0.433879,-0.0966803
4,2,1,-0.480501,-0.00331725,1.67452,0.764966,-1.53387,1.99113,3.67475,0.0228188,0.0287235,4.64739,0.15721,0.465135,0.487915
4,2,1,1.11584,-5.79333,-0.212675,0.376981,-6.64888,2.45003,3.54368,0.313683,0.144659,5.05472,-0.777178,0.423599,-0.389995
4,2,1,2.39093,1.70258,-0.183288,-0.314006,4.06496,2.34881,2.91375,-0.0230153,-0.18977,5.26307,-1.33645,1.84807,0.292237
4,2,1,0.88022,3.23795,0.179315,0.0205209,3.57684,0.764441,2.74982,0.156077,0.0273373,3.62313,-0.980719,2.16912,-0.37872
4,2,1,-1.27932,7.09751,-0.0490235,0.455487,7.14709,-2.57722,-4.06233,-0.410784,-0.0433739,-5.6171,0.164894,-0.408714,0.23583
4,2,1,0.623158,5.01876,0.194867,0.0365944,4.99458,-16.0815,2.94826,-1.82463,-1.90388,-9.56395,0.291148,-0.155001,0.360694
4,2,1,1.86251,3.92056,0.158781,0.0575693,4.93436,0.681285,4.09563,1.09826,-3.65606,2.09524,0.482473,-0.00448292,0.322397
4,2,1,3.33939,3.52877,0.262622,0.0607689,4.45842,2.23218,3.37107,0.256541,0.0516206,4.05014,-1.2701,1.7162,0.365737
4,2,1,5.0585,4.68315,2.53887,0.128578,8.9709,3.62833,11.0789,1.32555,0.190392,13.8026,-0.126366,0.350541,0.580103
4,2,1,4.99986,2.75557,1.33036,-0.0119951,6.91685,4.23025,5.34568,1.08928,0.0379928,8.80363,-0.700785,0.958812,0.547325
4,2,1,1.95024,3.24732,0.229322,0.0270089,3.53624,1.62575,3.04977,0.230194,0.0319079,3.46966,-1.34015,1.81817,0.333213
4,2,1,2.11055,5.16581,0.225183,0.0767342,6.2013,3.43647,-3.10756,1.22453,-6.27082,5.92438,0.428242,2.12665,-1.75474
4,2,1,10.028,2.55152,-0.0579427,-0.0186516,-2.98054,2.14055,4.33639,0.203596,0.057269,5.47668,0.0078111,0.436528,0.371941
4,2,1,1.80421,3.45533,0.27065,0.0337725,4.14172,3.00203,3.65885,0.26995,0.0620062,4.37924,0.892686,-0.440136,0.355377
4,2,1,-2.76424,-10.7675,-0.741451,-0.141046,-12.927,13.6995,2.51611,0.90934,27.76,15.1973,-0.260938,-0.00175312,0.546274
4,2,1,2.26659,3.88332,0.083697,0.287373,-5.89957,3.07548,7.5942,0.285535,0.141703,9.90558,1.94369,0.273352,2.47758
4,2,1,5.41472,-1.35343,-0.0808605,2.27411,0.928252,2.55844,6.15687,0.338903,0.0735359,7.47381,-0.0148119,0.388691,0.423615
4,2,1,4.53285,3.66527,0.130055,0.0722232,4.95325,-2.1632,-3.34312,-0.11633,-0.0577237,-3.98867,-0.759785,-1.19124,0.379449
4,2,1,2.36669,5.75119,0.132783,0.0812059,6.8845,-8.68015,-0.488627,0.811521,2.16444,0.277436,0.40839,0.00790296,0.400784
4,2,1,0.583762,8.58805,0.307497,0.0165495,8.61973,-7.32584,1.34397,-0.0108636,-0.0260377,-6.96836,0.266022,-5.2323,-4.69173
4,2,1,1.76683,-0.336959,-0.116305,-0.0696435,-1.62311,2.51027,5.65249,0.180271,0.0657051,7.97995,-0.0500539,0.457869,0.308072
Workload Information:
0.5, 0.793797, 3.01448, 2.89409, 2.97166, 1.82598, 1.46422, 1.02987, 4.33222, 3.15438, 0.5, 1.51931, 2.09408, 1.95425, 1.74965, 2.13165, 2.02029, 2.05007, 2.40715, 0.751014, 2.93856, 1.5686, 1.81978, 2.51489, 0.810358, 3.37159, 2.01811, 0.5, 3.8527, 1.44724, 1.43318, 2.33024, 1.63724, 1.9352, 2.17271, 2.49144, 2.62915, 2.43595, 1.70695, 1.6611, 2.1134, 1.45345, 2.13604, 2.94479, 1.10006, 2.21292, 2.90612, 0.700066, 2.24627, 2.07499, 0.712951, 3.80092, 1.44741, 1.71746, 1.98396, 2.25489, 2.0251, 1.72142, 1.96386, 2.05077, 0.724777, 5.76477, 1.8992, 2.38764, 0.513167, 0.710449, 31.2107, 27.2561, 18.7677, 35, 11.0826, 8.68286, 1.51957, 3.17254, 0.5, 1.02075, 1.81243, 3.9747, 1.72133, 0.667203, 2.55119, 2.14292, 2.30777, 2.60958, 0.631906, 2.19898, 4.19696, 1.52562, 0.851563, 2.59497, 3.36286, 3.496, 0.975857, 1.57842, 2.08687, 0.5, 28.3048, 15.5874, 35, 25.0792, 12.9663, 15.0623, 1.94871, 2.30428, 2.28502, 1.8023, 1.39475, 2.26493, 3.11261, 1.48502, 2.7242, 1.50319, 2.67498, 0.5, 0.94498, 1.14016, 2.84732, 3.11272, 2.697, 1.25782, 1.49547, 2.60328, 2.37214, 1.91276, 1.0462, 2.57016, 0.556693, 2.96248, 3.93222, 0.5, 1.54412, 2.50448, 20.8662, 35, 16.4223, 16.63, 24.1447, 18.937, 35, 18.8404, 13.9087, 21.4826, 32.0696, 10.6987, 2.03447, 3.84498, 3.47505, 0.840083, 1.07748, 0.727933, 3.5496, 3.73055, 1.03076, 0.5, 2.33398, 0.855113, 1.93585, 0.915647, 0.553338, 1.61452, 1.35227, 5.62837, 3.13578, 3.41479, 0.603717, 1.40872, 0.5, 2.93699, 1.64791, 2.04324, 0.971774, 0.682902, 1.77925, 4.87493, 0.679022, 1.01475, 0.78205, 2.11252, 0.933492, 6.47816, 1.34254, 1.35093, 0.5, 3.04181, 3.12938, 2.63533, 0.5, 1.80789, 4.25635, 2.83402, 0.859458, 1.74228, 2.29634, 1.85749, 1.87562, 2.42096, 1.42836, 2.12123, 3.7915, 2.21285, 0.575129, 0.780089, 4.14043, 0.5, 0.5, 0.855756, 1.6246, 2.73087, 3.7941, 2.49466, 3.98145, 0.5, 1.82333, 1.23156, 2.84167, 1.62198, 4.5138, 2.24199, 1.19583, 2.07482, 0.739494, 1.23407, 1.85496, 0.557577, 2.51568, 1.41475, 4.12757, 1.52947, 1.92157, 2.25752, 1.90951, 2.10541, 1.70878, 2.09721, 0.957288, 0.997952, 2.95043, 3.22083, 3.20122, 0.672285, 3.6616, 3.14231, 2.4321, 1.26004, 0.5, 1.00395, 0.996237, 3.61131, 0.889852, 2.02482, 2.91463, 1.56314, 0.5, 2.30284, 5.09568, 1.76483, 0.697285, 1.63936, 2.35738, 1.92499, 1.23851, 2.49156, 2.46238, 1.52517, 2.20721, 2.20715, 1.75975, 2.13094, 1.83949, 1.85546, 2.53771, 1.97268, 2.60817, 0.5, 2.55362, 1.82783, 0.623567, 3.18571, 0.742433, 2.03774, 0.739147, 4.6714, 1.30779, 2.98554, 3.00575, 2.50208, 1.69884, 0.5
cpi min/max: 0.5/35
neighbors of 0: 1 6, number of others: 45
neighbors of 1: 0 2 6 7, number of others: 43
neighbors of 2: 1 3 7 8, number of others: 43
neighbors of 3: 2 4 8 9, number of others: 43
neighbors of 4: 3 5 9 10, number of others: 43
neighbors of 5: 4 10 11, number of others: 44
neighbors of 6: 0 1 7 12, number of others: 43
neighbors of 7: 1 2 6 8 12 13, number of others: 41
neighbors of 8: 2 3 7 9 13 14, number of others: 41
neighbors of 9: 3 4 8 10 14 15, number of others: 41
neighbors of 10: 4 5 9 11 15 16, number of others: 41
neighbors of 11: 5 10 16 17, number of others: 43
neighbors of 12: 6 7 13 18, number of others: 43
neighbors of 13: 7 8 12 14 18 19, number of others: 41
neighbors of 14: 8 9 13 15 19 20, number of others: 41
neighbors of 15: 9 10 14 16 20 21, number of others: 41
neighbors of 16: 10 11 15 17 21 22, number of others: 41
neighbors of 17: 11 16 22 23, number of others: 43
neighbors of 18: 12 13 19 24, number of others: 43
neighbors of 19: 13 14 18 20 24 25, number of others: 41
neighbors of 20: 14 15 19 21 25 26, number of others: 41
neighbors of 21: 15 16 20 22 26 27, number of others: 41
neighbors of 22: 16 17 21 23 27 28, number of others: 41
neighbors of 23: 17 22 28 29, number of others: 43
neighbors of 24: 18 19 25 30, number of others: 43
neighbors of 25: 19 20 24 26 30 31, number of others: 41
neighbors of 26: 20 21 25 27 31 32, number of others: 41
neighbors of 27: 21 22 26 28 32 33, number of others: 41
neighbors of 28: 22 23 27 29 33 34, number of others: 41
neighbors of 29: 23 28 34 35, number of others: 43
neighbors of 30: 24 25 31 36, number of others: 43
neighbors of 31: 25 26 30 32 36 37, number of others: 41
neighbors of 32: 26 27 31 33 37 38, number of others: 41
neighbors of 33: 27 28 32 34 38 39, number of others: 41
neighbors of 34: 28 29 33 35 39 40, number of others: 41
neighbors of 35: 29 34 40 41, number of others: 43
neighbors of 36: 30 31 37 42, number of others: 43
neighbors of 37: 31 32 36 38 42 43, number of others: 41
neighbors of 38: 32 33 37 39 43 44, number of others: 41
neighbors of 39: 33 34 38 40 44 45, number of others: 41
neighbors of 40: 34 35 39 41 45 46, number of others: 41
neighbors of 41: 35 40 46 47, number of others: 43
neighbors of 42: 36 37 43, number of others: 44
neighbors of 43: 37 38 42 44, number of others: 43
neighbors of 44: 38 39 43 45, number of others: 43
neighbors of 45: 39 40 44 46, number of others: 43
neighbors of 46: 40 41 45 47, number of others: 43
neighbors of 47: 41 46, number of others: 45
Run model...
Preprocess model 0% ...Preprocess model 16% ...Preprocess model 32% ...Preprocess model 48% ...Preprocess model 66% ...Preprocess model 84% ...Preprocess model 100% ...
Close model 0% ...Close model 9% ...Close model 18% ...Close model 27% ...Close model 36% ...Close model 45% ...Close model 54% ...Close model 63% ...Close model 72% ...Close model 81% ...Close model 91% ...Close model 100% ...
Run param...
Run solver...
Initialize threads 0% ...Initialize threads 100% ...
Push initial solutions 0% ...Push initial solutions 100% ...

Model: 
  expressions = 44729, operands = 116736
  decisions = 13824, constraints = 336, objectives = 1

Param: 
  time limit = 90 sec, no iteration limit
  seed = 901, nb threads = 1, annealing level = 1

Objectives:
  Obj 0: maximize, no bound

Phases:
  Phase 0: time limit = 90 sec, no iteration limit, optimized objective = 0


Computed bounds:
  Obj 0: upper bound = 0.664125


Phase 0:
[0 sec, 0 itr]: infeas = (336, 336, 576), mov = 0, inf < 0.1%, acc < 0.1%, imp = 0

worst case efficiency: 0.998464
[1 sec, 15023 itr]: obj = (0.0359558), mov = 15023, inf = 93.8%, acc = 5.7%, imp = 145

worst case efficiency: 0.621573
[2 sec, 33475 itr]: obj = (0.0476593), mov = 33475, inf = 97.1%, acc = 2.7%, imp = 177

worst case efficiency: 0.628596
[3 sec, 45277 itr]: obj = (0.0597587), mov = 45277, inf = 97.8%, acc = 2.1%, imp = 214

worst case efficiency: 0.635855
[4 sec, 53501 itr]: obj = (0.0657686), mov = 53501, inf = 98.1%, acc = 1.9%, imp = 250

worst case efficiency: 0.639461
[5 sec, 59086 itr]: obj = (0.0745938), mov = 59086, inf = 98.2%, acc = 1.8%, imp = 277

worst case efficiency: 0.644756
[6 sec, 63511 itr]: obj = (0.0836751), mov = 63511, inf = 98.3%, acc = 1.7%, imp = 316

worst case efficiency: 0.650205
[7 sec, 67015 itr]: obj = (0.0910625), mov = 67015, inf = 98.3%, acc = 1.7%, imp = 347

worst case efficiency: 0.654637
[8 sec, 70665 itr]: obj = (0.0993691), mov = 70665, inf = 98.4%, acc = 1.6%, imp = 379

worst case efficiency: 0.659621
[9 sec, 73666 itr]: obj = (0.10525), mov = 73666, inf = 98.4%, acc = 1.6%, imp = 409

worst case efficiency: 0.66315
[10 sec, 77107 itr]: obj = (0.120032), mov = 77107, inf = 98.4%, acc = 1.6%, imp = 440

worst case efficiency: 0.672019
[11 sec, 80002 itr]: obj = (0.125531), mov = 80002, inf = 98.4%, acc = 1.5%, imp = 462

worst case efficiency: 0.675318
[12 sec, 83043 itr]: obj = (0.137347), mov = 83043, inf = 98.5%, acc = 1.5%, imp = 487

worst case efficiency: 0.682408
[13 sec, 86082 itr]: obj = (0.144331), mov = 86082, inf = 98.5%, acc = 1.5%, imp = 516

worst case efficiency: 0.686599
[14 sec, 89141 itr]: obj = (0.145745), mov = 89141, inf = 98.5%, acc = 1.5%, imp = 538

worst case efficiency: 0.687447
[15 sec, 92120 itr]: obj = (0.146938), mov = 92120, inf = 98.6%, acc = 1.5%, imp = 548

worst case efficiency: 0.688163
[16 sec, 95148 itr]: obj = (0.150058), mov = 95148, inf = 98.6%, acc = 1.4%, imp = 566

worst case efficiency: 0.690035
[17 sec, 98094 itr]: obj = (0.154369), mov = 98094, inf = 98.6%, acc = 1.4%, imp = 594

worst case efficiency: 0.692621
[18 sec, 101095 itr]: obj = (0.188689), mov = 101095, inf = 98.6%, acc = 1.4%, imp = 639

worst case efficiency: 0.713213
[19 sec, 103938 itr]: obj = (0.196916), mov = 103938, inf = 98.6%, acc = 1.4%, imp = 658

worst case efficiency: 0.71815
[20 sec, 106770 itr]: obj = (0.210842), mov = 106770, inf = 98.6%, acc = 1.4%, imp = 680

worst case efficiency: 0.726505
[21 sec, 109628 itr]: obj = (0.218172), mov = 109628, inf = 98.6%, acc = 1.4%, imp = 705

worst case efficiency: 0.730903
[22 sec, 112430 itr]: obj = (0.221919), mov = 112430, inf = 98.7%, acc = 1.4%, imp = 731

worst case efficiency: 0.733152
[23 sec, 115302 itr]: obj = (0.223076), mov = 115302, inf = 98.7%, acc = 1.3%, imp = 747

worst case efficiency: 0.733846
[24 sec, 118183 itr]: obj = (0.227264), mov = 118183, inf = 98.7%, acc = 1.3%, imp = 775

worst case efficiency: 0.736359
[25 sec, 121111 itr]: obj = (0.228701), mov = 121111, inf = 98.7%, acc = 1.3%, imp = 786

worst case efficiency: 0.73722
[26 sec, 123933 itr]: obj = (0.230364), mov = 123933, inf = 98.7%, acc = 1.3%, imp = 800

worst case efficiency: 0.738219
[27 sec, 126706 itr]: obj = (0.230805), mov = 126706, inf = 98.7%, acc = 1.3%, imp = 815

worst case efficiency: 0.738483
[28 sec, 129577 itr]: obj = (0.233147), mov = 129577, inf = 98.8%, acc = 1.3%, imp = 836

worst case efficiency: 0.739888
[29 sec, 132422 itr]: obj = (0.237565), mov = 132422, inf = 98.8%, acc = 1.3%, imp = 850

worst case efficiency: 0.742539
[30 sec, 135263 itr]: obj = (0.239626), mov = 135263, inf = 98.8%, acc = 1.2%, imp = 868

worst case efficiency: 0.743776
[31 sec, 138036 itr]: obj = (0.241337), mov = 138036, inf = 98.8%, acc = 1.2%, imp = 884

worst case efficiency: 0.744802
[32 sec, 140707 itr]: obj = (0.242912), mov = 140707, inf = 98.8%, acc = 1.2%, imp = 900

worst case efficiency: 0.745747
[33 sec, 143643 itr]: obj = (0.246013), mov = 143643, inf = 98.8%, acc = 1.2%, imp = 921

worst case efficiency: 0.747608
[34 sec, 146549 itr]: obj = (0.248186), mov = 146549, inf = 98.8%, acc = 1.2%, imp = 943

worst case efficiency: 0.748912
[35 sec, 149344 itr]: obj = (0.248333), mov = 149344, inf = 98.9%, acc = 1.2%, imp = 944

worst case efficiency: 0.749
[36 sec, 152185 itr]: obj = (0.248333), mov = 152185, inf = 98.9%, acc = 1.2%, imp = 944

worst case efficiency: 0.749
[37 sec, 154929 itr]: obj = (0.248333), mov = 154929, inf = 98.9%, acc = 1.1%, imp = 944

worst case efficiency: 0.749
[38 sec, 157794 itr]: obj = (0.248333), mov = 157794, inf = 98.9%, acc = 1.1%, imp = 944

worst case efficiency: 0.749
[39 sec, 160672 itr]: obj = (0.248333), mov = 160672, inf = 98.9%, acc = 1.1%, imp = 944

worst case efficiency: 0.749
[40 sec, 163590 itr]: obj = (0.248333), mov = 163590, inf = 99%, acc = 1.1%, imp = 944

worst case efficiency: 0.749
[41 sec, 166539 itr]: obj = (0.248333), mov = 166539, inf = 99%, acc = 1.1%, imp = 944

worst case efficiency: 0.749
[42 sec, 169296 itr]: obj = (0.248333), mov = 169296, inf = 99%, acc = 1.1%, imp = 944

worst case efficiency: 0.749
[43 sec, 171402 itr]: obj = (0.248333), mov = 171402, inf = 99%, acc = 1%, imp = 944

worst case efficiency: 0.749
[44 sec, 174261 itr]: obj = (0.248333), mov = 174261, inf = 99%, acc = 1%, imp = 944

worst case efficiency: 0.749
[45 sec, 177590 itr]: obj = (0.248333), mov = 177590, inf = 99%, acc = 1%, imp = 944

worst case efficiency: 0.749
[46 sec, 180965 itr]: obj = (0.248333), mov = 180965, inf = 99.1%, acc = 1%, imp = 944

worst case efficiency: 0.749
[47 sec, 184636 itr]: obj = (0.248333), mov = 184636, inf = 99.1%, acc = 1%, imp = 944

worst case efficiency: 0.749
[48 sec, 188447 itr]: obj = (0.248333), mov = 188447, inf = 99.1%, acc = 1%, imp = 944

worst case efficiency: 0.749
[49 sec, 192563 itr]: obj = (0.248333), mov = 192563, inf = 99.1%, acc = 0.9%, imp = 944

worst case efficiency: 0.749
[50 sec, 197092 itr]: obj = (0.248333), mov = 197092, inf = 99.1%, acc = 0.9%, imp = 944

worst case efficiency: 0.749
[51 sec, 201721 itr]: obj = (0.248333), mov = 201721, inf = 99.2%, acc = 0.9%, imp = 944

worst case efficiency: 0.749
[52 sec, 207073 itr]: obj = (0.248333), mov = 207073, inf = 99.2%, acc = 0.9%, imp = 944

worst case efficiency: 0.749
[53 sec, 213032 itr]: obj = (0.248333), mov = 213032, inf = 99.2%, acc = 0.9%, imp = 944

worst case efficiency: 0.749
[54 sec, 220596 itr]: obj = (0.248333), mov = 220596, inf = 99.2%, acc = 0.8%, imp = 944

worst case efficiency: 0.749
[55 sec, 230431 itr]: obj = (0.248333), mov = 230431, inf = 99.3%, acc = 0.8%, imp = 944

worst case efficiency: 0.749
[56 sec, 245889 itr]: obj = (0.248333), mov = 245889, inf = 99.3%, acc = 0.8%, imp = 944

worst case efficiency: 0.749
[57 sec, 265655 itr]: obj = (0.248333), mov = 265655, inf = 99.3%, acc = 0.7%, imp = 944

worst case efficiency: 0.749
[58 sec, 281015 itr]: obj = (0.248333), mov = 281015, inf = 99.4%, acc = 0.7%, imp = 944

worst case efficiency: 0.749
[59 sec, 296787 itr]: obj = (0.248333), mov = 296787, inf = 99.4%, acc = 0.7%, imp = 944

worst case efficiency: 0.749
[60 sec, 312435 itr]: obj = (0.248333), mov = 312435, inf = 99.4%, acc = 0.6%, imp = 944

worst case efficiency: 0.749
[61 sec, 328000 itr]: obj = (0.248333), mov = 328000, inf = 99.4%, acc = 0.6%, imp = 944

worst case efficiency: 0.749
[62 sec, 343679 itr]: obj = (0.248333), mov = 343679, inf = 99.5%, acc = 0.6%, imp = 944

worst case efficiency: 0.749
[63 sec, 358798 itr]: obj = (0.248333), mov = 358798, inf = 99.5%, acc = 0.6%, imp = 944

worst case efficiency: 0.749
[64 sec, 375136 itr]: obj = (0.248333), mov = 375136, inf = 99.5%, acc = 0.6%, imp = 944

worst case efficiency: 0.749
[65 sec, 391322 itr]: obj = (0.248333), mov = 391322, inf = 99.5%, acc = 0.6%, imp = 944

worst case efficiency: 0.749
[66 sec, 406640 itr]: obj = (0.248333), mov = 406640, inf = 99.5%, acc = 0.6%, imp = 944

worst case efficiency: 0.749
[67 sec, 421808 itr]: obj = (0.248333), mov = 421808, inf = 99.5%, acc = 0.6%, imp = 944

worst case efficiency: 0.749
[68 sec, 437398 itr]: obj = (0.248333), mov = 437398, inf = 99.5%, acc = 0.5%, imp = 944

worst case efficiency: 0.749
[69 sec, 453061 itr]: obj = (0.248333), mov = 453061, inf = 99.5%, acc = 0.5%, imp = 944

worst case efficiency: 0.749
[70 sec, 468339 itr]: obj = (0.248333), mov = 468339, inf = 99.5%, acc = 0.5%, imp = 944

worst case efficiency: 0.749
[71 sec, 484057 itr]: obj = (0.248333), mov = 484057, inf = 99.6%, acc = 0.5%, imp = 944

worst case efficiency: 0.749
[72 sec, 499897 itr]: obj = (0.248333), mov = 499897, inf = 99.6%, acc = 0.5%, imp = 944

worst case efficiency: 0.749
[73 sec, 515504 itr]: obj = (0.248333), mov = 515504, inf = 99.6%, acc = 0.5%, imp = 944

worst case efficiency: 0.749
[74 sec, 530485 itr]: obj = (0.248333), mov = 530485, inf = 99.6%, acc = 0.5%, imp = 944

worst case efficiency: 0.749
[75 sec, 546518 itr]: obj = (0.248333), mov = 546518, inf = 99.6%, acc = 0.5%, imp = 944

worst case efficiency: 0.749
[76 sec, 562835 itr]: obj = (0.248333), mov = 562835, inf = 99.6%, acc = 0.5%, imp = 944

worst case efficiency: 0.749
[77 sec, 579495 itr]: obj = (0.248333), mov = 579495, inf = 99.6%, acc = 0.5%, imp = 944

worst case efficiency: 0.749
[78 sec, 594813 itr]: obj = (0.248333), mov = 594813, inf = 99.6%, acc = 0.5%, imp = 944

worst case efficiency: 0.749
[79 sec, 610686 itr]: obj = (0.248333), mov = 610686, inf = 99.6%, acc = 0.5%, imp = 944

worst case efficiency: 0.749
[80 sec, 626305 itr]: obj = (0.248333), mov = 626305, inf = 99.6%, acc = 0.5%, imp = 944

worst case efficiency: 0.749
[81 sec, 642519 itr]: obj = (0.248333), mov = 642519, inf = 99.6%, acc = 0.5%, imp = 944

worst case efficiency: 0.749
[82 sec, 658912 itr]: obj = (0.248333), mov = 658912, inf = 99.6%, acc = 0.5%, imp = 944

worst case efficiency: 0.749
[83 sec, 674078 itr]: obj = (0.248333), mov = 674078, inf = 99.6%, acc = 0.5%, imp = 944

worst case efficiency: 0.749
[84 sec, 690104 itr]: obj = (0.248333), mov = 690104, inf = 99.6%, acc = 0.5%, imp = 944

worst case efficiency: 0.749
[85 sec, 705562 itr]: obj = (0.248333), mov = 705562, inf = 99.6%, acc = 0.5%, imp = 944

worst case efficiency: 0.749
[86 sec, 721225 itr]: obj = (0.248333), mov = 721225, inf = 99.6%, acc = 0.4%, imp = 944

worst case efficiency: 0.749
[87 sec, 736781 itr]: obj = (0.248333), mov = 736781, inf = 99.6%, acc = 0.4%, imp = 944

worst case efficiency: 0.749
[88 sec, 752690 itr]: obj = (0.248333), mov = 752690, inf = 99.6%, acc = 0.4%, imp = 944

worst case efficiency: 0.749
[89 sec, 767634 itr]: obj = (0.248333), mov = 767634, inf = 99.6%, acc = 0.4%, imp = 944

worst case efficiency: 0.749
[90 sec, 783744 itr]: obj = (0.248333), mov = 783744, inf = 99.6%, acc = 0.4%, imp = 944

worst case efficiency: 0.749
[90 sec, 783744 itr]: obj = (0.248333), mov = 783744, inf = 99.6%, acc = 0.4%, imp = 944

worst case efficiency: 0.749
783744 iterations, 783744 moves performed in 90 seconds
Feasible solution: obj = (0.248333)

Run output...
FINAL SOLUTION
Worst case efficiency: 0.749
Mapping: 0->1, 1->10, 2->17, 3->25, 4->14, 5->12, 6->3, 7->5, 8->22, 9->18, 10->41, 11->30, 12->22, 13->43, 14->35, 15->21, 16->8, 17->3, 18->37, 19->2, 20->31, 21->39, 22->46, 23->3, 24->34, 25->43, 26->24, 27->0, 28->37, 29->32, 30->3, 31->9, 32->5, 33->8, 34->19, 35->43, 36->39, 37->13, 38->41, 39->25, 40->40, 41->45, 42->26, 43->14, 44->0, 45->33, 46->46, 47->1, 48->10, 49->40, 50->47, 51->46, 52->7, 53->28, 54->8, 55->33, 56->10, 57->5, 58->44, 59->38, 60->12, 61->31, 62->33, 63->13, 64->30, 65->28, 66->26, 67->27, 68->28, 69->25, 70->9, 71->9, 72->33, 73->31, 74->2, 75->4, 76->11, 77->8, 78->36, 79->41, 80->33, 81->46, 82->4, 83->11, 84->29, 85->34, 86->38, 87->36, 88->0, 89->44, 90->46, 91->8, 92->2, 93->6, 94->27, 95->12, 96->39, 97->15, 98->20, 99->32, 100->44, 101->8, 102->9, 103->20, 104->29, 105->11, 106->5, 107->15, 108->16, 109->25, 110->14, 111->40, 112->39, 113->29, 114->7, 115->9, 116->15, 117->24, 118->11, 119->20, 120->36, 121->17, 122->31, 123->24, 124->36, 125->40, 126->47, 127->34, 128->27, 129->41, 130->7, 131->24, 132->34, 133->10, 134->21, 135->32, 136->40, 137->19, 138->13, 139->34, 140->45, 141->33, 142->7, 143->28, 144->15, 145->31, 146->23, 147->13, 148->35, 149->0, 150->37, 151->31, 152->36, 153->42, 154->15, 155->47, 156->42, 157->29, 158->24, 159->40, 160->25, 161->14, 162->28, 163->12, 164->18, 165->2, 166->6, 167->30, 168->42, 169->34, 170->42, 171->7, 172->18, 173->45, 174->12, 175->35, 176->29, 177->22, 178->5, 179->22, 180->30, 181->39, 182->29, 183->16, 184->19, 185->37, 186->25, 187->6, 188->37, 189->10, 190->13, 191->12, 192->32, 193->26, 194->4, 195->22, 196->0, 197->43, 198->27, 199->16, 200->1, 201->4, 202->3, 203->2, 204->35, 205->20, 206->44, 207->38, 208->38, 209->30, 210->45, 211->1, 212->19, 213->5, 214->14, 215->35, 216->28, 217->15, 218->2, 219->6, 220->13, 221->4, 222->27, 223->1, 224->26, 225->23, 226->17, 227->6, 228->23, 229->11, 230->19, 231->18, 232->18, 233->17, 234->36, 235->11, 236->43, 237->14, 238->9, 239->47, 240->16, 241->38, 242->21, 243->24, 244->1, 245->7, 246->18, 247->16, 248->30, 249->21, 250->43, 251->26, 252->0, 253->39, 254->22, 255->23, 256->42, 257->41, 258->21, 259->4, 260->45, 261->20, 262->32, 263->17, 264->26, 265->27, 266->20, 267->35, 268->46, 269->32, 270->19, 271->3, 272->44, 273->23, 274->6, 275->45, 276->42, 277->37, 278->47, 279->21, 280->47, 281->38, 282->41, 283->44, 284->16, 285->10, 286->17, 287->23
Number of tasks per core:
	6	6	6	6	6	6
	6	6	6	6	6	6
	6	6	6	6	6	6
	6	6	6	6	6	6
	6	6	6	6	6	6
	6	6	6	6	6	6
	6	6	6	6	6	6
	6	6	6	6	6	6
Average CPI map:
	0.851319	0.555462	0.888571	2.26258	1.52388	1.32472
	1.67404	6.28216	4.7454	4.73097	7.56688	2.02946
	1.48114	7.04377	3.38859	4.55168	3.10765	2.51109
	1.72463	5.08493	7.27819	4.56766	3.7556	1.59603
	1.89357	7.14875	6.91504	6.8548	6.59066	0.935771
	1.61609	3.63726	8.2951	5.32007	7.95361	1.34914
	1.29611	3.31448	3.43107	6.47189	5.67015	1.05355
	1.06273	2.63393	4.12391	4.54747	2.64535	0.713104
Efficiency map:
	0.99722	0.843556	0.910173	0.989844	0.960005	1.00307
	0.750743	0.764982	0.888946	0.749	0.796715	0.85466
	0.8257	0.757731	0.753525	0.765081	0.74977	0.901685
	0.825637	0.770057	0.795324	0.760158	0.752998	0.871105
	0.826937	0.749	0.805767	0.81951	0.753762	0.77737
	0.795882	0.765042	0.850735	0.763307	0.816464	0.821525
	0.826072	0.772282	0.75026	0.794581	0.794533	0.809604
	0.810138	0.750573	0.7748	0.754285	0.809739	0.778139
==============================================================================
Local Solver optimizer for EML demonstration
==============================================================================

Option values: --wld-idx 15 --global-tlim 90 --seed 901

Starting the Optimization Process
