LocalSolver 4.0 (MacOS64, build 20131224)
Copyright (C) 2013 Bouygues SA, Aix-Marseille University, CNRS.
All rights reserved (see Terms and Conditions for details).

Load localsolver_res/tawd_ls.lsp...
Run input...
ANNs For the Platform:
4,2,1,6.45294,0.0174524,1.58234,2.29305,2.12057,3.95113,12.7206,-19.3278,5.58789,9.38298,0.00306445,0.00353919,0.795949
4,2,1,3.10684,7.56359,0.502116,0.637049,12.0356,-2.9013,-3.22211,-0.368567,-0.562298,-7.37831,2.38595,1.22203,-0.360292
4,2,1,4.88387,44.8399,1.27345,1.24496,49.1775,-8.83277,-3.12983,-1.00946,11.7,-3.01002,0.132635,0.00372271,0.673996
4,2,1,4.73045,19.3982,0.449241,0.753865,25.7092,17.3605,0.0558085,-8.91516,0.49993,10.3396,4.06312,-0.0136297,-3.24599
4,2,1,-7.16849,-10.0957,-0.518885,-0.00359459,5.93351,5.62684,52.0516,1.48603,1.30274,57.2311,0.250578,0.137157,0.417379
4,2,1,0.412706,-2.89716,0.137754,-2.57826,11.0947,121.374,858.444,-136.26,-14917.8,-1308.92,-3.36558,-0.000403784,4.17997
4,2,1,-8.8269,-0.482244,-0.0820712,-0.0562713,-10.1617,9.78118,-7.01882,-0.428151,-0.0606718,2.56012,-8.54699,-0.509991,-7.23704
4,2,1,2.19881,4.94147,0.541452,0.107587,6.45213,1.0452,0.405805,0.555763,3.64728,1.95727,0.425683,-0.00188273,0.383643
4,2,1,-6.13316,1.92598,-0.0562274,-0.0731719,-4.60606,0.509071,7.79918,0.393802,0.0114563,7.9345,-1.13416,0.310582,-0.637365
4,2,1,1.73462,2.97854,0.276167,0.0859465,3.6912,3.09203,3.25403,0.324282,0.112495,4.06123,0.954718,-0.48836,0.344765
4,2,1,1.57339,3.84603,-3.4467,0.7429,2.75709,2.1802,5.09535,0.482172,0.106131,6.49189,-0.0251827,0.433535,0.393482
4,2,1,4.13514,21.6229,1.1931,0.354612,24.1372,25.5916,0.432728,-12.6725,-0.45345,15.3428,0.194819,-0.0364695,0.647465
4,2,1,-0.728632,5.60079,1.78098,1.8429,-5.74354,-3.26566,-13.0026,-0.907163,-0.31822,-15.3707,-0.427666,-0.224298,0.154329
4,2,1,3.81854,-4.98219,-0.293924,-0.103604,-6.7034,2.28654,4.72568,0.469524,0.115005,6.05901,-0.511241,0.421809,-0.121549
4,2,1,-1.23773,5.98591,0.224555,-0.359337,6.05767,2.3852,3.4706,0.220977,0.179377,4.88772,0.199751,0.432231,0.177791
4,2,1,1.12189,4.09326,0.850801,0.171671,-5.17646,-1.9656,-4.07995,-0.210811,-0.113853,-5.17242,-2.70452,-0.46094,-2.36326
4,2,1,2.08858,4.80174,0.367584,0.109336,6.02292,4.32969,4.35157,0.772172,10.015,-0.96022,0.43933,4.17055e-05,0.365228
4,2,1,1.18806,3.00188,0.124753,0.00191203,3.75084,1.03049,2.7808,0.137818,0.0250058,4.01619,-1.05018,2.49176,-0.635083
4,2,1,3.11788,10.9247,0.699295,0.170953,13.0959,-11.4646,-5.88946,11.0137,8.74787,-11.701,0.236706,0.0216102,0.59131
4,2,1,7.53568,1.94998,-2.27776,-1.91765,0.451708,2.13206,4.27547,0.333162,0.0864645,5.45063,-0.0153486,0.447774,0.366202
4,2,1,-2.12436,-3.29848,-0.0965154,-0.0454545,-3.86293,4.27042,3.64797,0.106703,0.057602,4.81479,-1.28015,-0.815344,0.346524
4,2,1,2.06313,3.99765,-9.94001e-06,0.200591,5.05136,-0.024567,-3.22765,-1.84842,1.73493,-3.87425,0.446216,-0.0350173,0.320411
4,2,1,3.3952,3.19239,0.219932,0.0459907,4.0724,1.85184,2.9352,0.236295,0.0535068,3.62882,-0.516849,0.990723,0.337742
4,2,1,-6.32145,2.68844,0.160066,0.0633176,-3.81442,9.03888,1.31396,0.253255,-0.0684612,6.93971,1.83579,0.440423,2.20116
4,2,1,-4.54148,-0.217309,1.86369,-0.409034,0.0885675,-3.10698,-12.3715,-0.753639,-0.275832,-14.544,0.00344558,-0.233405,0.57337
4,2,1,-0.743367,6.86662,-0.19496,-0.0184317,7.54898,2.69258,3.24789,0.437511,0.121848,4.97423,0.830361,0.39615,-0.417087
4,2,1,2.07654,3.2533,0.103762,0.0837251,4.40922,1.95615,-2.57949,-0.10147,-0.0485499,-3.72005,0.479113,-0.433879,-0.0966803
4,2,1,-0.480501,-0.00331725,1.67452,0.764966,-1.53387,1.99113,3.67475,0.0228188,0.0287235,4.64739,0.15721,0.465135,0.487915
4,2,1,1.11584,-5.79333,-0.212675,0.376981,-6.64888,2.45003,3.54368,0.313683,0.144659,5.05472,-0.777178,0.423599,-0.389995
4,2,1,2.39093,1.70258,-0.183288,-0.314006,4.06496,2.34881,2.91375,-0.0230153,-0.18977,5.26307,-1.33645,1.84807,0.292237
4,2,1,0.88022,3.23795,0.179315,0.0205209,3.57684,0.764441,2.74982,0.156077,0.0273373,3.62313,-0.980719,2.16912,-0.37872
4,2,1,-1.27932,7.09751,-0.0490235,0.455487,7.14709,-2.57722,-4.06233,-0.410784,-0.0433739,-5.6171,0.164894,-0.408714,0.23583
4,2,1,0.623158,5.01876,0.194867,0.0365944,4.99458,-16.0815,2.94826,-1.82463,-1.90388,-9.56395,0.291148,-0.155001,0.360694
4,2,1,1.86251,3.92056,0.158781,0.0575693,4.93436,0.681285,4.09563,1.09826,-3.65606,2.09524,0.482473,-0.00448292,0.322397
4,2,1,3.33939,3.52877,0.262622,0.0607689,4.45842,2.23218,3.37107,0.256541,0.0516206,4.05014,-1.2701,1.7162,0.365737
4,2,1,5.0585,4.68315,2.53887,0.128578,8.9709,3.62833,11.0789,1.32555,0.190392,13.8026,-0.126366,0.350541,0.580103
4,2,1,4.99986,2.75557,1.33036,-0.0119951,6.91685,4.23025,5.34568,1.08928,0.0379928,8.80363,-0.700785,0.958812,0.547325
4,2,1,1.95024,3.24732,0.229322,0.0270089,3.53624,1.62575,3.04977,0.230194,0.0319079,3.46966,-1.34015,1.81817,0.333213
4,2,1,2.11055,5.16581,0.225183,0.0767342,6.2013,3.43647,-3.10756,1.22453,-6.27082,5.92438,0.428242,2.12665,-1.75474
4,2,1,10.028,2.55152,-0.0579427,-0.0186516,-2.98054,2.14055,4.33639,0.203596,0.057269,5.47668,0.0078111,0.436528,0.371941
4,2,1,1.80421,3.45533,0.27065,0.0337725,4.14172,3.00203,3.65885,0.26995,0.0620062,4.37924,0.892686,-0.440136,0.355377
4,2,1,-2.76424,-10.7675,-0.741451,-0.141046,-12.927,13.6995,2.51611,0.90934,27.76,15.1973,-0.260938,-0.00175312,0.546274
4,2,1,2.26659,3.88332,0.083697,0.287373,-5.89957,3.07548,7.5942,0.285535,0.141703,9.90558,1.94369,0.273352,2.47758
4,2,1,5.41472,-1.35343,-0.0808605,2.27411,0.928252,2.55844,6.15687,0.338903,0.0735359,7.47381,-0.0148119,0.388691,0.423615
4,2,1,4.53285,3.66527,0.130055,0.0722232,4.95325,-2.1632,-3.34312,-0.11633,-0.0577237,-3.98867,-0.759785,-1.19124,0.379449
4,2,1,2.36669,5.75119,0.132783,0.0812059,6.8845,-8.68015,-0.488627,0.811521,2.16444,0.277436,0.40839,0.00790296,0.400784
4,2,1,0.583762,8.58805,0.307497,0.0165495,8.61973,-7.32584,1.34397,-0.0108636,-0.0260377,-6.96836,0.266022,-5.2323,-4.69173
4,2,1,1.76683,-0.336959,-0.116305,-0.0696435,-1.62311,2.51027,5.65249,0.180271,0.0657051,7.97995,-0.0500539,0.457869,0.308072
Workload Information:
1.23096, 1.16925, 2.43663, 2.89784, 2.52097, 1.74435, 0.5, 2.10585, 3.24167, 1.83105, 1.584, 2.73743, 1.86299, 2.07441, 1.98376, 1.97798, 1.91419, 2.18667, 1.51308, 2.79429, 3.86066, 0.5, 2.82264, 0.509336, 2.70846, 3.62027, 1.87642, 0.5, 1.70072, 1.59413, 3.09531, 2.9454, 0.5, 1.28056, 1.14986, 3.02888, 10.4148, 10.9857, 9.59205, 9.58493, 9.63964, 9.7829, 7.13399, 11.3218, 5.45118, 16.8645, 11.6546, 7.57401, 3.60585, 2.44578, 1.73347, 1.70234, 1.12283, 1.38973, 3.76849, 0.5, 1.85507, 4.26678, 1.01218, 0.59748, 0.740313, 0.549421, 4.7972, 0.857577, 0.5, 4.55549, 0.639264, 1.20949, 3.88082, 1.67569, 4.09474, 0.5, 13.3876, 4.98203, 34.1476, 4.53449, 1.54418, 1.40407, 3.07133, 17.329, 7.53159, 7.11184, 8.86937, 16.0869, 1.30519, 1.94698, 2.28193, 0.592364, 4.43367, 1.43987, 0.5, 1.385, 2.34045, 2.52259, 1.10892, 4.14303, 1.68927, 2.3023, 1.5714, 2.22756, 2.05526, 2.15419, 1.62609, 1.09086, 2.10101, 3.93658, 0.5, 2.74546, 12.3646, 19.3229, 1.42378, 14.1161, 1.6416, 11.1309, 13.4342, 11.6597, 1.68469, 24.952, 5.56244, 2.70694, 1.07726, 1.81151, 1.69125, 3.9252, 1.54788, 1.94689, 1.06557, 1.20262, 1.43283, 3.50576, 2.89907, 1.89414, 2.4728, 2.22111, 2.59166, 1.5929, 2.62153, 0.5, 0.5, 1.92189, 1.70312, 3.98958, 2.71674, 1.16866, 0.953174, 1.10072, 3.75512, 3.15326, 0.505136, 2.53259, 0.986199, 4.32132, 3.04017, 0.5, 0.657454, 2.49486, 1.21604, 2.24417, 2.74436, 2.56076, 1.99584, 1.23882, 2.19047, 2.34784, 1.71665, 2.59214, 1.61241, 1.54049, 4.15551, 1.2971, 0.5, 3.04795, 2.3335, 0.665945, 3.63169, 0.528328, 1.84933, 3.03667, 1.81802, 1.13596, 2.24493, 2.33553, 2.46773, 2.3855, 1.09922, 1.4671, 0.5, 4.11853, 1.19228, 0.998987, 1.27981, 3.9104, 2.3036, 0.5, 0.525606, 3.21428, 4.04133, 1.41519, 1.37534, 1.63482, 2.48103, 2.3302, 1.99165, 2.18695, 2.0745, 1.98482, 2.225, 1.846, 2.13661, 1.73306, 2.43862, 1.14685, 2.88516, 2.00514, 2.69807, 0.826166, 2.03281, 2.11459, 1.90136, 2.3161, 1.37218, 2.26295, 2.5482, 3.49115, 1.21409, 0.5, 2.30291, 1.94365, 0.5, 1.44397, 1.70755, 3.42068, 1.57037, 3.35744, 1.48342, 2.18574, 1.11062, 0.5, 3.3884, 3.33182, 0.5, 1.79175, 0.873457, 2.98627, 2.96385, 2.88468, 2.07367, 2.46013, 1.72976, 2.18934, 1.00173, 2.54537, 1.79865, 2.27953, 1.80193, 1.99753, 2.24217, 1.88018, 2.7667, 0.650729, 0.688534, 4.30086, 0.721227, 2.87195, 1.93076, 1.66155, 1.98001, 1.97579, 2.2762, 2.1757, 1.02259, 2.58134, 0.551086, 3.57126, 3.73188, 0.541843, 2.37773, 0.5, 0.755259, 3.57949, 3.56401, 1.22352, 0.5, 5.135, 1.3267, 1.94202, 2.35417, 0.742105
cpi min/max: 0.5/34.1476
neighbors of 0: 1 6, number of others: 45
neighbors of 1: 0 2 6 7, number of others: 43
neighbors of 2: 1 3 7 8, number of others: 43
neighbors of 3: 2 4 8 9, number of others: 43
neighbors of 4: 3 5 9 10, number of others: 43
neighbors of 5: 4 10 11, number of others: 44
neighbors of 6: 0 1 7 12, number of others: 43
neighbors of 7: 1 2 6 8 12 13, number of others: 41
neighbors of 8: 2 3 7 9 13 14, number of others: 41
neighbors of 9: 3 4 8 10 14 15, number of others: 41
neighbors of 10: 4 5 9 11 15 16, number of others: 41
neighbors of 11: 5 10 16 17, number of others: 43
neighbors of 12: 6 7 13 18, number of others: 43
neighbors of 13: 7 8 12 14 18 19, number of others: 41
neighbors of 14: 8 9 13 15 19 20, number of others: 41
neighbors of 15: 9 10 14 16 20 21, number of others: 41
neighbors of 16: 10 11 15 17 21 22, number of others: 41
neighbors of 17: 11 16 22 23, number of others: 43
neighbors of 18: 12 13 19 24, number of others: 43
neighbors of 19: 13 14 18 20 24 25, number of others: 41
neighbors of 20: 14 15 19 21 25 26, number of others: 41
neighbors of 21: 15 16 20 22 26 27, number of others: 41
neighbors of 22: 16 17 21 23 27 28, number of others: 41
neighbors of 23: 17 22 28 29, number of others: 43
neighbors of 24: 18 19 25 30, number of others: 43
neighbors of 25: 19 20 24 26 30 31, number of others: 41
neighbors of 26: 20 21 25 27 31 32, number of others: 41
neighbors of 27: 21 22 26 28 32 33, number of others: 41
neighbors of 28: 22 23 27 29 33 34, number of others: 41
neighbors of 29: 23 28 34 35, number of others: 43
neighbors of 30: 24 25 31 36, number of others: 43
neighbors of 31: 25 26 30 32 36 37, number of others: 41
neighbors of 32: 26 27 31 33 37 38, number of others: 41
neighbors of 33: 27 28 32 34 38 39, number of others: 41
neighbors of 34: 28 29 33 35 39 40, number of others: 41
neighbors of 35: 29 34 40 41, number of others: 43
neighbors of 36: 30 31 37 42, number of others: 43
neighbors of 37: 31 32 36 38 42 43, number of others: 41
neighbors of 38: 32 33 37 39 43 44, number of others: 41
neighbors of 39: 33 34 38 40 44 45, number of others: 41
neighbors of 40: 34 35 39 41 45 46, number of others: 41
neighbors of 41: 35 40 46 47, number of others: 43
neighbors of 42: 36 37 43, number of others: 44
neighbors of 43: 37 38 42 44, number of others: 43
neighbors of 44: 38 39 43 45, number of others: 43
neighbors of 45: 39 40 44 46, number of others: 43
neighbors of 46: 40 41 45 47, number of others: 43
neighbors of 47: 41 46, number of others: 45
Run model...
Preprocess model 0% ...Preprocess model 16% ...Preprocess model 32% ...Preprocess model 48% ...Preprocess model 66% ...Preprocess model 84% ...Preprocess model 100% ...
Close model 0% ...Close model 9% ...Close model 18% ...Close model 27% ...Close model 36% ...Close model 45% ...Close model 54% ...Close model 63% ...Close model 72% ...Close model 81% ...Close model 91% ...Close model 100% ...
Run param...
Run solver...
Initialize threads 0% ...Initialize threads 100% ...
Push initial solutions 0% ...Push initial solutions 100% ...

Model: 
  expressions = 44729, operands = 116736
  decisions = 13824, constraints = 336, objectives = 1

Param: 
  time limit = 90 sec, no iteration limit
  seed = 801, nb threads = 1, annealing level = 1

Objectives:
  Obj 0: maximize, no bound

Phases:
  Phase 0: time limit = 90 sec, no iteration limit, optimized objective = 0


Computed bounds:
  Obj 0: upper bound = 0.664125


Phase 0:
[0 sec, 0 itr]: infeas = (336, 336, 576), mov = 0, inf < 0.1%, acc < 0.1%, imp = 0

worst case efficiency: 0.998464
[1 sec, 17103 itr]: obj = (0.076888), mov = 17103, inf = 95%, acc = 4.5%, imp = 180

worst case efficiency: 0.646133
[2 sec, 29362 itr]: obj = (0.0804767), mov = 29362, inf = 96.6%, acc = 3%, imp = 216

worst case efficiency: 0.648286
[3 sec, 38571 itr]: obj = (0.0842179), mov = 38571, inf = 97.2%, acc = 2.5%, imp = 254

worst case efficiency: 0.650531
[4 sec, 46915 itr]: obj = (0.0946893), mov = 46915, inf = 97.4%, acc = 2.3%, imp = 298

worst case efficiency: 0.656814
[5 sec, 54224 itr]: obj = (0.103535), mov = 54224, inf = 97.5%, acc = 2.2%, imp = 331

worst case efficiency: 0.662121
[6 sec, 60615 itr]: obj = (0.112423), mov = 60615, inf = 97.5%, acc = 2.1%, imp = 367

worst case efficiency: 0.667454
[7 sec, 67044 itr]: obj = (0.118425), mov = 67044, inf = 97.6%, acc = 2.1%, imp = 395

worst case efficiency: 0.671055
[8 sec, 72923 itr]: obj = (0.123393), mov = 72923, inf = 97.6%, acc = 2%, imp = 432

worst case efficiency: 0.674036
[9 sec, 79020 itr]: obj = (0.136202), mov = 79020, inf = 97.6%, acc = 2%, imp = 485

worst case efficiency: 0.681721
[10 sec, 84864 itr]: obj = (0.138696), mov = 84864, inf = 97.6%, acc = 2%, imp = 523

worst case efficiency: 0.683218
[11 sec, 90461 itr]: obj = (0.153262), mov = 90461, inf = 97.6%, acc = 2%, imp = 560

worst case efficiency: 0.691957
[12 sec, 95663 itr]: obj = (0.159974), mov = 95663, inf = 97.7%, acc = 1.9%, imp = 585

worst case efficiency: 0.695985
[13 sec, 101433 itr]: obj = (0.167323), mov = 101433, inf = 97.7%, acc = 1.9%, imp = 614

worst case efficiency: 0.700394
[14 sec, 107636 itr]: obj = (0.168256), mov = 107636, inf = 97.7%, acc = 1.8%, imp = 622

worst case efficiency: 0.700954
[15 sec, 113398 itr]: obj = (0.169304), mov = 113398, inf = 97.8%, acc = 1.7%, imp = 640

worst case efficiency: 0.701582
[16 sec, 118461 itr]: obj = (0.169512), mov = 118461, inf = 97.8%, acc = 1.7%, imp = 649

worst case efficiency: 0.701707
[17 sec, 124961 itr]: obj = (0.171565), mov = 124961, inf = 97.8%, acc = 1.7%, imp = 672

worst case efficiency: 0.702939
[18 sec, 130903 itr]: obj = (0.173747), mov = 130903, inf = 97.8%, acc = 1.6%, imp = 690

worst case efficiency: 0.704248
[19 sec, 135565 itr]: obj = (0.173861), mov = 135565, inf = 97.8%, acc = 1.6%, imp = 694

worst case efficiency: 0.704317
[20 sec, 140089 itr]: obj = (0.173861), mov = 140089, inf = 97.9%, acc = 1.5%, imp = 694

worst case efficiency: 0.704317
[21 sec, 145012 itr]: obj = (0.173861), mov = 145012, inf = 97.9%, acc = 1.5%, imp = 694

worst case efficiency: 0.704317
[22 sec, 150975 itr]: obj = (0.173861), mov = 150975, inf = 98%, acc = 1.5%, imp = 694

worst case efficiency: 0.704317
[23 sec, 155377 itr]: obj = (0.173861), mov = 155377, inf = 98%, acc = 1.4%, imp = 694

worst case efficiency: 0.704317
[24 sec, 159500 itr]: obj = (0.173861), mov = 159500, inf = 98%, acc = 1.4%, imp = 694

worst case efficiency: 0.704317
[25 sec, 164412 itr]: obj = (0.173861), mov = 164412, inf = 98%, acc = 1.4%, imp = 694

worst case efficiency: 0.704317
[26 sec, 171764 itr]: obj = (0.173874), mov = 171764, inf = 98%, acc = 1.3%, imp = 696

worst case efficiency: 0.704324
[27 sec, 181272 itr]: obj = (0.173897), mov = 181272, inf = 98%, acc = 1.3%, imp = 698

worst case efficiency: 0.704338
[28 sec, 198396 itr]: obj = (0.178639), mov = 198396, inf = 98%, acc = 1.3%, imp = 727

worst case efficiency: 0.707183
[29 sec, 235029 itr]: obj = (0.178815), mov = 235029, inf = 98.1%, acc = 1.2%, imp = 731

worst case efficiency: 0.707289
[30 sec, 272776 itr]: obj = (0.180039), mov = 272776, inf = 98.1%, acc = 1.1%, imp = 743

worst case efficiency: 0.708023
[31 sec, 308166 itr]: obj = (0.18037), mov = 308166, inf = 97.8%, acc = 1.1%, imp = 752

worst case efficiency: 0.708222
[32 sec, 344225 itr]: obj = (0.180779), mov = 344225, inf = 97.7%, acc = 1.1%, imp = 764

worst case efficiency: 0.708467
[33 sec, 378445 itr]: obj = (0.180837), mov = 378445, inf = 97.5%, acc = 1.1%, imp = 771

worst case efficiency: 0.708502
[34 sec, 411630 itr]: obj = (0.180878), mov = 411630, inf = 97.4%, acc = 1.1%, imp = 774

worst case efficiency: 0.708527
[35 sec, 446311 itr]: obj = (0.182528), mov = 446311, inf = 97.4%, acc = 1.2%, imp = 796

worst case efficiency: 0.709517
[36 sec, 480644 itr]: obj = (0.186752), mov = 480644, inf = 97.3%, acc = 1.2%, imp = 802

worst case efficiency: 0.712051
[37 sec, 516351 itr]: obj = (0.188268), mov = 516351, inf = 97.3%, acc = 1.2%, imp = 809

worst case efficiency: 0.712961
[38 sec, 552274 itr]: obj = (0.18932), mov = 552274, inf = 97.3%, acc = 1.2%, imp = 817

worst case efficiency: 0.713592
[39 sec, 580626 itr]: obj = (0.189355), mov = 580626, inf = 97.2%, acc = 1.3%, imp = 818

worst case efficiency: 0.713613
[40 sec, 616526 itr]: obj = (0.189737), mov = 616526, inf = 97.1%, acc = 1.3%, imp = 824

worst case efficiency: 0.713842
[41 sec, 650505 itr]: obj = (0.190501), mov = 650505, inf = 97%, acc = 1.4%, imp = 837

worst case efficiency: 0.714301
[42 sec, 685614 itr]: obj = (0.190808), mov = 685614, inf = 96.9%, acc = 1.4%, imp = 840

worst case efficiency: 0.714485
[43 sec, 719822 itr]: obj = (0.19087), mov = 719822, inf = 96.9%, acc = 1.4%, imp = 842

worst case efficiency: 0.714522
[44 sec, 754459 itr]: obj = (0.19106), mov = 754459, inf = 96.8%, acc = 1.4%, imp = 843

worst case efficiency: 0.714636
[45 sec, 785649 itr]: obj = (0.191382), mov = 785649, inf = 96.8%, acc = 1.4%, imp = 846

worst case efficiency: 0.714829
[46 sec, 814896 itr]: obj = (0.191824), mov = 814896, inf = 96.8%, acc = 1.4%, imp = 850

worst case efficiency: 0.715094
[47 sec, 850424 itr]: obj = (0.192511), mov = 850424, inf = 96.7%, acc = 1.4%, imp = 862

worst case efficiency: 0.715507
[48 sec, 877644 itr]: obj = (0.193457), mov = 877644, inf = 96.7%, acc = 1.4%, imp = 877

worst case efficiency: 0.716074
[49 sec, 912357 itr]: obj = (0.194895), mov = 912357, inf = 96.6%, acc = 1.4%, imp = 894

worst case efficiency: 0.716937
[50 sec, 948193 itr]: obj = (0.194952), mov = 948193, inf = 96.6%, acc = 1.4%, imp = 907

worst case efficiency: 0.716971
[51 sec, 983865 itr]: obj = (0.194966), mov = 983865, inf = 96.6%, acc = 1.4%, imp = 911

worst case efficiency: 0.716979
[52 sec, 1019386 itr]: obj = (0.194998), mov = 1019386, inf = 96.5%, acc = 1.4%, imp = 914

worst case efficiency: 0.716999
[53 sec, 1054594 itr]: obj = (0.195324), mov = 1054594, inf = 96.5%, acc = 1.4%, imp = 920

worst case efficiency: 0.717194
[54 sec, 1088781 itr]: obj = (0.195324), mov = 1088781, inf = 96.5%, acc = 1.3%, imp = 920

worst case efficiency: 0.717194
[55 sec, 1122266 itr]: obj = (0.195324), mov = 1122266, inf = 96.5%, acc = 1.3%, imp = 921

worst case efficiency: 0.717194
[56 sec, 1158080 itr]: obj = (0.19535), mov = 1158080, inf = 96.5%, acc = 1.3%, imp = 923

worst case efficiency: 0.71721
[57 sec, 1189297 itr]: obj = (0.195424), mov = 1189297, inf = 96.5%, acc = 1.4%, imp = 927

worst case efficiency: 0.717255
[58 sec, 1225384 itr]: obj = (0.195725), mov = 1225384, inf = 96.4%, acc = 1.4%, imp = 933

worst case efficiency: 0.717435
[59 sec, 1261662 itr]: obj = (0.196055), mov = 1261662, inf = 96.4%, acc = 1.4%, imp = 940

worst case efficiency: 0.717633
[60 sec, 1292674 itr]: obj = (0.196751), mov = 1292674, inf = 96.4%, acc = 1.4%, imp = 948

worst case efficiency: 0.71805
[61 sec, 1324174 itr]: obj = (0.197249), mov = 1324174, inf = 96.4%, acc = 1.4%, imp = 955

worst case efficiency: 0.718349
[62 sec, 1355979 itr]: obj = (0.198613), mov = 1355979, inf = 96.4%, acc = 1.3%, imp = 960

worst case efficiency: 0.719168
[63 sec, 1387311 itr]: obj = (0.200027), mov = 1387311, inf = 96.4%, acc = 1.3%, imp = 973

worst case efficiency: 0.720016
[64 sec, 1422625 itr]: obj = (0.200066), mov = 1422625, inf = 96.4%, acc = 1.3%, imp = 980

worst case efficiency: 0.72004
[65 sec, 1457925 itr]: obj = (0.200106), mov = 1457925, inf = 96.4%, acc = 1.3%, imp = 987

worst case efficiency: 0.720064
[66 sec, 1493711 itr]: obj = (0.200385), mov = 1493711, inf = 96.4%, acc = 1.3%, imp = 992

worst case efficiency: 0.720231
[67 sec, 1526872 itr]: obj = (0.200415), mov = 1526872, inf = 96.4%, acc = 1.3%, imp = 993

worst case efficiency: 0.720249
[68 sec, 1562023 itr]: obj = (0.200433), mov = 1562023, inf = 96.3%, acc = 1.4%, imp = 996

worst case efficiency: 0.72026
[69 sec, 1597770 itr]: obj = (0.200541), mov = 1597770, inf = 96.3%, acc = 1.4%, imp = 998

worst case efficiency: 0.720325
[70 sec, 1629717 itr]: obj = (0.201233), mov = 1629717, inf = 96.2%, acc = 1.4%, imp = 1001

worst case efficiency: 0.72074
[71 sec, 1660469 itr]: obj = (0.201832), mov = 1660469, inf = 96.2%, acc = 1.4%, imp = 1007

worst case efficiency: 0.721099
[72 sec, 1691826 itr]: obj = (0.202254), mov = 1691826, inf = 96.2%, acc = 1.4%, imp = 1014

worst case efficiency: 0.721353
[73 sec, 1724240 itr]: obj = (0.202888), mov = 1724240, inf = 96.2%, acc = 1.4%, imp = 1024

worst case efficiency: 0.721733
[74 sec, 1752585 itr]: obj = (0.204199), mov = 1752585, inf = 96.2%, acc = 1.4%, imp = 1035

worst case efficiency: 0.722519
[75 sec, 1786195 itr]: obj = (0.204347), mov = 1786195, inf = 96.2%, acc = 1.4%, imp = 1041

worst case efficiency: 0.722608
[76 sec, 1818084 itr]: obj = (0.204643), mov = 1818084, inf = 96.2%, acc = 1.4%, imp = 1043

worst case efficiency: 0.722786
[77 sec, 1851315 itr]: obj = (0.205133), mov = 1851315, inf = 96.2%, acc = 1.4%, imp = 1047

worst case efficiency: 0.72308
[78 sec, 1885144 itr]: obj = (0.205372), mov = 1885144, inf = 96.2%, acc = 1.4%, imp = 1049

worst case efficiency: 0.723223
[79 sec, 1920283 itr]: obj = (0.206507), mov = 1920283, inf = 96.2%, acc = 1.4%, imp = 1053

worst case efficiency: 0.723904
[80 sec, 1951585 itr]: obj = (0.206526), mov = 1951585, inf = 96.2%, acc = 1.4%, imp = 1055

worst case efficiency: 0.723915
[81 sec, 1981344 itr]: obj = (0.208818), mov = 1981344, inf = 96.2%, acc = 1.4%, imp = 1064

worst case efficiency: 0.725291
[82 sec, 2011990 itr]: obj = (0.20892), mov = 2011990, inf = 96.2%, acc = 1.4%, imp = 1066

worst case efficiency: 0.725352
[83 sec, 2042604 itr]: obj = (0.209639), mov = 2042604, inf = 96.2%, acc = 1.4%, imp = 1072

worst case efficiency: 0.725784
[84 sec, 2072764 itr]: obj = (0.211248), mov = 2072764, inf = 96.2%, acc = 1.4%, imp = 1080

worst case efficiency: 0.726749
[85 sec, 2107522 itr]: obj = (0.211541), mov = 2107522, inf = 96.2%, acc = 1.4%, imp = 1093

worst case efficiency: 0.726924
[86 sec, 2144635 itr]: obj = (0.212759), mov = 2144635, inf = 96.2%, acc = 1.4%, imp = 1103

worst case efficiency: 0.727655
[87 sec, 2181192 itr]: obj = (0.212957), mov = 2181192, inf = 96.2%, acc = 1.4%, imp = 1111

worst case efficiency: 0.727774
[88 sec, 2216446 itr]: obj = (0.214246), mov = 2216446, inf = 96.2%, acc = 1.4%, imp = 1128

worst case efficiency: 0.728548
[89 sec, 2252527 itr]: obj = (0.214578), mov = 2252527, inf = 96.2%, acc = 1.4%, imp = 1140

worst case efficiency: 0.728747
[90 sec, 2289312 itr]: obj = (0.215588), mov = 2289312, inf = 96.1%, acc = 1.4%, imp = 1154

worst case efficiency: 0.729353
[90 sec, 2289312 itr]: obj = (0.215588), mov = 2289312, inf = 96.1%, acc = 1.4%, imp = 1154

worst case efficiency: 0.729353
2289312 iterations, 2289312 moves performed in 90 seconds
Feasible solution: obj = (0.215588)

Run output...
FINAL SOLUTION
Worst case efficiency: 0.729353
Mapping: 0->39, 1->12, 2->22, 3->32, 4->39, 5->3, 6->29, 7->9, 8->38, 9->38, 10->43, 11->19, 12->33, 13->23, 14->44, 15->7, 16->39, 17->20, 18->5, 19->26, 20->30, 21->24, 22->13, 23->29, 24->28, 25->20, 26->34, 27->17, 28->7, 29->23, 30->21, 31->16, 32->47, 33->47, 34->18, 35->43, 36->44, 37->38, 38->31, 39->40, 40->7, 41->40, 42->9, 43->33, 44->39, 45->15, 46->15, 47->8, 48->26, 49->37, 50->34, 51->26, 52->42, 53->10, 54->5, 55->24, 56->35, 57->32, 58->16, 59->0, 60->4, 61->1, 62->11, 63->12, 64->17, 65->46, 66->24, 67->2, 68->19, 69->18, 70->33, 71->2, 72->34, 73->38, 74->16, 75->13, 76->17, 77->6, 78->13, 79->25, 80->20, 81->6, 82->19, 83->14, 84->46, 85->18, 86->28, 87->29, 88->44, 89->8, 90->41, 91->11, 92->34, 93->14, 94->12, 95->9, 96->42, 97->20, 98->8, 99->9, 100->26, 101->37, 102->25, 103->18, 104->43, 105->21, 106->1, 107->45, 108->26, 109->32, 110->1, 111->39, 112->28, 113->13, 114->28, 115->45, 116->45, 117->27, 118->43, 119->37, 120->23, 121->29, 122->2, 123->46, 124->27, 125->5, 126->47, 127->15, 128->15, 129->38, 130->37, 131->5, 132->44, 133->31, 134->21, 135->23, 136->4, 137->41, 138->42, 139->7, 140->42, 141->32, 142->19, 143->24, 144->2, 145->24, 146->9, 147->10, 148->29, 149->21, 150->47, 151->10, 152->31, 153->41, 154->35, 155->34, 156->3, 157->45, 158->31, 159->27, 160->43, 161->23, 162->20, 163->27, 164->4, 165->19, 166->29, 167->35, 168->11, 169->8, 170->3, 171->28, 172->46, 173->1, 174->16, 175->36, 176->25, 177->21, 178->18, 179->36, 180->45, 181->14, 182->36, 183->15, 184->6, 185->1, 186->4, 187->38, 188->40, 189->11, 190->41, 191->10, 192->25, 193->30, 194->36, 195->5, 196->31, 197->1, 198->17, 199->12, 200->9, 201->22, 202->7, 203->30, 204->32, 205->13, 206->40, 207->43, 208->33, 209->4, 210->33, 211->3, 212->10, 213->20, 214->21, 215->0, 216->39, 217->16, 218->12, 219->44, 220->12, 221->19, 222->28, 223->14, 224->17, 225->35, 226->30, 227->35, 228->6, 229->40, 230->14, 231->22, 232->3, 233->27, 234->17, 235->46, 236->3, 237->47, 238->26, 239->34, 240->0, 241->42, 242->0, 243->25, 244->22, 245->37, 246->33, 247->31, 248->25, 249->36, 250->6, 251->30, 252->8, 253->27, 254->11, 255->8, 256->35, 257->14, 258->22, 259->2, 260->0, 261->10, 262->24, 263->45, 264->5, 265->11, 266->30, 267->16, 268->36, 269->44, 270->0, 271->23, 272->4, 273->22, 274->40, 275->47, 276->46, 277->41, 278->41, 279->15, 280->32, 281->42, 282->6, 283->13, 284->18, 285->7, 286->37, 287->2
Number of tasks per core:
	6	6	6	6	6	6
	6	6	6	6	6	6
	6	6	6	6	6	6
	6	6	6	6	6	6
	6	6	6	6	6	6
	6	6	6	6	6	6
	6	6	6	6	6	6
	6	6	6	6	6	6
Average CPI map:
	0.751371	1.00357	0.957791	1.2147	1.31044	2.37794
	1.93614	3.19565	2.61309	3.6411	3.32679	2.4667
	1.34069	4.77987	4.67065	6.18658	7.63788	1.10284
	1.50135	3.84324	3.30607	2.98181	2.91489	1.69314
	0.771646	4.63734	4.31846	6.17423	4.27706	0.921792
	2.22932	4.01652	6.01927	3.98807	4.1941	1.45647
	1.52053	2.57414	4.77746	4.54438	4.66016	0.672511
	1.33841	2.68636	3.96613	3.90849	2.78047	0.812361
Efficiency map:
	0.99722	0.852802	0.906784	0.817729	0.909846	1.00307
	0.812053	0.738132	0.740829	0.765473	0.729353	0.857628
	0.832173	0.760486	0.737524	0.75879	0.793361	0.765593
	0.839182	0.75255	0.730867	0.741996	0.737445	0.890052
	0.815557	0.736183	0.730575	0.783589	0.729624	0.769762
	0.807061	0.76181	0.729862	0.741648	0.754042	0.819299
	0.81427	0.736868	0.768531	0.730201	0.741832	0.80476
	0.813801	0.730764	0.789967	0.764711	0.793261	0.776155
==============================================================================
Local Solver optimizer for EML demonstration
==============================================================================

Option values: --wld-idx 5 --global-tlim 90 --seed 801

Starting the Optimization Process
