LocalSolver 4.0 (MacOS64, build 20131224)
Copyright (C) 2013 Bouygues SA, Aix-Marseille University, CNRS.
All rights reserved (see Terms and Conditions for details).

Load localsolver_res/tawd_ls.lsp...
Run input...
ANNs For the Platform:
4,2,1,6.45294,0.0174524,1.58234,2.29305,2.12057,3.95113,12.7206,-19.3278,5.58789,9.38298,0.00306445,0.00353919,0.795949
4,2,1,3.10684,7.56359,0.502116,0.637049,12.0356,-2.9013,-3.22211,-0.368567,-0.562298,-7.37831,2.38595,1.22203,-0.360292
4,2,1,4.88387,44.8399,1.27345,1.24496,49.1775,-8.83277,-3.12983,-1.00946,11.7,-3.01002,0.132635,0.00372271,0.673996
4,2,1,4.73045,19.3982,0.449241,0.753865,25.7092,17.3605,0.0558085,-8.91516,0.49993,10.3396,4.06312,-0.0136297,-3.24599
4,2,1,-7.16849,-10.0957,-0.518885,-0.00359459,5.93351,5.62684,52.0516,1.48603,1.30274,57.2311,0.250578,0.137157,0.417379
4,2,1,0.412706,-2.89716,0.137754,-2.57826,11.0947,121.374,858.444,-136.26,-14917.8,-1308.92,-3.36558,-0.000403784,4.17997
4,2,1,-8.8269,-0.482244,-0.0820712,-0.0562713,-10.1617,9.78118,-7.01882,-0.428151,-0.0606718,2.56012,-8.54699,-0.509991,-7.23704
4,2,1,2.19881,4.94147,0.541452,0.107587,6.45213,1.0452,0.405805,0.555763,3.64728,1.95727,0.425683,-0.00188273,0.383643
4,2,1,-6.13316,1.92598,-0.0562274,-0.0731719,-4.60606,0.509071,7.79918,0.393802,0.0114563,7.9345,-1.13416,0.310582,-0.637365
4,2,1,1.73462,2.97854,0.276167,0.0859465,3.6912,3.09203,3.25403,0.324282,0.112495,4.06123,0.954718,-0.48836,0.344765
4,2,1,1.57339,3.84603,-3.4467,0.7429,2.75709,2.1802,5.09535,0.482172,0.106131,6.49189,-0.0251827,0.433535,0.393482
4,2,1,4.13514,21.6229,1.1931,0.354612,24.1372,25.5916,0.432728,-12.6725,-0.45345,15.3428,0.194819,-0.0364695,0.647465
4,2,1,-0.728632,5.60079,1.78098,1.8429,-5.74354,-3.26566,-13.0026,-0.907163,-0.31822,-15.3707,-0.427666,-0.224298,0.154329
4,2,1,3.81854,-4.98219,-0.293924,-0.103604,-6.7034,2.28654,4.72568,0.469524,0.115005,6.05901,-0.511241,0.421809,-0.121549
4,2,1,-1.23773,5.98591,0.224555,-0.359337,6.05767,2.3852,3.4706,0.220977,0.179377,4.88772,0.199751,0.432231,0.177791
4,2,1,1.12189,4.09326,0.850801,0.171671,-5.17646,-1.9656,-4.07995,-0.210811,-0.113853,-5.17242,-2.70452,-0.46094,-2.36326
4,2,1,2.08858,4.80174,0.367584,0.109336,6.02292,4.32969,4.35157,0.772172,10.015,-0.96022,0.43933,4.17055e-05,0.365228
4,2,1,1.18806,3.00188,0.124753,0.00191203,3.75084,1.03049,2.7808,0.137818,0.0250058,4.01619,-1.05018,2.49176,-0.635083
4,2,1,3.11788,10.9247,0.699295,0.170953,13.0959,-11.4646,-5.88946,11.0137,8.74787,-11.701,0.236706,0.0216102,0.59131
4,2,1,7.53568,1.94998,-2.27776,-1.91765,0.451708,2.13206,4.27547,0.333162,0.0864645,5.45063,-0.0153486,0.447774,0.366202
4,2,1,-2.12436,-3.29848,-0.0965154,-0.0454545,-3.86293,4.27042,3.64797,0.106703,0.057602,4.81479,-1.28015,-0.815344,0.346524
4,2,1,2.06313,3.99765,-9.94001e-06,0.200591,5.05136,-0.024567,-3.22765,-1.84842,1.73493,-3.87425,0.446216,-0.0350173,0.320411
4,2,1,3.3952,3.19239,0.219932,0.0459907,4.0724,1.85184,2.9352,0.236295,0.0535068,3.62882,-0.516849,0.990723,0.337742
4,2,1,-6.32145,2.68844,0.160066,0.0633176,-3.81442,9.03888,1.31396,0.253255,-0.0684612,6.93971,1.83579,0.440423,2.20116
4,2,1,-4.54148,-0.217309,1.86369,-0.409034,0.0885675,-3.10698,-12.3715,-0.753639,-0.275832,-14.544,0.00344558,-0.233405,0.57337
4,2,1,-0.743367,6.86662,-0.19496,-0.0184317,7.54898,2.69258,3.24789,0.437511,0.121848,4.97423,0.830361,0.39615,-0.417087
4,2,1,2.07654,3.2533,0.103762,0.0837251,4.40922,1.95615,-2.57949,-0.10147,-0.0485499,-3.72005,0.479113,-0.433879,-0.0966803
4,2,1,-0.480501,-0.00331725,1.67452,0.764966,-1.53387,1.99113,3.67475,0.0228188,0.0287235,4.64739,0.15721,0.465135,0.487915
4,2,1,1.11584,-5.79333,-0.212675,0.376981,-6.64888,2.45003,3.54368,0.313683,0.144659,5.05472,-0.777178,0.423599,-0.389995
4,2,1,2.39093,1.70258,-0.183288,-0.314006,4.06496,2.34881,2.91375,-0.0230153,-0.18977,5.26307,-1.33645,1.84807,0.292237
4,2,1,0.88022,3.23795,0.179315,0.0205209,3.57684,0.764441,2.74982,0.156077,0.0273373,3.62313,-0.980719,2.16912,-0.37872
4,2,1,-1.27932,7.09751,-0.0490235,0.455487,7.14709,-2.57722,-4.06233,-0.410784,-0.0433739,-5.6171,0.164894,-0.408714,0.23583
4,2,1,0.623158,5.01876,0.194867,0.0365944,4.99458,-16.0815,2.94826,-1.82463,-1.90388,-9.56395,0.291148,-0.155001,0.360694
4,2,1,1.86251,3.92056,0.158781,0.0575693,4.93436,0.681285,4.09563,1.09826,-3.65606,2.09524,0.482473,-0.00448292,0.322397
4,2,1,3.33939,3.52877,0.262622,0.0607689,4.45842,2.23218,3.37107,0.256541,0.0516206,4.05014,-1.2701,1.7162,0.365737
4,2,1,5.0585,4.68315,2.53887,0.128578,8.9709,3.62833,11.0789,1.32555,0.190392,13.8026,-0.126366,0.350541,0.580103
4,2,1,4.99986,2.75557,1.33036,-0.0119951,6.91685,4.23025,5.34568,1.08928,0.0379928,8.80363,-0.700785,0.958812,0.547325
4,2,1,1.95024,3.24732,0.229322,0.0270089,3.53624,1.62575,3.04977,0.230194,0.0319079,3.46966,-1.34015,1.81817,0.333213
4,2,1,2.11055,5.16581,0.225183,0.0767342,6.2013,3.43647,-3.10756,1.22453,-6.27082,5.92438,0.428242,2.12665,-1.75474
4,2,1,10.028,2.55152,-0.0579427,-0.0186516,-2.98054,2.14055,4.33639,0.203596,0.057269,5.47668,0.0078111,0.436528,0.371941
4,2,1,1.80421,3.45533,0.27065,0.0337725,4.14172,3.00203,3.65885,0.26995,0.0620062,4.37924,0.892686,-0.440136,0.355377
4,2,1,-2.76424,-10.7675,-0.741451,-0.141046,-12.927,13.6995,2.51611,0.90934,27.76,15.1973,-0.260938,-0.00175312,0.546274
4,2,1,2.26659,3.88332,0.083697,0.287373,-5.89957,3.07548,7.5942,0.285535,0.141703,9.90558,1.94369,0.273352,2.47758
4,2,1,5.41472,-1.35343,-0.0808605,2.27411,0.928252,2.55844,6.15687,0.338903,0.0735359,7.47381,-0.0148119,0.388691,0.423615
4,2,1,4.53285,3.66527,0.130055,0.0722232,4.95325,-2.1632,-3.34312,-0.11633,-0.0577237,-3.98867,-0.759785,-1.19124,0.379449
4,2,1,2.36669,5.75119,0.132783,0.0812059,6.8845,-8.68015,-0.488627,0.811521,2.16444,0.277436,0.40839,0.00790296,0.400784
4,2,1,0.583762,8.58805,0.307497,0.0165495,8.61973,-7.32584,1.34397,-0.0108636,-0.0260377,-6.96836,0.266022,-5.2323,-4.69173
4,2,1,1.76683,-0.336959,-0.116305,-0.0696435,-1.62311,2.51027,5.65249,0.180271,0.0657051,7.97995,-0.0500539,0.457869,0.308072
Workload Information:
2.55359, 2.36117, 0.573532, 2.29872, 2.64543, 1.56757, 1.64625, 1.52824, 1.43803, 0.5, 3.64814, 3.23935, 2.51107, 2.40504, 2.72906, 2.62251, 0.5, 1.23232, 2.20879, 1.20027, 0.5, 5.53224, 0.994675, 1.56401, 1.61236, 0.5, 4.21228, 2.68281, 0.831039, 2.16151, 4.10149, 1.69636, 1.32855, 1.90991, 2.46369, 0.5, 2.06286, 2.17432, 2.44801, 2.31855, 1.94914, 1.04712, 0.5, 3.40758, 0.692599, 0.581298, 3.95491, 2.86361, 3.40809, 0.55863, 0.5, 4.06533, 0.728905, 2.73904, 1.09989, 0.5, 3.11603, 4.30389, 2.12124, 0.858948, 1.79955, 2.07464, 1.89003, 1.92703, 2.08784, 2.2209, 0.91615, 2.83479, 2.3763, 0.840966, 2.02627, 3.00552, 0.930088, 4.13549, 0.907767, 3.06438, 0.894031, 2.06824, 0.5, 3.39243, 2.32285, 0.984231, 4.27939, 0.521107, 1.92992, 2.6927, 0.606388, 3.40636, 2.86463, 0.5, 0.769231, 2.15511, 2.37213, 2.15005, 2.14917, 2.40431, 2.008, 2.01354, 1.8307, 2.11466, 1.93379, 2.09931, 2.78209, 2.86996, 0.624814, 2.52425, 2.69888, 0.5, 2.60002, 0.5, 2.55397, 2.20386, 2.44118, 1.70097, 2.19957, 3.88385, 0.909231, 0.61331, 1.61421, 2.77983, 1.52734, 2.40316, 2.38423, 1.9802, 1.84871, 1.85637, 1.69252, 0.5, 2.40423, 2.1761, 1.91143, 3.31573, 1.42531, 4.22734, 0.962699, 0.5, 0.680057, 4.20459, 3.36067, 3.62207, 2.07557, 0.698655, 0.5, 1.74304, 1.10969, 0.896667, 2.3006, 2.96707, 1.81721, 2.90877, 2.8252, 3.51572, 1.32983, 1.039, 1.93841, 1.35184, 3.35032, 2.99665, 2.84917, 0.87015, 1.43371, 0.5, 1.04984, 2.15255, 2.28473, 2.20354, 1.94725, 2.36208, 3.17786, 2.84797, 0.703695, 0.695322, 0.564924, 4.01022, 1.0335, 1.27125, 0.589603, 4.29137, 2.09966, 2.71461, 1.30416, 1.33529, 2.18506, 1.33513, 5.34037, 0.5, 2.64882, 3.53865, 0.5, 3.29267, 0.756623, 1.26323, 0.5, 2.27668, 1.685, 1.8148, 2.35731, 3.36622, 2.52334, 2.31358, 2.47449, 2.05636, 0.951763, 1.68047, 4.83694, 8.8023, 13.8034, 0.83421, 27.4394, 4.28373, 13.8001, 12.8991, 9.04167, 0.5, 10.4205, 13.3387, 2.16182, 2.17339, 2.40504, 2.0239, 1.43849, 1.79737, 2.93771, 2.80105, 2.00619, 1.16265, 0.5, 2.59241, 2.07594, 2.18482, 1.40789, 2.3826, 2.13165, 1.8171, 1.50139, 3.08218, 1.8065, 0.603463, 2.5178, 2.48866, 14.6043, 10.687, 0.5, 14.1735, 7.84635, 12.1889, 17.4451, 4.65895, 16.1089, 7.99628, 11.6184, 2.17231, 3.15289, 1.3518, 1.20014, 3.24318, 2.55199, 0.5, 0.5, 1.5547, 2.47587, 2.08944, 2.69116, 2.68883, 1.34601, 1.47435, 2.67901, 1.99912, 2.6342, 1.86732, 0.953892, 1.68086, 2.14936, 2.77665, 1.54645, 2.89279, 2.29255, 7.04134, 20.331, 6.35332, 7.11756, 16.8643, 11.703, 8.39222, 10.1196, 9.35711, 12.3621, 8.06594
cpi min/max: 0.5/27.4394
neighbors of 0: 1 6, number of others: 45
neighbors of 1: 0 2 6 7, number of others: 43
neighbors of 2: 1 3 7 8, number of others: 43
neighbors of 3: 2 4 8 9, number of others: 43
neighbors of 4: 3 5 9 10, number of others: 43
neighbors of 5: 4 10 11, number of others: 44
neighbors of 6: 0 1 7 12, number of others: 43
neighbors of 7: 1 2 6 8 12 13, number of others: 41
neighbors of 8: 2 3 7 9 13 14, number of others: 41
neighbors of 9: 3 4 8 10 14 15, number of others: 41
neighbors of 10: 4 5 9 11 15 16, number of others: 41
neighbors of 11: 5 10 16 17, number of others: 43
neighbors of 12: 6 7 13 18, number of others: 43
neighbors of 13: 7 8 12 14 18 19, number of others: 41
neighbors of 14: 8 9 13 15 19 20, number of others: 41
neighbors of 15: 9 10 14 16 20 21, number of others: 41
neighbors of 16: 10 11 15 17 21 22, number of others: 41
neighbors of 17: 11 16 22 23, number of others: 43
neighbors of 18: 12 13 19 24, number of others: 43
neighbors of 19: 13 14 18 20 24 25, number of others: 41
neighbors of 20: 14 15 19 21 25 26, number of others: 41
neighbors of 21: 15 16 20 22 26 27, number of others: 41
neighbors of 22: 16 17 21 23 27 28, number of others: 41
neighbors of 23: 17 22 28 29, number of others: 43
neighbors of 24: 18 19 25 30, number of others: 43
neighbors of 25: 19 20 24 26 30 31, number of others: 41
neighbors of 26: 20 21 25 27 31 32, number of others: 41
neighbors of 27: 21 22 26 28 32 33, number of others: 41
neighbors of 28: 22 23 27 29 33 34, number of others: 41
neighbors of 29: 23 28 34 35, number of others: 43
neighbors of 30: 24 25 31 36, number of others: 43
neighbors of 31: 25 26 30 32 36 37, number of others: 41
neighbors of 32: 26 27 31 33 37 38, number of others: 41
neighbors of 33: 27 28 32 34 38 39, number of others: 41
neighbors of 34: 28 29 33 35 39 40, number of others: 41
neighbors of 35: 29 34 40 41, number of others: 43
neighbors of 36: 30 31 37 42, number of others: 43
neighbors of 37: 31 32 36 38 42 43, number of others: 41
neighbors of 38: 32 33 37 39 43 44, number of others: 41
neighbors of 39: 33 34 38 40 44 45, number of others: 41
neighbors of 40: 34 35 39 41 45 46, number of others: 41
neighbors of 41: 35 40 46 47, number of others: 43
neighbors of 42: 36 37 43, number of others: 44
neighbors of 43: 37 38 42 44, number of others: 43
neighbors of 44: 38 39 43 45, number of others: 43
neighbors of 45: 39 40 44 46, number of others: 43
neighbors of 46: 40 41 45 47, number of others: 43
neighbors of 47: 41 46, number of others: 45
Run model...
Preprocess model 0% ...Preprocess model 16% ...Preprocess model 32% ...Preprocess model 48% ...Preprocess model 66% ...Preprocess model 84% ...Preprocess model 100% ...
Close model 0% ...Close model 9% ...Close model 18% ...Close model 27% ...Close model 36% ...Close model 45% ...Close model 54% ...Close model 63% ...Close model 72% ...Close model 81% ...Close model 91% ...Close model 100% ...
Run param...
Run solver...
Initialize threads 0% ...Initialize threads 100% ...
Push initial solutions 0% ...Push initial solutions 100% ...

Model: 
  expressions = 44725, operands = 116736
  decisions = 13824, constraints = 336, objectives = 1

Param: 
  time limit = 90 sec, no iteration limit
  seed = 201, nb threads = 1, annealing level = 1

Objectives:
  Obj 0: maximize, no bound

Phases:
  Phase 0: time limit = 90 sec, no iteration limit, optimized objective = 0


Computed bounds:
  Obj 0: upper bound = 0.664124


Phase 0:
[0 sec, 0 itr]: infeas = (336, 336, 576), mov = 0, inf < 0.1%, acc < 0.1%, imp = 0

worst case efficiency: 0.998464
[1 sec, 1599 itr]: infeas = (77, 77, 104), mov = 1599, inf = 77.8%, acc = 20.9%, imp = 94

worst case efficiency: 0.601968
[2 sec, 16490 itr]: obj = (0.0453734), mov = 16490, inf = 91.9%, acc = 7.2%, imp = 154

worst case efficiency: 0.627224
[3 sec, 32057 itr]: obj = (0.0771871), mov = 32057, inf = 95.5%, acc = 4%, imp = 208

worst case efficiency: 0.646312
[4 sec, 43065 itr]: obj = (0.0818098), mov = 43065, inf = 96.4%, acc = 3.2%, imp = 247

worst case efficiency: 0.649086
[5 sec, 51953 itr]: obj = (0.0895138), mov = 51953, inf = 96.7%, acc = 2.9%, imp = 296

worst case efficiency: 0.653708
[6 sec, 59585 itr]: obj = (0.101173), mov = 59585, inf = 96.8%, acc = 2.8%, imp = 353

worst case efficiency: 0.660704
[7 sec, 66772 itr]: obj = (0.109208), mov = 66772, inf = 96.8%, acc = 2.8%, imp = 395

worst case efficiency: 0.665525
[8 sec, 73845 itr]: obj = (0.114305), mov = 73845, inf = 96.9%, acc = 2.7%, imp = 429

worst case efficiency: 0.668583
[9 sec, 81172 itr]: obj = (0.118628), mov = 81172, inf = 96.8%, acc = 2.6%, imp = 475

worst case efficiency: 0.671177
[10 sec, 88431 itr]: obj = (0.131746), mov = 88431, inf = 96.9%, acc = 2.6%, imp = 534

worst case efficiency: 0.679047
[11 sec, 95969 itr]: obj = (0.143919), mov = 95969, inf = 96.9%, acc = 2.6%, imp = 584

worst case efficiency: 0.686351
[12 sec, 103017 itr]: obj = (0.151552), mov = 103017, inf = 96.9%, acc = 2.5%, imp = 620

worst case efficiency: 0.690931
[13 sec, 109903 itr]: obj = (0.160048), mov = 109903, inf = 97%, acc = 2.4%, imp = 662

worst case efficiency: 0.696029
[14 sec, 117526 itr]: obj = (0.165275), mov = 117526, inf = 97.1%, acc = 2.3%, imp = 694

worst case efficiency: 0.699165
[15 sec, 124936 itr]: obj = (0.168154), mov = 124936, inf = 97.2%, acc = 2.2%, imp = 719

worst case efficiency: 0.700892
[16 sec, 132150 itr]: obj = (0.172197), mov = 132150, inf = 97.3%, acc = 2.2%, imp = 745

worst case efficiency: 0.703318
[17 sec, 139277 itr]: obj = (0.182715), mov = 139277, inf = 97.4%, acc = 2.1%, imp = 774

worst case efficiency: 0.709629
[18 sec, 145949 itr]: obj = (0.184769), mov = 145949, inf = 97.4%, acc = 2%, imp = 804

worst case efficiency: 0.710861
[19 sec, 151725 itr]: obj = (0.186717), mov = 151725, inf = 97.5%, acc = 2%, imp = 815

worst case efficiency: 0.71203
[20 sec, 158012 itr]: obj = (0.191344), mov = 158012, inf = 97.5%, acc = 1.9%, imp = 842

worst case efficiency: 0.714807
[21 sec, 164489 itr]: obj = (0.195421), mov = 164489, inf = 97.5%, acc = 1.9%, imp = 868

worst case efficiency: 0.717253
[22 sec, 171070 itr]: obj = (0.200449), mov = 171070, inf = 97.6%, acc = 1.9%, imp = 890

worst case efficiency: 0.720269
[23 sec, 178304 itr]: obj = (0.206084), mov = 178304, inf = 97.6%, acc = 1.8%, imp = 919

worst case efficiency: 0.723651
[24 sec, 185460 itr]: obj = (0.209463), mov = 185460, inf = 97.7%, acc = 1.8%, imp = 938

worst case efficiency: 0.725678
[25 sec, 191860 itr]: obj = (0.209922), mov = 191860, inf = 97.7%, acc = 1.8%, imp = 949

worst case efficiency: 0.725953
[26 sec, 198935 itr]: obj = (0.210659), mov = 198935, inf = 97.7%, acc = 1.7%, imp = 970

worst case efficiency: 0.726395
[27 sec, 205860 itr]: obj = (0.211206), mov = 205860, inf = 97.8%, acc = 1.7%, imp = 982

worst case efficiency: 0.726723
[28 sec, 213044 itr]: obj = (0.21154), mov = 213044, inf = 97.8%, acc = 1.7%, imp = 1001

worst case efficiency: 0.726924
[29 sec, 220087 itr]: obj = (0.212334), mov = 220087, inf = 97.8%, acc = 1.6%, imp = 1020

worst case efficiency: 0.7274
[30 sec, 226897 itr]: obj = (0.212852), mov = 226897, inf = 97.9%, acc = 1.6%, imp = 1036

worst case efficiency: 0.727711
[31 sec, 233729 itr]: obj = (0.213105), mov = 233729, inf = 97.9%, acc = 1.6%, imp = 1047

worst case efficiency: 0.727863
[32 sec, 240527 itr]: obj = (0.214096), mov = 240527, inf = 97.9%, acc = 1.6%, imp = 1061

worst case efficiency: 0.728458
[33 sec, 247839 itr]: obj = (0.216992), mov = 247839, inf = 97.9%, acc = 1.5%, imp = 1088

worst case efficiency: 0.730195
[34 sec, 255118 itr]: obj = (0.219417), mov = 255118, inf = 97.9%, acc = 1.5%, imp = 1114

worst case efficiency: 0.73165
[35 sec, 262204 itr]: obj = (0.221135), mov = 262204, inf = 98%, acc = 1.5%, imp = 1135

worst case efficiency: 0.732681
[36 sec, 267926 itr]: obj = (0.22172), mov = 267926, inf = 98%, acc = 1.5%, imp = 1149

worst case efficiency: 0.733032
[37 sec, 274647 itr]: obj = (0.222167), mov = 274647, inf = 98%, acc = 1.5%, imp = 1160

worst case efficiency: 0.7333
[38 sec, 282175 itr]: obj = (0.222681), mov = 282175, inf = 98%, acc = 1.5%, imp = 1171

worst case efficiency: 0.733609
[39 sec, 289981 itr]: obj = (0.224041), mov = 289981, inf = 98%, acc = 1.5%, imp = 1187

worst case efficiency: 0.734425
[40 sec, 298490 itr]: obj = (0.224898), mov = 298490, inf = 98%, acc = 1.5%, imp = 1203

worst case efficiency: 0.734939
[41 sec, 307699 itr]: obj = (0.227792), mov = 307699, inf = 98%, acc = 1.5%, imp = 1224

worst case efficiency: 0.736675
[42 sec, 318181 itr]: obj = (0.228233), mov = 318181, inf = 98%, acc = 1.4%, imp = 1235

worst case efficiency: 0.73694
[43 sec, 332439 itr]: obj = (0.228404), mov = 332439, inf = 98%, acc = 1.4%, imp = 1243

worst case efficiency: 0.737042
[44 sec, 346511 itr]: obj = (0.228475), mov = 346511, inf = 98%, acc = 1.4%, imp = 1246

worst case efficiency: 0.737085
[45 sec, 363781 itr]: obj = (0.22915), mov = 363781, inf = 98%, acc = 1.4%, imp = 1258

worst case efficiency: 0.73749
[46 sec, 391799 itr]: obj = (0.229305), mov = 391799, inf = 97.9%, acc = 1.4%, imp = 1263

worst case efficiency: 0.737583
[47 sec, 414044 itr]: obj = (0.229445), mov = 414044, inf = 97.9%, acc = 1.3%, imp = 1268

worst case efficiency: 0.737667
[48 sec, 437490 itr]: obj = (0.229628), mov = 437490, inf = 97.9%, acc = 1.3%, imp = 1277

worst case efficiency: 0.737777
[49 sec, 465632 itr]: obj = (0.229628), mov = 465632, inf = 97.9%, acc = 1.3%, imp = 1277

worst case efficiency: 0.737777
[50 sec, 496292 itr]: obj = (0.229628), mov = 496292, inf = 97.8%, acc = 1.3%, imp = 1277

worst case efficiency: 0.737777
[51 sec, 530086 itr]: obj = (0.22963), mov = 530086, inf = 97.8%, acc = 1.3%, imp = 1278

worst case efficiency: 0.737778
[52 sec, 561606 itr]: obj = (0.229655), mov = 561606, inf = 97.8%, acc = 1.3%, imp = 1282

worst case efficiency: 0.737793
[53 sec, 595079 itr]: obj = (0.229863), mov = 595079, inf = 97.8%, acc = 1.3%, imp = 1294

worst case efficiency: 0.737918
[54 sec, 629603 itr]: obj = (0.230532), mov = 629603, inf = 97.8%, acc = 1.3%, imp = 1305

worst case efficiency: 0.738319
[55 sec, 662287 itr]: obj = (0.230574), mov = 662287, inf = 97.8%, acc = 1.3%, imp = 1307

worst case efficiency: 0.738345
[56 sec, 695338 itr]: obj = (0.230605), mov = 695338, inf = 97.7%, acc = 1.3%, imp = 1309

worst case efficiency: 0.738363
[57 sec, 727843 itr]: obj = (0.230677), mov = 727843, inf = 97.7%, acc = 1.3%, imp = 1310

worst case efficiency: 0.738406
[58 sec, 760035 itr]: obj = (0.230677), mov = 760035, inf = 97.7%, acc = 1.3%, imp = 1311

worst case efficiency: 0.738406
[59 sec, 793130 itr]: obj = (0.230913), mov = 793130, inf = 97.7%, acc = 1.3%, imp = 1315

worst case efficiency: 0.738548
[60 sec, 825909 itr]: obj = (0.230916), mov = 825909, inf = 97.7%, acc = 1.2%, imp = 1316

worst case efficiency: 0.73855
[61 sec, 858657 itr]: obj = (0.230916), mov = 858657, inf = 97.7%, acc = 1.2%, imp = 1316

worst case efficiency: 0.73855
[62 sec, 891341 itr]: obj = (0.230928), mov = 891341, inf = 97.7%, acc = 1.2%, imp = 1318

worst case efficiency: 0.738557
[63 sec, 924726 itr]: obj = (0.230975), mov = 924726, inf = 97.7%, acc = 1.2%, imp = 1325

worst case efficiency: 0.738585
[64 sec, 959734 itr]: obj = (0.231013), mov = 959734, inf = 97.7%, acc = 1.2%, imp = 1333

worst case efficiency: 0.738608
[65 sec, 994956 itr]: obj = (0.231013), mov = 994956, inf = 97.7%, acc = 1.2%, imp = 1334

worst case efficiency: 0.738608
[66 sec, 1029490 itr]: obj = (0.231021), mov = 1029490, inf = 97.7%, acc = 1.1%, imp = 1337

worst case efficiency: 0.738612
[67 sec, 1065041 itr]: obj = (0.231635), mov = 1065041, inf = 97.8%, acc = 1.1%, imp = 1349

worst case efficiency: 0.738981
[68 sec, 1099778 itr]: obj = (0.232543), mov = 1099778, inf = 97.8%, acc = 1.1%, imp = 1363

worst case efficiency: 0.739526
[69 sec, 1134356 itr]: obj = (0.233504), mov = 1134356, inf = 97.8%, acc = 1.1%, imp = 1370

worst case efficiency: 0.740103
[70 sec, 1168244 itr]: obj = (0.233788), mov = 1168244, inf = 97.8%, acc = 1.1%, imp = 1377

worst case efficiency: 0.740273
[71 sec, 1203444 itr]: obj = (0.234157), mov = 1203444, inf = 97.8%, acc = 1.1%, imp = 1392

worst case efficiency: 0.740494
[72 sec, 1238260 itr]: obj = (0.234168), mov = 1238260, inf = 97.8%, acc = 1.1%, imp = 1394

worst case efficiency: 0.740501
[73 sec, 1272414 itr]: obj = (0.234288), mov = 1272414, inf = 97.8%, acc = 1%, imp = 1400

worst case efficiency: 0.740573
[74 sec, 1306989 itr]: obj = (0.234307), mov = 1306989, inf = 97.9%, acc = 1%, imp = 1405

worst case efficiency: 0.740584
[75 sec, 1341542 itr]: obj = (0.234328), mov = 1341542, inf = 97.9%, acc = 1%, imp = 1407

worst case efficiency: 0.740597
[76 sec, 1376195 itr]: obj = (0.234435), mov = 1376195, inf = 97.9%, acc = 1%, imp = 1413

worst case efficiency: 0.740661
[77 sec, 1411403 itr]: obj = (0.234441), mov = 1411403, inf = 97.9%, acc = 1%, imp = 1415

worst case efficiency: 0.740665
[78 sec, 1446724 itr]: obj = (0.234469), mov = 1446724, inf = 97.9%, acc = 1%, imp = 1417

worst case efficiency: 0.740682
[79 sec, 1482007 itr]: obj = (0.234491), mov = 1482007, inf = 97.9%, acc = 1%, imp = 1419

worst case efficiency: 0.740695
[80 sec, 1517869 itr]: obj = (0.234602), mov = 1517869, inf = 97.9%, acc = 1%, imp = 1424

worst case efficiency: 0.740761
[81 sec, 1552659 itr]: obj = (0.234615), mov = 1552659, inf = 97.9%, acc = 0.9%, imp = 1427

worst case efficiency: 0.740769
[82 sec, 1587661 itr]: obj = (0.234678), mov = 1587661, inf = 97.9%, acc = 0.9%, imp = 1430

worst case efficiency: 0.740807
[83 sec, 1623080 itr]: obj = (0.234702), mov = 1623080, inf = 97.9%, acc = 0.9%, imp = 1434

worst case efficiency: 0.740821
[84 sec, 1658233 itr]: obj = (0.234779), mov = 1658233, inf = 98%, acc = 0.9%, imp = 1438

worst case efficiency: 0.740867
[85 sec, 1693684 itr]: obj = (0.234779), mov = 1693684, inf = 98%, acc = 0.9%, imp = 1438

worst case efficiency: 0.740867
[86 sec, 1728697 itr]: obj = (0.234803), mov = 1728697, inf = 98%, acc = 0.9%, imp = 1441

worst case efficiency: 0.740882
[87 sec, 1763462 itr]: obj = (0.234803), mov = 1763462, inf = 98%, acc = 0.9%, imp = 1441

worst case efficiency: 0.740882
[88 sec, 1797382 itr]: obj = (0.234989), mov = 1797382, inf = 98%, acc = 0.9%, imp = 1445

worst case efficiency: 0.740993
[89 sec, 1831949 itr]: obj = (0.235197), mov = 1831949, inf = 98%, acc = 0.9%, imp = 1450

worst case efficiency: 0.741118
[90 sec, 1867372 itr]: obj = (0.235414), mov = 1867372, inf = 98%, acc = 0.9%, imp = 1452

worst case efficiency: 0.741248
[90 sec, 1867372 itr]: obj = (0.235414), mov = 1867372, inf = 98%, acc = 0.9%, imp = 1452

worst case efficiency: 0.741248
1867372 iterations, 1867372 moves performed in 90 seconds
Feasible solution: obj = (0.235414)

Run output...
FINAL SOLUTION
Worst case efficiency: 0.741248
Mapping: 0->33, 1->1, 2->47, 3->35, 4->40, 5->36, 6->11, 7->46, 8->9, 9->1, 10->44, 11->23, 12->28, 13->37, 14->39, 15->26, 16->29, 17->3, 18->30, 19->17, 20->16, 21->39, 22->3, 23->2, 24->11, 25->0, 26->37, 27->22, 28->29, 29->42, 30->25, 31->24, 32->42, 33->8, 34->28, 35->4, 36->41, 37->12, 38->34, 39->9, 40->28, 41->2, 42->17, 43->38, 44->4, 45->11, 46->27, 47->32, 48->26, 49->4, 50->0, 51->45, 52->30, 53->8, 54->4, 55->24, 56->25, 57->38, 58->40, 59->6, 60->5, 61->1, 62->6, 63->45, 64->22, 65->26, 66->1, 67->20, 68->10, 69->0, 70->18, 71->38, 72->30, 73->44, 74->11, 75->31, 76->30, 77->10, 78->42, 79->33, 80->33, 81->10, 82->40, 83->18, 84->20, 85->6, 86->3, 87->33, 88->34, 89->29, 90->35, 91->39, 92->38, 93->35, 94->22, 95->45, 96->18, 97->5, 98->0, 99->36, 100->41, 101->44, 102->37, 103->40, 104->23, 105->34, 106->9, 107->4, 108->19, 109->0, 110->28, 111->41, 112->32, 113->34, 114->14, 115->14, 116->4, 117->12, 118->41, 119->25, 120->1, 121->9, 122->7, 123->34, 124->0, 125->13, 126->20, 127->47, 128->45, 129->38, 130->7, 131->39, 132->43, 133->12, 134->24, 135->17, 136->3, 137->27, 138->25, 139->42, 140->46, 141->36, 142->18, 143->5, 144->18, 145->23, 146->46, 147->31, 148->42, 149->37, 150->37, 151->6, 152->17, 153->23, 154->16, 155->47, 156->19, 157->25, 158->20, 159->47, 160->23, 161->6, 162->23, 163->27, 164->36, 165->21, 166->9, 167->35, 168->15, 169->12, 170->47, 171->36, 172->17, 173->33, 174->8, 175->30, 176->5, 177->21, 178->28, 179->15, 180->2, 181->16, 182->7, 183->5, 184->45, 185->12, 186->41, 187->19, 188->6, 189->31, 190->8, 191->3, 192->29, 193->13, 194->29, 195->19, 196->22, 197->13, 198->43, 199->31, 200->43, 201->40, 202->42, 203->46, 204->15, 205->14, 206->28, 207->10, 208->16, 209->27, 210->9, 211->32, 212->32, 213->16, 214->22, 215->39, 216->45, 217->24, 218->11, 219->44, 220->41, 221->35, 222->33, 223->2, 224->44, 225->29, 226->30, 227->44, 228->7, 229->37, 230->21, 231->39, 232->20, 233->21, 234->21, 235->26, 236->18, 237->5, 238->15, 239->22, 240->10, 241->8, 242->47, 243->14, 244->27, 245->34, 246->20, 247->13, 248->43, 249->46, 250->16, 251->19, 252->43, 253->14, 254->17, 255->27, 256->26, 257->24, 258->3, 259->1, 260->15, 261->24, 262->40, 263->38, 264->2, 265->12, 266->7, 267->13, 268->32, 269->11, 270->8, 271->36, 272->14, 273->35, 274->2, 275->25, 276->43, 277->32, 278->21, 279->31, 280->15, 281->13, 282->10, 283->7, 284->46, 285->26, 286->19, 287->31
Number of tasks per core:
	6	6	6	6	6	6
	6	6	6	6	6	6
	6	6	6	6	6	6
	6	6	6	6	6	6
	6	6	6	6	6	6
	6	6	6	6	6	6
	6	6	6	6	6	6
	6	6	6	6	6	6
Average CPI map:
	1.0034	1.489	1.60147	0.879445	0.710059	1.34739
	1.65957	3.27132	3.01332	4.10099	5.42838	1.50334
	1.97288	5.17026	5.42672	3.80677	7.22191	0.882528
	1.32859	4.30638	4.81387	5.25871	3.69771	1.38056
	1.32031	3.20791	3.8738	4.28089	4.23016	0.863114
	1.08885	4.34283	6.15352	3.10386	3.95116	2.02568
	1.50697	2.88637	2.99234	4.9089	2.77725	1.98367
	1.73018	4.66292	2.75091	3.05051	4.28346	0.749869
Efficiency map:
	0.99722	0.879676	0.972689	0.778915	0.905267	1.00307
	0.742003	0.755458	0.744762	0.742099	0.742663	0.842472
	0.82612	0.76605	0.74222	0.769421	0.749953	0.754421
	0.817252	0.741418	0.765618	0.743011	0.748519	0.909999
	0.818036	0.745988	0.742597	0.76125	0.741248	0.767155
	0.771655	0.774682	0.746643	0.742681	0.742672	0.828933
	0.820087	0.747773	0.743405	0.790507	0.741549	0.880405
	0.821657	0.768211	0.74775	0.756898	0.878132	0.777472
==============================================================================
Local Solver optimizer for EML demonstration
==============================================================================

Option values: --wld-idx 14 --global-tlim 90 --seed 201

Starting the Optimization Process
