LocalSolver 4.0 (MacOS64, build 20131224)
Copyright (C) 2013 Bouygues SA, Aix-Marseille University, CNRS.
All rights reserved (see Terms and Conditions for details).

Load localsolver_res/tawd_ls.lsp...
Run input...
ANNs For the Platform:
4,2,1,6.45294,0.0174524,1.58234,2.29305,2.12057,3.95113,12.7206,-19.3278,5.58789,9.38298,0.00306445,0.00353919,0.795949
4,2,1,3.10684,7.56359,0.502116,0.637049,12.0356,-2.9013,-3.22211,-0.368567,-0.562298,-7.37831,2.38595,1.22203,-0.360292
4,2,1,4.88387,44.8399,1.27345,1.24496,49.1775,-8.83277,-3.12983,-1.00946,11.7,-3.01002,0.132635,0.00372271,0.673996
4,2,1,4.73045,19.3982,0.449241,0.753865,25.7092,17.3605,0.0558085,-8.91516,0.49993,10.3396,4.06312,-0.0136297,-3.24599
4,2,1,-7.16849,-10.0957,-0.518885,-0.00359459,5.93351,5.62684,52.0516,1.48603,1.30274,57.2311,0.250578,0.137157,0.417379
4,2,1,0.412706,-2.89716,0.137754,-2.57826,11.0947,121.374,858.444,-136.26,-14917.8,-1308.92,-3.36558,-0.000403784,4.17997
4,2,1,-8.8269,-0.482244,-0.0820712,-0.0562713,-10.1617,9.78118,-7.01882,-0.428151,-0.0606718,2.56012,-8.54699,-0.509991,-7.23704
4,2,1,2.19881,4.94147,0.541452,0.107587,6.45213,1.0452,0.405805,0.555763,3.64728,1.95727,0.425683,-0.00188273,0.383643
4,2,1,-6.13316,1.92598,-0.0562274,-0.0731719,-4.60606,0.509071,7.79918,0.393802,0.0114563,7.9345,-1.13416,0.310582,-0.637365
4,2,1,1.73462,2.97854,0.276167,0.0859465,3.6912,3.09203,3.25403,0.324282,0.112495,4.06123,0.954718,-0.48836,0.344765
4,2,1,1.57339,3.84603,-3.4467,0.7429,2.75709,2.1802,5.09535,0.482172,0.106131,6.49189,-0.0251827,0.433535,0.393482
4,2,1,4.13514,21.6229,1.1931,0.354612,24.1372,25.5916,0.432728,-12.6725,-0.45345,15.3428,0.194819,-0.0364695,0.647465
4,2,1,-0.728632,5.60079,1.78098,1.8429,-5.74354,-3.26566,-13.0026,-0.907163,-0.31822,-15.3707,-0.427666,-0.224298,0.154329
4,2,1,3.81854,-4.98219,-0.293924,-0.103604,-6.7034,2.28654,4.72568,0.469524,0.115005,6.05901,-0.511241,0.421809,-0.121549
4,2,1,-1.23773,5.98591,0.224555,-0.359337,6.05767,2.3852,3.4706,0.220977,0.179377,4.88772,0.199751,0.432231,0.177791
4,2,1,1.12189,4.09326,0.850801,0.171671,-5.17646,-1.9656,-4.07995,-0.210811,-0.113853,-5.17242,-2.70452,-0.46094,-2.36326
4,2,1,2.08858,4.80174,0.367584,0.109336,6.02292,4.32969,4.35157,0.772172,10.015,-0.96022,0.43933,4.17055e-05,0.365228
4,2,1,1.18806,3.00188,0.124753,0.00191203,3.75084,1.03049,2.7808,0.137818,0.0250058,4.01619,-1.05018,2.49176,-0.635083
4,2,1,3.11788,10.9247,0.699295,0.170953,13.0959,-11.4646,-5.88946,11.0137,8.74787,-11.701,0.236706,0.0216102,0.59131
4,2,1,7.53568,1.94998,-2.27776,-1.91765,0.451708,2.13206,4.27547,0.333162,0.0864645,5.45063,-0.0153486,0.447774,0.366202
4,2,1,-2.12436,-3.29848,-0.0965154,-0.0454545,-3.86293,4.27042,3.64797,0.106703,0.057602,4.81479,-1.28015,-0.815344,0.346524
4,2,1,2.06313,3.99765,-9.94001e-06,0.200591,5.05136,-0.024567,-3.22765,-1.84842,1.73493,-3.87425,0.446216,-0.0350173,0.320411
4,2,1,3.3952,3.19239,0.219932,0.0459907,4.0724,1.85184,2.9352,0.236295,0.0535068,3.62882,-0.516849,0.990723,0.337742
4,2,1,-6.32145,2.68844,0.160066,0.0633176,-3.81442,9.03888,1.31396,0.253255,-0.0684612,6.93971,1.83579,0.440423,2.20116
4,2,1,-4.54148,-0.217309,1.86369,-0.409034,0.0885675,-3.10698,-12.3715,-0.753639,-0.275832,-14.544,0.00344558,-0.233405,0.57337
4,2,1,-0.743367,6.86662,-0.19496,-0.0184317,7.54898,2.69258,3.24789,0.437511,0.121848,4.97423,0.830361,0.39615,-0.417087
4,2,1,2.07654,3.2533,0.103762,0.0837251,4.40922,1.95615,-2.57949,-0.10147,-0.0485499,-3.72005,0.479113,-0.433879,-0.0966803
4,2,1,-0.480501,-0.00331725,1.67452,0.764966,-1.53387,1.99113,3.67475,0.0228188,0.0287235,4.64739,0.15721,0.465135,0.487915
4,2,1,1.11584,-5.79333,-0.212675,0.376981,-6.64888,2.45003,3.54368,0.313683,0.144659,5.05472,-0.777178,0.423599,-0.389995
4,2,1,2.39093,1.70258,-0.183288,-0.314006,4.06496,2.34881,2.91375,-0.0230153,-0.18977,5.26307,-1.33645,1.84807,0.292237
4,2,1,0.88022,3.23795,0.179315,0.0205209,3.57684,0.764441,2.74982,0.156077,0.0273373,3.62313,-0.980719,2.16912,-0.37872
4,2,1,-1.27932,7.09751,-0.0490235,0.455487,7.14709,-2.57722,-4.06233,-0.410784,-0.0433739,-5.6171,0.164894,-0.408714,0.23583
4,2,1,0.623158,5.01876,0.194867,0.0365944,4.99458,-16.0815,2.94826,-1.82463,-1.90388,-9.56395,0.291148,-0.155001,0.360694
4,2,1,1.86251,3.92056,0.158781,0.0575693,4.93436,0.681285,4.09563,1.09826,-3.65606,2.09524,0.482473,-0.00448292,0.322397
4,2,1,3.33939,3.52877,0.262622,0.0607689,4.45842,2.23218,3.37107,0.256541,0.0516206,4.05014,-1.2701,1.7162,0.365737
4,2,1,5.0585,4.68315,2.53887,0.128578,8.9709,3.62833,11.0789,1.32555,0.190392,13.8026,-0.126366,0.350541,0.580103
4,2,1,4.99986,2.75557,1.33036,-0.0119951,6.91685,4.23025,5.34568,1.08928,0.0379928,8.80363,-0.700785,0.958812,0.547325
4,2,1,1.95024,3.24732,0.229322,0.0270089,3.53624,1.62575,3.04977,0.230194,0.0319079,3.46966,-1.34015,1.81817,0.333213
4,2,1,2.11055,5.16581,0.225183,0.0767342,6.2013,3.43647,-3.10756,1.22453,-6.27082,5.92438,0.428242,2.12665,-1.75474
4,2,1,10.028,2.55152,-0.0579427,-0.0186516,-2.98054,2.14055,4.33639,0.203596,0.057269,5.47668,0.0078111,0.436528,0.371941
4,2,1,1.80421,3.45533,0.27065,0.0337725,4.14172,3.00203,3.65885,0.26995,0.0620062,4.37924,0.892686,-0.440136,0.355377
4,2,1,-2.76424,-10.7675,-0.741451,-0.141046,-12.927,13.6995,2.51611,0.90934,27.76,15.1973,-0.260938,-0.00175312,0.546274
4,2,1,2.26659,3.88332,0.083697,0.287373,-5.89957,3.07548,7.5942,0.285535,0.141703,9.90558,1.94369,0.273352,2.47758
4,2,1,5.41472,-1.35343,-0.0808605,2.27411,0.928252,2.55844,6.15687,0.338903,0.0735359,7.47381,-0.0148119,0.388691,0.423615
4,2,1,4.53285,3.66527,0.130055,0.0722232,4.95325,-2.1632,-3.34312,-0.11633,-0.0577237,-3.98867,-0.759785,-1.19124,0.379449
4,2,1,2.36669,5.75119,0.132783,0.0812059,6.8845,-8.68015,-0.488627,0.811521,2.16444,0.277436,0.40839,0.00790296,0.400784
4,2,1,0.583762,8.58805,0.307497,0.0165495,8.61973,-7.32584,1.34397,-0.0108636,-0.0260377,-6.96836,0.266022,-5.2323,-4.69173
4,2,1,1.76683,-0.336959,-0.116305,-0.0696435,-1.62311,2.51027,5.65249,0.180271,0.0657051,7.97995,-0.0500539,0.457869,0.308072
Workload Information:
1.94365, 1.72274, 3.0003, 2.67473, 0.708817, 1.94976, 2.19814, 1.98059, 1.65253, 2.4329, 1.55026, 2.18558, 1.48288, 2.34618, 2.63831, 0.569931, 2.33748, 2.62522, 0.804851, 1.52861, 1.80011, 2.60212, 2.33104, 2.93327, 1.94532, 4.65093, 0.878058, 0.5, 1.06048, 2.96521, 2.23336, 2.27321, 1.83764, 2.40798, 2.09804, 1.14978, 2.18893, 1.90383, 1.76951, 2.21741, 1.98643, 1.93389, 1.55668, 2.88121, 2.46075, 0.911159, 3.03305, 1.15715, 0.591041, 1.89129, 1.07596, 6.14979, 0.665151, 1.62677, 0.767756, 4.62481, 4.39743, 1.19803, 0.511976, 0.5, 1.96853, 2.16397, 1.90805, 2.06591, 1.81344, 2.0801, 3.14364, 2.68947, 3.07273, 0.992259, 1.12898, 0.972916, 1.28574, 3.11346, 2.32277, 3.49911, 0.5, 1.27892, 2.49159, 1.16019, 1.80184, 1.58221, 2.66877, 2.29539, 3.32212, 0.892106, 1.63738, 3.35417, 0.746758, 2.04747, 3.13617, 0.50463, 0.5, 2.24314, 3.80159, 1.81447, 3.23507, 1.39096, 1.87515, 0.5, 4.3616, 0.637222, 1.13916, 0.822893, 4.33047, 0.600166, 4.60731, 0.5, 1.53706, 1.61894, 2.89586, 3.09672, 1.62184, 1.22957, 2.25583, 2.5967, 1.38999, 1.90329, 1.28025, 2.57393, 5.29231, 1.79515, 1.08895, 2.52152, 0.5, 0.802071, 1.39208, 4.15828, 1.19659, 3.60276, 0.832847, 0.817443, 1.42375, 3.38068, 3.5672, 1.98301, 0.5, 1.14536, 2.08175, 1.67462, 1.4119, 2.48904, 2.36101, 1.98167, 0.831055, 2.3706, 2.51188, 1.69479, 2.39317, 2.1985, 2.14689, 1.49416, 2.03144, 2.24304, 1.86527, 2.21921, 0.5, 3.26911, 3.04269, 1.6405, 0.513251, 3.03445, 2.40604, 1.29186, 1.22159, 4.02385, 2.55665, 0.5, 0.5, 1.05656, 1.97776, 3.13619, 0.881539, 4.44794, 3.45001, 1.15696, 1.77274, 2.26232, 0.5, 2.85797, 2.69944, 2.17428, 2.35897, 0.949505, 1.29318, 2.52463, 2.31628, 1.77659, 2.19046, 1.3835, 2.0286, 2.30457, 2.11015, 1.89318, 1.85647, 1.92611, 2.07169, 2.1424, 13.0536, 21.2619, 23.5566, 26.8842, 25.3488, 21.8948, 1.7748, 0.834071, 3.4189, 0.867087, 3.53284, 1.57231, 3.08433, 0.5, 0.925509, 1.9174, 3.21161, 2.36115, 3.31126, 0.804972, 5.2321, 0.809171, 1.18812, 0.654377, 3.01691, 2.54381, 1.23675, 1.63031, 2.58394, 0.988287, 0.619142, 2.15659, 3.61914, 1.34939, 3.50477, 0.750974, 1.35392, 1.40387, 2.36883, 1.9597, 2.43715, 2.47654, 1.52286, 2.39294, 2.11697, 2.54111, 2.11235, 1.31377, 2.14366, 1.8421, 2.27972, 2.50482, 1.00258, 2.22712, 4.00905, 0.693261, 2.39196, 3.76351, 0.5, 0.642218, 2.10021, 2.42915, 1.13832, 3.29873, 0.550335, 2.48325, 1.22267, 2.23415, 4.01466, 1.01903, 3.00948, 0.5, 3.52561, 1.02266, 1.11455, 2.19579, 2.65783, 1.48356, 1.83991, 1.85062, 2.77056, 0.5, 2.90158, 2.13732, 1.16738, 1.15033, 2.96474, 3.88986, 1.97515, 0.852553
cpi min/max: 0.5/26.8842
neighbors of 0: 1 6, number of others: 45
neighbors of 1: 0 2 6 7, number of others: 43
neighbors of 2: 1 3 7 8, number of others: 43
neighbors of 3: 2 4 8 9, number of others: 43
neighbors of 4: 3 5 9 10, number of others: 43
neighbors of 5: 4 10 11, number of others: 44
neighbors of 6: 0 1 7 12, number of others: 43
neighbors of 7: 1 2 6 8 12 13, number of others: 41
neighbors of 8: 2 3 7 9 13 14, number of others: 41
neighbors of 9: 3 4 8 10 14 15, number of others: 41
neighbors of 10: 4 5 9 11 15 16, number of others: 41
neighbors of 11: 5 10 16 17, number of others: 43
neighbors of 12: 6 7 13 18, number of others: 43
neighbors of 13: 7 8 12 14 18 19, number of others: 41
neighbors of 14: 8 9 13 15 19 20, number of others: 41
neighbors of 15: 9 10 14 16 20 21, number of others: 41
neighbors of 16: 10 11 15 17 21 22, number of others: 41
neighbors of 17: 11 16 22 23, number of others: 43
neighbors of 18: 12 13 19 24, number of others: 43
neighbors of 19: 13 14 18 20 24 25, number of others: 41
neighbors of 20: 14 15 19 21 25 26, number of others: 41
neighbors of 21: 15 16 20 22 26 27, number of others: 41
neighbors of 22: 16 17 21 23 27 28, number of others: 41
neighbors of 23: 17 22 28 29, number of others: 43
neighbors of 24: 18 19 25 30, number of others: 43
neighbors of 25: 19 20 24 26 30 31, number of others: 41
neighbors of 26: 20 21 25 27 31 32, number of others: 41
neighbors of 27: 21 22 26 28 32 33, number of others: 41
neighbors of 28: 22 23 27 29 33 34, number of others: 41
neighbors of 29: 23 28 34 35, number of others: 43
neighbors of 30: 24 25 31 36, number of others: 43
neighbors of 31: 25 26 30 32 36 37, number of others: 41
neighbors of 32: 26 27 31 33 37 38, number of others: 41
neighbors of 33: 27 28 32 34 38 39, number of others: 41
neighbors of 34: 28 29 33 35 39 40, number of others: 41
neighbors of 35: 29 34 40 41, number of others: 43
neighbors of 36: 30 31 37 42, number of others: 43
neighbors of 37: 31 32 36 38 42 43, number of others: 41
neighbors of 38: 32 33 37 39 43 44, number of others: 41
neighbors of 39: 33 34 38 40 44 45, number of others: 41
neighbors of 40: 34 35 39 41 45 46, number of others: 41
neighbors of 41: 35 40 46 47, number of others: 43
neighbors of 42: 36 37 43, number of others: 44
neighbors of 43: 37 38 42 44, number of others: 43
neighbors of 44: 38 39 43 45, number of others: 43
neighbors of 45: 39 40 44 46, number of others: 43
neighbors of 46: 40 41 45 47, number of others: 43
neighbors of 47: 41 46, number of others: 45
Run model...
Preprocess model 0% ...Preprocess model 16% ...Preprocess model 32% ...Preprocess model 48% ...Preprocess model 66% ...Preprocess model 84% ...Preprocess model 100% ...
Close model 0% ...Close model 9% ...Close model 18% ...Close model 27% ...Close model 36% ...Close model 45% ...Close model 54% ...Close model 63% ...Close model 72% ...Close model 81% ...Close model 91% ...Close model 100% ...
Run param...
Run solver...
Initialize threads 0% ...Initialize threads 100% ...
Push initial solutions 0% ...Push initial solutions 100% ...

Model: 
  expressions = 44734, operands = 116736
  decisions = 13824, constraints = 336, objectives = 1

Param: 
  time limit = 90 sec, no iteration limit
  seed = 901, nb threads = 1, annealing level = 1

Objectives:
  Obj 0: maximize, no bound

Phases:
  Phase 0: time limit = 90 sec, no iteration limit, optimized objective = 0


Computed bounds:
  Obj 0: upper bound = 0.664125


Phase 0:
[0 sec, 0 itr]: infeas = (336, 336, 576), mov = 0, inf < 0.1%, acc < 0.1%, imp = 0

worst case efficiency: 0.998464
[1 sec, 23653 itr]: obj = (0.0498002), mov = 23653, inf = 96%, acc = 3.5%, imp = 162

worst case efficiency: 0.62988
[2 sec, 51612 itr]: obj = (0.053779), mov = 51612, inf = 97.8%, acc = 1.9%, imp = 187

worst case efficiency: 0.632267
[3 sec, 75168 itr]: obj = (0.0568399), mov = 75168, inf = 98%, acc = 1.7%, imp = 209

worst case efficiency: 0.634104
[4 sec, 96473 itr]: obj = (0.0634487), mov = 96473, inf = 97.8%, acc = 1.8%, imp = 250

worst case efficiency: 0.638069
[5 sec, 119415 itr]: obj = (0.0708665), mov = 119415, inf = 97.5%, acc = 1.9%, imp = 309

worst case efficiency: 0.64252
[6 sec, 143650 itr]: obj = (0.0747561), mov = 143650, inf = 97.3%, acc = 2%, imp = 354

worst case efficiency: 0.644854
[7 sec, 167943 itr]: obj = (0.07688), mov = 167943, inf = 96.9%, acc = 2.2%, imp = 385

worst case efficiency: 0.646128
[8 sec, 192960 itr]: obj = (0.0774125), mov = 192960, inf = 96.7%, acc = 2.3%, imp = 397

worst case efficiency: 0.646447
[9 sec, 217327 itr]: obj = (0.0797697), mov = 217327, inf = 96.4%, acc = 2.4%, imp = 425

worst case efficiency: 0.647862
[10 sec, 241276 itr]: obj = (0.0837668), mov = 241276, inf = 96.3%, acc = 2.6%, imp = 462

worst case efficiency: 0.65026
[11 sec, 265661 itr]: obj = (0.0910804), mov = 265661, inf = 96.1%, acc = 2.7%, imp = 496

worst case efficiency: 0.654648
[12 sec, 291338 itr]: obj = (0.0915367), mov = 291338, inf = 96%, acc = 2.7%, imp = 507

worst case efficiency: 0.654922
[13 sec, 317082 itr]: obj = (0.100762), mov = 317082, inf = 96%, acc = 2.7%, imp = 553

worst case efficiency: 0.660457
[14 sec, 344532 itr]: obj = (0.102566), mov = 344532, inf = 96.1%, acc = 2.6%, imp = 587

worst case efficiency: 0.661539
[15 sec, 370818 itr]: obj = (0.104369), mov = 370818, inf = 96.1%, acc = 2.5%, imp = 614

worst case efficiency: 0.662622
[16 sec, 396946 itr]: obj = (0.112737), mov = 396946, inf = 96.1%, acc = 2.5%, imp = 678

worst case efficiency: 0.667642
[17 sec, 423669 itr]: obj = (0.115518), mov = 423669, inf = 96.1%, acc = 2.4%, imp = 714

worst case efficiency: 0.669311
[18 sec, 450139 itr]: obj = (0.118101), mov = 450139, inf = 96.2%, acc = 2.4%, imp = 737

worst case efficiency: 0.670861
[19 sec, 476375 itr]: obj = (0.123115), mov = 476375, inf = 96.2%, acc = 2.4%, imp = 773

worst case efficiency: 0.673869
[20 sec, 501615 itr]: obj = (0.125789), mov = 501615, inf = 96.2%, acc = 2.4%, imp = 796

worst case efficiency: 0.675473
[21 sec, 528284 itr]: obj = (0.12695), mov = 528284, inf = 96.2%, acc = 2.3%, imp = 809

worst case efficiency: 0.67617
[22 sec, 555108 itr]: obj = (0.128703), mov = 555108, inf = 96.2%, acc = 2.3%, imp = 824

worst case efficiency: 0.677222
[23 sec, 581585 itr]: obj = (0.134461), mov = 581585, inf = 96.3%, acc = 2.2%, imp = 851

worst case efficiency: 0.680677
[24 sec, 607983 itr]: obj = (0.135225), mov = 607983, inf = 96.3%, acc = 2.2%, imp = 861

worst case efficiency: 0.681135
[25 sec, 633910 itr]: obj = (0.137579), mov = 633910, inf = 96.4%, acc = 2.1%, imp = 890

worst case efficiency: 0.682547
[26 sec, 658125 itr]: obj = (0.138541), mov = 658125, inf = 96.4%, acc = 2.1%, imp = 913

worst case efficiency: 0.683124
[27 sec, 682938 itr]: obj = (0.1388), mov = 682938, inf = 96.4%, acc = 2%, imp = 922

worst case efficiency: 0.68328
[28 sec, 709528 itr]: obj = (0.139012), mov = 709528, inf = 96.5%, acc = 2%, imp = 931

worst case efficiency: 0.683407
[29 sec, 735185 itr]: obj = (0.139759), mov = 735185, inf = 96.5%, acc = 2%, imp = 953

worst case efficiency: 0.683855
[30 sec, 764217 itr]: obj = (0.141237), mov = 764217, inf = 96.5%, acc = 1.9%, imp = 976

worst case efficiency: 0.684742
[31 sec, 799796 itr]: obj = (0.141492), mov = 799796, inf = 96.5%, acc = 1.9%, imp = 990

worst case efficiency: 0.684895
[32 sec, 835439 itr]: obj = (0.141649), mov = 835439, inf = 96.5%, acc = 1.9%, imp = 1005

worst case efficiency: 0.68499
[33 sec, 871382 itr]: obj = (0.141831), mov = 871382, inf = 96.5%, acc = 1.8%, imp = 1018

worst case efficiency: 0.685098
[34 sec, 907609 itr]: obj = (0.1427), mov = 907609, inf = 96.5%, acc = 1.8%, imp = 1040

worst case efficiency: 0.68562
[35 sec, 944906 itr]: obj = (0.142937), mov = 944906, inf = 96.5%, acc = 1.8%, imp = 1049

worst case efficiency: 0.685762
[36 sec, 981984 itr]: obj = (0.142937), mov = 981984, inf = 96.5%, acc = 1.7%, imp = 1049

worst case efficiency: 0.685762
[37 sec, 1017696 itr]: obj = (0.143299), mov = 1017696, inf = 96.4%, acc = 1.7%, imp = 1062

worst case efficiency: 0.685979
[38 sec, 1052704 itr]: obj = (0.143726), mov = 1052704, inf = 96.4%, acc = 1.7%, imp = 1076

worst case efficiency: 0.686236
[39 sec, 1088597 itr]: obj = (0.143935), mov = 1088597, inf = 96.4%, acc = 1.7%, imp = 1082

worst case efficiency: 0.686361
[40 sec, 1123300 itr]: obj = (0.144323), mov = 1123300, inf = 96.4%, acc = 1.7%, imp = 1089

worst case efficiency: 0.686594
[41 sec, 1159619 itr]: obj = (0.144355), mov = 1159619, inf = 96.4%, acc = 1.7%, imp = 1093

worst case efficiency: 0.686613
[42 sec, 1196231 itr]: obj = (0.144478), mov = 1196231, inf = 96.4%, acc = 1.7%, imp = 1098

worst case efficiency: 0.686687
[43 sec, 1232183 itr]: obj = (0.144478), mov = 1232183, inf = 96.4%, acc = 1.7%, imp = 1099

worst case efficiency: 0.686687
[44 sec, 1268548 itr]: obj = (0.144483), mov = 1268548, inf = 96.3%, acc = 1.7%, imp = 1100

worst case efficiency: 0.68669
[45 sec, 1304328 itr]: obj = (0.144633), mov = 1304328, inf = 96.3%, acc = 1.7%, imp = 1104

worst case efficiency: 0.68678
[46 sec, 1339759 itr]: obj = (0.144692), mov = 1339759, inf = 96.3%, acc = 1.7%, imp = 1110

worst case efficiency: 0.686815
[47 sec, 1374752 itr]: obj = (0.147219), mov = 1374752, inf = 96.3%, acc = 1.7%, imp = 1146

worst case efficiency: 0.688331
[48 sec, 1411449 itr]: obj = (0.147467), mov = 1411449, inf = 96.3%, acc = 1.6%, imp = 1164

worst case efficiency: 0.68848
[49 sec, 1448018 itr]: obj = (0.147505), mov = 1448018, inf = 96.3%, acc = 1.6%, imp = 1167

worst case efficiency: 0.688503
[50 sec, 1483613 itr]: obj = (0.147532), mov = 1483613, inf = 96.3%, acc = 1.6%, imp = 1171

worst case efficiency: 0.688519
[51 sec, 1519672 itr]: obj = (0.147559), mov = 1519672, inf = 96.3%, acc = 1.6%, imp = 1175

worst case efficiency: 0.688535
[52 sec, 1555734 itr]: obj = (0.148217), mov = 1555734, inf = 96.2%, acc = 1.6%, imp = 1196

worst case efficiency: 0.68893
[53 sec, 1591019 itr]: obj = (0.148252), mov = 1591019, inf = 96.2%, acc = 1.6%, imp = 1201

worst case efficiency: 0.688951
[54 sec, 1627713 itr]: obj = (0.14837), mov = 1627713, inf = 96.2%, acc = 1.6%, imp = 1213

worst case efficiency: 0.689022
[55 sec, 1663478 itr]: obj = (0.149768), mov = 1663478, inf = 96.2%, acc = 1.6%, imp = 1238

worst case efficiency: 0.689861
[56 sec, 1698269 itr]: obj = (0.149813), mov = 1698269, inf = 96.2%, acc = 1.6%, imp = 1241

worst case efficiency: 0.689888
[57 sec, 1734346 itr]: obj = (0.149881), mov = 1734346, inf = 96.2%, acc = 1.6%, imp = 1247

worst case efficiency: 0.689929
[58 sec, 1770418 itr]: obj = (0.149939), mov = 1770418, inf = 96.2%, acc = 1.6%, imp = 1252

worst case efficiency: 0.689963
[59 sec, 1806490 itr]: obj = (0.149956), mov = 1806490, inf = 96.2%, acc = 1.6%, imp = 1254

worst case efficiency: 0.689973
[60 sec, 1843107 itr]: obj = (0.149996), mov = 1843107, inf = 96.2%, acc = 1.5%, imp = 1259

worst case efficiency: 0.689998
[61 sec, 1878927 itr]: obj = (0.150006), mov = 1878927, inf = 96.2%, acc = 1.5%, imp = 1262

worst case efficiency: 0.690004
[62 sec, 1915648 itr]: obj = (0.150021), mov = 1915648, inf = 96.2%, acc = 1.5%, imp = 1265

worst case efficiency: 0.690013
[63 sec, 1951255 itr]: obj = (0.150023), mov = 1951255, inf = 96.2%, acc = 1.5%, imp = 1266

worst case efficiency: 0.690014
[64 sec, 1987349 itr]: obj = (0.150028), mov = 1987349, inf = 96.1%, acc = 1.5%, imp = 1268

worst case efficiency: 0.690017
[65 sec, 2023318 itr]: obj = (0.150028), mov = 2023318, inf = 96.1%, acc = 1.5%, imp = 1268

worst case efficiency: 0.690017
[66 sec, 2059277 itr]: obj = (0.150028), mov = 2059277, inf = 96.1%, acc = 1.5%, imp = 1268

worst case efficiency: 0.690017
[67 sec, 2095218 itr]: obj = (0.15049), mov = 2095218, inf = 96.1%, acc = 1.5%, imp = 1278

worst case efficiency: 0.690294
[68 sec, 2131626 itr]: obj = (0.150649), mov = 2131626, inf = 96.1%, acc = 1.5%, imp = 1294

worst case efficiency: 0.690389
[69 sec, 2168859 itr]: obj = (0.150679), mov = 2168859, inf = 96.1%, acc = 1.5%, imp = 1297

worst case efficiency: 0.690407
[70 sec, 2205148 itr]: obj = (0.150693), mov = 2205148, inf = 96.1%, acc = 1.5%, imp = 1302

worst case efficiency: 0.690416
[71 sec, 2241989 itr]: obj = (0.150713), mov = 2241989, inf = 96.1%, acc = 1.5%, imp = 1304

worst case efficiency: 0.690428
[72 sec, 2278500 itr]: obj = (0.150718), mov = 2278500, inf = 96.1%, acc = 1.5%, imp = 1307

worst case efficiency: 0.690431
[73 sec, 2315096 itr]: obj = (0.150747), mov = 2315096, inf = 96.1%, acc = 1.5%, imp = 1310

worst case efficiency: 0.690448
[74 sec, 2351091 itr]: obj = (0.150747), mov = 2351091, inf = 96.1%, acc = 1.5%, imp = 1312

worst case efficiency: 0.690448
[75 sec, 2388349 itr]: obj = (0.150749), mov = 2388349, inf = 96.1%, acc = 1.5%, imp = 1313

worst case efficiency: 0.690449
[76 sec, 2424643 itr]: obj = (0.150749), mov = 2424643, inf = 96.1%, acc = 1.4%, imp = 1314

worst case efficiency: 0.690449
[77 sec, 2460238 itr]: obj = (0.15075), mov = 2460238, inf = 96.1%, acc = 1.4%, imp = 1315

worst case efficiency: 0.69045
[78 sec, 2495672 itr]: obj = (0.152207), mov = 2495672, inf = 96.1%, acc = 1.4%, imp = 1340

worst case efficiency: 0.691324
[79 sec, 2531016 itr]: obj = (0.152359), mov = 2531016, inf = 96.1%, acc = 1.5%, imp = 1342

worst case efficiency: 0.691416
[80 sec, 2565330 itr]: obj = (0.152445), mov = 2565330, inf = 96%, acc = 1.5%, imp = 1344

worst case efficiency: 0.691467
[81 sec, 2599549 itr]: obj = (0.152445), mov = 2599549, inf = 96%, acc = 1.5%, imp = 1344

worst case efficiency: 0.691467
[82 sec, 2635168 itr]: obj = (0.152541), mov = 2635168, inf = 96%, acc = 1.5%, imp = 1347

worst case efficiency: 0.691525
[83 sec, 2671386 itr]: obj = (0.152541), mov = 2671386, inf = 96.1%, acc = 1.5%, imp = 1348

worst case efficiency: 0.691525
[84 sec, 2707251 itr]: obj = (0.152937), mov = 2707251, inf = 96.1%, acc = 1.5%, imp = 1353

worst case efficiency: 0.691762
[85 sec, 2744295 itr]: obj = (0.154684), mov = 2744295, inf = 96.1%, acc = 1.4%, imp = 1371

worst case efficiency: 0.69281
[86 sec, 2783020 itr]: obj = (0.155052), mov = 2783020, inf = 96.1%, acc = 1.4%, imp = 1387

worst case efficiency: 0.693031
[87 sec, 2818067 itr]: obj = (0.155568), mov = 2818067, inf = 96.1%, acc = 1.4%, imp = 1403

worst case efficiency: 0.693341
[88 sec, 2851704 itr]: obj = (0.155674), mov = 2851704, inf = 96.1%, acc = 1.4%, imp = 1416

worst case efficiency: 0.693404
[89 sec, 2886389 itr]: obj = (0.155935), mov = 2886389, inf = 96.1%, acc = 1.4%, imp = 1428

worst case efficiency: 0.693561
[90 sec, 2920596 itr]: obj = (0.156144), mov = 2920596, inf = 96.1%, acc = 1.4%, imp = 1439

worst case efficiency: 0.693687
[90 sec, 2920596 itr]: obj = (0.156144), mov = 2920596, inf = 96.1%, acc = 1.4%, imp = 1439

worst case efficiency: 0.693687
2920596 iterations, 2920596 moves performed in 90 seconds
Feasible solution: obj = (0.156144)

Run output...
FINAL SOLUTION
Worst case efficiency: 0.693687
Mapping: 0->19, 1->11, 2->26, 3->13, 4->29, 5->44, 6->23, 7->6, 8->24, 9->21, 10->11, 11->4, 12->34, 13->15, 14->30, 15->2, 16->10, 17->22, 18->35, 19->8, 20->8, 21->31, 22->27, 23->25, 24->39, 25->21, 26->36, 27->42, 28->4, 29->26, 30->25, 31->39, 32->7, 33->32, 34->4, 35->18, 36->36, 37->37, 38->20, 39->24, 40->27, 41->9, 42->39, 43->13, 44->40, 45->9, 46->44, 47->34, 48->47, 49->9, 50->17, 51->16, 52->33, 53->41, 54->42, 55->15, 56->15, 57->14, 58->12, 59->11, 60->19, 61->22, 62->16, 63->13, 64->34, 65->28, 66->37, 67->24, 68->26, 69->9, 70->43, 71->29, 72->10, 73->4, 74->11, 75->5, 76->47, 77->43, 78->6, 79->16, 80->31, 81->29, 82->7, 83->13, 84->31, 85->42, 86->29, 87->26, 88->12, 89->35, 90->37, 91->47, 92->0, 93->22, 94->19, 95->34, 96->13, 97->5, 98->3, 99->12, 100->5, 101->41, 102->29, 103->23, 104->16, 105->6, 106->38, 107->36, 108->41, 109->14, 110->22, 111->28, 112->46, 113->30, 114->40, 115->21, 116->17, 117->41, 118->45, 119->10, 120->16, 121->46, 122->14, 123->24, 124->11, 125->29, 126->1, 127->20, 128->42, 129->10, 130->36, 131->3, 132->18, 133->25, 134->37, 135->1, 136->35, 137->12, 138->7, 139->18, 140->7, 141->44, 142->22, 143->27, 144->18, 145->33, 146->15, 147->35, 148->44, 149->32, 150->40, 151->5, 152->38, 153->28, 154->2, 155->37, 156->47, 157->3, 158->32, 159->18, 160->4, 161->40, 162->38, 163->0, 164->6, 165->46, 166->32, 167->34, 168->36, 169->24, 170->44, 171->8, 172->33, 173->39, 174->27, 175->8, 176->1, 177->31, 178->41, 179->27, 180->40, 181->7, 182->19, 183->2, 184->18, 185->25, 186->22, 187->2, 188->8, 189->1, 190->20, 191->33, 192->6, 193->30, 194->23, 195->45, 196->5, 197->21, 198->9, 199->14, 200->31, 201->33, 202->34, 203->15, 204->17, 205->0, 206->28, 207->4, 208->38, 209->14, 210->1, 211->12, 212->23, 213->19, 214->14, 215->46, 216->32, 217->42, 218->44, 219->3, 220->6, 221->47, 222->20, 223->19, 224->9, 225->46, 226->10, 227->42, 228->35, 229->5, 230->32, 231->11, 232->39, 233->1, 234->43, 235->10, 236->30, 237->28, 238->45, 239->20, 240->45, 241->38, 242->13, 243->20, 244->27, 245->17, 246->43, 247->0, 248->2, 249->37, 250->47, 251->38, 252->8, 253->23, 254->39, 255->43, 256->24, 257->0, 258->28, 259->26, 260->30, 261->25, 262->2, 263->46, 264->30, 265->21, 266->15, 267->17, 268->45, 269->12, 270->45, 271->33, 272->3, 273->26, 274->31, 275->23, 276->21, 277->3, 278->25, 279->0, 280->40, 281->43, 282->35, 283->36, 284->7, 285->16, 286->17, 287->41
Number of tasks per core:
	6	6	6	6	6	6
	6	6	6	6	6	6
	6	6	6	6	6	6
	6	6	6	6	6	6
	6	6	6	6	6	6
	6	6	6	6	6	6
	6	6	6	6	6	6
	6	6	6	6	6	6
Average CPI map:
	0.935041	1.72777	1.33189	1.62267	1.63965	2.49568
	1.5987	2.18985	2.30356	3.3365	2.29795	1.32419
	0.650683	2.54488	4.99196	6.63163	3.78844	1.42478
	1.33548	2.42233	2.66516	2.6495	2.43425	1.32997
	1.77292	2.85687	2.83623	2.45324	2.48311	1.14043
	1.74848	6.0338	2.85604	5.68813	5.3528	1.13894
	1.00836	2.74581	2.86628	2.68665	2.58316	1.17615
	0.858285	1.96772	2.84582	2.28358	2.31926	0.625438
Efficiency map:
	0.99722	0.921112	0.910231	0.929444	0.91243	1.00307
	0.724692	0.694187	0.700558	0.694361	0.69397	0.839881
	0.817408	0.70249	0.712742	0.832542	0.696329	0.825828
	0.824527	0.693696	0.694047	0.694134	0.70665	0.92004
	0.82004	0.713119	0.707428	0.6998	0.693944	0.796317
	0.854151	0.792241	0.704943	0.714397	0.716233	0.817401
	0.806766	0.723799	0.727691	0.69709	0.737047	0.807523
	0.805376	0.693687	0.744527	0.698289	0.758323	0.769007
==============================================================================
Local Solver optimizer for EML demonstration
==============================================================================

Option values: --wld-idx 16 --global-tlim 90 --seed 901

Starting the Optimization Process
