==============================================================================
LNS optimizer for EML demonstration
==============================================================================

Option values: --wld-idx 10 --prec 10000 --step 0 --global-tlim 90 --global-iter 1000 --local-tlim 3 --local-nsol 1 --restart-base 100 --restart-strat luby --seed 601

Starting the Optimization Process
reserved_tasks None
Finding a first solution
LNS iteration #0 ========================================
- worst case average CPI: 2.169
- worst case efficiency: 0.635
- efficiency to beat: 0.635
- normalized lower bound 669
--- checking solution
--- solution ok! Maximum rounding error: 0.000064
- solution found, obj var is: 695
- de-normalized obj var: 0.641700
- time (local/global): 0.000/0.000
- branches (local/global): 16/16
- fails (local/global): 0/0
- lns time: 0.006000
- lns branches: 16
- lns fails: 0
LNS iteration #1 ========================================
- worst case average CPI: 2.169
- worst case efficiency: 0.638
- efficiency to beat: 0.638
- normalized lower bound 724
--- checking solution
--- solution ok! Maximum rounding error: 0.000065
- solution found, obj var is: 1102
- de-normalized obj var: 0.666120
- time (local/global): 0.000/0.006
- branches (local/global): 20/36
- fails (local/global): 2/2
- lns time: 0.005000
- lns branches: 20
- lns fails: 2
LNS iteration #2 ========================================
- worst case average CPI: 2.079
- worst case efficiency: 0.642
- efficiency to beat: 0.642
- normalized lower bound 786
--- checking solution
--- solution ok! Maximum rounding error: 0.000080
- solution found, obj var is: 808
- de-normalized obj var: 0.648480
- time (local/global): 0.001/0.012
- branches (local/global): 71/107
- fails (local/global): 25/27
- lns time: 0.007000
- lns branches: 71
- lns fails: 25
LNS iteration #3 ========================================
- worst case average CPI: 2.079
- worst case efficiency: 0.647
- efficiency to beat: 0.647
- normalized lower bound 871
--- checking solution
--- solution ok! Maximum rounding error: 0.000036
- solution found, obj var is: 1852
- de-normalized obj var: 0.711120
- time (local/global): 0.003/0.021
- branches (local/global): 244/351
- fails (local/global): 102/129
- lns time: 0.009000
- lns branches: 244
- lns fails: 102
LNS iteration #4 ========================================
- worst case average CPI: 2.079
- worst case efficiency: 0.648
- efficiency to beat: 0.648
- normalized lower bound 891
--- checking solution
--- solution ok! Maximum rounding error: 0.000000
- solution found, obj var is: 1221
- de-normalized obj var: 0.673260
- time (local/global): 0.001/0.028
- branches (local/global): 24/375
- fails (local/global): 1/130
- lns time: 0.006000
- lns branches: 24
- lns fails: 1
LNS iteration #5 ========================================
- worst case average CPI: 2.079
- worst case efficiency: 0.649
- efficiency to beat: 0.649
- normalized lower bound 908
--- checking solution
--- solution ok! Maximum rounding error: 0.000065
- solution found, obj var is: 909
- de-normalized obj var: 0.654540
- time (local/global): 0.000/0.033
- branches (local/global): 25/400
- fails (local/global): 2/132
- lns time: 0.007000
- lns branches: 25
- lns fails: 2
LNS iteration #6 ========================================
- worst case average CPI: 2.065
- worst case efficiency: 0.653
- efficiency to beat: 0.653
- normalized lower bound 962
--- checking solution
--- solution ok! Maximum rounding error: 0.000067
- solution found, obj var is: 3520
- de-normalized obj var: 0.811200
- time (local/global): 0.001/0.041
- branches (local/global): 22/422
- fails (local/global): 0/132
- lns time: 0.006000
- lns branches: 22
- lns fails: 0
LNS iteration #7 ========================================
- worst case average CPI: 1.830
- worst case efficiency: 0.654
- efficiency to beat: 0.654
- normalized lower bound 992
--- checking solution
--- solution ok! Maximum rounding error: 0.000196
- solution found, obj var is: 1168
- de-normalized obj var: 0.670080
- time (local/global): 0.001/0.047
- branches (local/global): 71/493
- fails (local/global): 25/157
- lns time: 0.007000
- lns branches: 71
- lns fails: 25
LNS iteration #8 ========================================
- worst case average CPI: 1.657
- worst case efficiency: 0.657
- efficiency to beat: 0.657
- normalized lower bound 1030
--- checking solution
--- solution ok! Maximum rounding error: 0.000024
- solution found, obj var is: 1081
- de-normalized obj var: 0.664860
- time (local/global): 0.001/0.054
- branches (local/global): 22/515
- fails (local/global): 0/157
- lns time: 0.006000
- lns branches: 22
- lns fails: 0
LNS iteration #9 ========================================
- worst case average CPI: 0.892
- worst case efficiency: 0.659
- efficiency to beat: 0.659
- normalized lower bound 1073
--- checking solution
--- solution ok! Maximum rounding error: 0.000132
- solution found, obj var is: 1247
- de-normalized obj var: 0.674820
- time (local/global): 0.001/0.060
- branches (local/global): 23/538
- fails (local/global): 1/158
- lns time: 0.006000
- lns branches: 23
- lns fails: 1
LNS iteration #10 ========================================
- worst case average CPI: 0.892
- worst case efficiency: 0.665
- efficiency to beat: 0.665
- normalized lower bound 1164
--- checking solution
--- solution ok! Maximum rounding error: 0.000001
- solution found, obj var is: 1525
- de-normalized obj var: 0.691500
- time (local/global): 0.001/0.066
- branches (local/global): 22/560
- fails (local/global): 0/158
- lns time: 0.006000
- lns branches: 22
- lns fails: 0
LNS iteration #11 ========================================
- worst case average CPI: 0.892
- worst case efficiency: 0.665
- efficiency to beat: 0.665
- normalized lower bound 1168
--- checking solution
--- solution ok! Maximum rounding error: 0.000040
- solution found, obj var is: 1280
- de-normalized obj var: 0.676800
- time (local/global): 0.001/0.072
- branches (local/global): 22/582
- fails (local/global): 0/158
- lns time: 0.007000
- lns branches: 22
- lns fails: 0
LNS iteration #12 ========================================
- worst case average CPI: 0.892
- worst case efficiency: 0.666
- efficiency to beat: 0.666
- normalized lower bound 1180
--- checking solution
--- solution ok! Maximum rounding error: 0.000052
- solution found, obj var is: 1512
- de-normalized obj var: 0.690720
- time (local/global): 0.005/0.083
- branches (local/global): 475/1057
- fails (local/global): 220/378
- lns time: 0.011000
- lns branches: 475
- lns fails: 220
LNS iteration #13 ========================================
- worst case average CPI: 0.892
- worst case efficiency: 0.666
- efficiency to beat: 0.666
- normalized lower bound 1190
--- checking solution
--- solution ok! Maximum rounding error: 0.000040
- solution found, obj var is: 1223
- de-normalized obj var: 0.673380
- time (local/global): 0.018/0.107
- branches (local/global): 1091/2148
- fails (local/global): 500/878
- lns time: 0.023000
- lns branches: 1091
- lns fails: 500
LNS iteration #14 ========================================
- worst case average CPI: 0.892
- worst case efficiency: 0.672
- efficiency to beat: 0.672
- normalized lower bound 1279
--- checking solution
--- solution ok! Maximum rounding error: 0.000040
- solution found, obj var is: 1280
- de-normalized obj var: 0.676800
- time (local/global): 0.019/0.131
- branches (local/global): 1093/3241
- fails (local/global): 504/1382
- lns time: 0.025000
- lns branches: 1093
- lns fails: 504
LNS iteration #15 ========================================
- worst case average CPI: 0.892
- worst case efficiency: 0.673
- efficiency to beat: 0.673
- normalized lower bound 1306
--- checking solution
--- solution ok! Maximum rounding error: 0.000207
- solution found, obj var is: 2057
- de-normalized obj var: 0.723420
- time (local/global): 0.001/0.138
- branches (local/global): 55/3296
- fails (local/global): 17/1399
- lns time: 0.008000
- lns branches: 55
- lns fails: 17
LNS iteration #16 ========================================
- worst case average CPI: 0.892
- worst case efficiency: 0.675
- efficiency to beat: 0.675
- normalized lower bound 1332
--- checking solution
--- solution ok! Maximum rounding error: 0.000069
- solution found, obj var is: 1659
- de-normalized obj var: 0.699540
- time (local/global): 0.001/0.146
- branches (local/global): 110/3406
- fails (local/global): 46/1445
- lns time: 0.007000
- lns branches: 110
- lns fails: 46
LNS iteration #17 ========================================
- worst case average CPI: 0.892
- worst case efficiency: 0.676
- efficiency to beat: 0.676
- normalized lower bound 1352
--- checking solution
--- solution ok! Maximum rounding error: 0.000022
- solution found, obj var is: 1356
- de-normalized obj var: 0.681360
- time (local/global): 0.000/0.152
- branches (local/global): 21/3427
- fails (local/global): 0/1445
- lns time: 0.006000
- lns branches: 21
- lns fails: 0
LNS iteration #18 ========================================
- worst case average CPI: 0.892
- worst case efficiency: 0.678
- efficiency to beat: 0.678
- normalized lower bound 1379
--- checking solution
--- solution ok! Maximum rounding error: 0.000058
- solution found, obj var is: 1414
- de-normalized obj var: 0.684840
- time (local/global): 0.000/0.158
- branches (local/global): 19/3446
- fails (local/global): 2/1447
- lns time: 0.005000
- lns branches: 19
- lns fails: 2
LNS iteration #19 ========================================
- worst case average CPI: 0.892
- worst case efficiency: 0.680
- efficiency to beat: 0.680
- normalized lower bound 1418
--- checking solution
--- solution ok! Maximum rounding error: 0.000000
- solution found, obj var is: 1901
- de-normalized obj var: 0.714060
- time (local/global): 0.002/0.165
- branches (local/global): 80/3526
- fails (local/global): 30/1477
- lns time: 0.007000
- lns branches: 80
- lns fails: 30
LNS iteration #20 ========================================
- worst case average CPI: 0.892
- worst case efficiency: 0.680
- efficiency to beat: 0.680
- normalized lower bound 1421
--- checking solution
--- solution ok! Maximum rounding error: 0.000223
- solution found, obj var is: 1477
- de-normalized obj var: 0.688620
- time (local/global): 0.015/0.185
- branches (local/global): 895/4421
- fails (local/global): 413/1890
- lns time: 0.021000
- lns branches: 895
- lns fails: 413
LNS iteration #21 ========================================
- worst case average CPI: 0.892
- worst case efficiency: 0.681
- efficiency to beat: 0.681
- normalized lower bound 1427
--- checking solution
--- solution ok! Maximum rounding error: 0.000050
- solution found, obj var is: 1434
- de-normalized obj var: 0.686040
- time (local/global): 0.013/0.204
- branches (local/global): 1088/5509
- fails (local/global): 501/2391
- lns time: 0.018000
- lns branches: 1088
- lns fails: 501
LNS iteration #22 ========================================
- worst case average CPI: 0.892
- worst case efficiency: 0.682
- efficiency to beat: 0.682
- normalized lower bound 1459
--- checking solution
--- solution ok! Maximum rounding error: 0.000087
- solution found, obj var is: 1639
- de-normalized obj var: 0.698340
- time (local/global): 0.002/0.211
- branches (local/global): 56/5565
- fails (local/global): 18/2409
- lns time: 0.007000
- lns branches: 56
- lns fails: 18
LNS iteration #23 ========================================
- worst case average CPI: 0.892
- worst case efficiency: 0.683
- efficiency to beat: 0.683
- normalized lower bound 1472
--- checking solution
--- solution ok! Maximum rounding error: 0.000069
- solution found, obj var is: 1679
- de-normalized obj var: 0.700740
- time (local/global): 0.019/0.235
- branches (local/global): 1084/6649
- fails (local/global): 503/2912
- lns time: 0.025000
- lns branches: 1084
- lns fails: 503
LNS iteration #24 ========================================
- worst case average CPI: 0.892
- worst case efficiency: 0.685
- efficiency to beat: 0.685
- normalized lower bound 1502
--- checking solution
--- solution ok! Maximum rounding error: 0.000133
- solution found, obj var is: 1645
- de-normalized obj var: 0.698700
- time (local/global): 0.003/0.244
- branches (local/global): 250/6899
- fails (local/global): 107/3019
- lns time: 0.010000
- lns branches: 250
- lns fails: 107
LNS iteration #25 ========================================
- worst case average CPI: 0.892
- worst case efficiency: 0.686
- efficiency to beat: 0.686
- normalized lower bound 1521
--- checking solution
--- solution ok! Maximum rounding error: 0.000017
- solution found, obj var is: 1524
- de-normalized obj var: 0.691440
- time (local/global): 0.000/0.251
- branches (local/global): 19/6918
- fails (local/global): 0/3019
- lns time: 0.006000
- lns branches: 19
- lns fails: 0
LNS iteration #26 ========================================
- worst case average CPI: 0.892
- worst case efficiency: 0.689
- efficiency to beat: 0.689
- normalized lower bound 1571
--- checking solution
--- solution ok! Maximum rounding error: 0.000040
- solution found, obj var is: 1890
- de-normalized obj var: 0.713400
- time (local/global): 0.001/0.258
- branches (local/global): 61/6979
- fails (local/global): 20/3039
- lns time: 0.007000
- lns branches: 61
- lns fails: 20
LNS iteration #27 ========================================
- worst case average CPI: 0.892
- worst case efficiency: 0.691
- efficiency to beat: 0.691
- normalized lower bound 1602
--- checking solution
--- solution ok! Maximum rounding error: 0.000001
- solution found, obj var is: 2329
- de-normalized obj var: 0.739740
- time (local/global): 0.002/0.266
- branches (local/global): 228/7207
- fails (local/global): 100/3139
- lns time: 0.007000
- lns branches: 228
- lns fails: 100
LNS iteration #28 ========================================
- worst case average CPI: 0.892
- worst case efficiency: 0.695
- efficiency to beat: 0.695
- normalized lower bound 1673
--- checking solution
--- solution ok! Maximum rounding error: 0.000019
- solution found, obj var is: 1801
- de-normalized obj var: 0.708060
- time (local/global): 0.001/0.272
- branches (local/global): 26/7233
- fails (local/global): 3/3142
- lns time: 0.006000
- lns branches: 26
- lns fails: 3
LNS iteration #29 ========================================
- worst case average CPI: 0.892
- worst case efficiency: 0.699
- efficiency to beat: 0.699
- normalized lower bound 1730
--- checking solution
--- solution ok! Maximum rounding error: 0.000038
- solution found, obj var is: 1737
- de-normalized obj var: 0.704220
- time (local/global): 0.002/0.279
- branches (local/global): 86/7319
- fails (local/global): 33/3175
- lns time: 0.007000
- lns branches: 86
- lns fails: 33
LNS iteration #30 ========================================
- worst case average CPI: 0.892
- worst case efficiency: 0.701
- efficiency to beat: 0.701
- normalized lower bound 1761
--- checking solution
--- solution ok! Maximum rounding error: 0.000069
- solution found, obj var is: 2227
- de-normalized obj var: 0.733620
- time (local/global): 0.005/0.289
- branches (local/global): 260/7579
- fails (local/global): 112/3287
- lns time: 0.015000
- lns branches: 260
- lns fails: 112
LNS iteration #31 ========================================
- worst case average CPI: 0.892
- worst case efficiency: 0.704
- efficiency to beat: 0.704
- normalized lower bound 1814
--- checking solution
--- solution ok! Maximum rounding error: 0.000063
- solution found, obj var is: 2790
- de-normalized obj var: 0.767400
- time (local/global): 0.016/0.315
- branches (local/global): 1109/8688
- fails (local/global): 514/3801
- lns time: 0.022000
- lns branches: 1109
- lns fails: 514
LNS iteration #32 ========================================
- worst case average CPI: 0.892
- worst case efficiency: 0.705
- efficiency to beat: 0.705
- normalized lower bound 1838
--- checking solution
--- solution ok! Maximum rounding error: 0.000039
- solution found, obj var is: 1981
- de-normalized obj var: 0.718860
- time (local/global): 0.001/0.322
- branches (local/global): 22/8710
- fails (local/global): 1/3802
- lns time: 0.006000
- lns branches: 22
- lns fails: 1
LNS iteration #33 ========================================
- worst case average CPI: 0.892
- worst case efficiency: 0.706
- efficiency to beat: 0.706
- normalized lower bound 1858
--- checking solution
--- solution ok! Maximum rounding error: 0.000104
- solution found, obj var is: 2070
- de-normalized obj var: 0.724200
- time (local/global): 0.011/0.338
- branches (local/global): 879/9589
- fails (local/global): 403/4205
- lns time: 0.017000
- lns branches: 879
- lns fails: 403
LNS iteration #34 ========================================
- worst case average CPI: 0.892
- worst case efficiency: 0.708
- efficiency to beat: 0.708
- normalized lower bound 1884
--- checking solution
--- solution ok! Maximum rounding error: 0.000139
- solution found, obj var is: 1921
- de-normalized obj var: 0.715260
- time (local/global): 0.001/0.345
- branches (local/global): 21/9610
- fails (local/global): 1/4206
- lns time: 0.006000
- lns branches: 21
- lns fails: 1
LNS iteration #35 ========================================
- worst case average CPI: 0.892
- worst case efficiency: 0.709
- efficiency to beat: 0.709
- normalized lower bound 1905
--- checking solution
--- solution ok! Maximum rounding error: 0.000059
- solution found, obj var is: 1915
- de-normalized obj var: 0.714900
- time (local/global): 0.022/0.372
- branches (local/global): 1511/11121
- fails (local/global): 705/4911
- lns time: 0.027000
- lns branches: 1511
- lns fails: 705
LNS iteration #36 ========================================
- worst case average CPI: 0.892
- worst case efficiency: 0.712
- efficiency to beat: 0.712
- normalized lower bound 1958
--- checking solution
--- solution ok! Maximum rounding error: 0.000086
- solution found, obj var is: 2095
- de-normalized obj var: 0.725700
- time (local/global): 0.007/0.384
- branches (local/global): 236/11357
- fails (local/global): 100/5011
- lns time: 0.012000
- lns branches: 236
- lns fails: 100
LNS iteration #37 ========================================
- worst case average CPI: 0.892
- worst case efficiency: 0.711
- efficiency to beat: 0.711
- normalized lower bound 1940
--- checking solution
--- solution ok! Maximum rounding error: 0.000048
- solution found, obj var is: 2255
- de-normalized obj var: 0.735300
- time (local/global): 0.000/0.389
- branches (local/global): 22/11379
- fails (local/global): 0/5011
- lns time: 0.006000
- lns branches: 22
- lns fails: 0
LNS iteration #38 ========================================
- worst case average CPI: 0.892
- worst case efficiency: 0.714
- efficiency to beat: 0.714
- normalized lower bound 1980
--- checking solution
--- solution ok! Maximum rounding error: 0.000005
- solution found, obj var is: 1981
- de-normalized obj var: 0.718860
- time (local/global): 0.359/0.754
- branches (local/global): 27325/38704
- fails (local/global): 13190/18201
- lns time: 0.365000
- lns branches: 27325
- lns fails: 13190
LNS iteration #39 ========================================
- worst case average CPI: 0.892
- worst case efficiency: 0.714
- efficiency to beat: 0.714
- normalized lower bound 1987
--- checking solution
--- solution ok! Maximum rounding error: 0.000095
- solution found, obj var is: 2025
- de-normalized obj var: 0.721500
- time (local/global): 0.042/0.802
- branches (local/global): 2528/41232
- fails (local/global): 1201/19402
- lns time: 0.048000
- lns branches: 2528
- lns fails: 1201
LNS iteration #40 ========================================
- worst case average CPI: 0.892
- worst case efficiency: 0.718
- efficiency to beat: 0.718
- normalized lower bound 2055
--- checking solution
--- solution ok! Maximum rounding error: 0.000071
- solution found, obj var is: 2266
- de-normalized obj var: 0.735960
- time (local/global): 0.001/0.809
- branches (local/global): 24/41256
- fails (local/global): 1/19403
- lns time: 0.006000
- lns branches: 24
- lns fails: 1
LNS iteration #41 ========================================
- worst case average CPI: 0.892
- worst case efficiency: 0.719
- efficiency to beat: 0.719
- normalized lower bound 2068
--- checking solution
--- solution ok! Maximum rounding error: 0.000048
- solution found, obj var is: 2741
- de-normalized obj var: 0.764460
- time (local/global): 0.001/0.815
- branches (local/global): 22/41278
- fails (local/global): 0/19403
- lns time: 0.006000
- lns branches: 22
- lns fails: 0
LNS iteration #42 ========================================
- worst case average CPI: 0.892
- worst case efficiency: 0.720
- efficiency to beat: 0.720
- normalized lower bound 2084
--- checking solution
--- solution ok! Maximum rounding error: 0.000071
- solution found, obj var is: 2647
- de-normalized obj var: 0.758820
- time (local/global): 0.001/0.821
- branches (local/global): 16/41294
- fails (local/global): 1/19404
- lns time: 0.006000
- lns branches: 16
- lns fails: 1
LNS iteration #43 ========================================
- worst case average CPI: 0.892
- worst case efficiency: 0.723
- efficiency to beat: 0.723
- normalized lower bound 2132
--- checking solution
--- solution ok! Maximum rounding error: 0.000101
- solution found, obj var is: 2219
- de-normalized obj var: 0.733140
- time (local/global): 0.013/0.839
- branches (local/global): 895/42189
- fails (local/global): 413/19817
- lns time: 0.018000
- lns branches: 895
- lns fails: 413
LNS iteration #44 ========================================
- worst case average CPI: 0.892
- worst case efficiency: 0.723
- efficiency to beat: 0.723
- normalized lower bound 2135
--- checking solution
--- solution ok! Maximum rounding error: 0.000107
- solution found, obj var is: 2466
- de-normalized obj var: 0.747960
- time (local/global): 0.000/0.844
- branches (local/global): 20/42209
- fails (local/global): 0/19817
- lns time: 0.006000
- lns branches: 20
- lns fails: 0
LNS iteration #45 ========================================
- worst case average CPI: 0.892
- worst case efficiency: 0.724
- efficiency to beat: 0.724
- normalized lower bound 2156
--- checking solution
--- solution ok! Maximum rounding error: 0.000059
- solution found, obj var is: 2184
- de-normalized obj var: 0.731040
- time (local/global): 0.050/0.900
- branches (local/global): 3375/45584
- fails (local/global): 1601/21418
- lns time: 0.055000
- lns branches: 3375
- lns fails: 1601
LNS iteration #46 ========================================
- worst case average CPI: 0.892
- worst case efficiency: 0.728
- efficiency to beat: 0.728
- normalized lower bound 2213
--- checking solution
--- solution ok! Maximum rounding error: 0.000055
- solution found, obj var is: 2307
- de-normalized obj var: 0.738420
- time (local/global): 0.054/0.959
- branches (local/global): 4266/49850
- fails (local/global): 2010/23428
- lns time: 0.059000
- lns branches: 4266
- lns fails: 2010
LNS iteration #47 ========================================
- worst case average CPI: 0.892
- worst case efficiency: 0.728
- efficiency to beat: 0.728
- normalized lower bound 2217
--- checking solution
--- solution ok! Maximum rounding error: 0.000038
- solution found, obj var is: 2278
- de-normalized obj var: 0.736680
- time (local/global): 0.001/0.965
- branches (local/global): 35/49885
- fails (local/global): 7/23435
- lns time: 0.006000
- lns branches: 35
- lns fails: 7
LNS iteration #48 ========================================
- worst case average CPI: 0.892
- worst case efficiency: 0.731
- efficiency to beat: 0.731
- normalized lower bound 2271
--- checking solution
--- solution ok! Maximum rounding error: 0.000080
- solution found, obj var is: 2304
- de-normalized obj var: 0.738240
- time (local/global): 0.068/1.038
- branches (local/global): 3833/53718
- fails (local/global): 1815/25250
- lns time: 0.073000
- lns branches: 3833
- lns fails: 1815
LNS iteration #49 ========================================
- worst case average CPI: 0.892
- worst case efficiency: 0.733
- efficiency to beat: 0.733
- normalized lower bound 2306
--- checking solution
--- solution ok! Maximum rounding error: 0.000066
- solution found, obj var is: 2311
- de-normalized obj var: 0.738660
- time (local/global): 1.860/2.903
- branches (local/global): 96628/150346
- fails (local/global): 47292/72542
- lns time: 1.866000
- lns branches: 96628
- lns fails: 47292
LNS iteration #50 ========================================
- worst case average CPI: 0.892
- worst case efficiency: 0.734
- efficiency to beat: 0.734
- normalized lower bound 2325
--- checking solution
--- solution ok! Maximum rounding error: 0.000012
- solution found, obj var is: 2351
- de-normalized obj var: 0.741060
- time (local/global): 0.003/2.912
- branches (local/global): 239/150585
- fails (local/global): 100/72642
- lns time: 0.009000
- lns branches: 239
- lns fails: 100
LNS iteration #51 ========================================
- worst case average CPI: 0.892
- worst case efficiency: 0.737
- efficiency to beat: 0.737
- normalized lower bound 2361
--- checking solution
--- solution ok! Maximum rounding error: 0.000015
- solution found, obj var is: 2401
- de-normalized obj var: 0.744060
- time (local/global): 0.108/3.026
- branches (local/global): 6279/156864
- fails (local/global): 3019/75661
- lns time: 0.113000
- lns branches: 6279
- lns fails: 3019
LNS iteration #52 ========================================
- worst case average CPI: 0.892
- worst case efficiency: 0.737
- efficiency to beat: 0.737
- normalized lower bound 2365
--- checking solution
--- solution ok! Maximum rounding error: 0.000088
- solution found, obj var is: 2368
- de-normalized obj var: 0.742080
- time (local/global): 0.004/3.035
- branches (local/global): 306/157170
- fails (local/global): 137/75798
- lns time: 0.010000
- lns branches: 306
- lns fails: 137
LNS iteration #53 ========================================
- worst case average CPI: 0.892
- worst case efficiency: 0.738
- efficiency to beat: 0.738
- normalized lower bound 2379
--- checking solution
--- solution ok! Maximum rounding error: 0.000066
- solution found, obj var is: 2423
- de-normalized obj var: 0.745380
- time (local/global): 0.000/3.041
- branches (local/global): 28/157198
- fails (local/global): 4/75802
- lns time: 0.006000
- lns branches: 28
- lns fails: 4
LNS iteration #54 ========================================
- worst case average CPI: 0.892
- worst case efficiency: 0.738
- efficiency to beat: 0.738
- normalized lower bound 2390
--- checking solution
--- solution ok! Maximum rounding error: 0.000056
- solution found, obj var is: 2450
- de-normalized obj var: 0.747000
- time (local/global): 0.001/3.048
- branches (local/global): 24/157222
- fails (local/global): 2/75804
- lns time: 0.006000
- lns branches: 24
- lns fails: 2
LNS iteration #55 ========================================
- worst case average CPI: 0.892
- worst case efficiency: 0.740
- efficiency to beat: 0.740
- normalized lower bound 2419
--- checking solution
--- solution ok! Maximum rounding error: 0.000001
- solution found, obj var is: 2464
- de-normalized obj var: 0.747840
- time (local/global): 0.012/3.065
- branches (local/global): 884/158106
- fails (local/global): 413/76217
- lns time: 0.017000
- lns branches: 884
- lns fails: 413
LNS iteration #56 ========================================
- worst case average CPI: 0.892
- worst case efficiency: 0.741
- efficiency to beat: 0.741
- normalized lower bound 2430
--- checking solution
--- solution ok! Maximum rounding error: 0.000076
- solution found, obj var is: 2448
- de-normalized obj var: 0.746880
- time (local/global): 0.001/3.071
- branches (local/global): 67/158173
- fails (local/global): 24/76241
- lns time: 0.007000
- lns branches: 67
- lns fails: 24
LNS iteration #57 ========================================
- worst case average CPI: 1.084
- worst case efficiency: 0.742
- efficiency to beat: 0.742
- normalized lower bound 2447
--- checking solution
--- solution ok! Maximum rounding error: 0.000188
- solution found, obj var is: 2484
- de-normalized obj var: 0.749040
- time (local/global): 1.714/4.791
- branches (local/global): 108274/266447
- fails (local/global): 52976/129217
- lns time: 1.719000
- lns branches: 108274
- lns fails: 52976
LNS iteration #58 ========================================
- worst case average CPI: 1.084
- worst case efficiency: 0.742
- efficiency to beat: 0.742
- normalized lower bound 2451
--- checking solution
--- solution ok! Maximum rounding error: 0.000014
- solution found, obj var is: 2491
- de-normalized obj var: 0.749460
- time (local/global): 1.442/6.238
- branches (local/global): 85602/352049
- fails (local/global): 42195/171412
- lns time: 1.447000
- lns branches: 85602
- lns fails: 42195
LNS iteration #59 ========================================
- worst case average CPI: 1.084
- worst case efficiency: 0.744
- efficiency to beat: 0.744
- normalized lower bound 2485
--- checking solution
--- solution ok! Maximum rounding error: 0.000046
- solution found, obj var is: 2569
- de-normalized obj var: 0.754140
- time (local/global): 0.004/6.247
- branches (local/global): 288/352337
- fails (local/global): 126/171538
- lns time: 0.010000
- lns branches: 288
- lns fails: 126
LNS iteration #60 ========================================
- worst case average CPI: 1.009
- worst case efficiency: 0.746
- efficiency to beat: 0.746
- normalized lower bound 2511
--- checking solution
--- solution ok! Maximum rounding error: 0.000160
- solution found, obj var is: 2611
- de-normalized obj var: 0.756660
- time (local/global): 0.004/6.257
- branches (local/global): 246/352583
- fails (local/global): 105/171643
- lns time: 0.009000
- lns branches: 246
- lns fails: 105
LNS iteration #61 ========================================
- worst case average CPI: 1.009
- worst case efficiency: 0.747
- efficiency to beat: 0.747
- normalized lower bound 2533
--- checking solution
--- solution ok! Maximum rounding error: 0.000049
- solution found, obj var is: 2536
- de-normalized obj var: 0.752160
- time (local/global): 0.102/6.364
- branches (local/global): 5833/358416
- fails (local/global): 2798/174441
- lns time: 0.107000
- lns branches: 5833
- lns fails: 2798
LNS iteration #62 ========================================
- worst case average CPI: 1.009
- worst case efficiency: 0.749
- efficiency to beat: 0.749
- normalized lower bound 2568
--- checking solution
--- solution ok! Maximum rounding error: 0.000036
- solution found, obj var is: 2702
- de-normalized obj var: 0.762120
- time (local/global): 0.006/6.375
- branches (local/global): 457/358873
- fails (local/global): 200/174641
- lns time: 0.011000
- lns branches: 457
- lns fails: 200
LNS iteration #63 ========================================
- worst case average CPI: 1.009
- worst case efficiency: 0.750
- efficiency to beat: 0.750
- normalized lower bound 2576
--- checking solution
--- solution ok! Maximum rounding error: 0.000101
- solution found, obj var is: 2612
- de-normalized obj var: 0.756720
- time (local/global): 0.000/6.380
- branches (local/global): 15/358888
- fails (local/global): 0/174641
- lns time: 0.005000
- lns branches: 15
- lns fails: 0
LNS iteration #64 ========================================
- worst case average CPI: 1.009
- worst case efficiency: 0.750
- efficiency to beat: 0.750
- normalized lower bound 2579
--- checking solution
--- solution ok! Maximum rounding error: 0.000052
- solution found, obj var is: 2584
- de-normalized obj var: 0.755040
- time (local/global): 0.016/6.401
- branches (local/global): 1250/360138
- fails (local/global): 598/175239
- lns time: 0.021000
- lns branches: 1250
- lns fails: 598
LNS iteration #65 ========================================
- worst case average CPI: 1.009
- worst case efficiency: 0.750
- efficiency to beat: 0.750
- normalized lower bound 2584
--- checking solution
--- solution ok! Maximum rounding error: 0.000079
- solution found, obj var is: 2674
- de-normalized obj var: 0.760440
- time (local/global): 0.022/6.428
- branches (local/global): 1410/361548
- fails (local/global): 656/175895
- lns time: 0.033000
- lns branches: 1410
- lns fails: 656
LNS iteration #66 ========================================
- worst case average CPI: 1.009
- worst case efficiency: 0.751
- efficiency to beat: 0.751
- normalized lower bound 2596
--- checking solution
--- solution ok! Maximum rounding error: 0.000041
- solution found, obj var is: 3606
- de-normalized obj var: 0.816360
- time (local/global): 0.086/6.525
- branches (local/global): 6665/368213
- fails (local/global): 3200/179095
- lns time: 0.092000
- lns branches: 6665
- lns fails: 3200
LNS iteration #67 ========================================
- worst case average CPI: 1.009
- worst case efficiency: 0.751
- efficiency to beat: 0.751
- normalized lower bound 2597
--- checking solution
--- solution ok! Maximum rounding error: 0.000077
- solution found, obj var is: 2617
- de-normalized obj var: 0.757020
- time (local/global): 0.140/6.671
- branches (local/global): 9940/378153
- fails (local/global): 4786/183881
- lns time: 0.146000
- lns branches: 9940
- lns fails: 4786
LNS iteration #68 ========================================
- worst case average CPI: 1.009
- worst case efficiency: 0.751
- efficiency to beat: 0.751
- normalized lower bound 2605
--- checking solution
--- solution ok! Maximum rounding error: 0.000048
- solution found, obj var is: 2720
- de-normalized obj var: 0.763200
- time (local/global): 0.447/7.124
- branches (local/global): 23514/401667
- fails (local/global): 11383/195264
- lns time: 0.453000
- lns branches: 23514
- lns fails: 11383
LNS iteration #69 ========================================
- worst case average CPI: 1.009
- worst case efficiency: 0.751
- efficiency to beat: 0.751
- normalized lower bound 2608
--- checking solution
--- solution ok! Maximum rounding error: 0.000000
- solution found, obj var is: 2843
- de-normalized obj var: 0.770580
- time (local/global): 0.015/7.145
- branches (local/global): 868/402535
- fails (local/global): 400/195664
- lns time: 0.021000
- lns branches: 868
- lns fails: 400
LNS iteration #70 ========================================
- worst case average CPI: 0.799
- worst case efficiency: 0.754
- efficiency to beat: 0.754
- normalized lower bound 2647
--- checking solution
--- solution ok! Maximum rounding error: 0.000132
- solution found, obj var is: 2975
- de-normalized obj var: 0.778500
- time (local/global): 0.013/7.164
- branches (local/global): 873/403408
- fails (local/global): 400/196064
- lns time: 0.018000
- lns branches: 873
- lns fails: 400
LNS iteration #71 ========================================
- worst case average CPI: 0.799
- worst case efficiency: 0.755
- efficiency to beat: 0.755
- normalized lower bound 2661
--- checking solution
--- solution ok! Maximum rounding error: 0.000233
- solution found, obj var is: 2661
- de-normalized obj var: 0.759660
- time (local/global): 0.020/7.189
- branches (local/global): 1063/404471
- fails (local/global): 499/196563
- lns time: 0.026000
- lns branches: 1063
- lns fails: 499
LNS iteration #72 ========================================
- worst case average CPI: 0.799
- worst case efficiency: 0.755
- efficiency to beat: 0.755
- normalized lower bound 2673
--- checking solution
--- solution ok! Maximum rounding error: 0.000031
- solution found, obj var is: 2784
- de-normalized obj var: 0.767040
- time (local/global): 0.009/7.204
- branches (local/global): 472/404943
- fails (local/global): 213/196776
- lns time: 0.015000
- lns branches: 472
- lns fails: 213
LNS iteration #73 ========================================
- worst case average CPI: 0.799
- worst case efficiency: 0.756
- efficiency to beat: 0.756
- normalized lower bound 2681
--- checking solution
--- solution ok! Maximum rounding error: 0.000014
- solution found, obj var is: 2771
- de-normalized obj var: 0.766260
- time (local/global): 1.243/8.453
- branches (local/global): 108168/513111
- fails (local/global): 52920/249696
- lns time: 1.249000
- lns branches: 108168
- lns fails: 52920
LNS iteration #74 ========================================
- worst case average CPI: 0.612
- worst case efficiency: 0.757
- efficiency to beat: 0.757
- normalized lower bound 2698
--- checking solution
--- solution ok! Maximum rounding error: 0.000018
- solution found, obj var is: 2876
- de-normalized obj var: 0.772560
- time (local/global): 0.746/9.205
- branches (local/global): 49829/562940
- fails (local/global): 24230/273926
- lns time: 0.752000
- lns branches: 49829
- lns fails: 24230
LNS iteration #75 ========================================
- worst case average CPI: 0.612
- worst case efficiency: 0.759
- efficiency to beat: 0.759
- normalized lower bound 2738
--- checking solution
--- solution ok! Maximum rounding error: 0.000056
- solution found, obj var is: 2783
- de-normalized obj var: 0.766980
- time (local/global): 0.293/9.504
- branches (local/global): 17419/580359
- fails (local/global): 8429/282355
- lns time: 0.299000
- lns branches: 17419
- lns fails: 8429
LNS iteration #76 ========================================
- worst case average CPI: 0.612
- worst case efficiency: 0.759
- efficiency to beat: 0.759
- normalized lower bound 2739
--- checking solution
--- solution ok! Maximum rounding error: 0.000058
- solution found, obj var is: 2755
- de-normalized obj var: 0.765300
- time (local/global): 0.064/9.574
- branches (local/global): 3382/583741
- fails (local/global): 1603/283958
- lns time: 0.070000
- lns branches: 3382
- lns fails: 1603
LNS iteration #77 ========================================
- worst case average CPI: 0.612
- worst case efficiency: 0.760
- efficiency to beat: 0.760
- normalized lower bound 2751
--- checking solution
--- solution ok! Maximum rounding error: 0.000024
- solution found, obj var is: 2987
- de-normalized obj var: 0.779220
- time (local/global): 0.009/9.589
- branches (local/global): 447/584188
- fails (local/global): 201/284159
- lns time: 0.015000
- lns branches: 447
- lns fails: 201
LNS iteration #78 ========================================
- worst case average CPI: 0.612
- worst case efficiency: 0.762
- efficiency to beat: 0.762
- normalized lower bound 2792
--- checking solution
--- solution ok! Maximum rounding error: 0.000038
- solution found, obj var is: 2906
- de-normalized obj var: 0.774360
- time (local/global): 0.028/9.623
- branches (local/global): 2215/586403
- fails (local/global): 1052/285211
- lns time: 0.034000
- lns branches: 2215
- lns fails: 1052
LNS iteration #79 ========================================
- worst case average CPI: 0.612
- worst case efficiency: 0.765
- efficiency to beat: 0.765
- normalized lower bound 2833
--- checking solution
--- solution ok! Maximum rounding error: 0.000072
- solution found, obj var is: 2905
- de-normalized obj var: 0.774300
- time (local/global): 0.026/9.655
- branches (local/global): 1716/588119
- fails (local/global): 800/286011
- lns time: 0.032000
- lns branches: 1716
- lns fails: 800
LNS iteration #80 ========================================
- worst case average CPI: 0.612
- worst case efficiency: 0.765
- efficiency to beat: 0.765
- normalized lower bound 2835
--- checking solution
--- solution ok! Maximum rounding error: 0.000034
- solution found, obj var is: 2837
- de-normalized obj var: 0.770220
- time (local/global): 0.015/9.676
- branches (local/global): 933/589052
- fails (local/global): 435/286446
- lns time: 0.021000
- lns branches: 933
- lns fails: 435
LNS iteration #81 ========================================
- worst case average CPI: 0.612
- worst case efficiency: 0.766
- efficiency to beat: 0.766
- normalized lower bound 2854
--- checking solution
--- solution ok! Maximum rounding error: 0.000063
- solution found, obj var is: 2855
- de-normalized obj var: 0.771300
- time (local/global): 0.024/9.706
- branches (local/global): 1497/590549
- fails (local/global): 700/287146
- lns time: 0.030000
- lns branches: 1497
- lns fails: 700
LNS iteration #82 ========================================
- worst case average CPI: 0.612
- worst case efficiency: 0.767
- efficiency to beat: 0.767
- normalized lower bound 2863
--- checking solution
--- solution ok! Maximum rounding error: 0.000129
- solution found, obj var is: 3008
- de-normalized obj var: 0.780480
- time (local/global): 0.008/9.720
- branches (local/global): 539/591088
- fails (local/global): 243/287389
- lns time: 0.014000
- lns branches: 539
- lns fails: 243
LNS iteration #83 ========================================
- worst case average CPI: 0.612
- worst case efficiency: 0.767
- efficiency to beat: 0.767
- normalized lower bound 2872
- lns time: 3.006000
- lns branches: 172561
- lns fails: 84466
LNS iteration #84 ========================================
- worst case average CPI: 0.612
- worst case efficiency: 0.767
- efficiency to beat: 0.767
- normalized lower bound 2872
--- checking solution
--- solution ok! Maximum rounding error: 0.000022
- solution found, obj var is: 2894
- de-normalized obj var: 0.773640
- time (local/global): 1.366/14.098
- branches (local/global): 91834/855483
- fails (local/global): 44914/416769
- lns time: 1.372000
- lns branches: 91834
- lns fails: 44914
LNS iteration #85 ========================================
- worst case average CPI: 0.612
- worst case efficiency: 0.770
- efficiency to beat: 0.770
- normalized lower bound 2922
--- checking solution
--- solution ok! Maximum rounding error: 0.000000
- solution found, obj var is: 3323
- de-normalized obj var: 0.799380
- time (local/global): 0.035/14.139
- branches (local/global): 2549/858032
- fails (local/global): 1234/418003
- lns time: 0.040000
- lns branches: 2549
- lns fails: 1234
LNS iteration #86 ========================================
- worst case average CPI: 0.612
- worst case efficiency: 0.771
- efficiency to beat: 0.771
- normalized lower bound 2940
--- checking solution
--- solution ok! Maximum rounding error: 0.000068
- solution found, obj var is: 3117
- de-normalized obj var: 0.787020
- time (local/global): 0.384/14.528
- branches (local/global): 26868/884900
- fails (local/global): 13004/431007
- lns time: 0.390000
- lns branches: 26868
- lns fails: 13004
LNS iteration #87 ========================================
- worst case average CPI: 0.612
- worst case efficiency: 0.772
- efficiency to beat: 0.772
- normalized lower bound 2946
--- checking solution
--- solution ok! Maximum rounding error: 0.000059
- solution found, obj var is: 2951
- de-normalized obj var: 0.777060
- time (local/global): 0.000/14.534
- branches (local/global): 23/884923
- fails (local/global): 3/431010
- lns time: 0.006000
- lns branches: 23
- lns fails: 3
LNS iteration #88 ========================================
- worst case average CPI: 0.612
- worst case efficiency: 0.773
- efficiency to beat: 0.773
- normalized lower bound 2962
--- checking solution
--- solution ok! Maximum rounding error: 0.000106
- solution found, obj var is: 2964
- de-normalized obj var: 0.777840
- time (local/global): 0.177/14.717
- branches (local/global): 12830/897753
- fails (local/global): 6188/437198
- lns time: 0.187000
- lns branches: 12830
- lns fails: 6188
LNS iteration #89 ========================================
- worst case average CPI: 0.612
- worst case efficiency: 0.773
- efficiency to beat: 0.773
- normalized lower bound 2973
--- checking solution
--- solution ok! Maximum rounding error: 0.000071
- solution found, obj var is: 3204
- de-normalized obj var: 0.792240
- time (local/global): 0.007/14.734
- branches (local/global): 503/898256
- fails (local/global): 227/437425
- lns time: 0.013000
- lns branches: 503
- lns fails: 227
LNS iteration #90 ========================================
- worst case average CPI: 0.612
- worst case efficiency: 0.774
- efficiency to beat: 0.774
- normalized lower bound 2980
--- checking solution
--- solution ok! Maximum rounding error: 0.000060
- solution found, obj var is: 3054
- de-normalized obj var: 0.783240
- time (local/global): 0.001/14.741
- branches (local/global): 25/898281
- fails (local/global): 2/437427
- lns time: 0.006000
- lns branches: 25
- lns fails: 2
LNS iteration #91 ========================================
- worst case average CPI: 0.612
- worst case efficiency: 0.776
- efficiency to beat: 0.776
- normalized lower bound 3020
- lns time: 3.006000
- lns branches: 219714
- lns fails: 107643
LNS iteration #92 ========================================
- worst case average CPI: 0.612
- worst case efficiency: 0.776
- efficiency to beat: 0.776
- normalized lower bound 3020
- lns time: 3.006000
- lns branches: 150084
- lns fails: 73401
LNS iteration #93 ========================================
- worst case average CPI: 0.612
- worst case efficiency: 0.776
- efficiency to beat: 0.776
- normalized lower bound 3020
- lns time: 3.006000
- lns branches: 167909
- lns fails: 82151
LNS iteration #94 ========================================
- worst case average CPI: 0.612
- worst case efficiency: 0.776
- efficiency to beat: 0.776
- normalized lower bound 3020
--- checking solution
--- solution ok! Maximum rounding error: 0.000007
- solution found, obj var is: 3167
- de-normalized obj var: 0.790020
- time (local/global): 0.289/24.053
- branches (local/global): 20073/1456061
- fails (local/global): 9751/710373
- lns time: 0.298000
- lns branches: 20073
- lns fails: 9751
LNS iteration #95 ========================================
- worst case average CPI: 0.612
- worst case efficiency: 0.777
- efficiency to beat: 0.777
- normalized lower bound 3032
--- checking solution
--- solution ok! Maximum rounding error: 0.000074
- solution found, obj var is: 3046
- de-normalized obj var: 0.782760
- time (local/global): 0.001/24.063
- branches (local/global): 39/1456100
- fails (local/global): 10/710383
- lns time: 0.007000
- lns branches: 39
- lns fails: 10
LNS iteration #96 ========================================
- worst case average CPI: 0.612
- worst case efficiency: 0.778
- efficiency to beat: 0.778
- normalized lower bound 3050
- lns time: 3.005000
- lns branches: 227442
- lns fails: 112555
LNS iteration #97 ========================================
- worst case average CPI: 0.612
- worst case efficiency: 0.778
- efficiency to beat: 0.778
- normalized lower bound 3050
--- checking solution
--- solution ok! Maximum rounding error: 0.000000
- solution found, obj var is: 3169
- de-normalized obj var: 0.790140
- time (local/global): 0.287/27.361
- branches (local/global): 18207/1701749
- fails (local/global): 8807/831745
- lns time: 0.293000
- lns branches: 18207
- lns fails: 8807
LNS iteration #98 ========================================
- worst case average CPI: 0.612
- worst case efficiency: 0.780
- efficiency to beat: 0.780
- normalized lower bound 3082
--- checking solution
--- solution ok! Maximum rounding error: 0.000043
- solution found, obj var is: 3221
- de-normalized obj var: 0.793260
- time (local/global): 1.220/28.587
- branches (local/global): 71973/1773722
- fails (local/global): 35093/866838
- lns time: 1.226000
- lns branches: 71973
- lns fails: 35093
LNS iteration #99 ========================================
- worst case average CPI: 0.598
- worst case efficiency: 0.780
- efficiency to beat: 0.780
- normalized lower bound 3086
--- checking solution
--- solution ok! Maximum rounding error: 0.000059
- solution found, obj var is: 3127
- de-normalized obj var: 0.787620
- time (local/global): 0.001/28.594
- branches (local/global): 50/1773772
- fails (local/global): 14/866852
- lns time: 0.007000
- lns branches: 50
- lns fails: 14
LNS iteration #100 ========================================
- worst case average CPI: 0.598
- worst case efficiency: 0.783
- efficiency to beat: 0.783
- normalized lower bound 3131
--- checking solution
--- solution ok! Maximum rounding error: 0.000056
- solution found, obj var is: 3131
- de-normalized obj var: 0.787860
- time (local/global): 0.023/28.623
- branches (local/global): 1862/1775634
- fails (local/global): 875/867727
- lns time: 0.029000
- lns branches: 1862
- lns fails: 875
LNS iteration #101 ========================================
- worst case average CPI: 0.598
- worst case efficiency: 0.784
- efficiency to beat: 0.784
- normalized lower bound 3147
- lns time: 3.006000
- lns branches: 243838
- lns fails: 119704
LNS iteration #102 ========================================
- worst case average CPI: 0.598
- worst case efficiency: 0.784
- efficiency to beat: 0.784
- normalized lower bound 3147
--- checking solution
--- solution ok! Maximum rounding error: 0.000025
- solution found, obj var is: 3248
- de-normalized obj var: 0.794880
- time (local/global): 0.087/31.722
- branches (local/global): 7433/2026905
- fails (local/global): 3632/991063
- lns time: 0.092000
- lns branches: 7433
- lns fails: 3632
LNS iteration #103 ========================================
- worst case average CPI: 0.598
- worst case efficiency: 0.784
- efficiency to beat: 0.784
- normalized lower bound 3157
--- checking solution
--- solution ok! Maximum rounding error: 0.000030
- solution found, obj var is: 3227
- de-normalized obj var: 0.793620
- time (local/global): 0.143/31.870
- branches (local/global): 9327/2036232
- fails (local/global): 4493/995556
- lns time: 0.149000
- lns branches: 9327
- lns fails: 4493
LNS iteration #104 ========================================
- worst case average CPI: 0.598
- worst case efficiency: 0.787
- efficiency to beat: 0.787
- normalized lower bound 3202
--- checking solution
--- solution ok! Maximum rounding error: 0.000033
- solution found, obj var is: 3209
- de-normalized obj var: 0.792540
- time (local/global): 0.004/31.880
- branches (local/global): 245/2036477
- fails (local/global): 104/995660
- lns time: 0.010000
- lns branches: 245
- lns fails: 104
LNS iteration #105 ========================================
- worst case average CPI: 0.598
- worst case efficiency: 0.788
- efficiency to beat: 0.788
- normalized lower bound 3213
--- checking solution
--- solution ok! Maximum rounding error: 0.000054
- solution found, obj var is: 3213
- de-normalized obj var: 0.792780
- time (local/global): 2.026/33.912
- branches (local/global): 132994/2169471
- fails (local/global): 65532/1061192
- lns time: 2.031000
- lns branches: 132994
- lns fails: 65532
LNS iteration #106 ========================================
- worst case average CPI: 0.598
- worst case efficiency: 0.788
- efficiency to beat: 0.788
- normalized lower bound 3218
- lns time: 3.006000
- lns branches: 208366
- lns fails: 102322
LNS iteration #107 ========================================
- worst case average CPI: 0.598
- worst case efficiency: 0.788
- efficiency to beat: 0.788
- normalized lower bound 3218
--- checking solution
--- solution ok! Maximum rounding error: 0.000062
- solution found, obj var is: 3244
- de-normalized obj var: 0.794640
- time (local/global): 1.709/38.632
- branches (local/global): 108180/2486017
- fails (local/global): 52840/1216354
- lns time: 1.715000
- lns branches: 108180
- lns fails: 52840
LNS iteration #108 ========================================
- worst case average CPI: 0.598
- worst case efficiency: 0.788
- efficiency to beat: 0.788
- normalized lower bound 3224
--- checking solution
--- solution ok! Maximum rounding error: 0.000048
- solution found, obj var is: 3271
- de-normalized obj var: 0.796260
- time (local/global): 0.016/38.654
- branches (local/global): 695/2486712
- fails (local/global): 319/1216673
- lns time: 0.022000
- lns branches: 695
- lns fails: 319
LNS iteration #109 ========================================
- worst case average CPI: 0.598
- worst case efficiency: 0.790
- efficiency to beat: 0.790
- normalized lower bound 3250
--- checking solution
--- solution ok! Maximum rounding error: 0.000109
- solution found, obj var is: 3316
- de-normalized obj var: 0.798960
- time (local/global): 0.097/38.757
- branches (local/global): 7097/2493809
- fails (local/global): 3402/1220075
- lns time: 0.102000
- lns branches: 7097
- lns fails: 3402
LNS iteration #110 ========================================
- worst case average CPI: 0.598
- worst case efficiency: 0.791
- efficiency to beat: 0.791
- normalized lower bound 3268
--- checking solution
--- solution ok! Maximum rounding error: 0.000053
- solution found, obj var is: 3337
- de-normalized obj var: 0.800220
- time (local/global): 0.124/38.886
- branches (local/global): 7824/2501633
- fails (local/global): 3765/1223840
- lns time: 0.130000
- lns branches: 7824
- lns fails: 3765
LNS iteration #111 ========================================
- worst case average CPI: 0.598
- worst case efficiency: 0.792
- efficiency to beat: 0.792
- normalized lower bound 3285
--- checking solution
--- solution ok! Maximum rounding error: 0.000123
- solution found, obj var is: 3596
- de-normalized obj var: 0.815760
- time (local/global): 0.027/38.919
- branches (local/global): 1262/2502895
- fails (local/global): 590/1224430
- lns time: 0.033000
- lns branches: 1262
- lns fails: 590
LNS iteration #112 ========================================
- worst case average CPI: 0.598
- worst case efficiency: 0.792
- efficiency to beat: 0.792
- normalized lower bound 3292
--- checking solution
--- solution ok! Maximum rounding error: 0.000032
- solution found, obj var is: 3351
- de-normalized obj var: 0.801060
- time (local/global): 0.115/39.040
- branches (local/global): 12305/2515200
- fails (local/global): 6019/1230449
- lns time: 0.120000
- lns branches: 12305
- lns fails: 6019
LNS iteration #113 ========================================
- worst case average CPI: 0.598
- worst case efficiency: 0.793
- efficiency to beat: 0.793
- normalized lower bound 3295
--- checking solution
--- solution ok! Maximum rounding error: 0.000555
- solution found, obj var is: 3295
- de-normalized obj var: 0.797700
- time (local/global): 0.001/39.046
- branches (local/global): 20/2515220
- fails (local/global): 0/1230449
- lns time: 0.006000
- lns branches: 20
- lns fails: 0
LNS iteration #114 ========================================
- worst case average CPI: 0.598
- worst case efficiency: 0.793
- efficiency to beat: 0.793
- normalized lower bound 3296
--- checking solution
--- solution ok! Maximum rounding error: 0.000068
- solution found, obj var is: 3356
- de-normalized obj var: 0.801360
- time (local/global): 2.799/41.850
- branches (local/global): 187305/2702525
- fails (local/global): 91749/1322198
- lns time: 2.804000
- lns branches: 187305
- lns fails: 91749
LNS iteration #115 ========================================
- worst case average CPI: 0.598
- worst case efficiency: 0.793
- efficiency to beat: 0.793
- normalized lower bound 3301
--- checking solution
--- solution ok! Maximum rounding error: 0.000036
- solution found, obj var is: 3332
- de-normalized obj var: 0.799920
- time (local/global): 0.227/42.082
- branches (local/global): 10837/2713362
- fails (local/global): 5201/1327399
- lns time: 0.233000
- lns branches: 10837
- lns fails: 5201
LNS iteration #116 ========================================
- worst case average CPI: 0.598
- worst case efficiency: 0.794
- efficiency to beat: 0.794
- normalized lower bound 3322
--- checking solution
--- solution ok! Maximum rounding error: 0.000030
- solution found, obj var is: 3366
- de-normalized obj var: 0.801960
- time (local/global): 0.003/42.091
- branches (local/global): 244/2713606
- fails (local/global): 111/1327510
- lns time: 0.008000
- lns branches: 244
- lns fails: 111
LNS iteration #117 ========================================
- worst case average CPI: 0.598
- worst case efficiency: 0.795
- efficiency to beat: 0.795
- normalized lower bound 3326
--- checking solution
--- solution ok! Maximum rounding error: 0.000034
- solution found, obj var is: 3340
- de-normalized obj var: 0.800400
- time (local/global): 0.031/42.127
- branches (local/global): 1637/2715243
- fails (local/global): 772/1328282
- lns time: 0.036000
- lns branches: 1637
- lns fails: 772
LNS iteration #118 ========================================
- worst case average CPI: 0.598
- worst case efficiency: 0.796
- efficiency to beat: 0.796
- normalized lower bound 3346
--- checking solution
--- solution ok! Maximum rounding error: 0.000046
- solution found, obj var is: 3456
- de-normalized obj var: 0.807360
- time (local/global): 0.000/42.132
- branches (local/global): 30/2715273
- fails (local/global): 5/1328287
- lns time: 0.006000
- lns branches: 30
- lns fails: 5
LNS iteration #119 ========================================
- worst case average CPI: 0.598
- worst case efficiency: 0.796
- efficiency to beat: 0.796
- normalized lower bound 3345
--- checking solution
--- solution ok! Maximum rounding error: 0.000263
- solution found, obj var is: 3345
- de-normalized obj var: 0.800700
- time (local/global): 0.051/42.189
- branches (local/global): 3451/2718724
- fails (local/global): 1640/1329927
- lns time: 0.056000
- lns branches: 3451
- lns fails: 1640
LNS iteration #120 ========================================
- worst case average CPI: 0.598
- worst case efficiency: 0.795
- efficiency to beat: 0.795
- normalized lower bound 3342
--- checking solution
--- solution ok! Maximum rounding error: 0.000140
- solution found, obj var is: 3478
- de-normalized obj var: 0.808680
- time (local/global): 0.509/42.703
- branches (local/global): 20726/2739450
- fails (local/global): 10003/1339930
- lns time: 0.514000
- lns branches: 20726
- lns fails: 10003
LNS iteration #121 ========================================
- worst case average CPI: 0.598
- worst case efficiency: 0.798
- efficiency to beat: 0.798
- normalized lower bound 3379
--- checking solution
--- solution ok! Maximum rounding error: 0.000000
- solution found, obj var is: 3386
- de-normalized obj var: 0.803160
- time (local/global): 0.895/43.603
- branches (local/global): 57404/2796854
- fails (local/global): 27985/1367915
- lns time: 0.901000
- lns branches: 57404
- lns fails: 27985
LNS iteration #122 ========================================
- worst case average CPI: 0.598
- worst case efficiency: 0.798
- efficiency to beat: 0.798
- normalized lower bound 3386
--- checking solution
--- solution ok! Maximum rounding error: 0.000160
- solution found, obj var is: 3394
- de-normalized obj var: 0.803640
- time (local/global): 0.056/43.665
- branches (local/global): 4314/2801168
- fails (local/global): 2046/1369961
- lns time: 0.062000
- lns branches: 4314
- lns fails: 2046
LNS iteration #123 ========================================
- worst case average CPI: 0.598
- worst case efficiency: 0.798
- efficiency to beat: 0.798
- normalized lower bound 3392
- lns time: 3.006000
- lns branches: 185468
- lns fails: 91018
LNS iteration #124 ========================================
- worst case average CPI: 0.598
- worst case efficiency: 0.798
- efficiency to beat: 0.798
- normalized lower bound 3392
- lns time: 3.006000
- lns branches: 170384
- lns fails: 83592
LNS iteration #125 ========================================
- worst case average CPI: 0.598
- worst case efficiency: 0.798
- efficiency to beat: 0.798
- normalized lower bound 3392
- lns time: 3.006000
- lns branches: 174581
- lns fails: 85598
LNS iteration #126 ========================================
- worst case average CPI: 0.598
- worst case efficiency: 0.798
- efficiency to beat: 0.798
- normalized lower bound 3392
--- checking solution
--- solution ok! Maximum rounding error: 0.000030
- solution found, obj var is: 3518
- de-normalized obj var: 0.811080
- time (local/global): 0.000/52.689
- branches (local/global): 39/3331640
- fails (local/global): 10/1630179
- lns time: 0.006000
- lns branches: 39
- lns fails: 10
LNS iteration #127 ========================================
- worst case average CPI: 0.598
- worst case efficiency: 0.799
- efficiency to beat: 0.799
- normalized lower bound 3403
--- checking solution
--- solution ok! Maximum rounding error: 0.000048
- solution found, obj var is: 3444
- de-normalized obj var: 0.806640
- time (local/global): 0.099/52.794
- branches (local/global): 7007/3338647
- fails (local/global): 3377/1633556
- lns time: 0.105000
- lns branches: 7007
- lns fails: 3377
LNS iteration #128 ========================================
- worst case average CPI: 0.598
- worst case efficiency: 0.797
- efficiency to beat: 0.797
- normalized lower bound 3375
--- checking solution
--- solution ok! Maximum rounding error: 0.000066
- solution found, obj var is: 3410
- de-normalized obj var: 0.804600
- time (local/global): 0.965/53.765
- branches (local/global): 58461/3397108
- fails (local/global): 28479/1662035
- lns time: 0.971000
- lns branches: 58461
- lns fails: 28479
LNS iteration #129 ========================================
- worst case average CPI: 0.598
- worst case efficiency: 0.799
- efficiency to beat: 0.799
- normalized lower bound 3402
--- checking solution
--- solution ok! Maximum rounding error: 0.000011
- solution found, obj var is: 3421
- de-normalized obj var: 0.805260
- time (local/global): 0.071/53.842
- branches (local/global): 3981/3401089
- fails (local/global): 1893/1663928
- lns time: 0.077000
- lns branches: 3981
- lns fails: 1893
LNS iteration #130 ========================================
- worst case average CPI: 0.598
- worst case efficiency: 0.800
- efficiency to beat: 0.800
- normalized lower bound 3421
--- checking solution
--- solution ok! Maximum rounding error: 0.000053
- solution found, obj var is: 3430
- de-normalized obj var: 0.805800
- time (local/global): 0.001/53.849
- branches (local/global): 56/3401145
- fails (local/global): 19/1663947
- lns time: 0.007000
- lns branches: 56
- lns fails: 19
LNS iteration #131 ========================================
- worst case average CPI: 0.598
- worst case efficiency: 0.799
- efficiency to beat: 0.799
- normalized lower bound 3398
- lns time: 3.006000
- lns branches: 206729
- lns fails: 101634
LNS iteration #132 ========================================
- worst case average CPI: 0.598
- worst case efficiency: 0.799
- efficiency to beat: 0.799
- normalized lower bound 3398
--- checking solution
--- solution ok! Maximum rounding error: 0.000038
- solution found, obj var is: 3408
- de-normalized obj var: 0.804480
- time (local/global): 0.665/57.526
- branches (local/global): 49876/3657750
- fails (local/global): 24244/1789825
- lns time: 0.671000
- lns branches: 49876
- lns fails: 24244
LNS iteration #133 ========================================
- worst case average CPI: 0.598
- worst case efficiency: 0.801
- efficiency to beat: 0.801
- normalized lower bound 3433
--- checking solution
--- solution ok! Maximum rounding error: 0.000020
- solution found, obj var is: 3447
- de-normalized obj var: 0.806820
- time (local/global): 1.016/58.548
- branches (local/global): 66138/3723888
- fails (local/global): 32203/1822028
- lns time: 1.022000
- lns branches: 66138
- lns fails: 32203
LNS iteration #134 ========================================
- worst case average CPI: 0.598
- worst case efficiency: 0.803
- efficiency to beat: 0.803
- normalized lower bound 3469
--- checking solution
--- solution ok! Maximum rounding error: 0.000070
- solution found, obj var is: 3560
- de-normalized obj var: 0.813600
- time (local/global): 0.162/58.716
- branches (local/global): 10270/3734158
- fails (local/global): 4936/1826964
- lns time: 0.168000
- lns branches: 10270
- lns fails: 4936
LNS iteration #135 ========================================
- worst case average CPI: 0.598
- worst case efficiency: 0.803
- efficiency to beat: 0.803
- normalized lower bound 3474
- lns time: 3.006000
- lns branches: 171848
- lns fails: 84211
LNS iteration #136 ========================================
- worst case average CPI: 0.598
- worst case efficiency: 0.803
- efficiency to beat: 0.803
- normalized lower bound 3474
- lns time: 3.006000
- lns branches: 204774
- lns fails: 100645
LNS iteration #137 ========================================
- worst case average CPI: 0.598
- worst case efficiency: 0.803
- efficiency to beat: 0.803
- normalized lower bound 3474
--- checking solution
--- solution ok! Maximum rounding error: 0.000153
- solution found, obj var is: 3475
- de-normalized obj var: 0.808500
- time (local/global): 1.209/65.943
- branches (local/global): 56642/4167422
- fails (local/global): 27687/2039507
- lns time: 1.215000
- lns branches: 56642
- lns fails: 27687
LNS iteration #138 ========================================
- worst case average CPI: 0.598
- worst case efficiency: 0.804
- efficiency to beat: 0.804
- normalized lower bound 3483
--- checking solution
--- solution ok! Maximum rounding error: 0.000015
- solution found, obj var is: 3516
- de-normalized obj var: 0.810960
- time (local/global): 1.100/67.049
- branches (local/global): 58638/4226060
- fails (local/global): 28677/2068184
- lns time: 1.106000
- lns branches: 58638
- lns fails: 28677
LNS iteration #139 ========================================
- worst case average CPI: 0.598
- worst case efficiency: 0.805
- efficiency to beat: 0.805
- normalized lower bound 3492
- lns time: 3.006000
- lns branches: 224977
- lns fails: 110290
LNS iteration #140 ========================================
- worst case average CPI: 0.598
- worst case efficiency: 0.805
- efficiency to beat: 0.805
- normalized lower bound 3492
--- checking solution
--- solution ok! Maximum rounding error: 0.000077
- solution found, obj var is: 3660
- de-normalized obj var: 0.819600
- time (local/global): 1.090/71.151
- branches (local/global): 109449/4560486
- fails (local/global): 53976/2232450
- lns time: 1.095000
- lns branches: 109449
- lns fails: 53976
LNS iteration #141 ========================================
- worst case average CPI: 0.598
- worst case efficiency: 0.805
- efficiency to beat: 0.805
- normalized lower bound 3507
--- checking solution
--- solution ok! Maximum rounding error: 0.000004
- solution found, obj var is: 3678
- de-normalized obj var: 0.820680
- time (local/global): 0.055/71.211
- branches (local/global): 3153/4563639
- fails (local/global): 1499/2233949
- lns time: 0.061000
- lns branches: 3153
- lns fails: 1499
LNS iteration #142 ========================================
- worst case average CPI: 0.598
- worst case efficiency: 0.807
- efficiency to beat: 0.807
- normalized lower bound 3527
--- checking solution
--- solution ok! Maximum rounding error: 0.000176
- solution found, obj var is: 3543
- de-normalized obj var: 0.812580
- time (local/global): 0.105/71.322
- branches (local/global): 6172/4569811
- fails (local/global): 3014/2236963
- lns time: 0.110000
- lns branches: 6172
- lns fails: 3014
LNS iteration #143 ========================================
- worst case average CPI: 0.598
- worst case efficiency: 0.807
- efficiency to beat: 0.807
- normalized lower bound 3530
- lns time: 3.006000
- lns branches: 117239
- lns fails: 57348
LNS iteration #144 ========================================
- worst case average CPI: 0.598
- worst case efficiency: 0.807
- efficiency to beat: 0.807
- normalized lower bound 3530
- lns time: 3.006000
- lns branches: 209975
- lns fails: 103184
LNS iteration #145 ========================================
- worst case average CPI: 0.598
- worst case efficiency: 0.807
- efficiency to beat: 0.807
- normalized lower bound 3530
- lns time: 3.006000
- lns branches: 205276
- lns fails: 101027
LNS iteration #146 ========================================
- worst case average CPI: 0.598
- worst case efficiency: 0.807
- efficiency to beat: 0.807
- normalized lower bound 3530
- lns time: 3.006000
- lns branches: 199270
- lns fails: 97964
LNS iteration #147 ========================================
- worst case average CPI: 0.598
- worst case efficiency: 0.807
- efficiency to beat: 0.807
- normalized lower bound 3530
--- checking solution
--- solution ok! Maximum rounding error: 0.000145
- solution found, obj var is: 3609
- de-normalized obj var: 0.816540
- time (local/global): 0.103/83.454
- branches (local/global): 7953/5309524
- fails (local/global): 3818/2600304
- lns time: 0.109000
- lns branches: 7953
- lns fails: 3818
LNS iteration #148 ========================================
- worst case average CPI: 0.598
- worst case efficiency: 0.807
- efficiency to beat: 0.807
- normalized lower bound 3531
--- checking solution
--- solution ok! Maximum rounding error: 0.000082
- solution found, obj var is: 3602
- de-normalized obj var: 0.816120
- time (local/global): 0.037/83.497
- branches (local/global): 2749/5312273
- fails (local/global): 1304/2601608
- lns time: 0.043000
- lns branches: 2749
- lns fails: 1304
LNS iteration #149 ========================================
- worst case average CPI: 0.598
- worst case efficiency: 0.807
- efficiency to beat: 0.807
- normalized lower bound 3535
--- checking solution
--- solution ok! Maximum rounding error: 0.000025
- solution found, obj var is: 3545
- de-normalized obj var: 0.812700
- time (local/global): 0.162/83.665
- branches (local/global): 9904/5322177
- fails (local/global): 4768/2606376
- lns time: 0.167000
- lns branches: 9904
- lns fails: 4768
LNS iteration #150 ========================================
- worst case average CPI: 0.598
- worst case efficiency: 0.808
- efficiency to beat: 0.808
- normalized lower bound 3556
--- checking solution
--- solution ok! Maximum rounding error: 0.000020
- solution found, obj var is: 3617
- de-normalized obj var: 0.817020
- time (local/global): 0.118/83.788
- branches (local/global): 7681/5329858
- fails (local/global): 3702/2610078
- lns time: 0.123000
- lns branches: 7681
- lns fails: 3702
LNS iteration #151 ========================================
- worst case average CPI: 0.598
- worst case efficiency: 0.809
- efficiency to beat: 0.809
- normalized lower bound 3565
- lns time: 3.006000
- lns branches: 212510
- lns fails: 104467
LNS iteration #152 ========================================
- worst case average CPI: 0.598
- worst case efficiency: 0.809
- efficiency to beat: 0.809
- normalized lower bound 3565
--- checking solution
--- solution ok! Maximum rounding error: 0.000078
- solution found, obj var is: 3567
- de-normalized obj var: 0.814020
- time (local/global): 2.090/88.889
- branches (local/global): 110772/5653140
- fails (local/global): 54121/2768666
- lns time: 2.096000
- lns branches: 110772
- lns fails: 54121
LNS iteration #153 ========================================
- worst case average CPI: 0.598
- worst case efficiency: 0.810
- efficiency to beat: 0.810
- normalized lower bound 3587
--- checking solution
--- solution ok! Maximum rounding error: 0.000028
- solution found, obj var is: 3627
- de-normalized obj var: 0.817620
- time (local/global): 0.059/88.954
- branches (local/global): 4238/5657378
- fails (local/global): 2012/2770678
- lns time: 0.065000
- lns branches: 4238
- lns fails: 2012
LNS iteration #154 ========================================
- worst case average CPI: 0.770
- worst case efficiency: 0.811
- efficiency to beat: 0.811
- normalized lower bound 3593
--- checking solution
--- solution ok! Maximum rounding error: 0.000012
- solution found, obj var is: 3627
- de-normalized obj var: 0.817620
- time (local/global): 0.333/89.293
- branches (local/global): 19468/5676846
- fails (local/global): 9402/2780080
- lns time: 0.339000
- lns branches: 19468
- lns fails: 9402
LNS iteration #155 ========================================
- worst case average CPI: 0.770
- worst case efficiency: 0.811
- efficiency to beat: 0.811
- normalized lower bound 3603
- lns time: 0.707000
- lns branches: 38993
- lns fails: 19076

LNS optimization is over========================================
initial worst case average CPI: 2.169
final worst case average CPI: 0.770
initial worst case efficiency: 0.635
final worst case efficiency: 0.811
number of iterations: 156
total time: 90006.000000
total branches: 5715839
total fails: 2799156

Final Solution: 0->23, 1->6, 2->28, 3->22, 4->5, 5->12, 6->40, 7->25, 8->0, 9->42, 10->30, 11->33, 12->15, 13->44, 14->5, 15->10, 16->30, 17->8, 18->11, 19->47, 20->8, 21->19, 22->32, 23->11, 24->45, 25->33, 26->9, 27->44, 28->36, 29->32, 30->35, 31->42, 32->38, 33->40, 34->3, 35->27, 36->24, 37->20, 38->41, 39->26, 40->10, 41->23, 42->28, 43->4, 44->5, 45->46, 46->37, 47->7, 48->27, 49->30, 50->38, 51->5, 52->31, 53->40, 54->30, 55->3, 56->5, 57->5, 58->9, 59->33, 60->20, 61->39, 62->11, 63->18, 64->40, 65->20, 66->28, 67->37, 68->22, 69->37, 70->22, 71->14, 72->26, 73->3, 74->38, 75->44, 76->37, 77->44, 78->10, 79->30, 80->32, 81->0, 82->30, 83->8, 84->32, 85->36, 86->19, 87->12, 88->31, 89->10, 90->19, 91->26, 92->43, 93->26, 94->11, 95->27, 96->1, 97->17, 98->13, 99->27, 100->40, 101->41, 102->18, 103->35, 104->27, 105->40, 106->41, 107->35, 108->15, 109->35, 110->23, 111->2, 112->13, 113->25, 114->14, 115->42, 116->15, 117->15, 118->6, 119->29, 120->43, 121->7, 122->3, 123->37, 124->44, 125->22, 126->23, 127->47, 128->21, 129->28, 130->3, 131->4, 132->7, 133->38, 134->44, 135->19, 136->15, 137->34, 138->33, 139->32, 140->10, 141->39, 142->45, 143->31, 144->23, 145->13, 146->42, 147->47, 148->6, 149->17, 150->6, 151->20, 152->24, 153->43, 154->29, 155->43, 156->18, 157->47, 158->45, 159->0, 160->8, 161->13, 162->23, 163->24, 164->20, 165->17, 166->34, 167->18, 168->37, 169->9, 170->42, 171->27, 172->26, 173->43, 174->26, 175->14, 176->14, 177->17, 178->36, 179->32, 180->22, 181->43, 182->46, 183->34, 184->45, 185->16, 186->46, 187->12, 188->35, 189->29, 190->41, 191->16, 192->33, 193->11, 194->15, 195->4, 196->18, 197->14, 198->2, 199->21, 200->17, 201->8, 202->11, 203->34, 204->33, 205->9, 206->21, 207->25, 208->8, 209->28, 210->22, 211->0, 212->31, 213->25, 214->20, 215->16, 216->21, 217->4, 218->24, 219->16, 220->4, 221->36, 222->21, 223->2, 224->1, 225->31, 226->29, 227->1, 228->10, 229->2, 230->24, 231->17, 232->45, 233->36, 234->3, 235->31, 236->6, 237->41, 238->18, 239->25, 240->1, 241->12, 242->0, 243->36, 244->24, 245->19, 246->14, 247->41, 248->12, 249->39, 250->25, 251->39, 252->28, 253->47, 254->34, 255->12, 256->34, 257->39, 258->21, 259->39, 260->7, 261->9, 262->16, 263->45, 264->16, 265->35, 266->13, 267->2, 268->0, 269->7, 270->46, 271->29, 272->46, 273->29, 274->38, 275->4, 276->9, 277->2, 278->13, 279->6, 280->7, 281->1, 282->38, 283->1, 284->47, 285->46, 286->42, 287->19

Average CPI map:
	7.38,	0.77,	1.09,	1.54,	1.07,	0.78
	2.03,	5.70,	5.58,	7.13,	5.50,	0.81
	1.46,	4.01,	6.73,	6.00,	5.83,	3.15
	1.63,	5.30,	6.49,	6.57,	6.97,	1.71
	1.86,	7.36,	7.22,	6.40,	5.67,	1.99
	1.64,	4.89,	8.88,	6.52,	6.97,	0.92
	1.40,	6.44,	5.71,	6.11,	3.12,	1.85
	0.90,	7.07,	5.14,	6.41,	2.53,	1.76

Efficiency map:
	0.997,	0.881,	0.914,	0.883,	0.912,	1.003
	0.843,	0.826,	0.821,	0.822,	0.812,	0.843
	0.825,	0.821,	0.817,	0.817,	0.816,	0.847
	0.828,	0.812,	0.811,	0.816,	0.829,	0.885
	0.851,	0.818,	0.828,	0.822,	0.814,	0.820
	0.819,	0.814,	0.834,	0.829,	0.814,	0.819
	0.819,	0.818,	0.814,	0.817,	0.812,	0.830
	0.812,	0.818,	0.817,	0.866,	0.811,	0.813
