==============================================================================
LNS optimizer for EML demonstration
==============================================================================

Option values: --wld-idx 13 --prec 10000 --step 0 --global-tlim 90 --global-iter 1000 --local-tlim 3 --local-nsol 1 --restart-base 100 --restart-strat luby --seed 901

Starting the Optimization Process
reserved_tasks None
Finding a first solution
LNS iteration #0 ========================================
- worst case average CPI: 1.966
- worst case efficiency: 0.617
- efficiency to beat: 0.617
- normalized lower bound 370
--- checking solution
--- solution ok! Maximum rounding error: 0.000043
- solution found, obj var is: 407
- de-normalized obj var: 0.624420
- time (local/global): 0.001/0.001
- branches (local/global): 19/19
- fails (local/global): 0/0
- lns time: 0.007000
- lns branches: 19
- lns fails: 0
LNS iteration #1 ========================================
- worst case average CPI: 1.771
- worst case efficiency: 0.620
- efficiency to beat: 0.620
- normalized lower bound 412
--- checking solution
--- solution ok! Maximum rounding error: 0.000077
- solution found, obj var is: 893
- de-normalized obj var: 0.653580
- time (local/global): 0.001/0.008
- branches (local/global): 16/35
- fails (local/global): 0/0
- lns time: 0.008000
- lns branches: 16
- lns fails: 0
LNS iteration #2 ========================================
- worst case average CPI: 1.373
- worst case efficiency: 0.622
- efficiency to beat: 0.622
- normalized lower bound 443
--- checking solution
--- solution ok! Maximum rounding error: 0.000055
- solution found, obj var is: 480
- de-normalized obj var: 0.628800
- time (local/global): 0.003/0.018
- branches (local/global): 237/272
- fails (local/global): 100/100
- lns time: 0.009000
- lns branches: 237
- lns fails: 100
LNS iteration #3 ========================================
- worst case average CPI: 1.373
- worst case efficiency: 0.622
- efficiency to beat: 0.622
- normalized lower bound 443
--- checking solution
--- solution ok! Maximum rounding error: 0.000115
- solution found, obj var is: 771
- de-normalized obj var: 0.646260
- time (local/global): 0.000/0.024
- branches (local/global): 22/294
- fails (local/global): 0/100
- lns time: 0.006000
- lns branches: 22
- lns fails: 0
LNS iteration #4 ========================================
- worst case average CPI: 1.373
- worst case efficiency: 0.623
- efficiency to beat: 0.623
- normalized lower bound 459
--- checking solution
--- solution ok! Maximum rounding error: 0.000049
- solution found, obj var is: 494
- de-normalized obj var: 0.629640
- time (local/global): 0.000/0.030
- branches (local/global): 21/315
- fails (local/global): 0/100
- lns time: 0.006000
- lns branches: 21
- lns fails: 0
LNS iteration #5 ========================================
- worst case average CPI: 1.373
- worst case efficiency: 0.624
- efficiency to beat: 0.624
- normalized lower bound 484
--- checking solution
--- solution ok! Maximum rounding error: 0.000018
- solution found, obj var is: 545
- de-normalized obj var: 0.632700
- time (local/global): 0.004/0.040
- branches (local/global): 245/560
- fails (local/global): 103/203
- lns time: 0.010000
- lns branches: 245
- lns fails: 103
LNS iteration #6 ========================================
- worst case average CPI: 1.373
- worst case efficiency: 0.625
- efficiency to beat: 0.625
- normalized lower bound 494
--- checking solution
--- solution ok! Maximum rounding error: 0.000022
- solution found, obj var is: 501
- de-normalized obj var: 0.630060
- time (local/global): 0.001/0.047
- branches (local/global): 26/586
- fails (local/global): 2/205
- lns time: 0.007000
- lns branches: 26
- lns fails: 2
LNS iteration #7 ========================================
- worst case average CPI: 1.373
- worst case efficiency: 0.625
- efficiency to beat: 0.625
- normalized lower bound 502
--- checking solution
--- solution ok! Maximum rounding error: 0.000069
- solution found, obj var is: 510
- de-normalized obj var: 0.630600
- time (local/global): 0.001/0.054
- branches (local/global): 32/618
- fails (local/global): 5/210
- lns time: 0.008000
- lns branches: 32
- lns fails: 5
LNS iteration #8 ========================================
- worst case average CPI: 1.373
- worst case efficiency: 0.628
- efficiency to beat: 0.628
- normalized lower bound 543
--- checking solution
--- solution ok! Maximum rounding error: 0.000034
- solution found, obj var is: 1150
- de-normalized obj var: 0.669000
- time (local/global): 0.000/0.061
- branches (local/global): 22/640
- fails (local/global): 0/210
- lns time: 0.006000
- lns branches: 22
- lns fails: 0
LNS iteration #9 ========================================
- worst case average CPI: 1.245
- worst case efficiency: 0.629
- efficiency to beat: 0.629
- normalized lower bound 564
--- checking solution
--- solution ok! Maximum rounding error: 0.000046
- solution found, obj var is: 647
- de-normalized obj var: 0.638820
- time (local/global): 0.000/0.067
- branches (local/global): 24/664
- fails (local/global): 1/211
- lns time: 0.006000
- lns branches: 24
- lns fails: 1
LNS iteration #10 ========================================
- worst case average CPI: 1.245
- worst case efficiency: 0.629
- efficiency to beat: 0.629
- normalized lower bound 564
--- checking solution
--- solution ok! Maximum rounding error: 0.000071
- solution found, obj var is: 778
- de-normalized obj var: 0.646680
- time (local/global): 0.020/0.093
- branches (local/global): 1307/1971
- fails (local/global): 600/811
- lns time: 0.028000
- lns branches: 1307
- lns fails: 600
LNS iteration #11 ========================================
- worst case average CPI: 1.245
- worst case efficiency: 0.630
- efficiency to beat: 0.630
- normalized lower bound 581
--- checking solution
--- solution ok! Maximum rounding error: 0.000078
- solution found, obj var is: 593
- de-normalized obj var: 0.635580
- time (local/global): 0.001/0.102
- branches (local/global): 76/2047
- fails (local/global): 28/839
- lns time: 0.007000
- lns branches: 76
- lns fails: 28
LNS iteration #12 ========================================
- worst case average CPI: 1.245
- worst case efficiency: 0.630
- efficiency to beat: 0.630
- normalized lower bound 588
--- checking solution
--- solution ok! Maximum rounding error: 0.000079
- solution found, obj var is: 591
- de-normalized obj var: 0.635460
- time (local/global): 0.000/0.108
- branches (local/global): 21/2068
- fails (local/global): 0/839
- lns time: 0.006000
- lns branches: 21
- lns fails: 0
LNS iteration #13 ========================================
- worst case average CPI: 1.245
- worst case efficiency: 0.631
- efficiency to beat: 0.631
- normalized lower bound 593
--- checking solution
--- solution ok! Maximum rounding error: 0.000016
- solution found, obj var is: 608
- de-normalized obj var: 0.636480
- time (local/global): 0.001/0.115
- branches (local/global): 22/2090
- fails (local/global): 0/839
- lns time: 0.006000
- lns branches: 22
- lns fails: 0
LNS iteration #14 ========================================
- worst case average CPI: 1.141
- worst case efficiency: 0.631
- efficiency to beat: 0.631
- normalized lower bound 594
--- checking solution
--- solution ok! Maximum rounding error: 0.000085
- solution found, obj var is: 905
- de-normalized obj var: 0.654300
- time (local/global): 0.003/0.123
- branches (local/global): 241/2331
- fails (local/global): 100/939
- lns time: 0.009000
- lns branches: 241
- lns fails: 100
LNS iteration #15 ========================================
- worst case average CPI: 1.339
- worst case efficiency: 0.635
- efficiency to beat: 0.635
- normalized lower bound 672
--- checking solution
--- solution ok! Maximum rounding error: 0.000043
- solution found, obj var is: 677
- de-normalized obj var: 0.640620
- time (local/global): 0.001/0.130
- branches (local/global): 49/2380
- fails (local/global): 13/952
- lns time: 0.007000
- lns branches: 49
- lns fails: 13
LNS iteration #16 ========================================
- worst case average CPI: 1.339
- worst case efficiency: 0.635
- efficiency to beat: 0.635
- normalized lower bound 672
--- checking solution
--- solution ok! Maximum rounding error: 0.000010
- solution found, obj var is: 682
- de-normalized obj var: 0.640920
- time (local/global): 0.003/0.139
- branches (local/global): 230/2610
- fails (local/global): 100/1052
- lns time: 0.008000
- lns branches: 230
- lns fails: 100
LNS iteration #17 ========================================
- worst case average CPI: 1.339
- worst case efficiency: 0.636
- efficiency to beat: 0.636
- normalized lower bound 676
--- checking solution
--- solution ok! Maximum rounding error: 0.000052
- solution found, obj var is: 693
- de-normalized obj var: 0.641580
- time (local/global): 0.016/0.160
- branches (local/global): 1089/3699
- fails (local/global): 501/1553
- lns time: 0.022000
- lns branches: 1089
- lns fails: 501
LNS iteration #18 ========================================
- worst case average CPI: 1.312
- worst case efficiency: 0.636
- efficiency to beat: 0.636
- normalized lower bound 685
--- checking solution
--- solution ok! Maximum rounding error: 0.000033
- solution found, obj var is: 782
- de-normalized obj var: 0.646920
- time (local/global): 0.004/0.170
- branches (local/global): 263/3962
- fails (local/global): 112/1665
- lns time: 0.010000
- lns branches: 263
- lns fails: 112
LNS iteration #19 ========================================
- worst case average CPI: 1.241
- worst case efficiency: 0.636
- efficiency to beat: 0.636
- normalized lower bound 690
--- checking solution
--- solution ok! Maximum rounding error: 0.000089
- solution found, obj var is: 799
- de-normalized obj var: 0.647940
- time (local/global): 0.010/0.186
- branches (local/global): 744/4706
- fails (local/global): 347/2012
- lns time: 0.016000
- lns branches: 744
- lns fails: 347
LNS iteration #20 ========================================
- worst case average CPI: 1.241
- worst case efficiency: 0.637
- efficiency to beat: 0.637
- normalized lower bound 704
--- checking solution
--- solution ok! Maximum rounding error: 0.000254
- solution found, obj var is: 708
- de-normalized obj var: 0.642480
- time (local/global): 0.001/0.193
- branches (local/global): 26/4732
- fails (local/global): 2/2014
- lns time: 0.006000
- lns branches: 26
- lns fails: 2
LNS iteration #21 ========================================
- worst case average CPI: 1.241
- worst case efficiency: 0.639
- efficiency to beat: 0.639
- normalized lower bound 731
--- checking solution
--- solution ok! Maximum rounding error: 0.000011
- solution found, obj var is: 791
- de-normalized obj var: 0.647460
- time (local/global): 0.003/0.201
- branches (local/global): 226/4958
- fails (local/global): 100/2114
- lns time: 0.008000
- lns branches: 226
- lns fails: 100
LNS iteration #22 ========================================
- worst case average CPI: 1.241
- worst case efficiency: 0.640
- efficiency to beat: 0.640
- normalized lower bound 754
--- checking solution
--- solution ok! Maximum rounding error: 0.000021
- solution found, obj var is: 822
- de-normalized obj var: 0.649320
- time (local/global): 0.002/0.208
- branches (local/global): 104/5062
- fails (local/global): 42/2156
- lns time: 0.007000
- lns branches: 104
- lns fails: 42
LNS iteration #23 ========================================
- worst case average CPI: 1.241
- worst case efficiency: 0.642
- efficiency to beat: 0.642
- normalized lower bound 777
--- checking solution
--- solution ok! Maximum rounding error: 0.000161
- solution found, obj var is: 777
- de-normalized obj var: 0.646620
- time (local/global): 0.000/0.213
- branches (local/global): 22/5084
- fails (local/global): 0/2156
- lns time: 0.006000
- lns branches: 22
- lns fails: 0
LNS iteration #24 ========================================
- worst case average CPI: 1.241
- worst case efficiency: 0.642
- efficiency to beat: 0.642
- normalized lower bound 783
--- checking solution
--- solution ok! Maximum rounding error: 0.000000
- solution found, obj var is: 1016
- de-normalized obj var: 0.660960
- time (local/global): 0.000/0.219
- branches (local/global): 22/5106
- fails (local/global): 0/2156
- lns time: 0.006000
- lns branches: 22
- lns fails: 0
LNS iteration #25 ========================================
- worst case average CPI: 1.241
- worst case efficiency: 0.643
- efficiency to beat: 0.643
- normalized lower bound 794
--- checking solution
--- solution ok! Maximum rounding error: 0.000074
- solution found, obj var is: 880
- de-normalized obj var: 0.652800
- time (local/global): 0.015/0.240
- branches (local/global): 1036/6142
- fails (local/global): 482/2638
- lns time: 0.023000
- lns branches: 1036
- lns fails: 482
LNS iteration #26 ========================================
- worst case average CPI: 1.241
- worst case efficiency: 0.645
- efficiency to beat: 0.645
- normalized lower bound 834
--- checking solution
--- solution ok! Maximum rounding error: 0.000055
- solution found, obj var is: 899
- de-normalized obj var: 0.653940
- time (local/global): 0.000/0.248
- branches (local/global): 33/6175
- fails (local/global): 6/2644
- lns time: 0.006000
- lns branches: 33
- lns fails: 6
LNS iteration #27 ========================================
- worst case average CPI: 1.241
- worst case efficiency: 0.645
- efficiency to beat: 0.645
- normalized lower bound 835
--- checking solution
--- solution ok! Maximum rounding error: 0.000022
- solution found, obj var is: 858
- de-normalized obj var: 0.651480
- time (local/global): 0.001/0.255
- branches (local/global): 28/6203
- fails (local/global): 4/2648
- lns time: 0.006000
- lns branches: 28
- lns fails: 4
LNS iteration #28 ========================================
- worst case average CPI: 1.241
- worst case efficiency: 0.647
- efficiency to beat: 0.647
- normalized lower bound 868
--- checking solution
--- solution ok! Maximum rounding error: 0.000000
- solution found, obj var is: 877
- de-normalized obj var: 0.652620
- time (local/global): 0.017/0.277
- branches (local/global): 1151/7354
- fails (local/global): 536/3184
- lns time: 0.022000
- lns branches: 1151
- lns fails: 536
LNS iteration #29 ========================================
- worst case average CPI: 1.274
- worst case efficiency: 0.648
- efficiency to beat: 0.648
- normalized lower bound 880
--- checking solution
--- solution ok! Maximum rounding error: 0.000071
- solution found, obj var is: 883
- de-normalized obj var: 0.652980
- time (local/global): 0.000/0.282
- branches (local/global): 29/7383
- fails (local/global): 4/3188
- lns time: 0.006000
- lns branches: 29
- lns fails: 4
LNS iteration #30 ========================================
- worst case average CPI: 1.274
- worst case efficiency: 0.649
- efficiency to beat: 0.649
- normalized lower bound 907
--- checking solution
--- solution ok! Maximum rounding error: 0.000040
- solution found, obj var is: 956
- de-normalized obj var: 0.657360
- time (local/global): 0.004/0.292
- branches (local/global): 238/7621
- fails (local/global): 101/3289
- lns time: 0.009000
- lns branches: 238
- lns fails: 101
LNS iteration #31 ========================================
- worst case average CPI: 1.134
- worst case efficiency: 0.651
- efficiency to beat: 0.651
- normalized lower bound 927
--- checking solution
--- solution ok! Maximum rounding error: 0.000086
- solution found, obj var is: 977
- de-normalized obj var: 0.658620
- time (local/global): 0.020/0.317
- branches (local/global): 1300/8921
- fails (local/global): 600/3889
- lns time: 0.026000
- lns branches: 1300
- lns fails: 600
LNS iteration #32 ========================================
- worst case average CPI: 1.134
- worst case efficiency: 0.651
- efficiency to beat: 0.651
- normalized lower bound 938
--- checking solution
--- solution ok! Maximum rounding error: 0.000027
- solution found, obj var is: 951
- de-normalized obj var: 0.657060
- time (local/global): 0.029/0.352
- branches (local/global): 2012/10933
- fails (local/global): 948/4837
- lns time: 0.035000
- lns branches: 2012
- lns fails: 948
LNS iteration #33 ========================================
- worst case average CPI: 1.110
- worst case efficiency: 0.652
- efficiency to beat: 0.652
- normalized lower bound 951
--- checking solution
--- solution ok! Maximum rounding error: 0.000099
- solution found, obj var is: 985
- de-normalized obj var: 0.659100
- time (local/global): 0.003/0.361
- branches (local/global): 238/11171
- fails (local/global): 100/4937
- lns time: 0.009000
- lns branches: 238
- lns fails: 100
LNS iteration #34 ========================================
- worst case average CPI: 1.110
- worst case efficiency: 0.652
- efficiency to beat: 0.652
- normalized lower bound 957
--- checking solution
--- solution ok! Maximum rounding error: 0.000471
- solution found, obj var is: 1007
- de-normalized obj var: 0.660420
- time (local/global): 0.001/0.368
- branches (local/global): 71/11242
- fails (local/global): 28/4965
- lns time: 0.006000
- lns branches: 71
- lns fails: 28
LNS iteration #35 ========================================
- worst case average CPI: 1.110
- worst case efficiency: 0.653
- efficiency to beat: 0.653
- normalized lower bound 962
--- checking solution
--- solution ok! Maximum rounding error: 0.000034
- solution found, obj var is: 971
- de-normalized obj var: 0.658260
- time (local/global): 0.064/0.437
- branches (local/global): 4279/15521
- fails (local/global): 2026/6991
- lns time: 0.070000
- lns branches: 4279
- lns fails: 2026
LNS iteration #36 ========================================
- worst case average CPI: 1.110
- worst case efficiency: 0.653
- efficiency to beat: 0.653
- normalized lower bound 970
--- checking solution
--- solution ok! Maximum rounding error: 0.000099
- solution found, obj var is: 970
- de-normalized obj var: 0.658200
- time (local/global): 0.005/0.448
- branches (local/global): 435/15956
- fails (local/global): 200/7191
- lns time: 0.010000
- lns branches: 435
- lns fails: 200
LNS iteration #37 ========================================
- worst case average CPI: 1.110
- worst case efficiency: 0.657
- efficiency to beat: 0.657
- normalized lower bound 1039
--- checking solution
--- solution ok! Maximum rounding error: 0.000087
- solution found, obj var is: 1058
- de-normalized obj var: 0.663480
- time (local/global): 0.016/0.469
- branches (local/global): 897/16853
- fails (local/global): 413/7604
- lns time: 0.022000
- lns branches: 897
- lns fails: 413
LNS iteration #38 ========================================
- worst case average CPI: 1.110
- worst case efficiency: 0.658
- efficiency to beat: 0.658
- normalized lower bound 1055
--- checking solution
--- solution ok! Maximum rounding error: 0.000028
- solution found, obj var is: 1059
- de-normalized obj var: 0.663540
- time (local/global): 0.053/0.528
- branches (local/global): 3139/19992
- fails (local/global): 1483/9087
- lns time: 0.058000
- lns branches: 3139
- lns fails: 1483
LNS iteration #39 ========================================
- worst case average CPI: 1.110
- worst case efficiency: 0.658
- efficiency to beat: 0.658
- normalized lower bound 1059
--- checking solution
--- solution ok! Maximum rounding error: 0.000075
- solution found, obj var is: 1095
- de-normalized obj var: 0.665700
- time (local/global): 0.425/0.958
- branches (local/global): 28259/48251
- fails (local/global): 13649/22736
- lns time: 0.431000
- lns branches: 28259
- lns fails: 13649
LNS iteration #40 ========================================
- worst case average CPI: 0.942
- worst case efficiency: 0.659
- efficiency to beat: 0.659
- normalized lower bound 1066
--- checking solution
--- solution ok! Maximum rounding error: 0.000010
- solution found, obj var is: 1068
- de-normalized obj var: 0.664080
- time (local/global): 0.355/1.319
- branches (local/global): 16624/64875
- fails (local/global): 8055/30791
- lns time: 0.361000
- lns branches: 16624
- lns fails: 8055
LNS iteration #41 ========================================
- worst case average CPI: 1.110
- worst case efficiency: 0.659
- efficiency to beat: 0.659
- normalized lower bound 1064
--- checking solution
--- solution ok! Maximum rounding error: 0.000025
- solution found, obj var is: 1153
- de-normalized obj var: 0.669180
- time (local/global): 0.055/1.380
- branches (local/global): 3416/68291
- fails (local/global): 1615/32406
- lns time: 0.063000
- lns branches: 3416
- lns fails: 1615
LNS iteration #42 ========================================
- worst case average CPI: 1.110
- worst case efficiency: 0.659
- efficiency to beat: 0.659
- normalized lower bound 1063
--- checking solution
--- solution ok! Maximum rounding error: 0.000044
- solution found, obj var is: 1562
- de-normalized obj var: 0.693720
- time (local/global): 0.000/1.388
- branches (local/global): 22/68313
- fails (local/global): 4/32410
- lns time: 0.006000
- lns branches: 22
- lns fails: 4
LNS iteration #43 ========================================
- worst case average CPI: 0.960
- worst case efficiency: 0.660
- efficiency to beat: 0.660
- normalized lower bound 1082
--- checking solution
--- solution ok! Maximum rounding error: 0.000050
- solution found, obj var is: 1267
- de-normalized obj var: 0.676020
- time (local/global): 0.126/1.520
- branches (local/global): 7717/76030
- fails (local/global): 3701/36111
- lns time: 0.132000
- lns branches: 7717
- lns fails: 3701
LNS iteration #44 ========================================
- worst case average CPI: 0.960
- worst case efficiency: 0.660
- efficiency to beat: 0.660
- normalized lower bound 1084
--- checking solution
--- solution ok! Maximum rounding error: 0.000079
- solution found, obj var is: 1087
- de-normalized obj var: 0.665220
- time (local/global): 0.004/1.530
- branches (local/global): 237/76267
- fails (local/global): 101/36212
- lns time: 0.011000
- lns branches: 237
- lns fails: 101
LNS iteration #45 ========================================
- worst case average CPI: 0.960
- worst case efficiency: 0.662
- efficiency to beat: 0.662
- normalized lower bound 1110
--- checking solution
--- solution ok! Maximum rounding error: 0.000115
- solution found, obj var is: 1258
- de-normalized obj var: 0.675480
- time (local/global): 0.002/1.539
- branches (local/global): 70/76337
- fails (local/global): 25/36237
- lns time: 0.007000
- lns branches: 70
- lns fails: 25
LNS iteration #46 ========================================
- worst case average CPI: 0.960
- worst case efficiency: 0.662
- efficiency to beat: 0.662
- normalized lower bound 1110
- lns time: 3.006000
- lns branches: 160204
- lns fails: 78053
LNS iteration #47 ========================================
- worst case average CPI: 0.960
- worst case efficiency: 0.662
- efficiency to beat: 0.662
- normalized lower bound 1110
--- checking solution
--- solution ok! Maximum rounding error: 0.000031
- solution found, obj var is: 1256
- de-normalized obj var: 0.675360
- time (local/global): 0.059/4.609
- branches (local/global): 3083/239624
- fails (local/global): 1462/115752
- lns time: 0.064000
- lns branches: 3083
- lns fails: 1462
LNS iteration #48 ========================================
- worst case average CPI: 0.960
- worst case efficiency: 0.663
- efficiency to beat: 0.663
- normalized lower bound 1142
--- checking solution
--- solution ok! Maximum rounding error: 0.000015
- solution found, obj var is: 1186
- de-normalized obj var: 0.671160
- time (local/global): 0.059/4.673
- branches (local/global): 3400/243024
- fails (local/global): 1611/117363
- lns time: 0.066000
- lns branches: 3400
- lns fails: 1611
LNS iteration #49 ========================================
- worst case average CPI: 0.861
- worst case efficiency: 0.664
- efficiency to beat: 0.664
- normalized lower bound 1145
--- checking solution
--- solution ok! Maximum rounding error: 0.000064
- solution found, obj var is: 1159
- de-normalized obj var: 0.669540
- time (local/global): 0.054/4.734
- branches (local/global): 3406/246430
- fails (local/global): 1606/118969
- lns time: 0.064000
- lns branches: 3406
- lns fails: 1606
LNS iteration #50 ========================================
- worst case average CPI: 0.861
- worst case efficiency: 0.666
- efficiency to beat: 0.666
- normalized lower bound 1184
--- checking solution
--- solution ok! Maximum rounding error: 0.000074
- solution found, obj var is: 1463
- de-normalized obj var: 0.687780
- time (local/global): 0.092/4.836
- branches (local/global): 6908/253338
- fails (local/global): 3317/122286
- lns time: 0.098000
- lns branches: 6908
- lns fails: 3317
LNS iteration #51 ========================================
- worst case average CPI: 0.861
- worst case efficiency: 0.667
- efficiency to beat: 0.667
- normalized lower bound 1199
--- checking solution
--- solution ok! Maximum rounding error: 0.000024
- solution found, obj var is: 1200
- de-normalized obj var: 0.672000
- time (local/global): 0.086/4.928
- branches (local/global): 4760/258098
- fails (local/global): 2265/124551
- lns time: 0.097000
- lns branches: 4760
- lns fails: 2265
LNS iteration #52 ========================================
- worst case average CPI: 0.861
- worst case efficiency: 0.668
- efficiency to beat: 0.668
- normalized lower bound 1211
--- checking solution
--- solution ok! Maximum rounding error: 0.000076
- solution found, obj var is: 1243
- de-normalized obj var: 0.674580
- time (local/global): 0.009/4.948
- branches (local/global): 453/258551
- fails (local/global): 200/124751
- lns time: 0.014000
- lns branches: 453
- lns fails: 200
LNS iteration #53 ========================================
- worst case average CPI: 0.861
- worst case efficiency: 0.668
- efficiency to beat: 0.668
- normalized lower bound 1221
--- checking solution
--- solution ok! Maximum rounding error: 0.000040
- solution found, obj var is: 1226
- de-normalized obj var: 0.673560
- time (local/global): 0.050/5.003
- branches (local/global): 2980/261531
- fails (local/global): 1411/126162
- lns time: 0.056000
- lns branches: 2980
- lns fails: 1411
LNS iteration #54 ========================================
- worst case average CPI: 0.861
- worst case efficiency: 0.668
- efficiency to beat: 0.668
- normalized lower bound 1224
--- checking solution
--- solution ok! Maximum rounding error: 0.000019
- solution found, obj var is: 1320
- de-normalized obj var: 0.679200
- time (local/global): 0.014/5.023
- branches (local/global): 1059/262590
- fails (local/global): 502/126664
- lns time: 0.019000
- lns branches: 1059
- lns fails: 502
LNS iteration #55 ========================================
- worst case average CPI: 0.861
- worst case efficiency: 0.669
- efficiency to beat: 0.669
- normalized lower bound 1242
--- checking solution
--- solution ok! Maximum rounding error: 0.000029
- solution found, obj var is: 1251
- de-normalized obj var: 0.675060
- time (local/global): 0.057/5.085
- branches (local/global): 2771/265361
- fails (local/global): 1310/127974
- lns time: 0.064000
- lns branches: 2771
- lns fails: 1310
LNS iteration #56 ========================================
- worst case average CPI: 0.861
- worst case efficiency: 0.671
- efficiency to beat: 0.671
- normalized lower bound 1260
--- checking solution
--- solution ok! Maximum rounding error: 0.000420
- solution found, obj var is: 1289
- de-normalized obj var: 0.677340
- time (local/global): 0.102/5.194
- branches (local/global): 6782/272143
- fails (local/global): 3256/131230
- lns time: 0.112000
- lns branches: 6782
- lns fails: 3256
LNS iteration #57 ========================================
- worst case average CPI: 0.861
- worst case efficiency: 0.671
- efficiency to beat: 0.671
- normalized lower bound 1266
--- checking solution
--- solution ok! Maximum rounding error: 0.000216
- solution found, obj var is: 1268
- de-normalized obj var: 0.676080
- time (local/global): 0.752/5.956
- branches (local/global): 47654/319797
- fails (local/global): 23172/154402
- lns time: 0.757000
- lns branches: 47654
- lns fails: 23172
LNS iteration #58 ========================================
- worst case average CPI: 0.861
- worst case efficiency: 0.672
- efficiency to beat: 0.672
- normalized lower bound 1279
--- checking solution
--- solution ok! Maximum rounding error: 0.000214
- solution found, obj var is: 1354
- de-normalized obj var: 0.681240
- time (local/global): 0.722/6.683
- branches (local/global): 42980/362777
- fails (local/global): 20903/175305
- lns time: 0.729000
- lns branches: 42980
- lns fails: 20903
LNS iteration #59 ========================================
- worst case average CPI: 0.861
- worst case efficiency: 0.672
- efficiency to beat: 0.672
- normalized lower bound 1281
--- checking solution
--- solution ok! Maximum rounding error: 0.000138
- solution found, obj var is: 1305
- de-normalized obj var: 0.678300
- time (local/global): 0.009/6.699
- branches (local/global): 453/363230
- fails (local/global): 201/175506
- lns time: 0.014000
- lns branches: 453
- lns fails: 201
LNS iteration #60 ========================================
- worst case average CPI: 0.861
- worst case efficiency: 0.673
- efficiency to beat: 0.673
- normalized lower bound 1301
--- checking solution
--- solution ok! Maximum rounding error: 0.000023
- solution found, obj var is: 1303
- de-normalized obj var: 0.678180
- time (local/global): 0.054/6.758
- branches (local/global): 3602/366832
- fails (local/global): 1705/177211
- lns time: 0.059000
- lns branches: 3602
- lns fails: 1705
LNS iteration #61 ========================================
- worst case average CPI: 0.861
- worst case efficiency: 0.674
- efficiency to beat: 0.674
- normalized lower bound 1311
--- checking solution
--- solution ok! Maximum rounding error: 0.000054
- solution found, obj var is: 1358
- de-normalized obj var: 0.681480
- time (local/global): 0.079/6.842
- branches (local/global): 6882/373714
- fails (local/global): 3300/180511
- lns time: 0.084000
- lns branches: 6882
- lns fails: 3300
LNS iteration #62 ========================================
- worst case average CPI: 0.956
- worst case efficiency: 0.675
- efficiency to beat: 0.675
- normalized lower bound 1326
--- checking solution
--- solution ok! Maximum rounding error: 0.000036
- solution found, obj var is: 1382
- de-normalized obj var: 0.682920
- time (local/global): 0.126/6.973
- branches (local/global): 8372/382086
- fails (local/global): 4006/184517
- lns time: 0.131000
- lns branches: 8372
- lns fails: 4006
LNS iteration #63 ========================================
- worst case average CPI: 0.960
- worst case efficiency: 0.675
- efficiency to beat: 0.675
- normalized lower bound 1329
--- checking solution
--- solution ok! Maximum rounding error: 0.000026
- solution found, obj var is: 1720
- de-normalized obj var: 0.703200
- time (local/global): 0.006/6.984
- branches (local/global): 456/382542
- fails (local/global): 200/184717
- lns time: 0.011000
- lns branches: 456
- lns fails: 200
LNS iteration #64 ========================================
- worst case average CPI: 0.960
- worst case efficiency: 0.675
- efficiency to beat: 0.675
- normalized lower bound 1333
--- checking solution
--- solution ok! Maximum rounding error: 0.000070
- solution found, obj var is: 1333
- de-normalized obj var: 0.679980
- time (local/global): 0.794/7.783
- branches (local/global): 47310/429852
- fails (local/global): 23007/207724
- lns time: 0.800000
- lns branches: 47310
- lns fails: 23007
LNS iteration #65 ========================================
- worst case average CPI: 0.960
- worst case efficiency: 0.676
- efficiency to beat: 0.676
- normalized lower bound 1344
--- checking solution
--- solution ok! Maximum rounding error: 0.000154
- solution found, obj var is: 1393
- de-normalized obj var: 0.683580
- time (local/global): 0.001/7.790
- branches (local/global): 48/429900
- fails (local/global): 14/207738
- lns time: 0.007000
- lns branches: 48
- lns fails: 14
LNS iteration #66 ========================================
- worst case average CPI: 0.983
- worst case efficiency: 0.676
- efficiency to beat: 0.676
- normalized lower bound 1349
--- checking solution
--- solution ok! Maximum rounding error: 0.000537
- solution found, obj var is: 1355
- de-normalized obj var: 0.681300
- time (local/global): 0.107/7.903
- branches (local/global): 6904/436804
- fails (local/global): 3316/211054
- lns time: 0.114000
- lns branches: 6904
- lns fails: 3316
LNS iteration #67 ========================================
- worst case average CPI: 0.983
- worst case efficiency: 0.676
- efficiency to beat: 0.676
- normalized lower bound 1355
--- checking solution
--- solution ok! Maximum rounding error: 0.000052
- solution found, obj var is: 1443
- de-normalized obj var: 0.686580
- time (local/global): 0.058/7.968
- branches (local/global): 3541/440345
- fails (local/global): 1684/212738
- lns time: 0.066000
- lns branches: 3541
- lns fails: 1684
LNS iteration #68 ========================================
- worst case average CPI: 0.678
- worst case efficiency: 0.677
- efficiency to beat: 0.677
- normalized lower bound 1372
--- checking solution
--- solution ok! Maximum rounding error: 0.000078
- solution found, obj var is: 1411
- de-normalized obj var: 0.684660
- time (local/global): 0.114/8.090
- branches (local/global): 6928/447273
- fails (local/global): 3333/216071
- lns time: 0.120000
- lns branches: 6928
- lns fails: 3333
LNS iteration #69 ========================================
- worst case average CPI: 0.678
- worst case efficiency: 0.677
- efficiency to beat: 0.677
- normalized lower bound 1375
--- checking solution
--- solution ok! Maximum rounding error: 0.000045
- solution found, obj var is: 1377
- de-normalized obj var: 0.682620
- time (local/global): 0.033/8.129
- branches (local/global): 2596/449869
- fails (local/global): 1226/217297
- lns time: 0.039000
- lns branches: 2596
- lns fails: 1226
LNS iteration #70 ========================================
- worst case average CPI: 0.678
- worst case efficiency: 0.678
- efficiency to beat: 0.678
- normalized lower bound 1387
--- checking solution
--- solution ok! Maximum rounding error: 0.000158
- solution found, obj var is: 1401
- de-normalized obj var: 0.684060
- time (local/global): 0.333/8.468
- branches (local/global): 20723/470592
- fails (local/global): 10001/227298
- lns time: 0.338000
- lns branches: 20723
- lns fails: 10001
LNS iteration #71 ========================================
- worst case average CPI: 0.678
- worst case efficiency: 0.679
- efficiency to beat: 0.679
- normalized lower bound 1403
--- checking solution
--- solution ok! Maximum rounding error: 0.000081
- solution found, obj var is: 1404
- de-normalized obj var: 0.684240
- time (local/global): 1.338/9.811
- branches (local/global): 93353/563945
- fails (local/global): 45657/272955
- lns time: 1.345000
- lns branches: 93353
- lns fails: 45657
LNS iteration #72 ========================================
- worst case average CPI: 0.678
- worst case efficiency: 0.680
- efficiency to beat: 0.680
- normalized lower bound 1412
- lns time: 3.008000
- lns branches: 195965
- lns fails: 96149
LNS iteration #73 ========================================
- worst case average CPI: 0.678
- worst case efficiency: 0.680
- efficiency to beat: 0.680
- normalized lower bound 1412
--- checking solution
--- solution ok! Maximum rounding error: 0.000035
- solution found, obj var is: 1419
- de-normalized obj var: 0.685140
- time (local/global): 0.104/12.930
- branches (local/global): 6854/766764
- fails (local/global): 3301/372405
- lns time: 0.109000
- lns branches: 6854
- lns fails: 3301
LNS iteration #74 ========================================
- worst case average CPI: 0.678
- worst case efficiency: 0.680
- efficiency to beat: 0.680
- normalized lower bound 1418
--- checking solution
--- solution ok! Maximum rounding error: 0.000351
- solution found, obj var is: 1539
- de-normalized obj var: 0.692340
- time (local/global): 0.674/13.609
- branches (local/global): 41287/808051
- fails (local/global): 20077/392482
- lns time: 0.679000
- lns branches: 41287
- lns fails: 20077
LNS iteration #75 ========================================
- worst case average CPI: 0.678
- worst case efficiency: 0.680
- efficiency to beat: 0.680
- normalized lower bound 1423
--- checking solution
--- solution ok! Maximum rounding error: 0.000321
- solution found, obj var is: 1449
- de-normalized obj var: 0.686940
- time (local/global): 0.717/14.331
- branches (local/global): 47172/855223
- fails (local/global): 22927/415409
- lns time: 0.723000
- lns branches: 47172
- lns fails: 22927
LNS iteration #76 ========================================
- worst case average CPI: 0.678
- worst case efficiency: 0.681
- efficiency to beat: 0.681
- normalized lower bound 1427
--- checking solution
--- solution ok! Maximum rounding error: 0.000030
- solution found, obj var is: 1445
- de-normalized obj var: 0.686700
- time (local/global): 0.059/14.396
- branches (local/global): 3604/858827
- fails (local/global): 1704/417113
- lns time: 0.065000
- lns branches: 3604
- lns fails: 1704
LNS iteration #77 ========================================
- worst case average CPI: 0.678
- worst case efficiency: 0.681
- efficiency to beat: 0.681
- normalized lower bound 1436
--- checking solution
--- solution ok! Maximum rounding error: 0.000049
- solution found, obj var is: 1436
- de-normalized obj var: 0.686160
- time (local/global): 0.028/14.430
- branches (local/global): 2303/861130
- fails (local/global): 1112/418225
- lns time: 0.033000
- lns branches: 2303
- lns fails: 1112
LNS iteration #78 ========================================
- worst case average CPI: 0.678
- worst case efficiency: 0.681
- efficiency to beat: 0.681
- normalized lower bound 1439
--- checking solution
--- solution ok! Maximum rounding error: 0.000080
- solution found, obj var is: 1449
- de-normalized obj var: 0.686940
- time (local/global): 0.061/14.496
- branches (local/global): 3460/864590
- fails (local/global): 1638/419863
- lns time: 0.066000
- lns branches: 3460
- lns fails: 1638
LNS iteration #79 ========================================
- worst case average CPI: 0.678
- worst case efficiency: 0.682
- efficiency to beat: 0.682
- normalized lower bound 1449
--- checking solution
--- solution ok! Maximum rounding error: 0.000028
- solution found, obj var is: 1459
- de-normalized obj var: 0.687540
- time (local/global): 0.126/14.627
- branches (local/global): 10016/874606
- fails (local/global): 4798/424661
- lns time: 0.132000
- lns branches: 10016
- lns fails: 4798
LNS iteration #80 ========================================
- worst case average CPI: 0.678
- worst case efficiency: 0.682
- efficiency to beat: 0.682
- normalized lower bound 1457
- lns time: 3.005000
- lns branches: 184474
- lns fails: 90321
LNS iteration #81 ========================================
- worst case average CPI: 0.678
- worst case efficiency: 0.682
- efficiency to beat: 0.682
- normalized lower bound 1457
--- checking solution
--- solution ok! Maximum rounding error: 0.000048
- solution found, obj var is: 1698
- de-normalized obj var: 0.701880
- time (local/global): 0.005/17.643
- branches (local/global): 240/1059320
- fails (local/global): 100/515082
- lns time: 0.011000
- lns branches: 240
- lns fails: 100
LNS iteration #82 ========================================
- worst case average CPI: 0.678
- worst case efficiency: 0.683
- efficiency to beat: 0.683
- normalized lower bound 1466
--- checking solution
--- solution ok! Maximum rounding error: 0.000029
- solution found, obj var is: 1470
- de-normalized obj var: 0.688200
- time (local/global): 1.406/19.055
- branches (local/global): 81354/1140674
- fails (local/global): 39646/554728
- lns time: 1.415000
- lns branches: 81354
- lns fails: 39646
LNS iteration #83 ========================================
- worst case average CPI: 0.678
- worst case efficiency: 0.684
- efficiency to beat: 0.684
- normalized lower bound 1478
--- checking solution
--- solution ok! Maximum rounding error: 0.000080
- solution found, obj var is: 1521
- de-normalized obj var: 0.691260
- time (local/global): 2.183/21.247
- branches (local/global): 147441/1288115
- fails (local/global): 72103/626831
- lns time: 2.188000
- lns branches: 147441
- lns fails: 72103
LNS iteration #84 ========================================
- worst case average CPI: 0.678
- worst case efficiency: 0.684
- efficiency to beat: 0.684
- normalized lower bound 1485
--- checking solution
--- solution ok! Maximum rounding error: 0.000057
- solution found, obj var is: 1519
- de-normalized obj var: 0.691140
- time (local/global): 0.072/21.324
- branches (local/global): 5058/1293173
- fails (local/global): 2408/629239
- lns time: 0.079000
- lns branches: 5058
- lns fails: 2408
LNS iteration #85 ========================================
- worst case average CPI: 0.678
- worst case efficiency: 0.684
- efficiency to beat: 0.684
- normalized lower bound 1488
--- checking solution
--- solution ok! Maximum rounding error: 0.000029
- solution found, obj var is: 1555
- de-normalized obj var: 0.693300
- time (local/global): 0.681/22.012
- branches (local/global): 39827/1333000
- fails (local/global): 19421/648660
- lns time: 0.687000
- lns branches: 39827
- lns fails: 19421
LNS iteration #86 ========================================
- worst case average CPI: 0.678
- worst case efficiency: 0.685
- efficiency to beat: 0.685
- normalized lower bound 1505
--- checking solution
--- solution ok! Maximum rounding error: 0.000229
- solution found, obj var is: 1610
- de-normalized obj var: 0.696600
- time (local/global): 0.074/22.092
- branches (local/global): 4159/1337159
- fails (local/global): 1973/650633
- lns time: 0.080000
- lns branches: 4159
- lns fails: 1973
LNS iteration #87 ========================================
- worst case average CPI: 0.747
- worst case efficiency: 0.685
- efficiency to beat: 0.685
- normalized lower bound 1506
- lns time: 3.006000
- lns branches: 176610
- lns fails: 86510
LNS iteration #88 ========================================
- worst case average CPI: 0.747
- worst case efficiency: 0.685
- efficiency to beat: 0.685
- normalized lower bound 1506
--- checking solution
--- solution ok! Maximum rounding error: 0.000055
- solution found, obj var is: 1630
- de-normalized obj var: 0.697800
- time (local/global): 0.004/25.108
- branches (local/global): 239/1514008
- fails (local/global): 100/737243
- lns time: 0.009000
- lns branches: 239
- lns fails: 100
LNS iteration #89 ========================================
- worst case average CPI: 0.747
- worst case efficiency: 0.686
- efficiency to beat: 0.686
- normalized lower bound 1521
--- checking solution
--- solution ok! Maximum rounding error: 0.000031
- solution found, obj var is: 1525
- de-normalized obj var: 0.691500
- time (local/global): 0.382/25.495
- branches (local/global): 25637/1539645
- fails (local/global): 12407/749650
- lns time: 0.387000
- lns branches: 25637
- lns fails: 12407
LNS iteration #90 ========================================
- worst case average CPI: 0.747
- worst case efficiency: 0.687
- efficiency to beat: 0.687
- normalized lower bound 1530
--- checking solution
--- solution ok! Maximum rounding error: 0.000071
- solution found, obj var is: 1533
- de-normalized obj var: 0.691980
- time (local/global): 0.550/26.050
- branches (local/global): 40471/1580116
- fails (local/global): 19716/769366
- lns time: 0.556000
- lns branches: 40471
- lns fails: 19716
LNS iteration #91 ========================================
- worst case average CPI: 0.747
- worst case efficiency: 0.687
- efficiency to beat: 0.687
- normalized lower bound 1536
--- checking solution
--- solution ok! Maximum rounding error: 0.000059
- solution found, obj var is: 1542
- de-normalized obj var: 0.692520
- time (local/global): 0.015/26.071
- branches (local/global): 873/1580989
- fails (local/global): 402/769768
- lns time: 0.021000
- lns branches: 873
- lns fails: 402
LNS iteration #92 ========================================
- worst case average CPI: 0.747
- worst case efficiency: 0.688
- efficiency to beat: 0.688
- normalized lower bound 1546
--- checking solution
--- solution ok! Maximum rounding error: 0.000068
- solution found, obj var is: 1560
- de-normalized obj var: 0.693600
- time (local/global): 0.030/26.107
- branches (local/global): 2012/1583001
- fails (local/global): 966/770734
- lns time: 0.035000
- lns branches: 2012
- lns fails: 966
LNS iteration #93 ========================================
- worst case average CPI: 0.747
- worst case efficiency: 0.688
- efficiency to beat: 0.688
- normalized lower bound 1551
--- checking solution
--- solution ok! Maximum rounding error: 0.000121
- solution found, obj var is: 1657
- de-normalized obj var: 0.699420
- time (local/global): 0.362/26.474
- branches (local/global): 17778/1600779
- fails (local/global): 8606/779340
- lns time: 0.376000
- lns branches: 17778
- lns fails: 8606
LNS iteration #94 ========================================
- worst case average CPI: 0.747
- worst case efficiency: 0.689
- efficiency to beat: 0.689
- normalized lower bound 1564
- lns time: 3.010000
- lns branches: 184412
- lns fails: 90334
LNS iteration #95 ========================================
- worst case average CPI: 0.747
- worst case efficiency: 0.689
- efficiency to beat: 0.689
- normalized lower bound 1564
--- checking solution
--- solution ok! Maximum rounding error: 0.000052
- solution found, obj var is: 1566
- de-normalized obj var: 0.693960
- time (local/global): 0.265/29.763
- branches (local/global): 17898/1803089
- fails (local/global): 8668/878342
- lns time: 0.270000
- lns branches: 17898
- lns fails: 8668
LNS iteration #96 ========================================
- worst case average CPI: 0.747
- worst case efficiency: 0.690
- efficiency to beat: 0.690
- normalized lower bound 1579
--- checking solution
--- solution ok! Maximum rounding error: 0.000016
- solution found, obj var is: 1582
- de-normalized obj var: 0.694920
- time (local/global): 0.017/29.785
- branches (local/global): 1729/1804818
- fails (local/global): 801/879143
- lns time: 0.022000
- lns branches: 1729
- lns fails: 801
LNS iteration #97 ========================================
- worst case average CPI: 0.869
- worst case efficiency: 0.690
- efficiency to beat: 0.690
- normalized lower bound 1591
--- checking solution
--- solution ok! Maximum rounding error: 0.000087
- solution found, obj var is: 1591
- de-normalized obj var: 0.695460
- time (local/global): 0.195/29.985
- branches (local/global): 11931/1816749
- fails (local/global): 5723/884866
- lns time: 0.200000
- lns branches: 11931
- lns fails: 5723
LNS iteration #98 ========================================
- worst case average CPI: 0.869
- worst case efficiency: 0.691
- efficiency to beat: 0.691
- normalized lower bound 1605
--- checking solution
--- solution ok! Maximum rounding error: 0.000021
- solution found, obj var is: 1631
- de-normalized obj var: 0.697860
- time (local/global): 0.046/30.036
- branches (local/global): 3098/1819847
- fails (local/global): 1465/886331
- lns time: 0.051000
- lns branches: 3098
- lns fails: 1465
LNS iteration #99 ========================================
- worst case average CPI: 0.869
- worst case efficiency: 0.691
- efficiency to beat: 0.691
- normalized lower bound 1608
--- checking solution
--- solution ok! Maximum rounding error: 0.000143
- solution found, obj var is: 1658
- de-normalized obj var: 0.699480
- time (local/global): 0.016/30.057
- branches (local/global): 1178/1821025
- fails (local/global): 543/886874
- lns time: 0.021000
- lns branches: 1178
- lns fails: 543
LNS iteration #100 ========================================
- worst case average CPI: 0.869
- worst case efficiency: 0.692
- efficiency to beat: 0.692
- normalized lower bound 1612
- lns time: 3.005000
- lns branches: 187631
- lns fails: 92015
LNS iteration #101 ========================================
- worst case average CPI: 0.869
- worst case efficiency: 0.692
- efficiency to beat: 0.692
- normalized lower bound 1612
--- checking solution
--- solution ok! Maximum rounding error: 0.000061
- solution found, obj var is: 1632
- de-normalized obj var: 0.697920
- time (local/global): 0.316/33.383
- branches (local/global): 20527/2029183
- fails (local/global): 9936/988825
- lns time: 0.321000
- lns branches: 20527
- lns fails: 9936
LNS iteration #102 ========================================
- worst case average CPI: 0.869
- worst case efficiency: 0.692
- efficiency to beat: 0.692
- normalized lower bound 1623
--- checking solution
--- solution ok! Maximum rounding error: 0.000058
- solution found, obj var is: 1631
- de-normalized obj var: 0.697860
- time (local/global): 0.089/33.477
- branches (local/global): 3589/2032772
- fails (local/global): 1701/990526
- lns time: 0.094000
- lns branches: 3589
- lns fails: 1701
LNS iteration #103 ========================================
- worst case average CPI: 0.869
- worst case efficiency: 0.694
- efficiency to beat: 0.694
- normalized lower bound 1650
--- checking solution
--- solution ok! Maximum rounding error: 0.000058
- solution found, obj var is: 1706
- de-normalized obj var: 0.702360
- time (local/global): 0.111/33.593
- branches (local/global): 6785/2039557
- fails (local/global): 3261/993787
- lns time: 0.118000
- lns branches: 6785
- lns fails: 3261
LNS iteration #104 ========================================
- worst case average CPI: 0.869
- worst case efficiency: 0.694
- efficiency to beat: 0.694
- normalized lower bound 1648
--- checking solution
--- solution ok! Maximum rounding error: 0.000060
- solution found, obj var is: 1649
- de-normalized obj var: 0.698940
- time (local/global): 0.415/34.015
- branches (local/global): 25864/2065421
- fails (local/global): 12500/1006287
- lns time: 0.420000
- lns branches: 25864
- lns fails: 12500
LNS iteration #105 ========================================
- worst case average CPI: 0.869
- worst case efficiency: 0.695
- efficiency to beat: 0.695
- normalized lower bound 1664
- lns time: 3.008000
- lns branches: 214689
- lns fails: 105492
LNS iteration #106 ========================================
- worst case average CPI: 0.869
- worst case efficiency: 0.695
- efficiency to beat: 0.695
- normalized lower bound 1664
--- checking solution
--- solution ok! Maximum rounding error: 0.000024
- solution found, obj var is: 1666
- de-normalized obj var: 0.699960
- time (local/global): 0.311/37.339
- branches (local/global): 19938/2300048
- fails (local/global): 9641/1121420
- lns time: 0.316000
- lns branches: 19938
- lns fails: 9641
LNS iteration #107 ========================================
- worst case average CPI: 0.869
- worst case efficiency: 0.695
- efficiency to beat: 0.695
- normalized lower bound 1674
- lns time: 3.006000
- lns branches: 192551
- lns fails: 94377
LNS iteration #108 ========================================
- worst case average CPI: 0.869
- worst case efficiency: 0.695
- efficiency to beat: 0.695
- normalized lower bound 1674
- lns time: 3.007000
- lns branches: 209454
- lns fails: 102843
LNS iteration #109 ========================================
- worst case average CPI: 0.869
- worst case efficiency: 0.695
- efficiency to beat: 0.695
- normalized lower bound 1674
--- checking solution
--- solution ok! Maximum rounding error: 0.000015
- solution found, obj var is: 1718
- de-normalized obj var: 0.703080
- time (local/global): 1.741/45.098
- branches (local/global): 108066/2810119
- fails (local/global): 52817/1371457
- lns time: 1.747000
- lns branches: 108066
- lns fails: 52817
LNS iteration #110 ========================================
- worst case average CPI: 0.869
- worst case efficiency: 0.696
- efficiency to beat: 0.696
- normalized lower bound 1683
--- checking solution
--- solution ok! Maximum rounding error: 0.000037
- solution found, obj var is: 1818
- de-normalized obj var: 0.709080
- time (local/global): 0.077/45.181
- branches (local/global): 3933/2814052
- fails (local/global): 1857/1373314
- lns time: 0.083000
- lns branches: 3933
- lns fails: 1857
LNS iteration #111 ========================================
- worst case average CPI: 0.869
- worst case efficiency: 0.697
- efficiency to beat: 0.697
- normalized lower bound 1707
- lns time: 3.006000
- lns branches: 177146
- lns fails: 86825
LNS iteration #112 ========================================
- worst case average CPI: 0.869
- worst case efficiency: 0.697
- efficiency to beat: 0.697
- normalized lower bound 1707
- lns time: 3.006000
- lns branches: 179939
- lns fails: 88234
LNS iteration #113 ========================================
- worst case average CPI: 0.869
- worst case efficiency: 0.697
- efficiency to beat: 0.697
- normalized lower bound 1707
- lns time: 3.006000
- lns branches: 173187
- lns fails: 84692
LNS iteration #114 ========================================
- worst case average CPI: 0.869
- worst case efficiency: 0.697
- efficiency to beat: 0.697
- normalized lower bound 1707
--- checking solution
--- solution ok! Maximum rounding error: 0.000008
- solution found, obj var is: 1709
- de-normalized obj var: 0.702540
- time (local/global): 0.144/54.349
- branches (local/global): 8357/3352681
- fails (local/global): 4001/1637066
- lns time: 0.149000
- lns branches: 8357
- lns fails: 4001
LNS iteration #115 ========================================
- worst case average CPI: 0.869
- worst case efficiency: 0.698
- efficiency to beat: 0.698
- normalized lower bound 1714
--- checking solution
--- solution ok! Maximum rounding error: 0.000107
- solution found, obj var is: 1715
- de-normalized obj var: 0.702900
- time (local/global): 0.001/54.355
- branches (local/global): 28/3352709
- fails (local/global): 5/1637071
- lns time: 0.007000
- lns branches: 28
- lns fails: 5
LNS iteration #116 ========================================
- worst case average CPI: 0.869
- worst case efficiency: 0.699
- efficiency to beat: 0.699
- normalized lower bound 1734
- lns time: 3.006000
- lns branches: 203241
- lns fails: 99703
LNS iteration #117 ========================================
- worst case average CPI: 0.869
- worst case efficiency: 0.699
- efficiency to beat: 0.699
- normalized lower bound 1734
- lns time: 3.006000
- lns branches: 229315
- lns fails: 112448
LNS iteration #118 ========================================
- worst case average CPI: 0.869
- worst case efficiency: 0.699
- efficiency to beat: 0.699
- normalized lower bound 1734
- lns time: 3.006000
- lns branches: 204329
- lns fails: 100236
LNS iteration #119 ========================================
- worst case average CPI: 0.869
- worst case efficiency: 0.699
- efficiency to beat: 0.699
- normalized lower bound 1734
--- checking solution
--- solution ok! Maximum rounding error: 0.000040
- solution found, obj var is: 1747
- de-normalized obj var: 0.704820
- time (local/global): 2.099/65.478
- branches (local/global): 119957/4109551
- fails (local/global): 58585/2008043
- lns time: 2.109000
- lns branches: 119957
- lns fails: 58585
LNS iteration #120 ========================================
- worst case average CPI: 0.869
- worst case efficiency: 0.699
- efficiency to beat: 0.699
- normalized lower bound 1741
- lns time: 3.006000
- lns branches: 170406
- lns fails: 83371
LNS iteration #121 ========================================
- worst case average CPI: 0.869
- worst case efficiency: 0.699
- efficiency to beat: 0.699
- normalized lower bound 1741
- lns time: 3.006000
- lns branches: 187354
- lns fails: 91712
LNS iteration #122 ========================================
- worst case average CPI: 0.869
- worst case efficiency: 0.699
- efficiency to beat: 0.699
- normalized lower bound 1741
- lns time: 3.005000
- lns branches: 250317
- lns fails: 123625
LNS iteration #123 ========================================
- worst case average CPI: 0.869
- worst case efficiency: 0.699
- efficiency to beat: 0.699
- normalized lower bound 1741
- lns time: 3.005000
- lns branches: 228821
- lns fails: 112098
LNS iteration #124 ========================================
- worst case average CPI: 0.869
- worst case efficiency: 0.699
- efficiency to beat: 0.699
- normalized lower bound 1741
- lns time: 3.005000
- lns branches: 216553
- lns fails: 106314
LNS iteration #125 ========================================
- worst case average CPI: 0.869
- worst case efficiency: 0.699
- efficiency to beat: 0.699
- normalized lower bound 1741
- lns time: 3.005000
- lns branches: 197187
- lns fails: 96639
LNS iteration #126 ========================================
- worst case average CPI: 0.869
- worst case efficiency: 0.699
- efficiency to beat: 0.699
- normalized lower bound 1741
--- checking solution
--- solution ok! Maximum rounding error: 0.000052
- solution found, obj var is: 1744
- de-normalized obj var: 0.704640
- time (local/global): 0.902/84.422
- branches (local/global): 49873/5410062
- fails (local/global): 24200/2646002
- lns time: 0.912000
- lns branches: 49873
- lns fails: 24200
LNS iteration #127 ========================================
- worst case average CPI: 0.869
- worst case efficiency: 0.700
- efficiency to beat: 0.700
- normalized lower bound 1744
--- checking solution
--- solution ok! Maximum rounding error: 0.000055
- solution found, obj var is: 1744
- de-normalized obj var: 0.704640
- time (local/global): 0.307/84.739
- branches (local/global): 20802/5430864
- fails (local/global): 10054/2656056
- lns time: 0.313000
- lns branches: 20802
- lns fails: 10054
LNS iteration #128 ========================================
- worst case average CPI: 0.869
- worst case efficiency: 0.700
- efficiency to beat: 0.700
- normalized lower bound 1744
--- checking solution
--- solution ok! Maximum rounding error: 0.000026
- solution found, obj var is: 1749
- de-normalized obj var: 0.704940
- time (local/global): 1.176/85.921
- branches (local/global): 56632/5487496
- fails (local/global): 27583/2683639
- lns time: 1.181000
- lns branches: 56632
- lns fails: 27583
LNS iteration #129 ========================================
- worst case average CPI: 0.869
- worst case efficiency: 0.700
- efficiency to beat: 0.700
- normalized lower bound 1756
- lns time: 3.010000
- lns branches: 189234
- lns fails: 92716
LNS iteration #130 ========================================
- worst case average CPI: 0.869
- worst case efficiency: 0.700
- efficiency to beat: 0.700
- normalized lower bound 1756
--- checking solution
--- solution ok! Maximum rounding error: 0.000032
- solution found, obj var is: 1759
- de-normalized obj var: 0.705540
- time (local/global): 0.004/88.940
- branches (local/global): 208/5676938
- fails (local/global): 94/2776449
- lns time: 0.009000
- lns branches: 208
- lns fails: 94
LNS iteration #131 ========================================
- worst case average CPI: 0.869
- worst case efficiency: 0.700
- efficiency to beat: 0.700
- normalized lower bound 1757
- lns time: 1.061000
- lns branches: 77731
- lns fails: 37925

LNS optimization is over========================================
initial worst case average CPI: 1.966
final worst case average CPI: 0.869
initial worst case efficiency: 0.617
final worst case efficiency: 0.700
number of iterations: 132
total time: 90006.000000
total branches: 5754669
total fails: 2814374

Final Solution: 0->7, 1->30, 2->45, 3->19, 4->6, 5->33, 6->36, 7->5, 8->46, 9->34, 10->10, 11->10, 12->3, 13->47, 14->10, 15->40, 16->19, 17->37, 18->34, 19->0, 20->44, 21->16, 22->38, 23->32, 24->24, 25->36, 26->7, 27->23, 28->38, 29->31, 30->35, 31->43, 32->0, 33->20, 34->31, 35->41, 36->43, 37->4, 38->2, 39->0, 40->37, 41->25, 42->10, 43->30, 44->35, 45->1, 46->46, 47->46, 48->4, 49->12, 50->39, 51->44, 52->27, 53->35, 54->27, 55->37, 56->41, 57->33, 58->20, 59->4, 60->22, 61->9, 62->30, 63->36, 64->46, 65->40, 66->1, 67->45, 68->17, 69->20, 70->29, 71->13, 72->34, 73->1, 74->37, 75->11, 76->20, 77->3, 78->27, 79->36, 80->15, 81->18, 82->31, 83->11, 84->26, 85->16, 86->5, 87->29, 88->30, 89->46, 90->47, 91->22, 92->15, 93->35, 94->35, 95->13, 96->3, 97->8, 98->45, 99->37, 100->39, 101->27, 102->27, 103->46, 104->14, 105->5, 106->24, 107->23, 108->4, 109->41, 110->0, 111->23, 112->27, 113->43, 114->16, 115->12, 116->45, 117->31, 118->6, 119->25, 120->25, 121->30, 122->18, 123->3, 124->29, 125->32, 126->41, 127->43, 128->19, 129->23, 130->26, 131->19, 132->28, 133->25, 134->0, 135->20, 136->15, 137->14, 138->14, 139->8, 140->2, 141->11, 142->10, 143->39, 144->35, 145->33, 146->6, 147->21, 148->33, 149->41, 150->8, 151->33, 152->34, 153->31, 154->24, 155->1, 156->2, 157->28, 158->43, 159->5, 160->6, 161->9, 162->38, 163->6, 164->42, 165->45, 166->19, 167->33, 168->36, 169->39, 170->28, 171->29, 172->16, 173->12, 174->12, 175->21, 176->11, 177->40, 178->15, 179->36, 180->21, 181->11, 182->6, 183->21, 184->11, 185->42, 186->18, 187->42, 188->18, 189->42, 190->19, 191->38, 192->7, 193->2, 194->37, 195->13, 196->21, 197->40, 198->39, 199->26, 200->12, 201->21, 202->47, 203->31, 204->7, 205->47, 206->45, 207->39, 208->5, 209->1, 210->25, 211->32, 212->24, 213->17, 214->8, 215->0, 216->22, 217->18, 218->32, 219->42, 220->28, 221->22, 222->9, 223->34, 224->7, 225->1, 226->44, 227->32, 228->44, 229->22, 230->42, 231->2, 232->7, 233->41, 234->4, 235->26, 236->47, 237->8, 238->24, 239->17, 240->14, 241->5, 242->3, 243->15, 244->20, 245->43, 246->17, 247->29, 248->40, 249->28, 250->34, 251->12, 252->8, 253->2, 254->9, 255->23, 256->13, 257->4, 258->38, 259->44, 260->28, 261->13, 262->38, 263->26, 264->47, 265->16, 266->44, 267->17, 268->13, 269->16, 270->15, 271->9, 272->29, 273->23, 274->10, 275->30, 276->14, 277->26, 278->14, 279->3, 280->22, 281->24, 282->32, 283->25, 284->18, 285->9, 286->17, 287->40

Average CPI map:
	3.47,	1.11,	1.24,	1.12,	1.23,	1.24
	1.58,	2.28,	2.36,	2.51,	2.18,	1.17
	0.87,	2.57,	3.71,	4.02,	2.70,	1.76
	1.01,	2.56,	3.69,	2.86,	2.46,	1.13
	0.97,	3.57,	2.66,	2.86,	3.50,	1.07
	1.39,	2.65,	2.76,	2.52,	2.68,	1.72
	1.56,	2.46,	2.53,	2.84,	2.25,	1.56
	0.97,	2.26,	2.58,	1.99,	2.12,	1.71

Efficiency map:
	0.997,	0.852,	0.906,	0.786,	0.905,	1.003
	0.716,	0.711,	0.709,	0.706,	0.702,	0.839
	0.822,	0.702,	0.707,	0.706,	0.702,	0.780
	0.813,	0.704,	0.707,	0.705,	0.701,	0.943
	0.815,	0.705,	0.700,	0.704,	0.708,	0.774
	0.778,	0.720,	0.713,	0.703,	0.718,	0.820
	0.811,	0.706,	0.705,	0.715,	0.705,	0.813
	0.808,	0.707,	0.706,	0.701,	0.709,	0.808
