LocalSolver 4.0 (MacOS64, build 20131224)
Copyright (C) 2013 Bouygues SA, Aix-Marseille University, CNRS.
All rights reserved (see Terms and Conditions for details).

Load localsolver_res/tawd_ls.lsp...
Run input...
ANNs For the Platform:
4,2,1,6.45294,0.0174524,1.58234,2.29305,2.12057,3.95113,12.7206,-19.3278,5.58789,9.38298,0.00306445,0.00353919,0.795949
4,2,1,3.10684,7.56359,0.502116,0.637049,12.0356,-2.9013,-3.22211,-0.368567,-0.562298,-7.37831,2.38595,1.22203,-0.360292
4,2,1,4.88387,44.8399,1.27345,1.24496,49.1775,-8.83277,-3.12983,-1.00946,11.7,-3.01002,0.132635,0.00372271,0.673996
4,2,1,4.73045,19.3982,0.449241,0.753865,25.7092,17.3605,0.0558085,-8.91516,0.49993,10.3396,4.06312,-0.0136297,-3.24599
4,2,1,-7.16849,-10.0957,-0.518885,-0.00359459,5.93351,5.62684,52.0516,1.48603,1.30274,57.2311,0.250578,0.137157,0.417379
4,2,1,0.412706,-2.89716,0.137754,-2.57826,11.0947,121.374,858.444,-136.26,-14917.8,-1308.92,-3.36558,-0.000403784,4.17997
4,2,1,-8.8269,-0.482244,-0.0820712,-0.0562713,-10.1617,9.78118,-7.01882,-0.428151,-0.0606718,2.56012,-8.54699,-0.509991,-7.23704
4,2,1,2.19881,4.94147,0.541452,0.107587,6.45213,1.0452,0.405805,0.555763,3.64728,1.95727,0.425683,-0.00188273,0.383643
4,2,1,-6.13316,1.92598,-0.0562274,-0.0731719,-4.60606,0.509071,7.79918,0.393802,0.0114563,7.9345,-1.13416,0.310582,-0.637365
4,2,1,1.73462,2.97854,0.276167,0.0859465,3.6912,3.09203,3.25403,0.324282,0.112495,4.06123,0.954718,-0.48836,0.344765
4,2,1,1.57339,3.84603,-3.4467,0.7429,2.75709,2.1802,5.09535,0.482172,0.106131,6.49189,-0.0251827,0.433535,0.393482
4,2,1,4.13514,21.6229,1.1931,0.354612,24.1372,25.5916,0.432728,-12.6725,-0.45345,15.3428,0.194819,-0.0364695,0.647465
4,2,1,-0.728632,5.60079,1.78098,1.8429,-5.74354,-3.26566,-13.0026,-0.907163,-0.31822,-15.3707,-0.427666,-0.224298,0.154329
4,2,1,3.81854,-4.98219,-0.293924,-0.103604,-6.7034,2.28654,4.72568,0.469524,0.115005,6.05901,-0.511241,0.421809,-0.121549
4,2,1,-1.23773,5.98591,0.224555,-0.359337,6.05767,2.3852,3.4706,0.220977,0.179377,4.88772,0.199751,0.432231,0.177791
4,2,1,1.12189,4.09326,0.850801,0.171671,-5.17646,-1.9656,-4.07995,-0.210811,-0.113853,-5.17242,-2.70452,-0.46094,-2.36326
4,2,1,2.08858,4.80174,0.367584,0.109336,6.02292,4.32969,4.35157,0.772172,10.015,-0.96022,0.43933,4.17055e-05,0.365228
4,2,1,1.18806,3.00188,0.124753,0.00191203,3.75084,1.03049,2.7808,0.137818,0.0250058,4.01619,-1.05018,2.49176,-0.635083
4,2,1,3.11788,10.9247,0.699295,0.170953,13.0959,-11.4646,-5.88946,11.0137,8.74787,-11.701,0.236706,0.0216102,0.59131
4,2,1,7.53568,1.94998,-2.27776,-1.91765,0.451708,2.13206,4.27547,0.333162,0.0864645,5.45063,-0.0153486,0.447774,0.366202
4,2,1,-2.12436,-3.29848,-0.0965154,-0.0454545,-3.86293,4.27042,3.64797,0.106703,0.057602,4.81479,-1.28015,-0.815344,0.346524
4,2,1,2.06313,3.99765,-9.94001e-06,0.200591,5.05136,-0.024567,-3.22765,-1.84842,1.73493,-3.87425,0.446216,-0.0350173,0.320411
4,2,1,3.3952,3.19239,0.219932,0.0459907,4.0724,1.85184,2.9352,0.236295,0.0535068,3.62882,-0.516849,0.990723,0.337742
4,2,1,-6.32145,2.68844,0.160066,0.0633176,-3.81442,9.03888,1.31396,0.253255,-0.0684612,6.93971,1.83579,0.440423,2.20116
4,2,1,-4.54148,-0.217309,1.86369,-0.409034,0.0885675,-3.10698,-12.3715,-0.753639,-0.275832,-14.544,0.00344558,-0.233405,0.57337
4,2,1,-0.743367,6.86662,-0.19496,-0.0184317,7.54898,2.69258,3.24789,0.437511,0.121848,4.97423,0.830361,0.39615,-0.417087
4,2,1,2.07654,3.2533,0.103762,0.0837251,4.40922,1.95615,-2.57949,-0.10147,-0.0485499,-3.72005,0.479113,-0.433879,-0.0966803
4,2,1,-0.480501,-0.00331725,1.67452,0.764966,-1.53387,1.99113,3.67475,0.0228188,0.0287235,4.64739,0.15721,0.465135,0.487915
4,2,1,1.11584,-5.79333,-0.212675,0.376981,-6.64888,2.45003,3.54368,0.313683,0.144659,5.05472,-0.777178,0.423599,-0.389995
4,2,1,2.39093,1.70258,-0.183288,-0.314006,4.06496,2.34881,2.91375,-0.0230153,-0.18977,5.26307,-1.33645,1.84807,0.292237
4,2,1,0.88022,3.23795,0.179315,0.0205209,3.57684,0.764441,2.74982,0.156077,0.0273373,3.62313,-0.980719,2.16912,-0.37872
4,2,1,-1.27932,7.09751,-0.0490235,0.455487,7.14709,-2.57722,-4.06233,-0.410784,-0.0433739,-5.6171,0.164894,-0.408714,0.23583
4,2,1,0.623158,5.01876,0.194867,0.0365944,4.99458,-16.0815,2.94826,-1.82463,-1.90388,-9.56395,0.291148,-0.155001,0.360694
4,2,1,1.86251,3.92056,0.158781,0.0575693,4.93436,0.681285,4.09563,1.09826,-3.65606,2.09524,0.482473,-0.00448292,0.322397
4,2,1,3.33939,3.52877,0.262622,0.0607689,4.45842,2.23218,3.37107,0.256541,0.0516206,4.05014,-1.2701,1.7162,0.365737
4,2,1,5.0585,4.68315,2.53887,0.128578,8.9709,3.62833,11.0789,1.32555,0.190392,13.8026,-0.126366,0.350541,0.580103
4,2,1,4.99986,2.75557,1.33036,-0.0119951,6.91685,4.23025,5.34568,1.08928,0.0379928,8.80363,-0.700785,0.958812,0.547325
4,2,1,1.95024,3.24732,0.229322,0.0270089,3.53624,1.62575,3.04977,0.230194,0.0319079,3.46966,-1.34015,1.81817,0.333213
4,2,1,2.11055,5.16581,0.225183,0.0767342,6.2013,3.43647,-3.10756,1.22453,-6.27082,5.92438,0.428242,2.12665,-1.75474
4,2,1,10.028,2.55152,-0.0579427,-0.0186516,-2.98054,2.14055,4.33639,0.203596,0.057269,5.47668,0.0078111,0.436528,0.371941
4,2,1,1.80421,3.45533,0.27065,0.0337725,4.14172,3.00203,3.65885,0.26995,0.0620062,4.37924,0.892686,-0.440136,0.355377
4,2,1,-2.76424,-10.7675,-0.741451,-0.141046,-12.927,13.6995,2.51611,0.90934,27.76,15.1973,-0.260938,-0.00175312,0.546274
4,2,1,2.26659,3.88332,0.083697,0.287373,-5.89957,3.07548,7.5942,0.285535,0.141703,9.90558,1.94369,0.273352,2.47758
4,2,1,5.41472,-1.35343,-0.0808605,2.27411,0.928252,2.55844,6.15687,0.338903,0.0735359,7.47381,-0.0148119,0.388691,0.423615
4,2,1,4.53285,3.66527,0.130055,0.0722232,4.95325,-2.1632,-3.34312,-0.11633,-0.0577237,-3.98867,-0.759785,-1.19124,0.379449
4,2,1,2.36669,5.75119,0.132783,0.0812059,6.8845,-8.68015,-0.488627,0.811521,2.16444,0.277436,0.40839,0.00790296,0.400784
4,2,1,0.583762,8.58805,0.307497,0.0165495,8.61973,-7.32584,1.34397,-0.0108636,-0.0260377,-6.96836,0.266022,-5.2323,-4.69173
4,2,1,1.76683,-0.336959,-0.116305,-0.0696435,-1.62311,2.51027,5.65249,0.180271,0.0657051,7.97995,-0.0500539,0.457869,0.308072
Workload Information:
5.43083, 0.846831, 0.5, 0.652849, 2.47094, 2.09855, 1.78214, 1.89325, 2.37566, 2.25137, 1.8154, 1.88219, 2.61464, 2.87522, 2.33856, 0.979855, 1.54307, 1.64866, 2.36799, 3.12893, 1.92914, 1.66545, 1.4476, 1.46089, 0.904489, 1.92516, 3.43279, 1.28338, 2.25966, 2.19452, 2.55022, 2.78861, 0.5, 2.81406, 0.664355, 2.68275, 0.514187, 3.39168, 3.11245, 0.532515, 3.94917, 0.5, 2.28941, 0.577209, 3.34893, 3.48031, 0.5, 1.80413, 1.12712, 2.78344, 0.5, 2.03939, 3.57351, 1.97653, 1.94836, 4.10893, 0.5, 3.03288, 0.592334, 1.81749, 2.21826, 1.79282, 2.25651, 2.20399, 2.25821, 1.2702, 1.10852, 3.4975, 3.52883, 2.84283, 0.5, 0.522315, 2.23127, 2.29447, 1.94743, 1.15556, 2.06765, 2.30363, 3.99612, 1.00188, 0.5, 0.909134, 4.97378, 0.619083, 3.81571, 2.20031, 1.47596, 2.37954, 0.5, 1.62847, 18.2709, 34.7112, 10.9156, 12.7765, 35, 20.3258, 1.90049, 2.42843, 0.5, 1.27537, 4.38409, 1.51162, 2.15977, 2.01288, 2.71314, 2.19569, 1.92999, 0.988539, 0.622872, 3.35123, 0.5, 3.56069, 2.42638, 1.53884, 3.05416, 1.28964, 2.8098, 0.5, 3.41914, 0.927258, 2.86078, 0.919532, 3.11728, 1.05394, 0.5, 3.54847, 0.806652, 1.96282, 1.81311, 2.82054, 2.42039, 2.17649, 3.10721, 1.85215, 2.83333, 1.25211, 1.78501, 1.17019, 2.39235, 0.917416, 2.03617, 2.62819, 2.65586, 1.37001, 0.5, 0.81376, 4.18687, 0.761575, 4.10168, 1.63612, 1.31548, 0.5, 1.75947, 1.2712, 1.58142, 5.57242, 0.5, 1.213, 1.77748, 3.94291, 2.61327, 1.95335, 3.03731, 0.5, 1.93913, 1.1377, 3.19529, 2.19058, 3.38841, 0.754301, 1.1115, 0.5, 2.50944, 3.73634, 1.15008, 3.45956, 3.13002, 2.39488, 0.586407, 1.27904, 3.95646, 2.18818, 0.818208, 1.24856, 0.876001, 2.91259, 1.18745, 2.7227, 1.40181, 2.47111, 2.47244, 1.74449, 5.793, 1.27361, 1.52309, 1.76074, 0.5, 1.14957, 2.17614, 3.84929, 2.18361, 1.03366, 2.2573, 0.5, 2.21916, 2.13373, 2.37615, 0.5, 2.25941, 2.51155, 4.81962, 0.5, 0.522854, 2.16593, 3.45629, 0.535304, 0.507733, 3.97852, 1.72979, 2.52493, 0.716319, 2.54271, 3.10751, 0.5, 2.41706, 2.45753, 2.96668, 0.551223, 2.63326, 2.5958, 2.18761, 2.57435, 0.5, 1.50899, 0.5, 2.55441, 2.12355, 2.54257, 2.31356, 1.96591, 2.11884, 1.45463, 2.32145, 2.13165, 2.07741, 1.89603, 2.19979, 2.23706, 1.57536, 1.62265, 2.19076, 2.17437, 1.17379, 1.62116, 1.44191, 3.61089, 0.996352, 3.1559, 0.91361, 0.5, 3.84622, 3.11552, 1.95067, 1.67398, 3.84838, 0.572116, 1.58161, 1.71341, 3.78449, 0.5, 2.74025, 2.74401, 0.587667, 0.792352, 2.42444, 2.71128, 1.82558, 2.22267, 2.12212, 1.556, 2.27243, 2.0012, 2.25107, 2.59722, 2.95243, 2.40883, 0.5, 1.29045
cpi min/max: 0.5/35
neighbors of 0: 1 6, number of others: 45
neighbors of 1: 0 2 6 7, number of others: 43
neighbors of 2: 1 3 7 8, number of others: 43
neighbors of 3: 2 4 8 9, number of others: 43
neighbors of 4: 3 5 9 10, number of others: 43
neighbors of 5: 4 10 11, number of others: 44
neighbors of 6: 0 1 7 12, number of others: 43
neighbors of 7: 1 2 6 8 12 13, number of others: 41
neighbors of 8: 2 3 7 9 13 14, number of others: 41
neighbors of 9: 3 4 8 10 14 15, number of others: 41
neighbors of 10: 4 5 9 11 15 16, number of others: 41
neighbors of 11: 5 10 16 17, number of others: 43
neighbors of 12: 6 7 13 18, number of others: 43
neighbors of 13: 7 8 12 14 18 19, number of others: 41
neighbors of 14: 8 9 13 15 19 20, number of others: 41
neighbors of 15: 9 10 14 16 20 21, number of others: 41
neighbors of 16: 10 11 15 17 21 22, number of others: 41
neighbors of 17: 11 16 22 23, number of others: 43
neighbors of 18: 12 13 19 24, number of others: 43
neighbors of 19: 13 14 18 20 24 25, number of others: 41
neighbors of 20: 14 15 19 21 25 26, number of others: 41
neighbors of 21: 15 16 20 22 26 27, number of others: 41
neighbors of 22: 16 17 21 23 27 28, number of others: 41
neighbors of 23: 17 22 28 29, number of others: 43
neighbors of 24: 18 19 25 30, number of others: 43
neighbors of 25: 19 20 24 26 30 31, number of others: 41
neighbors of 26: 20 21 25 27 31 32, number of others: 41
neighbors of 27: 21 22 26 28 32 33, number of others: 41
neighbors of 28: 22 23 27 29 33 34, number of others: 41
neighbors of 29: 23 28 34 35, number of others: 43
neighbors of 30: 24 25 31 36, number of others: 43
neighbors of 31: 25 26 30 32 36 37, number of others: 41
neighbors of 32: 26 27 31 33 37 38, number of others: 41
neighbors of 33: 27 28 32 34 38 39, number of others: 41
neighbors of 34: 28 29 33 35 39 40, number of others: 41
neighbors of 35: 29 34 40 41, number of others: 43
neighbors of 36: 30 31 37 42, number of others: 43
neighbors of 37: 31 32 36 38 42 43, number of others: 41
neighbors of 38: 32 33 37 39 43 44, number of others: 41
neighbors of 39: 33 34 38 40 44 45, number of others: 41
neighbors of 40: 34 35 39 41 45 46, number of others: 41
neighbors of 41: 35 40 46 47, number of others: 43
neighbors of 42: 36 37 43, number of others: 44
neighbors of 43: 37 38 42 44, number of others: 43
neighbors of 44: 38 39 43 45, number of others: 43
neighbors of 45: 39 40 44 46, number of others: 43
neighbors of 46: 40 41 45 47, number of others: 43
neighbors of 47: 41 46, number of others: 45
Run model...
Preprocess model 0% ...Preprocess model 16% ...Preprocess model 32% ...Preprocess model 48% ...Preprocess model 66% ...Preprocess model 84% ...Preprocess model 100% ...
Close model 0% ...Close model 9% ...Close model 18% ...Close model 27% ...Close model 36% ...Close model 45% ...Close model 54% ...Close model 63% ...Close model 72% ...Close model 81% ...Close model 91% ...Close model 100% ...
Run param...
Run solver...
Initialize threads 0% ...Initialize threads 100% ...
Push initial solutions 0% ...Push initial solutions 100% ...

Model: 
  expressions = 44722, operands = 116736
  decisions = 13824, constraints = 336, objectives = 1

Param: 
  time limit = 90 sec, no iteration limit
  seed = 501, nb threads = 1, annealing level = 1

Objectives:
  Obj 0: maximize, no bound

Phases:
  Phase 0: time limit = 90 sec, no iteration limit, optimized objective = 0


Computed bounds:
  Obj 0: upper bound = 0.664125


Phase 0:
[0 sec, 0 itr]: infeas = (336, 336, 576), mov = 0, inf < 0.1%, acc < 0.1%, imp = 0

worst case efficiency: 0.998464
[1 sec, 12834 itr]: obj = (0.0295333), mov = 12834, inf = 93.2%, acc = 6.1%, imp = 146

worst case efficiency: 0.61772
[2 sec, 33481 itr]: obj = (0.053275), mov = 33481, inf = 97.1%, acc = 2.7%, imp = 207

worst case efficiency: 0.631965
[3 sec, 45979 itr]: obj = (0.060156), mov = 45979, inf = 97.7%, acc = 2.2%, imp = 254

worst case efficiency: 0.636094
[4 sec, 55602 itr]: obj = (0.0690852), mov = 55602, inf = 97.8%, acc = 2.1%, imp = 326

worst case efficiency: 0.641451
[5 sec, 63769 itr]: obj = (0.0787618), mov = 63769, inf = 97.8%, acc = 2.1%, imp = 368

worst case efficiency: 0.647257
[6 sec, 71005 itr]: obj = (0.0795779), mov = 71005, inf = 97.8%, acc = 2%, imp = 370

worst case efficiency: 0.647747
[7 sec, 78340 itr]: obj = (0.0901983), mov = 78340, inf = 97.8%, acc = 2%, imp = 430

worst case efficiency: 0.654119
[8 sec, 86004 itr]: obj = (0.102185), mov = 86004, inf = 97.7%, acc = 2%, imp = 485

worst case efficiency: 0.661311
[9 sec, 93416 itr]: obj = (0.104543), mov = 93416, inf = 97.7%, acc = 1.9%, imp = 521

worst case efficiency: 0.662726
[10 sec, 101035 itr]: obj = (0.107419), mov = 101035, inf = 97.7%, acc = 1.9%, imp = 564

worst case efficiency: 0.664451
[11 sec, 108660 itr]: obj = (0.10864), mov = 108660, inf = 97.8%, acc = 1.8%, imp = 591

worst case efficiency: 0.665184
[12 sec, 116222 itr]: obj = (0.1122), mov = 116222, inf = 97.8%, acc = 1.8%, imp = 625

worst case efficiency: 0.66732
[13 sec, 124126 itr]: obj = (0.114471), mov = 124126, inf = 97.8%, acc = 1.8%, imp = 658

worst case efficiency: 0.668682
[14 sec, 131792 itr]: obj = (0.118105), mov = 131792, inf = 97.8%, acc = 1.8%, imp = 697

worst case efficiency: 0.670863
[15 sec, 139300 itr]: obj = (0.122068), mov = 139300, inf = 97.8%, acc = 1.7%, imp = 731

worst case efficiency: 0.673241
[16 sec, 146490 itr]: obj = (0.124562), mov = 146490, inf = 97.8%, acc = 1.7%, imp = 777

worst case efficiency: 0.674737
[17 sec, 153527 itr]: obj = (0.126683), mov = 153527, inf = 97.8%, acc = 1.7%, imp = 810

worst case efficiency: 0.67601
[18 sec, 160165 itr]: obj = (0.131117), mov = 160165, inf = 97.9%, acc = 1.7%, imp = 843

worst case efficiency: 0.67867
[19 sec, 167437 itr]: obj = (0.135378), mov = 167437, inf = 97.9%, acc = 1.7%, imp = 888

worst case efficiency: 0.681227
[20 sec, 174860 itr]: obj = (0.13977), mov = 174860, inf = 97.9%, acc = 1.6%, imp = 927

worst case efficiency: 0.683862
[21 sec, 182199 itr]: obj = (0.146971), mov = 182199, inf = 98%, acc = 1.6%, imp = 967

worst case efficiency: 0.688183
[22 sec, 189845 itr]: obj = (0.14787), mov = 189845, inf = 98%, acc = 1.6%, imp = 977

worst case efficiency: 0.688722
[23 sec, 196390 itr]: obj = (0.14787), mov = 196390, inf = 98%, acc = 1.5%, imp = 977

worst case efficiency: 0.688722
[24 sec, 201833 itr]: obj = (0.14787), mov = 201833, inf = 98.1%, acc = 1.5%, imp = 977

worst case efficiency: 0.688722
[25 sec, 208493 itr]: obj = (0.148489), mov = 208493, inf = 98.1%, acc = 1.5%, imp = 988

worst case efficiency: 0.689094
[26 sec, 214563 itr]: obj = (0.149668), mov = 214563, inf = 98.1%, acc = 1.5%, imp = 1014

worst case efficiency: 0.689801
[27 sec, 220863 itr]: obj = (0.150934), mov = 220863, inf = 98.1%, acc = 1.5%, imp = 1040

worst case efficiency: 0.690561
[28 sec, 227985 itr]: obj = (0.153463), mov = 227985, inf = 98.1%, acc = 1.5%, imp = 1061

worst case efficiency: 0.692078
[29 sec, 235330 itr]: obj = (0.154481), mov = 235330, inf = 98.1%, acc = 1.5%, imp = 1086

worst case efficiency: 0.692689
[30 sec, 243398 itr]: obj = (0.155027), mov = 243398, inf = 98.1%, acc = 1.4%, imp = 1100

worst case efficiency: 0.693016
[31 sec, 255931 itr]: obj = (0.156255), mov = 255931, inf = 98.2%, acc = 1.4%, imp = 1124

worst case efficiency: 0.693753
[32 sec, 274202 itr]: obj = (0.157741), mov = 274202, inf = 98.1%, acc = 1.4%, imp = 1141

worst case efficiency: 0.694645
[33 sec, 300292 itr]: obj = (0.157893), mov = 300292, inf = 98.1%, acc = 1.4%, imp = 1148

worst case efficiency: 0.694736
[34 sec, 334212 itr]: obj = (0.157903), mov = 334212, inf = 98.1%, acc = 1.4%, imp = 1149

worst case efficiency: 0.694742
[35 sec, 367105 itr]: obj = (0.157903), mov = 367105, inf = 98.1%, acc = 1.3%, imp = 1149

worst case efficiency: 0.694742
[36 sec, 397611 itr]: obj = (0.158098), mov = 397611, inf = 98.1%, acc = 1.3%, imp = 1152

worst case efficiency: 0.694859
[37 sec, 429780 itr]: obj = (0.158106), mov = 429780, inf = 98.1%, acc = 1.3%, imp = 1153

worst case efficiency: 0.694863
[38 sec, 458397 itr]: obj = (0.158111), mov = 458397, inf = 98.1%, acc = 1.3%, imp = 1154

worst case efficiency: 0.694867
[39 sec, 489779 itr]: obj = (0.158111), mov = 489779, inf = 98.1%, acc = 1.3%, imp = 1154

worst case efficiency: 0.694867
[40 sec, 523583 itr]: obj = (0.158111), mov = 523583, inf = 98.1%, acc = 1.2%, imp = 1154

worst case efficiency: 0.694867
[41 sec, 556141 itr]: obj = (0.158297), mov = 556141, inf = 98.1%, acc = 1.2%, imp = 1160

worst case efficiency: 0.694978
[42 sec, 584714 itr]: obj = (0.158297), mov = 584714, inf = 98.1%, acc = 1.2%, imp = 1160

worst case efficiency: 0.694978
[43 sec, 616896 itr]: obj = (0.158447), mov = 616896, inf = 98.1%, acc = 1.2%, imp = 1161

worst case efficiency: 0.695068
[44 sec, 645196 itr]: obj = (0.158447), mov = 645196, inf = 98.2%, acc = 1.2%, imp = 1162

worst case efficiency: 0.695068
[45 sec, 672723 itr]: obj = (0.158449), mov = 672723, inf = 98.2%, acc = 1.2%, imp = 1163

worst case efficiency: 0.695069
[46 sec, 706179 itr]: obj = (0.15847), mov = 706179, inf = 98.2%, acc = 1.1%, imp = 1164

worst case efficiency: 0.695082
[47 sec, 735671 itr]: obj = (0.15847), mov = 735671, inf = 98.2%, acc = 1.1%, imp = 1164

worst case efficiency: 0.695082
[48 sec, 766966 itr]: obj = (0.158652), mov = 766966, inf = 98.3%, acc = 1.1%, imp = 1167

worst case efficiency: 0.695191
[49 sec, 796852 itr]: obj = (0.158652), mov = 796852, inf = 98.3%, acc = 1.1%, imp = 1167

worst case efficiency: 0.695191
[50 sec, 831770 itr]: obj = (0.158985), mov = 831770, inf = 98.4%, acc = 1%, imp = 1175

worst case efficiency: 0.695391
[51 sec, 865826 itr]: obj = (0.159909), mov = 865826, inf = 98.4%, acc = 1%, imp = 1188

worst case efficiency: 0.695946
[52 sec, 900825 itr]: obj = (0.160042), mov = 900825, inf = 98.4%, acc = 1%, imp = 1190

worst case efficiency: 0.696025
[53 sec, 936709 itr]: obj = (0.160057), mov = 936709, inf = 98.4%, acc = 1%, imp = 1194

worst case efficiency: 0.696034
[54 sec, 960932 itr]: obj = (0.160062), mov = 960932, inf = 98.4%, acc = 1%, imp = 1195

worst case efficiency: 0.696037
[55 sec, 988214 itr]: obj = (0.160177), mov = 988214, inf = 98.4%, acc = 1%, imp = 1198

worst case efficiency: 0.696106
[56 sec, 1014099 itr]: obj = (0.160375), mov = 1014099, inf = 98.4%, acc = 1%, imp = 1199

worst case efficiency: 0.696225
[57 sec, 1041732 itr]: obj = (0.160882), mov = 1041732, inf = 98.4%, acc = 1%, imp = 1206

worst case efficiency: 0.696529
[58 sec, 1073436 itr]: obj = (0.161325), mov = 1073436, inf = 98.5%, acc = 0.9%, imp = 1218

worst case efficiency: 0.696795
[59 sec, 1105888 itr]: obj = (0.161448), mov = 1105888, inf = 98.5%, acc = 0.9%, imp = 1222

worst case efficiency: 0.696869
[60 sec, 1141856 itr]: obj = (0.161616), mov = 1141856, inf = 98.5%, acc = 0.9%, imp = 1230

worst case efficiency: 0.69697
[61 sec, 1176919 itr]: obj = (0.161865), mov = 1176919, inf = 98.5%, acc = 0.9%, imp = 1241

worst case efficiency: 0.697119
[62 sec, 1211867 itr]: obj = (0.162028), mov = 1211867, inf = 98.5%, acc = 0.9%, imp = 1247

worst case efficiency: 0.697217
[63 sec, 1247371 itr]: obj = (0.162115), mov = 1247371, inf = 98.5%, acc = 0.9%, imp = 1251

worst case efficiency: 0.697269
[64 sec, 1282837 itr]: obj = (0.162236), mov = 1282837, inf = 98.5%, acc = 0.9%, imp = 1256

worst case efficiency: 0.697342
[65 sec, 1315698 itr]: obj = (0.162436), mov = 1315698, inf = 98.5%, acc = 0.9%, imp = 1261

worst case efficiency: 0.697462
[66 sec, 1350656 itr]: obj = (0.162904), mov = 1350656, inf = 98.5%, acc = 0.9%, imp = 1270

worst case efficiency: 0.697742
[67 sec, 1386410 itr]: obj = (0.163687), mov = 1386410, inf = 98.5%, acc = 0.8%, imp = 1279

worst case efficiency: 0.698212
[68 sec, 1416972 itr]: obj = (0.163715), mov = 1416972, inf = 98.5%, acc = 0.8%, imp = 1280

worst case efficiency: 0.698229
[69 sec, 1452012 itr]: obj = (0.163971), mov = 1452012, inf = 98.5%, acc = 0.8%, imp = 1298

worst case efficiency: 0.698383
[70 sec, 1486192 itr]: obj = (0.164948), mov = 1486192, inf = 98.5%, acc = 0.8%, imp = 1310

worst case efficiency: 0.698969
[71 sec, 1519072 itr]: obj = (0.165261), mov = 1519072, inf = 98.5%, acc = 0.8%, imp = 1319

worst case efficiency: 0.699157
[72 sec, 1547677 itr]: obj = (0.165273), mov = 1547677, inf = 98.5%, acc = 0.8%, imp = 1321

worst case efficiency: 0.699164
[73 sec, 1581329 itr]: obj = (0.165844), mov = 1581329, inf = 98.5%, acc = 0.8%, imp = 1329

worst case efficiency: 0.699507
[74 sec, 1616241 itr]: obj = (0.166233), mov = 1616241, inf = 98.5%, acc = 0.9%, imp = 1337

worst case efficiency: 0.69974
[75 sec, 1649449 itr]: obj = (0.166603), mov = 1649449, inf = 98.5%, acc = 0.9%, imp = 1342

worst case efficiency: 0.699962
[76 sec, 1676948 itr]: obj = (0.166603), mov = 1676948, inf = 98.4%, acc = 0.9%, imp = 1342

worst case efficiency: 0.699962
[77 sec, 1709728 itr]: obj = (0.166618), mov = 1709728, inf = 98.4%, acc = 0.9%, imp = 1343

worst case efficiency: 0.699971
[78 sec, 1742582 itr]: obj = (0.166618), mov = 1742582, inf = 98.4%, acc = 0.9%, imp = 1343

worst case efficiency: 0.699971
[79 sec, 1775307 itr]: obj = (0.166618), mov = 1775307, inf = 98.4%, acc = 0.9%, imp = 1344

worst case efficiency: 0.699971
[80 sec, 1808492 itr]: obj = (0.166618), mov = 1808492, inf = 98.4%, acc = 0.9%, imp = 1344

worst case efficiency: 0.699971
[81 sec, 1842382 itr]: obj = (0.166628), mov = 1842382, inf = 98.3%, acc = 0.9%, imp = 1347

worst case efficiency: 0.699977
[82 sec, 1876319 itr]: obj = (0.166711), mov = 1876319, inf = 98.3%, acc = 0.9%, imp = 1351

worst case efficiency: 0.700027
[83 sec, 1909392 itr]: obj = (0.166711), mov = 1909392, inf = 98.3%, acc = 0.9%, imp = 1351

worst case efficiency: 0.700027
[84 sec, 1941777 itr]: obj = (0.166769), mov = 1941777, inf = 98.3%, acc = 1%, imp = 1353

worst case efficiency: 0.700062
[85 sec, 1974924 itr]: obj = (0.166769), mov = 1974924, inf = 98.3%, acc = 1%, imp = 1353

worst case efficiency: 0.700062
[86 sec, 2007844 itr]: obj = (0.166769), mov = 2007844, inf = 98.3%, acc = 1%, imp = 1353

worst case efficiency: 0.700062
[87 sec, 2041041 itr]: obj = (0.166769), mov = 2041041, inf = 98.3%, acc = 1%, imp = 1353

worst case efficiency: 0.700062
[88 sec, 2074121 itr]: obj = (0.166793), mov = 2074121, inf = 98.2%, acc = 1%, imp = 1355

worst case efficiency: 0.700076
[89 sec, 2107636 itr]: obj = (0.166891), mov = 2107636, inf = 98.2%, acc = 1%, imp = 1359

worst case efficiency: 0.700135
[90 sec, 2141939 itr]: obj = (0.166908), mov = 2141939, inf = 98.2%, acc = 1%, imp = 1360

worst case efficiency: 0.700145
[90 sec, 2141939 itr]: obj = (0.166908), mov = 2141939, inf = 98.2%, acc = 1%, imp = 1360

worst case efficiency: 0.700145
2141939 iterations, 2141939 moves performed in 90 seconds
Feasible solution: obj = (0.166908)

Run output...
FINAL SOLUTION
Worst case efficiency: 0.700145
Mapping: 0->20, 1->42, 2->8, 3->18, 4->5, 5->37, 6->5, 7->7, 8->32, 9->23, 10->12, 11->47, 12->39, 13->31, 14->39, 15->24, 16->1, 17->34, 18->20, 19->10, 20->9, 21->47, 22->7, 23->34, 24->46, 25->40, 26->28, 27->23, 28->45, 29->19, 30->11, 31->25, 32->3, 33->44, 34->23, 35->16, 36->6, 37->20, 38->15, 39->12, 40->38, 41->35, 42->5, 43->5, 44->29, 45->32, 46->0, 47->13, 48->41, 49->2, 50->17, 51->35, 52->15, 53->30, 54->47, 55->38, 56->36, 57->43, 58->17, 59->16, 60->8, 61->24, 62->19, 63->29, 64->31, 65->6, 66->35, 67->34, 68->38, 69->20, 70->0, 71->18, 72->32, 73->4, 74->28, 75->4, 76->40, 77->46, 78->10, 79->14, 80->42, 81->2, 82->10, 83->10, 84->15, 85->15, 86->43, 87->45, 88->42, 89->6, 90->13, 91->21, 92->10, 93->16, 94->8, 95->14, 96->2, 97->27, 98->12, 99->47, 100->44, 101->1, 102->39, 103->22, 104->22, 105->19, 106->5, 107->35, 108->36, 109->20, 110->0, 111->11, 112->25, 113->42, 114->26, 115->29, 116->19, 117->24, 118->44, 119->18, 120->26, 121->42, 122->16, 123->23, 124->6, 125->38, 126->41, 127->6, 128->40, 129->38, 130->14, 131->39, 132->36, 133->4, 134->11, 135->44, 136->13, 137->36, 138->25, 139->2, 140->29, 141->43, 142->26, 143->30, 144->23, 145->41, 146->20, 147->0, 148->26, 149->14, 150->29, 151->0, 152->45, 153->47, 154->23, 155->34, 156->17, 157->3, 158->9, 159->31, 160->22, 161->43, 162->9, 163->1, 164->5, 165->18, 166->19, 167->28, 168->33, 169->41, 170->3, 171->36, 172->46, 173->46, 174->42, 175->33, 176->10, 177->25, 178->1, 179->2, 180->37, 181->27, 182->11, 183->2, 184->1, 185->32, 186->13, 187->37, 188->8, 189->34, 190->46, 191->21, 192->26, 193->24, 194->14, 195->4, 196->12, 197->14, 198->27, 199->32, 200->40, 201->8, 202->24, 203->0, 204->9, 205->32, 206->33, 207->18, 208->19, 209->28, 210->6, 211->35, 212->12, 213->1, 214->31, 215->47, 216->17, 217->34, 218->37, 219->27, 220->21, 221->25, 222->38, 223->21, 224->43, 225->40, 226->9, 227->3, 228->7, 229->33, 230->26, 231->39, 232->3, 233->30, 234->11, 235->7, 236->40, 237->16, 238->7, 239->7, 240->30, 241->35, 242->22, 243->12, 244->37, 245->16, 246->27, 247->45, 248->45, 249->44, 250->36, 251->25, 252->46, 253->13, 254->17, 255->15, 256->21, 257->28, 258->4, 259->24, 260->28, 261->11, 262->15, 263->3, 264->33, 265->30, 266->44, 267->29, 268->30, 269->41, 270->37, 271->31, 272->21, 273->4, 274->45, 275->8, 276->41, 277->9, 278->33, 279->18, 280->22, 281->31, 282->43, 283->27, 284->39, 285->22, 286->17, 287->13
Number of tasks per core:
	6	6	6	6	6	6
	6	6	6	6	6	6
	6	6	6	6	6	6
	6	6	6	6	6	6
	6	6	6	6	6	6
	6	6	6	6	6	6
	6	6	6	6	6	6
	6	6	6	6	6	6
Average CPI map:
	0.543596	1.19717	1.50635	0.924951	1.46148	1.83147
	1.78255	2.13467	7.14417	2.35874	4.46059	2.22966
	1.0004	4.32651	4.67614	3.04392	4.13878	0.673663
	0.882686	2.4852	3.59524	6.54268	2.39033	1.22241
	1.21726	2.45322	3.44218	2.35245	2.84741	1.9846
	1.8885	2.87964	2.83047	2.96507	3.10485	1.09851
	1.34851	2.55419	3.51058	2.46937	2.0951	0.971236
	0.909213	2.29309	2.51228	2.10592	2.18336	1.42965
Efficiency map:
	0.99722	0.8535	0.954614	0.780559	0.948848	1.00307
	0.771341	0.700932	0.828226	0.711783	0.701657	0.841622
	0.819357	0.70506	0.701345	0.713892	0.746624	0.73712
	0.812412	0.709612	0.763204	0.725604	0.700284	0.924606
	0.816262	0.700161	0.725311	0.706955	0.700212	0.867789
	0.799283	0.712879	0.700191	0.722892	0.700403	0.816372
	0.80883	0.70849	0.795923	0.720773	0.703718	0.805502
	0.806342	0.714444	0.700145	0.70961	0.705314	0.799775
==============================================================================
Local Solver optimizer for EML demonstration
==============================================================================

Option values: --wld-idx 3 --global-tlim 90 --seed 501

Starting the Optimization Process
