==============================================================================
LNS optimizer for EML demonstration
==============================================================================

Option values: --wld-idx 11 --prec 10000 --step 0 --global-tlim 90 --global-iter 1000 --local-tlim 3 --local-nsol 1 --restart-base 100 --restart-strat luby --seed 801

Starting the Optimization Process
reserved_tasks None
Finding a first solution
LNS iteration #0 ========================================
- worst case average CPI: 1.908
- worst case efficiency: 0.618
- efficiency to beat: 0.618
- normalized lower bound 385
--- checking solution
--- solution ok! Maximum rounding error: 0.000058
- solution found, obj var is: 386
- de-normalized obj var: 0.623160
- time (local/global): 0.002/0.002
- branches (local/global): 71/71
- fails (local/global): 25/25
- lns time: 0.008000
- lns branches: 71
- lns fails: 25
LNS iteration #1 ========================================
- worst case average CPI: 1.479
- worst case efficiency: 0.620
- efficiency to beat: 0.620
- normalized lower bound 414
--- checking solution
--- solution ok! Maximum rounding error: 0.000339
- solution found, obj var is: 457
- de-normalized obj var: 0.627420
- time (local/global): 0.001/0.009
- branches (local/global): 21/92
- fails (local/global): 0/25
- lns time: 0.007000
- lns branches: 21
- lns fails: 0
LNS iteration #2 ========================================
- worst case average CPI: 1.379
- worst case efficiency: 0.621
- efficiency to beat: 0.621
- normalized lower bound 427
--- checking solution
--- solution ok! Maximum rounding error: 0.000285
- solution found, obj var is: 480
- de-normalized obj var: 0.628800
- time (local/global): 0.006/0.021
- branches (local/global): 373/465
- fails (local/global): 167/192
- lns time: 0.012000
- lns branches: 373
- lns fails: 167
LNS iteration #3 ========================================
- worst case average CPI: 1.379
- worst case efficiency: 0.623
- efficiency to beat: 0.623
- normalized lower bound 470
--- checking solution
--- solution ok! Maximum rounding error: 0.000034
- solution found, obj var is: 492
- de-normalized obj var: 0.629520
- time (local/global): 0.004/0.031
- branches (local/global): 239/704
- fails (local/global): 100/292
- lns time: 0.010000
- lns branches: 239
- lns fails: 100
LNS iteration #4 ========================================
- worst case average CPI: 1.379
- worst case efficiency: 0.623
- efficiency to beat: 0.623
- normalized lower bound 474
--- checking solution
--- solution ok! Maximum rounding error: 0.000047
- solution found, obj var is: 599
- de-normalized obj var: 0.635940
- time (local/global): 0.000/0.037
- branches (local/global): 24/728
- fails (local/global): 1/293
- lns time: 0.006000
- lns branches: 24
- lns fails: 1
LNS iteration #5 ========================================
- worst case average CPI: 1.268
- worst case efficiency: 0.625
- efficiency to beat: 0.625
- normalized lower bound 498
--- checking solution
--- solution ok! Maximum rounding error: 0.000086
- solution found, obj var is: 650
- de-normalized obj var: 0.639000
- time (local/global): 0.001/0.044
- branches (local/global): 112/840
- fails (local/global): 48/341
- lns time: 0.006000
- lns branches: 112
- lns fails: 48
LNS iteration #6 ========================================
- worst case average CPI: 1.268
- worst case efficiency: 0.626
- efficiency to beat: 0.626
- normalized lower bound 510
--- checking solution
--- solution ok! Maximum rounding error: 0.000068
- solution found, obj var is: 514
- de-normalized obj var: 0.630840
- time (local/global): 0.006/0.055
- branches (local/global): 456/1296
- fails (local/global): 201/542
- lns time: 0.012000
- lns branches: 456
- lns fails: 201
LNS iteration #7 ========================================
- worst case average CPI: 1.177
- worst case efficiency: 0.627
- efficiency to beat: 0.627
- normalized lower bound 532
--- checking solution
--- solution ok! Maximum rounding error: 0.000026
- solution found, obj var is: 534
- de-normalized obj var: 0.632040
- time (local/global): 0.001/0.062
- branches (local/global): 104/1400
- fails (local/global): 42/584
- lns time: 0.007000
- lns branches: 104
- lns fails: 42
LNS iteration #8 ========================================
- worst case average CPI: 1.177
- worst case efficiency: 0.628
- efficiency to beat: 0.628
- normalized lower bound 544
--- checking solution
--- solution ok! Maximum rounding error: 0.000004
- solution found, obj var is: 553
- de-normalized obj var: 0.633180
- time (local/global): 0.001/0.069
- branches (local/global): 22/1422
- fails (local/global): 0/584
- lns time: 0.009000
- lns branches: 22
- lns fails: 0
LNS iteration #9 ========================================
- worst case average CPI: 1.177
- worst case efficiency: 0.628
- efficiency to beat: 0.628
- normalized lower bound 555
--- checking solution
--- solution ok! Maximum rounding error: 0.000108
- solution found, obj var is: 575
- de-normalized obj var: 0.634500
- time (local/global): 0.004/0.081
- branches (local/global): 255/1677
- fails (local/global): 109/693
- lns time: 0.010000
- lns branches: 255
- lns fails: 109
LNS iteration #10 ========================================
- worst case average CPI: 1.177
- worst case efficiency: 0.629
- efficiency to beat: 0.629
- normalized lower bound 575
--- checking solution
--- solution ok! Maximum rounding error: 0.000038
- solution found, obj var is: 970
- de-normalized obj var: 0.658200
- time (local/global): 0.003/0.090
- branches (local/global): 237/1914
- fails (local/global): 100/793
- lns time: 0.009000
- lns branches: 237
- lns fails: 100
LNS iteration #11 ========================================
- worst case average CPI: 1.177
- worst case efficiency: 0.630
- efficiency to beat: 0.630
- normalized lower bound 583
--- checking solution
--- solution ok! Maximum rounding error: 0.000005
- solution found, obj var is: 1045
- de-normalized obj var: 0.662700
- time (local/global): 0.003/0.099
- branches (local/global): 240/2154
- fails (local/global): 100/893
- lns time: 0.010000
- lns branches: 240
- lns fails: 100
LNS iteration #12 ========================================
- worst case average CPI: 1.177
- worst case efficiency: 0.631
- efficiency to beat: 0.631
- normalized lower bound 606
--- checking solution
--- solution ok! Maximum rounding error: 0.000031
- solution found, obj var is: 608
- de-normalized obj var: 0.636480
- time (local/global): 0.001/0.107
- branches (local/global): 106/2260
- fails (local/global): 43/936
- lns time: 0.007000
- lns branches: 106
- lns fails: 43
LNS iteration #13 ========================================
- worst case average CPI: 1.177
- worst case efficiency: 0.632
- efficiency to beat: 0.632
- normalized lower bound 617
--- checking solution
--- solution ok! Maximum rounding error: 0.000029
- solution found, obj var is: 671
- de-normalized obj var: 0.640260
- time (local/global): 0.004/0.117
- branches (local/global): 262/2522
- fails (local/global): 111/1047
- lns time: 0.010000
- lns branches: 262
- lns fails: 111
LNS iteration #14 ========================================
- worst case average CPI: 1.177
- worst case efficiency: 0.633
- efficiency to beat: 0.633
- normalized lower bound 636
--- checking solution
--- solution ok! Maximum rounding error: 0.000061
- solution found, obj var is: 646
- de-normalized obj var: 0.638760
- time (local/global): 0.003/0.126
- branches (local/global): 239/2761
- fails (local/global): 101/1148
- lns time: 0.009000
- lns branches: 239
- lns fails: 101
LNS iteration #15 ========================================
- worst case average CPI: 1.177
- worst case efficiency: 0.635
- efficiency to beat: 0.635
- normalized lower bound 660
--- checking solution
--- solution ok! Maximum rounding error: 0.000051
- solution found, obj var is: 719
- de-normalized obj var: 0.643140
- time (local/global): 0.000/0.132
- branches (local/global): 40/2801
- fails (local/global): 10/1158
- lns time: 0.006000
- lns branches: 40
- lns fails: 10
LNS iteration #16 ========================================
- worst case average CPI: 1.177
- worst case efficiency: 0.635
- efficiency to beat: 0.635
- normalized lower bound 661
--- checking solution
--- solution ok! Maximum rounding error: 0.000023
- solution found, obj var is: 740
- de-normalized obj var: 0.644400
- time (local/global): 0.041/0.179
- branches (local/global): 2965/5766
- fails (local/global): 1401/2559
- lns time: 0.047000
- lns branches: 2965
- lns fails: 1401
LNS iteration #17 ========================================
- worst case average CPI: 1.045
- worst case efficiency: 0.636
- efficiency to beat: 0.636
- normalized lower bound 689
--- checking solution
--- solution ok! Maximum rounding error: 0.000055
- solution found, obj var is: 697
- de-normalized obj var: 0.641820
- time (local/global): 0.008/0.193
- branches (local/global): 460/6226
- fails (local/global): 200/2759
- lns time: 0.021000
- lns branches: 460
- lns fails: 200
LNS iteration #18 ========================================
- worst case average CPI: 1.045
- worst case efficiency: 0.637
- efficiency to beat: 0.637
- normalized lower bound 698
--- checking solution
--- solution ok! Maximum rounding error: 0.000090
- solution found, obj var is: 862
- de-normalized obj var: 0.651720
- time (local/global): 0.007/0.213
- branches (local/global): 461/6687
- fails (local/global): 201/2960
- lns time: 0.013000
- lns branches: 461
- lns fails: 201
LNS iteration #19 ========================================
- worst case average CPI: 1.045
- worst case efficiency: 0.637
- efficiency to beat: 0.637
- normalized lower bound 699
--- checking solution
--- solution ok! Maximum rounding error: 0.000169
- solution found, obj var is: 822
- de-normalized obj var: 0.649320
- time (local/global): 0.009/0.228
- branches (local/global): 455/7142
- fails (local/global): 200/3160
- lns time: 0.018000
- lns branches: 455
- lns fails: 200
LNS iteration #20 ========================================
- worst case average CPI: 1.045
- worst case efficiency: 0.638
- efficiency to beat: 0.638
- normalized lower bound 725
--- checking solution
--- solution ok! Maximum rounding error: 0.000071
- solution found, obj var is: 742
- de-normalized obj var: 0.644520
- time (local/global): 0.000/0.237
- branches (local/global): 26/7168
- fails (local/global): 2/3162
- lns time: 0.006000
- lns branches: 26
- lns fails: 2
LNS iteration #21 ========================================
- worst case average CPI: 1.045
- worst case efficiency: 0.639
- efficiency to beat: 0.639
- normalized lower bound 730
--- checking solution
--- solution ok! Maximum rounding error: 0.000008
- solution found, obj var is: 731
- de-normalized obj var: 0.643860
- time (local/global): 0.016/0.259
- branches (local/global): 985/8153
- fails (local/global): 460/3622
- lns time: 0.022000
- lns branches: 985
- lns fails: 460
LNS iteration #22 ========================================
- worst case average CPI: 1.045
- worst case efficiency: 0.640
- efficiency to beat: 0.640
- normalized lower bound 754
--- checking solution
--- solution ok! Maximum rounding error: 0.000168
- solution found, obj var is: 781
- de-normalized obj var: 0.646860
- time (local/global): 0.000/0.265
- branches (local/global): 35/8188
- fails (local/global): 7/3629
- lns time: 0.006000
- lns branches: 35
- lns fails: 7
LNS iteration #23 ========================================
- worst case average CPI: 1.045
- worst case efficiency: 0.642
- efficiency to beat: 0.642
- normalized lower bound 777
--- checking solution
--- solution ok! Maximum rounding error: 0.000100
- solution found, obj var is: 842
- de-normalized obj var: 0.650520
- time (local/global): 0.011/0.282
- branches (local/global): 876/9064
- fails (local/global): 403/4032
- lns time: 0.017000
- lns branches: 876
- lns fails: 403
LNS iteration #24 ========================================
- worst case average CPI: 1.045
- worst case efficiency: 0.642
- efficiency to beat: 0.642
- normalized lower bound 783
--- checking solution
--- solution ok! Maximum rounding error: 0.000066
- solution found, obj var is: 787
- de-normalized obj var: 0.647220
- time (local/global): 0.002/0.290
- branches (local/global): 109/9173
- fails (local/global): 44/4076
- lns time: 0.008000
- lns branches: 109
- lns fails: 44
LNS iteration #25 ========================================
- worst case average CPI: 1.045
- worst case efficiency: 0.643
- efficiency to beat: 0.643
- normalized lower bound 801
--- checking solution
--- solution ok! Maximum rounding error: 0.000167
- solution found, obj var is: 1189
- de-normalized obj var: 0.671340
- time (local/global): 0.006/0.302
- branches (local/global): 457/9630
- fails (local/global): 202/4278
- lns time: 0.012000
- lns branches: 457
- lns fails: 202
LNS iteration #26 ========================================
- worst case average CPI: 1.045
- worst case efficiency: 0.644
- efficiency to beat: 0.644
- normalized lower bound 813
--- checking solution
--- solution ok! Maximum rounding error: 0.000142
- solution found, obj var is: 813
- de-normalized obj var: 0.648780
- time (local/global): 0.019/0.327
- branches (local/global): 1414/11044
- fails (local/global): 658/4936
- lns time: 0.025000
- lns branches: 1414
- lns fails: 658
LNS iteration #27 ========================================
- worst case average CPI: 1.045
- worst case efficiency: 0.644
- efficiency to beat: 0.644
- normalized lower bound 824
--- checking solution
--- solution ok! Maximum rounding error: 0.000026
- solution found, obj var is: 831
- de-normalized obj var: 0.649860
- time (local/global): 0.014/0.347
- branches (local/global): 960/12004
- fails (local/global): 445/5381
- lns time: 0.020000
- lns branches: 960
- lns fails: 445
LNS iteration #28 ========================================
- worst case average CPI: 0.917
- worst case efficiency: 0.645
- efficiency to beat: 0.645
- normalized lower bound 827
--- checking solution
--- solution ok! Maximum rounding error: 0.000001
- solution found, obj var is: 855
- de-normalized obj var: 0.651300
- time (local/global): 0.020/0.373
- branches (local/global): 1430/13434
- fails (local/global): 664/6045
- lns time: 0.026000
- lns branches: 1430
- lns fails: 664
LNS iteration #29 ========================================
- worst case average CPI: 0.917
- worst case efficiency: 0.645
- efficiency to beat: 0.645
- normalized lower bound 828
--- checking solution
--- solution ok! Maximum rounding error: 0.000089
- solution found, obj var is: 835
- de-normalized obj var: 0.650100
- time (local/global): 0.008/0.387
- branches (local/global): 589/14023
- fails (local/global): 266/6311
- lns time: 0.014000
- lns branches: 589
- lns fails: 266
LNS iteration #30 ========================================
- worst case average CPI: 0.917
- worst case efficiency: 0.648
- efficiency to beat: 0.648
- normalized lower bound 885
--- checking solution
--- solution ok! Maximum rounding error: 0.000025
- solution found, obj var is: 892
- de-normalized obj var: 0.653520
- time (local/global): 0.011/0.404
- branches (local/global): 710/14733
- fails (local/global): 327/6638
- lns time: 0.017000
- lns branches: 710
- lns fails: 327
LNS iteration #31 ========================================
- worst case average CPI: 0.917
- worst case efficiency: 0.648
- efficiency to beat: 0.648
- normalized lower bound 889
--- checking solution
--- solution ok! Maximum rounding error: 0.000060
- solution found, obj var is: 900
- de-normalized obj var: 0.654000
- time (local/global): 0.046/0.456
- branches (local/global): 2539/17272
- fails (local/global): 1204/7842
- lns time: 0.052000
- lns branches: 2539
- lns fails: 1204
LNS iteration #32 ========================================
- worst case average CPI: 1.045
- worst case efficiency: 0.648
- efficiency to beat: 0.648
- normalized lower bound 892
--- checking solution
--- solution ok! Maximum rounding error: 0.000094
- solution found, obj var is: 953
- de-normalized obj var: 0.657180
- time (local/global): 0.014/0.476
- branches (local/global): 1099/18371
- fails (local/global): 505/8347
- lns time: 0.020000
- lns branches: 1099
- lns fails: 505
LNS iteration #33 ========================================
- worst case average CPI: 1.045
- worst case efficiency: 0.649
- efficiency to beat: 0.649
- normalized lower bound 894
--- checking solution
--- solution ok! Maximum rounding error: 0.000030
- solution found, obj var is: 903
- de-normalized obj var: 0.654180
- time (local/global): 0.005/0.487
- branches (local/global): 489/18860
- fails (local/global): 217/8564
- lns time: 0.013000
- lns branches: 489
- lns fails: 217
LNS iteration #34 ========================================
- worst case average CPI: 1.045
- worst case efficiency: 0.650
- efficiency to beat: 0.650
- normalized lower bound 917
--- checking solution
--- solution ok! Maximum rounding error: 0.000041
- solution found, obj var is: 952
- de-normalized obj var: 0.657120
- time (local/global): 0.223/0.718
- branches (local/global): 15925/34785
- fails (local/global): 7709/16273
- lns time: 0.229000
- lns branches: 15925
- lns fails: 7709
LNS iteration #35 ========================================
- worst case average CPI: 0.932
- worst case efficiency: 0.650
- efficiency to beat: 0.650
- normalized lower bound 922
--- checking solution
--- solution ok! Maximum rounding error: 0.000023
- solution found, obj var is: 922
- de-normalized obj var: 0.655320
- time (local/global): 0.000/0.724
- branches (local/global): 31/34816
- fails (local/global): 5/16278
- lns time: 0.006000
- lns branches: 31
- lns fails: 5
LNS iteration #36 ========================================
- worst case average CPI: 0.932
- worst case efficiency: 0.651
- efficiency to beat: 0.651
- normalized lower bound 929
--- checking solution
--- solution ok! Maximum rounding error: 0.000223
- solution found, obj var is: 1047
- de-normalized obj var: 0.662820
- time (local/global): 0.000/0.730
- branches (local/global): 22/34838
- fails (local/global): 0/16278
- lns time: 0.006000
- lns branches: 22
- lns fails: 0
LNS iteration #37 ========================================
- worst case average CPI: 0.932
- worst case efficiency: 0.651
- efficiency to beat: 0.651
- normalized lower bound 937
--- checking solution
--- solution ok! Maximum rounding error: 0.000018
- solution found, obj var is: 941
- de-normalized obj var: 0.656460
- time (local/global): 0.288/1.024
- branches (local/global): 17819/52657
- fails (local/global): 8611/24889
- lns time: 0.294000
- lns branches: 17819
- lns fails: 8611
LNS iteration #38 ========================================
- worst case average CPI: 0.932
- worst case efficiency: 0.652
- efficiency to beat: 0.652
- normalized lower bound 952
--- checking solution
--- solution ok! Maximum rounding error: 0.000040
- solution found, obj var is: 973
- de-normalized obj var: 0.658380
- time (local/global): 0.310/1.340
- branches (local/global): 20299/72956
- fails (local/global): 9805/34694
- lns time: 0.316000
- lns branches: 20299
- lns fails: 9805
LNS iteration #39 ========================================
- worst case average CPI: 0.932
- worst case efficiency: 0.652
- efficiency to beat: 0.652
- normalized lower bound 951
--- checking solution
--- solution ok! Maximum rounding error: 0.000056
- solution found, obj var is: 1022
- de-normalized obj var: 0.661320
- time (local/global): 0.006/1.352
- branches (local/global): 458/73414
- fails (local/global): 200/34894
- lns time: 0.015000
- lns branches: 458
- lns fails: 200
LNS iteration #40 ========================================
- worst case average CPI: 0.932
- worst case efficiency: 0.653
- efficiency to beat: 0.653
- normalized lower bound 971
--- checking solution
--- solution ok! Maximum rounding error: 0.000053
- solution found, obj var is: 972
- de-normalized obj var: 0.658320
- time (local/global): 0.197/1.558
- branches (local/global): 12361/85775
- fails (local/global): 5957/40851
- lns time: 0.203000
- lns branches: 12361
- lns fails: 5957
LNS iteration #41 ========================================
- worst case average CPI: 0.712
- worst case efficiency: 0.654
- efficiency to beat: 0.654
- normalized lower bound 986
--- checking solution
--- solution ok! Maximum rounding error: 0.000094
- solution found, obj var is: 1003
- de-normalized obj var: 0.660180
- time (local/global): 0.031/1.595
- branches (local/global): 1908/87683
- fails (local/global): 894/41745
- lns time: 0.037000
- lns branches: 1908
- lns fails: 894
LNS iteration #42 ========================================
- worst case average CPI: 0.712
- worst case efficiency: 0.654
- efficiency to beat: 0.654
- normalized lower bound 988
--- checking solution
--- solution ok! Maximum rounding error: 0.000051
- solution found, obj var is: 1005
- de-normalized obj var: 0.660300
- time (local/global): 0.002/1.603
- branches (local/global): 206/87889
- fails (local/global): 92/41837
- lns time: 0.008000
- lns branches: 206
- lns fails: 92
LNS iteration #43 ========================================
- worst case average CPI: 0.712
- worst case efficiency: 0.655
- efficiency to beat: 0.655
- normalized lower bound 1008
--- checking solution
--- solution ok! Maximum rounding error: 0.000043
- solution found, obj var is: 1026
- de-normalized obj var: 0.661560
- time (local/global): 0.010/1.619
- branches (local/global): 877/88766
- fails (local/global): 402/42239
- lns time: 0.016000
- lns branches: 877
- lns fails: 402
LNS iteration #44 ========================================
- worst case average CPI: 0.932
- worst case efficiency: 0.657
- efficiency to beat: 0.657
- normalized lower bound 1036
--- checking solution
--- solution ok! Maximum rounding error: 0.000062
- solution found, obj var is: 1066
- de-normalized obj var: 0.663960
- time (local/global): 0.037/1.662
- branches (local/global): 2976/91742
- fails (local/global): 1402/43641
- lns time: 0.044000
- lns branches: 2976
- lns fails: 1402
LNS iteration #45 ========================================
- worst case average CPI: 0.932
- worst case efficiency: 0.657
- efficiency to beat: 0.657
- normalized lower bound 1038
--- checking solution
--- solution ok! Maximum rounding error: 0.000043
- solution found, obj var is: 1051
- de-normalized obj var: 0.663060
- time (local/global): 0.004/1.673
- branches (local/global): 270/92012
- fails (local/global): 118/43759
- lns time: 0.010000
- lns branches: 270
- lns fails: 118
LNS iteration #46 ========================================
- worst case average CPI: 0.932
- worst case efficiency: 0.657
- efficiency to beat: 0.657
- normalized lower bound 1039
--- checking solution
--- solution ok! Maximum rounding error: 0.000054
- solution found, obj var is: 1177
- de-normalized obj var: 0.670620
- time (local/global): 0.371/2.050
- branches (local/global): 25721/117733
- fails (local/global): 12434/56193
- lns time: 0.377000
- lns branches: 25721
- lns fails: 12434
LNS iteration #47 ========================================
- worst case average CPI: 0.932
- worst case efficiency: 0.658
- efficiency to beat: 0.658
- normalized lower bound 1052
--- checking solution
--- solution ok! Maximum rounding error: 0.000016
- solution found, obj var is: 1400
- de-normalized obj var: 0.684000
- time (local/global): 0.011/2.067
- branches (local/global): 389/118122
- fails (local/global): 176/56369
- lns time: 0.022000
- lns branches: 389
- lns fails: 176
LNS iteration #48 ========================================
- worst case average CPI: 0.932
- worst case efficiency: 0.658
- efficiency to beat: 0.658
- normalized lower bound 1057
--- checking solution
--- solution ok! Maximum rounding error: 0.000097
- solution found, obj var is: 1096
- de-normalized obj var: 0.665760
- time (local/global): 0.135/2.213
- branches (local/global): 6286/124408
- fails (local/global): 3020/59389
- lns time: 0.141000
- lns branches: 6286
- lns fails: 3020
LNS iteration #49 ========================================
- worst case average CPI: 0.932
- worst case efficiency: 0.660
- efficiency to beat: 0.660
- normalized lower bound 1084
--- checking solution
--- solution ok! Maximum rounding error: 0.000054
- solution found, obj var is: 1256
- de-normalized obj var: 0.675360
- time (local/global): 1.401/3.620
- branches (local/global): 91721/216129
- fails (local/global): 44830/104219
- lns time: 1.408000
- lns branches: 91721
- lns fails: 44830
LNS iteration #50 ========================================
- worst case average CPI: 0.932
- worst case efficiency: 0.660
- efficiency to beat: 0.660
- normalized lower bound 1090
--- checking solution
--- solution ok! Maximum rounding error: 0.000035
- solution found, obj var is: 1151
- de-normalized obj var: 0.669060
- time (local/global): 0.136/3.763
- branches (local/global): 11034/227163
- fails (local/global): 5280/109499
- lns time: 0.142000
- lns branches: 11034
- lns fails: 5280
LNS iteration #51 ========================================
- worst case average CPI: 0.932
- worst case efficiency: 0.660
- efficiency to beat: 0.660
- normalized lower bound 1092
--- checking solution
--- solution ok! Maximum rounding error: 0.000000
- solution found, obj var is: 1106
- de-normalized obj var: 0.666360
- time (local/global): 0.876/4.645
- branches (local/global): 58534/285697
- fails (local/global): 28454/137953
- lns time: 0.883000
- lns branches: 58534
- lns fails: 28454
LNS iteration #52 ========================================
- worst case average CPI: 0.932
- worst case efficiency: 0.661
- efficiency to beat: 0.661
- normalized lower bound 1108
--- checking solution
--- solution ok! Maximum rounding error: 0.000026
- solution found, obj var is: 1118
- de-normalized obj var: 0.667080
- time (local/global): 0.015/4.667
- branches (local/global): 1090/286787
- fails (local/global): 502/138455
- lns time: 0.021000
- lns branches: 1090
- lns fails: 502
LNS iteration #53 ========================================
- worst case average CPI: 0.932
- worst case efficiency: 0.662
- efficiency to beat: 0.662
- normalized lower bound 1111
--- checking solution
--- solution ok! Maximum rounding error: 0.000056
- solution found, obj var is: 1143
- de-normalized obj var: 0.668580
- time (local/global): 0.004/4.677
- branches (local/global): 274/287061
- fails (local/global): 117/138572
- lns time: 0.010000
- lns branches: 274
- lns fails: 117
LNS iteration #54 ========================================
- worst case average CPI: 0.932
- worst case efficiency: 0.663
- efficiency to beat: 0.663
- normalized lower bound 1126
--- checking solution
--- solution ok! Maximum rounding error: 0.000061
- solution found, obj var is: 1136
- de-normalized obj var: 0.668160
- time (local/global): 0.738/5.421
- branches (local/global): 41092/328153
- fails (local/global): 20011/158583
- lns time: 0.744000
- lns branches: 41092
- lns fails: 20011
LNS iteration #55 ========================================
- worst case average CPI: 0.932
- worst case efficiency: 0.663
- efficiency to beat: 0.663
- normalized lower bound 1137
--- checking solution
--- solution ok! Maximum rounding error: 0.000077
- solution found, obj var is: 1161
- de-normalized obj var: 0.669660
- time (local/global): 0.075/5.502
- branches (local/global): 4273/332426
- fails (local/global): 2018/160601
- lns time: 0.082000
- lns branches: 4273
- lns fails: 2018
LNS iteration #56 ========================================
- worst case average CPI: 0.932
- worst case efficiency: 0.664
- efficiency to beat: 0.664
- normalized lower bound 1143
--- checking solution
--- solution ok! Maximum rounding error: 0.000071
- solution found, obj var is: 1157
- de-normalized obj var: 0.669420
- time (local/global): 0.014/5.523
- branches (local/global): 1110/333536
- fails (local/global): 514/161115
- lns time: 0.020000
- lns branches: 1110
- lns fails: 514
LNS iteration #57 ========================================
- worst case average CPI: 0.932
- worst case efficiency: 0.664
- efficiency to beat: 0.664
- normalized lower bound 1149
--- checking solution
--- solution ok! Maximum rounding error: 0.000176
- solution found, obj var is: 1450
- de-normalized obj var: 0.687000
- time (local/global): 0.015/5.544
- branches (local/global): 1093/334629
- fails (local/global): 502/161617
- lns time: 0.022000
- lns branches: 1093
- lns fails: 502
LNS iteration #58 ========================================
- worst case average CPI: 0.932
- worst case efficiency: 0.665
- efficiency to beat: 0.665
- normalized lower bound 1167
--- checking solution
--- solution ok! Maximum rounding error: 0.000070
- solution found, obj var is: 1194
- de-normalized obj var: 0.671640
- time (local/global): 0.075/5.626
- branches (local/global): 5473/340102
- fails (local/global): 2608/164225
- lns time: 0.082000
- lns branches: 5473
- lns fails: 2608
LNS iteration #59 ========================================
- worst case average CPI: 0.932
- worst case efficiency: 0.665
- efficiency to beat: 0.665
- normalized lower bound 1173
- lns time: 3.006000
- lns branches: 189623
- lns fails: 92917
LNS iteration #60 ========================================
- worst case average CPI: 0.932
- worst case efficiency: 0.665
- efficiency to beat: 0.665
- normalized lower bound 1173
--- checking solution
--- solution ok! Maximum rounding error: 0.000042
- solution found, obj var is: 1184
- de-normalized obj var: 0.671040
- time (local/global): 0.005/8.644
- branches (local/global): 434/530159
- fails (local/global): 202/257344
- lns time: 0.011000
- lns branches: 434
- lns fails: 202
LNS iteration #61 ========================================
- worst case average CPI: 0.932
- worst case efficiency: 0.666
- efficiency to beat: 0.666
- normalized lower bound 1184
--- checking solution
--- solution ok! Maximum rounding error: 0.000051
- solution found, obj var is: 1187
- de-normalized obj var: 0.671220
- time (local/global): 0.224/8.874
- branches (local/global): 15555/545714
- fails (local/global): 7536/264880
- lns time: 0.231000
- lns branches: 15555
- lns fails: 7536
LNS iteration #62 ========================================
- worst case average CPI: 0.932
- worst case efficiency: 0.667
- efficiency to beat: 0.667
- normalized lower bound 1196
--- checking solution
--- solution ok! Maximum rounding error: 0.000056
- solution found, obj var is: 1196
- de-normalized obj var: 0.671760
- time (local/global): 0.003/8.884
- branches (local/global): 264/545978
- fails (local/global): 121/265001
- lns time: 0.009000
- lns branches: 264
- lns fails: 121
LNS iteration #63 ========================================
- worst case average CPI: 0.932
- worst case efficiency: 0.668
- efficiency to beat: 0.668
- normalized lower bound 1223
--- checking solution
--- solution ok! Maximum rounding error: 0.000459
- solution found, obj var is: 1257
- de-normalized obj var: 0.675420
- time (local/global): 0.944/9.834
- branches (local/global): 71111/617089
- fails (local/global): 34581/299582
- lns time: 0.950000
- lns branches: 71111
- lns fails: 34581
LNS iteration #64 ========================================
- worst case average CPI: 0.932
- worst case efficiency: 0.668
- efficiency to beat: 0.668
- normalized lower bound 1224
--- checking solution
--- solution ok! Maximum rounding error: 0.000012
- solution found, obj var is: 1234
- de-normalized obj var: 0.674040
- time (local/global): 0.257/10.097
- branches (local/global): 16567/633656
- fails (local/global): 8036/307618
- lns time: 0.263000
- lns branches: 16567
- lns fails: 8036
LNS iteration #65 ========================================
- worst case average CPI: 0.932
- worst case efficiency: 0.670
- efficiency to beat: 0.670
- normalized lower bound 1244
--- checking solution
--- solution ok! Maximum rounding error: 0.000054
- solution found, obj var is: 1259
- de-normalized obj var: 0.675540
- time (local/global): 0.051/10.154
- branches (local/global): 3381/637037
- fails (local/global): 1600/309218
- lns time: 0.057000
- lns branches: 3381
- lns fails: 1600
LNS iteration #66 ========================================
- worst case average CPI: 0.932
- worst case efficiency: 0.670
- efficiency to beat: 0.670
- normalized lower bound 1245
--- checking solution
--- solution ok! Maximum rounding error: 0.000075
- solution found, obj var is: 1400
- de-normalized obj var: 0.684000
- time (local/global): 1.357/11.517
- branches (local/global): 94553/731590
- fails (local/global): 46200/355418
- lns time: 1.363000
- lns branches: 94553
- lns fails: 46200
LNS iteration #67 ========================================
- worst case average CPI: 0.932
- worst case efficiency: 0.670
- efficiency to beat: 0.670
- normalized lower bound 1249
--- checking solution
--- solution ok! Maximum rounding error: 0.000176
- solution found, obj var is: 1268
- de-normalized obj var: 0.676080
- time (local/global): 0.023/11.546
- branches (local/global): 1775/733365
- fails (local/global): 829/356247
- lns time: 0.029000
- lns branches: 1775
- lns fails: 829
LNS iteration #68 ========================================
- worst case average CPI: 0.932
- worst case efficiency: 0.671
- efficiency to beat: 0.671
- normalized lower bound 1262
--- checking solution
--- solution ok! Maximum rounding error: 0.000107
- solution found, obj var is: 1263
- de-normalized obj var: 0.675780
- time (local/global): 0.669/12.221
- branches (local/global): 46965/780330
- fails (local/global): 22812/379059
- lns time: 0.675000
- lns branches: 46965
- lns fails: 22812
LNS iteration #69 ========================================
- worst case average CPI: 0.932
- worst case efficiency: 0.671
- efficiency to beat: 0.671
- normalized lower bound 1270
--- checking solution
--- solution ok! Maximum rounding error: 0.000063
- solution found, obj var is: 1332
- de-normalized obj var: 0.679920
- time (local/global): 0.058/12.285
- branches (local/global): 3879/784209
- fails (local/global): 1836/380895
- lns time: 0.064000
- lns branches: 3879
- lns fails: 1836
LNS iteration #70 ========================================
- worst case average CPI: 0.932
- worst case efficiency: 0.671
- efficiency to beat: 0.671
- normalized lower bound 1272
--- checking solution
--- solution ok! Maximum rounding error: 0.000013
- solution found, obj var is: 1288
- de-normalized obj var: 0.677280
- time (local/global): 1.032/13.323
- branches (local/global): 52689/836898
- fails (local/global): 25603/406498
- lns time: 1.042000
- lns branches: 52689
- lns fails: 25603
LNS iteration #71 ========================================
- worst case average CPI: 0.932
- worst case efficiency: 0.672
- efficiency to beat: 0.672
- normalized lower bound 1276
--- checking solution
--- solution ok! Maximum rounding error: 0.000038
- solution found, obj var is: 1300
- de-normalized obj var: 0.678000
- time (local/global): 0.036/13.369
- branches (local/global): 2580/839478
- fails (local/global): 1224/407722
- lns time: 0.042000
- lns branches: 2580
- lns fails: 1224
LNS iteration #72 ========================================
- worst case average CPI: 0.932
- worst case efficiency: 0.672
- efficiency to beat: 0.672
- normalized lower bound 1283
--- checking solution
--- solution ok! Maximum rounding error: 0.000024
- solution found, obj var is: 1283
- de-normalized obj var: 0.676980
- time (local/global): 0.828/14.203
- branches (local/global): 56351/895829
- fails (local/global): 27420/435142
- lns time: 0.834000
- lns branches: 56351
- lns fails: 27420
LNS iteration #73 ========================================
- worst case average CPI: 0.932
- worst case efficiency: 0.673
- efficiency to beat: 0.673
- normalized lower bound 1298
--- checking solution
--- solution ok! Maximum rounding error: 0.000012
- solution found, obj var is: 1358
- de-normalized obj var: 0.681480
- time (local/global): 0.005/14.214
- branches (local/global): 378/896207
- fails (local/global): 172/435314
- lns time: 0.011000
- lns branches: 378
- lns fails: 172
LNS iteration #74 ========================================
- worst case average CPI: 0.930
- worst case efficiency: 0.673
- efficiency to beat: 0.673
- normalized lower bound 1299
- lns time: 3.006000
- lns branches: 209480
- lns fails: 102868
LNS iteration #75 ========================================
- worst case average CPI: 0.930
- worst case efficiency: 0.673
- efficiency to beat: 0.673
- normalized lower bound 1299
--- checking solution
--- solution ok! Maximum rounding error: 0.000034
- solution found, obj var is: 1321
- de-normalized obj var: 0.679260
- time (local/global): 0.105/17.331
- branches (local/global): 7945/1113632
- fails (local/global): 3801/541983
- lns time: 0.112000
- lns branches: 7945
- lns fails: 3801
LNS iteration #76 ========================================
- worst case average CPI: 0.930
- worst case efficiency: 0.675
- efficiency to beat: 0.675
- normalized lower bound 1340
--- checking solution
--- solution ok! Maximum rounding error: 0.000032
- solution found, obj var is: 1349
- de-normalized obj var: 0.680940
- time (local/global): 0.004/17.342
- branches (local/global): 240/1113872
- fails (local/global): 103/542086
- lns time: 0.010000
- lns branches: 240
- lns fails: 103
LNS iteration #77 ========================================
- worst case average CPI: 0.858
- worst case efficiency: 0.676
- efficiency to beat: 0.676
- normalized lower bound 1345
--- checking solution
--- solution ok! Maximum rounding error: 0.000055
- solution found, obj var is: 1346
- de-normalized obj var: 0.680760
- time (local/global): 1.507/18.855
- branches (local/global): 101248/1215120
- fails (local/global): 49484/591570
- lns time: 1.513000
- lns branches: 101248
- lns fails: 49484
LNS iteration #78 ========================================
- worst case average CPI: 0.720
- worst case efficiency: 0.676
- efficiency to beat: 0.676
- normalized lower bound 1347
- lns time: 3.006000
- lns branches: 184910
- lns fails: 90587
LNS iteration #79 ========================================
- worst case average CPI: 0.720
- worst case efficiency: 0.676
- efficiency to beat: 0.676
- normalized lower bound 1347
- lns time: 3.006000
- lns branches: 213004
- lns fails: 104559
LNS iteration #80 ========================================
- worst case average CPI: 0.720
- worst case efficiency: 0.676
- efficiency to beat: 0.676
- normalized lower bound 1347
--- checking solution
--- solution ok! Maximum rounding error: 0.000032
- solution found, obj var is: 1360
- de-normalized obj var: 0.681600
- time (local/global): 0.014/24.887
- branches (local/global): 1270/1614304
- fails (local/global): 602/787318
- lns time: 0.021000
- lns branches: 1270
- lns fails: 602
LNS iteration #81 ========================================
- worst case average CPI: 0.720
- worst case efficiency: 0.677
- efficiency to beat: 0.677
- normalized lower bound 1370
--- checking solution
--- solution ok! Maximum rounding error: 0.000085
- solution found, obj var is: 1404
- de-normalized obj var: 0.684240
- time (local/global): 0.427/25.321
- branches (local/global): 28147/1642451
- fails (local/global): 13586/800904
- lns time: 0.434000
- lns branches: 28147
- lns fails: 13586
LNS iteration #82 ========================================
- worst case average CPI: 0.720
- worst case efficiency: 0.678
- efficiency to beat: 0.678
- normalized lower bound 1382
--- checking solution
--- solution ok! Maximum rounding error: 0.000041
- solution found, obj var is: 1496
- de-normalized obj var: 0.689760
- time (local/global): 0.313/25.641
- branches (local/global): 18667/1661118
- fails (local/global): 9041/809945
- lns time: 0.319000
- lns branches: 18667
- lns fails: 9041
LNS iteration #83 ========================================
- worst case average CPI: 0.720
- worst case efficiency: 0.678
- efficiency to beat: 0.678
- normalized lower bound 1385
--- checking solution
--- solution ok! Maximum rounding error: 0.000064
- solution found, obj var is: 1452
- de-normalized obj var: 0.687120
- time (local/global): 0.011/25.658
- branches (local/global): 874/1661992
- fails (local/global): 414/810359
- lns time: 0.016000
- lns branches: 874
- lns fails: 414
LNS iteration #84 ========================================
- worst case average CPI: 0.720
- worst case efficiency: 0.678
- efficiency to beat: 0.678
- normalized lower bound 1391
--- checking solution
--- solution ok! Maximum rounding error: 0.000095
- solution found, obj var is: 1468
- de-normalized obj var: 0.688080
- time (local/global): 0.741/26.404
- branches (local/global): 65604/1727596
- fails (local/global): 31805/842164
- lns time: 0.747000
- lns branches: 65604
- lns fails: 31805
LNS iteration #85 ========================================
- worst case average CPI: 0.720
- worst case efficiency: 0.679
- efficiency to beat: 0.679
- normalized lower bound 1395
--- checking solution
--- solution ok! Maximum rounding error: 0.000039
- solution found, obj var is: 1413
- de-normalized obj var: 0.684780
- time (local/global): 1.684/28.094
- branches (local/global): 134586/1862182
- fails (local/global): 65717/907881
- lns time: 1.690000
- lns branches: 134586
- lns fails: 65717
LNS iteration #86 ========================================
- worst case average CPI: 0.720
- worst case efficiency: 0.679
- efficiency to beat: 0.679
- normalized lower bound 1406
--- checking solution
--- solution ok! Maximum rounding error: 0.000059
- solution found, obj var is: 1410
- de-normalized obj var: 0.684600
- time (local/global): 2.799/30.899
- branches (local/global): 167750/2029932
- fails (local/global): 82035/989916
- lns time: 2.805000
- lns branches: 167750
- lns fails: 82035
LNS iteration #87 ========================================
- worst case average CPI: 0.720
- worst case efficiency: 0.680
- efficiency to beat: 0.680
- normalized lower bound 1418
--- checking solution
--- solution ok! Maximum rounding error: 0.000017
- solution found, obj var is: 1469
- de-normalized obj var: 0.688140
- time (local/global): 0.260/31.165
- branches (local/global): 17387/2047319
- fails (local/global): 8411/998327
- lns time: 0.267000
- lns branches: 17387
- lns fails: 8411
LNS iteration #88 ========================================
- worst case average CPI: 0.720
- worst case efficiency: 0.682
- efficiency to beat: 0.682
- normalized lower bound 1447
--- checking solution
--- solution ok! Maximum rounding error: 0.000140
- solution found, obj var is: 1447
- de-normalized obj var: 0.686820
- time (local/global): 0.662/31.834
- branches (local/global): 44918/2092237
- fails (local/global): 21852/1020179
- lns time: 0.668000
- lns branches: 44918
- lns fails: 21852
LNS iteration #89 ========================================
- worst case average CPI: 0.720
- worst case efficiency: 0.682
- efficiency to beat: 0.682
- normalized lower bound 1451
- lns time: 3.006000
- lns branches: 213524
- lns fails: 104795
LNS iteration #90 ========================================
- worst case average CPI: 0.720
- worst case efficiency: 0.682
- efficiency to beat: 0.682
- normalized lower bound 1451
- lns time: 3.006000
- lns branches: 225426
- lns fails: 110662
LNS iteration #91 ========================================
- worst case average CPI: 0.720
- worst case efficiency: 0.682
- efficiency to beat: 0.682
- normalized lower bound 1451
- lns time: 3.005000
- lns branches: 237132
- lns fails: 117157
LNS iteration #92 ========================================
- worst case average CPI: 0.720
- worst case efficiency: 0.682
- efficiency to beat: 0.682
- normalized lower bound 1451
- lns time: 3.007000
- lns branches: 180491
- lns fails: 88310
LNS iteration #93 ========================================
- worst case average CPI: 0.720
- worst case efficiency: 0.682
- efficiency to beat: 0.682
- normalized lower bound 1451
--- checking solution
--- solution ok! Maximum rounding error: 0.000122
- solution found, obj var is: 1459
- de-normalized obj var: 0.687540
- time (local/global): 0.227/44.091
- branches (local/global): 16729/2965539
- fails (local/global): 8100/1449203
- lns time: 0.233000
- lns branches: 16729
- lns fails: 8100
LNS iteration #94 ========================================
- worst case average CPI: 0.720
- worst case efficiency: 0.682
- efficiency to beat: 0.682
- normalized lower bound 1457
- lns time: 3.006000
- lns branches: 196790
- lns fails: 96523
LNS iteration #95 ========================================
- worst case average CPI: 0.720
- worst case efficiency: 0.682
- efficiency to beat: 0.682
- normalized lower bound 1457
- lns time: 3.006000
- lns branches: 213133
- lns fails: 104546
LNS iteration #96 ========================================
- worst case average CPI: 0.720
- worst case efficiency: 0.682
- efficiency to beat: 0.682
- normalized lower bound 1457
- lns time: 3.006000
- lns branches: 204260
- lns fails: 100106
LNS iteration #97 ========================================
- worst case average CPI: 0.720
- worst case efficiency: 0.682
- efficiency to beat: 0.682
- normalized lower bound 1457
--- checking solution
--- solution ok! Maximum rounding error: 0.000015
- solution found, obj var is: 1460
- de-normalized obj var: 0.687600
- time (local/global): 0.013/53.128
- branches (local/global): 874/3580596
- fails (local/global): 401/1750779
- lns time: 0.019000
- lns branches: 874
- lns fails: 401
LNS iteration #98 ========================================
- worst case average CPI: 0.720
- worst case efficiency: 0.684
- efficiency to beat: 0.684
- normalized lower bound 1488
--- checking solution
--- solution ok! Maximum rounding error: 0.000115
- solution found, obj var is: 1511
- de-normalized obj var: 0.690660
- time (local/global): 1.927/55.061
- branches (local/global): 119805/3700401
- fails (local/global): 58482/1809261
- lns time: 1.933000
- lns branches: 119805
- lns fails: 58482
LNS iteration #99 ========================================
- worst case average CPI: 0.720
- worst case efficiency: 0.684
- efficiency to beat: 0.684
- normalized lower bound 1490
--- checking solution
--- solution ok! Maximum rounding error: 0.000020
- solution found, obj var is: 1575
- de-normalized obj var: 0.694500
- time (local/global): 0.000/55.067
- branches (local/global): 12/3700413
- fails (local/global): 1/1809262
- lns time: 0.005000
- lns branches: 12
- lns fails: 1
LNS iteration #100 ========================================
- worst case average CPI: 0.720
- worst case efficiency: 0.684
- efficiency to beat: 0.684
- normalized lower bound 1488
--- checking solution
--- solution ok! Maximum rounding error: 0.000168
- solution found, obj var is: 1508
- de-normalized obj var: 0.690480
- time (local/global): 2.294/57.366
- branches (local/global): 156400/3856813
- fails (local/global): 76402/1885664
- lns time: 2.300000
- lns branches: 156400
- lns fails: 76402
LNS iteration #101 ========================================
- worst case average CPI: 0.722
- worst case efficiency: 0.685
- efficiency to beat: 0.685
- normalized lower bound 1495
- lns time: 3.007000
- lns branches: 145374
- lns fails: 71047
LNS iteration #102 ========================================
- worst case average CPI: 0.722
- worst case efficiency: 0.685
- efficiency to beat: 0.685
- normalized lower bound 1495
- lns time: 3.006000
- lns branches: 200046
- lns fails: 98097
LNS iteration #103 ========================================
- worst case average CPI: 0.722
- worst case efficiency: 0.685
- efficiency to beat: 0.685
- normalized lower bound 1495
- lns time: 3.006000
- lns branches: 187268
- lns fails: 91796
LNS iteration #104 ========================================
- worst case average CPI: 0.722
- worst case efficiency: 0.685
- efficiency to beat: 0.685
- normalized lower bound 1495
- lns time: 3.006000
- lns branches: 206026
- lns fails: 101043
LNS iteration #105 ========================================
- worst case average CPI: 0.722
- worst case efficiency: 0.685
- efficiency to beat: 0.685
- normalized lower bound 1495
--- checking solution
--- solution ok! Maximum rounding error: 0.000094
- solution found, obj var is: 1499
- de-normalized obj var: 0.689940
- time (local/global): 0.093/69.490
- branches (local/global): 7866/4603393
- fails (local/global): 3765/2251412
- lns time: 0.099000
- lns branches: 7866
- lns fails: 3765
LNS iteration #106 ========================================
- worst case average CPI: 0.722
- worst case efficiency: 0.685
- efficiency to beat: 0.685
- normalized lower bound 1496
- lns time: 3.006000
- lns branches: 242738
- lns fails: 118880
LNS iteration #107 ========================================
- worst case average CPI: 0.722
- worst case efficiency: 0.685
- efficiency to beat: 0.685
- normalized lower bound 1496
--- checking solution
--- solution ok! Maximum rounding error: 0.000001
- solution found, obj var is: 1508
- de-normalized obj var: 0.690480
- time (local/global): 0.008/72.510
- branches (local/global): 355/4846486
- fails (local/global): 157/2370449
- lns time: 0.016000
- lns branches: 355
- lns fails: 157
LNS iteration #108 ========================================
- worst case average CPI: 0.722
- worst case efficiency: 0.687
- efficiency to beat: 0.687
- normalized lower bound 1529
- lns time: 3.006000
- lns branches: 162434
- lns fails: 79525
LNS iteration #109 ========================================
- worst case average CPI: 0.722
- worst case efficiency: 0.687
- efficiency to beat: 0.687
- normalized lower bound 1529
--- checking solution
--- solution ok! Maximum rounding error: 0.000071
- solution found, obj var is: 1571
- de-normalized obj var: 0.694260
- time (local/global): 0.612/76.136
- branches (local/global): 39447/5048367
- fails (local/global): 19214/2469188
- lns time: 0.618000
- lns branches: 39447
- lns fails: 19214
LNS iteration #110 ========================================
- worst case average CPI: 0.722
- worst case efficiency: 0.687
- efficiency to beat: 0.687
- normalized lower bound 1531
--- checking solution
--- solution ok! Maximum rounding error: 0.000298
- solution found, obj var is: 1533
- de-normalized obj var: 0.691980
- time (local/global): 0.294/76.436
- branches (local/global): 21134/5069501
- fails (local/global): 10214/2479402
- lns time: 0.300000
- lns branches: 21134
- lns fails: 10214
LNS iteration #111 ========================================
- worst case average CPI: 0.722
- worst case efficiency: 0.687
- efficiency to beat: 0.687
- normalized lower bound 1539
- lns time: 3.006000
- lns branches: 229992
- lns fails: 112718
LNS iteration #112 ========================================
- worst case average CPI: 0.722
- worst case efficiency: 0.687
- efficiency to beat: 0.687
- normalized lower bound 1539
- lns time: 3.006000
- lns branches: 208246
- lns fails: 102325
LNS iteration #113 ========================================
- worst case average CPI: 0.722
- worst case efficiency: 0.687
- efficiency to beat: 0.687
- normalized lower bound 1539
- lns time: 3.006000
- lns branches: 203220
- lns fails: 99770
LNS iteration #114 ========================================
- worst case average CPI: 0.722
- worst case efficiency: 0.687
- efficiency to beat: 0.687
- normalized lower bound 1539
--- checking solution
--- solution ok! Maximum rounding error: 0.000004
- solution found, obj var is: 1706
- de-normalized obj var: 0.702360
- time (local/global): 0.038/85.498
- branches (local/global): 2564/5713523
- fails (local/global): 1212/2795427
- lns time: 0.044000
- lns branches: 2564
- lns fails: 1212
LNS iteration #115 ========================================
- worst case average CPI: 0.722
- worst case efficiency: 0.687
- efficiency to beat: 0.687
- normalized lower bound 1541
--- checking solution
--- solution ok! Maximum rounding error: 0.000018
- solution found, obj var is: 1566
- de-normalized obj var: 0.693960
- time (local/global): 2.078/87.582
- branches (local/global): 141397/5854920
- fails (local/global): 68951/2864378
- lns time: 2.084000
- lns branches: 141397
- lns fails: 68951
LNS iteration #116 ========================================
- worst case average CPI: 0.722
- worst case efficiency: 0.688
- efficiency to beat: 0.688
- normalized lower bound 1544
- lns time: 2.418000
- lns branches: 169888
- lns fails: 83082

LNS optimization is over========================================
initial worst case average CPI: 1.908
final worst case average CPI: 0.722
initial worst case efficiency: 0.618
final worst case efficiency: 0.688
number of iterations: 117
total time: 90006.000000
total branches: 6024808
total fails: 2947460

Final Solution: 0->0, 1->45, 2->13, 3->33, 4->6, 5->47, 6->7, 7->14, 8->17, 9->6, 10->44, 11->13, 12->35, 13->41, 14->33, 15->37, 16->17, 17->22, 18->38, 19->13, 20->25, 21->14, 22->46, 23->6, 24->12, 25->21, 26->31, 27->43, 28->45, 29->7, 30->18, 31->23, 32->16, 33->12, 34->23, 35->27, 36->38, 37->0, 38->31, 39->36, 40->30, 41->47, 42->30, 43->2, 44->7, 45->6, 46->7, 47->0, 48->19, 49->19, 50->24, 51->17, 52->21, 53->17, 54->14, 55->20, 56->33, 57->24, 58->14, 59->8, 60->28, 61->19, 62->35, 63->9, 64->11, 65->44, 66->23, 67->4, 68->39, 69->16, 70->19, 71->29, 72->41, 73->30, 74->30, 75->44, 76->18, 77->6, 78->19, 79->35, 80->30, 81->9, 82->34, 83->0, 84->35, 85->12, 86->8, 87->38, 88->21, 89->33, 90->18, 91->24, 92->42, 93->24, 94->12, 95->7, 96->26, 97->8, 98->45, 99->21, 100->8, 101->17, 102->27, 103->11, 104->25, 105->14, 106->31, 107->29, 108->29, 109->45, 110->30, 111->32, 112->15, 113->23, 114->43, 115->31, 116->44, 117->20, 118->45, 119->36, 120->39, 121->27, 122->10, 123->43, 124->4, 125->29, 126->32, 127->18, 128->46, 129->47, 130->23, 131->36, 132->6, 133->14, 134->43, 135->16, 136->11, 137->11, 138->37, 139->34, 140->32, 141->41, 142->35, 143->4, 144->47, 145->34, 146->4, 147->26, 148->39, 149->17, 150->8, 151->37, 152->44, 153->24, 154->4, 155->1, 156->39, 157->19, 158->26, 159->5, 160->11, 161->9, 162->20, 163->5, 164->16, 165->35, 166->22, 167->1, 168->21, 169->29, 170->37, 171->10, 172->0, 173->3, 174->15, 175->28, 176->16, 177->26, 178->47, 179->46, 180->13, 181->32, 182->9, 183->29, 184->27, 185->41, 186->45, 187->25, 188->44, 189->9, 190->27, 191->13, 192->10, 193->22, 194->26, 195->5, 196->42, 197->22, 198->46, 199->21, 200->5, 201->10, 202->24, 203->40, 204->10, 205->38, 206->33, 207->40, 208->42, 209->15, 210->23, 211->18, 212->25, 213->36, 214->3, 215->22, 216->1, 217->20, 218->43, 219->15, 220->42, 221->41, 222->13, 223->1, 224->9, 225->28, 226->46, 227->15, 228->25, 229->37, 230->40, 231->10, 232->40, 233->46, 234->34, 235->3, 236->36, 237->2, 238->33, 239->41, 240->2, 241->36, 242->15, 243->42, 244->2, 245->8, 246->31, 247->40, 248->3, 249->3, 250->7, 251->2, 252->34, 253->20, 254->38, 255->40, 256->0, 257->47, 258->16, 259->31, 260->37, 261->18, 262->5, 263->22, 264->42, 265->11, 266->4, 267->28, 268->27, 269->39, 270->12, 271->28, 272->5, 273->25, 274->3, 275->1, 276->2, 277->38, 278->26, 279->1, 280->34, 281->39, 282->28, 283->20, 284->32, 285->43, 286->12, 287->32

Average CPI map:
	2.31,	1.30,	0.93,	0.82,	1.30,	0.97
	1.66,	2.61,	2.52,	2.19,	2.33,	1.04
	1.40,	2.46,	3.14,	2.57,	2.81,	1.38
	1.75,	2.64,	2.71,	2.85,	2.65,	1.37
	1.27,	2.50,	2.85,	2.70,	3.05,	0.98
	1.34,	2.87,	2.75,	2.67,	2.66,	0.86
	0.72,	2.28,	2.30,	2.39,	2.18,	0.96
	1.14,	2.01,	1.95,	2.60,	1.96,	1.33

Efficiency map:
	0.997,	0.859,	0.904,	0.737,	0.905,	1.003
	0.738,	0.691,	0.696,	0.694,	0.701,	0.839
	0.821,	0.689,	0.694,	0.710,	0.724,	0.796
	0.818,	0.688,	0.690,	0.716,	0.690,	0.900
	0.819,	0.690,	0.692,	0.691,	0.707,	0.769
	0.790,	0.692,	0.695,	0.688,	0.712,	0.815
	0.800,	0.691,	0.688,	0.688,	0.690,	0.805
	0.809,	0.694,	0.698,	0.749,	0.688,	0.793
