==============================================================================
LNS optimizer for EML demonstration
==============================================================================

Option values: --wld-idx 4 --prec 10000 --step 0 --global-tlim 90 --global-iter 1000 --local-tlim 3 --local-nsol 1 --restart-base 100 --restart-strat luby --seed 201

Starting the Optimization Process
reserved_tasks None
Finding a first solution
LNS iteration #0 ========================================
- worst case average CPI: 1.916
- worst case efficiency: 0.617
- efficiency to beat: 0.617
- normalized lower bound 362
--- checking solution
XXX Rounding error: 6
--- solution ok! Maximum rounding error: 0.000133
- solution found, obj var is: 363
- de-normalized obj var: 0.621780
- time (local/global): 0.001/0.001
- branches (local/global): 28/28
- fails (local/global): 3/3
- lns time: 0.007000
- lns branches: 28
- lns fails: 3
LNS iteration #1 ========================================
- worst case average CPI: 1.596
- worst case efficiency: 0.618
- efficiency to beat: 0.618
- normalized lower bound 383
--- checking solution
--- solution ok! Maximum rounding error: 0.000070
- solution found, obj var is: 397
- de-normalized obj var: 0.623820
- time (local/global): 0.003/0.010
- branches (local/global): 244/272
- fails (local/global): 102/105
- lns time: 0.009000
- lns branches: 244
- lns fails: 102
LNS iteration #2 ========================================
- worst case average CPI: 1.596
- worst case efficiency: 0.620
- efficiency to beat: 0.620
- normalized lower bound 414
--- checking solution
--- solution ok! Maximum rounding error: 0.000001
- solution found, obj var is: 647
- de-normalized obj var: 0.638820
- time (local/global): 0.000/0.016
- branches (local/global): 22/294
- fails (local/global): 0/105
- lns time: 0.007000
- lns branches: 22
- lns fails: 0
LNS iteration #3 ========================================
- worst case average CPI: 1.437
- worst case efficiency: 0.620
- efficiency to beat: 0.620
- normalized lower bound 424
--- checking solution
--- solution ok! Maximum rounding error: 0.000039
- solution found, obj var is: 444
- de-normalized obj var: 0.626640
- time (local/global): 0.003/0.026
- branches (local/global): 238/532
- fails (local/global): 100/205
- lns time: 0.008000
- lns branches: 238
- lns fails: 100
LNS iteration #4 ========================================
- worst case average CPI: 1.147
- worst case efficiency: 0.621
- efficiency to beat: 0.621
- normalized lower bound 430
--- checking solution
--- solution ok! Maximum rounding error: 0.000062
- solution found, obj var is: 450
- de-normalized obj var: 0.627000
- time (local/global): 0.000/0.031
- branches (local/global): 22/554
- fails (local/global): 1/206
- lns time: 0.007000
- lns branches: 22
- lns fails: 1
LNS iteration #5 ========================================
- worst case average CPI: 1.147
- worst case efficiency: 0.622
- efficiency to beat: 0.622
- normalized lower bound 450
--- checking solution
--- solution ok! Maximum rounding error: 0.000062
- solution found, obj var is: 703
- de-normalized obj var: 0.642180
- time (local/global): 0.000/0.038
- branches (local/global): 22/576
- fails (local/global): 0/206
- lns time: 0.006000
- lns branches: 22
- lns fails: 0
LNS iteration #6 ========================================
- worst case average CPI: 1.147
- worst case efficiency: 0.623
- efficiency to beat: 0.623
- normalized lower bound 459
--- checking solution
--- solution ok! Maximum rounding error: 0.000053
- solution found, obj var is: 463
- de-normalized obj var: 0.627780
- time (local/global): 0.004/0.048
- branches (local/global): 240/816
- fails (local/global): 101/307
- lns time: 0.009000
- lns branches: 240
- lns fails: 101
LNS iteration #7 ========================================
- worst case average CPI: 1.386
- worst case efficiency: 0.624
- efficiency to beat: 0.624
- normalized lower bound 484
--- checking solution
--- solution ok! Maximum rounding error: 0.000007
- solution found, obj var is: 505
- de-normalized obj var: 0.630300
- time (local/global): 0.004/0.057
- branches (local/global): 168/984
- fails (local/global): 73/380
- lns time: 0.009000
- lns branches: 168
- lns fails: 73
LNS iteration #8 ========================================
- worst case average CPI: 1.386
- worst case efficiency: 0.625
- efficiency to beat: 0.625
- normalized lower bound 497
--- checking solution
--- solution ok! Maximum rounding error: 0.000000
- solution found, obj var is: 534
- de-normalized obj var: 0.632040
- time (local/global): 0.000/0.062
- branches (local/global): 19/1003
- fails (local/global): 2/382
- lns time: 0.005000
- lns branches: 19
- lns fails: 2
LNS iteration #9 ========================================
- worst case average CPI: 1.386
- worst case efficiency: 0.627
- efficiency to beat: 0.627
- normalized lower bound 533
--- checking solution
--- solution ok! Maximum rounding error: 0.000000
- solution found, obj var is: 540
- de-normalized obj var: 0.632400
- time (local/global): 0.016/0.083
- branches (local/global): 915/1918
- fails (local/global): 427/809
- lns time: 0.022000
- lns branches: 915
- lns fails: 427
LNS iteration #10 ========================================
- worst case average CPI: 1.386
- worst case efficiency: 0.628
- efficiency to beat: 0.628
- normalized lower bound 546
--- checking solution
--- solution ok! Maximum rounding error: 0.000047
- solution found, obj var is: 729
- de-normalized obj var: 0.643740
- time (local/global): 0.006/0.095
- branches (local/global): 459/2377
- fails (local/global): 201/1010
- lns time: 0.012000
- lns branches: 459
- lns fails: 201
LNS iteration #11 ========================================
- worst case average CPI: 1.386
- worst case efficiency: 0.628
- efficiency to beat: 0.628
- normalized lower bound 553
--- checking solution
--- solution ok! Maximum rounding error: 0.000375
- solution found, obj var is: 580
- de-normalized obj var: 0.634800
- time (local/global): 0.001/0.102
- branches (local/global): 22/2399
- fails (local/global): 0/1010
- lns time: 0.007000
- lns branches: 22
- lns fails: 0
LNS iteration #12 ========================================
- worst case average CPI: 1.386
- worst case efficiency: 0.628
- efficiency to beat: 0.628
- normalized lower bound 556
--- checking solution
--- solution ok! Maximum rounding error: 0.000035
- solution found, obj var is: 564
- de-normalized obj var: 0.633840
- time (local/global): 0.033/0.141
- branches (local/global): 2542/4941
- fails (local/global): 1206/2216
- lns time: 0.039000
- lns branches: 2542
- lns fails: 1206
LNS iteration #13 ========================================
- worst case average CPI: 1.386
- worst case efficiency: 0.628
- efficiency to beat: 0.628
- normalized lower bound 557
- lns time: 3.005000
- lns branches: 257573
- lns fails: 126923
LNS iteration #14 ========================================
- worst case average CPI: 1.386
- worst case efficiency: 0.628
- efficiency to beat: 0.628
- normalized lower bound 557
--- checking solution
--- solution ok! Maximum rounding error: 0.000091
- solution found, obj var is: 807
- de-normalized obj var: 0.648420
- time (local/global): 0.005/3.157
- branches (local/global): 459/262973
- fails (local/global): 200/129339
- lns time: 0.011000
- lns branches: 459
- lns fails: 200
LNS iteration #15 ========================================
- worst case average CPI: 1.386
- worst case efficiency: 0.629
- efficiency to beat: 0.629
- normalized lower bound 565
--- checking solution
--- solution ok! Maximum rounding error: 0.000065
- solution found, obj var is: 768
- de-normalized obj var: 0.646080
- time (local/global): 0.000/3.163
- branches (local/global): 22/262995
- fails (local/global): 0/129339
- lns time: 0.006000
- lns branches: 22
- lns fails: 0
LNS iteration #16 ========================================
- worst case average CPI: 1.304
- worst case efficiency: 0.631
- efficiency to beat: 0.631
- normalized lower bound 597
--- checking solution
--- solution ok! Maximum rounding error: 0.000065
- solution found, obj var is: 598
- de-normalized obj var: 0.635880
- time (local/global): 0.004/3.173
- branches (local/global): 358/263353
- fails (local/global): 162/129501
- lns time: 0.011000
- lns branches: 358
- lns fails: 162
LNS iteration #17 ========================================
- worst case average CPI: 1.304
- worst case efficiency: 0.631
- efficiency to beat: 0.631
- normalized lower bound 600
--- checking solution
--- solution ok! Maximum rounding error: 0.000009
- solution found, obj var is: 656
- de-normalized obj var: 0.639360
- time (local/global): 0.003/3.183
- branches (local/global): 243/263596
- fails (local/global): 101/129602
- lns time: 0.009000
- lns branches: 243
- lns fails: 101
LNS iteration #18 ========================================
- worst case average CPI: 1.304
- worst case efficiency: 0.632
- efficiency to beat: 0.632
- normalized lower bound 615
--- checking solution
--- solution ok! Maximum rounding error: 0.000056
- solution found, obj var is: 743
- de-normalized obj var: 0.644580
- time (local/global): 0.004/3.193
- branches (local/global): 242/263838
- fails (local/global): 102/129704
- lns time: 0.011000
- lns branches: 242
- lns fails: 102
LNS iteration #19 ========================================
- worst case average CPI: 1.304
- worst case efficiency: 0.632
- efficiency to beat: 0.632
- normalized lower bound 618
--- checking solution
--- solution ok! Maximum rounding error: 0.000123
- solution found, obj var is: 623
- de-normalized obj var: 0.637380
- time (local/global): 0.009/3.209
- branches (local/global): 461/264299
- fails (local/global): 205/129909
- lns time: 0.016000
- lns branches: 461
- lns fails: 205
LNS iteration #20 ========================================
- worst case average CPI: 1.304
- worst case efficiency: 0.632
- efficiency to beat: 0.632
- normalized lower bound 625
--- checking solution
--- solution ok! Maximum rounding error: 0.000141
- solution found, obj var is: 693
- de-normalized obj var: 0.641580
- time (local/global): 0.000/3.216
- branches (local/global): 22/264321
- fails (local/global): 0/129909
- lns time: 0.006000
- lns branches: 22
- lns fails: 0
LNS iteration #21 ========================================
- worst case average CPI: 1.276
- worst case efficiency: 0.634
- efficiency to beat: 0.634
- normalized lower bound 648
--- checking solution
--- solution ok! Maximum rounding error: 0.000046
- solution found, obj var is: 701
- de-normalized obj var: 0.642060
- time (local/global): 0.021/3.243
- branches (local/global): 1738/266059
- fails (local/global): 806/130715
- lns time: 0.028000
- lns branches: 1738
- lns fails: 806
LNS iteration #22 ========================================
- worst case average CPI: 1.276
- worst case efficiency: 0.635
- efficiency to beat: 0.635
- normalized lower bound 668
--- checking solution
--- solution ok! Maximum rounding error: 0.000103
- solution found, obj var is: 716
- de-normalized obj var: 0.642960
- time (local/global): 0.003/3.253
- branches (local/global): 241/266300
- fails (local/global): 100/130815
- lns time: 0.018000
- lns branches: 241
- lns fails: 100
LNS iteration #23 ========================================
- worst case average CPI: 1.184
- worst case efficiency: 0.636
- efficiency to beat: 0.636
- normalized lower bound 676
--- checking solution
--- solution ok! Maximum rounding error: 0.000027
- solution found, obj var is: 1111
- de-normalized obj var: 0.666660
- time (local/global): 0.006/3.274
- branches (local/global): 455/266755
- fails (local/global): 200/131015
- lns time: 0.017000
- lns branches: 455
- lns fails: 200
LNS iteration #24 ========================================
- worst case average CPI: 1.184
- worst case efficiency: 0.636
- efficiency to beat: 0.636
- normalized lower bound 683
--- checking solution
--- solution ok! Maximum rounding error: 0.000242
- solution found, obj var is: 1519
- de-normalized obj var: 0.691140
- time (local/global): 0.012/3.297
- branches (local/global): 1093/267848
- fails (local/global): 500/131515
- lns time: 0.018000
- lns branches: 1093
- lns fails: 500
LNS iteration #25 ========================================
- worst case average CPI: 1.184
- worst case efficiency: 0.637
- efficiency to beat: 0.637
- normalized lower bound 707
--- checking solution
--- solution ok! Maximum rounding error: 0.000075
- solution found, obj var is: 718
- de-normalized obj var: 0.643080
- time (local/global): 0.040/3.343
- branches (local/global): 2662/270510
- fails (local/global): 1264/132779
- lns time: 0.046000
- lns branches: 2662
- lns fails: 1264
LNS iteration #26 ========================================
- worst case average CPI: 1.276
- worst case efficiency: 0.638
- efficiency to beat: 0.638
- normalized lower bound 712
--- checking solution
--- solution ok! Maximum rounding error: 0.000038
- solution found, obj var is: 751
- de-normalized obj var: 0.645060
- time (local/global): 0.043/3.392
- branches (local/global): 3385/273895
- fails (local/global): 1600/134379
- lns time: 0.056000
- lns branches: 3385
- lns fails: 1600
LNS iteration #27 ========================================
- worst case average CPI: 1.276
- worst case efficiency: 0.641
- efficiency to beat: 0.641
- normalized lower bound 775
--- checking solution
--- solution ok! Maximum rounding error: 0.000020
- solution found, obj var is: 832
- de-normalized obj var: 0.649920
- time (local/global): 0.001/3.406
- branches (local/global): 24/273919
- fails (local/global): 2/134381
- lns time: 0.011000
- lns branches: 24
- lns fails: 2
LNS iteration #28 ========================================
- worst case average CPI: 1.276
- worst case efficiency: 0.642
- efficiency to beat: 0.642
- normalized lower bound 781
--- checking solution
--- solution ok! Maximum rounding error: 0.000127
- solution found, obj var is: 801
- de-normalized obj var: 0.648060
- time (local/global): 0.000/3.416
- branches (local/global): 22/273941
- fails (local/global): 0/134381
- lns time: 0.007000
- lns branches: 22
- lns fails: 0
LNS iteration #29 ========================================
- worst case average CPI: 1.276
- worst case efficiency: 0.642
- efficiency to beat: 0.642
- normalized lower bound 788
--- checking solution
--- solution ok! Maximum rounding error: 0.000072
- solution found, obj var is: 913
- de-normalized obj var: 0.654780
- time (local/global): 0.001/3.424
- branches (local/global): 22/273963
- fails (local/global): 0/134381
- lns time: 0.006000
- lns branches: 22
- lns fails: 0
LNS iteration #30 ========================================
- worst case average CPI: 1.276
- worst case efficiency: 0.643
- efficiency to beat: 0.643
- normalized lower bound 798
--- checking solution
--- solution ok! Maximum rounding error: 0.000214
- solution found, obj var is: 815
- de-normalized obj var: 0.648900
- time (local/global): 0.747/4.176
- branches (local/global): 51493/325456
- fails (local/global): 25005/159386
- lns time: 0.753000
- lns branches: 51493
- lns fails: 25005
LNS iteration #31 ========================================
- worst case average CPI: 1.276
- worst case efficiency: 0.643
- efficiency to beat: 0.643
- normalized lower bound 803
--- checking solution
--- solution ok! Maximum rounding error: 0.000099
- solution found, obj var is: 815
- de-normalized obj var: 0.648900
- time (local/global): 0.055/4.237
- branches (local/global): 3658/329114
- fails (local/global): 1729/161115
- lns time: 0.062000
- lns branches: 3658
- lns fails: 1729
LNS iteration #32 ========================================
- worst case average CPI: 1.239
- worst case efficiency: 0.644
- efficiency to beat: 0.644
- normalized lower bound 813
--- checking solution
--- solution ok! Maximum rounding error: 0.000090
- solution found, obj var is: 858
- de-normalized obj var: 0.651480
- time (local/global): 0.006/4.250
- branches (local/global): 454/329568
- fails (local/global): 200/161315
- lns time: 0.012000
- lns branches: 454
- lns fails: 200
LNS iteration #33 ========================================
- worst case average CPI: 1.239
- worst case efficiency: 0.644
- efficiency to beat: 0.644
- normalized lower bound 815
--- checking solution
--- solution ok! Maximum rounding error: 0.000046
- solution found, obj var is: 826
- de-normalized obj var: 0.649560
- time (local/global): 0.098/4.354
- branches (local/global): 7224/336792
- fails (local/global): 3458/164773
- lns time: 0.104000
- lns branches: 7224
- lns fails: 3458
LNS iteration #34 ========================================
- worst case average CPI: 1.239
- worst case efficiency: 0.644
- efficiency to beat: 0.644
- normalized lower bound 825
--- checking solution
--- solution ok! Maximum rounding error: 0.000059
- solution found, obj var is: 836
- de-normalized obj var: 0.650160
- time (local/global): 0.042/4.402
- branches (local/global): 3604/340396
- fails (local/global): 1704/166477
- lns time: 0.052000
- lns branches: 3604
- lns fails: 1704
LNS iteration #35 ========================================
- worst case average CPI: 1.239
- worst case efficiency: 0.645
- efficiency to beat: 0.645
- normalized lower bound 827
--- checking solution
--- solution ok! Maximum rounding error: 0.000070
- solution found, obj var is: 861
- de-normalized obj var: 0.651660
- time (local/global): 0.001/4.413
- branches (local/global): 59/340455
- fails (local/global): 19/166496
- lns time: 0.007000
- lns branches: 59
- lns fails: 19
LNS iteration #36 ========================================
- worst case average CPI: 1.239
- worst case efficiency: 0.645
- efficiency to beat: 0.645
- normalized lower bound 834
--- checking solution
--- solution ok! Maximum rounding error: 0.000125
- solution found, obj var is: 849
- de-normalized obj var: 0.650940
- time (local/global): 0.002/4.421
- branches (local/global): 66/340521
- fails (local/global): 22/166518
- lns time: 0.007000
- lns branches: 66
- lns fails: 22
LNS iteration #37 ========================================
- worst case average CPI: 1.239
- worst case efficiency: 0.649
- efficiency to beat: 0.649
- normalized lower bound 895
--- checking solution
XXX Rounding error: 14
--- solution ok! Maximum rounding error: 0.000511
- solution found, obj var is: 932
- de-normalized obj var: 0.655920
- time (local/global): 0.006/4.432
- branches (local/global): 482/341003
- fails (local/global): 215/166733
- lns time: 0.012000
- lns branches: 482
- lns fails: 215
LNS iteration #38 ========================================
- worst case average CPI: 1.239
- worst case efficiency: 0.649
- efficiency to beat: 0.649
- normalized lower bound 901
--- checking solution
--- solution ok! Maximum rounding error: 0.000031
- solution found, obj var is: 1146
- de-normalized obj var: 0.668760
- time (local/global): 0.147/4.585
- branches (local/global): 10467/351470
- fails (local/global): 5000/171733
- lns time: 0.156000
- lns branches: 10467
- lns fails: 5000
LNS iteration #39 ========================================
- worst case average CPI: 1.239
- worst case efficiency: 0.650
- efficiency to beat: 0.650
- normalized lower bound 910
--- checking solution
--- solution ok! Maximum rounding error: 0.000045
- solution found, obj var is: 926
- de-normalized obj var: 0.655560
- time (local/global): 0.000/4.594
- branches (local/global): 22/351492
- fails (local/global): 0/171733
- lns time: 0.006000
- lns branches: 22
- lns fails: 0
LNS iteration #40 ========================================
- worst case average CPI: 1.239
- worst case efficiency: 0.650
- efficiency to beat: 0.650
- normalized lower bound 914
--- checking solution
--- solution ok! Maximum rounding error: 0.000052
- solution found, obj var is: 984
- de-normalized obj var: 0.659040
- time (local/global): 0.010/4.610
- branches (local/global): 877/352369
- fails (local/global): 401/172134
- lns time: 0.016000
- lns branches: 877
- lns fails: 401
LNS iteration #41 ========================================
- worst case average CPI: 1.165
- worst case efficiency: 0.650
- efficiency to beat: 0.650
- normalized lower bound 915
--- checking solution
--- solution ok! Maximum rounding error: 0.000026
- solution found, obj var is: 926
- de-normalized obj var: 0.655560
- time (local/global): 1.465/6.081
- branches (local/global): 108170/460539
- fails (local/global): 52800/224934
- lns time: 1.471000
- lns branches: 108170
- lns fails: 52800
LNS iteration #42 ========================================
- worst case average CPI: 1.165
- worst case efficiency: 0.651
- efficiency to beat: 0.651
- normalized lower bound 926
--- checking solution
--- solution ok! Maximum rounding error: 0.000054
- solution found, obj var is: 939
- de-normalized obj var: 0.656340
- time (local/global): 0.006/6.093
- branches (local/global): 605/461144
- fails (local/global): 274/225208
- lns time: 0.012000
- lns branches: 605
- lns fails: 274
LNS iteration #43 ========================================
- worst case average CPI: 1.165
- worst case efficiency: 0.652
- efficiency to beat: 0.652
- normalized lower bound 943
--- checking solution
--- solution ok! Maximum rounding error: 0.000000
- solution found, obj var is: 944
- de-normalized obj var: 0.656640
- time (local/global): 0.023/6.122
- branches (local/global): 1686/462830
- fails (local/global): 795/226003
- lns time: 0.029000
- lns branches: 1686
- lns fails: 795
LNS iteration #44 ========================================
- worst case average CPI: 0.936
- worst case efficiency: 0.651
- efficiency to beat: 0.651
- normalized lower bound 942
--- checking solution
--- solution ok! Maximum rounding error: 0.000049
- solution found, obj var is: 942
- de-normalized obj var: 0.656520
- time (local/global): 0.006/6.134
- branches (local/global): 501/463331
- fails (local/global): 234/226237
- lns time: 0.011000
- lns branches: 501
- lns fails: 234
LNS iteration #45 ========================================
- worst case average CPI: 0.936
- worst case efficiency: 0.652
- efficiency to beat: 0.652
- normalized lower bound 948
--- checking solution
--- solution ok! Maximum rounding error: 0.000041
- solution found, obj var is: 1010
- de-normalized obj var: 0.660600
- time (local/global): 0.003/6.142
- branches (local/global): 161/463492
- fails (local/global): 70/226307
- lns time: 0.008000
- lns branches: 161
- lns fails: 70
LNS iteration #46 ========================================
- worst case average CPI: 0.936
- worst case efficiency: 0.654
- efficiency to beat: 0.654
- normalized lower bound 991
--- checking solution
--- solution ok! Maximum rounding error: 0.000210
- solution found, obj var is: 1035
- de-normalized obj var: 0.662100
- time (local/global): 0.012/6.159
- branches (local/global): 909/464401
- fails (local/global): 417/226724
- lns time: 0.017000
- lns branches: 909
- lns fails: 417
LNS iteration #47 ========================================
- worst case average CPI: 0.936
- worst case efficiency: 0.655
- efficiency to beat: 0.655
- normalized lower bound 995
--- checking solution
--- solution ok! Maximum rounding error: 0.000048
- solution found, obj var is: 1034
- de-normalized obj var: 0.662040
- time (local/global): 0.186/6.350
- branches (local/global): 16972/481373
- fails (local/global): 8203/234927
- lns time: 0.191000
- lns branches: 16972
- lns fails: 8203
LNS iteration #48 ========================================
- worst case average CPI: 0.936
- worst case efficiency: 0.655
- efficiency to beat: 0.655
- normalized lower bound 997
--- checking solution
--- solution ok! Maximum rounding error: 0.000045
- solution found, obj var is: 1018
- de-normalized obj var: 0.661080
- time (local/global): 0.357/6.712
- branches (local/global): 23854/505227
- fails (local/global): 11514/246441
- lns time: 0.362000
- lns branches: 23854
- lns fails: 11514
LNS iteration #49 ========================================
- worst case average CPI: 0.936
- worst case efficiency: 0.655
- efficiency to beat: 0.655
- normalized lower bound 1000
--- checking solution
--- solution ok! Maximum rounding error: 0.000021
- solution found, obj var is: 1008
- de-normalized obj var: 0.660480
- time (local/global): 0.033/6.750
- branches (local/global): 2617/507844
- fails (local/global): 1244/247685
- lns time: 0.040000
- lns branches: 2617
- lns fails: 1244
LNS iteration #50 ========================================
- worst case average CPI: 0.936
- worst case efficiency: 0.656
- efficiency to beat: 0.656
- normalized lower bound 1010
- lns time: 3.006000
- lns branches: 241839
- lns fails: 118514
LNS iteration #51 ========================================
- worst case average CPI: 0.936
- worst case efficiency: 0.656
- efficiency to beat: 0.656
- normalized lower bound 1010
- lns time: 3.006000
- lns branches: 211985
- lns fails: 103963
LNS iteration #52 ========================================
- worst case average CPI: 0.936
- worst case efficiency: 0.656
- efficiency to beat: 0.656
- normalized lower bound 1010
--- checking solution
--- solution ok! Maximum rounding error: 0.000038
- solution found, obj var is: 1042
- de-normalized obj var: 0.662520
- time (local/global): 0.148/12.917
- branches (local/global): 11358/973026
- fails (local/global): 5446/475608
- lns time: 0.154000
- lns branches: 11358
- lns fails: 5446
LNS iteration #53 ========================================
- worst case average CPI: 0.936
- worst case efficiency: 0.657
- efficiency to beat: 0.657
- normalized lower bound 1026
--- checking solution
--- solution ok! Maximum rounding error: 0.000038
- solution found, obj var is: 1033
- de-normalized obj var: 0.661980
- time (local/global): 0.047/12.970
- branches (local/global): 3382/976408
- fails (local/global): 1601/477209
- lns time: 0.055000
- lns branches: 3382
- lns fails: 1601
LNS iteration #54 ========================================
- worst case average CPI: 0.936
- worst case efficiency: 0.657
- efficiency to beat: 0.657
- normalized lower bound 1030
--- checking solution
--- solution ok! Maximum rounding error: 0.000237
- solution found, obj var is: 1196
- de-normalized obj var: 0.671760
- time (local/global): 0.025/13.003
- branches (local/global): 1755/978163
- fails (local/global): 817/478026
- lns time: 0.031000
- lns branches: 1755
- lns fails: 817
LNS iteration #55 ========================================
- worst case average CPI: 0.936
- worst case efficiency: 0.657
- efficiency to beat: 0.657
- normalized lower bound 1031
--- checking solution
--- solution ok! Maximum rounding error: 0.000755
- solution found, obj var is: 1032
- de-normalized obj var: 0.661920
- time (local/global): 0.785/13.794
- branches (local/global): 58697/1036860
- fails (local/global): 28513/506539
- lns time: 0.791000
- lns branches: 58697
- lns fails: 28513
LNS iteration #56 ========================================
- worst case average CPI: 0.936
- worst case efficiency: 0.659
- efficiency to beat: 0.659
- normalized lower bound 1066
--- checking solution
--- solution ok! Maximum rounding error: 0.000194
- solution found, obj var is: 1067
- de-normalized obj var: 0.664020
- time (local/global): 0.422/14.222
- branches (local/global): 30944/1067804
- fails (local/global): 14974/521513
- lns time: 0.428000
- lns branches: 30944
- lns fails: 14974
LNS iteration #57 ========================================
- worst case average CPI: 0.936
- worst case efficiency: 0.660
- efficiency to beat: 0.660
- normalized lower bound 1083
--- checking solution
--- solution ok! Maximum rounding error: 0.000027
- solution found, obj var is: 1109
- de-normalized obj var: 0.666540
- time (local/global): 0.030/14.258
- branches (local/global): 1905/1069709
- fails (local/global): 893/522406
- lns time: 0.037000
- lns branches: 1905
- lns fails: 893
LNS iteration #58 ========================================
- worst case average CPI: 0.936
- worst case efficiency: 0.661
- efficiency to beat: 0.661
- normalized lower bound 1096
- lns time: 3.006000
- lns branches: 172453
- lns fails: 84283
LNS iteration #59 ========================================
- worst case average CPI: 0.936
- worst case efficiency: 0.661
- efficiency to beat: 0.661
- normalized lower bound 1096
--- checking solution
--- solution ok! Maximum rounding error: 0.000012
- solution found, obj var is: 1121
- de-normalized obj var: 0.667260
- time (local/global): 1.025/18.296
- branches (local/global): 62850/1305012
- fails (local/global): 30600/637289
- lns time: 1.031000
- lns branches: 62850
- lns fails: 30600
LNS iteration #60 ========================================
- worst case average CPI: 0.936
- worst case efficiency: 0.661
- efficiency to beat: 0.661
- normalized lower bound 1098
--- checking solution
--- solution ok! Maximum rounding error: 0.000042
- solution found, obj var is: 1173
- de-normalized obj var: 0.670380
- time (local/global): 0.117/18.419
- branches (local/global): 9191/1314203
- fails (local/global): 4403/641692
- lns time: 0.123000
- lns branches: 9191
- lns fails: 4403
LNS iteration #61 ========================================
- worst case average CPI: 0.936
- worst case efficiency: 0.662
- efficiency to beat: 0.662
- normalized lower bound 1117
--- checking solution
--- solution ok! Maximum rounding error: 0.000130
- solution found, obj var is: 1370
- de-normalized obj var: 0.682200
- time (local/global): 0.333/18.758
- branches (local/global): 23408/1337611
- fails (local/global): 11304/652996
- lns time: 0.339000
- lns branches: 23408
- lns fails: 11304
LNS iteration #62 ========================================
- worst case average CPI: 0.794
- worst case efficiency: 0.662
- efficiency to beat: 0.662
- normalized lower bound 1117
- lns time: 3.006000
- lns branches: 172899
- lns fails: 84532
LNS iteration #63 ========================================
- worst case average CPI: 0.794
- worst case efficiency: 0.662
- efficiency to beat: 0.662
- normalized lower bound 1117
--- checking solution
--- solution ok! Maximum rounding error: 0.000027
- solution found, obj var is: 1170
- de-normalized obj var: 0.670200
- time (local/global): 0.205/21.975
- branches (local/global): 12637/1523147
- fails (local/global): 6071/743599
- lns time: 0.216000
- lns branches: 12637
- lns fails: 6071
LNS iteration #64 ========================================
- worst case average CPI: 0.794
- worst case efficiency: 0.662
- efficiency to beat: 0.662
- normalized lower bound 1118
--- checking solution
--- solution ok! Maximum rounding error: 0.000050
- solution found, obj var is: 1125
- de-normalized obj var: 0.667500
- time (local/global): 0.689/22.675
- branches (local/global): 50731/1573878
- fails (local/global): 24624/768223
- lns time: 0.695000
- lns branches: 50731
- lns fails: 24624
LNS iteration #65 ========================================
- worst case average CPI: 0.794
- worst case efficiency: 0.662
- efficiency to beat: 0.662
- normalized lower bound 1119
--- checking solution
--- solution ok! Maximum rounding error: 0.000026
- solution found, obj var is: 1165
- de-normalized obj var: 0.669900
- time (local/global): 1.635/24.316
- branches (local/global): 96469/1670347
- fails (local/global): 47201/815424
- lns time: 1.641000
- lns branches: 96469
- lns fails: 47201
LNS iteration #66 ========================================
- worst case average CPI: 0.794
- worst case efficiency: 0.663
- efficiency to beat: 0.663
- normalized lower bound 1127
--- checking solution
--- solution ok! Maximum rounding error: 0.000115
- solution found, obj var is: 1153
- de-normalized obj var: 0.669180
- time (local/global): 0.010/24.332
- branches (local/global): 525/1670872
- fails (local/global): 233/815657
- lns time: 0.018000
- lns branches: 525
- lns fails: 233
LNS iteration #67 ========================================
- worst case average CPI: 0.794
- worst case efficiency: 0.663
- efficiency to beat: 0.663
- normalized lower bound 1132
--- checking solution
--- solution ok! Maximum rounding error: 0.000051
- solution found, obj var is: 1148
- de-normalized obj var: 0.668880
- time (local/global): 0.047/24.387
- branches (local/global): 2980/1673852
- fails (local/global): 1409/817066
- lns time: 0.053000
- lns branches: 2980
- lns fails: 1409
LNS iteration #68 ========================================
- worst case average CPI: 0.794
- worst case efficiency: 0.664
- efficiency to beat: 0.664
- normalized lower bound 1148
--- checking solution
--- solution ok! Maximum rounding error: 0.000020
- solution found, obj var is: 1148
- de-normalized obj var: 0.668880
- time (local/global): 0.619/25.012
- branches (local/global): 44426/1718278
- fails (local/global): 21601/838667
- lns time: 0.625000
- lns branches: 44426
- lns fails: 21601
LNS iteration #69 ========================================
- worst case average CPI: 0.794
- worst case efficiency: 0.666
- efficiency to beat: 0.666
- normalized lower bound 1188
--- checking solution
--- solution ok! Maximum rounding error: 0.000280
- solution found, obj var is: 1669
- de-normalized obj var: 0.700140
- time (local/global): 0.000/25.018
- branches (local/global): 22/1718300
- fails (local/global): 0/838667
- lns time: 0.006000
- lns branches: 22
- lns fails: 0
LNS iteration #70 ========================================
- worst case average CPI: 0.794
- worst case efficiency: 0.667
- efficiency to beat: 0.667
- normalized lower bound 1192
--- checking solution
--- solution ok! Maximum rounding error: 0.000014
- solution found, obj var is: 1201
- de-normalized obj var: 0.672060
- time (local/global): 0.069/25.093
- branches (local/global): 4034/1722334
- fails (local/global): 1910/840577
- lns time: 0.075000
- lns branches: 4034
- lns fails: 1910
LNS iteration #71 ========================================
- worst case average CPI: 0.794
- worst case efficiency: 0.667
- efficiency to beat: 0.667
- normalized lower bound 1196
--- checking solution
--- solution ok! Maximum rounding error: 0.000055
- solution found, obj var is: 1206
- de-normalized obj var: 0.672360
- time (local/global): 0.016/25.115
- branches (local/global): 1214/1723548
- fails (local/global): 565/841142
- lns time: 0.022000
- lns branches: 1214
- lns fails: 565
LNS iteration #72 ========================================
- worst case average CPI: 0.794
- worst case efficiency: 0.667
- efficiency to beat: 0.667
- normalized lower bound 1198
- lns time: 3.005000
- lns branches: 216352
- lns fails: 106889
LNS iteration #73 ========================================
- worst case average CPI: 0.794
- worst case efficiency: 0.667
- efficiency to beat: 0.667
- normalized lower bound 1198
--- checking solution
--- solution ok! Maximum rounding error: 0.000016
- solution found, obj var is: 1290
- de-normalized obj var: 0.677400
- time (local/global): 2.185/30.311
- branches (local/global): 132040/2071940
- fails (local/global): 64510/1012541
- lns time: 2.192000
- lns branches: 132040
- lns fails: 64510
LNS iteration #74 ========================================
- worst case average CPI: 0.794
- worst case efficiency: 0.668
- efficiency to beat: 0.668
- normalized lower bound 1209
--- checking solution
--- solution ok! Maximum rounding error: 0.000013
- solution found, obj var is: 1216
- de-normalized obj var: 0.672960
- time (local/global): 0.026/30.344
- branches (local/global): 1913/2073853
- fails (local/global): 921/1013462
- lns time: 0.032000
- lns branches: 1913
- lns fails: 921
LNS iteration #75 ========================================
- worst case average CPI: 0.794
- worst case efficiency: 0.668
- efficiency to beat: 0.668
- normalized lower bound 1216
- lns time: 3.009000
- lns branches: 206849
- lns fails: 101554
LNS iteration #76 ========================================
- worst case average CPI: 0.794
- worst case efficiency: 0.668
- efficiency to beat: 0.668
- normalized lower bound 1216
--- checking solution
--- solution ok! Maximum rounding error: 0.000000
- solution found, obj var is: 1225
- de-normalized obj var: 0.673500
- time (local/global): 2.399/35.758
- branches (local/global): 157421/2438123
- fails (local/global): 76802/1191818
- lns time: 2.406000
- lns branches: 157421
- lns fails: 76802
LNS iteration #77 ========================================
- worst case average CPI: 0.794
- worst case efficiency: 0.668
- efficiency to beat: 0.668
- normalized lower bound 1219
--- checking solution
--- solution ok! Maximum rounding error: 0.000024
- solution found, obj var is: 1233
- de-normalized obj var: 0.673980
- time (local/global): 0.024/35.789
- branches (local/global): 1737/2439860
- fails (local/global): 804/1192622
- lns time: 0.030000
- lns branches: 1737
- lns fails: 804
LNS iteration #78 ========================================
- worst case average CPI: 0.794
- worst case efficiency: 0.668
- efficiency to beat: 0.668
- normalized lower bound 1225
- lns time: 3.006000
- lns branches: 198454
- lns fails: 97363
LNS iteration #79 ========================================
- worst case average CPI: 0.794
- worst case efficiency: 0.668
- efficiency to beat: 0.668
- normalized lower bound 1225
- lns time: 3.006000
- lns branches: 187048
- lns fails: 91577
LNS iteration #80 ========================================
- worst case average CPI: 0.794
- worst case efficiency: 0.668
- efficiency to beat: 0.668
- normalized lower bound 1225
--- checking solution
--- solution ok! Maximum rounding error: 0.000261
- solution found, obj var is: 1239
- de-normalized obj var: 0.674340
- time (local/global): 1.448/43.255
- branches (local/global): 99288/2924650
- fails (local/global): 48509/1430071
- lns time: 1.457000
- lns branches: 99288
- lns fails: 48509
LNS iteration #81 ========================================
- worst case average CPI: 0.794
- worst case efficiency: 0.669
- efficiency to beat: 0.669
- normalized lower bound 1228
--- checking solution
--- solution ok! Maximum rounding error: 0.000037
- solution found, obj var is: 1228
- de-normalized obj var: 0.673680
- time (local/global): 0.030/43.294
- branches (local/global): 2049/2926699
- fails (local/global): 966/1431037
- lns time: 0.036000
- lns branches: 2049
- lns fails: 966
LNS iteration #82 ========================================
- worst case average CPI: 0.794
- worst case efficiency: 0.669
- efficiency to beat: 0.669
- normalized lower bound 1233
--- checking solution
--- solution ok! Maximum rounding error: 0.000215
- solution found, obj var is: 1367
- de-normalized obj var: 0.682020
- time (local/global): 0.006/43.306
- branches (local/global): 460/2927159
- fails (local/global): 203/1431240
- lns time: 0.012000
- lns branches: 460
- lns fails: 203
LNS iteration #83 ========================================
- worst case average CPI: 1.006
- worst case efficiency: 0.669
- efficiency to beat: 0.669
- normalized lower bound 1232
--- checking solution
--- solution ok! Maximum rounding error: 0.000086
- solution found, obj var is: 1314
- de-normalized obj var: 0.678840
- time (local/global): 0.099/43.411
- branches (local/global): 9421/2936580
- fails (local/global): 4501/1435741
- lns time: 0.105000
- lns branches: 9421
- lns fails: 4501
LNS iteration #84 ========================================
- worst case average CPI: 0.804
- worst case efficiency: 0.669
- efficiency to beat: 0.669
- normalized lower bound 1238
--- checking solution
--- solution ok! Maximum rounding error: 0.000049
- solution found, obj var is: 1254
- de-normalized obj var: 0.675240
- time (local/global): 1.833/45.250
- branches (local/global): 119815/3056395
- fails (local/global): 58411/1494152
- lns time: 1.839000
- lns branches: 119815
- lns fails: 58411
LNS iteration #85 ========================================
- worst case average CPI: 0.804
- worst case efficiency: 0.670
- efficiency to beat: 0.670
- normalized lower bound 1253
--- checking solution
--- solution ok! Maximum rounding error: 0.000018
- solution found, obj var is: 1270
- de-normalized obj var: 0.676200
- time (local/global): 0.158/45.414
- branches (local/global): 10577/3066972
- fails (local/global): 5080/1499232
- lns time: 0.164000
- lns branches: 10577
- lns fails: 5080
LNS iteration #86 ========================================
- worst case average CPI: 0.804
- worst case efficiency: 0.670
- efficiency to beat: 0.670
- normalized lower bound 1255
- lns time: 3.009000
- lns branches: 171352
- lns fails: 83717
LNS iteration #87 ========================================
- worst case average CPI: 0.804
- worst case efficiency: 0.670
- efficiency to beat: 0.670
- normalized lower bound 1255
--- checking solution
--- solution ok! Maximum rounding error: 0.000001
- solution found, obj var is: 1255
- de-normalized obj var: 0.675300
- time (local/global): 0.202/48.631
- branches (local/global): 11860/3250184
- fails (local/global): 5687/1588636
- lns time: 0.208000
- lns branches: 11860
- lns fails: 5687
LNS iteration #88 ========================================
- worst case average CPI: 0.804
- worst case efficiency: 0.670
- efficiency to beat: 0.670
- normalized lower bound 1259
--- checking solution
--- solution ok! Maximum rounding error: 0.000019
- solution found, obj var is: 1274
- de-normalized obj var: 0.676440
- time (local/global): 0.027/48.664
- branches (local/global): 2485/3252669
- fails (local/global): 1201/1589837
- lns time: 0.032000
- lns branches: 2485
- lns fails: 1201
LNS iteration #89 ========================================
- worst case average CPI: 0.804
- worst case efficiency: 0.671
- efficiency to beat: 0.671
- normalized lower bound 1260
- lns time: 3.006000
- lns branches: 218952
- lns fails: 107373
LNS iteration #90 ========================================
- worst case average CPI: 0.804
- worst case efficiency: 0.671
- efficiency to beat: 0.671
- normalized lower bound 1260
--- checking solution
--- solution ok! Maximum rounding error: 0.000175
- solution found, obj var is: 1446
- de-normalized obj var: 0.686760
- time (local/global): 0.000/51.675
- branches (local/global): 25/3471646
- fails (local/global): 2/1697212
- lns time: 0.006000
- lns branches: 25
- lns fails: 2
LNS iteration #91 ========================================
- worst case average CPI: 0.804
- worst case efficiency: 0.671
- efficiency to beat: 0.671
- normalized lower bound 1264
--- checking solution
--- solution ok! Maximum rounding error: 0.000041
- solution found, obj var is: 1270
- de-normalized obj var: 0.676200
- time (local/global): 0.031/51.712
- branches (local/global): 1935/3473581
- fails (local/global): 910/1698122
- lns time: 0.037000
- lns branches: 1935
- lns fails: 910
LNS iteration #92 ========================================
- worst case average CPI: 0.804
- worst case efficiency: 0.671
- efficiency to beat: 0.671
- normalized lower bound 1274
- lns time: 3.006000
- lns branches: 181608
- lns fails: 89051
LNS iteration #93 ========================================
- worst case average CPI: 0.804
- worst case efficiency: 0.671
- efficiency to beat: 0.671
- normalized lower bound 1274
- lns time: 3.007000
- lns branches: 207815
- lns fails: 102018
LNS iteration #94 ========================================
- worst case average CPI: 0.804
- worst case efficiency: 0.671
- efficiency to beat: 0.671
- normalized lower bound 1274
- lns time: 3.006000
- lns branches: 193141
- lns fails: 94609
LNS iteration #95 ========================================
- worst case average CPI: 0.804
- worst case efficiency: 0.671
- efficiency to beat: 0.671
- normalized lower bound 1274
- lns time: 3.006000
- lns branches: 195793
- lns fails: 96082
LNS iteration #96 ========================================
- worst case average CPI: 0.804
- worst case efficiency: 0.671
- efficiency to beat: 0.671
- normalized lower bound 1274
--- checking solution
--- solution ok! Maximum rounding error: 0.000014
- solution found, obj var is: 1490
- de-normalized obj var: 0.689400
- time (local/global): 0.006/63.749
- branches (local/global): 461/4252399
- fails (local/global): 201/2080083
- lns time: 0.012000
- lns branches: 461
- lns fails: 201
LNS iteration #97 ========================================
- worst case average CPI: 0.804
- worst case efficiency: 0.673
- efficiency to beat: 0.673
- normalized lower bound 1308
- lns time: 3.006000
- lns branches: 195945
- lns fails: 96041
LNS iteration #98 ========================================
- worst case average CPI: 0.804
- worst case efficiency: 0.673
- efficiency to beat: 0.673
- normalized lower bound 1308
--- checking solution
--- solution ok! Maximum rounding error: 0.000013
- solution found, obj var is: 1352
- de-normalized obj var: 0.681120
- time (local/global): 0.912/67.673
- branches (local/global): 62957/4511301
- fails (local/global): 30604/2206728
- lns time: 0.918000
- lns branches: 62957
- lns fails: 30604
LNS iteration #99 ========================================
- worst case average CPI: 0.880
- worst case efficiency: 0.674
- efficiency to beat: 0.674
- normalized lower bound 1323
- lns time: 3.006000
- lns branches: 226722
- lns fails: 111163
LNS iteration #100 ========================================
- worst case average CPI: 0.880
- worst case efficiency: 0.674
- efficiency to beat: 0.674
- normalized lower bound 1323
--- checking solution
--- solution ok! Maximum rounding error: 0.000131
- solution found, obj var is: 1329
- de-normalized obj var: 0.679740
- time (local/global): 0.363/71.048
- branches (local/global): 22817/4760840
- fails (local/global): 11055/2328946
- lns time: 0.369000
- lns branches: 22817
- lns fails: 11055
LNS iteration #101 ========================================
- worst case average CPI: 0.880
- worst case efficiency: 0.675
- efficiency to beat: 0.675
- normalized lower bound 1338
- lns time: 3.008000
- lns branches: 196604
- lns fails: 96292
LNS iteration #102 ========================================
- worst case average CPI: 0.880
- worst case efficiency: 0.675
- efficiency to beat: 0.675
- normalized lower bound 1338
--- checking solution
--- solution ok! Maximum rounding error: 0.000129
- solution found, obj var is: 1360
- de-normalized obj var: 0.681600
- time (local/global): 2.296/76.358
- branches (local/global): 167040/5124484
- fails (local/global): 81638/2506876
- lns time: 2.302000
- lns branches: 167040
- lns fails: 81638
LNS iteration #103 ========================================
- worst case average CPI: 0.880
- worst case efficiency: 0.675
- efficiency to beat: 0.675
- normalized lower bound 1338
--- checking solution
--- solution ok! Maximum rounding error: 0.000038
- solution found, obj var is: 1514
- de-normalized obj var: 0.690840
- time (local/global): 0.263/76.627
- branches (local/global): 16712/5141196
- fails (local/global): 8105/2514981
- lns time: 0.273000
- lns branches: 16712
- lns fails: 8105
LNS iteration #104 ========================================
- worst case average CPI: 0.934
- worst case efficiency: 0.676
- efficiency to beat: 0.676
- normalized lower bound 1346
--- checking solution
--- solution ok! Maximum rounding error: 0.000003
- solution found, obj var is: 1517
- de-normalized obj var: 0.691020
- time (local/global): 2.309/78.946
- branches (local/global): 150006/5291202
- fails (local/global): 73205/2588186
- lns time: 2.315000
- lns branches: 150006
- lns fails: 73205
LNS iteration #105 ========================================
- worst case average CPI: 0.619
- worst case efficiency: 0.676
- efficiency to beat: 0.676
- normalized lower bound 1353
--- checking solution
--- solution ok! Maximum rounding error: 0.000000
- solution found, obj var is: 1444
- de-normalized obj var: 0.686640
- time (local/global): 0.144/79.096
- branches (local/global): 9686/5300888
- fails (local/global): 4643/2592829
- lns time: 0.150000
- lns branches: 9686
- lns fails: 4643
LNS iteration #106 ========================================
- worst case average CPI: 0.619
- worst case efficiency: 0.676
- efficiency to beat: 0.676
- normalized lower bound 1355
--- checking solution
--- solution ok! Maximum rounding error: 0.000208
- solution found, obj var is: 1359
- de-normalized obj var: 0.681540
- time (local/global): 0.042/79.144
- branches (local/global): 2602/5303490
- fails (local/global): 1240/2594069
- lns time: 0.048000
- lns branches: 2602
- lns fails: 1240
LNS iteration #107 ========================================
- worst case average CPI: 0.619
- worst case efficiency: 0.677
- efficiency to beat: 0.677
- normalized lower bound 1364
- lns time: 3.007000
- lns branches: 209305
- lns fails: 102831
LNS iteration #108 ========================================
- worst case average CPI: 0.619
- worst case efficiency: 0.677
- efficiency to beat: 0.677
- normalized lower bound 1364
- lns time: 3.006000
- lns branches: 235578
- lns fails: 115358
LNS iteration #109 ========================================
- worst case average CPI: 0.619
- worst case efficiency: 0.677
- efficiency to beat: 0.677
- normalized lower bound 1364
--- checking solution
--- solution ok! Maximum rounding error: 0.000078
- solution found, obj var is: 1506
- de-normalized obj var: 0.690360
- time (local/global): 0.096/85.259
- branches (local/global): 6678/5755051
- fails (local/global): 3213/2815471
- lns time: 0.102000
- lns branches: 6678
- lns fails: 3213
LNS iteration #110 ========================================
- worst case average CPI: 0.619
- worst case efficiency: 0.677
- efficiency to beat: 0.677
- normalized lower bound 1365
- lns time: 3.006000
- lns branches: 187185
- lns fails: 91768
LNS iteration #111 ========================================
- worst case average CPI: 0.619
- worst case efficiency: 0.677
- efficiency to beat: 0.677
- normalized lower bound 1365
--- checking solution
--- solution ok! Maximum rounding error: 0.000086
- solution found, obj var is: 1445
- de-normalized obj var: 0.686700
- time (local/global): 0.006/88.277
- branches (local/global): 459/5942695
- fails (local/global): 204/2907443
- lns time: 0.013000
- lns branches: 459
- lns fails: 204
LNS iteration #112 ========================================
- worst case average CPI: 0.619
- worst case efficiency: 0.678
- efficiency to beat: 0.678
- normalized lower bound 1383
- lns time: 1.722000
- lns branches: 122211
- lns fails: 59685

LNS optimization is over========================================
initial worst case average CPI: 1.916
final worst case average CPI: 0.619
initial worst case efficiency: 0.617
final worst case efficiency: 0.678
number of iterations: 113
total time: 90006.000000
total branches: 6064906
total fails: 2967128

Final Solution: 0->7, 1->33, 2->22, 3->43, 4->14, 5->10, 6->0, 7->44, 8->18, 9->20, 10->43, 11->40, 12->7, 13->44, 14->43, 15->2, 16->10, 17->6, 18->10, 19->9, 20->7, 21->27, 22->7, 23->26, 24->10, 25->38, 26->47, 27->41, 28->21, 29->9, 30->45, 31->11, 32->23, 33->12, 34->25, 35->37, 36->40, 37->12, 38->39, 39->18, 40->44, 41->30, 42->19, 43->22, 44->5, 45->42, 46->8, 47->26, 48->34, 49->3, 50->30, 51->36, 52->11, 53->41, 54->45, 55->22, 56->28, 57->3, 58->23, 59->0, 60->23, 61->29, 62->12, 63->26, 64->9, 65->18, 66->44, 67->11, 68->28, 69->44, 70->6, 71->2, 72->4, 73->13, 74->14, 75->36, 76->11, 77->1, 78->11, 79->37, 80->5, 81->31, 82->27, 83->22, 84->20, 85->5, 86->29, 87->28, 88->31, 89->13, 90->10, 91->20, 92->5, 93->45, 94->47, 95->36, 96->35, 97->10, 98->26, 99->4, 100->31, 101->1, 102->27, 103->29, 104->2, 105->0, 106->18, 107->29, 108->5, 109->34, 110->19, 111->24, 112->31, 113->14, 114->20, 115->4, 116->25, 117->29, 118->30, 119->23, 120->23, 121->8, 122->45, 123->42, 124->19, 125->34, 126->46, 127->8, 128->22, 129->36, 130->12, 131->46, 132->19, 133->4, 134->38, 135->28, 136->8, 137->26, 138->33, 139->42, 140->12, 141->23, 142->17, 143->25, 144->22, 145->12, 146->26, 147->32, 148->11, 149->1, 150->15, 151->25, 152->39, 153->5, 154->18, 155->3, 156->25, 157->17, 158->4, 159->7, 160->15, 161->24, 162->9, 163->13, 164->1, 165->9, 166->47, 167->27, 168->14, 169->6, 170->17, 171->46, 172->38, 173->42, 174->44, 175->35, 176->28, 177->35, 178->6, 179->13, 180->42, 181->35, 182->1, 183->24, 184->37, 185->40, 186->16, 187->39, 188->37, 189->2, 190->43, 191->17, 192->20, 193->0, 194->4, 195->8, 196->24, 197->39, 198->18, 199->17, 200->35, 201->7, 202->17, 203->38, 204->19, 205->13, 206->46, 207->3, 208->37, 209->15, 210->41, 211->38, 212->24, 213->32, 214->16, 215->2, 216->16, 217->19, 218->45, 219->14, 220->3, 221->38, 222->37, 223->43, 224->1, 225->24, 226->21, 227->0, 228->31, 229->30, 230->40, 231->21, 232->21, 233->34, 234->35, 235->13, 236->29, 237->21, 238->40, 239->41, 240->21, 241->27, 242->2, 243->16, 244->33, 245->3, 246->33, 247->30, 248->40, 249->36, 250->34, 251->42, 252->6, 253->33, 254->0, 255->31, 256->8, 257->47, 258->39, 259->33, 260->32, 261->15, 262->16, 263->16, 264->32, 265->46, 266->32, 267->6, 268->32, 269->27, 270->20, 271->41, 272->25, 273->43, 274->34, 275->41, 276->30, 277->45, 278->28, 279->15, 280->9, 281->47, 282->15, 283->36, 284->47, 285->39, 286->14, 287->46

Average CPI map:
	2.45,	1.43,	1.73,	1.05,	1.22,	1.49
	1.57,	1.93,	2.14,	2.24,	2.63,	1.03
	0.96,	2.30,	2.69,	2.49,	2.23,	1.62
	1.05,	2.29,	3.17,	2.48,	2.40,	1.66
	0.62,	2.65,	2.97,	2.18,	2.77,	1.46
	1.39,	2.65,	2.37,	2.52,	2.27,	1.68
	1.37,	2.14,	2.07,	2.38,	2.94,	2.23
	1.20,	1.80,	2.47,	2.45,	1.98,	1.17

Efficiency map:
	0.997,	0.865,	0.908,	0.773,	0.908,	1.003
	0.709,	0.679,	0.694,	0.691,	0.680,	0.839
	0.818,	0.682,	0.690,	0.690,	0.686,	0.775
	0.813,	0.687,	0.682,	0.697,	0.691,	0.853
	0.813,	0.680,	0.700,	0.693,	0.681,	0.806
	0.779,	0.682,	0.689,	0.704,	0.687,	0.820
	0.808,	0.680,	0.680,	0.679,	0.687,	0.821
	0.810,	0.678,	0.682,	0.734,	0.695,	0.789
