==============================================================================
LNS optimizer for EML demonstration
==============================================================================

Option values: --wld-idx 10 --prec 10000 --step 0 --global-tlim 90 --global-iter 1000 --local-tlim 3 --local-nsol 1 --restart-base 100 --restart-strat luby --seed 801

Starting the Optimization Process
reserved_tasks None
Finding a first solution
LNS iteration #0 ========================================
- worst case average CPI: 2.169
- worst case efficiency: 0.635
- efficiency to beat: 0.635
- normalized lower bound 669
--- checking solution
--- solution ok! Maximum rounding error: 0.000000
- solution found, obj var is: 790
- de-normalized obj var: 0.647400
- time (local/global): 0.001/0.001
- branches (local/global): 19/19
- fails (local/global): 0/0
- lns time: 0.007000
- lns branches: 19
- lns fails: 0
LNS iteration #1 ========================================
- worst case average CPI: 2.169
- worst case efficiency: 0.639
- efficiency to beat: 0.639
- normalized lower bound 726
--- checking solution
--- solution ok! Maximum rounding error: 0.000024
- solution found, obj var is: 920
- de-normalized obj var: 0.655200
- time (local/global): 0.001/0.008
- branches (local/global): 27/46
- fails (local/global): 2/2
- lns time: 0.006000
- lns branches: 27
- lns fails: 2
LNS iteration #2 ========================================
- worst case average CPI: 1.670
- worst case efficiency: 0.647
- efficiency to beat: 0.647
- normalized lower bound 873
--- checking solution
--- solution ok! Maximum rounding error: 0.000090
- solution found, obj var is: 907
- de-normalized obj var: 0.654420
- time (local/global): 0.016/0.029
- branches (local/global): 1137/1183
- fails (local/global): 525/527
- lns time: 0.021000
- lns branches: 1137
- lns fails: 525
LNS iteration #3 ========================================
- worst case average CPI: 1.252
- worst case efficiency: 0.649
- efficiency to beat: 0.649
- normalized lower bound 896
--- checking solution
--- solution ok! Maximum rounding error: 0.000000
- solution found, obj var is: 1775
- de-normalized obj var: 0.706500
- time (local/global): 0.003/0.037
- branches (local/global): 240/1423
- fails (local/global): 101/628
- lns time: 0.009000
- lns branches: 240
- lns fails: 101
LNS iteration #4 ========================================
- worst case average CPI: 1.252
- worst case efficiency: 0.649
- efficiency to beat: 0.649
- normalized lower bound 908
--- checking solution
--- solution ok! Maximum rounding error: 0.000013
- solution found, obj var is: 3269
- de-normalized obj var: 0.796140
- time (local/global): 0.001/0.044
- branches (local/global): 22/1445
- fails (local/global): 0/628
- lns time: 0.006000
- lns branches: 22
- lns fails: 0
LNS iteration #5 ========================================
- worst case average CPI: 1.727
- worst case efficiency: 0.653
- efficiency to beat: 0.653
- normalized lower bound 972
--- checking solution
--- solution ok! Maximum rounding error: 0.000073
- solution found, obj var is: 1037
- de-normalized obj var: 0.662220
- time (local/global): 0.003/0.052
- branches (local/global): 308/1753
- fails (local/global): 143/771
- lns time: 0.008000
- lns branches: 308
- lns fails: 143
LNS iteration #6 ========================================
- worst case average CPI: 1.727
- worst case efficiency: 0.655
- efficiency to beat: 0.655
- normalized lower bound 994
--- checking solution
--- solution ok! Maximum rounding error: 0.000013
- solution found, obj var is: 1354
- de-normalized obj var: 0.681240
- time (local/global): 0.001/0.058
- branches (local/global): 25/1778
- fails (local/global): 2/773
- lns time: 0.006000
- lns branches: 25
- lns fails: 2
LNS iteration #7 ========================================
- worst case average CPI: 1.727
- worst case efficiency: 0.656
- efficiency to beat: 0.656
- normalized lower bound 1009
--- checking solution
--- solution ok! Maximum rounding error: 0.000011
- solution found, obj var is: 1651
- de-normalized obj var: 0.699060
- time (local/global): 0.001/0.064
- branches (local/global): 22/1800
- fails (local/global): 0/773
- lns time: 0.006000
- lns branches: 22
- lns fails: 0
LNS iteration #8 ========================================
- worst case average CPI: 1.727
- worst case efficiency: 0.658
- efficiency to beat: 0.658
- normalized lower bound 1051
--- checking solution
--- solution ok! Maximum rounding error: 0.000090
- solution found, obj var is: 1053
- de-normalized obj var: 0.663180
- time (local/global): 0.005/0.074
- branches (local/global): 288/2088
- fails (local/global): 126/899
- lns time: 0.010000
- lns branches: 288
- lns fails: 126
LNS iteration #9 ========================================
- worst case average CPI: 1.727
- worst case efficiency: 0.662
- efficiency to beat: 0.662
- normalized lower bound 1116
--- checking solution
--- solution ok! Maximum rounding error: 0.000062
- solution found, obj var is: 1478
- de-normalized obj var: 0.688680
- time (local/global): 0.001/0.080
- branches (local/global): 24/2112
- fails (local/global): 1/900
- lns time: 0.006000
- lns branches: 24
- lns fails: 1
LNS iteration #10 ========================================
- worst case average CPI: 1.727
- worst case efficiency: 0.664
- efficiency to beat: 0.664
- normalized lower bound 1159
--- checking solution
--- solution ok! Maximum rounding error: 0.000023
- solution found, obj var is: 1277
- de-normalized obj var: 0.676620
- time (local/global): 0.014/0.099
- branches (local/global): 908/3020
- fails (local/global): 420/1320
- lns time: 0.019000
- lns branches: 908
- lns fails: 420
LNS iteration #11 ========================================
- worst case average CPI: 1.769
- worst case efficiency: 0.665
- efficiency to beat: 0.665
- normalized lower bound 1160
--- checking solution
--- solution ok! Maximum rounding error: 0.000039
- solution found, obj var is: 1337
- de-normalized obj var: 0.680220
- time (local/global): 0.002/0.106
- branches (local/global): 83/3103
- fails (local/global): 31/1351
- lns time: 0.007000
- lns branches: 83
- lns fails: 31
LNS iteration #12 ========================================
- worst case average CPI: 1.769
- worst case efficiency: 0.668
- efficiency to beat: 0.668
- normalized lower bound 1218
--- checking solution
--- solution ok! Maximum rounding error: 0.000104
- solution found, obj var is: 1732
- de-normalized obj var: 0.703920
- time (local/global): 0.001/0.112
- branches (local/global): 20/3123
- fails (local/global): 0/1351
- lns time: 0.006000
- lns branches: 20
- lns fails: 0
LNS iteration #13 ========================================
- worst case average CPI: 1.551
- worst case efficiency: 0.669
- efficiency to beat: 0.669
- normalized lower bound 1232
--- checking solution
--- solution ok! Maximum rounding error: 0.000080
- solution found, obj var is: 1318
- de-normalized obj var: 0.679080
- time (local/global): 0.001/0.118
- branches (local/global): 24/3147
- fails (local/global): 1/1352
- lns time: 0.006000
- lns branches: 24
- lns fails: 1
LNS iteration #14 ========================================
- worst case average CPI: 1.551
- worst case efficiency: 0.670
- efficiency to beat: 0.670
- normalized lower bound 1245
--- checking solution
--- solution ok! Maximum rounding error: 0.000079
- solution found, obj var is: 1278
- de-normalized obj var: 0.676680
- time (local/global): 0.001/0.124
- branches (local/global): 20/3167
- fails (local/global): 0/1352
- lns time: 0.013000
- lns branches: 20
- lns fails: 0
LNS iteration #15 ========================================
- worst case average CPI: 1.551
- worst case efficiency: 0.671
- efficiency to beat: 0.671
- normalized lower bound 1268
--- checking solution
--- solution ok! Maximum rounding error: 0.000049
- solution found, obj var is: 1300
- de-normalized obj var: 0.678000
- time (local/global): 0.008/0.144
- branches (local/global): 489/3656
- fails (local/global): 216/1568
- lns time: 0.013000
- lns branches: 489
- lns fails: 216
LNS iteration #16 ========================================
- worst case average CPI: 1.551
- worst case efficiency: 0.676
- efficiency to beat: 0.676
- normalized lower bound 1359
--- checking solution
--- solution ok! Maximum rounding error: 0.000090
- solution found, obj var is: 1480
- de-normalized obj var: 0.688800
- time (local/global): 0.001/0.150
- branches (local/global): 22/3678
- fails (local/global): 0/1568
- lns time: 0.006000
- lns branches: 22
- lns fails: 0
LNS iteration #17 ========================================
- worst case average CPI: 1.551
- worst case efficiency: 0.677
- efficiency to beat: 0.677
- normalized lower bound 1366
--- checking solution
--- solution ok! Maximum rounding error: 0.000039
- solution found, obj var is: 1470
- de-normalized obj var: 0.688200
- time (local/global): 0.003/0.158
- branches (local/global): 185/3863
- fails (local/global): 83/1651
- lns time: 0.009000
- lns branches: 185
- lns fails: 83
LNS iteration #18 ========================================
- worst case average CPI: 1.551
- worst case efficiency: 0.679
- efficiency to beat: 0.679
- normalized lower bound 1395
--- checking solution
--- solution ok! Maximum rounding error: 0.000048
- solution found, obj var is: 1407
- de-normalized obj var: 0.684420
- time (local/global): 0.004/0.168
- branches (local/global): 238/4101
- fails (local/global): 100/1751
- lns time: 0.009000
- lns branches: 238
- lns fails: 100
LNS iteration #19 ========================================
- worst case average CPI: 1.363
- worst case efficiency: 0.679
- efficiency to beat: 0.679
- normalized lower bound 1404
--- checking solution
--- solution ok! Maximum rounding error: 0.000030
- solution found, obj var is: 2396
- de-normalized obj var: 0.743760
- time (local/global): 0.001/0.174
- branches (local/global): 55/4156
- fails (local/global): 17/1768
- lns time: 0.007000
- lns branches: 55
- lns fails: 17
LNS iteration #20 ========================================
- worst case average CPI: 1.363
- worst case efficiency: 0.680
- efficiency to beat: 0.680
- normalized lower bound 1419
--- checking solution
--- solution ok! Maximum rounding error: 0.000028
- solution found, obj var is: 1537
- de-normalized obj var: 0.692220
- time (local/global): 0.001/0.181
- branches (local/global): 25/4181
- fails (local/global): 2/1770
- lns time: 0.006000
- lns branches: 25
- lns fails: 2
LNS iteration #21 ========================================
- worst case average CPI: 1.363
- worst case efficiency: 0.678
- efficiency to beat: 0.678
- normalized lower bound 1383
--- checking solution
--- solution ok! Maximum rounding error: 0.000080
- solution found, obj var is: 1464
- de-normalized obj var: 0.687840
- time (local/global): 0.001/0.187
- branches (local/global): 22/4203
- fails (local/global): 0/1770
- lns time: 0.006000
- lns branches: 22
- lns fails: 0
LNS iteration #22 ========================================
- worst case average CPI: 1.363
- worst case efficiency: 0.680
- efficiency to beat: 0.680
- normalized lower bound 1424
--- checking solution
--- solution ok! Maximum rounding error: 0.000139
- solution found, obj var is: 1603
- de-normalized obj var: 0.696180
- time (local/global): 0.017/0.209
- branches (local/global): 937/5140
- fails (local/global): 434/2204
- lns time: 0.022000
- lns branches: 937
- lns fails: 434
LNS iteration #23 ========================================
- worst case average CPI: 1.363
- worst case efficiency: 0.689
- efficiency to beat: 0.689
- normalized lower bound 1568
--- checking solution
--- solution ok! Maximum rounding error: 0.000021
- solution found, obj var is: 1570
- de-normalized obj var: 0.694200
- time (local/global): 0.001/0.215
- branches (local/global): 23/5163
- fails (local/global): 1/2205
- lns time: 0.006000
- lns branches: 23
- lns fails: 1
LNS iteration #24 ========================================
- worst case average CPI: 1.322
- worst case efficiency: 0.689
- efficiency to beat: 0.689
- normalized lower bound 1574
--- checking solution
--- solution ok! Maximum rounding error: 0.000052
- solution found, obj var is: 1832
- de-normalized obj var: 0.709920
- time (local/global): 0.003/0.223
- branches (local/global): 168/5331
- fails (local/global): 73/2278
- lns time: 0.008000
- lns branches: 168
- lns fails: 73
LNS iteration #25 ========================================
- worst case average CPI: 1.322
- worst case efficiency: 0.690
- efficiency to beat: 0.690
- normalized lower bound 1587
--- checking solution
--- solution ok! Maximum rounding error: 0.000287
- solution found, obj var is: 2488
- de-normalized obj var: 0.749280
- time (local/global): 0.017/0.245
- branches (local/global): 873/6204
- fails (local/global): 400/2678
- lns time: 0.022000
- lns branches: 873
- lns fails: 400
LNS iteration #26 ========================================
- worst case average CPI: 1.272
- worst case efficiency: 0.691
- efficiency to beat: 0.691
- normalized lower bound 1607
--- checking solution
--- solution ok! Maximum rounding error: 0.000085
- solution found, obj var is: 1613
- de-normalized obj var: 0.696780
- time (local/global): 0.042/0.292
- branches (local/global): 2749/8953
- fails (local/global): 1300/3978
- lns time: 0.047000
- lns branches: 2749
- lns fails: 1300
LNS iteration #27 ========================================
- worst case average CPI: 1.272
- worst case efficiency: 0.693
- efficiency to beat: 0.693
- normalized lower bound 1632
--- checking solution
--- solution ok! Maximum rounding error: 0.000049
- solution found, obj var is: 1683
- de-normalized obj var: 0.700980
- time (local/global): 0.002/0.299
- branches (local/global): 75/9028
- fails (local/global): 27/4005
- lns time: 0.007000
- lns branches: 75
- lns fails: 27
LNS iteration #28 ========================================
- worst case average CPI: 1.272
- worst case efficiency: 0.693
- efficiency to beat: 0.693
- normalized lower bound 1641
--- checking solution
--- solution ok! Maximum rounding error: 0.000056
- solution found, obj var is: 1645
- de-normalized obj var: 0.698700
- time (local/global): 0.096/0.400
- branches (local/global): 6888/15916
- fails (local/global): 3318/7323
- lns time: 0.101000
- lns branches: 6888
- lns fails: 3318
LNS iteration #29 ========================================
- worst case average CPI: 1.272
- worst case efficiency: 0.695
- efficiency to beat: 0.695
- normalized lower bound 1675
--- checking solution
--- solution ok! Maximum rounding error: 0.000065
- solution found, obj var is: 1863
- de-normalized obj var: 0.711780
- time (local/global): 0.002/0.407
- branches (local/global): 227/16143
- fails (local/global): 102/7425
- lns time: 0.007000
- lns branches: 227
- lns fails: 102
LNS iteration #30 ========================================
- worst case average CPI: 1.272
- worst case efficiency: 0.696
- efficiency to beat: 0.696
- normalized lower bound 1678
--- checking solution
--- solution ok! Maximum rounding error: 0.000122
- solution found, obj var is: 1694
- de-normalized obj var: 0.701640
- time (local/global): 0.006/0.418
- branches (local/global): 263/16406
- fails (local/global): 113/7538
- lns time: 0.011000
- lns branches: 263
- lns fails: 113
LNS iteration #31 ========================================
- worst case average CPI: 1.272
- worst case efficiency: 0.697
- efficiency to beat: 0.697
- normalized lower bound 1693
--- checking solution
--- solution ok! Maximum rounding error: 0.000001
- solution found, obj var is: 2174
- de-normalized obj var: 0.730440
- time (local/global): 0.004/0.427
- branches (local/global): 204/16610
- fails (local/global): 92/7630
- lns time: 0.009000
- lns branches: 204
- lns fails: 92
LNS iteration #32 ========================================
- worst case average CPI: 1.156
- worst case efficiency: 0.699
- efficiency to beat: 0.699
- normalized lower bound 1731
--- checking solution
--- solution ok! Maximum rounding error: 0.000000
- solution found, obj var is: 1971
- de-normalized obj var: 0.718260
- time (local/global): 0.011/0.443
- branches (local/global): 868/17478
- fails (local/global): 400/8030
- lns time: 0.016000
- lns branches: 868
- lns fails: 400
LNS iteration #33 ========================================
- worst case average CPI: 1.272
- worst case efficiency: 0.700
- efficiency to beat: 0.700
- normalized lower bound 1752
--- checking solution
--- solution ok! Maximum rounding error: 0.000080
- solution found, obj var is: 2524
- de-normalized obj var: 0.751440
- time (local/global): 0.001/0.449
- branches (local/global): 22/17500
- fails (local/global): 0/8030
- lns time: 0.006000
- lns branches: 22
- lns fails: 0
LNS iteration #34 ========================================
- worst case average CPI: 1.272
- worst case efficiency: 0.702
- efficiency to beat: 0.702
- normalized lower bound 1778
--- checking solution
--- solution ok! Maximum rounding error: 0.000046
- solution found, obj var is: 1803
- de-normalized obj var: 0.708180
- time (local/global): 0.015/0.469
- branches (local/global): 872/18372
- fails (local/global): 403/8433
- lns time: 0.020000
- lns branches: 872
- lns fails: 403
LNS iteration #35 ========================================
- worst case average CPI: 1.272
- worst case efficiency: 0.708
- efficiency to beat: 0.708
- normalized lower bound 1887
--- checking solution
--- solution ok! Maximum rounding error: 0.000154
- solution found, obj var is: 1967
- de-normalized obj var: 0.718020
- time (local/global): 0.024/0.498
- branches (local/global): 1724/20096
- fails (local/global): 801/9234
- lns time: 0.030000
- lns branches: 1724
- lns fails: 801
LNS iteration #36 ========================================
- worst case average CPI: 1.272
- worst case efficiency: 0.709
- efficiency to beat: 0.709
- normalized lower bound 1906
--- checking solution
--- solution ok! Maximum rounding error: 0.000051
- solution found, obj var is: 2345
- de-normalized obj var: 0.740700
- time (local/global): 0.000/0.504
- branches (local/global): 16/20112
- fails (local/global): 0/9234
- lns time: 0.005000
- lns branches: 16
- lns fails: 0
LNS iteration #37 ========================================
- worst case average CPI: 1.272
- worst case efficiency: 0.709
- efficiency to beat: 0.709
- normalized lower bound 1908
--- checking solution
--- solution ok! Maximum rounding error: 0.000104
- solution found, obj var is: 1926
- de-normalized obj var: 0.715560
- time (local/global): 0.005/0.514
- branches (local/global): 234/20346
- fails (local/global): 100/9334
- lns time: 0.010000
- lns branches: 234
- lns fails: 100
LNS iteration #38 ========================================
- worst case average CPI: 1.272
- worst case efficiency: 0.710
- efficiency to beat: 0.710
- normalized lower bound 1923
--- checking solution
--- solution ok! Maximum rounding error: 0.000094
- solution found, obj var is: 2052
- de-normalized obj var: 0.723120
- time (local/global): 0.267/0.786
- branches (local/global): 16498/36844
- fails (local/global): 8007/17341
- lns time: 0.272000
- lns branches: 16498
- lns fails: 8007
LNS iteration #39 ========================================
- worst case average CPI: 1.272
- worst case efficiency: 0.711
- efficiency to beat: 0.711
- normalized lower bound 1936
--- checking solution
--- solution ok! Maximum rounding error: 0.000084
- solution found, obj var is: 2823
- de-normalized obj var: 0.769380
- time (local/global): 0.002/0.793
- branches (local/global): 57/36901
- fails (local/global): 17/17358
- lns time: 0.007000
- lns branches: 57
- lns fails: 17
LNS iteration #40 ========================================
- worst case average CPI: 1.272
- worst case efficiency: 0.712
- efficiency to beat: 0.712
- normalized lower bound 1953
--- checking solution
--- solution ok! Maximum rounding error: 0.000071
- solution found, obj var is: 2090
- de-normalized obj var: 0.725400
- time (local/global): 0.023/0.821
- branches (local/global): 1428/38329
- fails (local/global): 666/18024
- lns time: 0.028000
- lns branches: 1428
- lns fails: 666
LNS iteration #41 ========================================
- worst case average CPI: 1.030
- worst case efficiency: 0.720
- efficiency to beat: 0.720
- normalized lower bound 2089
--- checking solution
--- solution ok! Maximum rounding error: 0.000163
- solution found, obj var is: 2131
- de-normalized obj var: 0.727860
- time (local/global): 0.067/0.893
- branches (local/global): 2735/41064
- fails (local/global): 1301/19325
- lns time: 0.072000
- lns branches: 2735
- lns fails: 1301
LNS iteration #42 ========================================
- worst case average CPI: 1.030
- worst case efficiency: 0.722
- efficiency to beat: 0.722
- normalized lower bound 2121
--- checking solution
--- solution ok! Maximum rounding error: 0.000060
- solution found, obj var is: 2265
- de-normalized obj var: 0.735900
- time (local/global): 0.000/0.898
- branches (local/global): 21/41085
- fails (local/global): 2/19327
- lns time: 0.007000
- lns branches: 21
- lns fails: 2
LNS iteration #43 ========================================
- worst case average CPI: 1.030
- worst case efficiency: 0.722
- efficiency to beat: 0.722
- normalized lower bound 2119
--- checking solution
--- solution ok! Maximum rounding error: 0.000150
- solution found, obj var is: 2290
- de-normalized obj var: 0.737400
- time (local/global): 0.003/0.908
- branches (local/global): 105/41190
- fails (local/global): 43/19370
- lns time: 0.013000
- lns branches: 105
- lns fails: 43
LNS iteration #44 ========================================
- worst case average CPI: 0.874
- worst case efficiency: 0.722
- efficiency to beat: 0.722
- normalized lower bound 2118
--- checking solution
--- solution ok! Maximum rounding error: 0.000042
- solution found, obj var is: 2139
- de-normalized obj var: 0.728340
- time (local/global): 0.197/1.115
- branches (local/global): 13421/54611
- fails (local/global): 6481/25851
- lns time: 0.203000
- lns branches: 13421
- lns fails: 6481
LNS iteration #45 ========================================
- worst case average CPI: 0.874
- worst case efficiency: 0.723
- efficiency to beat: 0.723
- normalized lower bound 2131
--- checking solution
--- solution ok! Maximum rounding error: 0.000035
- solution found, obj var is: 2233
- de-normalized obj var: 0.733980
- time (local/global): 0.001/1.122
- branches (local/global): 26/54637
- fails (local/global): 3/25854
- lns time: 0.009000
- lns branches: 26
- lns fails: 3
LNS iteration #46 ========================================
- worst case average CPI: 0.616
- worst case efficiency: 0.728
- efficiency to beat: 0.728
- normalized lower bound 2214
--- checking solution
--- solution ok! Maximum rounding error: 0.000054
- solution found, obj var is: 2238
- de-normalized obj var: 0.734280
- time (local/global): 0.007/1.137
- branches (local/global): 454/55091
- fails (local/global): 202/26056
- lns time: 0.012000
- lns branches: 454
- lns fails: 202
LNS iteration #47 ========================================
- worst case average CPI: 0.616
- worst case efficiency: 0.727
- efficiency to beat: 0.727
- normalized lower bound 2196
--- checking solution
--- solution ok! Maximum rounding error: 0.000022
- solution found, obj var is: 2292
- de-normalized obj var: 0.737520
- time (local/global): 0.345/1.487
- branches (local/global): 24150/79241
- fails (local/global): 11702/37758
- lns time: 0.351000
- lns branches: 24150
- lns fails: 11702
LNS iteration #48 ========================================
- worst case average CPI: 0.616
- worst case efficiency: 0.728
- efficiency to beat: 0.728
- normalized lower bound 2216
--- checking solution
--- solution ok! Maximum rounding error: 0.000081
- solution found, obj var is: 2335
- de-normalized obj var: 0.740100
- time (local/global): 0.007/1.500
- branches (local/global): 453/79694
- fails (local/global): 200/37958
- lns time: 0.012000
- lns branches: 453
- lns fails: 200
LNS iteration #49 ========================================
- worst case average CPI: 0.616
- worst case efficiency: 0.729
- efficiency to beat: 0.729
- normalized lower bound 2239
--- checking solution
--- solution ok! Maximum rounding error: 0.000087
- solution found, obj var is: 2287
- de-normalized obj var: 0.737220
- time (local/global): 0.024/1.529
- branches (local/global): 1537/81231
- fails (local/global): 719/38677
- lns time: 0.030000
- lns branches: 1537
- lns fails: 719
LNS iteration #50 ========================================
- worst case average CPI: 0.616
- worst case efficiency: 0.730
- efficiency to beat: 0.730
- normalized lower bound 2254
--- checking solution
--- solution ok! Maximum rounding error: 0.000110
- solution found, obj var is: 2669
- de-normalized obj var: 0.760140
- time (local/global): 0.001/1.536
- branches (local/global): 22/81253
- fails (local/global): 0/38677
- lns time: 0.006000
- lns branches: 22
- lns fails: 0
LNS iteration #51 ========================================
- worst case average CPI: 0.616
- worst case efficiency: 0.732
- efficiency to beat: 0.732
- normalized lower bound 2279
--- checking solution
--- solution ok! Maximum rounding error: 0.000035
- solution found, obj var is: 2514
- de-normalized obj var: 0.750840
- time (local/global): 0.004/1.545
- branches (local/global): 234/81487
- fails (local/global): 100/38777
- lns time: 0.009000
- lns branches: 234
- lns fails: 100
LNS iteration #52 ========================================
- worst case average CPI: 0.616
- worst case efficiency: 0.734
- efficiency to beat: 0.734
- normalized lower bound 2318
--- checking solution
--- solution ok! Maximum rounding error: 0.000187
- solution found, obj var is: 2399
- de-normalized obj var: 0.743940
- time (local/global): 0.005/1.555
- branches (local/global): 235/81722
- fails (local/global): 100/38877
- lns time: 0.010000
- lns branches: 235
- lns fails: 100
LNS iteration #53 ========================================
- worst case average CPI: 0.616
- worst case efficiency: 0.734
- efficiency to beat: 0.734
- normalized lower bound 2313
--- checking solution
--- solution ok! Maximum rounding error: 0.000043
- solution found, obj var is: 2331
- de-normalized obj var: 0.739860
- time (local/global): 0.001/1.561
- branches (local/global): 37/81759
- fails (local/global): 8/38885
- lns time: 0.009000
- lns branches: 37
- lns fails: 8
LNS iteration #54 ========================================
- worst case average CPI: 0.616
- worst case efficiency: 0.735
- efficiency to beat: 0.735
- normalized lower bound 2329
--- checking solution
--- solution ok! Maximum rounding error: 0.000016
- solution found, obj var is: 2441
- de-normalized obj var: 0.746460
- time (local/global): 0.015/1.584
- branches (local/global): 865/82624
- fails (local/global): 402/39287
- lns time: 0.020000
- lns branches: 865
- lns fails: 402
LNS iteration #55 ========================================
- worst case average CPI: 0.616
- worst case efficiency: 0.737
- efficiency to beat: 0.737
- normalized lower bound 2373
--- checking solution
--- solution ok! Maximum rounding error: 0.000037
- solution found, obj var is: 2461
- de-normalized obj var: 0.747660
- time (local/global): 0.242/1.831
- branches (local/global): 9366/91990
- fails (local/global): 4500/43787
- lns time: 0.247000
- lns branches: 9366
- lns fails: 4500
LNS iteration #56 ========================================
- worst case average CPI: 0.616
- worst case efficiency: 0.740
- efficiency to beat: 0.740
- normalized lower bound 2415
--- checking solution
--- solution ok! Maximum rounding error: 0.000094
- solution found, obj var is: 2450
- de-normalized obj var: 0.747000
- time (local/global): 0.002/1.838
- branches (local/global): 56/92046
- fails (local/global): 18/43805
- lns time: 0.012000
- lns branches: 56
- lns fails: 18
LNS iteration #57 ========================================
- worst case average CPI: 0.616
- worst case efficiency: 0.740
- efficiency to beat: 0.740
- normalized lower bound 2417
--- checking solution
--- solution ok! Maximum rounding error: 0.000037
- solution found, obj var is: 2433
- de-normalized obj var: 0.745980
- time (local/global): 0.272/2.120
- branches (local/global): 11601/103647
- fails (local/global): 5655/49460
- lns time: 0.283000
- lns branches: 11601
- lns fails: 5655
LNS iteration #58 ========================================
- worst case average CPI: 0.616
- worst case efficiency: 0.741
- efficiency to beat: 0.741
- normalized lower bound 2428
--- checking solution
--- solution ok! Maximum rounding error: 0.000092
- solution found, obj var is: 2595
- de-normalized obj var: 0.755700
- time (local/global): 0.015/2.146
- branches (local/global): 864/104511
- fails (local/global): 401/49861
- lns time: 0.023000
- lns branches: 864
- lns fails: 401
LNS iteration #59 ========================================
- worst case average CPI: 0.616
- worst case efficiency: 0.744
- efficiency to beat: 0.744
- normalized lower bound 2479
--- checking solution
--- solution ok! Maximum rounding error: 0.000073
- solution found, obj var is: 2543
- de-normalized obj var: 0.752580
- time (local/global): 0.210/2.364
- branches (local/global): 14022/118533
- fails (local/global): 6773/56634
- lns time: 0.215000
- lns branches: 14022
- lns fails: 6773
LNS iteration #60 ========================================
- worst case average CPI: 0.616
- worst case efficiency: 0.745
- efficiency to beat: 0.745
- normalized lower bound 2501
--- checking solution
--- solution ok! Maximum rounding error: 0.000067
- solution found, obj var is: 2599
- de-normalized obj var: 0.755940
- time (local/global): 0.008/2.377
- branches (local/global): 473/119006
- fails (local/global): 220/56854
- lns time: 0.015000
- lns branches: 473
- lns fails: 220
LNS iteration #61 ========================================
- worst case average CPI: 0.616
- worst case efficiency: 0.745
- efficiency to beat: 0.745
- normalized lower bound 2507
--- checking solution
--- solution ok! Maximum rounding error: 0.000035
- solution found, obj var is: 2746
- de-normalized obj var: 0.764760
- time (local/global): 0.002/2.386
- branches (local/global): 241/119247
- fails (local/global): 107/56961
- lns time: 0.007000
- lns branches: 241
- lns fails: 107
LNS iteration #62 ========================================
- worst case average CPI: 0.616
- worst case efficiency: 0.746
- efficiency to beat: 0.746
- normalized lower bound 2519
--- checking solution
--- solution ok! Maximum rounding error: 0.000008
- solution found, obj var is: 2549
- de-normalized obj var: 0.752940
- time (local/global): 0.027/2.418
- branches (local/global): 2640/121887
- fails (local/global): 1275/58236
- lns time: 0.032000
- lns branches: 2640
- lns fails: 1275
LNS iteration #63 ========================================
- worst case average CPI: 0.616
- worst case efficiency: 0.747
- efficiency to beat: 0.747
- normalized lower bound 2527
--- checking solution
--- solution ok! Maximum rounding error: 0.000046
- solution found, obj var is: 2575
- de-normalized obj var: 0.754500
- time (local/global): 0.010/2.433
- branches (local/global): 847/122734
- fails (local/global): 400/58636
- lns time: 0.016000
- lns branches: 847
- lns fails: 400
LNS iteration #64 ========================================
- worst case average CPI: 0.877
- worst case efficiency: 0.748
- efficiency to beat: 0.748
- normalized lower bound 2546
--- checking solution
--- solution ok! Maximum rounding error: 0.000036
- solution found, obj var is: 2758
- de-normalized obj var: 0.765480
- time (local/global): 0.422/2.861
- branches (local/global): 25708/148442
- fails (local/global): 12416/71052
- lns time: 0.428000
- lns branches: 25708
- lns fails: 12416
LNS iteration #65 ========================================
- worst case average CPI: 0.723
- worst case efficiency: 0.751
- efficiency to beat: 0.751
- normalized lower bound 2592
--- checking solution
--- solution ok! Maximum rounding error: 0.000045
- solution found, obj var is: 2611
- de-normalized obj var: 0.756660
- time (local/global): 0.025/2.892
- branches (local/global): 1620/150062
- fails (local/global): 762/71814
- lns time: 0.030000
- lns branches: 1620
- lns fails: 762
LNS iteration #66 ========================================
- worst case average CPI: 0.723
- worst case efficiency: 0.751
- efficiency to beat: 0.751
- normalized lower bound 2603
--- checking solution
--- solution ok! Maximum rounding error: 0.000003
- solution found, obj var is: 2605
- de-normalized obj var: 0.756300
- time (local/global): 0.021/2.918
- branches (local/global): 1577/151639
- fails (local/global): 738/72552
- lns time: 0.026000
- lns branches: 1577
- lns fails: 738
LNS iteration #67 ========================================
- worst case average CPI: 0.723
- worst case efficiency: 0.752
- efficiency to beat: 0.752
- normalized lower bound 2618
- lns time: 3.005000
- lns branches: 170861
- lns fails: 83636
LNS iteration #68 ========================================
- worst case average CPI: 0.723
- worst case efficiency: 0.752
- efficiency to beat: 0.752
- normalized lower bound 2618
--- checking solution
--- solution ok! Maximum rounding error: 0.000123
- solution found, obj var is: 2635
- de-normalized obj var: 0.758100
- time (local/global): 0.118/6.046
- branches (local/global): 6904/329404
- fails (local/global): 3315/159503
- lns time: 0.123000
- lns branches: 6904
- lns fails: 3315
LNS iteration #69 ========================================
- worst case average CPI: 0.723
- worst case efficiency: 0.754
- efficiency to beat: 0.754
- normalized lower bound 2646
--- checking solution
--- solution ok! Maximum rounding error: 0.000227
- solution found, obj var is: 2659
- de-normalized obj var: 0.759540
- time (local/global): 0.001/6.052
- branches (local/global): 21/329425
- fails (local/global): 0/159503
- lns time: 0.006000
- lns branches: 21
- lns fails: 0
LNS iteration #70 ========================================
- worst case average CPI: 0.723
- worst case efficiency: 0.755
- efficiency to beat: 0.755
- normalized lower bound 2669
- lns time: 3.005000
- lns branches: 203594
- lns fails: 99990
LNS iteration #71 ========================================
- worst case average CPI: 0.723
- worst case efficiency: 0.755
- efficiency to beat: 0.755
- normalized lower bound 2669
--- checking solution
--- solution ok! Maximum rounding error: 0.000050
- solution found, obj var is: 2715
- de-normalized obj var: 0.762900
- time (local/global): 0.005/9.067
- branches (local/global): 248/533267
- fails (local/global): 104/259597
- lns time: 0.013000
- lns branches: 248
- lns fails: 104
LNS iteration #72 ========================================
- worst case average CPI: 0.877
- worst case efficiency: 0.756
- efficiency to beat: 0.756
- normalized lower bound 2683
--- checking solution
--- solution ok! Maximum rounding error: 0.000050
- solution found, obj var is: 2759
- de-normalized obj var: 0.765540
- time (local/global): 0.027/9.102
- branches (local/global): 1721/534988
- fails (local/global): 804/260401
- lns time: 0.038000
- lns branches: 1721
- lns fails: 804
LNS iteration #73 ========================================
- worst case average CPI: 0.877
- worst case efficiency: 0.756
- efficiency to beat: 0.756
- normalized lower bound 2689
--- checking solution
--- solution ok! Maximum rounding error: 0.000025
- solution found, obj var is: 2701
- de-normalized obj var: 0.762060
- time (local/global): 0.004/9.117
- branches (local/global): 237/535225
- fails (local/global): 102/260503
- lns time: 0.011000
- lns branches: 237
- lns fails: 102
LNS iteration #74 ========================================
- worst case average CPI: 0.877
- worst case efficiency: 0.759
- efficiency to beat: 0.759
- normalized lower bound 2734
- lns time: 3.006000
- lns branches: 200000
- lns fails: 98131
LNS iteration #75 ========================================
- worst case average CPI: 0.877
- worst case efficiency: 0.759
- efficiency to beat: 0.759
- normalized lower bound 2734
--- checking solution
--- solution ok! Maximum rounding error: 0.000052
- solution found, obj var is: 3082
- de-normalized obj var: 0.784920
- time (local/global): 0.020/12.150
- branches (local/global): 1392/736617
- fails (local/global): 647/359281
- lns time: 0.025000
- lns branches: 1392
- lns fails: 647
LNS iteration #76 ========================================
- worst case average CPI: 0.877
- worst case efficiency: 0.761
- efficiency to beat: 0.761
- normalized lower bound 2775
--- checking solution
--- solution ok! Maximum rounding error: 0.000028
- solution found, obj var is: 2831
- de-normalized obj var: 0.769860
- time (local/global): 0.015/12.170
- branches (local/global): 793/737410
- fails (local/global): 370/359651
- lns time: 0.020000
- lns branches: 793
- lns fails: 370
LNS iteration #77 ========================================
- worst case average CPI: 0.877
- worst case efficiency: 0.762
- efficiency to beat: 0.762
- normalized lower bound 2785
--- checking solution
--- solution ok! Maximum rounding error: 0.000084
- solution found, obj var is: 2813
- de-normalized obj var: 0.768780
- time (local/global): 0.067/12.242
- branches (local/global): 4730/742140
- fails (local/global): 2254/361905
- lns time: 0.072000
- lns branches: 4730
- lns fails: 2254
LNS iteration #78 ========================================
- worst case average CPI: 0.851
- worst case efficiency: 0.762
- efficiency to beat: 0.762
- normalized lower bound 2790
--- checking solution
--- solution ok! Maximum rounding error: 0.000073
- solution found, obj var is: 2804
- de-normalized obj var: 0.768240
- time (local/global): 0.390/12.637
- branches (local/global): 20814/762954
- fails (local/global): 10064/371969
- lns time: 0.395000
- lns branches: 20814
- lns fails: 10064
LNS iteration #79 ========================================
- worst case average CPI: 0.851
- worst case efficiency: 0.764
- efficiency to beat: 0.764
- normalized lower bound 2816
--- checking solution
--- solution ok! Maximum rounding error: 0.000090
- solution found, obj var is: 2826
- de-normalized obj var: 0.769560
- time (local/global): 0.026/12.668
- branches (local/global): 1738/764692
- fails (local/global): 816/372785
- lns time: 0.035000
- lns branches: 1738
- lns fails: 816
LNS iteration #80 ========================================
- worst case average CPI: 0.851
- worst case efficiency: 0.765
- efficiency to beat: 0.765
- normalized lower bound 2831
--- checking solution
--- solution ok! Maximum rounding error: 0.000069
- solution found, obj var is: 2843
- de-normalized obj var: 0.770580
- time (local/global): 1.345/14.022
- branches (local/global): 111490/876182
- fails (local/global): 54871/427656
- lns time: 1.350000
- lns branches: 111490
- lns fails: 54871
LNS iteration #81 ========================================
- worst case average CPI: 0.851
- worst case efficiency: 0.765
- efficiency to beat: 0.765
- normalized lower bound 2832
--- checking solution
--- solution ok! Maximum rounding error: 0.000039
- solution found, obj var is: 2944
- de-normalized obj var: 0.776640
- time (local/global): 1.079/15.106
- branches (local/global): 67349/943531
- fails (local/global): 32816/460472
- lns time: 1.084000
- lns branches: 67349
- lns fails: 32816
LNS iteration #82 ========================================
- worst case average CPI: 0.926
- worst case efficiency: 0.767
- efficiency to beat: 0.767
- normalized lower bound 2873
--- checking solution
--- solution ok! Maximum rounding error: 0.000066
- solution found, obj var is: 2877
- de-normalized obj var: 0.772620
- time (local/global): 0.030/15.141
- branches (local/global): 1690/945221
- fails (local/global): 794/461266
- lns time: 0.035000
- lns branches: 1690
- lns fails: 794
LNS iteration #83 ========================================
- worst case average CPI: 0.926
- worst case efficiency: 0.769
- efficiency to beat: 0.769
- normalized lower bound 2902
--- checking solution
--- solution ok! Maximum rounding error: 0.000027
- solution found, obj var is: 3608
- de-normalized obj var: 0.816480
- time (local/global): 0.019/15.165
- branches (local/global): 1914/947135
- fails (local/global): 916/462182
- lns time: 0.024000
- lns branches: 1914
- lns fails: 916
LNS iteration #84 ========================================
- worst case average CPI: 0.762
- worst case efficiency: 0.770
- efficiency to beat: 0.770
- normalized lower bound 2919
--- checking solution
--- solution ok! Maximum rounding error: 0.000057
- solution found, obj var is: 3092
- de-normalized obj var: 0.785520
- time (local/global): 1.715/16.885
- branches (local/global): 104529/1051664
- fails (local/global): 51223/513405
- lns time: 1.720000
- lns branches: 104529
- lns fails: 51223
LNS iteration #85 ========================================
- worst case average CPI: 0.762
- worst case efficiency: 0.770
- efficiency to beat: 0.770
- normalized lower bound 2925
- lns time: 3.006000
- lns branches: 181872
- lns fails: 89011
LNS iteration #86 ========================================
- worst case average CPI: 0.762
- worst case efficiency: 0.770
- efficiency to beat: 0.770
- normalized lower bound 2925
--- checking solution
--- solution ok! Maximum rounding error: 0.000094
- solution found, obj var is: 2958
- de-normalized obj var: 0.777480
- time (local/global): 0.052/19.948
- branches (local/global): 2701/1236237
- fails (local/global): 1291/603707
- lns time: 0.058000
- lns branches: 2701
- lns fails: 1291
LNS iteration #87 ========================================
- worst case average CPI: 0.762
- worst case efficiency: 0.773
- efficiency to beat: 0.773
- normalized lower bound 2960
--- checking solution
XXX Rounding error: 12
--- solution ok! Maximum rounding error: 0.000599
- solution found, obj var is: 2966
- de-normalized obj var: 0.777960
- time (local/global): 1.587/21.541
- branches (local/global): 91947/1328184
- fails (local/global): 44963/648670
- lns time: 1.592000
- lns branches: 91947
- lns fails: 44963
LNS iteration #88 ========================================
- worst case average CPI: 0.762
- worst case efficiency: 0.774
- efficiency to beat: 0.774
- normalized lower bound 2977
--- checking solution
--- solution ok! Maximum rounding error: 0.000090
- solution found, obj var is: 3048
- de-normalized obj var: 0.782880
- time (local/global): 0.917/22.463
- branches (local/global): 50859/1379043
- fails (local/global): 24757/673427
- lns time: 0.922000
- lns branches: 50859
- lns fails: 24757
LNS iteration #89 ========================================
- worst case average CPI: 0.762
- worst case efficiency: 0.773
- efficiency to beat: 0.773
- normalized lower bound 2970
--- checking solution
--- solution ok! Maximum rounding error: 0.000061
- solution found, obj var is: 2979
- de-normalized obj var: 0.778740
- time (local/global): 0.217/22.685
- branches (local/global): 11710/1390753
- fails (local/global): 5622/679049
- lns time: 0.222000
- lns branches: 11710
- lns fails: 5622
LNS iteration #90 ========================================
- worst case average CPI: 0.762
- worst case efficiency: 0.776
- efficiency to beat: 0.776
- normalized lower bound 3017
--- checking solution
--- solution ok! Maximum rounding error: 0.000000
- solution found, obj var is: 3091
- de-normalized obj var: 0.785460
- time (local/global): 0.047/22.737
- branches (local/global): 2644/1393397
- fails (local/global): 1253/680302
- lns time: 0.057000
- lns branches: 2644
- lns fails: 1253
LNS iteration #91 ========================================
- worst case average CPI: 0.762
- worst case efficiency: 0.777
- efficiency to beat: 0.777
- normalized lower bound 3026
--- checking solution
--- solution ok! Maximum rounding error: 0.000049
- solution found, obj var is: 3028
- de-normalized obj var: 0.781680
- time (local/global): 0.063/22.810
- branches (local/global): 6440/1399837
- fails (local/global): 3150/683452
- lns time: 0.068000
- lns branches: 6440
- lns fails: 3150
LNS iteration #92 ========================================
- worst case average CPI: 0.762
- worst case efficiency: 0.777
- efficiency to beat: 0.777
- normalized lower bound 3028
- lns time: 3.005000
- lns branches: 172073
- lns fails: 84208
LNS iteration #93 ========================================
- worst case average CPI: 0.762
- worst case efficiency: 0.777
- efficiency to beat: 0.777
- normalized lower bound 3028
--- checking solution
--- solution ok! Maximum rounding error: 0.000021
- solution found, obj var is: 3135
- de-normalized obj var: 0.788100
- time (local/global): 0.099/25.919
- branches (local/global): 6649/1578559
- fails (local/global): 3201/770861
- lns time: 0.104000
- lns branches: 6649
- lns fails: 3201
LNS iteration #94 ========================================
- worst case average CPI: 0.762
- worst case efficiency: 0.777
- efficiency to beat: 0.777
- normalized lower bound 3031
--- checking solution
--- solution ok! Maximum rounding error: 0.000013
- solution found, obj var is: 3049
- de-normalized obj var: 0.782940
- time (local/global): 0.237/26.161
- branches (local/global): 13881/1592440
- fails (local/global): 6729/777590
- lns time: 0.242000
- lns branches: 13881
- lns fails: 6729
LNS iteration #95 ========================================
- worst case average CPI: 0.762
- worst case efficiency: 0.778
- efficiency to beat: 0.778
- normalized lower bound 3046
--- checking solution
--- solution ok! Maximum rounding error: 0.000059
- solution found, obj var is: 3070
- de-normalized obj var: 0.784200
- time (local/global): 0.010/26.176
- branches (local/global): 318/1592758
- fails (local/global): 142/777732
- lns time: 0.015000
- lns branches: 318
- lns fails: 142
LNS iteration #96 ========================================
- worst case average CPI: 0.762
- worst case efficiency: 0.780
- efficiency to beat: 0.780
- normalized lower bound 3077
--- checking solution
--- solution ok! Maximum rounding error: 0.000061
- solution found, obj var is: 3095
- de-normalized obj var: 0.785700
- time (local/global): 0.024/26.205
- branches (local/global): 918/1593676
- fails (local/global): 427/778159
- lns time: 0.029000
- lns branches: 918
- lns fails: 427
LNS iteration #97 ========================================
- worst case average CPI: 0.762
- worst case efficiency: 0.780
- efficiency to beat: 0.780
- normalized lower bound 3090
- lns time: 3.005000
- lns branches: 145641
- lns fails: 71393
LNS iteration #98 ========================================
- worst case average CPI: 0.762
- worst case efficiency: 0.780
- efficiency to beat: 0.780
- normalized lower bound 3090
- lns time: 3.005000
- lns branches: 173937
- lns fails: 85209
LNS iteration #99 ========================================
- worst case average CPI: 0.762
- worst case efficiency: 0.780
- efficiency to beat: 0.780
- normalized lower bound 3090
- lns time: 0.021000
- lns branches: 2060
- lns fails: 1025
LNS iteration #100 ========================================
- worst case average CPI: 0.762
- worst case efficiency: 0.780
- efficiency to beat: 0.780
- normalized lower bound 3090
- lns time: 3.005000
- lns branches: 182757
- lns fails: 89513
LNS iteration #101 ========================================
- worst case average CPI: 0.762
- worst case efficiency: 0.780
- efficiency to beat: 0.780
- normalized lower bound 3090
--- checking solution
--- solution ok! Maximum rounding error: 0.000061
- solution found, obj var is: 3169
- de-normalized obj var: 0.790140
- time (local/global): 0.059/35.305
- branches (local/global): 2888/2100959
- fails (local/global): 1375/1026674
- lns time: 0.065000
- lns branches: 2888
- lns fails: 1375
LNS iteration #102 ========================================
- worst case average CPI: 0.710
- worst case efficiency: 0.781
- efficiency to beat: 0.781
- normalized lower bound 3099
--- checking solution
--- solution ok! Maximum rounding error: 0.000090
- solution found, obj var is: 3101
- de-normalized obj var: 0.786060
- time (local/global): 0.040/35.351
- branches (local/global): 2745/2103704
- fails (local/global): 1300/1027974
- lns time: 0.045000
- lns branches: 2745
- lns fails: 1300
LNS iteration #103 ========================================
- worst case average CPI: 0.710
- worst case efficiency: 0.782
- efficiency to beat: 0.782
- normalized lower bound 3109
--- checking solution
--- solution ok! Maximum rounding error: 0.000062
- solution found, obj var is: 3154
- de-normalized obj var: 0.789240
- time (local/global): 0.009/35.365
- branches (local/global): 364/2104068
- fails (local/global): 166/1028140
- lns time: 0.014000
- lns branches: 364
- lns fails: 166
LNS iteration #104 ========================================
- worst case average CPI: 0.710
- worst case efficiency: 0.783
- efficiency to beat: 0.783
- normalized lower bound 3132
--- checking solution
--- solution ok! Maximum rounding error: 0.000074
- solution found, obj var is: 3133
- de-normalized obj var: 0.787980
- time (local/global): 0.687/36.057
- branches (local/global): 44422/2148490
- fails (local/global): 21655/1049795
- lns time: 0.692000
- lns branches: 44422
- lns fails: 21655
LNS iteration #105 ========================================
- worst case average CPI: 0.762
- worst case efficiency: 0.783
- efficiency to beat: 0.783
- normalized lower bound 3132
--- checking solution
--- solution ok! Maximum rounding error: 0.000061
- solution found, obj var is: 3222
- de-normalized obj var: 0.793320
- time (local/global): 0.354/36.416
- branches (local/global): 19177/2167667
- fails (local/global): 9300/1059095
- lns time: 0.359000
- lns branches: 19177
- lns fails: 9300
LNS iteration #106 ========================================
- worst case average CPI: 0.762
- worst case efficiency: 0.783
- efficiency to beat: 0.783
- normalized lower bound 3132
--- checking solution
--- solution ok! Maximum rounding error: 0.000035
- solution found, obj var is: 3152
- de-normalized obj var: 0.789120
- time (local/global): 0.246/36.667
- branches (local/global): 15097/2182764
- fails (local/global): 7327/1066422
- lns time: 0.251000
- lns branches: 15097
- lns fails: 7327
LNS iteration #107 ========================================
- worst case average CPI: 0.762
- worst case efficiency: 0.782
- efficiency to beat: 0.782
- normalized lower bound 3124
--- checking solution
--- solution ok! Maximum rounding error: 0.000399
- solution found, obj var is: 3162
- de-normalized obj var: 0.789720
- time (local/global): 0.019/36.691
- branches (local/global): 1590/2184354
- fails (local/global): 742/1067164
- lns time: 0.024000
- lns branches: 1590
- lns fails: 742
LNS iteration #108 ========================================
- worst case average CPI: 0.762
- worst case efficiency: 0.784
- efficiency to beat: 0.784
- normalized lower bound 3143
- lns time: 3.005000
- lns branches: 181376
- lns fails: 88794
LNS iteration #109 ========================================
- worst case average CPI: 0.762
- worst case efficiency: 0.784
- efficiency to beat: 0.784
- normalized lower bound 3143
--- checking solution
--- solution ok! Maximum rounding error: 0.000289
- solution found, obj var is: 3181
- de-normalized obj var: 0.790860
- time (local/global): 0.009/39.710
- branches (local/global): 543/2366273
- fails (local/global): 245/1156203
- lns time: 0.014000
- lns branches: 543
- lns fails: 245
LNS iteration #110 ========================================
- worst case average CPI: 0.762
- worst case efficiency: 0.785
- efficiency to beat: 0.785
- normalized lower bound 3164
- lns time: 3.005000
- lns branches: 203581
- lns fails: 100008
LNS iteration #111 ========================================
- worst case average CPI: 0.762
- worst case efficiency: 0.785
- efficiency to beat: 0.785
- normalized lower bound 3164
- lns time: 3.005000
- lns branches: 210018
- lns fails: 103180
LNS iteration #112 ========================================
- worst case average CPI: 0.762
- worst case efficiency: 0.785
- efficiency to beat: 0.785
- normalized lower bound 3164
--- checking solution
--- solution ok! Maximum rounding error: 0.000036
- solution found, obj var is: 3204
- de-normalized obj var: 0.792240
- time (local/global): 0.029/45.754
- branches (local/global): 1301/2781173
- fails (local/global): 603/1359994
- lns time: 0.034000
- lns branches: 1301
- lns fails: 603
LNS iteration #113 ========================================
- worst case average CPI: 0.762
- worst case efficiency: 0.786
- efficiency to beat: 0.786
- normalized lower bound 3188
--- checking solution
--- solution ok! Maximum rounding error: 0.000063
- solution found, obj var is: 3193
- de-normalized obj var: 0.791580
- time (local/global): 0.606/46.365
- branches (local/global): 27291/2808464
- fails (local/global): 13285/1373279
- lns time: 0.611000
- lns branches: 27291
- lns fails: 13285
LNS iteration #114 ========================================
- worst case average CPI: 0.762
- worst case efficiency: 0.787
- efficiency to beat: 0.787
- normalized lower bound 3203
--- checking solution
--- solution ok! Maximum rounding error: 0.000030
- solution found, obj var is: 3234
- de-normalized obj var: 0.794040
- time (local/global): 0.651/47.021
- branches (local/global): 41982/2850446
- fails (local/global): 20492/1393771
- lns time: 0.656000
- lns branches: 41982
- lns fails: 20492
LNS iteration #115 ========================================
- worst case average CPI: 0.762
- worst case efficiency: 0.788
- efficiency to beat: 0.788
- normalized lower bound 3215
- lns time: 3.005000
- lns branches: 189623
- lns fails: 93037
LNS iteration #116 ========================================
- worst case average CPI: 0.762
- worst case efficiency: 0.788
- efficiency to beat: 0.788
- normalized lower bound 3215
--- checking solution
--- solution ok! Maximum rounding error: 0.000107
- solution found, obj var is: 3275
- de-normalized obj var: 0.796500
- time (local/global): 0.226/50.257
- branches (local/global): 13266/3053335
- fails (local/global): 6404/1493212
- lns time: 0.231000
- lns branches: 13266
- lns fails: 6404
LNS iteration #117 ========================================
- worst case average CPI: 0.762
- worst case efficiency: 0.788
- efficiency to beat: 0.788
- normalized lower bound 3220
--- checking solution
--- solution ok! Maximum rounding error: 0.000073
- solution found, obj var is: 3293
- de-normalized obj var: 0.797580
- time (local/global): 0.000/50.262
- branches (local/global): 17/3053352
- fails (local/global): 1/1493213
- lns time: 0.005000
- lns branches: 17
- lns fails: 1
LNS iteration #118 ========================================
- worst case average CPI: 0.762
- worst case efficiency: 0.789
- efficiency to beat: 0.789
- normalized lower bound 3233
--- checking solution
--- solution ok! Maximum rounding error: 0.000108
- solution found, obj var is: 3465
- de-normalized obj var: 0.807900
- time (local/global): 0.763/51.030
- branches (local/global): 59240/3112592
- fails (local/global): 28826/1522039
- lns time: 0.768000
- lns branches: 59240
- lns fails: 28826
LNS iteration #119 ========================================
- worst case average CPI: 0.532
- worst case efficiency: 0.789
- efficiency to beat: 0.789
- normalized lower bound 3234
--- checking solution
--- solution ok! Maximum rounding error: 0.000134
- solution found, obj var is: 3292
- de-normalized obj var: 0.797520
- time (local/global): 0.051/51.086
- branches (local/global): 3806/3116398
- fails (local/global): 1804/1523843
- lns time: 0.056000
- lns branches: 3806
- lns fails: 1804
LNS iteration #120 ========================================
- worst case average CPI: 0.532
- worst case efficiency: 0.791
- efficiency to beat: 0.791
- normalized lower bound 3260
--- checking solution
--- solution ok! Maximum rounding error: 0.000036
- solution found, obj var is: 3294
- de-normalized obj var: 0.797640
- time (local/global): 0.050/51.141
- branches (local/global): 2516/3118914
- fails (local/global): 1200/1525043
- lns time: 0.055000
- lns branches: 2516
- lns fails: 1200
LNS iteration #121 ========================================
- worst case average CPI: 0.532
- worst case efficiency: 0.790
- efficiency to beat: 0.790
- normalized lower bound 3250
--- checking solution
--- solution ok! Maximum rounding error: 0.000035
- solution found, obj var is: 3296
- de-normalized obj var: 0.797760
- time (local/global): 0.599/51.745
- branches (local/global): 42002/3160916
- fails (local/global): 20461/1545504
- lns time: 0.604000
- lns branches: 42002
- lns fails: 20461
LNS iteration #122 ========================================
- worst case average CPI: 0.532
- worst case efficiency: 0.793
- efficiency to beat: 0.793
- normalized lower bound 3293
- lns time: 3.005000
- lns branches: 177084
- lns fails: 86816
LNS iteration #123 ========================================
- worst case average CPI: 0.532
- worst case efficiency: 0.793
- efficiency to beat: 0.793
- normalized lower bound 3293
--- checking solution
--- solution ok! Maximum rounding error: 0.000068
- solution found, obj var is: 3457
- de-normalized obj var: 0.807420
- time (local/global): 0.016/54.771
- branches (local/global): 1117/3339117
- fails (local/global): 518/1632838
- lns time: 0.021000
- lns branches: 1117
- lns fails: 518
LNS iteration #124 ========================================
- worst case average CPI: 0.532
- worst case efficiency: 0.794
- efficiency to beat: 0.794
- normalized lower bound 3324
- lns time: 3.005000
- lns branches: 164253
- lns fails: 80450
LNS iteration #125 ========================================
- worst case average CPI: 0.532
- worst case efficiency: 0.794
- efficiency to beat: 0.794
- normalized lower bound 3324
- lns time: 3.006000
- lns branches: 159381
- lns fails: 77988
LNS iteration #126 ========================================
- worst case average CPI: 0.532
- worst case efficiency: 0.794
- efficiency to beat: 0.794
- normalized lower bound 3324
- lns time: 3.005000
- lns branches: 194383
- lns fails: 95475
LNS iteration #127 ========================================
- worst case average CPI: 0.532
- worst case efficiency: 0.794
- efficiency to beat: 0.794
- normalized lower bound 3324
--- checking solution
--- solution ok! Maximum rounding error: 0.000020
- solution found, obj var is: 3416
- de-normalized obj var: 0.804960
- time (local/global): 0.035/63.827
- branches (local/global): 1808/3858942
- fails (local/global): 856/1887607
- lns time: 0.041000
- lns branches: 1808
- lns fails: 856
LNS iteration #128 ========================================
- worst case average CPI: 0.532
- worst case efficiency: 0.795
- efficiency to beat: 0.795
- normalized lower bound 3332
- lns time: 3.005000
- lns branches: 168617
- lns fails: 82497
LNS iteration #129 ========================================
- worst case average CPI: 0.532
- worst case efficiency: 0.795
- efficiency to beat: 0.795
- normalized lower bound 3332
--- checking solution
--- solution ok! Maximum rounding error: 0.000077
- solution found, obj var is: 3426
- de-normalized obj var: 0.805560
- time (local/global): 0.113/66.951
- branches (local/global): 6111/4033670
- fails (local/global): 2936/1973040
- lns time: 0.118000
- lns branches: 6111
- lns fails: 2936
LNS iteration #130 ========================================
- worst case average CPI: 0.532
- worst case efficiency: 0.797
- efficiency to beat: 0.797
- normalized lower bound 3363
--- checking solution
--- solution ok! Maximum rounding error: 0.000021
- solution found, obj var is: 3368
- de-normalized obj var: 0.802080
- time (local/global): 0.070/67.026
- branches (local/global): 3051/4036721
- fails (local/global): 1453/1974493
- lns time: 0.075000
- lns branches: 3051
- lns fails: 1453
LNS iteration #131 ========================================
- worst case average CPI: 0.532
- worst case efficiency: 0.797
- efficiency to beat: 0.797
- normalized lower bound 3374
--- checking solution
--- solution ok! Maximum rounding error: 0.000033
- solution found, obj var is: 3377
- de-normalized obj var: 0.802620
- time (local/global): 0.321/67.352
- branches (local/global): 26610/4063331
- fails (local/global): 12862/1987355
- lns time: 0.326000
- lns branches: 26610
- lns fails: 12862
LNS iteration #132 ========================================
- worst case average CPI: 0.532
- worst case efficiency: 0.798
- efficiency to beat: 0.798
- normalized lower bound 3377
- lns time: 3.006000
- lns branches: 271555
- lns fails: 132901
LNS iteration #133 ========================================
- worst case average CPI: 0.532
- worst case efficiency: 0.798
- efficiency to beat: 0.798
- normalized lower bound 3377
--- checking solution
--- solution ok! Maximum rounding error: 0.000008
- solution found, obj var is: 3410
- de-normalized obj var: 0.804600
- time (local/global): 0.014/70.377
- branches (local/global): 1648/4336534
- fails (local/global): 793/2121049
- lns time: 0.019000
- lns branches: 1648
- lns fails: 793
LNS iteration #134 ========================================
- worst case average CPI: 0.532
- worst case efficiency: 0.799
- efficiency to beat: 0.799
- normalized lower bound 3401
- lns time: 3.005000
- lns branches: 272682
- lns fails: 133439
LNS iteration #135 ========================================
- worst case average CPI: 0.532
- worst case efficiency: 0.799
- efficiency to beat: 0.799
- normalized lower bound 3401
--- checking solution
--- solution ok! Maximum rounding error: 0.000251
- solution found, obj var is: 3450
- de-normalized obj var: 0.807000
- time (local/global): 1.098/74.485
- branches (local/global): 56983/4666199
- fails (local/global): 27855/2282343
- lns time: 1.103000
- lns branches: 56983
- lns fails: 27855
LNS iteration #136 ========================================
- worst case average CPI: 0.532
- worst case efficiency: 0.799
- efficiency to beat: 0.799
- normalized lower bound 3404
--- checking solution
--- solution ok! Maximum rounding error: 0.000089
- solution found, obj var is: 3408
- de-normalized obj var: 0.804480
- time (local/global): 0.169/74.659
- branches (local/global): 9887/4676086
- fails (local/global): 4756/2287099
- lns time: 0.174000
- lns branches: 9887
- lns fails: 4756
LNS iteration #137 ========================================
- worst case average CPI: 0.532
- worst case efficiency: 0.801
- efficiency to beat: 0.801
- normalized lower bound 3439
--- checking solution
--- solution ok! Maximum rounding error: 0.000043
- solution found, obj var is: 3527
- de-normalized obj var: 0.811620
- time (local/global): 0.040/74.704
- branches (local/global): 2836/4678922
- fails (local/global): 1359/2288458
- lns time: 0.045000
- lns branches: 2836
- lns fails: 1359
LNS iteration #138 ========================================
- worst case average CPI: 0.532
- worst case efficiency: 0.802
- efficiency to beat: 0.802
- normalized lower bound 3458
--- checking solution
--- solution ok! Maximum rounding error: 0.000004
- solution found, obj var is: 3493
- de-normalized obj var: 0.809580
- time (local/global): 0.038/74.747
- branches (local/global): 2504/4681426
- fails (local/global): 1212/2289670
- lns time: 0.043000
- lns branches: 2504
- lns fails: 1212
LNS iteration #139 ========================================
- worst case average CPI: 0.532
- worst case efficiency: 0.803
- efficiency to beat: 0.803
- normalized lower bound 3462
--- checking solution
--- solution ok! Maximum rounding error: 0.000022
- solution found, obj var is: 3535
- de-normalized obj var: 0.812100
- time (local/global): 1.212/75.964
- branches (local/global): 57256/4738682
- fails (local/global): 27850/2317520
- lns time: 1.217000
- lns branches: 57256
- lns fails: 27850
LNS iteration #140 ========================================
- worst case average CPI: 0.532
- worst case efficiency: 0.804
- efficiency to beat: 0.804
- normalized lower bound 3479
--- checking solution
--- solution ok! Maximum rounding error: 0.000042
- solution found, obj var is: 3494
- de-normalized obj var: 0.809640
- time (local/global): 2.528/78.497
- branches (local/global): 124796/4863478
- fails (local/global): 61595/2379115
- lns time: 2.533000
- lns branches: 124796
- lns fails: 61595
LNS iteration #141 ========================================
- worst case average CPI: 0.532
- worst case efficiency: 0.804
- efficiency to beat: 0.804
- normalized lower bound 3491
- lns time: 3.005000
- lns branches: 160140
- lns fails: 78708
LNS iteration #142 ========================================
- worst case average CPI: 0.532
- worst case efficiency: 0.804
- efficiency to beat: 0.804
- normalized lower bound 3491
--- checking solution
--- solution ok! Maximum rounding error: 0.000021
- solution found, obj var is: 3515
- de-normalized obj var: 0.810900
- time (local/global): 0.019/81.526
- branches (local/global): 1678/5025296
- fails (local/global): 788/2458611
- lns time: 0.024000
- lns branches: 1678
- lns fails: 788
LNS iteration #143 ========================================
- worst case average CPI: 0.532
- worst case efficiency: 0.805
- efficiency to beat: 0.805
- normalized lower bound 3500
- lns time: 3.005000
- lns branches: 217753
- lns fails: 106855
LNS iteration #144 ========================================
- worst case average CPI: 0.532
- worst case efficiency: 0.805
- efficiency to beat: 0.805
- normalized lower bound 3500
--- checking solution
--- solution ok! Maximum rounding error: 0.000156
- solution found, obj var is: 3515
- de-normalized obj var: 0.810900
- time (local/global): 0.051/84.587
- branches (local/global): 3083/5246132
- fails (local/global): 1491/2566957
- lns time: 0.058000
- lns branches: 3083
- lns fails: 1491
LNS iteration #145 ========================================
- worst case average CPI: 0.532
- worst case efficiency: 0.805
- efficiency to beat: 0.805
- normalized lower bound 3501
--- checking solution
--- solution ok! Maximum rounding error: 0.000060
- solution found, obj var is: 3530
- de-normalized obj var: 0.811800
- time (local/global): 2.364/86.958
- branches (local/global): 154760/5400892
- fails (local/global): 75720/2642677
- lns time: 2.370000
- lns branches: 154760
- lns fails: 75720
LNS iteration #146 ========================================
- worst case average CPI: 0.532
- worst case efficiency: 0.806
- efficiency to beat: 0.806
- normalized lower bound 3524
- lns time: 3.005000
- lns branches: 144673
- lns fails: 71035
LNS iteration #147 ========================================
- worst case average CPI: 0.532
- worst case efficiency: 0.806
- efficiency to beat: 0.806
- normalized lower bound 3524
- lns time: 0.036000
- lns branches: 1534
- lns fails: 746

LNS optimization is over========================================
initial worst case average CPI: 2.169
final worst case average CPI: 0.532
initial worst case efficiency: 0.635
final worst case efficiency: 0.806
number of iterations: 148
total time: 90005.000000
total branches: 5547099
total fails: 2714458

Final Solution: 0->8, 1->47, 2->8, 3->22, 4->22, 5->24, 6->34, 7->28, 8->0, 9->23, 10->32, 11->32, 12->47, 13->14, 14->3, 15->6, 16->11, 17->32, 18->4, 19->6, 20->8, 21->38, 22->5, 23->2, 24->24, 25->33, 26->19, 27->45, 28->41, 29->35, 30->46, 31->2, 32->44, 33->38, 34->4, 35->22, 36->33, 37->39, 38->41, 39->44, 40->41, 41->17, 42->16, 43->6, 44->44, 45->31, 46->28, 47->11, 48->44, 49->32, 50->6, 51->4, 52->27, 53->40, 54->26, 55->4, 56->18, 57->10, 58->14, 59->36, 60->45, 61->23, 62->44, 63->39, 64->31, 65->42, 66->38, 67->47, 68->36, 69->4, 70->38, 71->10, 72->9, 73->22, 74->39, 75->31, 76->41, 77->5, 78->19, 79->3, 80->35, 81->0, 82->8, 83->6, 84->14, 85->24, 86->38, 87->23, 88->13, 89->22, 90->35, 91->40, 92->9, 93->29, 94->5, 95->9, 96->37, 97->29, 98->26, 99->40, 100->9, 101->36, 102->23, 103->35, 104->25, 105->43, 106->40, 107->1, 108->12, 109->24, 110->47, 111->10, 112->19, 113->42, 114->40, 115->46, 116->33, 117->16, 118->7, 119->2, 120->14, 121->13, 122->39, 123->36, 124->46, 125->12, 126->23, 127->42, 128->16, 129->21, 130->3, 131->12, 132->14, 133->20, 134->13, 135->16, 136->27, 137->22, 138->38, 139->44, 140->46, 141->45, 142->39, 143->40, 144->17, 145->41, 146->47, 147->47, 148->11, 149->46, 150->27, 151->11, 152->29, 153->9, 154->23, 155->2, 156->34, 157->11, 158->39, 159->0, 160->10, 161->11, 162->37, 163->30, 164->28, 165->43, 166->15, 167->19, 168->37, 169->34, 170->3, 171->25, 172->9, 173->10, 174->7, 175->37, 176->14, 177->45, 178->24, 179->34, 180->34, 181->4, 182->25, 183->29, 184->34, 185->35, 186->30, 187->29, 188->2, 189->37, 190->15, 191->17, 192->33, 193->37, 194->25, 195->35, 196->18, 197->15, 198->36, 199->5, 200->45, 201->5, 202->17, 203->19, 204->10, 205->32, 206->21, 207->32, 208->33, 209->31, 210->26, 211->0, 212->26, 213->15, 214->19, 215->28, 216->1, 217->27, 218->42, 219->28, 220->1, 221->30, 222->1, 223->17, 224->17, 225->7, 226->16, 227->1, 228->6, 229->8, 230->26, 231->33, 232->21, 233->46, 234->27, 235->7, 236->12, 237->21, 238->26, 239->20, 240->1, 241->7, 242->0, 243->18, 244->7, 245->43, 246->16, 247->2, 248->18, 249->43, 250->41, 251->28, 252->13, 253->31, 254->12, 255->21, 256->30, 257->42, 258->30, 259->21, 260->27, 261->24, 262->45, 263->8, 264->13, 265->5, 266->20, 267->18, 268->0, 269->30, 270->43, 271->12, 272->25, 273->15, 274->43, 275->3, 276->31, 277->36, 278->13, 279->25, 280->20, 281->18, 282->15, 283->3, 284->42, 285->20, 286->29, 287->20

Average CPI map:
	7.38,	1.27,	0.88,	0.73,	0.98,	1.25
	1.81,	3.38,	3.07,	6.76,	8.57,	2.10
	1.35,	5.66,	7.63,	4.33,	5.59,	1.50
	0.53,	8.05,	5.57,	6.59,	6.45,	1.84
	1.20,	5.95,	7.31,	6.13,	6.18,	1.65
	2.18,	5.66,	8.67,	6.34,	6.28,	1.33
	1.71,	7.84,	4.33,	6.24,	4.70,	2.05
	1.71,	2.98,	7.37,	7.19,	4.01,	1.71

Efficiency map:
	0.997,	0.895,	0.911,	0.811,	0.913,	1.003
	0.809,	0.810,	0.811,	0.822,	0.806,	0.842
	0.825,	0.812,	0.811,	0.807,	0.829,	0.811
	0.814,	0.809,	0.816,	0.812,	0.808,	0.878
	0.821,	0.807,	0.828,	0.814,	0.811,	0.852
	0.868,	0.812,	0.838,	0.816,	0.859,	0.822
	0.826,	0.813,	0.807,	0.815,	0.810,	0.842
	0.824,	0.817,	0.818,	0.819,	0.817,	0.841
