==============================================================================
LNS optimizer for EML demonstration
==============================================================================

Option values: --wld-idx 17 --prec 10000 --step 0 --global-tlim 90 --global-iter 1000 --local-tlim 3 --local-nsol 1 --restart-base 100 --restart-strat luby --seed 601

Starting the Optimization Process
reserved_tasks None
Finding a first solution
LNS iteration #0 ========================================
- worst case average CPI: 2.479
- worst case efficiency: 0.656
- efficiency to beat: 0.656
- normalized lower bound 1017
--- checking solution
--- solution ok! Maximum rounding error: 0.000058
- solution found, obj var is: 1357
- de-normalized obj var: 0.681420
- time (local/global): 0.001/0.001
- branches (local/global): 31/31
- fails (local/global): 8/8
- lns time: 0.007000
- lns branches: 31
- lns fails: 8
LNS iteration #1 ========================================
- worst case average CPI: 2.479
- worst case efficiency: 0.681
- efficiency to beat: 0.681
- normalized lower bound 1439
--- checking solution
--- solution ok! Maximum rounding error: 0.000054
- solution found, obj var is: 1868
- de-normalized obj var: 0.712080
- time (local/global): 0.001/0.008
- branches (local/global): 16/47
- fails (local/global): 0/8
- lns time: 0.006000
- lns branches: 16
- lns fails: 0
LNS iteration #2 ========================================
- worst case average CPI: 2.054
- worst case efficiency: 0.681
- efficiency to beat: 0.681
- normalized lower bound 1440
--- checking solution
--- solution ok! Maximum rounding error: 0.000009
- solution found, obj var is: 1529
- de-normalized obj var: 0.691740
- time (local/global): 0.003/0.016
- branches (local/global): 183/230
- fails (local/global): 81/89
- lns time: 0.009000
- lns branches: 183
- lns fails: 81
LNS iteration #3 ========================================
- worst case average CPI: 2.054
- worst case efficiency: 0.692
- efficiency to beat: 0.692
- normalized lower bound 1612
--- checking solution
--- solution ok! Maximum rounding error: 0.000048
- solution found, obj var is: 2262
- de-normalized obj var: 0.735720
- time (local/global): 0.000/0.022
- branches (local/global): 22/252
- fails (local/global): 0/89
- lns time: 0.006000
- lns branches: 22
- lns fails: 0
LNS iteration #4 ========================================
- worst case average CPI: 2.054
- worst case efficiency: 0.697
- efficiency to beat: 0.697
- normalized lower bound 1706
--- checking solution
--- solution ok! Maximum rounding error: 0.000065
- solution found, obj var is: 2315
- de-normalized obj var: 0.738900
- time (local/global): 0.000/0.028
- branches (local/global): 21/273
- fails (local/global): 0/89
- lns time: 0.006000
- lns branches: 21
- lns fails: 0
LNS iteration #5 ========================================
- worst case average CPI: 1.644
- worst case efficiency: 0.703
- efficiency to beat: 0.703
- normalized lower bound 1792
--- checking solution
--- solution ok! Maximum rounding error: 0.000075
- solution found, obj var is: 1866
- de-normalized obj var: 0.711960
- time (local/global): 0.000/0.034
- branches (local/global): 21/294
- fails (local/global): 0/89
- lns time: 0.006000
- lns branches: 21
- lns fails: 0
LNS iteration #6 ========================================
- worst case average CPI: 1.644
- worst case efficiency: 0.705
- efficiency to beat: 0.705
- normalized lower bound 1835
--- checking solution
--- solution ok! Maximum rounding error: 0.000023
- solution found, obj var is: 2968
- de-normalized obj var: 0.778080
- time (local/global): 0.000/0.040
- branches (local/global): 28/322
- fails (local/global): 3/92
- lns time: 0.006000
- lns branches: 28
- lns fails: 3
LNS iteration #7 ========================================
- worst case average CPI: 1.644
- worst case efficiency: 0.707
- efficiency to beat: 0.707
- normalized lower bound 1871
--- checking solution
--- solution ok! Maximum rounding error: 0.000037
- solution found, obj var is: 4597
- de-normalized obj var: 0.875820
- time (local/global): 0.000/0.046
- branches (local/global): 22/344
- fails (local/global): 0/92
- lns time: 0.006000
- lns branches: 22
- lns fails: 0
LNS iteration #8 ========================================
- worst case average CPI: 1.644
- worst case efficiency: 0.708
- efficiency to beat: 0.708
- normalized lower bound 1884
--- checking solution
--- solution ok! Maximum rounding error: 0.000101
- solution found, obj var is: 1982
- de-normalized obj var: 0.718920
- time (local/global): 0.000/0.052
- branches (local/global): 21/365
- fails (local/global): 0/92
- lns time: 0.006000
- lns branches: 21
- lns fails: 0
LNS iteration #9 ========================================
- worst case average CPI: 1.644
- worst case efficiency: 0.711
- efficiency to beat: 0.711
- normalized lower bound 1941
--- checking solution
--- solution ok! Maximum rounding error: 0.000041
- solution found, obj var is: 2304
- de-normalized obj var: 0.738240
- time (local/global): 0.000/0.058
- branches (local/global): 23/388
- fails (local/global): 0/92
- lns time: 0.006000
- lns branches: 23
- lns fails: 0
LNS iteration #10 ========================================
- worst case average CPI: 1.644
- worst case efficiency: 0.712
- efficiency to beat: 0.712
- normalized lower bound 1958
--- checking solution
--- solution ok! Maximum rounding error: 0.000016
- solution found, obj var is: 2007
- de-normalized obj var: 0.720420
- time (local/global): 0.007/0.071
- branches (local/global): 458/846
- fails (local/global): 202/294
- lns time: 0.013000
- lns branches: 458
- lns fails: 202
LNS iteration #11 ========================================
- worst case average CPI: 1.644
- worst case efficiency: 0.713
- efficiency to beat: 0.713
- normalized lower bound 1960
--- checking solution
--- solution ok! Maximum rounding error: 0.000046
- solution found, obj var is: 2265
- de-normalized obj var: 0.735900
- time (local/global): 0.004/0.081
- branches (local/global): 176/1022
- fails (local/global): 77/371
- lns time: 0.011000
- lns branches: 176
- lns fails: 77
LNS iteration #12 ========================================
- worst case average CPI: 1.644
- worst case efficiency: 0.713
- efficiency to beat: 0.713
- normalized lower bound 1970
--- checking solution
--- solution ok! Maximum rounding error: 0.000042
- solution found, obj var is: 2045
- de-normalized obj var: 0.722700
- time (local/global): 0.002/0.090
- branches (local/global): 98/1120
- fails (local/global): 41/412
- lns time: 0.007000
- lns branches: 98
- lns fails: 41
LNS iteration #13 ========================================
- worst case average CPI: 1.644
- worst case efficiency: 0.718
- efficiency to beat: 0.718
- normalized lower bound 2043
--- checking solution
--- solution ok! Maximum rounding error: 0.000058
- solution found, obj var is: 2084
- de-normalized obj var: 0.725040
- time (local/global): 0.035/0.130
- branches (local/global): 1759/2879
- fails (local/global): 823/1235
- lns time: 0.042000
- lns branches: 1759
- lns fails: 823
LNS iteration #14 ========================================
- worst case average CPI: 1.644
- worst case efficiency: 0.718
- efficiency to beat: 0.718
- normalized lower bound 2049
--- checking solution
--- solution ok! Maximum rounding error: 0.000042
- solution found, obj var is: 2272
- de-normalized obj var: 0.736320
- time (local/global): 0.005/0.142
- branches (local/global): 307/3186
- fails (local/global): 134/1369
- lns time: 0.012000
- lns branches: 307
- lns fails: 134
LNS iteration #15 ========================================
- worst case average CPI: 1.644
- worst case efficiency: 0.720
- efficiency to beat: 0.720
- normalized lower bound 2076
--- checking solution
--- solution ok! Maximum rounding error: 0.000063
- solution found, obj var is: 2851
- de-normalized obj var: 0.771060
- time (local/global): 0.001/0.150
- branches (local/global): 22/3208
- fails (local/global): 1/1370
- lns time: 0.008000
- lns branches: 22
- lns fails: 1
LNS iteration #16 ========================================
- worst case average CPI: 1.644
- worst case efficiency: 0.722
- efficiency to beat: 0.722
- normalized lower bound 2111
--- checking solution
--- solution ok! Maximum rounding error: 0.000046
- solution found, obj var is: 2250
- de-normalized obj var: 0.735000
- time (local/global): 0.004/0.161
- branches (local/global): 241/3449
- fails (local/global): 102/1472
- lns time: 0.010000
- lns branches: 241
- lns fails: 102
LNS iteration #17 ========================================
- worst case average CPI: 1.644
- worst case efficiency: 0.724
- efficiency to beat: 0.724
- normalized lower bound 2144
--- checking solution
--- solution ok! Maximum rounding error: 0.000141
- solution found, obj var is: 2771
- de-normalized obj var: 0.766260
- time (local/global): 0.000/0.167
- branches (local/global): 26/3475
- fails (local/global): 2/1474
- lns time: 0.006000
- lns branches: 26
- lns fails: 2
LNS iteration #18 ========================================
- worst case average CPI: 1.185
- worst case efficiency: 0.724
- efficiency to beat: 0.724
- normalized lower bound 2143
--- checking solution
--- solution ok! Maximum rounding error: 0.000054
- solution found, obj var is: 2447
- de-normalized obj var: 0.746820
- time (local/global): 0.004/0.177
- branches (local/global): 284/3759
- fails (local/global): 124/1598
- lns time: 0.010000
- lns branches: 284
- lns fails: 124
LNS iteration #19 ========================================
- worst case average CPI: 1.185
- worst case efficiency: 0.727
- efficiency to beat: 0.727
- normalized lower bound 2203
--- checking solution
--- solution ok! Maximum rounding error: 0.000041
- solution found, obj var is: 4096
- de-normalized obj var: 0.845760
- time (local/global): 0.000/0.183
- branches (local/global): 24/3783
- fails (local/global): 1/1599
- lns time: 0.006000
- lns branches: 24
- lns fails: 1
LNS iteration #20 ========================================
- worst case average CPI: 1.185
- worst case efficiency: 0.736
- efficiency to beat: 0.736
- normalized lower bound 2343
--- checking solution
--- solution ok! Maximum rounding error: 0.000154
- solution found, obj var is: 2447
- de-normalized obj var: 0.746820
- time (local/global): 0.000/0.189
- branches (local/global): 24/3807
- fails (local/global): 2/1601
- lns time: 0.006000
- lns branches: 24
- lns fails: 2
LNS iteration #21 ========================================
- worst case average CPI: 1.185
- worst case efficiency: 0.736
- efficiency to beat: 0.736
- normalized lower bound 2344
--- checking solution
--- solution ok! Maximum rounding error: 0.000043
- solution found, obj var is: 3077
- de-normalized obj var: 0.784620
- time (local/global): 0.000/0.195
- branches (local/global): 22/3829
- fails (local/global): 0/1601
- lns time: 0.006000
- lns branches: 22
- lns fails: 0
LNS iteration #22 ========================================
- worst case average CPI: 1.185
- worst case efficiency: 0.735
- efficiency to beat: 0.735
- normalized lower bound 2339
--- checking solution
--- solution ok! Maximum rounding error: 0.000051
- solution found, obj var is: 4025
- de-normalized obj var: 0.841500
- time (local/global): 0.000/0.201
- branches (local/global): 22/3851
- fails (local/global): 0/1601
- lns time: 0.006000
- lns branches: 22
- lns fails: 0
LNS iteration #23 ========================================
- worst case average CPI: 1.185
- worst case efficiency: 0.738
- efficiency to beat: 0.738
- normalized lower bound 2376
--- checking solution
--- solution ok! Maximum rounding error: 0.000087
- solution found, obj var is: 2431
- de-normalized obj var: 0.745860
- time (local/global): 0.000/0.207
- branches (local/global): 23/3874
- fails (local/global): 1/1602
- lns time: 0.006000
- lns branches: 23
- lns fails: 1
LNS iteration #24 ========================================
- worst case average CPI: 1.185
- worst case efficiency: 0.739
- efficiency to beat: 0.739
- normalized lower bound 2397
--- checking solution
--- solution ok! Maximum rounding error: 0.000067
- solution found, obj var is: 2412
- de-normalized obj var: 0.744720
- time (local/global): 0.003/0.216
- branches (local/global): 240/4114
- fails (local/global): 103/1705
- lns time: 0.009000
- lns branches: 240
- lns fails: 103
LNS iteration #25 ========================================
- worst case average CPI: 1.185
- worst case efficiency: 0.740
- efficiency to beat: 0.740
- normalized lower bound 2415
--- checking solution
--- solution ok! Maximum rounding error: 0.000021
- solution found, obj var is: 2464
- de-normalized obj var: 0.747840
- time (local/global): 0.001/0.223
- branches (local/global): 45/4159
- fails (local/global): 14/1719
- lns time: 0.007000
- lns branches: 45
- lns fails: 14
LNS iteration #26 ========================================
- worst case average CPI: 1.185
- worst case efficiency: 0.742
- efficiency to beat: 0.742
- normalized lower bound 2451
--- checking solution
--- solution ok! Maximum rounding error: 0.000069
- solution found, obj var is: 2563
- de-normalized obj var: 0.753780
- time (local/global): 0.010/0.239
- branches (local/global): 319/4478
- fails (local/global): 142/1861
- lns time: 0.017000
- lns branches: 319
- lns fails: 142
LNS iteration #27 ========================================
- worst case average CPI: 1.185
- worst case efficiency: 0.745
- efficiency to beat: 0.745
- normalized lower bound 2499
--- checking solution
--- solution ok! Maximum rounding error: 0.000113
- solution found, obj var is: 3170
- de-normalized obj var: 0.790200
- time (local/global): 0.001/0.247
- branches (local/global): 56/4534
- fails (local/global): 20/1881
- lns time: 0.006000
- lns branches: 56
- lns fails: 20
LNS iteration #28 ========================================
- worst case average CPI: 1.185
- worst case efficiency: 0.747
- efficiency to beat: 0.747
- normalized lower bound 2529
--- checking solution
--- solution ok! Maximum rounding error: 0.000011
- solution found, obj var is: 2815
- de-normalized obj var: 0.768900
- time (local/global): 0.000/0.252
- branches (local/global): 20/4554
- fails (local/global): 0/1881
- lns time: 0.007000
- lns branches: 20
- lns fails: 0
LNS iteration #29 ========================================
- worst case average CPI: 1.185
- worst case efficiency: 0.748
- efficiency to beat: 0.748
- normalized lower bound 2547
--- checking solution
--- solution ok! Maximum rounding error: 0.000066
- solution found, obj var is: 2564
- de-normalized obj var: 0.753840
- time (local/global): 0.002/0.261
- branches (local/global): 112/4666
- fails (local/global): 47/1928
- lns time: 0.011000
- lns branches: 112
- lns fails: 47
LNS iteration #30 ========================================
- worst case average CPI: 1.185
- worst case efficiency: 0.749
- efficiency to beat: 0.749
- normalized lower bound 2560
--- checking solution
--- solution ok! Maximum rounding error: 0.000000
- solution found, obj var is: 2673
- de-normalized obj var: 0.760380
- time (local/global): 0.000/0.270
- branches (local/global): 21/4687
- fails (local/global): 0/1928
- lns time: 0.006000
- lns branches: 21
- lns fails: 0
LNS iteration #31 ========================================
- worst case average CPI: 1.185
- worst case efficiency: 0.750
- efficiency to beat: 0.750
- normalized lower bound 2592
--- checking solution
--- solution ok! Maximum rounding error: 0.000041
- solution found, obj var is: 2860
- de-normalized obj var: 0.771600
- time (local/global): 0.060/0.336
- branches (local/global): 2537/7224
- fails (local/global): 1201/3129
- lns time: 0.067000
- lns branches: 2537
- lns fails: 1201
LNS iteration #32 ========================================
- worst case average CPI: 1.185
- worst case efficiency: 0.751
- efficiency to beat: 0.751
- normalized lower bound 2594
--- checking solution
--- solution ok! Maximum rounding error: 0.000000
- solution found, obj var is: 2697
- de-normalized obj var: 0.761820
- time (local/global): 0.003/0.346
- branches (local/global): 245/7469
- fails (local/global): 104/3233
- lns time: 0.009000
- lns branches: 245
- lns fails: 104
LNS iteration #33 ========================================
- worst case average CPI: 1.185
- worst case efficiency: 0.754
- efficiency to beat: 0.754
- normalized lower bound 2646
--- checking solution
--- solution ok! Maximum rounding error: 0.000000
- solution found, obj var is: 2692
- de-normalized obj var: 0.761520
- time (local/global): 0.046/0.398
- branches (local/global): 3901/11370
- fails (local/global): 1836/5069
- lns time: 0.052000
- lns branches: 3901
- lns fails: 1836
LNS iteration #34 ========================================
- worst case average CPI: 1.185
- worst case efficiency: 0.756
- efficiency to beat: 0.756
- normalized lower bound 2679
--- checking solution
--- solution ok! Maximum rounding error: 0.000014
- solution found, obj var is: 2759
- de-normalized obj var: 0.765540
- time (local/global): 0.030/0.434
- branches (local/global): 1728/13098
- fails (local/global): 804/5873
- lns time: 0.036000
- lns branches: 1728
- lns fails: 804
LNS iteration #35 ========================================
- worst case average CPI: 1.185
- worst case efficiency: 0.759
- efficiency to beat: 0.759
- normalized lower bound 2740
--- checking solution
--- solution ok! Maximum rounding error: 0.000146
- solution found, obj var is: 2800
- de-normalized obj var: 0.768000
- time (local/global): 0.127/0.567
- branches (local/global): 7786/20884
- fails (local/global): 3734/9607
- lns time: 0.133000
- lns branches: 7786
- lns fails: 3734
LNS iteration #36 ========================================
- worst case average CPI: 1.185
- worst case efficiency: 0.760
- efficiency to beat: 0.760
- normalized lower bound 2745
--- checking solution
--- solution ok! Maximum rounding error: 0.000041
- solution found, obj var is: 2911
- de-normalized obj var: 0.774660
- time (local/global): 0.000/0.573
- branches (local/global): 21/20905
- fails (local/global): 0/9607
- lns time: 0.006000
- lns branches: 21
- lns fails: 0
LNS iteration #37 ========================================
- worst case average CPI: 1.185
- worst case efficiency: 0.757
- efficiency to beat: 0.757
- normalized lower bound 2708
--- checking solution
--- solution ok! Maximum rounding error: 0.000052
- solution found, obj var is: 3197
- de-normalized obj var: 0.791820
- time (local/global): 0.000/0.579
- branches (local/global): 21/20926
- fails (local/global): 0/9607
- lns time: 0.006000
- lns branches: 21
- lns fails: 0
LNS iteration #38 ========================================
- worst case average CPI: 1.185
- worst case efficiency: 0.760
- efficiency to beat: 0.760
- normalized lower bound 2758
--- checking solution
--- solution ok! Maximum rounding error: 0.000076
- solution found, obj var is: 2843
- de-normalized obj var: 0.770580
- time (local/global): 0.005/0.590
- branches (local/global): 344/21270
- fails (local/global): 153/9760
- lns time: 0.011000
- lns branches: 344
- lns fails: 153
LNS iteration #39 ========================================
- worst case average CPI: 1.185
- worst case efficiency: 0.762
- efficiency to beat: 0.762
- normalized lower bound 2781
--- checking solution
--- solution ok! Maximum rounding error: 0.000104
- solution found, obj var is: 2827
- de-normalized obj var: 0.769620
- time (local/global): 0.009/0.605
- branches (local/global): 459/21729
- fails (local/global): 204/9964
- lns time: 0.015000
- lns branches: 459
- lns fails: 204
LNS iteration #40 ========================================
- worst case average CPI: 1.185
- worst case efficiency: 0.767
- efficiency to beat: 0.767
- normalized lower bound 2864
--- checking solution
--- solution ok! Maximum rounding error: 0.000019
- solution found, obj var is: 2880
- de-normalized obj var: 0.772800
- time (local/global): 0.001/0.612
- branches (local/global): 74/21803
- fails (local/global): 27/9991
- lns time: 0.007000
- lns branches: 74
- lns fails: 27
LNS iteration #41 ========================================
- worst case average CPI: 1.185
- worst case efficiency: 0.768
- efficiency to beat: 0.768
- normalized lower bound 2879
--- checking solution
--- solution ok! Maximum rounding error: 0.000000
- solution found, obj var is: 3673
- de-normalized obj var: 0.820380
- time (local/global): 0.000/0.618
- branches (local/global): 26/21829
- fails (local/global): 2/9993
- lns time: 0.006000
- lns branches: 26
- lns fails: 2
LNS iteration #42 ========================================
- worst case average CPI: 1.185
- worst case efficiency: 0.768
- efficiency to beat: 0.768
- normalized lower bound 2886
--- checking solution
--- solution ok! Maximum rounding error: 0.000052
- solution found, obj var is: 2913
- de-normalized obj var: 0.774780
- time (local/global): 0.000/0.624
- branches (local/global): 15/21844
- fails (local/global): 1/9994
- lns time: 0.005000
- lns branches: 15
- lns fails: 1
LNS iteration #43 ========================================
- worst case average CPI: 1.185
- worst case efficiency: 0.770
- efficiency to beat: 0.770
- normalized lower bound 2922
--- checking solution
--- solution ok! Maximum rounding error: 0.000005
- solution found, obj var is: 2939
- de-normalized obj var: 0.776340
- time (local/global): 0.017/0.646
- branches (local/global): 861/22705
- fails (local/global): 401/10395
- lns time: 0.023000
- lns branches: 861
- lns fails: 401
LNS iteration #44 ========================================
- worst case average CPI: 1.185
- worst case efficiency: 0.771
- efficiency to beat: 0.771
- normalized lower bound 2928
--- checking solution
--- solution ok! Maximum rounding error: 0.000121
- solution found, obj var is: 3038
- de-normalized obj var: 0.782280
- time (local/global): 0.005/0.657
- branches (local/global): 242/22947
- fails (local/global): 103/10498
- lns time: 0.011000
- lns branches: 242
- lns fails: 103
LNS iteration #45 ========================================
- worst case average CPI: 1.185
- worst case efficiency: 0.772
- efficiency to beat: 0.772
- normalized lower bound 2951
--- checking solution
--- solution ok! Maximum rounding error: 0.000001
- solution found, obj var is: 2995
- de-normalized obj var: 0.779700
- time (local/global): 0.203/0.866
- branches (local/global): 11440/34387
- fails (local/global): 5502/16000
- lns time: 0.210000
- lns branches: 11440
- lns fails: 5502
LNS iteration #46 ========================================
- worst case average CPI: 1.185
- worst case efficiency: 0.772
- efficiency to beat: 0.772
- normalized lower bound 2957
--- checking solution
--- solution ok! Maximum rounding error: 0.000040
- solution found, obj var is: 2972
- de-normalized obj var: 0.778320
- time (local/global): 0.002/0.875
- branches (local/global): 240/34627
- fails (local/global): 102/16102
- lns time: 0.008000
- lns branches: 240
- lns fails: 102
LNS iteration #47 ========================================
- worst case average CPI: 1.185
- worst case efficiency: 0.773
- efficiency to beat: 0.773
- normalized lower bound 2972
--- checking solution
--- solution ok! Maximum rounding error: 0.000044
- solution found, obj var is: 3352
- de-normalized obj var: 0.801120
- time (local/global): 0.008/0.889
- branches (local/global): 479/35106
- fails (local/global): 216/16318
- lns time: 0.014000
- lns branches: 479
- lns fails: 216
LNS iteration #48 ========================================
- worst case average CPI: 1.185
- worst case efficiency: 0.773
- efficiency to beat: 0.773
- normalized lower bound 2974
--- checking solution
--- solution ok! Maximum rounding error: 0.000072
- solution found, obj var is: 3368
- de-normalized obj var: 0.802080
- time (local/global): 0.046/0.941
- branches (local/global): 2529/37635
- fails (local/global): 1200/17518
- lns time: 0.052000
- lns branches: 2529
- lns fails: 1200
LNS iteration #49 ========================================
- worst case average CPI: 1.185
- worst case efficiency: 0.775
- efficiency to beat: 0.775
- normalized lower bound 3002
--- checking solution
--- solution ok! Maximum rounding error: 0.000054
- solution found, obj var is: 3272
- de-normalized obj var: 0.796320
- time (local/global): 0.001/0.948
- branches (local/global): 22/37657
- fails (local/global): 0/17518
- lns time: 0.007000
- lns branches: 22
- lns fails: 0
LNS iteration #50 ========================================
- worst case average CPI: 1.185
- worst case efficiency: 0.777
- efficiency to beat: 0.777
- normalized lower bound 3030
--- checking solution
--- solution ok! Maximum rounding error: 0.000029
- solution found, obj var is: 3058
- de-normalized obj var: 0.783480
- time (local/global): 0.001/0.955
- branches (local/global): 81/37738
- fails (local/global): 30/17548
- lns time: 0.007000
- lns branches: 81
- lns fails: 30
LNS iteration #51 ========================================
- worst case average CPI: 1.185
- worst case efficiency: 0.778
- efficiency to beat: 0.778
- normalized lower bound 3050
--- checking solution
--- solution ok! Maximum rounding error: 0.000000
- solution found, obj var is: 3096
- de-normalized obj var: 0.785760
- time (local/global): 0.022/0.983
- branches (local/global): 1332/39070
- fails (local/global): 618/18166
- lns time: 0.028000
- lns branches: 1332
- lns fails: 618
LNS iteration #52 ========================================
- worst case average CPI: 1.185
- worst case efficiency: 0.778
- efficiency to beat: 0.778
- normalized lower bound 3054
--- checking solution
--- solution ok! Maximum rounding error: 0.000029
- solution found, obj var is: 3286
- de-normalized obj var: 0.797160
- time (local/global): 0.001/0.990
- branches (local/global): 60/39130
- fails (local/global): 19/18185
- lns time: 0.007000
- lns branches: 60
- lns fails: 19
LNS iteration #53 ========================================
- worst case average CPI: 1.431
- worst case efficiency: 0.782
- efficiency to beat: 0.782
- normalized lower bound 3120
--- checking solution
--- solution ok! Maximum rounding error: 0.000043
- solution found, obj var is: 3288
- de-normalized obj var: 0.797280
- time (local/global): 0.215/1.211
- branches (local/global): 11691/50821
- fails (local/global): 5606/23791
- lns time: 0.221000
- lns branches: 11691
- lns fails: 5606
LNS iteration #54 ========================================
- worst case average CPI: 1.431
- worst case efficiency: 0.782
- efficiency to beat: 0.782
- normalized lower bound 3125
--- checking solution
--- solution ok! Maximum rounding error: 0.000053
- solution found, obj var is: 3285
- de-normalized obj var: 0.797100
- time (local/global): 0.001/1.218
- branches (local/global): 63/50884
- fails (local/global): 23/23814
- lns time: 0.008000
- lns branches: 63
- lns fails: 23
LNS iteration #55 ========================================
- worst case average CPI: 1.431
- worst case efficiency: 0.783
- efficiency to beat: 0.783
- normalized lower bound 3134
--- checking solution
--- solution ok! Maximum rounding error: 0.000028
- solution found, obj var is: 3151
- de-normalized obj var: 0.789060
- time (local/global): 0.001/1.226
- branches (local/global): 26/50910
- fails (local/global): 6/23820
- lns time: 0.006000
- lns branches: 26
- lns fails: 6
LNS iteration #56 ========================================
- worst case average CPI: 1.431
- worst case efficiency: 0.788
- efficiency to beat: 0.788
- normalized lower bound 3225
--- checking solution
--- solution ok! Maximum rounding error: 0.000021
- solution found, obj var is: 3336
- de-normalized obj var: 0.800160
- time (local/global): 0.011/1.242
- branches (local/global): 465/51375
- fails (local/global): 209/24029
- lns time: 0.017000
- lns branches: 465
- lns fails: 209
LNS iteration #57 ========================================
- worst case average CPI: 1.431
- worst case efficiency: 0.789
- efficiency to beat: 0.789
- normalized lower bound 3232
--- checking solution
--- solution ok! Maximum rounding error: 0.000075
- solution found, obj var is: 3244
- de-normalized obj var: 0.794640
- time (local/global): 0.008/1.256
- branches (local/global): 577/51952
- fails (local/global): 264/24293
- lns time: 0.015000
- lns branches: 577
- lns fails: 264
LNS iteration #58 ========================================
- worst case average CPI: 1.431
- worst case efficiency: 0.789
- efficiency to beat: 0.789
- normalized lower bound 3241
--- checking solution
--- solution ok! Maximum rounding error: 0.000082
- solution found, obj var is: 3314
- de-normalized obj var: 0.798840
- time (local/global): 0.027/1.290
- branches (local/global): 1961/53913
- fails (local/global): 945/25238
- lns time: 0.032000
- lns branches: 1961
- lns fails: 945
LNS iteration #59 ========================================
- worst case average CPI: 1.272
- worst case efficiency: 0.791
- efficiency to beat: 0.791
- normalized lower bound 3266
--- checking solution
--- solution ok! Maximum rounding error: 0.000047
- solution found, obj var is: 3840
- de-normalized obj var: 0.830400
- time (local/global): 0.001/1.296
- branches (local/global): 118/54031
- fails (local/global): 49/25287
- lns time: 0.007000
- lns branches: 118
- lns fails: 49
LNS iteration #60 ========================================
- worst case average CPI: 1.272
- worst case efficiency: 0.793
- efficiency to beat: 0.793
- normalized lower bound 3309
--- checking solution
--- solution ok! Maximum rounding error: 0.000052
- solution found, obj var is: 3399
- de-normalized obj var: 0.803940
- time (local/global): 0.000/1.302
- branches (local/global): 22/54053
- fails (local/global): 0/25287
- lns time: 0.006000
- lns branches: 22
- lns fails: 0
LNS iteration #61 ========================================
- worst case average CPI: 1.272
- worst case efficiency: 0.791
- efficiency to beat: 0.791
- normalized lower bound 3270
--- checking solution
--- solution ok! Maximum rounding error: 0.000034
- solution found, obj var is: 3438
- de-normalized obj var: 0.806280
- time (local/global): 0.007/1.315
- branches (local/global): 290/54343
- fails (local/global): 128/25415
- lns time: 0.013000
- lns branches: 290
- lns fails: 128
LNS iteration #62 ========================================
- worst case average CPI: 1.272
- worst case efficiency: 0.795
- efficiency to beat: 0.795
- normalized lower bound 3336
--- checking solution
--- solution ok! Maximum rounding error: 0.000166
- solution found, obj var is: 3871
- de-normalized obj var: 0.832260
- time (local/global): 0.001/1.322
- branches (local/global): 64/54407
- fails (local/global): 22/25437
- lns time: 0.007000
- lns branches: 64
- lns fails: 22
LNS iteration #63 ========================================
- worst case average CPI: 1.272
- worst case efficiency: 0.798
- efficiency to beat: 0.798
- normalized lower bound 3385
--- checking solution
--- solution ok! Maximum rounding error: 0.000032
- solution found, obj var is: 3439
- de-normalized obj var: 0.806340
- time (local/global): 0.017/1.345
- branches (local/global): 837/55244
- fails (local/global): 401/25838
- lns time: 0.027000
- lns branches: 837
- lns fails: 401
LNS iteration #64 ========================================
- worst case average CPI: 1.272
- worst case efficiency: 0.798
- efficiency to beat: 0.798
- normalized lower bound 3390
--- checking solution
--- solution ok! Maximum rounding error: 0.000041
- solution found, obj var is: 3395
- de-normalized obj var: 0.803700
- time (local/global): 0.231/1.586
- branches (local/global): 17750/72994
- fails (local/global): 8718/34556
- lns time: 0.236000
- lns branches: 17750
- lns fails: 8718
LNS iteration #65 ========================================
- worst case average CPI: 1.400
- worst case efficiency: 0.799
- efficiency to beat: 0.799
- normalized lower bound 3404
--- checking solution
--- solution ok! Maximum rounding error: 0.000029
- solution found, obj var is: 3409
- de-normalized obj var: 0.804540
- time (local/global): 0.414/2.005
- branches (local/global): 19958/92952
- fails (local/global): 9670/44226
- lns time: 0.420000
- lns branches: 19958
- lns fails: 9670
LNS iteration #66 ========================================
- worst case average CPI: 1.410
- worst case efficiency: 0.799
- efficiency to beat: 0.799
- normalized lower bound 3405
--- checking solution
--- solution ok! Maximum rounding error: 0.000066
- solution found, obj var is: 3555
- de-normalized obj var: 0.813300
- time (local/global): 0.001/2.012
- branches (local/global): 31/92983
- fails (local/global): 5/44231
- lns time: 0.007000
- lns branches: 31
- lns fails: 5
LNS iteration #67 ========================================
- worst case average CPI: 1.410
- worst case efficiency: 0.795
- efficiency to beat: 0.795
- normalized lower bound 3339
--- checking solution
--- solution ok! Maximum rounding error: 0.000031
- solution found, obj var is: 3359
- de-normalized obj var: 0.801540
- time (local/global): 0.000/2.018
- branches (local/global): 20/93003
- fails (local/global): 1/44232
- lns time: 0.006000
- lns branches: 20
- lns fails: 1
LNS iteration #68 ========================================
- worst case average CPI: 1.410
- worst case efficiency: 0.800
- efficiency to beat: 0.800
- normalized lower bound 3414
--- checking solution
--- solution ok! Maximum rounding error: 0.000031
- solution found, obj var is: 3416
- de-normalized obj var: 0.804960
- time (local/global): 0.790/2.814
- branches (local/global): 43119/136122
- fails (local/global): 21000/65232
- lns time: 0.796000
- lns branches: 43119
- lns fails: 21000
LNS iteration #69 ========================================
- worst case average CPI: 1.410
- worst case efficiency: 0.802
- efficiency to beat: 0.802
- normalized lower bound 3444
--- checking solution
--- solution ok! Maximum rounding error: 0.000051
- solution found, obj var is: 3599
- de-normalized obj var: 0.815940
- time (local/global): 0.001/2.821
- branches (local/global): 20/136142
- fails (local/global): 1/65233
- lns time: 0.009000
- lns branches: 20
- lns fails: 1
LNS iteration #70 ========================================
- worst case average CPI: 1.410
- worst case efficiency: 0.802
- efficiency to beat: 0.802
- normalized lower bound 3447
--- checking solution
--- solution ok! Maximum rounding error: 0.000099
- solution found, obj var is: 3722
- de-normalized obj var: 0.823320
- time (local/global): 0.113/2.942
- branches (local/global): 8129/144271
- fails (local/global): 3899/69132
- lns time: 0.119000
- lns branches: 8129
- lns fails: 3899
LNS iteration #71 ========================================
- worst case average CPI: 1.200
- worst case efficiency: 0.802
- efficiency to beat: 0.802
- normalized lower bound 3443
--- checking solution
--- solution ok! Maximum rounding error: 0.000077
- solution found, obj var is: 3508
- de-normalized obj var: 0.810480
- time (local/global): 0.177/3.125
- branches (local/global): 9402/153673
- fails (local/global): 4516/73648
- lns time: 0.183000
- lns branches: 9402
- lns fails: 4516
LNS iteration #72 ========================================
- worst case average CPI: 1.410
- worst case efficiency: 0.803
- efficiency to beat: 0.803
- normalized lower bound 3474
--- checking solution
--- solution ok! Maximum rounding error: 0.000079
- solution found, obj var is: 4185
- de-normalized obj var: 0.851100
- time (local/global): 0.000/3.131
- branches (local/global): 22/153695
- fails (local/global): 0/73648
- lns time: 0.006000
- lns branches: 22
- lns fails: 0
LNS iteration #73 ========================================
- worst case average CPI: 1.416
- worst case efficiency: 0.805
- efficiency to beat: 0.805
- normalized lower bound 3495
--- checking solution
--- solution ok! Maximum rounding error: 0.000070
- solution found, obj var is: 3520
- de-normalized obj var: 0.811200
- time (local/global): 0.396/3.533
- branches (local/global): 21602/175297
- fails (local/global): 10464/84112
- lns time: 0.402000
- lns branches: 21602
- lns fails: 10464
LNS iteration #74 ========================================
- worst case average CPI: 1.416
- worst case efficiency: 0.805
- efficiency to beat: 0.805
- normalized lower bound 3497
--- checking solution
--- solution ok! Maximum rounding error: 0.000027
- solution found, obj var is: 3500
- de-normalized obj var: 0.810000
- time (local/global): 0.069/3.608
- branches (local/global): 3952/179249
- fails (local/global): 1880/85992
- lns time: 0.075000
- lns branches: 3952
- lns fails: 1880
LNS iteration #75 ========================================
- worst case average CPI: 1.416
- worst case efficiency: 0.805
- efficiency to beat: 0.805
- normalized lower bound 3498
--- checking solution
--- solution ok! Maximum rounding error: 0.000053
- solution found, obj var is: 3690
- de-normalized obj var: 0.821400
- time (local/global): 1.170/4.784
- branches (local/global): 52561/231810
- fails (local/global): 25601/111593
- lns time: 1.176000
- lns branches: 52561
- lns fails: 25601
LNS iteration #76 ========================================
- worst case average CPI: 1.416
- worst case efficiency: 0.805
- efficiency to beat: 0.805
- normalized lower bound 3504
--- checking solution
--- solution ok! Maximum rounding error: 0.000049
- solution found, obj var is: 3568
- de-normalized obj var: 0.814080
- time (local/global): 0.000/4.790
- branches (local/global): 21/231831
- fails (local/global): 0/111593
- lns time: 0.006000
- lns branches: 21
- lns fails: 0
LNS iteration #77 ========================================
- worst case average CPI: 1.416
- worst case efficiency: 0.808
- efficiency to beat: 0.808
- normalized lower bound 3549
--- checking solution
--- solution ok! Maximum rounding error: 0.000098
- solution found, obj var is: 3660
- de-normalized obj var: 0.819600
- time (local/global): 0.000/4.796
- branches (local/global): 22/231853
- fails (local/global): 0/111593
- lns time: 0.006000
- lns branches: 22
- lns fails: 0
LNS iteration #78 ========================================
- worst case average CPI: 1.193
- worst case efficiency: 0.810
- efficiency to beat: 0.810
- normalized lower bound 3585
--- checking solution
--- solution ok! Maximum rounding error: 0.000046
- solution found, obj var is: 3607
- de-normalized obj var: 0.816420
- time (local/global): 0.026/4.828
- branches (local/global): 1733/233586
- fails (local/global): 812/112405
- lns time: 0.032000
- lns branches: 1733
- lns fails: 812
LNS iteration #79 ========================================
- worst case average CPI: 1.193
- worst case efficiency: 0.811
- efficiency to beat: 0.811
- normalized lower bound 3595
--- checking solution
--- solution ok! Maximum rounding error: 0.000007
- solution found, obj var is: 3746
- de-normalized obj var: 0.824760
- time (local/global): 0.049/4.883
- branches (local/global): 3727/237313
- fails (local/global): 1767/114172
- lns time: 0.055000
- lns branches: 3727
- lns fails: 1767
LNS iteration #80 ========================================
- worst case average CPI: 0.789
- worst case efficiency: 0.812
- efficiency to beat: 0.812
- normalized lower bound 3612
--- checking solution
--- solution ok! Maximum rounding error: 0.000040
- solution found, obj var is: 3613
- de-normalized obj var: 0.816780
- time (local/global): 0.055/4.944
- branches (local/global): 2980/240293
- fails (local/global): 1409/115581
- lns time: 0.061000
- lns branches: 2980
- lns fails: 1409
LNS iteration #81 ========================================
- worst case average CPI: 0.789
- worst case efficiency: 0.814
- efficiency to beat: 0.814
- normalized lower bound 3647
--- checking solution
--- solution ok! Maximum rounding error: 0.000000
- solution found, obj var is: 3652
- de-normalized obj var: 0.819120
- time (local/global): 0.395/5.345
- branches (local/global): 14007/254300
- fails (local/global): 6809/122390
- lns time: 0.401000
- lns branches: 14007
- lns fails: 6809
LNS iteration #82 ========================================
- worst case average CPI: 0.789
- worst case efficiency: 0.814
- efficiency to beat: 0.814
- normalized lower bound 3653
--- checking solution
--- solution ok! Maximum rounding error: 0.000059
- solution found, obj var is: 3860
- de-normalized obj var: 0.831600
- time (local/global): 0.030/5.381
- branches (local/global): 1424/255724
- fails (local/global): 665/123055
- lns time: 0.037000
- lns branches: 1424
- lns fails: 665
LNS iteration #83 ========================================
- worst case average CPI: 0.789
- worst case efficiency: 0.816
- efficiency to beat: 0.816
- normalized lower bound 3680
--- checking solution
--- solution ok! Maximum rounding error: 0.000035
- solution found, obj var is: 3740
- de-normalized obj var: 0.824400
- time (local/global): 0.130/5.518
- branches (local/global): 8577/264301
- fails (local/global): 4125/127180
- lns time: 0.136000
- lns branches: 8577
- lns fails: 4125
LNS iteration #84 ========================================
- worst case average CPI: 0.789
- worst case efficiency: 0.816
- efficiency to beat: 0.816
- normalized lower bound 3690
--- checking solution
--- solution ok! Maximum rounding error: 0.000071
- solution found, obj var is: 3706
- de-normalized obj var: 0.822360
- time (local/global): 0.256/5.780
- branches (local/global): 17870/282171
- fails (local/global): 8663/135843
- lns time: 0.262000
- lns branches: 17870
- lns fails: 8663
LNS iteration #85 ========================================
- worst case average CPI: 0.789
- worst case efficiency: 0.817
- efficiency to beat: 0.817
- normalized lower bound 3699
--- checking solution
--- solution ok! Maximum rounding error: 0.000120
- solution found, obj var is: 3743
- de-normalized obj var: 0.824580
- time (local/global): 0.014/5.800
- branches (local/global): 959/283130
- fails (local/global): 459/136302
- lns time: 0.019000
- lns branches: 959
- lns fails: 459
LNS iteration #86 ========================================
- worst case average CPI: 0.789
- worst case efficiency: 0.820
- efficiency to beat: 0.820
- normalized lower bound 3749
--- checking solution
--- solution ok! Maximum rounding error: 0.000057
- solution found, obj var is: 3772
- de-normalized obj var: 0.826320
- time (local/global): 0.799/6.604
- branches (local/global): 47753/330883
- fails (local/global): 23224/159526
- lns time: 0.805000
- lns branches: 47753
- lns fails: 23224
LNS iteration #87 ========================================
- worst case average CPI: 0.789
- worst case efficiency: 0.820
- efficiency to beat: 0.820
- normalized lower bound 3750
--- checking solution
--- solution ok! Maximum rounding error: 0.000055
- solution found, obj var is: 3765
- de-normalized obj var: 0.825900
- time (local/global): 0.018/6.628
- branches (local/global): 873/331756
- fails (local/global): 405/159931
- lns time: 0.024000
- lns branches: 873
- lns fails: 405
LNS iteration #88 ========================================
- worst case average CPI: 0.789
- worst case efficiency: 0.821
- efficiency to beat: 0.821
- normalized lower bound 3773
--- checking solution
--- solution ok! Maximum rounding error: 0.000064
- solution found, obj var is: 3859
- de-normalized obj var: 0.831540
- time (local/global): 0.044/6.678
- branches (local/global): 2636/334392
- fails (local/global): 1260/161191
- lns time: 0.050000
- lns branches: 2636
- lns fails: 1260
LNS iteration #89 ========================================
- worst case average CPI: 0.789
- worst case efficiency: 0.822
- efficiency to beat: 0.822
- normalized lower bound 3777
--- checking solution
--- solution ok! Maximum rounding error: 0.000057
- solution found, obj var is: 3817
- de-normalized obj var: 0.829020
- time (local/global): 0.063/6.747
- branches (local/global): 3373/337765
- fails (local/global): 1607/162798
- lns time: 0.069000
- lns branches: 3373
- lns fails: 1607
LNS iteration #90 ========================================
- worst case average CPI: 0.789
- worst case efficiency: 0.822
- efficiency to beat: 0.822
- normalized lower bound 3789
--- checking solution
--- solution ok! Maximum rounding error: 0.000016
- solution found, obj var is: 3854
- de-normalized obj var: 0.831240
- time (local/global): 0.000/6.753
- branches (local/global): 29/337794
- fails (local/global): 4/162802
- lns time: 0.006000
- lns branches: 29
- lns fails: 4
LNS iteration #91 ========================================
- worst case average CPI: 0.789
- worst case efficiency: 0.822
- efficiency to beat: 0.822
- normalized lower bound 3790
--- checking solution
--- solution ok! Maximum rounding error: 0.000048
- solution found, obj var is: 3797
- de-normalized obj var: 0.827820
- time (local/global): 0.134/6.893
- branches (local/global): 9733/347527
- fails (local/global): 4671/167473
- lns time: 0.140000
- lns branches: 9733
- lns fails: 4671
LNS iteration #92 ========================================
- worst case average CPI: 0.789
- worst case efficiency: 0.823
- efficiency to beat: 0.823
- normalized lower bound 3795
--- checking solution
--- solution ok! Maximum rounding error: 0.000424
- solution found, obj var is: 3796
- de-normalized obj var: 0.827760
- time (local/global): 0.005/6.904
- branches (local/global): 330/347857
- fails (local/global): 150/167623
- lns time: 0.012000
- lns branches: 330
- lns fails: 150
LNS iteration #93 ========================================
- worst case average CPI: 0.789
- worst case efficiency: 0.824
- efficiency to beat: 0.824
- normalized lower bound 3813
--- checking solution
--- solution ok! Maximum rounding error: 0.000000
- solution found, obj var is: 3932
- de-normalized obj var: 0.835920
- time (local/global): 0.001/6.912
- branches (local/global): 97/347954
- fails (local/global): 39/167662
- lns time: 0.007000
- lns branches: 97
- lns fails: 39
LNS iteration #94 ========================================
- worst case average CPI: 0.789
- worst case efficiency: 0.825
- efficiency to beat: 0.825
- normalized lower bound 3835
- lns time: 3.006000
- lns branches: 167829
- lns fails: 82164
LNS iteration #95 ========================================
- worst case average CPI: 0.789
- worst case efficiency: 0.825
- efficiency to beat: 0.825
- normalized lower bound 3835
--- checking solution
--- solution ok! Maximum rounding error: 0.000087
- solution found, obj var is: 3877
- de-normalized obj var: 0.832620
- time (local/global): 0.001/9.925
- branches (local/global): 59/515842
- fails (local/global): 20/249846
- lns time: 0.007000
- lns branches: 59
- lns fails: 20
LNS iteration #96 ========================================
- worst case average CPI: 0.789
- worst case efficiency: 0.825
- efficiency to beat: 0.825
- normalized lower bound 3840
--- checking solution
--- solution ok! Maximum rounding error: 0.000083
- solution found, obj var is: 3942
- de-normalized obj var: 0.836520
- time (local/global): 0.040/9.971
- branches (local/global): 3731/519573
- fails (local/global): 1800/251646
- lns time: 0.045000
- lns branches: 3731
- lns fails: 1800
LNS iteration #97 ========================================
- worst case average CPI: 0.789
- worst case efficiency: 0.826
- efficiency to beat: 0.826
- normalized lower bound 3842
--- checking solution
--- solution ok! Maximum rounding error: 0.000049
- solution found, obj var is: 3953
- de-normalized obj var: 0.837180
- time (local/global): 0.009/9.985
- branches (local/global): 469/520042
- fails (local/global): 211/251857
- lns time: 0.015000
- lns branches: 469
- lns fails: 211
LNS iteration #98 ========================================
- worst case average CPI: 0.789
- worst case efficiency: 0.827
- efficiency to beat: 0.827
- normalized lower bound 3864
- lns time: 3.006000
- lns branches: 168658
- lns fails: 82628
LNS iteration #99 ========================================
- worst case average CPI: 0.789
- worst case efficiency: 0.827
- efficiency to beat: 0.827
- normalized lower bound 3864
--- checking solution
--- solution ok! Maximum rounding error: 0.000052
- solution found, obj var is: 3883
- de-normalized obj var: 0.832980
- time (local/global): 0.356/13.353
- branches (local/global): 18723/707423
- fails (local/global): 9092/343577
- lns time: 0.364000
- lns branches: 18723
- lns fails: 9092
LNS iteration #100 ========================================
- worst case average CPI: 0.789
- worst case efficiency: 0.827
- efficiency to beat: 0.827
- normalized lower bound 3864
- lns time: 3.006000
- lns branches: 148659
- lns fails: 72779
LNS iteration #101 ========================================
- worst case average CPI: 0.789
- worst case efficiency: 0.827
- efficiency to beat: 0.827
- normalized lower bound 3864
--- checking solution
--- solution ok! Maximum rounding error: 0.000000
- solution found, obj var is: 3979
- de-normalized obj var: 0.838740
- time (local/global): 0.223/16.590
- branches (local/global): 9354/865436
- fails (local/global): 4502/420858
- lns time: 0.231000
- lns branches: 9354
- lns fails: 4502
LNS iteration #102 ========================================
- worst case average CPI: 0.789
- worst case efficiency: 0.828
- efficiency to beat: 0.828
- normalized lower bound 3879
--- checking solution
--- solution ok! Maximum rounding error: 0.000007
- solution found, obj var is: 3981
- de-normalized obj var: 0.838860
- time (local/global): 0.112/16.710
- branches (local/global): 6756/872192
- fails (local/global): 3304/424162
- lns time: 0.117000
- lns branches: 6756
- lns fails: 3304
LNS iteration #103 ========================================
- worst case average CPI: 0.789
- worst case efficiency: 0.829
- efficiency to beat: 0.829
- normalized lower bound 3894
--- checking solution
--- solution ok! Maximum rounding error: 0.000022
- solution found, obj var is: 3922
- de-normalized obj var: 0.835320
- time (local/global): 0.005/16.720
- branches (local/global): 235/872427
- fails (local/global): 101/424263
- lns time: 0.011000
- lns branches: 235
- lns fails: 101
LNS iteration #104 ========================================
- worst case average CPI: 0.789
- worst case efficiency: 0.829
- efficiency to beat: 0.829
- normalized lower bound 3907
--- checking solution
--- solution ok! Maximum rounding error: 0.000088
- solution found, obj var is: 3908
- de-normalized obj var: 0.834480
- time (local/global): 0.241/16.967
- branches (local/global): 16850/889277
- fails (local/global): 8211/432474
- lns time: 0.247000
- lns branches: 16850
- lns fails: 8211
LNS iteration #105 ========================================
- worst case average CPI: 0.789
- worst case efficiency: 0.830
- efficiency to beat: 0.830
- normalized lower bound 3921
--- checking solution
--- solution ok! Maximum rounding error: 0.000067
- solution found, obj var is: 3933
- de-normalized obj var: 0.835980
- time (local/global): 1.007/17.980
- branches (local/global): 72047/961324
- fails (local/global): 35578/468052
- lns time: 1.012000
- lns branches: 72047
- lns fails: 35578
LNS iteration #106 ========================================
- worst case average CPI: 0.789
- worst case efficiency: 0.831
- efficiency to beat: 0.831
- normalized lower bound 3929
--- checking solution
--- solution ok! Maximum rounding error: 0.000083
- solution found, obj var is: 3935
- de-normalized obj var: 0.836100
- time (local/global): 0.003/17.988
- branches (local/global): 248/961572
- fails (local/global): 104/468156
- lns time: 0.009000
- lns branches: 248
- lns fails: 104
LNS iteration #107 ========================================
- worst case average CPI: 0.789
- worst case efficiency: 0.832
- efficiency to beat: 0.832
- normalized lower bound 3958
--- checking solution
--- solution ok! Maximum rounding error: 0.000154
- solution found, obj var is: 4013
- de-normalized obj var: 0.840780
- time (local/global): 0.652/18.646
- branches (local/global): 32058/993630
- fails (local/global): 15596/483752
- lns time: 0.658000
- lns branches: 32058
- lns fails: 15596
LNS iteration #108 ========================================
- worst case average CPI: 0.789
- worst case efficiency: 0.833
- efficiency to beat: 0.833
- normalized lower bound 3962
--- checking solution
--- solution ok! Maximum rounding error: 0.000064
- solution found, obj var is: 3963
- de-normalized obj var: 0.837780
- time (local/global): 0.059/18.711
- branches (local/global): 3198/996828
- fails (local/global): 1521/485273
- lns time: 0.065000
- lns branches: 3198
- lns fails: 1521
LNS iteration #109 ========================================
- worst case average CPI: 0.789
- worst case efficiency: 0.834
- efficiency to beat: 0.834
- normalized lower bound 3988
- lns time: 3.006000
- lns branches: 193666
- lns fails: 95042
LNS iteration #110 ========================================
- worst case average CPI: 0.789
- worst case efficiency: 0.834
- efficiency to beat: 0.834
- normalized lower bound 3988
--- checking solution
--- solution ok! Maximum rounding error: 0.000012
- solution found, obj var is: 4227
- de-normalized obj var: 0.853620
- time (local/global): 0.013/21.736
- branches (local/global): 866/1191360
- fails (local/global): 401/580716
- lns time: 0.019000
- lns branches: 866
- lns fails: 401
LNS iteration #111 ========================================
- worst case average CPI: 0.789
- worst case efficiency: 0.835
- efficiency to beat: 0.835
- normalized lower bound 3992
--- checking solution
--- solution ok! Maximum rounding error: 0.000029
- solution found, obj var is: 4029
- de-normalized obj var: 0.841740
- time (local/global): 1.014/22.756
- branches (local/global): 72854/1264214
- fails (local/global): 35474/616190
- lns time: 1.020000
- lns branches: 72854
- lns fails: 35474
LNS iteration #112 ========================================
- worst case average CPI: 0.789
- worst case efficiency: 0.835
- efficiency to beat: 0.835
- normalized lower bound 4004
--- checking solution
--- solution ok! Maximum rounding error: 0.000047
- solution found, obj var is: 4363
- de-normalized obj var: 0.861780
- time (local/global): 0.008/22.770
- branches (local/global): 522/1264736
- fails (local/global): 246/616436
- lns time: 0.015000
- lns branches: 522
- lns fails: 246
LNS iteration #113 ========================================
- worst case average CPI: 0.789
- worst case efficiency: 0.835
- efficiency to beat: 0.835
- normalized lower bound 4001
--- checking solution
--- solution ok! Maximum rounding error: 0.000006
- solution found, obj var is: 4014
- de-normalized obj var: 0.840840
- time (local/global): 0.594/23.371
- branches (local/global): 24487/1289223
- fails (local/global): 11902/628338
- lns time: 0.600000
- lns branches: 24487
- lns fails: 11902
LNS iteration #114 ========================================
- worst case average CPI: 0.789
- worst case efficiency: 0.836
- efficiency to beat: 0.836
- normalized lower bound 4017
--- checking solution
--- solution ok! Maximum rounding error: 0.000074
- solution found, obj var is: 4025
- de-normalized obj var: 0.841500
- time (local/global): 0.001/23.378
- branches (local/global): 25/1289248
- fails (local/global): 3/628341
- lns time: 0.007000
- lns branches: 25
- lns fails: 3
LNS iteration #115 ========================================
- worst case average CPI: 0.789
- worst case efficiency: 0.836
- efficiency to beat: 0.836
- normalized lower bound 4022
--- checking solution
--- solution ok! Maximum rounding error: 0.000061
- solution found, obj var is: 4023
- de-normalized obj var: 0.841380
- time (local/global): 0.005/23.389
- branches (local/global): 327/1289575
- fails (local/global): 146/628487
- lns time: 0.011000
- lns branches: 327
- lns fails: 146
LNS iteration #116 ========================================
- worst case average CPI: 0.789
- worst case efficiency: 0.835
- efficiency to beat: 0.835
- normalized lower bound 4003
--- checking solution
--- solution ok! Maximum rounding error: 0.000000
- solution found, obj var is: 4004
- de-normalized obj var: 0.840240
- time (local/global): 0.005/23.400
- branches (local/global): 254/1289829
- fails (local/global): 115/628602
- lns time: 0.015000
- lns branches: 254
- lns fails: 115
LNS iteration #117 ========================================
- worst case average CPI: 0.789
- worst case efficiency: 0.836
- efficiency to beat: 0.836
- normalized lower bound 4014
--- checking solution
--- solution ok! Maximum rounding error: 0.000049
- solution found, obj var is: 4046
- de-normalized obj var: 0.842760
- time (local/global): 0.464/23.874
- branches (local/global): 22712/1312541
- fails (local/global): 11036/639638
- lns time: 0.470000
- lns branches: 22712
- lns fails: 11036
LNS iteration #118 ========================================
- worst case average CPI: 0.789
- worst case efficiency: 0.836
- efficiency to beat: 0.836
- normalized lower bound 4011
--- checking solution
--- solution ok! Maximum rounding error: 0.000046
- solution found, obj var is: 4012
- de-normalized obj var: 0.840720
- time (local/global): 0.329/24.209
- branches (local/global): 19847/1332388
- fails (local/global): 9634/649272
- lns time: 0.338000
- lns branches: 19847
- lns fails: 9634
LNS iteration #119 ========================================
- worst case average CPI: 0.789
- worst case efficiency: 0.837
- efficiency to beat: 0.837
- normalized lower bound 4040
--- checking solution
--- solution ok! Maximum rounding error: 0.000027
- solution found, obj var is: 4083
- de-normalized obj var: 0.844980
- time (local/global): 0.454/24.672
- branches (local/global): 27398/1359786
- fails (local/global): 13313/662585
- lns time: 0.460000
- lns branches: 27398
- lns fails: 13313
LNS iteration #120 ========================================
- worst case average CPI: 0.789
- worst case efficiency: 0.838
- efficiency to beat: 0.838
- normalized lower bound 4043
--- checking solution
--- solution ok! Maximum rounding error: 0.000045
- solution found, obj var is: 4266
- de-normalized obj var: 0.855960
- time (local/global): 0.012/24.690
- branches (local/global): 586/1360372
- fails (local/global): 269/662854
- lns time: 0.018000
- lns branches: 586
- lns fails: 269
LNS iteration #121 ========================================
- worst case average CPI: 0.714
- worst case efficiency: 0.839
- efficiency to beat: 0.839
- normalized lower bound 4068
- lns time: 3.006000
- lns branches: 178980
- lns fails: 87842
LNS iteration #122 ========================================
- worst case average CPI: 0.714
- worst case efficiency: 0.839
- efficiency to beat: 0.839
- normalized lower bound 4068
--- checking solution
--- solution ok! Maximum rounding error: 0.000039
- solution found, obj var is: 4122
- de-normalized obj var: 0.847320
- time (local/global): 1.472/29.174
- branches (local/global): 114689/1654041
- fails (local/global): 55972/806668
- lns time: 1.478000
- lns branches: 114689
- lns fails: 55972
LNS iteration #123 ========================================
- worst case average CPI: 0.600
- worst case efficiency: 0.840
- efficiency to beat: 0.840
- normalized lower bound 4077
- lns time: 3.006000
- lns branches: 211462
- lns fails: 104044
LNS iteration #124 ========================================
- worst case average CPI: 0.600
- worst case efficiency: 0.840
- efficiency to beat: 0.840
- normalized lower bound 4077
--- checking solution
--- solution ok! Maximum rounding error: 0.000046
- solution found, obj var is: 4121
- de-normalized obj var: 0.847260
- time (local/global): 0.586/32.772
- branches (local/global): 32934/1898437
- fails (local/global): 16010/926722
- lns time: 0.592000
- lns branches: 32934
- lns fails: 16010
LNS iteration #125 ========================================
- worst case average CPI: 0.714
- worst case efficiency: 0.840
- efficiency to beat: 0.840
- normalized lower bound 4083
--- checking solution
--- solution ok! Maximum rounding error: 0.000000
- solution found, obj var is: 4129
- de-normalized obj var: 0.847740
- time (local/global): 1.024/33.802
- branches (local/global): 46608/1945045
- fails (local/global): 22711/949433
- lns time: 1.030000
- lns branches: 46608
- lns fails: 22711
LNS iteration #126 ========================================
- worst case average CPI: 0.714
- worst case efficiency: 0.841
- efficiency to beat: 0.841
- normalized lower bound 4096
--- checking solution
--- solution ok! Maximum rounding error: 0.000054
- solution found, obj var is: 4111
- de-normalized obj var: 0.846660
- time (local/global): 1.811/35.619
- branches (local/global): 105672/2050717
- fails (local/global): 51805/1001238
- lns time: 1.817000
- lns branches: 105672
- lns fails: 51805
LNS iteration #127 ========================================
- worst case average CPI: 0.714
- worst case efficiency: 0.841
- efficiency to beat: 0.841
- normalized lower bound 4106
--- checking solution
--- solution ok! Maximum rounding error: 0.000051
- solution found, obj var is: 4597
- de-normalized obj var: 0.875820
- time (local/global): 0.089/35.714
- branches (local/global): 3066/2053783
- fails (local/global): 1456/1002694
- lns time: 0.095000
- lns branches: 3066
- lns fails: 1456
LNS iteration #128 ========================================
- worst case average CPI: 0.714
- worst case efficiency: 0.842
- efficiency to beat: 0.842
- normalized lower bound 4109
--- checking solution
--- solution ok! Maximum rounding error: 0.000049
- solution found, obj var is: 4168
- de-normalized obj var: 0.850080
- time (local/global): 0.160/35.880
- branches (local/global): 9383/2063166
- fails (local/global): 4500/1007194
- lns time: 0.166000
- lns branches: 9383
- lns fails: 4500
LNS iteration #129 ========================================
- worst case average CPI: 0.714
- worst case efficiency: 0.842
- efficiency to beat: 0.842
- normalized lower bound 4118
--- checking solution
--- solution ok! Maximum rounding error: 0.000038
- solution found, obj var is: 4212
- de-normalized obj var: 0.852720
- time (local/global): 0.518/36.404
- branches (local/global): 26700/2089866
- fails (local/global): 12976/1020170
- lns time: 0.524000
- lns branches: 26700
- lns fails: 12976
LNS iteration #130 ========================================
- worst case average CPI: 0.714
- worst case efficiency: 0.843
- efficiency to beat: 0.843
- normalized lower bound 4140
- lns time: 3.006000
- lns branches: 206187
- lns fails: 101244
LNS iteration #131 ========================================
- worst case average CPI: 0.714
- worst case efficiency: 0.843
- efficiency to beat: 0.843
- normalized lower bound 4140
--- checking solution
--- solution ok! Maximum rounding error: 0.000021
- solution found, obj var is: 4249
- de-normalized obj var: 0.854940
- time (local/global): 1.611/41.027
- branches (local/global): 100521/2396574
- fails (local/global): 49202/1170616
- lns time: 1.617000
- lns branches: 100521
- lns fails: 49202
LNS iteration #132 ========================================
- worst case average CPI: 0.714
- worst case efficiency: 0.844
- efficiency to beat: 0.844
- normalized lower bound 4145
- lns time: 3.006000
- lns branches: 144429
- lns fails: 70947
LNS iteration #133 ========================================
- worst case average CPI: 0.714
- worst case efficiency: 0.844
- efficiency to beat: 0.844
- normalized lower bound 4145
--- checking solution
--- solution ok! Maximum rounding error: 0.000324
- solution found, obj var is: 4169
- de-normalized obj var: 0.850140
- time (local/global): 2.420/46.459
- branches (local/global): 155938/2696941
- fails (local/global): 76391/1317954
- lns time: 2.426000
- lns branches: 155938
- lns fails: 76391
LNS iteration #134 ========================================
- worst case average CPI: 0.714
- worst case efficiency: 0.845
- efficiency to beat: 0.845
- normalized lower bound 4164
--- checking solution
--- solution ok! Maximum rounding error: 0.000157
- solution found, obj var is: 4238
- de-normalized obj var: 0.854280
- time (local/global): 0.066/46.531
- branches (local/global): 4149/2701090
- fails (local/global): 1975/1319929
- lns time: 0.072000
- lns branches: 4149
- lns fails: 1975
LNS iteration #135 ========================================
- worst case average CPI: 0.714
- worst case efficiency: 0.844
- efficiency to beat: 0.844
- normalized lower bound 4156
--- checking solution
--- solution ok! Maximum rounding error: 0.000000
- solution found, obj var is: 4162
- de-normalized obj var: 0.849720
- time (local/global): 1.595/48.132
- branches (local/global): 99758/2800848
- fails (local/global): 48965/1368894
- lns time: 1.601000
- lns branches: 99758
- lns fails: 48965
LNS iteration #136 ========================================
- worst case average CPI: 0.714
- worst case efficiency: 0.845
- efficiency to beat: 0.845
- normalized lower bound 4165
--- checking solution
--- solution ok! Maximum rounding error: 0.000026
- solution found, obj var is: 4165
- de-normalized obj var: 0.849900
- time (local/global): 0.800/48.938
- branches (local/global): 63304/2864152
- fails (local/global): 31199/1400093
- lns time: 0.805000
- lns branches: 63304
- lns fails: 31199
LNS iteration #137 ========================================
- worst case average CPI: 0.714
- worst case efficiency: 0.843
- efficiency to beat: 0.843
- normalized lower bound 4136
--- checking solution
--- solution ok! Maximum rounding error: 0.000067
- solution found, obj var is: 4164
- de-normalized obj var: 0.849840
- time (local/global): 0.009/48.952
- branches (local/global): 460/2864612
- fails (local/global): 203/1400296
- lns time: 0.015000
- lns branches: 460
- lns fails: 203
LNS iteration #138 ========================================
- worst case average CPI: 0.714
- worst case efficiency: 0.846
- efficiency to beat: 0.846
- normalized lower bound 4181
- lns time: 3.006000
- lns branches: 102389
- lns fails: 50136
LNS iteration #139 ========================================
- worst case average CPI: 0.714
- worst case efficiency: 0.846
- efficiency to beat: 0.846
- normalized lower bound 4181
- lns time: 3.006000
- lns branches: 200470
- lns fails: 98501
LNS iteration #140 ========================================
- worst case average CPI: 0.714
- worst case efficiency: 0.846
- efficiency to beat: 0.846
- normalized lower bound 4181
--- checking solution
--- solution ok! Maximum rounding error: 0.000018
- solution found, obj var is: 4215
- de-normalized obj var: 0.852900
- time (local/global): 0.004/54.974
- branches (local/global): 455/3167926
- fails (local/global): 210/1549143
- lns time: 0.009000
- lns branches: 455
- lns fails: 210
LNS iteration #141 ========================================
- worst case average CPI: 0.714
- worst case efficiency: 0.846
- efficiency to beat: 0.846
- normalized lower bound 4183
--- checking solution
--- solution ok! Maximum rounding error: 0.000404
- solution found, obj var is: 4185
- de-normalized obj var: 0.851100
- time (local/global): 2.921/57.900
- branches (local/global): 215629/3383555
- fails (local/global): 105779/1654922
- lns time: 2.927000
- lns branches: 215629
- lns fails: 105779
LNS iteration #142 ========================================
- worst case average CPI: 0.517
- worst case efficiency: 0.846
- efficiency to beat: 0.846
- normalized lower bound 4185
--- checking solution
--- solution ok! Maximum rounding error: 0.000018
- solution found, obj var is: 4209
- de-normalized obj var: 0.852540
- time (local/global): 0.052/57.958
- branches (local/global): 2837/3386392
- fails (local/global): 1371/1656293
- lns time: 0.057000
- lns branches: 2837
- lns fails: 1371
LNS iteration #143 ========================================
- worst case average CPI: 0.517
- worst case efficiency: 0.846
- efficiency to beat: 0.846
- normalized lower bound 4185
--- checking solution
--- solution ok! Maximum rounding error: 0.000006
- solution found, obj var is: 4200
- de-normalized obj var: 0.852000
- time (local/global): 0.280/58.243
- branches (local/global): 18155/3404547
- fails (local/global): 8811/1665104
- lns time: 0.286000
- lns branches: 18155
- lns fails: 8811
LNS iteration #144 ========================================
- worst case average CPI: 0.517
- worst case efficiency: 0.846
- efficiency to beat: 0.846
- normalized lower bound 4190
- lns time: 3.006000
- lns branches: 143352
- lns fails: 70253
LNS iteration #145 ========================================
- worst case average CPI: 0.517
- worst case efficiency: 0.846
- efficiency to beat: 0.846
- normalized lower bound 4190
- lns time: 3.007000
- lns branches: 136714
- lns fails: 66975
LNS iteration #146 ========================================
- worst case average CPI: 0.517
- worst case efficiency: 0.846
- efficiency to beat: 0.846
- normalized lower bound 4190
- lns time: 3.006000
- lns branches: 132454
- lns fails: 64828
LNS iteration #147 ========================================
- worst case average CPI: 0.517
- worst case efficiency: 0.846
- efficiency to beat: 0.846
- normalized lower bound 4190
--- checking solution
--- solution ok! Maximum rounding error: 0.000307
- solution found, obj var is: 4300
- de-normalized obj var: 0.858000
- time (local/global): 0.050/67.318
- branches (local/global): 2467/3819534
- fails (local/global): 1177/1868337
- lns time: 0.056000
- lns branches: 2467
- lns fails: 1177
LNS iteration #148 ========================================
- worst case average CPI: 0.517
- worst case efficiency: 0.847
- efficiency to beat: 0.847
- normalized lower bound 4207
- lns time: 3.006000
- lns branches: 109920
- lns fails: 53900
LNS iteration #149 ========================================
- worst case average CPI: 0.517
- worst case efficiency: 0.847
- efficiency to beat: 0.847
- normalized lower bound 4207
--- checking solution
--- solution ok! Maximum rounding error: 0.000093
- solution found, obj var is: 4210
- de-normalized obj var: 0.852600
- time (local/global): 0.028/70.358
- branches (local/global): 1324/3930778
- fails (local/global): 619/1922856
- lns time: 0.034000
- lns branches: 1324
- lns fails: 619
LNS iteration #150 ========================================
- worst case average CPI: 0.517
- worst case efficiency: 0.849
- efficiency to beat: 0.849
- normalized lower bound 4238
- lns time: 3.006000
- lns branches: 173495
- lns fails: 84979
LNS iteration #151 ========================================
- worst case average CPI: 0.517
- worst case efficiency: 0.849
- efficiency to beat: 0.849
- normalized lower bound 4238
--- checking solution
--- solution ok! Maximum rounding error: 0.000043
- solution found, obj var is: 4255
- de-normalized obj var: 0.855300
- time (local/global): 2.230/75.600
- branches (local/global): 112998/4217271
- fails (local/global): 55216/2063051
- lns time: 2.236000
- lns branches: 112998
- lns fails: 55216
LNS iteration #152 ========================================
- worst case average CPI: 0.517
- worst case efficiency: 0.850
- efficiency to beat: 0.850
- normalized lower bound 4254
--- checking solution
--- solution ok! Maximum rounding error: 0.000075
- solution found, obj var is: 4254
- de-normalized obj var: 0.855240
- time (local/global): 0.405/76.011
- branches (local/global): 21668/4238939
- fails (local/global): 10488/2073539
- lns time: 0.411000
- lns branches: 21668
- lns fails: 10488
LNS iteration #153 ========================================
- worst case average CPI: 0.517
- worst case efficiency: 0.850
- efficiency to beat: 0.850
- normalized lower bound 4257
- lns time: 3.006000
- lns branches: 188977
- lns fails: 92741
LNS iteration #154 ========================================
- worst case average CPI: 0.517
- worst case efficiency: 0.850
- efficiency to beat: 0.850
- normalized lower bound 4257
- lns time: 3.006000
- lns branches: 199481
- lns fails: 97964
LNS iteration #155 ========================================
- worst case average CPI: 0.517
- worst case efficiency: 0.850
- efficiency to beat: 0.850
- normalized lower bound 4257
--- checking solution
--- solution ok! Maximum rounding error: 0.000000
- solution found, obj var is: 4365
- de-normalized obj var: 0.861900
- time (local/global): 0.568/82.597
- branches (local/global): 28891/4656288
- fails (local/global): 13978/2278222
- lns time: 0.574000
- lns branches: 28891
- lns fails: 13978
LNS iteration #156 ========================================
- worst case average CPI: 0.517
- worst case efficiency: 0.851
- efficiency to beat: 0.851
- normalized lower bound 4269
--- checking solution
--- solution ok! Maximum rounding error: 0.000028
- solution found, obj var is: 4277
- de-normalized obj var: 0.856620
- time (local/global): 0.200/82.803
- branches (local/global): 10042/4666330
- fails (local/global): 4836/2283058
- lns time: 0.206000
- lns branches: 10042
- lns fails: 4836
LNS iteration #157 ========================================
- worst case average CPI: 0.517
- worst case efficiency: 0.852
- efficiency to beat: 0.852
- normalized lower bound 4280
- lns time: 3.006000
- lns branches: 167389
- lns fails: 82057
LNS iteration #158 ========================================
- worst case average CPI: 0.517
- worst case efficiency: 0.852
- efficiency to beat: 0.852
- normalized lower bound 4280
- lns time: 3.006000
- lns branches: 175149
- lns fails: 86309
LNS iteration #159 ========================================
- worst case average CPI: 0.517
- worst case efficiency: 0.852
- efficiency to beat: 0.852
- normalized lower bound 4280
--- checking solution
--- solution ok! Maximum rounding error: 0.000056
- solution found, obj var is: 4321
- de-normalized obj var: 0.859260
- time (local/global): 0.212/89.033
- branches (local/global): 13310/5022178
- fails (local/global): 6416/2457840
- lns time: 0.220000
- lns branches: 13310
- lns fails: 6416
LNS iteration #160 ========================================
- worst case average CPI: 0.517
- worst case efficiency: 0.852
- efficiency to beat: 0.852
- normalized lower bound 4291
--- checking solution
--- solution ok! Maximum rounding error: 0.000036
- solution found, obj var is: 4321
- de-normalized obj var: 0.859260
- time (local/global): 0.005/89.046
- branches (local/global): 236/5022414
- fails (local/global): 103/2457943
- lns time: 0.011000
- lns branches: 236
- lns fails: 103
LNS iteration #161 ========================================
- worst case average CPI: 0.517
- worst case efficiency: 0.853
- efficiency to beat: 0.853
- normalized lower bound 4293
--- checking solution
--- solution ok! Maximum rounding error: 0.000004
- solution found, obj var is: 4327
- de-normalized obj var: 0.859620
- time (local/global): 0.863/89.915
- branches (local/global): 46491/5068905
- fails (local/global): 22908/2480851
- lns time: 0.868000
- lns branches: 46491
- lns fails: 22908
LNS iteration #162 ========================================
- worst case average CPI: 0.517
- worst case efficiency: 0.852
- efficiency to beat: 0.852
- normalized lower bound 4281
- lns time: 0.086000
- lns branches: 5468
- lns fails: 2635

LNS optimization is over========================================
initial worst case average CPI: 2.479
final worst case average CPI: 0.517
initial worst case efficiency: 0.656
final worst case efficiency: 0.852
number of iterations: 163
total time: 90006.000000
total branches: 5074373
total fails: 2483486

Final Solution: 0->23, 1->36, 2->2, 3->36, 4->26, 5->18, 6->0, 7->29, 8->45, 9->23, 10->28, 11->2, 12->10, 13->27, 14->26, 15->0, 16->29, 17->47, 18->12, 19->20, 20->47, 21->46, 22->22, 23->7, 24->10, 25->6, 26->29, 27->33, 28->22, 29->22, 30->14, 31->10, 32->24, 33->47, 34->10, 35->22, 36->27, 37->40, 38->28, 39->12, 40->33, 41->39, 42->12, 43->20, 44->46, 45->39, 46->27, 47->20, 48->25, 49->12, 50->29, 51->24, 52->18, 53->3, 54->21, 55->36, 56->33, 57->7, 58->7, 59->21, 60->36, 61->11, 62->41, 63->34, 64->22, 65->12, 66->9, 67->29, 68->43, 69->7, 70->8, 71->40, 72->43, 73->11, 74->3, 75->44, 76->34, 77->47, 78->38, 79->35, 80->28, 81->24, 82->39, 83->11, 84->0, 85->40, 86->30, 87->42, 88->45, 89->30, 90->42, 91->1, 92->26, 93->26, 94->36, 95->2, 96->24, 97->30, 98->40, 99->42, 100->9, 101->21, 102->3, 103->31, 104->20, 105->2, 106->27, 107->5, 108->9, 109->1, 110->35, 111->43, 112->15, 113->42, 114->39, 115->8, 116->5, 117->20, 118->10, 119->23, 120->9, 121->15, 122->17, 123->34, 124->8, 125->2, 126->13, 127->31, 128->2, 129->37, 130->5, 131->8, 132->29, 133->35, 134->21, 135->26, 136->37, 137->34, 138->39, 139->18, 140->14, 141->13, 142->32, 143->21, 144->5, 145->30, 146->0, 147->13, 148->17, 149->33, 150->43, 151->24, 152->8, 153->32, 154->17, 155->19, 156->46, 157->44, 158->7, 159->42, 160->6, 161->36, 162->15, 163->9, 164->12, 165->19, 166->40, 167->31, 168->7, 169->28, 170->37, 171->25, 172->16, 173->38, 174->33, 175->45, 176->14, 177->10, 178->39, 179->28, 180->5, 181->37, 182->6, 183->31, 184->47, 185->13, 186->15, 187->4, 188->35, 189->17, 190->17, 191->14, 192->16, 193->6, 194->18, 195->32, 196->1, 197->38, 198->31, 199->32, 200->26, 201->38, 202->43, 203->44, 204->8, 205->9, 206->27, 207->27, 208->44, 209->15, 210->28, 211->20, 212->42, 213->22, 214->33, 215->0, 216->44, 217->41, 218->4, 219->4, 220->18, 221->30, 222->19, 223->1, 224->16, 225->15, 226->19, 227->18, 228->38, 229->19, 230->38, 231->30, 232->16, 233->25, 234->11, 235->13, 236->41, 237->14, 238->13, 239->11, 240->3, 241->46, 242->0, 243->21, 244->24, 245->1, 246->41, 247->32, 248->4, 249->25, 250->4, 251->31, 252->43, 253->47, 254->45, 255->34, 256->37, 257->1, 258->17, 259->23, 260->23, 261->34, 262->14, 263->40, 264->35, 265->16, 266->3, 267->4, 268->6, 269->35, 270->45, 271->44, 272->41, 273->6, 274->25, 275->37, 276->32, 277->23, 278->11, 279->5, 280->25, 281->41, 282->45, 283->46, 284->16, 285->3, 286->19, 287->46

Average CPI map:
	7.63,	1.76,	1.66,	0.90,	0.81,	0.52
	2.03,	6.28,	5.01,	10.13,	6.95,	1.92
	4.07,	7.90,	7.13,	7.03,	6.57,	2.01
	3.95,	7.70,	7.65,	11.11,	7.56,	0.79
	1.96,	7.44,	9.96,	8.70,	9.88,	4.81
	1.95,	8.74,	7.71,	7.75,	6.30,	2.66
	1.98,	6.44,	8.78,	7.40,	5.94,	2.35
	2.98,	6.12,	6.76,	5.42,	2.99,	1.89

Efficiency map:
	0.997,	0.941,	0.934,	0.888,	0.915,	1.003
	0.853,	0.860,	0.864,	0.858,	0.855,	0.875
	0.858,	0.857,	0.855,	0.867,	0.855,	0.884
	0.857,	0.865,	0.869,	0.892,	0.861,	1.018
	0.858,	0.859,	0.860,	0.865,	0.856,	0.907
	0.867,	0.860,	0.858,	0.853,	0.859,	0.859
	0.856,	0.860,	0.855,	0.860,	0.861,	0.883
	0.852,	0.860,	0.864,	0.860,	0.859,	0.857
