LocalSolver 4.0 (MacOS64, build 20131224)
Copyright (C) 2013 Bouygues SA, Aix-Marseille University, CNRS.
All rights reserved (see Terms and Conditions for details).

Load localsolver_res/tawd_ls.lsp...
Run input...
ANNs For the Platform:
4,2,1,6.45294,0.0174524,1.58234,2.29305,2.12057,3.95113,12.7206,-19.3278,5.58789,9.38298,0.00306445,0.00353919,0.795949
4,2,1,3.10684,7.56359,0.502116,0.637049,12.0356,-2.9013,-3.22211,-0.368567,-0.562298,-7.37831,2.38595,1.22203,-0.360292
4,2,1,4.88387,44.8399,1.27345,1.24496,49.1775,-8.83277,-3.12983,-1.00946,11.7,-3.01002,0.132635,0.00372271,0.673996
4,2,1,4.73045,19.3982,0.449241,0.753865,25.7092,17.3605,0.0558085,-8.91516,0.49993,10.3396,4.06312,-0.0136297,-3.24599
4,2,1,-7.16849,-10.0957,-0.518885,-0.00359459,5.93351,5.62684,52.0516,1.48603,1.30274,57.2311,0.250578,0.137157,0.417379
4,2,1,0.412706,-2.89716,0.137754,-2.57826,11.0947,121.374,858.444,-136.26,-14917.8,-1308.92,-3.36558,-0.000403784,4.17997
4,2,1,-8.8269,-0.482244,-0.0820712,-0.0562713,-10.1617,9.78118,-7.01882,-0.428151,-0.0606718,2.56012,-8.54699,-0.509991,-7.23704
4,2,1,2.19881,4.94147,0.541452,0.107587,6.45213,1.0452,0.405805,0.555763,3.64728,1.95727,0.425683,-0.00188273,0.383643
4,2,1,-6.13316,1.92598,-0.0562274,-0.0731719,-4.60606,0.509071,7.79918,0.393802,0.0114563,7.9345,-1.13416,0.310582,-0.637365
4,2,1,1.73462,2.97854,0.276167,0.0859465,3.6912,3.09203,3.25403,0.324282,0.112495,4.06123,0.954718,-0.48836,0.344765
4,2,1,1.57339,3.84603,-3.4467,0.7429,2.75709,2.1802,5.09535,0.482172,0.106131,6.49189,-0.0251827,0.433535,0.393482
4,2,1,4.13514,21.6229,1.1931,0.354612,24.1372,25.5916,0.432728,-12.6725,-0.45345,15.3428,0.194819,-0.0364695,0.647465
4,2,1,-0.728632,5.60079,1.78098,1.8429,-5.74354,-3.26566,-13.0026,-0.907163,-0.31822,-15.3707,-0.427666,-0.224298,0.154329
4,2,1,3.81854,-4.98219,-0.293924,-0.103604,-6.7034,2.28654,4.72568,0.469524,0.115005,6.05901,-0.511241,0.421809,-0.121549
4,2,1,-1.23773,5.98591,0.224555,-0.359337,6.05767,2.3852,3.4706,0.220977,0.179377,4.88772,0.199751,0.432231,0.177791
4,2,1,1.12189,4.09326,0.850801,0.171671,-5.17646,-1.9656,-4.07995,-0.210811,-0.113853,-5.17242,-2.70452,-0.46094,-2.36326
4,2,1,2.08858,4.80174,0.367584,0.109336,6.02292,4.32969,4.35157,0.772172,10.015,-0.96022,0.43933,4.17055e-05,0.365228
4,2,1,1.18806,3.00188,0.124753,0.00191203,3.75084,1.03049,2.7808,0.137818,0.0250058,4.01619,-1.05018,2.49176,-0.635083
4,2,1,3.11788,10.9247,0.699295,0.170953,13.0959,-11.4646,-5.88946,11.0137,8.74787,-11.701,0.236706,0.0216102,0.59131
4,2,1,7.53568,1.94998,-2.27776,-1.91765,0.451708,2.13206,4.27547,0.333162,0.0864645,5.45063,-0.0153486,0.447774,0.366202
4,2,1,-2.12436,-3.29848,-0.0965154,-0.0454545,-3.86293,4.27042,3.64797,0.106703,0.057602,4.81479,-1.28015,-0.815344,0.346524
4,2,1,2.06313,3.99765,-9.94001e-06,0.200591,5.05136,-0.024567,-3.22765,-1.84842,1.73493,-3.87425,0.446216,-0.0350173,0.320411
4,2,1,3.3952,3.19239,0.219932,0.0459907,4.0724,1.85184,2.9352,0.236295,0.0535068,3.62882,-0.516849,0.990723,0.337742
4,2,1,-6.32145,2.68844,0.160066,0.0633176,-3.81442,9.03888,1.31396,0.253255,-0.0684612,6.93971,1.83579,0.440423,2.20116
4,2,1,-4.54148,-0.217309,1.86369,-0.409034,0.0885675,-3.10698,-12.3715,-0.753639,-0.275832,-14.544,0.00344558,-0.233405,0.57337
4,2,1,-0.743367,6.86662,-0.19496,-0.0184317,7.54898,2.69258,3.24789,0.437511,0.121848,4.97423,0.830361,0.39615,-0.417087
4,2,1,2.07654,3.2533,0.103762,0.0837251,4.40922,1.95615,-2.57949,-0.10147,-0.0485499,-3.72005,0.479113,-0.433879,-0.0966803
4,2,1,-0.480501,-0.00331725,1.67452,0.764966,-1.53387,1.99113,3.67475,0.0228188,0.0287235,4.64739,0.15721,0.465135,0.487915
4,2,1,1.11584,-5.79333,-0.212675,0.376981,-6.64888,2.45003,3.54368,0.313683,0.144659,5.05472,-0.777178,0.423599,-0.389995
4,2,1,2.39093,1.70258,-0.183288,-0.314006,4.06496,2.34881,2.91375,-0.0230153,-0.18977,5.26307,-1.33645,1.84807,0.292237
4,2,1,0.88022,3.23795,0.179315,0.0205209,3.57684,0.764441,2.74982,0.156077,0.0273373,3.62313,-0.980719,2.16912,-0.37872
4,2,1,-1.27932,7.09751,-0.0490235,0.455487,7.14709,-2.57722,-4.06233,-0.410784,-0.0433739,-5.6171,0.164894,-0.408714,0.23583
4,2,1,0.623158,5.01876,0.194867,0.0365944,4.99458,-16.0815,2.94826,-1.82463,-1.90388,-9.56395,0.291148,-0.155001,0.360694
4,2,1,1.86251,3.92056,0.158781,0.0575693,4.93436,0.681285,4.09563,1.09826,-3.65606,2.09524,0.482473,-0.00448292,0.322397
4,2,1,3.33939,3.52877,0.262622,0.0607689,4.45842,2.23218,3.37107,0.256541,0.0516206,4.05014,-1.2701,1.7162,0.365737
4,2,1,5.0585,4.68315,2.53887,0.128578,8.9709,3.62833,11.0789,1.32555,0.190392,13.8026,-0.126366,0.350541,0.580103
4,2,1,4.99986,2.75557,1.33036,-0.0119951,6.91685,4.23025,5.34568,1.08928,0.0379928,8.80363,-0.700785,0.958812,0.547325
4,2,1,1.95024,3.24732,0.229322,0.0270089,3.53624,1.62575,3.04977,0.230194,0.0319079,3.46966,-1.34015,1.81817,0.333213
4,2,1,2.11055,5.16581,0.225183,0.0767342,6.2013,3.43647,-3.10756,1.22453,-6.27082,5.92438,0.428242,2.12665,-1.75474
4,2,1,10.028,2.55152,-0.0579427,-0.0186516,-2.98054,2.14055,4.33639,0.203596,0.057269,5.47668,0.0078111,0.436528,0.371941
4,2,1,1.80421,3.45533,0.27065,0.0337725,4.14172,3.00203,3.65885,0.26995,0.0620062,4.37924,0.892686,-0.440136,0.355377
4,2,1,-2.76424,-10.7675,-0.741451,-0.141046,-12.927,13.6995,2.51611,0.90934,27.76,15.1973,-0.260938,-0.00175312,0.546274
4,2,1,2.26659,3.88332,0.083697,0.287373,-5.89957,3.07548,7.5942,0.285535,0.141703,9.90558,1.94369,0.273352,2.47758
4,2,1,5.41472,-1.35343,-0.0808605,2.27411,0.928252,2.55844,6.15687,0.338903,0.0735359,7.47381,-0.0148119,0.388691,0.423615
4,2,1,4.53285,3.66527,0.130055,0.0722232,4.95325,-2.1632,-3.34312,-0.11633,-0.0577237,-3.98867,-0.759785,-1.19124,0.379449
4,2,1,2.36669,5.75119,0.132783,0.0812059,6.8845,-8.68015,-0.488627,0.811521,2.16444,0.277436,0.40839,0.00790296,0.400784
4,2,1,0.583762,8.58805,0.307497,0.0165495,8.61973,-7.32584,1.34397,-0.0108636,-0.0260377,-6.96836,0.266022,-5.2323,-4.69173
4,2,1,1.76683,-0.336959,-0.116305,-0.0696435,-1.62311,2.51027,5.65249,0.180271,0.0657051,7.97995,-0.0500539,0.457869,0.308072
Workload Information:
3.12567, 0.752061, 3.77408, 1.62275, 1.54955, 1.17589, 1.72939, 3.02359, 2.35293, 0.5, 3.11872, 1.27538, 17.84, 24.8309, 22.3046, 23.9911, 15.5276, 27.5057, 0.5, 1.8254, 3.13266, 3.48523, 1.94102, 1.1157, 2.11213, 2.06647, 1.99774, 1.74421, 2.0075, 2.07194, 0.522909, 1.49971, 1.5007, 3.20029, 3.94412, 1.33228, 2.47984, 1.60996, 1.63519, 2.5718, 1.81176, 1.89145, 3.25335, 0.5, 0.507717, 3.35651, 3.32506, 1.05735, 1.59151, 2.60202, 0.868737, 2.60868, 1.45236, 2.8767, 12.5817, 35, 12.3399, 20.615, 17.7576, 33.7058, 0.5, 2.2086, 4.49219, 0.521533, 0.703125, 3.57454, 1.32375, 0.5, 3.53538, 4.27056, 1.22948, 1.14083, 2.1446, 2.20424, 1.96104, 2.3198, 1.54687, 1.82346, 3.22698, 0.778605, 1.7414, 3.17747, 1.91045, 1.16509, 2.33292, 2.04677, 0.599128, 0.63446, 5.14332, 1.24341, 0.954258, 4.07886, 1.13576, 2.37027, 2.04029, 1.42056, 2.83431, 1.10327, 2.71016, 2.72216, 2.1301, 0.5, 1.53209, 2.281, 2.40503, 2.18578, 1.86167, 1.73443, 1.37888, 0.5, 3.68517, 2.2678, 3.31085, 0.85731, 1.65819, 3.48785, 2.43323, 0.5, 1.0792, 2.84153, 0.604221, 1.83231, 0.5, 1.61493, 4.32856, 3.11998, 2.26413, 1.06299, 1.88884, 2.27832, 2.21424, 2.29148, 3.33042, 0.786218, 1.01043, 3.19589, 0.5, 3.17704, 2.29831, 2.17468, 2.40911, 2.53069, 1.17653, 1.41068, 1.39781, 1.5314, 2.1906, 1.35996, 2.01672, 3.50351, 1.17117, 1.34719, 3.3889, 1.49879, 2.75224, 1.8417, 2.56654, 2.58568, 1.96223, 0.5, 2.58026, 1.8053, 0.5, 2.44487, 2.88778, 2.77599, 2.85053, 0.540841, 0.5, 4.13547, 4.13324, 0.602114, 1.27328, 1.3559, 2.10053, 2.27077, 1.69581, 2.41086, 2.27242, 1.24961, 1.70121, 3.12426, 2.78517, 0.96334, 1.21139, 2.21463, 2.55195, 2.33888, 1.12488, 1.28664, 2.49165, 2.206, 1.2706, 2.2993, 2.38943, 1.68816, 2.55896, 1.79355, 3.41952, 2.01037, 2.19211, 1.06076, 2.53684, 0.780401, 3.0517, 0.966597, 2.17906, 0.5, 3.13944, 2.16321, 4.00701, 1.14437, 1.66825, 1.46278, 0.5, 3.21759, 0.5, 2.20956, 3.44682, 1.98752, 2.67762, 1.17849, 1.89847, 1.28251, 2.3825, 2.37247, 1.96994, 2.09411, 2.33515, 1.65527, 1.94325, 1.54898, 1.9655, 2.55185, 2.18274, 0.5, 4.98818, 0.755168, 2.90778, 0.666132, 1.5655, 1.11219, 0.864467, 3.32768, 2.80025, 2.32992, 4.80928, 0.5, 0.877944, 0.527548, 0.644329, 4.6409, 2.55565, 2.59951, 2.2867, 1.42287, 0.851681, 2.28359, 4.41532, 0.5, 1.83263, 1.2317, 1.53574, 2.48461, 2.30571, 1.85041, 2.23376, 2.05481, 1.74023, 1.81507, 1.67615, 3.04315, 3.28507, 0.5, 2.93744, 0.558177, 2.41297, 2.36075, 2.18932, 1.05135, 1.98417, 2.00144, 1.52199, 2.30636, 1.96989, 1.97137, 1.243, 2.98739
cpi min/max: 0.5/35
neighbors of 0: 1 6, number of others: 45
neighbors of 1: 0 2 6 7, number of others: 43
neighbors of 2: 1 3 7 8, number of others: 43
neighbors of 3: 2 4 8 9, number of others: 43
neighbors of 4: 3 5 9 10, number of others: 43
neighbors of 5: 4 10 11, number of others: 44
neighbors of 6: 0 1 7 12, number of others: 43
neighbors of 7: 1 2 6 8 12 13, number of others: 41
neighbors of 8: 2 3 7 9 13 14, number of others: 41
neighbors of 9: 3 4 8 10 14 15, number of others: 41
neighbors of 10: 4 5 9 11 15 16, number of others: 41
neighbors of 11: 5 10 16 17, number of others: 43
neighbors of 12: 6 7 13 18, number of others: 43
neighbors of 13: 7 8 12 14 18 19, number of others: 41
neighbors of 14: 8 9 13 15 19 20, number of others: 41
neighbors of 15: 9 10 14 16 20 21, number of others: 41
neighbors of 16: 10 11 15 17 21 22, number of others: 41
neighbors of 17: 11 16 22 23, number of others: 43
neighbors of 18: 12 13 19 24, number of others: 43
neighbors of 19: 13 14 18 20 24 25, number of others: 41
neighbors of 20: 14 15 19 21 25 26, number of others: 41
neighbors of 21: 15 16 20 22 26 27, number of others: 41
neighbors of 22: 16 17 21 23 27 28, number of others: 41
neighbors of 23: 17 22 28 29, number of others: 43
neighbors of 24: 18 19 25 30, number of others: 43
neighbors of 25: 19 20 24 26 30 31, number of others: 41
neighbors of 26: 20 21 25 27 31 32, number of others: 41
neighbors of 27: 21 22 26 28 32 33, number of others: 41
neighbors of 28: 22 23 27 29 33 34, number of others: 41
neighbors of 29: 23 28 34 35, number of others: 43
neighbors of 30: 24 25 31 36, number of others: 43
neighbors of 31: 25 26 30 32 36 37, number of others: 41
neighbors of 32: 26 27 31 33 37 38, number of others: 41
neighbors of 33: 27 28 32 34 38 39, number of others: 41
neighbors of 34: 28 29 33 35 39 40, number of others: 41
neighbors of 35: 29 34 40 41, number of others: 43
neighbors of 36: 30 31 37 42, number of others: 43
neighbors of 37: 31 32 36 38 42 43, number of others: 41
neighbors of 38: 32 33 37 39 43 44, number of others: 41
neighbors of 39: 33 34 38 40 44 45, number of others: 41
neighbors of 40: 34 35 39 41 45 46, number of others: 41
neighbors of 41: 35 40 46 47, number of others: 43
neighbors of 42: 36 37 43, number of others: 44
neighbors of 43: 37 38 42 44, number of others: 43
neighbors of 44: 38 39 43 45, number of others: 43
neighbors of 45: 39 40 44 46, number of others: 43
neighbors of 46: 40 41 45 47, number of others: 43
neighbors of 47: 41 46, number of others: 45
Run model...
Preprocess model 0% ...Preprocess model 16% ...Preprocess model 32% ...Preprocess model 48% ...Preprocess model 66% ...Preprocess model 84% ...Preprocess model 100% ...
Close model 0% ...Close model 9% ...Close model 18% ...Close model 27% ...Close model 36% ...Close model 45% ...Close model 54% ...Close model 63% ...Close model 72% ...Close model 81% ...Close model 91% ...Close model 100% ...
Run param...
Run solver...
Initialize threads 0% ...Initialize threads 100% ...
Push initial solutions 0% ...Push initial solutions 100% ...

Model: 
  expressions = 44730, operands = 116736
  decisions = 13824, constraints = 336, objectives = 1

Param: 
  time limit = 90 sec, no iteration limit
  seed = 201, nb threads = 1, annealing level = 1

Objectives:
  Obj 0: maximize, no bound

Phases:
  Phase 0: time limit = 90 sec, no iteration limit, optimized objective = 0


Computed bounds:
  Obj 0: upper bound = 0.664125


Phase 0:
[0 sec, 0 itr]: infeas = (336, 336, 576), mov = 0, inf < 0.1%, acc < 0.1%, imp = 0

worst case efficiency: 0.998464
[1 sec, 2019 itr]: infeas = (40, 40, 52), mov = 2019, inf = 70.9%, acc = 26.5%, imp = 118

worst case efficiency: 0.611415
[2 sec, 11244 itr]: obj = (0.0353658), mov = 11244, inf = 91.1%, acc = 7.9%, imp = 161

worst case efficiency: 0.621219
[3 sec, 23409 itr]: obj = (0.0417467), mov = 23409, inf = 95.6%, acc = 4%, imp = 186

worst case efficiency: 0.625048
[4 sec, 33151 itr]: obj = (0.0525714), mov = 33151, inf = 96.8%, acc = 2.9%, imp = 216

worst case efficiency: 0.631543
[5 sec, 40383 itr]: obj = (0.0714423), mov = 40383, inf = 97.3%, acc = 2.5%, imp = 249

worst case efficiency: 0.642865
[6 sec, 46751 itr]: obj = (0.0752431), mov = 46751, inf = 97.6%, acc = 2.2%, imp = 273

worst case efficiency: 0.645146
[7 sec, 50937 itr]: obj = (0.0796476), mov = 50937, inf = 97.8%, acc = 2.1%, imp = 287

worst case efficiency: 0.647789
[8 sec, 54952 itr]: obj = (0.0802276), mov = 54952, inf = 97.9%, acc = 2%, imp = 299

worst case efficiency: 0.648137
[9 sec, 59494 itr]: obj = (0.0858208), mov = 59494, inf = 98%, acc = 1.9%, imp = 346

worst case efficiency: 0.651492
[10 sec, 63990 itr]: obj = (0.094281), mov = 63990, inf = 98.1%, acc = 1.8%, imp = 385

worst case efficiency: 0.656569
[11 sec, 68028 itr]: obj = (0.0986652), mov = 68028, inf = 98.1%, acc = 1.8%, imp = 437

worst case efficiency: 0.659199
[12 sec, 72085 itr]: obj = (0.100632), mov = 72085, inf = 98.2%, acc = 1.8%, imp = 469

worst case efficiency: 0.660379
[13 sec, 75795 itr]: obj = (0.107449), mov = 75795, inf = 98.2%, acc = 1.7%, imp = 504

worst case efficiency: 0.664469
[14 sec, 79631 itr]: obj = (0.109588), mov = 79631, inf = 98.3%, acc = 1.7%, imp = 514

worst case efficiency: 0.665753
[15 sec, 83009 itr]: obj = (0.109588), mov = 83009, inf = 98.3%, acc = 1.6%, imp = 514

worst case efficiency: 0.665753
[16 sec, 85852 itr]: obj = (0.109588), mov = 85852, inf = 98.4%, acc = 1.6%, imp = 514

worst case efficiency: 0.665753
[17 sec, 89268 itr]: obj = (0.119179), mov = 89268, inf = 98.4%, acc = 1.5%, imp = 546

worst case efficiency: 0.671508
[18 sec, 93153 itr]: obj = (0.134258), mov = 93153, inf = 98.4%, acc = 1.5%, imp = 597

worst case efficiency: 0.680555
[19 sec, 97168 itr]: obj = (0.141572), mov = 97168, inf = 98.4%, acc = 1.5%, imp = 634

worst case efficiency: 0.684943
[20 sec, 101249 itr]: obj = (0.146004), mov = 101249, inf = 98.5%, acc = 1.5%, imp = 671

worst case efficiency: 0.687603
[21 sec, 104769 itr]: obj = (0.149182), mov = 104769, inf = 98.5%, acc = 1.5%, imp = 703

worst case efficiency: 0.689509
[22 sec, 108463 itr]: obj = (0.150377), mov = 108463, inf = 98.5%, acc = 1.4%, imp = 729

worst case efficiency: 0.690226
[23 sec, 112008 itr]: obj = (0.15077), mov = 112008, inf = 98.5%, acc = 1.4%, imp = 747

worst case efficiency: 0.690462
[24 sec, 115832 itr]: obj = (0.151378), mov = 115832, inf = 98.6%, acc = 1.4%, imp = 759

worst case efficiency: 0.690827
[25 sec, 119617 itr]: obj = (0.153674), mov = 119617, inf = 98.6%, acc = 1.4%, imp = 782

worst case efficiency: 0.692204
[26 sec, 123137 itr]: obj = (0.154322), mov = 123137, inf = 98.6%, acc = 1.3%, imp = 796

worst case efficiency: 0.692593
[27 sec, 126906 itr]: obj = (0.159751), mov = 126906, inf = 98.7%, acc = 1.3%, imp = 824

worst case efficiency: 0.695851
[28 sec, 130717 itr]: obj = (0.161531), mov = 130717, inf = 98.7%, acc = 1.3%, imp = 850

worst case efficiency: 0.696919
[29 sec, 134036 itr]: obj = (0.163636), mov = 134036, inf = 98.7%, acc = 1.3%, imp = 872

worst case efficiency: 0.698182
[30 sec, 137099 itr]: obj = (0.164864), mov = 137099, inf = 98.7%, acc = 1.3%, imp = 888

worst case efficiency: 0.698919
[31 sec, 140793 itr]: obj = (0.166117), mov = 140793, inf = 98.7%, acc = 1.3%, imp = 910

worst case efficiency: 0.69967
[32 sec, 144854 itr]: obj = (0.168428), mov = 144854, inf = 98.7%, acc = 1.3%, imp = 938

worst case efficiency: 0.701057
[33 sec, 148978 itr]: obj = (0.170849), mov = 148978, inf = 98.8%, acc = 1.2%, imp = 963

worst case efficiency: 0.70251
[34 sec, 152954 itr]: obj = (0.173101), mov = 152954, inf = 98.8%, acc = 1.2%, imp = 991

worst case efficiency: 0.70386
[35 sec, 157314 itr]: obj = (0.179317), mov = 157314, inf = 98.8%, acc = 1.2%, imp = 1027

worst case efficiency: 0.70759
[36 sec, 161876 itr]: obj = (0.181807), mov = 161876, inf = 98.8%, acc = 1.2%, imp = 1050

worst case efficiency: 0.709084
[37 sec, 166149 itr]: obj = (0.182782), mov = 166149, inf = 98.8%, acc = 1.2%, imp = 1064

worst case efficiency: 0.709669
[38 sec, 170380 itr]: obj = (0.183618), mov = 170380, inf = 98.8%, acc = 1.2%, imp = 1074

worst case efficiency: 0.710171
[39 sec, 174613 itr]: obj = (0.183882), mov = 174613, inf = 98.8%, acc = 1.2%, imp = 1086

worst case efficiency: 0.710329
[40 sec, 178533 itr]: obj = (0.184928), mov = 178533, inf = 98.8%, acc = 1.2%, imp = 1097

worst case efficiency: 0.710957
[41 sec, 182106 itr]: obj = (0.187933), mov = 182106, inf = 98.8%, acc = 1.2%, imp = 1113

worst case efficiency: 0.71276
[42 sec, 185666 itr]: obj = (0.188978), mov = 185666, inf = 98.8%, acc = 1.1%, imp = 1135

worst case efficiency: 0.713387
[43 sec, 189062 itr]: obj = (0.189615), mov = 189062, inf = 98.8%, acc = 1.1%, imp = 1149

worst case efficiency: 0.713769
[44 sec, 192439 itr]: obj = (0.189817), mov = 192439, inf = 98.8%, acc = 1.1%, imp = 1160

worst case efficiency: 0.71389
[45 sec, 196365 itr]: obj = (0.189932), mov = 196365, inf = 98.8%, acc = 1.1%, imp = 1168

worst case efficiency: 0.713959
[46 sec, 200735 itr]: obj = (0.190098), mov = 200735, inf = 98.8%, acc = 1.1%, imp = 1177

worst case efficiency: 0.714059
[47 sec, 206214 itr]: obj = (0.190171), mov = 206214, inf = 98.8%, acc = 1.1%, imp = 1182

worst case efficiency: 0.714103
[48 sec, 211715 itr]: obj = (0.190562), mov = 211715, inf = 98.8%, acc = 1.1%, imp = 1196

worst case efficiency: 0.714337
[49 sec, 217688 itr]: obj = (0.1908), mov = 217688, inf = 98.8%, acc = 1.1%, imp = 1202

worst case efficiency: 0.71448
[50 sec, 225492 itr]: obj = (0.191307), mov = 225492, inf = 98.7%, acc = 1.1%, imp = 1220

worst case efficiency: 0.714784
[51 sec, 234589 itr]: obj = (0.191547), mov = 234589, inf = 98.7%, acc = 1.1%, imp = 1228

worst case efficiency: 0.714928
[52 sec, 247143 itr]: obj = (0.191696), mov = 247143, inf = 98.6%, acc = 1.1%, imp = 1236

worst case efficiency: 0.715018
[53 sec, 265375 itr]: obj = (0.191877), mov = 265375, inf = 98.5%, acc = 1.1%, imp = 1239

worst case efficiency: 0.715126
[54 sec, 290358 itr]: obj = (0.191877), mov = 290358, inf = 98.4%, acc = 1.2%, imp = 1239

worst case efficiency: 0.715126
[55 sec, 320987 itr]: obj = (0.192122), mov = 320987, inf = 98.3%, acc = 1.2%, imp = 1244

worst case efficiency: 0.715273
[56 sec, 351938 itr]: obj = (0.192766), mov = 351938, inf = 98.2%, acc = 1.2%, imp = 1256

worst case efficiency: 0.715659
[57 sec, 385894 itr]: obj = (0.192885), mov = 385894, inf = 98.2%, acc = 1.2%, imp = 1263

worst case efficiency: 0.715731
[58 sec, 420917 itr]: obj = (0.192928), mov = 420917, inf = 98.1%, acc = 1.1%, imp = 1265

worst case efficiency: 0.715757
[59 sec, 448016 itr]: obj = (0.192972), mov = 448016, inf = 98%, acc = 1.1%, imp = 1267

worst case efficiency: 0.715783
[60 sec, 477549 itr]: obj = (0.193527), mov = 477549, inf = 98%, acc = 1.1%, imp = 1280

worst case efficiency: 0.716116
[61 sec, 510537 itr]: obj = (0.193674), mov = 510537, inf = 97.9%, acc = 1.1%, imp = 1289

worst case efficiency: 0.716205
[62 sec, 542546 itr]: obj = (0.193691), mov = 542546, inf = 97.9%, acc = 1.1%, imp = 1291

worst case efficiency: 0.716214
[63 sec, 577845 itr]: obj = (0.193691), mov = 577845, inf = 97.8%, acc = 1.1%, imp = 1291

worst case efficiency: 0.716214
[64 sec, 614779 itr]: obj = (0.1937), mov = 614779, inf = 97.8%, acc = 1.1%, imp = 1293

worst case efficiency: 0.71622
[65 sec, 649378 itr]: obj = (0.19373), mov = 649378, inf = 97.8%, acc = 1%, imp = 1296

worst case efficiency: 0.716238
[66 sec, 682966 itr]: obj = (0.193819), mov = 682966, inf = 97.8%, acc = 1%, imp = 1300

worst case efficiency: 0.716291
[67 sec, 708548 itr]: obj = (0.193843), mov = 708548, inf = 97.8%, acc = 1%, imp = 1303

worst case efficiency: 0.716306
[68 sec, 738636 itr]: obj = (0.194071), mov = 738636, inf = 97.8%, acc = 1%, imp = 1315

worst case efficiency: 0.716442
[69 sec, 766214 itr]: obj = (0.194188), mov = 766214, inf = 97.8%, acc = 1%, imp = 1321

worst case efficiency: 0.716513
[70 sec, 798683 itr]: obj = (0.194222), mov = 798683, inf = 97.8%, acc = 1%, imp = 1327

worst case efficiency: 0.716533
[71 sec, 829573 itr]: obj = (0.194237), mov = 829573, inf = 97.8%, acc = 1%, imp = 1329

worst case efficiency: 0.716542
[72 sec, 856288 itr]: obj = (0.194319), mov = 856288, inf = 97.8%, acc = 0.9%, imp = 1334

worst case efficiency: 0.716591
[73 sec, 879916 itr]: obj = (0.194405), mov = 879916, inf = 97.8%, acc = 0.9%, imp = 1339

worst case efficiency: 0.716643
[74 sec, 907112 itr]: obj = (0.194457), mov = 907112, inf = 97.7%, acc = 0.9%, imp = 1344

worst case efficiency: 0.716674
[75 sec, 938926 itr]: obj = (0.194489), mov = 938926, inf = 97.7%, acc = 0.9%, imp = 1349

worst case efficiency: 0.716693
[76 sec, 969913 itr]: obj = (0.194489), mov = 969913, inf = 97.7%, acc = 0.9%, imp = 1350

worst case efficiency: 0.716693
[77 sec, 1004449 itr]: obj = (0.194524), mov = 1004449, inf = 97.7%, acc = 0.9%, imp = 1354

worst case efficiency: 0.716714
[78 sec, 1038552 itr]: obj = (0.194562), mov = 1038552, inf = 97.7%, acc = 0.9%, imp = 1357

worst case efficiency: 0.716737
[79 sec, 1072661 itr]: obj = (0.194565), mov = 1072661, inf = 97.7%, acc = 0.9%, imp = 1358

worst case efficiency: 0.716739
[80 sec, 1105603 itr]: obj = (0.194595), mov = 1105603, inf = 97.7%, acc = 0.9%, imp = 1362

worst case efficiency: 0.716757
[81 sec, 1134742 itr]: obj = (0.194596), mov = 1134742, inf = 97.7%, acc = 0.9%, imp = 1363

worst case efficiency: 0.716758
[82 sec, 1159055 itr]: obj = (0.194649), mov = 1159055, inf = 97.7%, acc = 0.9%, imp = 1364

worst case efficiency: 0.716789
[83 sec, 1187062 itr]: obj = (0.194804), mov = 1187062, inf = 97.7%, acc = 0.9%, imp = 1367

worst case efficiency: 0.716883
[84 sec, 1214902 itr]: obj = (0.195347), mov = 1214902, inf = 97.7%, acc = 0.9%, imp = 1376

worst case efficiency: 0.717208
[85 sec, 1245729 itr]: obj = (0.195857), mov = 1245729, inf = 97.7%, acc = 0.9%, imp = 1390

worst case efficiency: 0.717514
[86 sec, 1276632 itr]: obj = (0.195911), mov = 1276632, inf = 97.7%, acc = 0.9%, imp = 1395

worst case efficiency: 0.717547
[87 sec, 1301070 itr]: obj = (0.195911), mov = 1301070, inf = 97.7%, acc = 0.9%, imp = 1395

worst case efficiency: 0.717547
[88 sec, 1325574 itr]: obj = (0.195963), mov = 1325574, inf = 97.7%, acc = 0.9%, imp = 1397

worst case efficiency: 0.717578
[89 sec, 1358712 itr]: obj = (0.196378), mov = 1358712, inf = 97.7%, acc = 0.8%, imp = 1412

worst case efficiency: 0.717827
[90 sec, 1393915 itr]: obj = (0.196378), mov = 1393915, inf = 97.6%, acc = 0.8%, imp = 1414

worst case efficiency: 0.717827
[90 sec, 1393915 itr]: obj = (0.196378), mov = 1393915, inf = 97.6%, acc = 0.8%, imp = 1414

worst case efficiency: 0.717827
1393915 iterations, 1393915 moves performed in 90 seconds
Feasible solution: obj = (0.196378)

Run output...
FINAL SOLUTION
Worst case efficiency: 0.717827
Mapping: 0->45, 1->35, 2->28, 3->19, 4->39, 5->1, 6->36, 7->13, 8->10, 9->47, 10->32, 11->4, 12->22, 13->19, 14->20, 15->25, 16->9, 17->44, 18->42, 19->20, 20->33, 21->32, 22->16, 23->46, 24->42, 25->16, 26->40, 27->19, 28->30, 29->16, 30->42, 31->22, 32->6, 33->4, 34->22, 35->18, 36->35, 37->7, 38->22, 39->33, 40->43, 41->29, 42->2, 43->5, 44->36, 45->38, 46->8, 47->12, 48->44, 49->26, 50->19, 51->40, 52->24, 53->26, 54->39, 55->33, 56->27, 57->16, 58->45, 59->37, 60->41, 61->35, 62->14, 63->42, 64->36, 65->33, 66->22, 67->42, 68->31, 69->32, 70->9, 71->3, 72->25, 73->39, 74->16, 75->13, 76->5, 77->36, 78->46, 79->17, 80->36, 81->6, 82->11, 83->24, 84->20, 85->7, 86->17, 87->37, 88->7, 89->3, 90->12, 91->46, 92->41, 93->27, 94->45, 95->1, 96->15, 97->17, 98->38, 99->8, 100->6, 101->24, 102->25, 103->2, 104->35, 105->37, 106->7, 107->4, 108->25, 109->47, 110->26, 111->10, 112->14, 113->44, 114->12, 115->21, 116->14, 117->17, 118->3, 119->28, 120->37, 121->34, 122->0, 123->27, 124->43, 125->32, 126->38, 127->5, 128->38, 129->28, 130->27, 131->46, 132->28, 133->24, 134->6, 135->8, 136->4, 137->28, 138->9, 139->10, 140->13, 141->32, 142->36, 143->29, 144->3, 145->18, 146->35, 147->46, 148->5, 149->31, 150->30, 151->45, 152->34, 153->42, 154->2, 155->11, 156->21, 157->45, 158->31, 159->1, 160->13, 161->23, 162->23, 163->20, 164->29, 165->29, 166->21, 167->18, 168->6, 169->27, 170->15, 171->23, 172->11, 173->9, 174->31, 175->40, 176->1, 177->39, 178->22, 179->4, 180->1, 181->21, 182->20, 183->30, 184->0, 185->2, 186->13, 187->15, 188->47, 189->8, 190->8, 191->25, 192->12, 193->14, 194->32, 195->5, 196->40, 197->27, 198->39, 199->44, 200->30, 201->23, 202->3, 203->47, 204->9, 205->3, 206->28, 207->24, 208->34, 209->43, 210->14, 211->18, 212->12, 213->44, 214->30, 215->38, 216->1, 217->38, 218->34, 219->23, 220->44, 221->41, 222->0, 223->17, 224->26, 225->13, 226->19, 227->10, 228->33, 229->7, 230->30, 231->47, 232->35, 233->37, 234->46, 235->0, 236->10, 237->2, 238->31, 239->45, 240->25, 241->5, 242->18, 243->26, 244->9, 245->40, 246->31, 247->17, 248->0, 249->24, 250->12, 251->26, 252->21, 253->29, 254->21, 255->6, 256->41, 257->23, 258->7, 259->47, 260->18, 261->41, 262->19, 263->34, 264->37, 265->8, 266->40, 267->2, 268->29, 269->43, 270->41, 271->34, 272->10, 273->0, 274->14, 275->11, 276->20, 277->15, 278->15, 279->11, 280->39, 281->43, 282->43, 283->15, 284->16, 285->4, 286->11, 287->33
Number of tasks per core:
	6	6	6	6	6	6
	6	6	6	6	6	6
	6	6	6	6	6	6
	6	6	6	6	6	6
	6	6	6	6	6	6
	6	6	6	6	6	6
	6	6	6	6	6	6
	6	6	6	6	6	6
Average CPI map:
	0.914634	1.16558	2.21854	1.39411	1.65518	1.32115
	1.62359	2.78872	2.47864	4.37721	2.86046	1.31299
	1.20883	2.54286	3.24667	2.69381	5.10423	0.793919
	1.20766	5.42871	5.68432	2.81192	4.75253	1.37321
	0.821869	5.4697	3.25249	4.07805	2.93008	2.21761
	1.4629	3.13645	3.15244	8.26692	2.8892	2.00027
	1.28027	6.99798	2.6078	4.02501	2.33331	1.09563
	0.942561	2.27367	6.01755	4.58709	2.37595	0.82571
Efficiency map:
	0.99722	0.861299	0.942979	0.948629	0.912569	1.00307
	0.727432	0.720638	0.72591	0.734723	0.749102	0.840479
	0.823409	0.717869	0.723266	0.717827	0.778999	0.74795
	0.816191	0.718587	0.805349	0.723145	0.734793	0.903008
	0.816206	0.748334	0.730432	0.72665	0.718274	0.882382
	0.783617	0.72308	0.717842	0.874509	0.718875	0.827373
	0.81212	0.761622	0.717877	0.734014	0.723468	0.807528
	0.809153	0.721244	0.790543	0.717827	0.741592	0.776486
==============================================================================
Local Solver optimizer for EML demonstration
==============================================================================

Option values: --wld-idx 2 --global-tlim 90 --seed 201

Starting the Optimization Process
