==============================================================================
LNS optimizer for EML demonstration
==============================================================================

Option values: --wld-idx 17 --prec 10000 --step 0 --global-tlim 90 --global-iter 1000 --local-tlim 3 --local-nsol 1 --restart-base 100 --restart-strat luby --seed 301

Starting the Optimization Process
reserved_tasks None
Finding a first solution
LNS iteration #0 ========================================
- worst case average CPI: 2.479
- worst case efficiency: 0.656
- efficiency to beat: 0.656
- normalized lower bound 1017
--- checking solution
--- solution ok! Maximum rounding error: 0.000042
- solution found, obj var is: 1126
- de-normalized obj var: 0.667560
- time (local/global): 0.004/0.004
- branches (local/global): 262/262
- fails (local/global): 112/112
- lns time: 0.010000
- lns branches: 262
- lns fails: 112
LNS iteration #1 ========================================
- worst case average CPI: 2.297
- worst case efficiency: 0.668
- efficiency to beat: 0.668
- normalized lower bound 1210
--- checking solution
--- solution ok! Maximum rounding error: 0.000045
- solution found, obj var is: 1549
- de-normalized obj var: 0.692940
- time (local/global): 0.005/0.015
- branches (local/global): 252/514
- fails (local/global): 106/218
- lns time: 0.010000
- lns branches: 252
- lns fails: 106
LNS iteration #2 ========================================
- worst case average CPI: 2.304
- worst case efficiency: 0.681
- efficiency to beat: 0.681
- normalized lower bound 1440
--- checking solution
--- solution ok! Maximum rounding error: 0.000053
- solution found, obj var is: 3629
- de-normalized obj var: 0.817740
- time (local/global): 0.001/0.021
- branches (local/global): 22/536
- fails (local/global): 0/218
- lns time: 0.006000
- lns branches: 22
- lns fails: 0
LNS iteration #3 ========================================
- worst case average CPI: 1.610
- worst case efficiency: 0.693
- efficiency to beat: 0.693
- normalized lower bound 1633
--- checking solution
--- solution ok! Maximum rounding error: 0.000032
- solution found, obj var is: 1803
- de-normalized obj var: 0.708180
- time (local/global): 0.001/0.027
- branches (local/global): 25/561
- fails (local/global): 2/220
- lns time: 0.006000
- lns branches: 25
- lns fails: 2
LNS iteration #4 ========================================
- worst case average CPI: 1.610
- worst case efficiency: 0.701
- efficiency to beat: 0.701
- normalized lower bound 1764
--- checking solution
--- solution ok! Maximum rounding error: 0.000033
- solution found, obj var is: 1986
- de-normalized obj var: 0.719160
- time (local/global): 0.002/0.034
- branches (local/global): 76/637
- fails (local/global): 28/248
- lns time: 0.007000
- lns branches: 76
- lns fails: 28
LNS iteration #5 ========================================
- worst case average CPI: 1.470
- worst case efficiency: 0.701
- efficiency to beat: 0.701
- normalized lower bound 1769
--- checking solution
--- solution ok! Maximum rounding error: 0.000033
- solution found, obj var is: 1896
- de-normalized obj var: 0.713760
- time (local/global): 0.004/0.043
- branches (local/global): 238/875
- fails (local/global): 100/348
- lns time: 0.009000
- lns branches: 238
- lns fails: 100
LNS iteration #6 ========================================
- worst case average CPI: 1.610
- worst case efficiency: 0.704
- efficiency to beat: 0.704
- normalized lower bound 1809
--- checking solution
--- solution ok! Maximum rounding error: 0.000005
- solution found, obj var is: 1829
- de-normalized obj var: 0.709740
- time (local/global): 0.000/0.048
- branches (local/global): 15/890
- fails (local/global): 0/348
- lns time: 0.005000
- lns branches: 15
- lns fails: 0
LNS iteration #7 ========================================
- worst case average CPI: 1.610
- worst case efficiency: 0.707
- efficiency to beat: 0.707
- normalized lower bound 1860
--- checking solution
--- solution ok! Maximum rounding error: 0.000069
- solution found, obj var is: 2236
- de-normalized obj var: 0.734160
- time (local/global): 0.003/0.056
- branches (local/global): 222/1112
- fails (local/global): 100/448
- lns time: 0.008000
- lns branches: 222
- lns fails: 100
LNS iteration #8 ========================================
- worst case average CPI: 1.644
- worst case efficiency: 0.707
- efficiency to beat: 0.707
- normalized lower bound 1871
--- checking solution
--- solution ok! Maximum rounding error: 0.000072
- solution found, obj var is: 1932
- de-normalized obj var: 0.715920
- time (local/global): 0.001/0.062
- branches (local/global): 25/1137
- fails (local/global): 1/449
- lns time: 0.006000
- lns branches: 25
- lns fails: 1
LNS iteration #9 ========================================
- worst case average CPI: 1.644
- worst case efficiency: 0.708
- efficiency to beat: 0.708
- normalized lower bound 1884
--- checking solution
--- solution ok! Maximum rounding error: 0.000073
- solution found, obj var is: 2023
- de-normalized obj var: 0.721380
- time (local/global): 0.001/0.068
- branches (local/global): 20/1157
- fails (local/global): 0/449
- lns time: 0.006000
- lns branches: 20
- lns fails: 0
LNS iteration #10 ========================================
- worst case average CPI: 1.644
- worst case efficiency: 0.709
- efficiency to beat: 0.709
- normalized lower bound 1908
--- checking solution
--- solution ok! Maximum rounding error: 0.000064
- solution found, obj var is: 2838
- de-normalized obj var: 0.770280
- time (local/global): 0.001/0.074
- branches (local/global): 23/1180
- fails (local/global): 1/450
- lns time: 0.006000
- lns branches: 23
- lns fails: 1
LNS iteration #11 ========================================
- worst case average CPI: 1.644
- worst case efficiency: 0.711
- efficiency to beat: 0.711
- normalized lower bound 1928
--- checking solution
--- solution ok! Maximum rounding error: 0.000025
- solution found, obj var is: 2042
- de-normalized obj var: 0.722520
- time (local/global): 0.001/0.080
- branches (local/global): 23/1203
- fails (local/global): 1/451
- lns time: 0.007000
- lns branches: 23
- lns fails: 1
LNS iteration #12 ========================================
- worst case average CPI: 1.644
- worst case efficiency: 0.712
- efficiency to beat: 0.712
- normalized lower bound 1958
--- checking solution
--- solution ok! Maximum rounding error: 0.000225
- solution found, obj var is: 2956
- de-normalized obj var: 0.777360
- time (local/global): 0.000/0.086
- branches (local/global): 21/1224
- fails (local/global): 0/451
- lns time: 0.006000
- lns branches: 21
- lns fails: 0
LNS iteration #13 ========================================
- worst case average CPI: 1.644
- worst case efficiency: 0.714
- efficiency to beat: 0.714
- normalized lower bound 1982
--- checking solution
--- solution ok! Maximum rounding error: 0.000037
- solution found, obj var is: 2083
- de-normalized obj var: 0.724980
- time (local/global): 0.040/0.132
- branches (local/global): 2555/3779
- fails (local/global): 1210/1661
- lns time: 0.049000
- lns branches: 2555
- lns fails: 1210
LNS iteration #14 ========================================
- worst case average CPI: 1.644
- worst case efficiency: 0.713
- efficiency to beat: 0.713
- normalized lower bound 1969
--- checking solution
--- solution ok! Maximum rounding error: 0.000036
- solution found, obj var is: 2947
- de-normalized obj var: 0.776820
- time (local/global): 0.004/0.145
- branches (local/global): 236/4015
- fails (local/global): 100/1761
- lns time: 0.009000
- lns branches: 236
- lns fails: 100
LNS iteration #15 ========================================
- worst case average CPI: 1.338
- worst case efficiency: 0.716
- efficiency to beat: 0.716
- normalized lower bound 2015
--- checking solution
--- solution ok! Maximum rounding error: 0.000068
- solution found, obj var is: 2204
- de-normalized obj var: 0.732240
- time (local/global): 0.001/0.151
- branches (local/global): 22/4037
- fails (local/global): 1/1762
- lns time: 0.006000
- lns branches: 22
- lns fails: 1
LNS iteration #16 ========================================
- worst case average CPI: 1.338
- worst case efficiency: 0.717
- efficiency to beat: 0.717
- normalized lower bound 2040
--- checking solution
--- solution ok! Maximum rounding error: 0.000058
- solution found, obj var is: 2321
- de-normalized obj var: 0.739260
- time (local/global): 0.004/0.160
- branches (local/global): 239/4276
- fails (local/global): 102/1864
- lns time: 0.009000
- lns branches: 239
- lns fails: 102
LNS iteration #17 ========================================
- worst case average CPI: 1.338
- worst case efficiency: 0.722
- efficiency to beat: 0.722
- normalized lower bound 2121
--- checking solution
--- solution ok! Maximum rounding error: 0.000106
- solution found, obj var is: 2187
- de-normalized obj var: 0.731220
- time (local/global): 0.003/0.168
- branches (local/global): 92/4368
- fails (local/global): 37/1901
- lns time: 0.008000
- lns branches: 92
- lns fails: 37
LNS iteration #18 ========================================
- worst case average CPI: 1.548
- worst case efficiency: 0.722
- efficiency to beat: 0.722
- normalized lower bound 2119
--- checking solution
--- solution ok! Maximum rounding error: 0.000003
- solution found, obj var is: 2149
- de-normalized obj var: 0.728940
- time (local/global): 0.002/0.175
- branches (local/global): 134/4502
- fails (local/global): 60/1961
- lns time: 0.007000
- lns branches: 134
- lns fails: 60
LNS iteration #19 ========================================
- worst case average CPI: 1.548
- worst case efficiency: 0.723
- efficiency to beat: 0.723
- normalized lower bound 2133
--- checking solution
--- solution ok! Maximum rounding error: 0.000119
- solution found, obj var is: 2136
- de-normalized obj var: 0.728160
- time (local/global): 0.007/0.187
- branches (local/global): 374/4876
- fails (local/global): 168/2129
- lns time: 0.012000
- lns branches: 374
- lns fails: 168
LNS iteration #20 ========================================
- worst case average CPI: 1.548
- worst case efficiency: 0.723
- efficiency to beat: 0.723
- normalized lower bound 2140
--- checking solution
--- solution ok! Maximum rounding error: 0.000046
- solution found, obj var is: 2148
- de-normalized obj var: 0.728880
- time (local/global): 0.001/0.193
- branches (local/global): 26/4902
- fails (local/global): 2/2131
- lns time: 0.006000
- lns branches: 26
- lns fails: 2
LNS iteration #21 ========================================
- worst case average CPI: 1.548
- worst case efficiency: 0.728
- efficiency to beat: 0.728
- normalized lower bound 2220
--- checking solution
--- solution ok! Maximum rounding error: 0.000062
- solution found, obj var is: 2467
- de-normalized obj var: 0.748020
- time (local/global): 0.016/0.214
- branches (local/global): 1131/6033
- fails (local/global): 523/2654
- lns time: 0.021000
- lns branches: 1131
- lns fails: 523
LNS iteration #22 ========================================
- worst case average CPI: 1.739
- worst case efficiency: 0.727
- efficiency to beat: 0.727
- normalized lower bound 2200
--- checking solution
--- solution ok! Maximum rounding error: 0.000016
- solution found, obj var is: 2912
- de-normalized obj var: 0.774720
- time (local/global): 0.001/0.220
- branches (local/global): 21/6054
- fails (local/global): 1/2655
- lns time: 0.006000
- lns branches: 21
- lns fails: 1
LNS iteration #23 ========================================
- worst case average CPI: 1.739
- worst case efficiency: 0.729
- efficiency to beat: 0.729
- normalized lower bound 2234
--- checking solution
--- solution ok! Maximum rounding error: 0.000061
- solution found, obj var is: 3160
- de-normalized obj var: 0.789600
- time (local/global): 0.001/0.226
- branches (local/global): 64/6118
- fails (local/global): 24/2679
- lns time: 0.006000
- lns branches: 64
- lns fails: 24
LNS iteration #24 ========================================
- worst case average CPI: 1.739
- worst case efficiency: 0.730
- efficiency to beat: 0.730
- normalized lower bound 2252
--- checking solution
--- solution ok! Maximum rounding error: 0.000044
- solution found, obj var is: 2348
- de-normalized obj var: 0.740880
- time (local/global): 0.007/0.238
- branches (local/global): 431/6549
- fails (local/global): 197/2876
- lns time: 0.012000
- lns branches: 431
- lns fails: 197
LNS iteration #25 ========================================
- worst case average CPI: 1.666
- worst case efficiency: 0.731
- efficiency to beat: 0.731
- normalized lower bound 2265
--- checking solution
--- solution ok! Maximum rounding error: 0.000055
- solution found, obj var is: 2620
- de-normalized obj var: 0.757200
- time (local/global): 0.001/0.244
- branches (local/global): 25/6574
- fails (local/global): 2/2878
- lns time: 0.006000
- lns branches: 25
- lns fails: 2
LNS iteration #26 ========================================
- worst case average CPI: 1.666
- worst case efficiency: 0.732
- efficiency to beat: 0.732
- normalized lower bound 2288
--- checking solution
--- solution ok! Maximum rounding error: 0.000033
- solution found, obj var is: 2475
- de-normalized obj var: 0.748500
- time (local/global): 0.005/0.254
- branches (local/global): 249/6823
- fails (local/global): 106/2984
- lns time: 0.010000
- lns branches: 249
- lns fails: 106
LNS iteration #27 ========================================
- worst case average CPI: 1.666
- worst case efficiency: 0.736
- efficiency to beat: 0.736
- normalized lower bound 2347
--- checking solution
--- solution ok! Maximum rounding error: 0.000015
- solution found, obj var is: 2455
- de-normalized obj var: 0.747300
- time (local/global): 0.001/0.260
- branches (local/global): 23/6846
- fails (local/global): 1/2985
- lns time: 0.006000
- lns branches: 23
- lns fails: 1
LNS iteration #28 ========================================
- worst case average CPI: 1.666
- worst case efficiency: 0.738
- efficiency to beat: 0.738
- normalized lower bound 2378
--- checking solution
--- solution ok! Maximum rounding error: 0.000048
- solution found, obj var is: 2664
- de-normalized obj var: 0.759840
- time (local/global): 0.035/0.300
- branches (local/global): 2747/9593
- fails (local/global): 1300/4285
- lns time: 0.040000
- lns branches: 2747
- lns fails: 1300
LNS iteration #29 ========================================
- worst case average CPI: 1.500
- worst case efficiency: 0.745
- efficiency to beat: 0.745
- normalized lower bound 2507
--- checking solution
--- solution ok! Maximum rounding error: 0.000066
- solution found, obj var is: 2836
- de-normalized obj var: 0.770160
- time (local/global): 0.007/0.312
- branches (local/global): 292/9885
- fails (local/global): 125/4410
- lns time: 0.013000
- lns branches: 292
- lns fails: 125
LNS iteration #30 ========================================
- worst case average CPI: 1.666
- worst case efficiency: 0.747
- efficiency to beat: 0.747
- normalized lower bound 2541
--- checking solution
--- solution ok! Maximum rounding error: 0.000022
- solution found, obj var is: 2661
- de-normalized obj var: 0.759660
- time (local/global): 0.135/0.453
- branches (local/global): 9171/19056
- fails (local/global): 4404/8814
- lns time: 0.141000
- lns branches: 9171
- lns fails: 4404
LNS iteration #31 ========================================
- worst case average CPI: 1.666
- worst case efficiency: 0.747
- efficiency to beat: 0.747
- normalized lower bound 2535
--- checking solution
--- solution ok! Maximum rounding error: 0.000050
- solution found, obj var is: 2636
- de-normalized obj var: 0.758160
- time (local/global): 0.003/0.462
- branches (local/global): 237/19293
- fails (local/global): 102/8916
- lns time: 0.009000
- lns branches: 237
- lns fails: 102
LNS iteration #32 ========================================
- worst case average CPI: 1.772
- worst case efficiency: 0.748
- efficiency to beat: 0.748
- normalized lower bound 2548
--- checking solution
--- solution ok! Maximum rounding error: 0.000160
- solution found, obj var is: 2569
- de-normalized obj var: 0.754140
- time (local/global): 0.003/0.471
- branches (local/global): 241/19534
- fails (local/global): 101/9017
- lns time: 0.008000
- lns branches: 241
- lns fails: 101
LNS iteration #33 ========================================
- worst case average CPI: 1.772
- worst case efficiency: 0.748
- efficiency to beat: 0.748
- normalized lower bound 2557
--- checking solution
--- solution ok! Maximum rounding error: 0.000063
- solution found, obj var is: 2650
- de-normalized obj var: 0.759000
- time (local/global): 0.002/0.478
- branches (local/global): 50/19584
- fails (local/global): 14/9031
- lns time: 0.007000
- lns branches: 50
- lns fails: 14
LNS iteration #34 ========================================
- worst case average CPI: 1.772
- worst case efficiency: 0.753
- efficiency to beat: 0.753
- normalized lower bound 2637
--- checking solution
--- solution ok! Maximum rounding error: 0.000012
- solution found, obj var is: 3476
- de-normalized obj var: 0.808560
- time (local/global): 0.001/0.484
- branches (local/global): 24/19608
- fails (local/global): 1/9032
- lns time: 0.006000
- lns branches: 24
- lns fails: 1
LNS iteration #35 ========================================
- worst case average CPI: 1.772
- worst case efficiency: 0.754
- efficiency to beat: 0.754
- normalized lower bound 2654
--- checking solution
--- solution ok! Maximum rounding error: 0.000049
- solution found, obj var is: 2762
- de-normalized obj var: 0.765720
- time (local/global): 0.006/0.495
- branches (local/global): 372/19980
- fails (local/global): 167/9199
- lns time: 0.012000
- lns branches: 372
- lns fails: 167
LNS iteration #36 ========================================
- worst case average CPI: 1.772
- worst case efficiency: 0.753
- efficiency to beat: 0.753
- normalized lower bound 2639
--- checking solution
--- solution ok! Maximum rounding error: 0.000070
- solution found, obj var is: 2737
- de-normalized obj var: 0.764220
- time (local/global): 0.003/0.504
- branches (local/global): 239/20219
- fails (local/global): 107/9306
- lns time: 0.008000
- lns branches: 239
- lns fails: 107
LNS iteration #37 ========================================
- worst case average CPI: 1.412
- worst case efficiency: 0.758
- efficiency to beat: 0.758
- normalized lower bound 2713
--- checking solution
--- solution ok! Maximum rounding error: 0.000026
- solution found, obj var is: 2848
- de-normalized obj var: 0.770880
- time (local/global): 0.001/0.510
- branches (local/global): 36/20255
- fails (local/global): 8/9314
- lns time: 0.006000
- lns branches: 36
- lns fails: 8
LNS iteration #38 ========================================
- worst case average CPI: 1.412
- worst case efficiency: 0.759
- efficiency to beat: 0.759
- normalized lower bound 2729
--- checking solution
--- solution ok! Maximum rounding error: 0.000128
- solution found, obj var is: 2759
- de-normalized obj var: 0.765540
- time (local/global): 0.494/1.009
- branches (local/global): 32612/52867
- fails (local/global): 16002/25316
- lns time: 0.499000
- lns branches: 32612
- lns fails: 16002
LNS iteration #39 ========================================
- worst case average CPI: 1.412
- worst case efficiency: 0.759
- efficiency to beat: 0.759
- normalized lower bound 2739
--- checking solution
--- solution ok! Maximum rounding error: 0.000051
- solution found, obj var is: 2812
- de-normalized obj var: 0.768720
- time (local/global): 0.001/1.015
- branches (local/global): 19/52886
- fails (local/global): 3/25319
- lns time: 0.006000
- lns branches: 19
- lns fails: 3
LNS iteration #40 ========================================
- worst case average CPI: 1.206
- worst case efficiency: 0.760
- efficiency to beat: 0.760
- normalized lower bound 2752
--- checking solution
--- solution ok! Maximum rounding error: 0.000091
- solution found, obj var is: 2836
- de-normalized obj var: 0.770160
- time (local/global): 0.339/1.359
- branches (local/global): 20714/73600
- fails (local/global): 10014/35333
- lns time: 0.344000
- lns branches: 20714
- lns fails: 10014
LNS iteration #41 ========================================
- worst case average CPI: 1.095
- worst case efficiency: 0.760
- efficiency to beat: 0.760
- normalized lower bound 2750
--- checking solution
--- solution ok! Maximum rounding error: 0.000085
- solution found, obj var is: 3780
- de-normalized obj var: 0.826800
- time (local/global): 0.001/1.365
- branches (local/global): 35/73635
- fails (local/global): 8/35341
- lns time: 0.006000
- lns branches: 35
- lns fails: 8
LNS iteration #42 ========================================
- worst case average CPI: 1.095
- worst case efficiency: 0.760
- efficiency to beat: 0.760
- normalized lower bound 2744
--- checking solution
--- solution ok! Maximum rounding error: 0.000021
- solution found, obj var is: 2907
- de-normalized obj var: 0.774420
- time (local/global): 0.001/1.371
- branches (local/global): 21/73656
- fails (local/global): 1/35342
- lns time: 0.007000
- lns branches: 21
- lns fails: 1
LNS iteration #43 ========================================
- worst case average CPI: 1.095
- worst case efficiency: 0.760
- efficiency to beat: 0.760
- normalized lower bound 2755
--- checking solution
--- solution ok! Maximum rounding error: 0.000065
- solution found, obj var is: 2769
- de-normalized obj var: 0.766140
- time (local/global): 0.146/1.523
- branches (local/global): 8451/82107
- fails (local/global): 4049/39391
- lns time: 0.151000
- lns branches: 8451
- lns fails: 4049
LNS iteration #44 ========================================
- worst case average CPI: 1.095
- worst case efficiency: 0.764
- efficiency to beat: 0.764
- normalized lower bound 2825
--- checking solution
--- solution ok! Maximum rounding error: 0.000021
- solution found, obj var is: 2870
- de-normalized obj var: 0.772200
- time (local/global): 0.003/1.531
- branches (local/global): 100/82207
- fails (local/global): 39/39430
- lns time: 0.008000
- lns branches: 100
- lns fails: 39
LNS iteration #45 ========================================
- worst case average CPI: 1.095
- worst case efficiency: 0.763
- efficiency to beat: 0.763
- normalized lower bound 2807
--- checking solution
--- solution ok! Maximum rounding error: 0.000071
- solution found, obj var is: 3094
- de-normalized obj var: 0.785640
- time (local/global): 0.019/1.555
- branches (local/global): 1043/83250
- fails (local/global): 491/39921
- lns time: 0.024000
- lns branches: 1043
- lns fails: 491
LNS iteration #46 ========================================
- worst case average CPI: 1.095
- worst case efficiency: 0.766
- efficiency to beat: 0.766
- normalized lower bound 2844
--- checking solution
--- solution ok! Maximum rounding error: 0.000031
- solution found, obj var is: 2880
- de-normalized obj var: 0.772800
- time (local/global): 0.015/1.575
- branches (local/global): 888/84138
- fails (local/global): 412/40333
- lns time: 0.020000
- lns branches: 888
- lns fails: 412
LNS iteration #47 ========================================
- worst case average CPI: 1.095
- worst case efficiency: 0.767
- efficiency to beat: 0.767
- normalized lower bound 2860
--- checking solution
--- solution ok! Maximum rounding error: 0.000024
- solution found, obj var is: 2894
- de-normalized obj var: 0.773640
- time (local/global): 0.006/1.586
- branches (local/global): 246/84384
- fails (local/global): 104/40437
- lns time: 0.011000
- lns branches: 246
- lns fails: 104
LNS iteration #48 ========================================
- worst case average CPI: 1.095
- worst case efficiency: 0.768
- efficiency to beat: 0.768
- normalized lower bound 2892
--- checking solution
--- solution ok! Maximum rounding error: 0.000017
- solution found, obj var is: 3378
- de-normalized obj var: 0.802680
- time (local/global): 0.004/1.595
- branches (local/global): 240/84624
- fails (local/global): 100/40537
- lns time: 0.009000
- lns branches: 240
- lns fails: 100
LNS iteration #49 ========================================
- worst case average CPI: 1.095
- worst case efficiency: 0.769
- efficiency to beat: 0.769
- normalized lower bound 2894
--- checking solution
--- solution ok! Maximum rounding error: 0.000087
- solution found, obj var is: 3021
- de-normalized obj var: 0.781260
- time (local/global): 0.001/1.601
- branches (local/global): 20/84644
- fails (local/global): 0/40537
- lns time: 0.006000
- lns branches: 20
- lns fails: 0
LNS iteration #50 ========================================
- worst case average CPI: 1.095
- worst case efficiency: 0.770
- efficiency to beat: 0.770
- normalized lower bound 2916
--- checking solution
--- solution ok! Maximum rounding error: 0.000055
- solution found, obj var is: 2934
- de-normalized obj var: 0.776040
- time (local/global): 0.000/1.606
- branches (local/global): 19/84663
- fails (local/global): 3/40540
- lns time: 0.005000
- lns branches: 19
- lns fails: 3
LNS iteration #51 ========================================
- worst case average CPI: 1.095
- worst case efficiency: 0.770
- efficiency to beat: 0.770
- normalized lower bound 2920
--- checking solution
--- solution ok! Maximum rounding error: 0.000026
- solution found, obj var is: 3179
- de-normalized obj var: 0.790740
- time (local/global): 0.004/1.615
- branches (local/global): 269/84932
- fails (local/global): 117/40657
- lns time: 0.010000
- lns branches: 269
- lns fails: 117
LNS iteration #52 ========================================
- worst case average CPI: 1.095
- worst case efficiency: 0.771
- efficiency to beat: 0.771
- normalized lower bound 2939
--- checking solution
--- solution ok! Maximum rounding error: 0.000054
- solution found, obj var is: 3729
- de-normalized obj var: 0.823740
- time (local/global): 0.000/1.621
- branches (local/global): 29/84961
- fails (local/global): 6/40663
- lns time: 0.005000
- lns branches: 29
- lns fails: 6
LNS iteration #53 ========================================
- worst case average CPI: 1.095
- worst case efficiency: 0.775
- efficiency to beat: 0.775
- normalized lower bound 3000
--- checking solution
--- solution ok! Maximum rounding error: 0.000011
- solution found, obj var is: 3200
- de-normalized obj var: 0.792000
- time (local/global): 0.021/1.647
- branches (local/global): 1698/86659
- fails (local/global): 817/41480
- lns time: 0.026000
- lns branches: 1698
- lns fails: 817
LNS iteration #54 ========================================
- worst case average CPI: 1.095
- worst case efficiency: 0.775
- efficiency to beat: 0.775
- normalized lower bound 3003
--- checking solution
--- solution ok! Maximum rounding error: 0.000025
- solution found, obj var is: 3158
- de-normalized obj var: 0.789480
- time (local/global): 0.000/1.652
- branches (local/global): 21/86680
- fails (local/global): 3/41483
- lns time: 0.005000
- lns branches: 21
- lns fails: 3
LNS iteration #55 ========================================
- worst case average CPI: 1.095
- worst case efficiency: 0.777
- efficiency to beat: 0.777
- normalized lower bound 3027
--- checking solution
--- solution ok! Maximum rounding error: 0.000208
- solution found, obj var is: 3037
- de-normalized obj var: 0.782220
- time (local/global): 0.004/1.661
- branches (local/global): 239/86919
- fails (local/global): 102/41585
- lns time: 0.009000
- lns branches: 239
- lns fails: 102
LNS iteration #56 ========================================
- worst case average CPI: 1.408
- worst case efficiency: 0.777
- efficiency to beat: 0.777
- normalized lower bound 3031
--- checking solution
--- solution ok! Maximum rounding error: 0.000062
- solution found, obj var is: 3068
- de-normalized obj var: 0.784080
- time (local/global): 0.044/1.710
- branches (local/global): 2530/89449
- fails (local/global): 1203/42788
- lns time: 0.049000
- lns branches: 2530
- lns fails: 1203
LNS iteration #57 ========================================
- worst case average CPI: 1.408
- worst case efficiency: 0.776
- efficiency to beat: 0.776
- normalized lower bound 3021
--- checking solution
--- solution ok! Maximum rounding error: 0.000208
- solution found, obj var is: 3757
- de-normalized obj var: 0.825420
- time (local/global): 0.001/1.716
- branches (local/global): 22/89471
- fails (local/global): 0/42788
- lns time: 0.006000
- lns branches: 22
- lns fails: 0
LNS iteration #58 ========================================
- worst case average CPI: 1.408
- worst case efficiency: 0.779
- efficiency to beat: 0.779
- normalized lower bound 3073
--- checking solution
--- solution ok! Maximum rounding error: 0.000053
- solution found, obj var is: 3429
- de-normalized obj var: 0.805740
- time (local/global): 0.001/1.722
- branches (local/global): 22/89493
- fails (local/global): 0/42788
- lns time: 0.006000
- lns branches: 22
- lns fails: 0
LNS iteration #59 ========================================
- worst case average CPI: 1.408
- worst case efficiency: 0.782
- efficiency to beat: 0.782
- normalized lower bound 3121
--- checking solution
--- solution ok! Maximum rounding error: 0.000043
- solution found, obj var is: 3260
- de-normalized obj var: 0.795600
- time (local/global): 0.034/1.761
- branches (local/global): 1328/90821
- fails (local/global): 621/43409
- lns time: 0.039000
- lns branches: 1328
- lns fails: 621
LNS iteration #60 ========================================
- worst case average CPI: 1.007
- worst case efficiency: 0.784
- efficiency to beat: 0.784
- normalized lower bound 3157
--- checking solution
--- solution ok! Maximum rounding error: 0.000065
- solution found, obj var is: 3258
- de-normalized obj var: 0.795480
- time (local/global): 0.019/1.785
- branches (local/global): 1149/91970
- fails (local/global): 538/43947
- lns time: 0.024000
- lns branches: 1149
- lns fails: 538
LNS iteration #61 ========================================
- worst case average CPI: 1.007
- worst case efficiency: 0.786
- efficiency to beat: 0.786
- normalized lower bound 3179
--- checking solution
--- solution ok! Maximum rounding error: 0.000010
- solution found, obj var is: 3236
- de-normalized obj var: 0.794160
- time (local/global): 0.001/1.791
- branches (local/global): 28/91998
- fails (local/global): 7/43954
- lns time: 0.006000
- lns branches: 28
- lns fails: 7
LNS iteration #62 ========================================
- worst case average CPI: 1.007
- worst case efficiency: 0.789
- efficiency to beat: 0.789
- normalized lower bound 3237
--- checking solution
--- solution ok! Maximum rounding error: 0.000035
- solution found, obj var is: 3357
- de-normalized obj var: 0.801420
- time (local/global): 0.001/1.797
- branches (local/global): 24/92022
- fails (local/global): 1/43955
- lns time: 0.007000
- lns branches: 24
- lns fails: 1
LNS iteration #63 ========================================
- worst case average CPI: 1.007
- worst case efficiency: 0.792
- efficiency to beat: 0.792
- normalized lower bound 3283
--- checking solution
--- solution ok! Maximum rounding error: 0.000049
- solution found, obj var is: 3326
- de-normalized obj var: 0.799560
- time (local/global): 0.145/1.948
- branches (local/global): 8419/100441
- fails (local/global): 4034/47989
- lns time: 0.150000
- lns branches: 8419
- lns fails: 4034
LNS iteration #64 ========================================
- worst case average CPI: 1.007
- worst case efficiency: 0.793
- efficiency to beat: 0.793
- normalized lower bound 3296
--- checking solution
--- solution ok! Maximum rounding error: 0.000000
- solution found, obj var is: 3424
- de-normalized obj var: 0.805440
- time (local/global): 0.006/1.959
- branches (local/global): 270/100711
- fails (local/global): 118/48107
- lns time: 0.011000
- lns branches: 270
- lns fails: 118
LNS iteration #65 ========================================
- worst case average CPI: 1.007
- worst case efficiency: 0.795
- efficiency to beat: 0.795
- normalized lower bound 3327
--- checking solution
--- solution ok! Maximum rounding error: 0.000067
- solution found, obj var is: 4335
- de-normalized obj var: 0.860100
- time (local/global): 0.003/1.967
- branches (local/global): 139/100850
- fails (local/global): 59/48166
- lns time: 0.008000
- lns branches: 139
- lns fails: 59
LNS iteration #66 ========================================
- worst case average CPI: 0.976
- worst case efficiency: 0.796
- efficiency to beat: 0.796
- normalized lower bound 3342
--- checking solution
--- solution ok! Maximum rounding error: 0.000005
- solution found, obj var is: 3365
- de-normalized obj var: 0.801900
- time (local/global): 0.021/1.993
- branches (local/global): 1731/102581
- fails (local/global): 803/48969
- lns time: 0.026000
- lns branches: 1731
- lns fails: 803
LNS iteration #67 ========================================
- worst case average CPI: 0.976
- worst case efficiency: 0.796
- efficiency to beat: 0.796
- normalized lower bound 3347
--- checking solution
--- solution ok! Maximum rounding error: 0.000267
- solution found, obj var is: 3386
- de-normalized obj var: 0.803160
- time (local/global): 0.002/2.000
- branches (local/global): 29/102610
- fails (local/global): 4/48973
- lns time: 0.007000
- lns branches: 29
- lns fails: 4
LNS iteration #68 ========================================
- worst case average CPI: 0.976
- worst case efficiency: 0.798
- efficiency to beat: 0.798
- normalized lower bound 3380
--- checking solution
--- solution ok! Maximum rounding error: 0.000489
- solution found, obj var is: 3427
- de-normalized obj var: 0.805620
- time (local/global): 0.002/2.007
- branches (local/global): 51/102661
- fails (local/global): 16/48989
- lns time: 0.007000
- lns branches: 51
- lns fails: 16
LNS iteration #69 ========================================
- worst case average CPI: 0.976
- worst case efficiency: 0.799
- efficiency to beat: 0.799
- normalized lower bound 3401
--- checking solution
--- solution ok! Maximum rounding error: 0.000064
- solution found, obj var is: 3562
- de-normalized obj var: 0.813720
- time (local/global): 0.118/2.130
- branches (local/global): 7601/110262
- fails (local/global): 3660/52649
- lns time: 0.123000
- lns branches: 7601
- lns fails: 3660
LNS iteration #70 ========================================
- worst case average CPI: 0.976
- worst case efficiency: 0.800
- efficiency to beat: 0.800
- normalized lower bound 3413
--- checking solution
--- solution ok! Maximum rounding error: 0.000045
- solution found, obj var is: 3807
- de-normalized obj var: 0.828420
- time (local/global): 0.000/2.135
- branches (local/global): 21/110283
- fails (local/global): 4/52653
- lns time: 0.005000
- lns branches: 21
- lns fails: 4
LNS iteration #71 ========================================
- worst case average CPI: 0.976
- worst case efficiency: 0.801
- efficiency to beat: 0.801
- normalized lower bound 3429
--- checking solution
--- solution ok! Maximum rounding error: 0.000052
- solution found, obj var is: 3914
- de-normalized obj var: 0.834840
- time (local/global): 0.001/2.141
- branches (local/global): 19/110302
- fails (local/global): 0/52653
- lns time: 0.006000
- lns branches: 19
- lns fails: 0
LNS iteration #72 ========================================
- worst case average CPI: 0.976
- worst case efficiency: 0.801
- efficiency to beat: 0.801
- normalized lower bound 3429
--- checking solution
--- solution ok! Maximum rounding error: 0.000063
- solution found, obj var is: 3689
- de-normalized obj var: 0.821340
- time (local/global): 0.007/2.153
- branches (local/global): 619/110921
- fails (local/global): 295/52948
- lns time: 0.013000
- lns branches: 619
- lns fails: 295
LNS iteration #73 ========================================
- worst case average CPI: 0.976
- worst case efficiency: 0.804
- efficiency to beat: 0.804
- normalized lower bound 3479
--- checking solution
--- solution ok! Maximum rounding error: 0.000038
- solution found, obj var is: 3517
- de-normalized obj var: 0.811020
- time (local/global): 0.007/2.166
- branches (local/global): 341/111262
- fails (local/global): 153/53101
- lns time: 0.012000
- lns branches: 341
- lns fails: 153
LNS iteration #74 ========================================
- worst case average CPI: 0.976
- worst case efficiency: 0.805
- efficiency to beat: 0.805
- normalized lower bound 3501
--- checking solution
--- solution ok! Maximum rounding error: 0.000052
- solution found, obj var is: 3516
- de-normalized obj var: 0.810960
- time (local/global): 0.020/2.191
- branches (local/global): 946/112208
- fails (local/global): 443/53544
- lns time: 0.025000
- lns branches: 946
- lns fails: 443
LNS iteration #75 ========================================
- worst case average CPI: 0.976
- worst case efficiency: 0.807
- efficiency to beat: 0.807
- normalized lower bound 3530
--- checking solution
--- solution ok! Maximum rounding error: 0.000046
- solution found, obj var is: 3567
- de-normalized obj var: 0.814020
- time (local/global): 1.036/3.232
- branches (local/global): 50931/163139
- fails (local/global): 24801/78345
- lns time: 1.041000
- lns branches: 50931
- lns fails: 24801
LNS iteration #76 ========================================
- worst case average CPI: 0.898
- worst case efficiency: 0.807
- efficiency to beat: 0.807
- normalized lower bound 3540
--- checking solution
--- solution ok! Maximum rounding error: 0.000054
- solution found, obj var is: 3651
- de-normalized obj var: 0.819060
- time (local/global): 0.104/3.341
- branches (local/global): 6660/169799
- fails (local/global): 3206/81551
- lns time: 0.110000
- lns branches: 6660
- lns fails: 3206
LNS iteration #77 ========================================
- worst case average CPI: 0.898
- worst case efficiency: 0.808
- efficiency to beat: 0.808
- normalized lower bound 3556
--- checking solution
--- solution ok! Maximum rounding error: 0.000124
- solution found, obj var is: 3682
- de-normalized obj var: 0.820920
- time (local/global): 0.007/3.354
- branches (local/global): 460/170259
- fails (local/global): 202/81753
- lns time: 0.012000
- lns branches: 460
- lns fails: 202
LNS iteration #78 ========================================
- worst case average CPI: 1.057
- worst case efficiency: 0.808
- efficiency to beat: 0.808
- normalized lower bound 3557
--- checking solution
--- solution ok! Maximum rounding error: 0.000028
- solution found, obj var is: 3959
- de-normalized obj var: 0.837540
- time (local/global): 0.003/3.362
- branches (local/global): 134/170393
- fails (local/global): 56/81809
- lns time: 0.008000
- lns branches: 134
- lns fails: 56
LNS iteration #79 ========================================
- worst case average CPI: 1.057
- worst case efficiency: 0.806
- efficiency to beat: 0.806
- normalized lower bound 3520
--- checking solution
--- solution ok! Maximum rounding error: 0.000054
- solution found, obj var is: 3583
- de-normalized obj var: 0.814980
- time (local/global): 0.004/3.371
- branches (local/global): 236/170629
- fails (local/global): 100/81909
- lns time: 0.009000
- lns branches: 236
- lns fails: 100
LNS iteration #80 ========================================
- worst case average CPI: 1.057
- worst case efficiency: 0.809
- efficiency to beat: 0.809
- normalized lower bound 3561
--- checking solution
--- solution ok! Maximum rounding error: 0.000043
- solution found, obj var is: 3593
- de-normalized obj var: 0.815580
- time (local/global): 0.009/3.385
- branches (local/global): 488/171117
- fails (local/global): 220/82129
- lns time: 0.014000
- lns branches: 488
- lns fails: 220
LNS iteration #81 ========================================
- worst case average CPI: 1.057
- worst case efficiency: 0.811
- efficiency to beat: 0.811
- normalized lower bound 3603
--- checking solution
--- solution ok! Maximum rounding error: 0.000063
- solution found, obj var is: 3746
- de-normalized obj var: 0.824760
- time (local/global): 0.001/3.391
- branches (local/global): 21/171138
- fails (local/global): 0/82129
- lns time: 0.006000
- lns branches: 21
- lns fails: 0
LNS iteration #82 ========================================
- worst case average CPI: 1.057
- worst case efficiency: 0.813
- efficiency to beat: 0.813
- normalized lower bound 3627
--- checking solution
--- solution ok! Maximum rounding error: 0.000027
- solution found, obj var is: 3741
- de-normalized obj var: 0.824460
- time (local/global): 0.022/3.418
- branches (local/global): 1719/172857
- fails (local/global): 801/82930
- lns time: 0.027000
- lns branches: 1719
- lns fails: 801
LNS iteration #83 ========================================
- worst case average CPI: 1.057
- worst case efficiency: 0.812
- efficiency to beat: 0.812
- normalized lower bound 3625
--- checking solution
--- solution ok! Maximum rounding error: 0.000057
- solution found, obj var is: 3646
- de-normalized obj var: 0.818760
- time (local/global): 0.005/3.428
- branches (local/global): 275/173132
- fails (local/global): 121/83051
- lns time: 0.011000
- lns branches: 275
- lns fails: 121
LNS iteration #84 ========================================
- worst case average CPI: 1.057
- worst case efficiency: 0.814
- efficiency to beat: 0.814
- normalized lower bound 3648
--- checking solution
--- solution ok! Maximum rounding error: 0.000040
- solution found, obj var is: 3694
- de-normalized obj var: 0.821640
- time (local/global): 0.009/3.443
- branches (local/global): 549/173681
- fails (local/global): 252/83303
- lns time: 0.014000
- lns branches: 549
- lns fails: 252
LNS iteration #85 ========================================
- worst case average CPI: 1.057
- worst case efficiency: 0.814
- efficiency to beat: 0.814
- normalized lower bound 3657
--- checking solution
--- solution ok! Maximum rounding error: 0.000081
- solution found, obj var is: 3853
- de-normalized obj var: 0.831180
- time (local/global): 0.001/3.449
- branches (local/global): 37/173718
- fails (local/global): 8/83311
- lns time: 0.006000
- lns branches: 37
- lns fails: 8
LNS iteration #86 ========================================
- worst case average CPI: 1.057
- worst case efficiency: 0.816
- efficiency to beat: 0.816
- normalized lower bound 3678
--- checking solution
--- solution ok! Maximum rounding error: 0.000051
- solution found, obj var is: 3701
- de-normalized obj var: 0.822060
- time (local/global): 0.081/3.535
- branches (local/global): 7751/181469
- fails (local/global): 3778/87089
- lns time: 0.086000
- lns branches: 7751
- lns fails: 3778
LNS iteration #87 ========================================
- worst case average CPI: 1.057
- worst case efficiency: 0.816
- efficiency to beat: 0.816
- normalized lower bound 3685
--- checking solution
--- solution ok! Maximum rounding error: 0.000062
- solution found, obj var is: 3726
- de-normalized obj var: 0.823560
- time (local/global): 0.003/3.543
- branches (local/global): 146/181615
- fails (local/global): 62/87151
- lns time: 0.008000
- lns branches: 146
- lns fails: 62
LNS iteration #88 ========================================
- worst case average CPI: 1.057
- worst case efficiency: 0.816
- efficiency to beat: 0.816
- normalized lower bound 3682
--- checking solution
--- solution ok! Maximum rounding error: 0.000043
- solution found, obj var is: 3762
- de-normalized obj var: 0.825720
- time (local/global): 0.506/4.054
- branches (local/global): 23719/205334
- fails (local/global): 11514/98665
- lns time: 0.512000
- lns branches: 23719
- lns fails: 11514
LNS iteration #89 ========================================
- worst case average CPI: 1.262
- worst case efficiency: 0.817
- efficiency to beat: 0.817
- normalized lower bound 3700
--- checking solution
--- solution ok! Maximum rounding error: 0.000058
- solution found, obj var is: 3999
- de-normalized obj var: 0.839940
- time (local/global): 0.001/4.061
- branches (local/global): 21/205355
- fails (local/global): 0/98665
- lns time: 0.006000
- lns branches: 21
- lns fails: 0
LNS iteration #90 ========================================
- worst case average CPI: 1.262
- worst case efficiency: 0.818
- efficiency to beat: 0.818
- normalized lower bound 3714
--- checking solution
--- solution ok! Maximum rounding error: 0.000000
- solution found, obj var is: 3729
- de-normalized obj var: 0.823740
- time (local/global): 0.050/4.116
- branches (local/global): 2758/208113
- fails (local/global): 1309/99974
- lns time: 0.055000
- lns branches: 2758
- lns fails: 1309
LNS iteration #91 ========================================
- worst case average CPI: 1.262
- worst case efficiency: 0.819
- efficiency to beat: 0.819
- normalized lower bound 3736
--- checking solution
--- solution ok! Maximum rounding error: 0.000049
- solution found, obj var is: 3844
- de-normalized obj var: 0.830640
- time (local/global): 0.132/4.253
- branches (local/global): 9432/217545
- fails (local/global): 4544/104518
- lns time: 0.137000
- lns branches: 9432
- lns fails: 4544
LNS iteration #92 ========================================
- worst case average CPI: 0.913
- worst case efficiency: 0.820
- efficiency to beat: 0.820
- normalized lower bound 3743
--- checking solution
--- solution ok! Maximum rounding error: 0.000045
- solution found, obj var is: 3793
- de-normalized obj var: 0.827580
- time (local/global): 0.142/4.400
- branches (local/global): 7403/224948
- fails (local/global): 3571/108089
- lns time: 0.147000
- lns branches: 7403
- lns fails: 3571
LNS iteration #93 ========================================
- worst case average CPI: 1.082
- worst case efficiency: 0.820
- efficiency to beat: 0.820
- normalized lower bound 3744
- lns time: 3.006000
- lns branches: 178891
- lns fails: 87650
LNS iteration #94 ========================================
- worst case average CPI: 1.082
- worst case efficiency: 0.820
- efficiency to beat: 0.820
- normalized lower bound 3744
--- checking solution
--- solution ok! Maximum rounding error: 0.000050
- solution found, obj var is: 3876
- de-normalized obj var: 0.832560
- time (local/global): 0.544/7.955
- branches (local/global): 30134/433973
- fails (local/global): 14631/210370
- lns time: 0.549000
- lns branches: 30134
- lns fails: 14631
LNS iteration #95 ========================================
- worst case average CPI: 1.082
- worst case efficiency: 0.823
- efficiency to beat: 0.823
- normalized lower bound 3794
--- checking solution
--- solution ok! Maximum rounding error: 0.000242
- solution found, obj var is: 3834
- de-normalized obj var: 0.830040
- time (local/global): 0.014/7.974
- branches (local/global): 878/434851
- fails (local/global): 404/210774
- lns time: 0.019000
- lns branches: 878
- lns fails: 404
LNS iteration #96 ========================================
- worst case average CPI: 1.082
- worst case efficiency: 0.823
- efficiency to beat: 0.823
- normalized lower bound 3798
--- checking solution
--- solution ok! Maximum rounding error: 0.000044
- solution found, obj var is: 3819
- de-normalized obj var: 0.829140
- time (local/global): 0.142/8.121
- branches (local/global): 8398/443249
- fails (local/global): 4028/214802
- lns time: 0.147000
- lns branches: 8398
- lns fails: 4028
LNS iteration #97 ========================================
- worst case average CPI: 1.130
- worst case efficiency: 0.823
- efficiency to beat: 0.823
- normalized lower bound 3802
--- checking solution
--- solution ok! Maximum rounding error: 0.000055
- solution found, obj var is: 3828
- de-normalized obj var: 0.829680
- time (local/global): 0.139/8.265
- branches (local/global): 9953/453202
- fails (local/global): 4795/219597
- lns time: 0.145000
- lns branches: 9953
- lns fails: 4795
LNS iteration #98 ========================================
- worst case average CPI: 0.901
- worst case efficiency: 0.824
- efficiency to beat: 0.824
- normalized lower bound 3824
--- checking solution
--- solution ok! Maximum rounding error: 0.000074
- solution found, obj var is: 3940
- de-normalized obj var: 0.836400
- time (local/global): 0.005/8.276
- branches (local/global): 234/453436
- fails (local/global): 100/219697
- lns time: 0.010000
- lns branches: 234
- lns fails: 100
LNS iteration #99 ========================================
- worst case average CPI: 0.901
- worst case efficiency: 0.825
- efficiency to beat: 0.825
- normalized lower bound 3829
--- checking solution
--- solution ok! Maximum rounding error: 0.000160
- solution found, obj var is: 3837
- de-normalized obj var: 0.830220
- time (local/global): 0.120/8.401
- branches (local/global): 8181/461617
- fails (local/global): 3925/223622
- lns time: 0.125000
- lns branches: 8181
- lns fails: 3925
LNS iteration #100 ========================================
- worst case average CPI: 0.901
- worst case efficiency: 0.825
- efficiency to beat: 0.825
- normalized lower bound 3840
--- checking solution
--- solution ok! Maximum rounding error: 0.000032
- solution found, obj var is: 3841
- de-normalized obj var: 0.830460
- time (local/global): 0.054/8.460
- branches (local/global): 3354/464971
- fails (local/global): 1595/225217
- lns time: 0.059000
- lns branches: 3354
- lns fails: 1595
LNS iteration #101 ========================================
- worst case average CPI: 0.962
- worst case efficiency: 0.826
- efficiency to beat: 0.826
- normalized lower bound 3845
--- checking solution
--- solution ok! Maximum rounding error: 0.000062
- solution found, obj var is: 3846
- de-normalized obj var: 0.830760
- time (local/global): 0.024/8.489
- branches (local/global): 1500/466471
- fails (local/global): 698/225915
- lns time: 0.029000
- lns branches: 1500
- lns fails: 698
LNS iteration #102 ========================================
- worst case average CPI: 0.962
- worst case efficiency: 0.826
- efficiency to beat: 0.826
- normalized lower bound 3855
--- checking solution
--- solution ok! Maximum rounding error: 0.000027
- solution found, obj var is: 3876
- de-normalized obj var: 0.832560
- time (local/global): 0.002/8.496
- branches (local/global): 55/466526
- fails (local/global): 18/225933
- lns time: 0.007000
- lns branches: 55
- lns fails: 18
LNS iteration #103 ========================================
- worst case average CPI: 0.962
- worst case efficiency: 0.827
- efficiency to beat: 0.827
- normalized lower bound 3871
--- checking solution
--- solution ok! Maximum rounding error: 0.000050
- solution found, obj var is: 3905
- de-normalized obj var: 0.834300
- time (local/global): 0.120/8.621
- branches (local/global): 8402/474928
- fails (local/global): 4039/229972
- lns time: 0.125000
- lns branches: 8402
- lns fails: 4039
LNS iteration #104 ========================================
- worst case average CPI: 0.962
- worst case efficiency: 0.829
- efficiency to beat: 0.829
- normalized lower bound 3894
--- checking solution
--- solution ok! Maximum rounding error: 0.000031
- solution found, obj var is: 3911
- de-normalized obj var: 0.834660
- time (local/global): 0.002/8.628
- branches (local/global): 83/475011
- fails (local/global): 33/230005
- lns time: 0.007000
- lns branches: 83
- lns fails: 33
LNS iteration #105 ========================================
- worst case average CPI: 0.962
- worst case efficiency: 0.829
- efficiency to beat: 0.829
- normalized lower bound 3897
--- checking solution
--- solution ok! Maximum rounding error: 0.000094
- solution found, obj var is: 3922
- de-normalized obj var: 0.835320
- time (local/global): 0.008/8.641
- branches (local/global): 417/475428
- fails (local/global): 193/230198
- lns time: 0.013000
- lns branches: 417
- lns fails: 193
LNS iteration #106 ========================================
- worst case average CPI: 0.962
- worst case efficiency: 0.829
- efficiency to beat: 0.829
- normalized lower bound 3901
--- checking solution
--- solution ok! Maximum rounding error: 0.000020
- solution found, obj var is: 4064
- de-normalized obj var: 0.843840
- time (local/global): 0.050/8.696
- branches (local/global): 4302/479730
- fails (local/global): 2086/232284
- lns time: 0.055000
- lns branches: 4302
- lns fails: 2086
LNS iteration #107 ========================================
- worst case average CPI: 0.962
- worst case efficiency: 0.829
- efficiency to beat: 0.829
- normalized lower bound 3907
--- checking solution
--- solution ok! Maximum rounding error: 0.000014
- solution found, obj var is: 3983
- de-normalized obj var: 0.838980
- time (local/global): 0.028/8.729
- branches (local/global): 1662/481392
- fails (local/global): 781/233065
- lns time: 0.033000
- lns branches: 1662
- lns fails: 781
LNS iteration #108 ========================================
- worst case average CPI: 0.962
- worst case efficiency: 0.829
- efficiency to beat: 0.829
- normalized lower bound 3906
- lns time: 0.010000
- lns branches: 635
- lns fails: 317
LNS iteration #109 ========================================
- worst case average CPI: 0.962
- worst case efficiency: 0.829
- efficiency to beat: 0.829
- normalized lower bound 3906
--- checking solution
--- solution ok! Maximum rounding error: 0.000031
- solution found, obj var is: 3908
- de-normalized obj var: 0.834480
- time (local/global): 0.515/9.259
- branches (local/global): 26149/508176
- fails (local/global): 12685/246067
- lns time: 0.520000
- lns branches: 26149
- lns fails: 12685
LNS iteration #110 ========================================
- worst case average CPI: 0.962
- worst case efficiency: 0.830
- efficiency to beat: 0.830
- normalized lower bound 3911
--- checking solution
--- solution ok! Maximum rounding error: 0.000084
- solution found, obj var is: 3951
- de-normalized obj var: 0.837060
- time (local/global): 0.047/9.311
- branches (local/global): 2417/510593
- fails (local/global): 1167/247234
- lns time: 0.053000
- lns branches: 2417
- lns fails: 1167
LNS iteration #111 ========================================
- worst case average CPI: 0.962
- worst case efficiency: 0.832
- efficiency to beat: 0.832
- normalized lower bound 3948
--- checking solution
--- solution ok! Maximum rounding error: 0.000041
- solution found, obj var is: 3955
- de-normalized obj var: 0.837300
- time (local/global): 1.583/10.900
- branches (local/global): 112307/622900
- fails (local/global): 54914/302148
- lns time: 1.588000
- lns branches: 112307
- lns fails: 54914
LNS iteration #112 ========================================
- worst case average CPI: 0.918
- worst case efficiency: 0.832
- efficiency to beat: 0.832
- normalized lower bound 3954
- lns time: 3.005000
- lns branches: 208335
- lns fails: 102246
LNS iteration #113 ========================================
- worst case average CPI: 0.918
- worst case efficiency: 0.832
- efficiency to beat: 0.832
- normalized lower bound 3954
--- checking solution
--- solution ok! Maximum rounding error: 0.000000
- solution found, obj var is: 3967
- de-normalized obj var: 0.838020
- time (local/global): 0.060/13.970
- branches (local/global): 3545/834780
- fails (local/global): 1692/406086
- lns time: 0.065000
- lns branches: 3545
- lns fails: 1692
LNS iteration #114 ========================================
- worst case average CPI: 0.918
- worst case efficiency: 0.833
- efficiency to beat: 0.833
- normalized lower bound 3963
--- checking solution
--- solution ok! Maximum rounding error: 0.000000
- solution found, obj var is: 4049
- de-normalized obj var: 0.842940
- time (local/global): 0.001/13.976
- branches (local/global): 77/834857
- fails (local/global): 31/406117
- lns time: 0.007000
- lns branches: 77
- lns fails: 31
LNS iteration #115 ========================================
- worst case average CPI: 0.962
- worst case efficiency: 0.833
- efficiency to beat: 0.833
- normalized lower bound 3969
- lns time: 3.008000
- lns branches: 153964
- lns fails: 75401
LNS iteration #116 ========================================
- worst case average CPI: 0.962
- worst case efficiency: 0.833
- efficiency to beat: 0.833
- normalized lower bound 3969
- lns time: 3.006000
- lns branches: 229263
- lns fails: 112455
LNS iteration #117 ========================================
- worst case average CPI: 0.962
- worst case efficiency: 0.833
- efficiency to beat: 0.833
- normalized lower bound 3969
--- checking solution
--- solution ok! Maximum rounding error: 0.000006
- solution found, obj var is: 3982
- de-normalized obj var: 0.838920
- time (local/global): 0.030/20.026
- branches (local/global): 2905/1220989
- fails (local/global): 1401/595374
- lns time: 0.035000
- lns branches: 2905
- lns fails: 1401
LNS iteration #118 ========================================
- worst case average CPI: 0.962
- worst case efficiency: 0.833
- efficiency to beat: 0.833
- normalized lower bound 3973
--- checking solution
--- solution ok! Maximum rounding error: 0.000048
- solution found, obj var is: 3977
- de-normalized obj var: 0.838620
- time (local/global): 1.345/21.376
- branches (local/global): 95403/1316392
- fails (local/global): 46561/641935
- lns time: 1.351000
- lns branches: 95403
- lns fails: 46561
LNS iteration #119 ========================================
- worst case average CPI: 0.962
- worst case efficiency: 0.834
- efficiency to beat: 0.834
- normalized lower bound 3990
--- checking solution
--- solution ok! Maximum rounding error: 0.000017
- solution found, obj var is: 4017
- de-normalized obj var: 0.841020
- time (local/global): 0.001/21.383
- branches (local/global): 20/1316412
- fails (local/global): 2/641937
- lns time: 0.006000
- lns branches: 20
- lns fails: 2
LNS iteration #120 ========================================
- worst case average CPI: 0.962
- worst case efficiency: 0.836
- efficiency to beat: 0.836
- normalized lower bound 4009
--- checking solution
--- solution ok! Maximum rounding error: 0.000482
- solution found, obj var is: 4017
- de-normalized obj var: 0.841020
- time (local/global): 0.069/21.457
- branches (local/global): 4406/1320818
- fails (local/global): 2095/644032
- lns time: 0.074000
- lns branches: 4406
- lns fails: 2095
LNS iteration #121 ========================================
- worst case average CPI: 0.962
- worst case efficiency: 0.836
- efficiency to beat: 0.836
- normalized lower bound 4016
--- checking solution
--- solution ok! Maximum rounding error: 0.000064
- solution found, obj var is: 4090
- de-normalized obj var: 0.845400
- time (local/global): 0.007/21.469
- branches (local/global): 473/1321291
- fails (local/global): 214/644246
- lns time: 0.012000
- lns branches: 473
- lns fails: 214
LNS iteration #122 ========================================
- worst case average CPI: 0.962
- worst case efficiency: 0.836
- efficiency to beat: 0.836
- normalized lower bound 4016
--- checking solution
--- solution ok! Maximum rounding error: 0.000048
- solution found, obj var is: 4023
- de-normalized obj var: 0.841380
- time (local/global): 1.693/23.167
- branches (local/global): 73049/1394340
- fails (local/global): 35617/679863
- lns time: 1.698000
- lns branches: 73049
- lns fails: 35617
LNS iteration #123 ========================================
- worst case average CPI: 0.962
- worst case efficiency: 0.837
- efficiency to beat: 0.837
- normalized lower bound 4033
- lns time: 3.006000
- lns branches: 147852
- lns fails: 72363
LNS iteration #124 ========================================
- worst case average CPI: 0.962
- worst case efficiency: 0.837
- efficiency to beat: 0.837
- normalized lower bound 4033
--- checking solution
--- solution ok! Maximum rounding error: 0.000077
- solution found, obj var is: 4118
- de-normalized obj var: 0.847080
- time (local/global): 0.011/26.189
- branches (local/global): 497/1542689
- fails (local/global): 220/752446
- lns time: 0.021000
- lns branches: 497
- lns fails: 220
LNS iteration #125 ========================================
- worst case average CPI: 0.962
- worst case efficiency: 0.837
- efficiency to beat: 0.837
- normalized lower bound 4036
--- checking solution
--- solution ok! Maximum rounding error: 0.000039
- solution found, obj var is: 4041
- de-normalized obj var: 0.842460
- time (local/global): 0.038/26.237
- branches (local/global): 2534/1545223
- fails (local/global): 1201/753647
- lns time: 0.043000
- lns branches: 2534
- lns fails: 1201
LNS iteration #126 ========================================
- worst case average CPI: 0.962
- worst case efficiency: 0.838
- efficiency to beat: 0.838
- normalized lower bound 4048
- lns time: 3.005000
- lns branches: 153057
- lns fails: 74999
LNS iteration #127 ========================================
- worst case average CPI: 0.962
- worst case efficiency: 0.838
- efficiency to beat: 0.838
- normalized lower bound 4048
- lns time: 3.007000
- lns branches: 168638
- lns fails: 82367
LNS iteration #128 ========================================
- worst case average CPI: 0.962
- worst case efficiency: 0.838
- efficiency to beat: 0.838
- normalized lower bound 4048
- lns time: 3.006000
- lns branches: 135028
- lns fails: 66118
LNS iteration #129 ========================================
- worst case average CPI: 0.962
- worst case efficiency: 0.838
- efficiency to beat: 0.838
- normalized lower bound 4048
- lns time: 3.008000
- lns branches: 125583
- lns fails: 61642
LNS iteration #130 ========================================
- worst case average CPI: 0.962
- worst case efficiency: 0.838
- efficiency to beat: 0.838
- normalized lower bound 4048
- lns time: 3.006000
- lns branches: 139083
- lns fails: 68005
LNS iteration #131 ========================================
- worst case average CPI: 0.962
- worst case efficiency: 0.838
- efficiency to beat: 0.838
- normalized lower bound 4048
--- checking solution
--- solution ok! Maximum rounding error: 0.000030
- solution found, obj var is: 4066
- de-normalized obj var: 0.843960
- time (local/global): 0.002/41.276
- branches (local/global): 192/2266804
- fails (local/global): 89/1106867
- lns time: 0.007000
- lns branches: 192
- lns fails: 89
LNS iteration #132 ========================================
- worst case average CPI: 0.962
- worst case efficiency: 0.838
- efficiency to beat: 0.838
- normalized lower bound 4052
- lns time: 3.006000
- lns branches: 145463
- lns fails: 71177
LNS iteration #133 ========================================
- worst case average CPI: 0.962
- worst case efficiency: 0.838
- efficiency to beat: 0.838
- normalized lower bound 4052
--- checking solution
--- solution ok! Maximum rounding error: 0.000051
- solution found, obj var is: 4154
- de-normalized obj var: 0.849240
- time (local/global): 0.179/44.466
- branches (local/global): 11650/2423917
- fails (local/global): 5606/1183650
- lns time: 0.184000
- lns branches: 11650
- lns fails: 5606
LNS iteration #134 ========================================
- worst case average CPI: 0.844
- worst case efficiency: 0.838
- efficiency to beat: 0.838
- normalized lower bound 4048
--- checking solution
--- solution ok! Maximum rounding error: 0.000056
- solution found, obj var is: 4335
- de-normalized obj var: 0.860100
- time (local/global): 2.261/46.732
- branches (local/global): 134574/2558491
- fails (local/global): 65800/1249450
- lns time: 2.266000
- lns branches: 134574
- lns fails: 65800
LNS iteration #135 ========================================
- worst case average CPI: 0.844
- worst case efficiency: 0.840
- efficiency to beat: 0.840
- normalized lower bound 4077
- lns time: 3.005000
- lns branches: 212910
- lns fails: 105237
LNS iteration #136 ========================================
- worst case average CPI: 0.844
- worst case efficiency: 0.840
- efficiency to beat: 0.840
- normalized lower bound 4077
--- checking solution
--- solution ok! Maximum rounding error: 0.000043
- solution found, obj var is: 4312
- de-normalized obj var: 0.858720
- time (local/global): 0.079/49.821
- branches (local/global): 3405/2774806
- fails (local/global): 1612/1356299
- lns time: 0.084000
- lns branches: 3405
- lns fails: 1612
LNS iteration #137 ========================================
- worst case average CPI: 0.844
- worst case efficiency: 0.840
- efficiency to beat: 0.840
- normalized lower bound 4079
--- checking solution
--- solution ok! Maximum rounding error: 0.000023
- solution found, obj var is: 4136
- de-normalized obj var: 0.848160
- time (local/global): 0.294/50.120
- branches (local/global): 17597/2792403
- fails (local/global): 8523/1364822
- lns time: 0.299000
- lns branches: 17597
- lns fails: 8523
LNS iteration #138 ========================================
- worst case average CPI: 0.844
- worst case efficiency: 0.840
- efficiency to beat: 0.840
- normalized lower bound 4082
--- checking solution
--- solution ok! Maximum rounding error: 0.000055
- solution found, obj var is: 4086
- de-normalized obj var: 0.845160
- time (local/global): 0.261/50.386
- branches (local/global): 17607/2810010
- fails (local/global): 8540/1373362
- lns time: 0.266000
- lns branches: 17607
- lns fails: 8540
LNS iteration #139 ========================================
- worst case average CPI: 0.844
- worst case efficiency: 0.840
- efficiency to beat: 0.840
- normalized lower bound 4091
- lns time: 3.006000
- lns branches: 172610
- lns fails: 84555
LNS iteration #140 ========================================
- worst case average CPI: 0.844
- worst case efficiency: 0.840
- efficiency to beat: 0.840
- normalized lower bound 4091
--- checking solution
--- solution ok! Maximum rounding error: 0.000081
- solution found, obj var is: 4091
- de-normalized obj var: 0.845460
- time (local/global): 2.894/56.291
- branches (local/global): 125870/3108490
- fails (local/global): 61666/1519583
- lns time: 2.899000
- lns branches: 125870
- lns fails: 61666
LNS iteration #141 ========================================
- worst case average CPI: 0.844
- worst case efficiency: 0.841
- efficiency to beat: 0.841
- normalized lower bound 4103
--- checking solution
--- solution ok! Maximum rounding error: 0.000002
- solution found, obj var is: 4210
- de-normalized obj var: 0.852600
- time (local/global): 0.027/56.323
- branches (local/global): 1671/3110161
- fails (local/global): 791/1520374
- lns time: 0.033000
- lns branches: 1671
- lns fails: 791
LNS iteration #142 ========================================
- worst case average CPI: 0.844
- worst case efficiency: 0.841
- efficiency to beat: 0.841
- normalized lower bound 4104
--- checking solution
--- solution ok! Maximum rounding error: 0.000058
- solution found, obj var is: 4128
- de-normalized obj var: 0.847680
- time (local/global): 0.074/56.403
- branches (local/global): 3610/3113771
- fails (local/global): 1717/1522091
- lns time: 0.080000
- lns branches: 3610
- lns fails: 1717
LNS iteration #143 ========================================
- worst case average CPI: 0.753
- worst case efficiency: 0.842
- efficiency to beat: 0.842
- normalized lower bound 4111
--- checking solution
--- solution ok! Maximum rounding error: 0.000074
- solution found, obj var is: 4114
- de-normalized obj var: 0.846840
- time (local/global): 0.398/56.807
- branches (local/global): 23202/3136973
- fails (local/global): 11256/1533347
- lns time: 0.403000
- lns branches: 23202
- lns fails: 11256
LNS iteration #144 ========================================
- worst case average CPI: 0.753
- worst case efficiency: 0.842
- efficiency to beat: 0.842
- normalized lower bound 4112
--- checking solution
--- solution ok! Maximum rounding error: 0.000363
- solution found, obj var is: 4164
- de-normalized obj var: 0.849840
- time (local/global): 0.733/57.545
- branches (local/global): 56710/3193683
- fails (local/global): 27599/1560946
- lns time: 0.738000
- lns branches: 56710
- lns fails: 27599
LNS iteration #145 ========================================
- worst case average CPI: 0.753
- worst case efficiency: 0.842
- efficiency to beat: 0.842
- normalized lower bound 4113
- lns time: 3.006000
- lns branches: 138574
- lns fails: 67918
LNS iteration #146 ========================================
- worst case average CPI: 0.753
- worst case efficiency: 0.842
- efficiency to beat: 0.842
- normalized lower bound 4113
- lns time: 3.006000
- lns branches: 139333
- lns fails: 68179
LNS iteration #147 ========================================
- worst case average CPI: 0.753
- worst case efficiency: 0.842
- efficiency to beat: 0.842
- normalized lower bound 4113
- lns time: 3.007000
- lns branches: 110332
- lns fails: 54026
LNS iteration #148 ========================================
- worst case average CPI: 0.753
- worst case efficiency: 0.842
- efficiency to beat: 0.842
- normalized lower bound 4113
- lns time: 3.006000
- lns branches: 120320
- lns fails: 58813
LNS iteration #149 ========================================
- worst case average CPI: 0.753
- worst case efficiency: 0.842
- efficiency to beat: 0.842
- normalized lower bound 4113
- lns time: 3.006000
- lns branches: 123214
- lns fails: 60310
LNS iteration #150 ========================================
- worst case average CPI: 0.753
- worst case efficiency: 0.842
- efficiency to beat: 0.842
- normalized lower bound 4113
- lns time: 3.006000
- lns branches: 152864
- lns fails: 74807
LNS iteration #151 ========================================
- worst case average CPI: 0.753
- worst case efficiency: 0.842
- efficiency to beat: 0.842
- normalized lower bound 4113
- lns time: 3.005000
- lns branches: 86099
- lns fails: 42157
LNS iteration #152 ========================================
- worst case average CPI: 0.753
- worst case efficiency: 0.842
- efficiency to beat: 0.842
- normalized lower bound 4113
--- checking solution
--- solution ok! Maximum rounding error: 0.000000
- solution found, obj var is: 4173
- de-normalized obj var: 0.850380
- time (local/global): 0.331/78.923
- branches (local/global): 17378/4081797
- fails (local/global): 8426/1995582
- lns time: 0.340000
- lns branches: 17378
- lns fails: 8426
LNS iteration #153 ========================================
- worst case average CPI: 0.753
- worst case efficiency: 0.842
- efficiency to beat: 0.842
- normalized lower bound 4117
--- checking solution
--- solution ok! Maximum rounding error: 0.000035
- solution found, obj var is: 4131
- de-normalized obj var: 0.847860
- time (local/global): 0.295/79.227
- branches (local/global): 17712/4099509
- fails (local/global): 8590/2004172
- lns time: 0.300000
- lns branches: 17712
- lns fails: 8590
LNS iteration #154 ========================================
- worst case average CPI: 0.753
- worst case efficiency: 0.842
- efficiency to beat: 0.842
- normalized lower bound 4122
--- checking solution
--- solution ok! Maximum rounding error: 0.000056
- solution found, obj var is: 4126
- de-normalized obj var: 0.847560
- time (local/global): 2.415/81.647
- branches (local/global): 131548/4231057
- fails (local/global): 64555/2068727
- lns time: 2.421000
- lns branches: 131548
- lns fails: 64555
LNS iteration #155 ========================================
- worst case average CPI: 0.642
- worst case efficiency: 0.844
- efficiency to beat: 0.844
- normalized lower bound 4154
--- checking solution
--- solution ok! Maximum rounding error: 0.000032
- solution found, obj var is: 4188
- de-normalized obj var: 0.851280
- time (local/global): 0.539/82.192
- branches (local/global): 47279/4278336
- fails (local/global): 22939/2091666
- lns time: 0.544000
- lns branches: 47279
- lns fails: 22939
LNS iteration #156 ========================================
- worst case average CPI: 0.642
- worst case efficiency: 0.844
- efficiency to beat: 0.844
- normalized lower bound 4152
--- checking solution
--- solution ok! Maximum rounding error: 0.000119
- solution found, obj var is: 4162
- de-normalized obj var: 0.849720
- time (local/global): 0.264/82.461
- branches (local/global): 8513/4286849
- fails (local/global): 4082/2095748
- lns time: 0.269000
- lns branches: 8513
- lns fails: 4082
LNS iteration #157 ========================================
- worst case average CPI: 0.642
- worst case efficiency: 0.845
- efficiency to beat: 0.845
- normalized lower bound 4167
--- checking solution
--- solution ok! Maximum rounding error: 0.000041
- solution found, obj var is: 4238
- de-normalized obj var: 0.854280
- time (local/global): 0.586/83.052
- branches (local/global): 41657/4328506
- fails (local/global): 20354/2116102
- lns time: 0.591000
- lns branches: 41657
- lns fails: 20354
LNS iteration #158 ========================================
- worst case average CPI: 0.642
- worst case efficiency: 0.846
- efficiency to beat: 0.846
- normalized lower bound 4182
--- checking solution
--- solution ok! Maximum rounding error: 0.000066
- solution found, obj var is: 4301
- de-normalized obj var: 0.858060
- time (local/global): 1.142/84.199
- branches (local/global): 66136/4394642
- fails (local/global): 32136/2148238
- lns time: 1.147000
- lns branches: 66136
- lns fails: 32136
LNS iteration #159 ========================================
- worst case average CPI: 0.642
- worst case efficiency: 0.846
- efficiency to beat: 0.846
- normalized lower bound 4191
--- checking solution
--- solution ok! Maximum rounding error: 0.000046
- solution found, obj var is: 4191
- de-normalized obj var: 0.851460
- time (local/global): 0.123/84.327
- branches (local/global): 7740/4402382
- fails (local/global): 3724/2151962
- lns time: 0.129000
- lns branches: 7740
- lns fails: 3724
LNS iteration #160 ========================================
- worst case average CPI: 0.642
- worst case efficiency: 0.847
- efficiency to beat: 0.847
- normalized lower bound 4194
--- checking solution
--- solution ok! Maximum rounding error: 0.000086
- solution found, obj var is: 4198
- de-normalized obj var: 0.851880
- time (local/global): 0.896/85.229
- branches (local/global): 47040/4449422
- fails (local/global): 22967/2174929
- lns time: 0.901000
- lns branches: 47040
- lns fails: 22967
LNS iteration #161 ========================================
- worst case average CPI: 0.642
- worst case efficiency: 0.848
- efficiency to beat: 0.848
- normalized lower bound 4210
--- checking solution
--- solution ok! Maximum rounding error: 0.000079
- solution found, obj var is: 4237
- de-normalized obj var: 0.854220
- time (local/global): 0.390/85.624
- branches (local/global): 23588/4473010
- fails (local/global): 11435/2186364
- lns time: 0.398000
- lns branches: 23588
- lns fails: 11435
LNS iteration #162 ========================================
- worst case average CPI: 0.642
- worst case efficiency: 0.848
- efficiency to beat: 0.848
- normalized lower bound 4211
- lns time: 3.006000
- lns branches: 207812
- lns fails: 102057
LNS iteration #163 ========================================
- worst case average CPI: 0.642
- worst case efficiency: 0.848
- efficiency to beat: 0.848
- normalized lower bound 4211
- lns time: 1.368000
- lns branches: 93421
- lns fails: 45786

LNS optimization is over========================================
initial worst case average CPI: 2.479
final worst case average CPI: 0.642
initial worst case efficiency: 0.656
final worst case efficiency: 0.848
number of iterations: 164
total time: 90006.000000
total branches: 4774243
total fails: 2334207

Final Solution: 0->21, 1->35, 2->4, 3->36, 4->25, 5->24, 6->0, 7->27, 8->44, 9->42, 10->41, 11->4, 12->28, 13->7, 14->6, 15->0, 16->21, 17->9, 18->4, 19->47, 20->16, 21->46, 22->46, 23->16, 24->44, 25->36, 26->41, 27->37, 28->12, 29->37, 30->29, 31->46, 32->47, 33->32, 34->4, 35->39, 36->32, 37->44, 38->12, 39->7, 40->25, 41->39, 42->13, 43->29, 44->25, 45->28, 46->5, 47->23, 48->42, 49->6, 50->43, 51->44, 52->19, 53->13, 54->46, 55->27, 56->15, 57->43, 58->44, 59->23, 60->1, 61->20, 62->13, 63->41, 64->37, 65->1, 66->11, 67->2, 68->15, 69->38, 70->8, 71->34, 72->41, 73->21, 74->29, 75->16, 76->31, 77->35, 78->16, 79->33, 80->32, 81->18, 82->38, 83->47, 84->0, 85->29, 86->41, 87->46, 88->39, 89->15, 90->2, 91->6, 92->36, 93->39, 94->29, 95->43, 96->31, 97->35, 98->7, 99->38, 100->5, 101->32, 102->42, 103->31, 104->19, 105->47, 106->12, 107->3, 108->42, 109->5, 110->7, 111->35, 112->6, 113->47, 114->3, 115->38, 116->42, 117->22, 118->29, 119->3, 120->1, 121->10, 122->35, 123->27, 124->17, 125->11, 126->1, 127->1, 128->2, 129->14, 130->5, 131->45, 132->31, 133->14, 134->27, 135->20, 136->19, 137->10, 138->28, 139->26, 140->14, 141->15, 142->28, 143->13, 144->2, 145->26, 146->0, 147->37, 148->33, 149->31, 150->22, 151->47, 152->36, 153->3, 154->33, 155->12, 156->40, 157->43, 158->26, 159->23, 160->4, 161->19, 162->25, 163->7, 164->22, 165->33, 166->33, 167->8, 168->21, 169->13, 170->45, 171->16, 172->21, 173->16, 174->9, 175->26, 176->42, 177->44, 178->25, 179->9, 180->13, 181->14, 182->9, 183->10, 184->39, 185->36, 186->14, 187->3, 188->17, 189->25, 190->22, 191->12, 192->23, 193->36, 194->18, 195->19, 196->22, 197->30, 198->27, 199->43, 200->7, 201->34, 202->19, 203->22, 204->45, 205->38, 206->32, 207->46, 208->40, 209->32, 210->27, 211->39, 212->21, 213->37, 214->40, 215->0, 216->24, 217->40, 218->8, 219->35, 220->18, 221->6, 222->43, 223->6, 224->37, 225->10, 226->5, 227->1, 228->17, 229->38, 230->15, 231->9, 232->41, 233->15, 234->4, 235->17, 236->26, 237->33, 238->24, 239->30, 240->30, 241->34, 242->0, 243->30, 244->30, 245->10, 246->40, 247->8, 248->11, 249->40, 250->11, 251->18, 252->45, 253->17, 254->10, 255->34, 256->45, 257->24, 258->17, 259->23, 260->9, 261->18, 262->12, 263->26, 264->18, 265->14, 266->11, 267->11, 268->28, 269->2, 270->45, 271->34, 272->8, 273->2, 274->24, 275->8, 276->34, 277->23, 278->30, 279->3, 280->28, 281->31, 282->20, 283->24, 284->20, 285->5, 286->20, 287->20

Average CPI map:
	7.63,	1.32,	0.64,	1.38,	1.47,	1.17
	1.99,	9.05,	4.85,	8.66,	6.49,	0.65
	2.45,	10.37,	6.36,	7.81,	9.79,	1.68
	1.76,	9.50,	6.17,	10.83,	7.66,	1.37
	2.03,	7.50,	7.60,	9.69,	7.44,	2.29
	1.48,	6.27,	7.82,	10.93,	6.07,	1.99
	2.12,	7.53,	7.81,	8.01,	7.64,	2.16
	3.39,	5.21,	6.91,	5.48,	5.75,	1.86

Efficiency map:
	0.997,	0.917,	0.916,	0.889,	0.922,	1.003
	0.849,	0.858,	0.857,	0.848,	0.848,	0.853
	0.852,	0.849,	0.848,	0.855,	0.864,	0.860
	0.867,	0.885,	0.858,	0.856,	0.872,	0.922
	0.914,	0.857,	0.859,	0.849,	0.850,	0.856
	0.852,	0.859,	0.859,	0.904,	0.852,	0.852
	0.854,	0.859,	0.871,	0.869,	0.859,	0.897
	0.861,	0.869,	0.886,	0.856,	0.922,	0.873
