==============================================================================
LNS optimizer for EML demonstration
==============================================================================

Option values: --wld-idx 1 --prec 10000 --step 0 --global-tlim 90 --global-iter 1000 --local-tlim 3 --local-nsol 1 --restart-base 100 --restart-strat luby --seed 0

Starting the Optimization Process
LNS iteration #0 ========================================
- worst case average CPI: 2.169
- worst case efficiency: 0.638
- efficiency to beat: 0.638
- normalized lower bound 722
--- checking solution
--- solution ok! Maximum rounding error: 0.000035
- solution found, obj var is: 1135
- de-normalized obj var: 0.668100
- time (local/global): 0.002/0.002
- branches (local/global): 25/25
- fails (local/global): 1/1
- lns time: 0.006000
- lns branches: 25
- lns fails: 1
LNS iteration #1 ========================================
- worst case average CPI: 1.452
- worst case efficiency: 0.639
- efficiency to beat: 0.639
- normalized lower bound 742
--- checking solution
--- solution ok! Maximum rounding error: 0.000043
- solution found, obj var is: 763
- de-normalized obj var: 0.645780
- time (local/global): 0.002/0.008
- branches (local/global): 247/272
- fails (local/global): 103/104
- lns time: 0.009000
- lns branches: 247
- lns fails: 103
LNS iteration #2 ========================================
- worst case average CPI: 1.452
- worst case efficiency: 0.646
- efficiency to beat: 0.646
- normalized lower bound 847
--- checking solution
--- solution ok! Maximum rounding error: 0.000086
- solution found, obj var is: 1185
- de-normalized obj var: 0.671100
- time (local/global): 0.001/0.016
- branches (local/global): 16/288
- fails (local/global): 0/104
- lns time: 0.005000
- lns branches: 16
- lns fails: 0
LNS iteration #3 ========================================
- worst case average CPI: 1.452
- worst case efficiency: 0.650
- efficiency to beat: 0.650
- normalized lower bound 917
--- checking solution
--- solution ok! Maximum rounding error: 0.000000
- solution found, obj var is: 1202
- de-normalized obj var: 0.672120
- time (local/global): 0.002/0.022
- branches (local/global): 21/309
- fails (local/global): 0/104
- lns time: 0.006000
- lns branches: 21
- lns fails: 0
LNS iteration #4 ========================================
- worst case average CPI: 1.452
- worst case efficiency: 0.654
- efficiency to beat: 0.654
- normalized lower bound 989
--- checking solution
--- solution ok! Maximum rounding error: 0.000053
- solution found, obj var is: 1445
- de-normalized obj var: 0.686700
- time (local/global): 0.002/0.028
- branches (local/global): 239/548
- fails (local/global): 100/204
- lns time: 0.009000
- lns branches: 239
- lns fails: 100
LNS iteration #5 ========================================
- worst case average CPI: 1.392
- worst case efficiency: 0.655
- efficiency to beat: 0.655
- normalized lower bound 1007
--- checking solution
--- solution ok! Maximum rounding error: 0.000039
- solution found, obj var is: 1261
- de-normalized obj var: 0.675660
- time (local/global): 0.002/0.037
- branches (local/global): 22/570
- fails (local/global): 0/204
- lns time: 0.006000
- lns branches: 22
- lns fails: 0
LNS iteration #6 ========================================
- worst case average CPI: 1.392
- worst case efficiency: 0.662
- efficiency to beat: 0.662
- normalized lower bound 1113
--- checking solution
--- solution ok! Maximum rounding error: 0.000060
- solution found, obj var is: 1136
- de-normalized obj var: 0.668160
- time (local/global): 0.002/0.043
- branches (local/global): 16/586
- fails (local/global): 0/204
- lns time: 0.005000
- lns branches: 16
- lns fails: 0
LNS iteration #7 ========================================
- worst case average CPI: 1.392
- worst case efficiency: 0.665
- efficiency to beat: 0.665
- normalized lower bound 1164
--- checking solution
--- solution ok! Maximum rounding error: 0.000046
- solution found, obj var is: 1304
- de-normalized obj var: 0.678240
- time (local/global): 0.002/0.048
- branches (local/global): 23/609
- fails (local/global): 0/204
- lns time: 0.006000
- lns branches: 23
- lns fails: 0
LNS iteration #8 ========================================
- worst case average CPI: 1.392
- worst case efficiency: 0.666
- efficiency to beat: 0.666
- normalized lower bound 1184
--- checking solution
--- solution ok! Maximum rounding error: 0.000102
- solution found, obj var is: 1383
- de-normalized obj var: 0.682980
- time (local/global): 0.002/0.054
- branches (local/global): 22/631
- fails (local/global): 0/204
- lns time: 0.006000
- lns branches: 22
- lns fails: 0
LNS iteration #9 ========================================
- worst case average CPI: 1.392
- worst case efficiency: 0.671
- efficiency to beat: 0.671
- normalized lower bound 1269
--- checking solution
--- solution ok! Maximum rounding error: 0.000124
- solution found, obj var is: 1316
- de-normalized obj var: 0.678960
- time (local/global): 0.002/0.060
- branches (local/global): 27/658
- fails (local/global): 2/206
- lns time: 0.006000
- lns branches: 27
- lns fails: 2
LNS iteration #10 ========================================
- worst case average CPI: 1.392
- worst case efficiency: 0.673
- efficiency to beat: 0.673
- normalized lower bound 1301
--- checking solution
--- solution ok! Maximum rounding error: 0.000034
- solution found, obj var is: 1338
- de-normalized obj var: 0.680280
- time (local/global): 0.003/0.067
- branches (local/global): 24/682
- fails (local/global): 3/209
- lns time: 0.006000
- lns branches: 24
- lns fails: 3
LNS iteration #11 ========================================
- worst case average CPI: 1.392
- worst case efficiency: 0.674
- efficiency to beat: 0.674
- normalized lower bound 1314
--- checking solution
--- solution ok! Maximum rounding error: 0.000032
- solution found, obj var is: 1363
- de-normalized obj var: 0.681780
- time (local/global): 0.002/0.072
- branches (local/global): 21/703
- fails (local/global): 0/209
- lns time: 0.007000
- lns branches: 21
- lns fails: 0
LNS iteration #12 ========================================
- worst case average CPI: 1.392
- worst case efficiency: 0.675
- efficiency to beat: 0.675
- normalized lower bound 1336
--- checking solution
--- solution ok! Maximum rounding error: 0.000091
- solution found, obj var is: 1343
- de-normalized obj var: 0.680580
- time (local/global): 0.003/0.080
- branches (local/global): 22/725
- fails (local/global): 0/209
- lns time: 0.006000
- lns branches: 22
- lns fails: 0
LNS iteration #13 ========================================
- worst case average CPI: 1.311
- worst case efficiency: 0.675
- efficiency to beat: 0.675
- normalized lower bound 1336
--- checking solution
--- solution ok! Maximum rounding error: 0.000000
- solution found, obj var is: 1340
- de-normalized obj var: 0.680400
- time (local/global): 0.002/0.085
- branches (local/global): 94842/95567
- fails (local/global): 46412/46621
- lns time: 1.482000
- lns branches: 94842
- lns fails: 46412
LNS iteration #14 ========================================
- worst case average CPI: 1.311
- worst case efficiency: 0.679
- efficiency to beat: 0.679
- normalized lower bound 1400
--- checking solution
--- solution ok! Maximum rounding error: 0.000060
- solution found, obj var is: 1401
- de-normalized obj var: 0.684060
- time (local/global): 0.002/1.567
- branches (local/global): 3264/98831
- fails (local/global): 1555/48176
- lns time: 0.057000
- lns branches: 3264
- lns fails: 1555
LNS iteration #15 ========================================
- worst case average CPI: 1.311
- worst case efficiency: 0.680
- efficiency to beat: 0.680
- normalized lower bound 1414
--- checking solution
--- solution ok! Maximum rounding error: 0.000019
- solution found, obj var is: 1554
- de-normalized obj var: 0.693240
- time (local/global): -0.002/1.620
- branches (local/global): 40/98871
- fails (local/global): 10/48186
- lns time: 0.012000
- lns branches: 40
- lns fails: 10
LNS iteration #16 ========================================
- worst case average CPI: 1.311
- worst case efficiency: 0.680
- efficiency to beat: 0.680
- normalized lower bound 1420
--- checking solution
--- solution ok! Maximum rounding error: 0.000099
- solution found, obj var is: 1473
- de-normalized obj var: 0.688380
- time (local/global): 0.003/1.637
- branches (local/global): 871/99742
- fails (local/global): 400/48586
- lns time: 0.016000
- lns branches: 871
- lns fails: 400
LNS iteration #17 ========================================
- worst case average CPI: 1.226
- worst case efficiency: 0.681
- efficiency to beat: 0.681
- normalized lower bound 1439
--- checking solution
--- solution ok! Maximum rounding error: 0.000052
- solution found, obj var is: 2310
- de-normalized obj var: 0.738600
- time (local/global): 0.001/1.651
- branches (local/global): 18/99760
- fails (local/global): 1/48587
- lns time: 0.005000
- lns branches: 18
- lns fails: 1
LNS iteration #18 ========================================
- worst case average CPI: 1.226
- worst case efficiency: 0.681
- efficiency to beat: 0.681
- normalized lower bound 1442
--- checking solution
--- solution ok! Maximum rounding error: 0.000020
- solution found, obj var is: 1453
- de-normalized obj var: 0.687180
- time (local/global): 0.002/1.657
- branches (local/global): 3226/102986
- fails (local/global): 1537/50124
- lns time: 0.055000
- lns branches: 3226
- lns fails: 1537
LNS iteration #19 ========================================
- worst case average CPI: 1.226
- worst case efficiency: 0.682
- efficiency to beat: 0.682
- normalized lower bound 1454
--- checking solution
--- solution ok! Maximum rounding error: 0.000066
- solution found, obj var is: 1884
- de-normalized obj var: 0.713040
- time (local/global): 0.002/1.712
- branches (local/global): 173/103159
- fails (local/global): 76/50200
- lns time: 0.008000
- lns branches: 173
- lns fails: 76
LNS iteration #20 ========================================
- worst case average CPI: 1.226
- worst case efficiency: 0.683
- efficiency to beat: 0.683
- normalized lower bound 1472
--- checking solution
--- solution ok! Maximum rounding error: 0.000526
- solution found, obj var is: 2060
- de-normalized obj var: 0.723600
- time (local/global): 0.000/1.718
- branches (local/global): 21/103180
- fails (local/global): 0/50200
- lns time: 0.010000
- lns branches: 21
- lns fails: 0
LNS iteration #21 ========================================
- worst case average CPI: 1.226
- worst case efficiency: 0.684
- efficiency to beat: 0.684
- normalized lower bound 1485
--- checking solution
--- solution ok! Maximum rounding error: 0.000081
- solution found, obj var is: 1633
- de-normalized obj var: 0.697980
- time (local/global): 0.002/1.730
- branches (local/global): 81/103261
- fails (local/global): 30/50230
- lns time: 0.007000
- lns branches: 81
- lns fails: 30
LNS iteration #22 ========================================
- worst case average CPI: 1.226
- worst case efficiency: 0.685
- efficiency to beat: 0.685
- normalized lower bound 1494
--- checking solution
--- solution ok! Maximum rounding error: 0.000040
- solution found, obj var is: 1670
- de-normalized obj var: 0.700200
- time (local/global): 0.002/1.737
- branches (local/global): 238/103499
- fails (local/global): 101/50331
- lns time: 0.009000
- lns branches: 238
- lns fails: 101
LNS iteration #23 ========================================
- worst case average CPI: 1.226
- worst case efficiency: 0.686
- efficiency to beat: 0.686
- normalized lower bound 1522
--- checking solution
--- solution ok! Maximum rounding error: 0.000050
- solution found, obj var is: 2249
- de-normalized obj var: 0.734940
- time (local/global): 0.001/1.745
- branches (local/global): 16/103515
- fails (local/global): 0/50331
- lns time: 0.005000
- lns branches: 16
- lns fails: 0
LNS iteration #24 ========================================
- worst case average CPI: 1.226
- worst case efficiency: 0.688
- efficiency to beat: 0.688
- normalized lower bound 1557
--- checking solution
--- solution ok! Maximum rounding error: 0.000124
- solution found, obj var is: 1580
- de-normalized obj var: 0.694800
- time (local/global): 0.001/1.750
- branches (local/global): 4053/107568
- fails (local/global): 1964/52295
- lns time: 0.077000
- lns branches: 4053
- lns fails: 1964
LNS iteration #25 ========================================
- worst case average CPI: 1.226
- worst case efficiency: 0.690
- efficiency to beat: 0.690
- normalized lower bound 1583
--- checking solution
--- solution ok! Maximum rounding error: 0.000000
- solution found, obj var is: 1704
- de-normalized obj var: 0.702240
- time (local/global): 0.003/1.829
- branches (local/global): 75/107643
- fails (local/global): 27/52322
- lns time: 0.006000
- lns branches: 75
- lns fails: 27
LNS iteration #26 ========================================
- worst case average CPI: 1.226
- worst case efficiency: 0.690
- efficiency to beat: 0.690
- normalized lower bound 1590
--- checking solution
--- solution ok! Maximum rounding error: 0.000001
- solution found, obj var is: 1762
- de-normalized obj var: 0.705720
- time (local/global): 0.002/1.834
- branches (local/global): 21/107664
- fails (local/global): 0/52322
- lns time: 0.006000
- lns branches: 21
- lns fails: 0
LNS iteration #27 ========================================
- worst case average CPI: 1.226
- worst case efficiency: 0.695
- efficiency to beat: 0.695
- normalized lower bound 1666
--- checking solution
--- solution ok! Maximum rounding error: 0.000088
- solution found, obj var is: 1710
- de-normalized obj var: 0.702600
- time (local/global): 0.002/1.840
- branches (local/global): 22/107686
- fails (local/global): 1/52323
- lns time: 0.006000
- lns branches: 22
- lns fails: 1
LNS iteration #28 ========================================
- worst case average CPI: 1.140
- worst case efficiency: 0.698
- efficiency to beat: 0.698
- normalized lower bound 1711
--- checking solution
--- solution ok! Maximum rounding error: 0.000054
- solution found, obj var is: 2085
- de-normalized obj var: 0.725100
- time (local/global): 0.006/1.850
- branches (local/global): 149/107835
- fails (local/global): 64/52387
- lns time: 0.013000
- lns branches: 149
- lns fails: 64
LNS iteration #29 ========================================
- worst case average CPI: 1.140
- worst case efficiency: 0.699
- efficiency to beat: 0.699
- normalized lower bound 1726
--- checking solution
--- solution ok! Maximum rounding error: 0.000044
- solution found, obj var is: 1728
- de-normalized obj var: 0.703680
- time (local/global): 0.003/1.860
- branches (local/global): 3136/110971
- fails (local/global): 1485/53872
- lns time: 0.041000
- lns branches: 3136
- lns fails: 1485
LNS iteration #30 ========================================
- worst case average CPI: 1.140
- worst case efficiency: 0.699
- efficiency to beat: 0.699
- normalized lower bound 1728
--- checking solution
--- solution ok! Maximum rounding error: 0.000000
- solution found, obj var is: 1739
- de-normalized obj var: 0.704340
- time (local/global): 0.002/1.900
- branches (local/global): 22/110993
- fails (local/global): 0/53872
- lns time: 0.006000
- lns branches: 22
- lns fails: 0
LNS iteration #31 ========================================
- worst case average CPI: 1.140
- worst case efficiency: 0.700
- efficiency to beat: 0.700
- normalized lower bound 1750
--- checking solution
--- solution ok! Maximum rounding error: 0.000058
- solution found, obj var is: 1833
- de-normalized obj var: 0.709980
- time (local/global): 0.002/1.906
- branches (local/global): 330/111323
- fails (local/global): 146/54018
- lns time: 0.012000
- lns branches: 330
- lns fails: 146
LNS iteration #32 ========================================
- worst case average CPI: 1.140
- worst case efficiency: 0.702
- efficiency to beat: 0.702
- normalized lower bound 1788
--- checking solution
--- solution ok! Maximum rounding error: 0.000056
- solution found, obj var is: 1862
- de-normalized obj var: 0.711720
- time (local/global): 0.003/1.919
- branches (local/global): 1788/113111
- fails (local/global): 838/54856
- lns time: 0.028000
- lns branches: 1788
- lns fails: 838
LNS iteration #33 ========================================
- worst case average CPI: 1.140
- worst case efficiency: 0.703
- efficiency to beat: 0.703
- normalized lower bound 1793
--- checking solution
--- solution ok! Maximum rounding error: 0.000078
- solution found, obj var is: 2837
- de-normalized obj var: 0.770220
- time (local/global): 0.002/1.946
- branches (local/global): 22/113133
- fails (local/global): 0/54856
- lns time: 0.007000
- lns branches: 22
- lns fails: 0
LNS iteration #34 ========================================
- worst case average CPI: 1.140
- worst case efficiency: 0.704
- efficiency to beat: 0.704
- normalized lower bound 1814
--- checking solution
--- solution ok! Maximum rounding error: 0.000104
- solution found, obj var is: 1874
- de-normalized obj var: 0.712440
- time (local/global): 0.002/1.953
- branches (local/global): 88/113221
- fails (local/global): 37/54893
- lns time: 0.006000
- lns branches: 88
- lns fails: 37
LNS iteration #35 ========================================
- worst case average CPI: 1.140
- worst case efficiency: 0.705
- efficiency to beat: 0.705
- normalized lower bound 1839
--- checking solution
--- solution ok! Maximum rounding error: 0.000052
- solution found, obj var is: 1840
- de-normalized obj var: 0.710400
- time (local/global): 0.003/1.960
- branches (local/global): 2761/115982
- fails (local/global): 1305/56198
- lns time: 0.044000
- lns branches: 2761
- lns fails: 1305
LNS iteration #36 ========================================
- worst case average CPI: 1.140
- worst case efficiency: 0.706
- efficiency to beat: 0.706
- normalized lower bound 1853
--- checking solution
--- solution ok! Maximum rounding error: 0.000146
- solution found, obj var is: 2022
- de-normalized obj var: 0.721320
- time (local/global): 0.002/2.003
- branches (local/global): 9638/125620
- fails (local/global): 4616/60814
- lns time: 0.142000
- lns branches: 9638
- lns fails: 4616
LNS iteration #37 ========================================
- worst case average CPI: 1.140
- worst case efficiency: 0.708
- efficiency to beat: 0.708
- normalized lower bound 1886
--- checking solution
--- solution ok! Maximum rounding error: 0.000023
- solution found, obj var is: 1902
- de-normalized obj var: 0.714120
- time (local/global): 0.003/2.146
- branches (local/global): 38/125658
- fails (local/global): 9/60823
- lns time: 0.006000
- lns branches: 38
- lns fails: 9
LNS iteration #38 ========================================
- worst case average CPI: 1.140
- worst case efficiency: 0.710
- efficiency to beat: 0.710
- normalized lower bound 1912
--- checking solution
--- solution ok! Maximum rounding error: 0.000047
- solution found, obj var is: 1915
- de-normalized obj var: 0.714900
- time (local/global): 0.003/2.152
- branches (local/global): 51/125709
- fails (local/global): 16/60839
- lns time: 0.006000
- lns branches: 51
- lns fails: 16
LNS iteration #39 ========================================
- worst case average CPI: 1.140
- worst case efficiency: 0.712
- efficiency to beat: 0.712
- normalized lower bound 1944
--- checking solution
--- solution ok! Maximum rounding error: 0.000031
- solution found, obj var is: 2298
- de-normalized obj var: 0.737880
- time (local/global): 0.002/2.157
- branches (local/global): 301/126010
- fails (local/global): 131/60970
- lns time: 0.010000
- lns branches: 301
- lns fails: 131
LNS iteration #40 ========================================
- worst case average CPI: 1.140
- worst case efficiency: 0.712
- efficiency to beat: 0.712
- normalized lower bound 1957
--- checking solution
--- solution ok! Maximum rounding error: 0.000136
- solution found, obj var is: 2272
- de-normalized obj var: 0.736320
- time (local/global): 0.001/2.166
- branches (local/global): 16/126026
- fails (local/global): 0/60970
- lns time: 0.005000
- lns branches: 16
- lns fails: 0
LNS iteration #41 ========================================
- worst case average CPI: 1.140
- worst case efficiency: 0.714
- efficiency to beat: 0.714
- normalized lower bound 1981
--- checking solution
--- solution ok! Maximum rounding error: 0.000129
- solution found, obj var is: 2065
- de-normalized obj var: 0.723900
- time (local/global): 0.002/2.172
- branches (local/global): 2752/128778
- fails (local/global): 1301/62271
- lns time: 0.040000
- lns branches: 2752
- lns fails: 1301
LNS iteration #42 ========================================
- worst case average CPI: 1.140
- worst case efficiency: 0.716
- efficiency to beat: 0.716
- normalized lower bound 2013
--- checking solution
--- solution ok! Maximum rounding error: 0.000060
- solution found, obj var is: 2028
- de-normalized obj var: 0.721680
- time (local/global): 0.002/2.212
- branches (local/global): 23/128801
- fails (local/global): 0/62271
- lns time: 0.006000
- lns branches: 23
- lns fails: 0
LNS iteration #43 ========================================
- worst case average CPI: 1.140
- worst case efficiency: 0.715
- efficiency to beat: 0.715
- normalized lower bound 2007
--- checking solution
--- solution ok! Maximum rounding error: 0.000062
- solution found, obj var is: 2242
- de-normalized obj var: 0.734520
- time (local/global): 0.002/2.218
- branches (local/global): 236/129037
- fails (local/global): 101/62372
- lns time: 0.009000
- lns branches: 236
- lns fails: 101
LNS iteration #44 ========================================
- worst case average CPI: 1.140
- worst case efficiency: 0.716
- efficiency to beat: 0.716
- normalized lower bound 2013
--- checking solution
--- solution ok! Maximum rounding error: 0.000010
- solution found, obj var is: 2193
- de-normalized obj var: 0.731580
- time (local/global): 0.002/2.227
- branches (local/global): 983/130020
- fails (local/global): 455/62827
- lns time: 0.019000
- lns branches: 983
- lns fails: 455
LNS iteration #45 ========================================
- worst case average CPI: 1.140
- worst case efficiency: 0.719
- efficiency to beat: 0.719
- normalized lower bound 2069
--- checking solution
--- solution ok! Maximum rounding error: 0.000023
- solution found, obj var is: 2221
- de-normalized obj var: 0.733260
- time (local/global): 0.003/2.247
- branches (local/global): 452/130472
- fails (local/global): 201/63028
- lns time: 0.012000
- lns branches: 452
- lns fails: 201
LNS iteration #46 ========================================
- worst case average CPI: 1.140
- worst case efficiency: 0.719
- efficiency to beat: 0.719
- normalized lower bound 2063
--- checking solution
--- solution ok! Maximum rounding error: 0.000060
- solution found, obj var is: 2083
- de-normalized obj var: 0.724980
- time (local/global): 0.002/2.258
- branches (local/global): 17397/147869
- fails (local/global): 8458/71486
- lns time: 0.294000
- lns branches: 17397
- lns fails: 8458
LNS iteration #47 ========================================
- worst case average CPI: 1.140
- worst case efficiency: 0.722
- efficiency to beat: 0.722
- normalized lower bound 2109
--- checking solution
--- solution ok! Maximum rounding error: 0.000098
- solution found, obj var is: 2198
- de-normalized obj var: 0.731880
- time (local/global): 0.002/2.552
- branches (local/global): 1297/149166
- fails (local/global): 602/72088
- lns time: 0.024000
- lns branches: 1297
- lns fails: 602
LNS iteration #48 ========================================
- worst case average CPI: 1.140
- worst case efficiency: 0.725
- efficiency to beat: 0.725
- normalized lower bound 2175
--- checking solution
--- solution ok! Maximum rounding error: 0.000162
- solution found, obj var is: 2500
- de-normalized obj var: 0.750000
- time (local/global): 0.002/2.576
- branches (local/global): 18/149184
- fails (local/global): 0/72088
- lns time: 0.006000
- lns branches: 18
- lns fails: 0
LNS iteration #49 ========================================
- worst case average CPI: 1.140
- worst case efficiency: 0.726
- efficiency to beat: 0.726
- normalized lower bound 2183
--- checking solution
--- solution ok! Maximum rounding error: 0.000193
- solution found, obj var is: 2386
- de-normalized obj var: 0.743160
- time (local/global): 0.001/2.581
- branches (local/global): 21/149205
- fails (local/global): 2/72090
- lns time: 0.005000
- lns branches: 21
- lns fails: 2
LNS iteration #50 ========================================
- worst case average CPI: 1.140
- worst case efficiency: 0.730
- efficiency to beat: 0.730
- normalized lower bound 2246
--- checking solution
--- solution ok! Maximum rounding error: 0.000013
- solution found, obj var is: 2443
- de-normalized obj var: 0.746580
- time (local/global): 0.002/2.587
- branches (local/global): 3863/153068
- fails (local/global): 1830/73920
- lns time: 0.053000
- lns branches: 3863
- lns fails: 1830
LNS iteration #51 ========================================
- worst case average CPI: 1.140
- worst case efficiency: 0.730
- efficiency to beat: 0.730
- normalized lower bound 2251
--- checking solution
--- solution ok! Maximum rounding error: 0.000000
- solution found, obj var is: 2256
- de-normalized obj var: 0.735360
- time (local/global): 0.002/2.640
- branches (local/global): 224429/377497
- fails (local/global): 109979/183899
- lns time: 2.746000
- lns branches: 224429
- lns fails: 109979
LNS iteration #52 ========================================
- worst case average CPI: 1.140
- worst case efficiency: 0.732
- efficiency to beat: 0.732
- normalized lower bound 2277
--- checking solution
--- solution ok! Maximum rounding error: 0.000044
- solution found, obj var is: 2392
- de-normalized obj var: 0.743520
- time (local/global): 0.002/5.386
- branches (local/global): 23837/401334
- fails (local/global): 11555/195454
- lns time: 0.333000
- lns branches: 23837
- lns fails: 11555
LNS iteration #53 ========================================
- worst case average CPI: 1.140
- worst case efficiency: 0.732
- efficiency to beat: 0.732
- normalized lower bound 2281
--- checking solution
--- solution ok! Maximum rounding error: 0.000110
- solution found, obj var is: 2340
- de-normalized obj var: 0.740400
- time (local/global): 0.002/5.719
- branches (local/global): 240/401574
- fails (local/global): 100/195554
- lns time: 0.009000
- lns branches: 240
- lns fails: 100
LNS iteration #54 ========================================
- worst case average CPI: 1.140
- worst case efficiency: 0.734
- efficiency to beat: 0.734
- normalized lower bound 2309
--- checking solution
--- solution ok! Maximum rounding error: 0.000038
- solution found, obj var is: 2351
- de-normalized obj var: 0.741060
- time (local/global): 0.001/5.727
- branches (local/global): 1239/402813
- fails (local/global): 590/196144
- lns time: 0.018000
- lns branches: 1239
- lns fails: 590
LNS iteration #55 ========================================
- worst case average CPI: 1.140
- worst case efficiency: 0.735
- efficiency to beat: 0.735
- normalized lower bound 2336
--- checking solution
--- solution ok! Maximum rounding error: 0.000052
- solution found, obj var is: 2353
- de-normalized obj var: 0.741180
- time (local/global): 0.002/5.746
- branches (local/global): 21/402834
- fails (local/global): 1/196145
- lns time: 0.006000
- lns branches: 21
- lns fails: 1
LNS iteration #56 ========================================
- worst case average CPI: 1.140
- worst case efficiency: 0.736
- efficiency to beat: 0.736
- normalized lower bound 2347
--- checking solution
--- solution ok! Maximum rounding error: 0.000040
- solution found, obj var is: 2370
- de-normalized obj var: 0.742200
- time (local/global): 0.003/5.753
- branches (local/global): 1829/404663
- fails (local/global): 858/197003
- lns time: 0.033000
- lns branches: 1829
- lns fails: 858
LNS iteration #57 ========================================
- worst case average CPI: 1.140
- worst case efficiency: 0.739
- efficiency to beat: 0.739
- normalized lower bound 2397
--- checking solution
--- solution ok! Maximum rounding error: 0.000059
- solution found, obj var is: 2720
- de-normalized obj var: 0.763200
- time (local/global): 0.003/5.786
- branches (local/global): 37/404700
- fails (local/global): 8/197011
- lns time: 0.006000
- lns branches: 37
- lns fails: 8
LNS iteration #58 ========================================
- worst case average CPI: 1.140
- worst case efficiency: 0.739
- efficiency to beat: 0.739
- normalized lower bound 2399
- lns time: 3.006000
- lns branches: 234601
- lns fails: 115072
LNS iteration #59 ========================================
- worst case average CPI: 1.140
- worst case efficiency: 0.739
- efficiency to beat: 0.739
- normalized lower bound 2399
--- checking solution
--- solution ok! Maximum rounding error: 0.000061
- solution found, obj var is: 2708
- de-normalized obj var: 0.762480
- time (local/global): 0.002/8.797
- branches (local/global): 236/639537
- fails (local/global): 100/312183
- lns time: 0.009000
- lns branches: 236
- lns fails: 100
LNS iteration #60 ========================================
- worst case average CPI: 1.140
- worst case efficiency: 0.741
- efficiency to beat: 0.741
- normalized lower bound 2436
--- checking solution
--- solution ok! Maximum rounding error: 0.000446
- solution found, obj var is: 2586
- de-normalized obj var: 0.755160
- time (local/global): 0.003/8.807
- branches (local/global): 36/639573
- fails (local/global): 9/312192
- lns time: 0.006000
- lns branches: 36
- lns fails: 9
LNS iteration #61 ========================================
- worst case average CPI: 1.140
- worst case efficiency: 0.740
- efficiency to beat: 0.740
- normalized lower bound 2425
--- checking solution
--- solution ok! Maximum rounding error: 0.000015
- solution found, obj var is: 2631
- de-normalized obj var: 0.757860
- time (local/global): 0.002/8.812
- branches (local/global): 5071/644644
- fails (local/global): 2415/314607
- lns time: 0.059000
- lns branches: 5071
- lns fails: 2415
LNS iteration #62 ========================================
- worst case average CPI: 1.024
- worst case efficiency: 0.741
- efficiency to beat: 0.741
- normalized lower bound 2437
--- checking solution
--- solution ok! Maximum rounding error: 0.000081
- solution found, obj var is: 2489
- de-normalized obj var: 0.749340
- time (local/global): 0.003/8.872
- branches (local/global): 56817/701461
- fails (local/global): 27718/342325
- lns time: 1.082000
- lns branches: 56817
- lns fails: 27718
LNS iteration #63 ========================================
- worst case average CPI: 1.024
- worst case efficiency: 0.741
- efficiency to beat: 0.741
- normalized lower bound 2438
--- checking solution
--- solution ok! Maximum rounding error: 0.000088
- solution found, obj var is: 2654
- de-normalized obj var: 0.759240
- time (local/global): 0.003/9.954
- branches (local/global): 26/701487
- fails (local/global): 2/342327
- lns time: 0.006000
- lns branches: 26
- lns fails: 2
LNS iteration #64 ========================================
- worst case average CPI: 1.024
- worst case efficiency: 0.742
- efficiency to beat: 0.742
- normalized lower bound 2455
--- checking solution
--- solution ok! Maximum rounding error: 0.000034
- solution found, obj var is: 2649
- de-normalized obj var: 0.758940
- time (local/global): 0.002/9.959
- branches (local/global): 3825/705312
- fails (local/global): 1814/344141
- lns time: 0.051000
- lns branches: 3825
- lns fails: 1814
LNS iteration #65 ========================================
- worst case average CPI: 1.140
- worst case efficiency: 0.749
- efficiency to beat: 0.749
- normalized lower bound 2571
--- checking solution
--- solution ok! Maximum rounding error: 0.000086
- solution found, obj var is: 2591
- de-normalized obj var: 0.755460
- time (local/global): 0.002/10.010
- branches (local/global): 19454/724766
- fails (local/global): 9408/353549
- lns time: 0.275000
- lns branches: 19454
- lns fails: 9408
LNS iteration #66 ========================================
- worst case average CPI: 1.140
- worst case efficiency: 0.751
- efficiency to beat: 0.751
- normalized lower bound 2598
--- checking solution
--- solution ok! Maximum rounding error: 0.000212
- solution found, obj var is: 2639
- de-normalized obj var: 0.758340
- time (local/global): 0.002/10.285
- branches (local/global): 783/725549
- fails (local/global): 365/353914
- lns time: 0.020000
- lns branches: 783
- lns fails: 365
LNS iteration #67 ========================================
- worst case average CPI: 1.140
- worst case efficiency: 0.753
- efficiency to beat: 0.753
- normalized lower bound 2626
--- checking solution
--- solution ok! Maximum rounding error: 0.000205
- solution found, obj var is: 2751
- de-normalized obj var: 0.765060
- time (local/global): 0.002/10.305
- branches (local/global): 66206/791755
- fails (local/global): 32179/386093
- lns time: 0.866000
- lns branches: 66206
- lns fails: 32179
LNS iteration #68 ========================================
- worst case average CPI: 1.140
- worst case efficiency: 0.753
- efficiency to beat: 0.753
- normalized lower bound 2628
--- checking solution
--- solution ok! Maximum rounding error: 0.000109
- solution found, obj var is: 2663
- de-normalized obj var: 0.759780
- time (local/global): 0.002/11.171
- branches (local/global): 180337/972092
- fails (local/global): 88095/474188
- lns time: 2.549000
- lns branches: 180337
- lns fails: 88095
LNS iteration #69 ========================================
- worst case average CPI: 1.140
- worst case efficiency: 0.753
- efficiency to beat: 0.753
- normalized lower bound 2628
--- checking solution
--- solution ok! Maximum rounding error: 0.000028
- solution found, obj var is: 2643
- de-normalized obj var: 0.758580
- time (local/global): 0.002/13.720
- branches (local/global): 22/972114
- fails (local/global): 0/474188
- lns time: 0.006000
- lns branches: 22
- lns fails: 0
LNS iteration #70 ========================================
- worst case average CPI: 1.140
- worst case efficiency: 0.754
- efficiency to beat: 0.754
- normalized lower bound 2658
--- checking solution
--- solution ok! Maximum rounding error: 0.000022
- solution found, obj var is: 2672
- de-normalized obj var: 0.760320
- time (local/global): 0.002/13.726
- branches (local/global): 11113/983227
- fails (local/global): 5414/479602
- lns time: 0.176000
- lns branches: 11113
- lns fails: 5414
LNS iteration #71 ========================================
- worst case average CPI: 1.140
- worst case efficiency: 0.755
- efficiency to beat: 0.755
- normalized lower bound 2666
- lns time: 3.005000
- lns branches: 200042
- lns fails: 98073
LNS iteration #72 ========================================
- worst case average CPI: 1.140
- worst case efficiency: 0.755
- efficiency to beat: 0.755
- normalized lower bound 2666
--- checking solution
--- solution ok! Maximum rounding error: 0.000056
- solution found, obj var is: 2685
- de-normalized obj var: 0.761100
- time (local/global): 0.003/16.908
- branches (local/global): 1305/1184574
- fails (local/global): 600/578275
- lns time: 0.021000
- lns branches: 1305
- lns fails: 600
LNS iteration #73 ========================================
- worst case average CPI: 1.140
- worst case efficiency: 0.757
- efficiency to beat: 0.757
- normalized lower bound 2708
--- checking solution
--- solution ok! Maximum rounding error: 0.000000
- solution found, obj var is: 2729
- de-normalized obj var: 0.763740
- time (local/global): 0.002/16.928
- branches (local/global): 387/1184961
- fails (local/global): 175/578450
- lns time: 0.012000
- lns branches: 387
- lns fails: 175
LNS iteration #74 ========================================
- worst case average CPI: 1.140
- worst case efficiency: 0.757
- efficiency to beat: 0.757
- normalized lower bound 2706
--- checking solution
--- solution ok! Maximum rounding error: 0.000382
- solution found, obj var is: 2714
- de-normalized obj var: 0.762840
- time (local/global): 0.002/16.940
- branches (local/global): 867/1185828
- fails (local/global): 403/578853
- lns time: 0.017000
- lns branches: 867
- lns fails: 403
LNS iteration #75 ========================================
- worst case average CPI: 1.140
- worst case efficiency: 0.758
- efficiency to beat: 0.758
- normalized lower bound 2719
- lns time: 3.005000
- lns branches: 225515
- lns fails: 110601
LNS iteration #76 ========================================
- worst case average CPI: 1.140
- worst case efficiency: 0.758
- efficiency to beat: 0.758
- normalized lower bound 2719
--- checking solution
--- solution ok! Maximum rounding error: 0.000041
- solution found, obj var is: 2801
- de-normalized obj var: 0.768060
- time (local/global): 0.003/19.963
- branches (local/global): 11167/1422510
- fails (local/global): 5344/694798
- lns time: 0.139000
- lns branches: 11167
- lns fails: 5344
LNS iteration #77 ========================================
- worst case average CPI: 1.140
- worst case efficiency: 0.758
- efficiency to beat: 0.758
- normalized lower bound 2718
- lns time: 3.005000
- lns branches: 200200
- lns fails: 98223
LNS iteration #78 ========================================
- worst case average CPI: 1.140
- worst case efficiency: 0.758
- efficiency to beat: 0.758
- normalized lower bound 2718
--- checking solution
--- solution ok! Maximum rounding error: 0.000144
- solution found, obj var is: 2770
- de-normalized obj var: 0.766200
- time (local/global): 0.003/23.107
- branches (local/global): 23778/1646488
- fails (local/global): 11513/804534
- lns time: 0.350000
- lns branches: 23778
- lns fails: 11513
LNS iteration #79 ========================================
- worst case average CPI: 1.140
- worst case efficiency: 0.759
- efficiency to beat: 0.759
- normalized lower bound 2728
--- checking solution
--- solution ok! Maximum rounding error: 0.000032
- solution found, obj var is: 2819
- de-normalized obj var: 0.769140
- time (local/global): 0.003/23.457
- branches (local/global): 453/1646941
- fails (local/global): 201/804735
- lns time: 0.012000
- lns branches: 453
- lns fails: 201
LNS iteration #80 ========================================
- worst case average CPI: 1.072
- worst case efficiency: 0.760
- efficiency to beat: 0.760
- normalized lower bound 2750
--- checking solution
--- solution ok! Maximum rounding error: 0.000025
- solution found, obj var is: 2819
- de-normalized obj var: 0.769140
- time (local/global): 0.002/23.468
- branches (local/global): 103323/1750264
- fails (local/global): 50400/855135
- lns time: 1.218000
- lns branches: 103323
- lns fails: 50400
LNS iteration #81 ========================================
- worst case average CPI: 1.072
- worst case efficiency: 0.760
- efficiency to beat: 0.760
- normalized lower bound 2752
--- checking solution
--- solution ok! Maximum rounding error: 0.000053
- solution found, obj var is: 3365
- de-normalized obj var: 0.801900
- time (local/global): 0.008/24.692
- branches (local/global): 461/1750725
- fails (local/global): 203/855338
- lns time: 0.015000
- lns branches: 461
- lns fails: 203
LNS iteration #82 ========================================
- worst case average CPI: 1.072
- worst case efficiency: 0.760
- efficiency to beat: 0.760
- normalized lower bound 2755
--- checking solution
--- solution ok! Maximum rounding error: 0.000113
- solution found, obj var is: 2885
- de-normalized obj var: 0.773100
- time (local/global): 0.002/24.701
- branches (local/global): 46683/1797408
- fails (local/global): 22778/878116
- lns time: 0.620000
- lns branches: 46683
- lns fails: 22778
LNS iteration #83 ========================================
- worst case average CPI: 1.042
- worst case efficiency: 0.762
- efficiency to beat: 0.762
- normalized lower bound 2788
--- checking solution
--- solution ok! Maximum rounding error: 0.000020
- solution found, obj var is: 2832
- de-normalized obj var: 0.769920
- time (local/global): 0.003/25.322
- branches (local/global): 33375/1830783
- fails (local/global): 16193/894309
- lns time: 0.453000
- lns branches: 33375
- lns fails: 16193
LNS iteration #84 ========================================
- worst case average CPI: 1.042
- worst case efficiency: 0.763
- efficiency to beat: 0.763
- normalized lower bound 2798
--- checking solution
--- solution ok! Maximum rounding error: 0.000016
- solution found, obj var is: 2845
- de-normalized obj var: 0.770700
- time (local/global): 0.003/25.775
- branches (local/global): 3104/1833887
- fails (local/global): 1477/895786
- lns time: 0.067000
- lns branches: 3104
- lns fails: 1477
LNS iteration #85 ========================================
- worst case average CPI: 1.042
- worst case efficiency: 0.764
- efficiency to beat: 0.764
- normalized lower bound 2811
- lns time: 3.005000
- lns branches: 207635
- lns fails: 101940
LNS iteration #86 ========================================
- worst case average CPI: 1.042
- worst case efficiency: 0.764
- efficiency to beat: 0.764
- normalized lower bound 2811
- lns time: 3.005000
- lns branches: 224667
- lns fails: 110304
LNS iteration #87 ========================================
- worst case average CPI: 1.042
- worst case efficiency: 0.764
- efficiency to beat: 0.764
- normalized lower bound 2811
--- checking solution
--- solution ok! Maximum rounding error: 0.000057
- solution found, obj var is: 2854
- de-normalized obj var: 0.771240
- time (local/global): 0.002/31.851
- branches (local/global): 94414/2360603
- fails (local/global): 46102/1154132
- lns time: 1.034000
- lns branches: 94414
- lns fails: 46102
LNS iteration #88 ========================================
- worst case average CPI: 1.042
- worst case efficiency: 0.765
- efficiency to beat: 0.765
- normalized lower bound 2835
--- checking solution
--- solution ok! Maximum rounding error: 0.000006
- solution found, obj var is: 2869
- de-normalized obj var: 0.772140
- time (local/global): 0.002/32.885
- branches (local/global): 147/2360750
- fails (local/global): 64/1154196
- lns time: 0.009000
- lns branches: 147
- lns fails: 64
LNS iteration #89 ========================================
- worst case average CPI: 1.042
- worst case efficiency: 0.766
- efficiency to beat: 0.766
- normalized lower bound 2852
--- checking solution
--- solution ok! Maximum rounding error: 0.000087
- solution found, obj var is: 2989
- de-normalized obj var: 0.779340
- time (local/global): 0.002/32.894
- branches (local/global): 1886/2362636
- fails (local/global): 886/1155082
- lns time: 0.029000
- lns branches: 1886
- lns fails: 886
LNS iteration #90 ========================================
- worst case average CPI: 1.042
- worst case efficiency: 0.766
- efficiency to beat: 0.766
- normalized lower bound 2855
--- checking solution
--- solution ok! Maximum rounding error: 0.000057
- solution found, obj var is: 3165
- de-normalized obj var: 0.789900
- time (local/global): 0.001/32.922
- branches (local/global): 281/2362917
- fails (local/global): 126/1155208
- lns time: 0.009000
- lns branches: 281
- lns fails: 126
LNS iteration #91 ========================================
- worst case average CPI: 1.042
- worst case efficiency: 0.767
- efficiency to beat: 0.767
- normalized lower bound 2864
- lns time: 3.005000
- lns branches: 217709
- lns fails: 106850
LNS iteration #92 ========================================
- worst case average CPI: 1.042
- worst case efficiency: 0.767
- efficiency to beat: 0.767
- normalized lower bound 2864
- lns time: 3.005000
- lns branches: 187252
- lns fails: 91705
LNS iteration #93 ========================================
- worst case average CPI: 1.042
- worst case efficiency: 0.767
- efficiency to beat: 0.767
- normalized lower bound 2864
--- checking solution
--- solution ok! Maximum rounding error: 0.000043
- solution found, obj var is: 2955
- de-normalized obj var: 0.777300
- time (local/global): 0.002/38.942
- branches (local/global): 6919/2774797
- fails (local/global): 3321/1357084
- lns time: 0.094000
- lns branches: 6919
- lns fails: 3321
LNS iteration #94 ========================================
- worst case average CPI: 1.042
- worst case efficiency: 0.767
- efficiency to beat: 0.767
- normalized lower bound 2864
--- checking solution
--- solution ok! Maximum rounding error: 0.000000
- solution found, obj var is: 2902
- de-normalized obj var: 0.774120
- time (local/global): 0.003/39.037
- branches (local/global): 2094/2776891
- fails (local/global): 986/1358070
- lns time: 0.037000
- lns branches: 2094
- lns fails: 986
LNS iteration #95 ========================================
- worst case average CPI: 1.042
- worst case efficiency: 0.771
- efficiency to beat: 0.771
- normalized lower bound 2939
--- checking solution
--- solution ok! Maximum rounding error: 0.000000
- solution found, obj var is: 2962
- de-normalized obj var: 0.777720
- time (local/global): 0.002/39.073
- branches (local/global): 4164/2781055
- fails (local/global): 2009/1360079
- lns time: 0.056000
- lns branches: 4164
- lns fails: 2009
LNS iteration #96 ========================================
- worst case average CPI: 1.042
- worst case efficiency: 0.772
- efficiency to beat: 0.772
- normalized lower bound 2946
--- checking solution
--- solution ok! Maximum rounding error: 0.000052
- solution found, obj var is: 3121
- de-normalized obj var: 0.787260
- time (local/global): 0.003/39.130
- branches (local/global): 872/2781927
- fails (local/global): 400/1360479
- lns time: 0.016000
- lns branches: 872
- lns fails: 400
LNS iteration #97 ========================================
- worst case average CPI: 1.042
- worst case efficiency: 0.772
- efficiency to beat: 0.772
- normalized lower bound 2952
--- checking solution
--- solution ok! Maximum rounding error: 0.000014
- solution found, obj var is: 2969
- de-normalized obj var: 0.778140
- time (local/global): 0.003/39.146
- branches (local/global): 240/2782167
- fails (local/global): 101/1360580
- lns time: 0.008000
- lns branches: 240
- lns fails: 101
LNS iteration #98 ========================================
- worst case average CPI: 1.072
- worst case efficiency: 0.773
- efficiency to beat: 0.773
- normalized lower bound 2962
--- checking solution
--- solution ok! Maximum rounding error: 0.000180
- solution found, obj var is: 3138
- de-normalized obj var: 0.788280
- time (local/global): 0.002/39.153
- branches (local/global): 2303/2784470
- fails (local/global): 1096/1361676
- lns time: 0.034000
- lns branches: 2303
- lns fails: 1096
LNS iteration #99 ========================================
- worst case average CPI: 1.072
- worst case efficiency: 0.773
- efficiency to beat: 0.773
- normalized lower bound 2969
--- checking solution
--- solution ok! Maximum rounding error: 0.000053
- solution found, obj var is: 2987
- de-normalized obj var: 0.779220
- time (local/global): 0.002/39.187
- branches (local/global): 11505/2795975
- fails (local/global): 5600/1367276
- lns time: 0.117000
- lns branches: 11505
- lns fails: 5600
LNS iteration #100 ========================================
- worst case average CPI: 1.072
- worst case efficiency: 0.773
- efficiency to beat: 0.773
- normalized lower bound 2974
- lns time: 3.005000
- lns branches: 216316
- lns fails: 106101
LNS iteration #101 ========================================
- worst case average CPI: 1.072
- worst case efficiency: 0.773
- efficiency to beat: 0.773
- normalized lower bound 2974
--- checking solution
--- solution ok! Maximum rounding error: 0.000038
- solution found, obj var is: 3015
- de-normalized obj var: 0.780900
- time (local/global): 0.002/42.309
- branches (local/global): 19405/3031696
- fails (local/global): 9403/1482780
- lns time: 0.265000
- lns branches: 19405
- lns fails: 9403
LNS iteration #102 ========================================
- worst case average CPI: 0.617
- worst case efficiency: 0.776
- efficiency to beat: 0.776
- normalized lower bound 3011
--- checking solution
--- solution ok! Maximum rounding error: 0.000142
- solution found, obj var is: 3072
- de-normalized obj var: 0.784320
- time (local/global): 0.001/42.573
- branches (local/global): 40542/3072238
- fails (local/global): 19704/1502484
- lns time: 0.471000
- lns branches: 40542
- lns fails: 19704
LNS iteration #103 ========================================
- worst case average CPI: 0.617
- worst case efficiency: 0.776
- efficiency to beat: 0.776
- normalized lower bound 3020
--- checking solution
--- solution ok! Maximum rounding error: 0.000000
- solution found, obj var is: 3093
- de-normalized obj var: 0.785580
- time (local/global): 0.002/43.045
- branches (local/global): 9165/3081403
- fails (local/global): 4400/1506884
- lns time: 0.116000
- lns branches: 9165
- lns fails: 4400
LNS iteration #104 ========================================
- worst case average CPI: 0.617
- worst case efficiency: 0.778
- efficiency to beat: 0.778
- normalized lower bound 3046
--- checking solution
--- solution ok! Maximum rounding error: 0.000108
- solution found, obj var is: 3345
- de-normalized obj var: 0.800700
- time (local/global): 0.002/43.161
- branches (local/global): 23189/3104592
- fails (local/global): 11220/1518104
- lns time: 0.292000
- lns branches: 23189
- lns fails: 11220
LNS iteration #105 ========================================
- worst case average CPI: 1.077
- worst case efficiency: 0.778
- efficiency to beat: 0.778
- normalized lower bound 3052
- lns time: 3.005000
- lns branches: 166360
- lns fails: 81349
LNS iteration #106 ========================================
- worst case average CPI: 1.077
- worst case efficiency: 0.778
- efficiency to beat: 0.778
- normalized lower bound 3052
- lns time: 3.005000
- lns branches: 229871
- lns fails: 112660
LNS iteration #107 ========================================
- worst case average CPI: 1.077
- worst case efficiency: 0.778
- efficiency to beat: 0.778
- normalized lower bound 3052
--- checking solution
--- solution ok! Maximum rounding error: 0.000170
- solution found, obj var is: 3123
- de-normalized obj var: 0.787380
- time (local/global): 0.002/49.463
- branches (local/global): 1320/3502143
- fails (local/global): 613/1712726
- lns time: 0.027000
- lns branches: 1320
- lns fails: 613
LNS iteration #108 ========================================
- worst case average CPI: 1.077
- worst case efficiency: 0.778
- efficiency to beat: 0.778
- normalized lower bound 3056
--- checking solution
--- solution ok! Maximum rounding error: 0.000107
- solution found, obj var is: 3182
- de-normalized obj var: 0.790920
- time (local/global): 0.003/49.491
- branches (local/global): 22294/3524437
- fails (local/global): 10781/1723507
- lns time: 0.357000
- lns branches: 22294
- lns fails: 10781
LNS iteration #109 ========================================
- worst case average CPI: 1.077
- worst case efficiency: 0.778
- efficiency to beat: 0.778
- normalized lower bound 3057
--- checking solution
--- solution ok! Maximum rounding error: 0.000016
- solution found, obj var is: 3061
- de-normalized obj var: 0.783660
- time (local/global): 0.003/49.848
- branches (local/global): 306/3524743
- fails (local/global): 136/1723643
- lns time: 0.009000
- lns branches: 306
- lns fails: 136
LNS iteration #110 ========================================
- worst case average CPI: 1.077
- worst case efficiency: 0.780
- efficiency to beat: 0.780
- normalized lower bound 3084
--- checking solution
--- solution ok! Maximum rounding error: 0.000097
- solution found, obj var is: 3088
- de-normalized obj var: 0.785280
- time (local/global): 0.003/49.857
- branches (local/global): 16491/3541234
- fails (local/global): 8005/1731648
- lns time: 0.252000
- lns branches: 16491
- lns fails: 8005
LNS iteration #111 ========================================
- worst case average CPI: 0.720
- worst case efficiency: 0.780
- efficiency to beat: 0.780
- normalized lower bound 3086
--- checking solution
--- solution ok! Maximum rounding error: 0.000006
- solution found, obj var is: 3086
- de-normalized obj var: 0.785160
- time (local/global): 0.003/50.109
- branches (local/global): 22/3541256
- fails (local/global): 1/1731649
- lns time: 0.006000
- lns branches: 22
- lns fails: 1
LNS iteration #112 ========================================
- worst case average CPI: 0.720
- worst case efficiency: 0.780
- efficiency to beat: 0.780
- normalized lower bound 3088
--- checking solution
--- solution ok! Maximum rounding error: 0.000052
- solution found, obj var is: 3171
- de-normalized obj var: 0.790260
- time (local/global): 0.003/50.115
- branches (local/global): 866/3542122
- fails (local/global): 403/1732052
- lns time: 0.020000
- lns branches: 866
- lns fails: 403
LNS iteration #113 ========================================
- worst case average CPI: 0.720
- worst case efficiency: 0.781
- efficiency to beat: 0.781
- normalized lower bound 3094
--- checking solution
--- solution ok! Maximum rounding error: 0.000104
- solution found, obj var is: 3177
- de-normalized obj var: 0.790620
- time (local/global): 0.003/50.135
- branches (local/global): 106380/3648502
- fails (local/global): 52128/1784180
- lns time: 1.633000
- lns branches: 106380
- lns fails: 52128
LNS iteration #114 ========================================
- worst case average CPI: 0.720
- worst case efficiency: 0.784
- efficiency to beat: 0.784
- normalized lower bound 3150
- lns time: 3.005000
- lns branches: 181799
- lns fails: 89273
LNS iteration #115 ========================================
- worst case average CPI: 0.720
- worst case efficiency: 0.784
- efficiency to beat: 0.784
- normalized lower bound 3150
- lns time: 3.005000
- lns branches: 304910
- lns fails: 149249
LNS iteration #116 ========================================
- worst case average CPI: 0.720
- worst case efficiency: 0.784
- efficiency to beat: 0.784
- normalized lower bound 3150
- lns time: 3.005000
- lns branches: 192760
- lns fails: 94536
LNS iteration #117 ========================================
- worst case average CPI: 0.720
- worst case efficiency: 0.784
- efficiency to beat: 0.784
- normalized lower bound 3150
- lns time: 3.005000
- lns branches: 222278
- lns fails: 109064
LNS iteration #118 ========================================
- worst case average CPI: 0.720
- worst case efficiency: 0.784
- efficiency to beat: 0.784
- normalized lower bound 3150
- lns time: 3.005000
- lns branches: 230446
- lns fails: 113138
LNS iteration #119 ========================================
- worst case average CPI: 0.720
- worst case efficiency: 0.784
- efficiency to beat: 0.784
- normalized lower bound 3150
- lns time: 3.005000
- lns branches: 286866
- lns fails: 140346
LNS iteration #120 ========================================
- worst case average CPI: 0.720
- worst case efficiency: 0.784
- efficiency to beat: 0.784
- normalized lower bound 3150
- lns time: 3.005000
- lns branches: 233504
- lns fails: 114534
LNS iteration #121 ========================================
- worst case average CPI: 0.720
- worst case efficiency: 0.784
- efficiency to beat: 0.784
- normalized lower bound 3150
- lns time: 3.005000
- lns branches: 220727
- lns fails: 108301
LNS iteration #122 ========================================
- worst case average CPI: 0.720
- worst case efficiency: 0.784
- efficiency to beat: 0.784
- normalized lower bound 3150
--- checking solution
--- solution ok! Maximum rounding error: 0.000068
- solution found, obj var is: 3161
- de-normalized obj var: 0.789660
- time (local/global): 0.003/75.808
- branches (local/global): 14371/5536163
- fails (local/global): 6956/2709577
- lns time: 0.242000
- lns branches: 14371
- lns fails: 6956
LNS iteration #123 ========================================
- worst case average CPI: 0.720
- worst case efficiency: 0.784
- efficiency to beat: 0.784
- normalized lower bound 3153
--- checking solution
--- solution ok! Maximum rounding error: 0.000070
- solution found, obj var is: 3154
- de-normalized obj var: 0.789240
- time (local/global): 0.002/76.049
- branches (local/global): 3327/5539490
- fails (local/global): 1593/2711170
- lns time: 0.055000
- lns branches: 3327
- lns fails: 1593
LNS iteration #124 ========================================
- worst case average CPI: 0.720
- worst case efficiency: 0.784
- efficiency to beat: 0.784
- normalized lower bound 3157
--- checking solution
--- solution ok! Maximum rounding error: 0.000115
- solution found, obj var is: 3445
- de-normalized obj var: 0.806700
- time (local/global): 0.002/76.104
- branches (local/global): 8260/5547750
- fails (local/global): 3963/2715133
- lns time: 0.122000
- lns branches: 8260
- lns fails: 3963
LNS iteration #125 ========================================
- worst case average CPI: 0.720
- worst case efficiency: 0.785
- efficiency to beat: 0.785
- normalized lower bound 3162
--- checking solution
--- solution ok! Maximum rounding error: 0.000011
- solution found, obj var is: 3176
- de-normalized obj var: 0.790560
- time (local/global): 0.003/76.227
- branches (local/global): 20680/5568430
- fails (local/global): 10001/2725134
- lns time: 0.297000
- lns branches: 20680
- lns fails: 10001
LNS iteration #126 ========================================
- worst case average CPI: 0.720
- worst case efficiency: 0.785
- efficiency to beat: 0.785
- normalized lower bound 3170
--- checking solution
--- solution ok! Maximum rounding error: 0.000110
- solution found, obj var is: 3187
- de-normalized obj var: 0.791220
- time (local/global): 0.003/76.524
- branches (local/global): 6693/5575123
- fails (local/global): 3229/2728363
- lns time: 0.133000
- lns branches: 6693
- lns fails: 3229
LNS iteration #127 ========================================
- worst case average CPI: 0.720
- worst case efficiency: 0.786
- efficiency to beat: 0.786
- normalized lower bound 3177
--- checking solution
--- solution ok! Maximum rounding error: 0.000068
- solution found, obj var is: 3200
- de-normalized obj var: 0.792000
- time (local/global): 0.003/76.657
- branches (local/global): 16732/5591855
- fails (local/global): 8129/2736492
- lns time: 0.276000
- lns branches: 16732
- lns fails: 8129
LNS iteration #128 ========================================
- worst case average CPI: 0.720
- worst case efficiency: 0.786
- efficiency to beat: 0.786
- normalized lower bound 3184
--- checking solution
--- solution ok! Maximum rounding error: 0.000022
- solution found, obj var is: 3216
- de-normalized obj var: 0.792960
- time (local/global): 0.003/76.933
- branches (local/global): 11394/5603249
- fails (local/global): 5495/2741987
- lns time: 0.285000
- lns branches: 11394
- lns fails: 5495
LNS iteration #129 ========================================
- worst case average CPI: 0.720
- worst case efficiency: 0.789
- efficiency to beat: 0.789
- normalized lower bound 3240
- lns time: 3.005000
- lns branches: 245771
- lns fails: 120374
LNS iteration #130 ========================================
- worst case average CPI: 0.720
- worst case efficiency: 0.789
- efficiency to beat: 0.789
- normalized lower bound 3240
- lns time: 3.005000
- lns branches: 216849
- lns fails: 106595
LNS iteration #131 ========================================
- worst case average CPI: 0.720
- worst case efficiency: 0.789
- efficiency to beat: 0.789
- normalized lower bound 3240
- lns time: 3.005000
- lns branches: 190055
- lns fails: 93159
LNS iteration #132 ========================================
- worst case average CPI: 0.720
- worst case efficiency: 0.789
- efficiency to beat: 0.789
- normalized lower bound 3240
- lns time: 3.005000
- lns branches: 165491
- lns fails: 81069
LNS iteration #133 ========================================
- worst case average CPI: 0.720
- worst case efficiency: 0.789
- efficiency to beat: 0.789
- normalized lower bound 3240
- lns time: 0.770000
- lns branches: 58173
- lns fails: 28375

LNS optimization is over========================================
initial worst case average CPI: 2.169
final worst case average CPI: 0.720
initial worst case efficiency: 0.638
final worst case efficiency: 0.789
number of iterations: 134
total time: 90005.000000
total branches: 6479588
total fails: 3171559

Final Solution: 0->6, 1->26, 2->45, 3->34, 4->29, 5->40, 6->19, 7->37, 8->13, 9->38, 10->27, 11->47, 12->26, 13->44, 14->15, 15->2, 16->0, 17->15, 18->1, 19->41, 20->39, 21->44, 22->14, 23->32, 24->22, 25->8, 26->26, 27->10, 28->1, 29->24, 30->14, 31->0, 32->6, 33->29, 34->26, 35->13, 36->31, 37->15, 38->20, 39->18, 40->27, 41->38, 42->14, 43->36, 44->27, 45->10, 46->15, 47->21, 48->35, 49->21, 50->11, 51->28, 52->38, 53->43, 54->21, 55->25, 56->41, 57->12, 58->30, 59->43, 60->10, 61->44, 62->22, 63->45, 64->6, 65->2, 66->37, 67->8, 68->3, 69->45, 70->23, 71->26, 72->15, 73->42, 74->8, 75->30, 76->23, 77->17, 78->6, 79->34, 80->19, 81->29, 82->45, 83->27, 84->8, 85->10, 86->7, 87->33, 88->8, 89->30, 90->6, 91->24, 92->44, 93->28, 94->32, 95->5, 96->38, 97->2, 98->20, 99->32, 100->23, 101->14, 102->7, 103->5, 104->41, 105->17, 106->39, 107->18, 108->32, 109->19, 110->45, 111->44, 112->38, 113->15, 114->20, 115->32, 116->9, 117->43, 118->22, 119->28, 120->24, 121->2, 122->41, 123->6, 124->19, 125->0, 126->18, 127->44, 128->30, 129->10, 130->37, 131->35, 132->29, 133->12, 134->11, 135->17, 136->13, 137->29, 138->12, 139->25, 140->23, 141->31, 142->37, 143->42, 144->25, 145->27, 146->27, 147->26, 148->13, 149->14, 150->21, 151->29, 152->8, 153->40, 154->10, 155->40, 156->16, 157->13, 158->36, 159->32, 160->22, 161->1, 162->47, 163->39, 164->17, 165->4, 166->7, 167->23, 168->37, 169->42, 170->5, 171->41, 172->17, 173->25, 174->14, 175->22, 176->9, 177->36, 178->20, 179->41, 180->34, 181->12, 182->4, 183->40, 184->20, 185->38, 186->16, 187->39, 188->31, 189->31, 190->0, 191->37, 192->46, 193->18, 194->9, 195->9, 196->16, 197->36, 198->16, 199->9, 200->11, 201->40, 202->3, 203->42, 204->47, 205->3, 206->46, 207->39, 208->34, 209->7, 210->47, 211->42, 212->43, 213->30, 214->3, 215->33, 216->17, 217->43, 218->46, 219->43, 220->31, 221->11, 222->1, 223->34, 224->0, 225->3, 226->35, 227->34, 228->22, 229->9, 230->18, 231->4, 232->5, 233->33, 234->7, 235->33, 236->45, 237->5, 238->1, 239->30, 240->13, 241->35, 242->36, 243->47, 244->25, 245->39, 246->2, 247->47, 248->5, 249->21, 250->4, 251->2, 252->16, 253->21, 254->24, 255->19, 256->35, 257->4, 258->1, 259->28, 260->19, 261->31, 262->35, 263->12, 264->36, 265->46, 266->46, 267->33, 268->24, 269->40, 270->4, 271->16, 272->11, 273->20, 274->0, 275->18, 276->11, 277->46, 278->33, 279->28, 280->24, 281->3, 282->25, 283->12, 284->7, 285->42, 286->28, 287->23

Average CPI map:
	7.37,	1.87,	1.38,	0.72,	1.08,	1.24
	2.38,	3.02,	4.31,	6.29,	3.90,	1.49
	1.43,	5.45,	6.52,	5.94,	5.00,	1.80
	1.61,	5.39,	6.47,	4.96,	7.58,	1.14
	1.27,	6.04,	5.74,	7.54,	7.34,	1.67
	1.81,	6.78,	7.05,	3.81,	3.96,	1.15
	0.78,	5.62,	7.02,	5.98,	6.99,	1.37
	1.77,	4.20,	5.51,	5.75,	2.59,	1.94

Efficiency map:
	0.997,	0.918,	0.914,	0.796,	0.910,	1.003
	0.934,	0.791,	0.790,	0.791,	0.789,	0.841
	0.827,	0.791,	0.790,	0.810,	0.792,	0.863
	0.821,	0.799,	0.798,	0.793,	0.795,	0.953
	0.821,	0.795,	0.790,	0.791,	0.827,	0.807
	0.848,	0.790,	0.791,	0.789,	0.790,	0.821
	0.808,	0.795,	0.793,	0.802,	0.798,	0.816
	0.831,	0.803,	0.810,	0.808,	0.792,	0.880
