LocalSolver 4.0 (MacOS64, build 20131224)
Copyright (C) 2013 Bouygues SA, Aix-Marseille University, CNRS.
All rights reserved (see Terms and Conditions for details).

Load localsolver_res/tawd_ls.lsp...
Run input...
ANNs For the Platform:
4,2,1,6.45294,0.0174524,1.58234,2.29305,2.12057,3.95113,12.7206,-19.3278,5.58789,9.38298,0.00306445,0.00353919,0.795949
4,2,1,3.10684,7.56359,0.502116,0.637049,12.0356,-2.9013,-3.22211,-0.368567,-0.562298,-7.37831,2.38595,1.22203,-0.360292
4,2,1,4.88387,44.8399,1.27345,1.24496,49.1775,-8.83277,-3.12983,-1.00946,11.7,-3.01002,0.132635,0.00372271,0.673996
4,2,1,4.73045,19.3982,0.449241,0.753865,25.7092,17.3605,0.0558085,-8.91516,0.49993,10.3396,4.06312,-0.0136297,-3.24599
4,2,1,-7.16849,-10.0957,-0.518885,-0.00359459,5.93351,5.62684,52.0516,1.48603,1.30274,57.2311,0.250578,0.137157,0.417379
4,2,1,0.412706,-2.89716,0.137754,-2.57826,11.0947,121.374,858.444,-136.26,-14917.8,-1308.92,-3.36558,-0.000403784,4.17997
4,2,1,-8.8269,-0.482244,-0.0820712,-0.0562713,-10.1617,9.78118,-7.01882,-0.428151,-0.0606718,2.56012,-8.54699,-0.509991,-7.23704
4,2,1,2.19881,4.94147,0.541452,0.107587,6.45213,1.0452,0.405805,0.555763,3.64728,1.95727,0.425683,-0.00188273,0.383643
4,2,1,-6.13316,1.92598,-0.0562274,-0.0731719,-4.60606,0.509071,7.79918,0.393802,0.0114563,7.9345,-1.13416,0.310582,-0.637365
4,2,1,1.73462,2.97854,0.276167,0.0859465,3.6912,3.09203,3.25403,0.324282,0.112495,4.06123,0.954718,-0.48836,0.344765
4,2,1,1.57339,3.84603,-3.4467,0.7429,2.75709,2.1802,5.09535,0.482172,0.106131,6.49189,-0.0251827,0.433535,0.393482
4,2,1,4.13514,21.6229,1.1931,0.354612,24.1372,25.5916,0.432728,-12.6725,-0.45345,15.3428,0.194819,-0.0364695,0.647465
4,2,1,-0.728632,5.60079,1.78098,1.8429,-5.74354,-3.26566,-13.0026,-0.907163,-0.31822,-15.3707,-0.427666,-0.224298,0.154329
4,2,1,3.81854,-4.98219,-0.293924,-0.103604,-6.7034,2.28654,4.72568,0.469524,0.115005,6.05901,-0.511241,0.421809,-0.121549
4,2,1,-1.23773,5.98591,0.224555,-0.359337,6.05767,2.3852,3.4706,0.220977,0.179377,4.88772,0.199751,0.432231,0.177791
4,2,1,1.12189,4.09326,0.850801,0.171671,-5.17646,-1.9656,-4.07995,-0.210811,-0.113853,-5.17242,-2.70452,-0.46094,-2.36326
4,2,1,2.08858,4.80174,0.367584,0.109336,6.02292,4.32969,4.35157,0.772172,10.015,-0.96022,0.43933,4.17055e-05,0.365228
4,2,1,1.18806,3.00188,0.124753,0.00191203,3.75084,1.03049,2.7808,0.137818,0.0250058,4.01619,-1.05018,2.49176,-0.635083
4,2,1,3.11788,10.9247,0.699295,0.170953,13.0959,-11.4646,-5.88946,11.0137,8.74787,-11.701,0.236706,0.0216102,0.59131
4,2,1,7.53568,1.94998,-2.27776,-1.91765,0.451708,2.13206,4.27547,0.333162,0.0864645,5.45063,-0.0153486,0.447774,0.366202
4,2,1,-2.12436,-3.29848,-0.0965154,-0.0454545,-3.86293,4.27042,3.64797,0.106703,0.057602,4.81479,-1.28015,-0.815344,0.346524
4,2,1,2.06313,3.99765,-9.94001e-06,0.200591,5.05136,-0.024567,-3.22765,-1.84842,1.73493,-3.87425,0.446216,-0.0350173,0.320411
4,2,1,3.3952,3.19239,0.219932,0.0459907,4.0724,1.85184,2.9352,0.236295,0.0535068,3.62882,-0.516849,0.990723,0.337742
4,2,1,-6.32145,2.68844,0.160066,0.0633176,-3.81442,9.03888,1.31396,0.253255,-0.0684612,6.93971,1.83579,0.440423,2.20116
4,2,1,-4.54148,-0.217309,1.86369,-0.409034,0.0885675,-3.10698,-12.3715,-0.753639,-0.275832,-14.544,0.00344558,-0.233405,0.57337
4,2,1,-0.743367,6.86662,-0.19496,-0.0184317,7.54898,2.69258,3.24789,0.437511,0.121848,4.97423,0.830361,0.39615,-0.417087
4,2,1,2.07654,3.2533,0.103762,0.0837251,4.40922,1.95615,-2.57949,-0.10147,-0.0485499,-3.72005,0.479113,-0.433879,-0.0966803
4,2,1,-0.480501,-0.00331725,1.67452,0.764966,-1.53387,1.99113,3.67475,0.0228188,0.0287235,4.64739,0.15721,0.465135,0.487915
4,2,1,1.11584,-5.79333,-0.212675,0.376981,-6.64888,2.45003,3.54368,0.313683,0.144659,5.05472,-0.777178,0.423599,-0.389995
4,2,1,2.39093,1.70258,-0.183288,-0.314006,4.06496,2.34881,2.91375,-0.0230153,-0.18977,5.26307,-1.33645,1.84807,0.292237
4,2,1,0.88022,3.23795,0.179315,0.0205209,3.57684,0.764441,2.74982,0.156077,0.0273373,3.62313,-0.980719,2.16912,-0.37872
4,2,1,-1.27932,7.09751,-0.0490235,0.455487,7.14709,-2.57722,-4.06233,-0.410784,-0.0433739,-5.6171,0.164894,-0.408714,0.23583
4,2,1,0.623158,5.01876,0.194867,0.0365944,4.99458,-16.0815,2.94826,-1.82463,-1.90388,-9.56395,0.291148,-0.155001,0.360694
4,2,1,1.86251,3.92056,0.158781,0.0575693,4.93436,0.681285,4.09563,1.09826,-3.65606,2.09524,0.482473,-0.00448292,0.322397
4,2,1,3.33939,3.52877,0.262622,0.0607689,4.45842,2.23218,3.37107,0.256541,0.0516206,4.05014,-1.2701,1.7162,0.365737
4,2,1,5.0585,4.68315,2.53887,0.128578,8.9709,3.62833,11.0789,1.32555,0.190392,13.8026,-0.126366,0.350541,0.580103
4,2,1,4.99986,2.75557,1.33036,-0.0119951,6.91685,4.23025,5.34568,1.08928,0.0379928,8.80363,-0.700785,0.958812,0.547325
4,2,1,1.95024,3.24732,0.229322,0.0270089,3.53624,1.62575,3.04977,0.230194,0.0319079,3.46966,-1.34015,1.81817,0.333213
4,2,1,2.11055,5.16581,0.225183,0.0767342,6.2013,3.43647,-3.10756,1.22453,-6.27082,5.92438,0.428242,2.12665,-1.75474
4,2,1,10.028,2.55152,-0.0579427,-0.0186516,-2.98054,2.14055,4.33639,0.203596,0.057269,5.47668,0.0078111,0.436528,0.371941
4,2,1,1.80421,3.45533,0.27065,0.0337725,4.14172,3.00203,3.65885,0.26995,0.0620062,4.37924,0.892686,-0.440136,0.355377
4,2,1,-2.76424,-10.7675,-0.741451,-0.141046,-12.927,13.6995,2.51611,0.90934,27.76,15.1973,-0.260938,-0.00175312,0.546274
4,2,1,2.26659,3.88332,0.083697,0.287373,-5.89957,3.07548,7.5942,0.285535,0.141703,9.90558,1.94369,0.273352,2.47758
4,2,1,5.41472,-1.35343,-0.0808605,2.27411,0.928252,2.55844,6.15687,0.338903,0.0735359,7.47381,-0.0148119,0.388691,0.423615
4,2,1,4.53285,3.66527,0.130055,0.0722232,4.95325,-2.1632,-3.34312,-0.11633,-0.0577237,-3.98867,-0.759785,-1.19124,0.379449
4,2,1,2.36669,5.75119,0.132783,0.0812059,6.8845,-8.68015,-0.488627,0.811521,2.16444,0.277436,0.40839,0.00790296,0.400784
4,2,1,0.583762,8.58805,0.307497,0.0165495,8.61973,-7.32584,1.34397,-0.0108636,-0.0260377,-6.96836,0.266022,-5.2323,-4.69173
4,2,1,1.76683,-0.336959,-0.116305,-0.0696435,-1.62311,2.51027,5.65249,0.180271,0.0657051,7.97995,-0.0500539,0.457869,0.308072
Workload Information:
4.72634, 0.80643, 0.600421, 1.23093, 2.15829, 2.47759, 3.25176, 2.58534, 1.64973, 2.0288, 1.88653, 0.597842, 1.91945, 1.94999, 2.05017, 1.85901, 2.36346, 1.85793, 2.62763, 2.40449, 2.67466, 0.5, 1.80273, 1.99049, 2.14438, 2.14645, 2.18921, 1.95719, 1.9618, 1.60097, 2.16001, 2.59673, 2.04742, 0.800318, 2.34858, 2.04694, 1.76921, 1.80511, 2.51634, 2.22796, 2.43494, 1.24643, 0.85042, 3.01765, 3.33737, 2.13918, 0.686134, 1.96925, 2.62422, 0.758929, 3.07115, 3.19422, 1.85148, 0.5, 3.25117, 0.5, 2.13828, 2.05464, 0.871231, 3.18467, 0.5, 4.79118, 2.3423, 1.0173, 0.921258, 2.42797, 2.31006, 0.5, 0.900488, 2.03999, 1.26812, 4.98134, 1.20626, 1.02555, 2.49961, 3.90973, 0.5, 2.85885, 3.30362, 1.02483, 4.52109, 1.30459, 1.34587, 0.5, 24.6396, 13.1308, 29.8871, 35, 11.4149, 17.9277, 35, 17.8207, 12.66, 17.2125, 20.6874, 28.6195, 1.5002, 2.785, 2.02919, 0.5, 2.24496, 2.94065, 0.5, 2.26738, 2.18001, 3.9793, 2.06294, 1.01036, 2.04474, 3.11418, 2.55831, 0.817484, 2.63524, 0.830046, 2.68802, 2.26018, 1.61054, 2.75781, 1.61053, 1.07294, 9.13066, 8.39748, 33.7156, 22.5257, 35, 23.2305, 3.46287, 1.9553, 0.992387, 0.5, 2.10496, 2.98448, 7.55319, 34.9071, 26.2854, 16.0863, 35, 12.168, 6.05281, 1.9006, 0.5, 1.33709, 0.978716, 1.23078, 1.41619, 2.43974, 0.5, 2.25508, 2.44977, 2.93921, 2.64417, 3.45957, 3.78676, 0.693863, 0.5, 0.915637, 26.8552, 16.3454, 35, 16.1199, 19.8227, 17.8569, 31.4681, 6.23997, 11.1457, 30.1129, 28.0174, 25.016, 23.7705, 22.3787, 15.8532, 24.7516, 24.2344, 21.0116, 1.42575, 3.09505, 2.82666, 0.5, 3.251, 0.901542, 3.97766, 0.5, 2.30717, 3.18453, 0.871821, 1.15882, 0.5, 2.72857, 3.21968, 1.24734, 2.21887, 2.08554, 1.81881, 2.13962, 2.25394, 1.93487, 1.76174, 2.09102, 2.15055, 5.67218, 0.985286, 1.26879, 1.05214, 0.871061, 1.16524, 3.72741, 4.03229, 0.946942, 0.72869, 1.39942, 2.26744, 2.29021, 1.91601, 1.80106, 1.47367, 2.2516, 1.92586, 2.21324, 1.73742, 1.86003, 2.05943, 2.20403, 2.09886, 1.98844, 1.88776, 1.71861, 2.16756, 2.13876, 2.69924, 1.5634, 2.49374, 1.96284, 2.78078, 0.5, 2.3516, 1.66845, 0.5, 1.39727, 2.45327, 3.62942, 2.14902, 1.80381, 1.75116, 2.42663, 0.5, 3.36939, 3.76519, 1.47279, 2.47116, 0.5, 2.89601, 0.894846, 1.82126, 2.34338, 3.42483, 0.888116, 1.28338, 2.23904, 3.35174, 0.527017, 0.989456, 1.61285, 2.28852, 3.23043, 2.36367, 2.37168, 1.78575, 1.28309, 2.05796, 2.13786, 2.33386, 2.13722, 1.05973, 2.2291, 2.35209, 1.888, 1.40055, 2.12991, 2.06404, 2.33329, 1.94813, 2.12407, 1.29112, 2.82369, 1.55113, 1.56719, 2.86181, 1.90506
cpi min/max: 0.5/35
neighbors of 0: 1 6, number of others: 45
neighbors of 1: 0 2 6 7, number of others: 43
neighbors of 2: 1 3 7 8, number of others: 43
neighbors of 3: 2 4 8 9, number of others: 43
neighbors of 4: 3 5 9 10, number of others: 43
neighbors of 5: 4 10 11, number of others: 44
neighbors of 6: 0 1 7 12, number of others: 43
neighbors of 7: 1 2 6 8 12 13, number of others: 41
neighbors of 8: 2 3 7 9 13 14, number of others: 41
neighbors of 9: 3 4 8 10 14 15, number of others: 41
neighbors of 10: 4 5 9 11 15 16, number of others: 41
neighbors of 11: 5 10 16 17, number of others: 43
neighbors of 12: 6 7 13 18, number of others: 43
neighbors of 13: 7 8 12 14 18 19, number of others: 41
neighbors of 14: 8 9 13 15 19 20, number of others: 41
neighbors of 15: 9 10 14 16 20 21, number of others: 41
neighbors of 16: 10 11 15 17 21 22, number of others: 41
neighbors of 17: 11 16 22 23, number of others: 43
neighbors of 18: 12 13 19 24, number of others: 43
neighbors of 19: 13 14 18 20 24 25, number of others: 41
neighbors of 20: 14 15 19 21 25 26, number of others: 41
neighbors of 21: 15 16 20 22 26 27, number of others: 41
neighbors of 22: 16 17 21 23 27 28, number of others: 41
neighbors of 23: 17 22 28 29, number of others: 43
neighbors of 24: 18 19 25 30, number of others: 43
neighbors of 25: 19 20 24 26 30 31, number of others: 41
neighbors of 26: 20 21 25 27 31 32, number of others: 41
neighbors of 27: 21 22 26 28 32 33, number of others: 41
neighbors of 28: 22 23 27 29 33 34, number of others: 41
neighbors of 29: 23 28 34 35, number of others: 43
neighbors of 30: 24 25 31 36, number of others: 43
neighbors of 31: 25 26 30 32 36 37, number of others: 41
neighbors of 32: 26 27 31 33 37 38, number of others: 41
neighbors of 33: 27 28 32 34 38 39, number of others: 41
neighbors of 34: 28 29 33 35 39 40, number of others: 41
neighbors of 35: 29 34 40 41, number of others: 43
neighbors of 36: 30 31 37 42, number of others: 43
neighbors of 37: 31 32 36 38 42 43, number of others: 41
neighbors of 38: 32 33 37 39 43 44, number of others: 41
neighbors of 39: 33 34 38 40 44 45, number of others: 41
neighbors of 40: 34 35 39 41 45 46, number of others: 41
neighbors of 41: 35 40 46 47, number of others: 43
neighbors of 42: 36 37 43, number of others: 44
neighbors of 43: 37 38 42 44, number of others: 43
neighbors of 44: 38 39 43 45, number of others: 43
neighbors of 45: 39 40 44 46, number of others: 43
neighbors of 46: 40 41 45 47, number of others: 43
neighbors of 47: 41 46, number of others: 45
Run model...
Preprocess model 0% ...Preprocess model 16% ...Preprocess model 32% ...Preprocess model 48% ...Preprocess model 66% ...Preprocess model 84% ...Preprocess model 100% ...
Close model 0% ...Close model 9% ...Close model 18% ...Close model 27% ...Close model 36% ...Close model 45% ...Close model 54% ...Close model 63% ...Close model 72% ...Close model 81% ...Close model 91% ...Close model 100% ...
Run param...
Run solver...
Initialize threads 0% ...Initialize threads 100% ...
Push initial solutions 0% ...Push initial solutions 100% ...

Model: 
  expressions = 44726, operands = 116736
  decisions = 13824, constraints = 336, objectives = 1

Param: 
  time limit = 90 sec, no iteration limit
  seed = 501, nb threads = 1, annealing level = 1

Objectives:
  Obj 0: maximize, no bound

Phases:
  Phase 0: time limit = 90 sec, no iteration limit, optimized objective = 0


Computed bounds:
  Obj 0: upper bound = 0.664125


Phase 0:
[0 sec, 0 itr]: infeas = (336, 336, 576), mov = 0, inf < 0.1%, acc < 0.1%, imp = 0

worst case efficiency: 0.998464
[1 sec, 2075 itr]: infeas = (30, 30, 38), mov = 2075, inf = 70.1%, acc = 27.5%, imp = 111

worst case efficiency: 0.620965
[2 sec, 30811 itr]: obj = (0.0833434), mov = 30811, inf = 96.6%, acc = 3.1%, imp = 177

worst case efficiency: 0.650006
[3 sec, 52541 itr]: obj = (0.11347), mov = 52541, inf = 97.9%, acc = 2%, imp = 235

worst case efficiency: 0.668082
[4 sec, 61169 itr]: obj = (0.175036), mov = 61169, inf = 98.1%, acc = 1.8%, imp = 301

worst case efficiency: 0.705022
[5 sec, 68155 itr]: obj = (0.205576), mov = 68155, inf = 98.3%, acc = 1.7%, imp = 327

worst case efficiency: 0.723346
[6 sec, 73286 itr]: obj = (0.205576), mov = 73286, inf = 98.4%, acc = 1.5%, imp = 327

worst case efficiency: 0.723346
[7 sec, 78685 itr]: obj = (0.205576), mov = 78685, inf = 98.5%, acc = 1.4%, imp = 327

worst case efficiency: 0.723346
[8 sec, 84491 itr]: obj = (0.205576), mov = 84491, inf = 98.6%, acc = 1.4%, imp = 327

worst case efficiency: 0.723346
[9 sec, 90488 itr]: obj = (0.205576), mov = 90488, inf = 98.7%, acc = 1.3%, imp = 327

worst case efficiency: 0.723346
[10 sec, 96751 itr]: obj = (0.205576), mov = 96751, inf = 98.8%, acc = 1.2%, imp = 327

worst case efficiency: 0.723346
[11 sec, 103042 itr]: obj = (0.209817), mov = 103042, inf = 98.9%, acc = 1.1%, imp = 341

worst case efficiency: 0.72589
[12 sec, 110234 itr]: obj = (0.216382), mov = 110234, inf = 98.9%, acc = 1.1%, imp = 375

worst case efficiency: 0.729829
[13 sec, 118055 itr]: obj = (0.221618), mov = 118055, inf = 99%, acc = 1%, imp = 378

worst case efficiency: 0.732971
[14 sec, 126406 itr]: obj = (0.221618), mov = 126406, inf = 99%, acc = 1%, imp = 378

worst case efficiency: 0.732971
[15 sec, 135085 itr]: obj = (0.221618), mov = 135085, inf = 99.1%, acc = 0.9%, imp = 378

worst case efficiency: 0.732971
[16 sec, 144269 itr]: obj = (0.221618), mov = 144269, inf = 99.2%, acc = 0.9%, imp = 378

worst case efficiency: 0.732971
[17 sec, 155507 itr]: obj = (0.221618), mov = 155507, inf = 99.2%, acc = 0.8%, imp = 378

worst case efficiency: 0.732971
[18 sec, 168928 itr]: obj = (0.221618), mov = 168928, inf = 99.3%, acc = 0.7%, imp = 378

worst case efficiency: 0.732971
[19 sec, 186364 itr]: obj = (0.221618), mov = 186364, inf = 99.4%, acc = 0.7%, imp = 378

worst case efficiency: 0.732971
[20 sec, 203454 itr]: obj = (0.221618), mov = 203454, inf = 99.4%, acc = 0.6%, imp = 378

worst case efficiency: 0.732971
[21 sec, 214681 itr]: obj = (0.221618), mov = 214681, inf = 99.4%, acc = 0.6%, imp = 378

worst case efficiency: 0.732971
[22 sec, 223300 itr]: obj = (0.221618), mov = 223300, inf = 99.5%, acc = 0.6%, imp = 378

worst case efficiency: 0.732971
[23 sec, 231612 itr]: obj = (0.221618), mov = 231612, inf = 99.5%, acc = 0.6%, imp = 378

worst case efficiency: 0.732971
[24 sec, 238941 itr]: obj = (0.221618), mov = 238941, inf = 99.5%, acc = 0.5%, imp = 378

worst case efficiency: 0.732971
[25 sec, 246495 itr]: obj = (0.221618), mov = 246495, inf = 99.5%, acc = 0.5%, imp = 378

worst case efficiency: 0.732971
[26 sec, 255805 itr]: obj = (0.221618), mov = 255805, inf = 99.5%, acc = 0.5%, imp = 378

worst case efficiency: 0.732971
[27 sec, 265196 itr]: obj = (0.221618), mov = 265196, inf = 99.6%, acc = 0.5%, imp = 378

worst case efficiency: 0.732971
[28 sec, 274759 itr]: obj = (0.221618), mov = 274759, inf = 99.6%, acc = 0.5%, imp = 378

worst case efficiency: 0.732971
[29 sec, 283716 itr]: obj = (0.221618), mov = 283716, inf = 99.6%, acc = 0.5%, imp = 378

worst case efficiency: 0.732971
[30 sec, 292878 itr]: obj = (0.221618), mov = 292878, inf = 99.6%, acc = 0.5%, imp = 378

worst case efficiency: 0.732971
[31 sec, 302200 itr]: obj = (0.221618), mov = 302200, inf = 99.6%, acc = 0.4%, imp = 378

worst case efficiency: 0.732971
[32 sec, 311699 itr]: obj = (0.221618), mov = 311699, inf = 99.6%, acc = 0.4%, imp = 378

worst case efficiency: 0.732971
[33 sec, 320631 itr]: obj = (0.221618), mov = 320631, inf = 99.6%, acc = 0.4%, imp = 378

worst case efficiency: 0.732971
[34 sec, 329767 itr]: obj = (0.221618), mov = 329767, inf = 99.6%, acc = 0.4%, imp = 378

worst case efficiency: 0.732971
[35 sec, 337061 itr]: obj = (0.221618), mov = 337061, inf = 99.6%, acc = 0.4%, imp = 378

worst case efficiency: 0.732971
[36 sec, 346350 itr]: obj = (0.221618), mov = 346350, inf = 99.7%, acc = 0.4%, imp = 378

worst case efficiency: 0.732971
[37 sec, 355607 itr]: obj = (0.221618), mov = 355607, inf = 99.7%, acc = 0.4%, imp = 378

worst case efficiency: 0.732971
[38 sec, 364180 itr]: obj = (0.221618), mov = 364180, inf = 99.7%, acc = 0.4%, imp = 378

worst case efficiency: 0.732971
[39 sec, 372684 itr]: obj = (0.221618), mov = 372684, inf = 99.7%, acc = 0.4%, imp = 378

worst case efficiency: 0.732971
[40 sec, 381134 itr]: obj = (0.221618), mov = 381134, inf = 99.7%, acc = 0.4%, imp = 378

worst case efficiency: 0.732971
[41 sec, 390702 itr]: obj = (0.221618), mov = 390702, inf = 99.7%, acc = 0.4%, imp = 378

worst case efficiency: 0.732971
[42 sec, 399704 itr]: obj = (0.221618), mov = 399704, inf = 99.7%, acc = 0.4%, imp = 378

worst case efficiency: 0.732971
[43 sec, 408767 itr]: obj = (0.221618), mov = 408767, inf = 99.7%, acc = 0.4%, imp = 378

worst case efficiency: 0.732971
[44 sec, 418191 itr]: obj = (0.221618), mov = 418191, inf = 99.7%, acc = 0.3%, imp = 378

worst case efficiency: 0.732971
[45 sec, 427217 itr]: obj = (0.221618), mov = 427217, inf = 99.7%, acc = 0.3%, imp = 378

worst case efficiency: 0.732971
[46 sec, 436374 itr]: obj = (0.221618), mov = 436374, inf = 99.7%, acc = 0.3%, imp = 378

worst case efficiency: 0.732971
[47 sec, 445871 itr]: obj = (0.221618), mov = 445871, inf = 99.7%, acc = 0.3%, imp = 378

worst case efficiency: 0.732971
[48 sec, 455067 itr]: obj = (0.221618), mov = 455067, inf = 99.7%, acc = 0.3%, imp = 378

worst case efficiency: 0.732971
[49 sec, 464371 itr]: obj = (0.221618), mov = 464371, inf = 99.7%, acc = 0.3%, imp = 378

worst case efficiency: 0.732971
[50 sec, 473149 itr]: obj = (0.221618), mov = 473149, inf = 99.8%, acc = 0.3%, imp = 378

worst case efficiency: 0.732971
[51 sec, 482341 itr]: obj = (0.221618), mov = 482341, inf = 99.8%, acc = 0.3%, imp = 378

worst case efficiency: 0.732971
[52 sec, 491615 itr]: obj = (0.221618), mov = 491615, inf = 99.8%, acc = 0.3%, imp = 378

worst case efficiency: 0.732971
[53 sec, 500941 itr]: obj = (0.221618), mov = 500941, inf = 99.8%, acc = 0.3%, imp = 378

worst case efficiency: 0.732971
[54 sec, 510291 itr]: obj = (0.221618), mov = 510291, inf = 99.8%, acc = 0.3%, imp = 378

worst case efficiency: 0.732971
[55 sec, 520177 itr]: obj = (0.221618), mov = 520177, inf = 99.8%, acc = 0.3%, imp = 378

worst case efficiency: 0.732971
[56 sec, 529569 itr]: obj = (0.221618), mov = 529569, inf = 99.8%, acc = 0.3%, imp = 378

worst case efficiency: 0.732971
[57 sec, 539056 itr]: obj = (0.221618), mov = 539056, inf = 99.8%, acc = 0.3%, imp = 378

worst case efficiency: 0.732971
[58 sec, 548175 itr]: obj = (0.221618), mov = 548175, inf = 99.8%, acc = 0.3%, imp = 378

worst case efficiency: 0.732971
[59 sec, 557355 itr]: obj = (0.221618), mov = 557355, inf = 99.8%, acc = 0.3%, imp = 378

worst case efficiency: 0.732971
[60 sec, 563954 itr]: obj = (0.221618), mov = 563954, inf = 99.8%, acc = 0.3%, imp = 378

worst case efficiency: 0.732971
[61 sec, 571287 itr]: obj = (0.221618), mov = 571287, inf = 99.8%, acc = 0.3%, imp = 378

worst case efficiency: 0.732971
[62 sec, 579461 itr]: obj = (0.221618), mov = 579461, inf = 99.8%, acc = 0.3%, imp = 378

worst case efficiency: 0.732971
[63 sec, 586830 itr]: obj = (0.221618), mov = 586830, inf = 99.8%, acc = 0.3%, imp = 378

worst case efficiency: 0.732971
[64 sec, 594499 itr]: obj = (0.221618), mov = 594499, inf = 99.8%, acc = 0.3%, imp = 378

worst case efficiency: 0.732971
[65 sec, 602212 itr]: obj = (0.221618), mov = 602212, inf = 99.8%, acc = 0.3%, imp = 378

worst case efficiency: 0.732971
[66 sec, 609827 itr]: obj = (0.221618), mov = 609827, inf = 99.8%, acc = 0.3%, imp = 378

worst case efficiency: 0.732971
[67 sec, 618636 itr]: obj = (0.221618), mov = 618636, inf = 99.8%, acc = 0.3%, imp = 378

worst case efficiency: 0.732971
[68 sec, 627827 itr]: obj = (0.221618), mov = 627827, inf = 99.8%, acc = 0.3%, imp = 378

worst case efficiency: 0.732971
[69 sec, 636811 itr]: obj = (0.221618), mov = 636811, inf = 99.8%, acc = 0.3%, imp = 378

worst case efficiency: 0.732971
[70 sec, 646568 itr]: obj = (0.221618), mov = 646568, inf = 99.8%, acc = 0.3%, imp = 378

worst case efficiency: 0.732971
[71 sec, 654098 itr]: obj = (0.221618), mov = 654098, inf = 99.8%, acc = 0.3%, imp = 378

worst case efficiency: 0.732971
[72 sec, 660655 itr]: obj = (0.221618), mov = 660655, inf = 99.8%, acc = 0.3%, imp = 378

worst case efficiency: 0.732971
[73 sec, 669987 itr]: obj = (0.221618), mov = 669987, inf = 99.8%, acc = 0.3%, imp = 378

worst case efficiency: 0.732971
[74 sec, 679127 itr]: obj = (0.221618), mov = 679127, inf = 99.8%, acc = 0.2%, imp = 378

worst case efficiency: 0.732971
[75 sec, 688530 itr]: obj = (0.221618), mov = 688530, inf = 99.8%, acc = 0.2%, imp = 378

worst case efficiency: 0.732971
[76 sec, 697730 itr]: obj = (0.221618), mov = 697730, inf = 99.8%, acc = 0.2%, imp = 378

worst case efficiency: 0.732971
[77 sec, 706904 itr]: obj = (0.221618), mov = 706904, inf = 99.8%, acc = 0.2%, imp = 378

worst case efficiency: 0.732971
[78 sec, 716357 itr]: obj = (0.221618), mov = 716357, inf = 99.8%, acc = 0.2%, imp = 378

worst case efficiency: 0.732971
[79 sec, 725541 itr]: obj = (0.221618), mov = 725541, inf = 99.8%, acc = 0.2%, imp = 378

worst case efficiency: 0.732971
[80 sec, 734068 itr]: obj = (0.221618), mov = 734068, inf = 99.8%, acc = 0.2%, imp = 378

worst case efficiency: 0.732971
[81 sec, 743676 itr]: obj = (0.221618), mov = 743676, inf = 99.8%, acc = 0.2%, imp = 378

worst case efficiency: 0.732971
[82 sec, 752476 itr]: obj = (0.221618), mov = 752476, inf = 99.8%, acc = 0.2%, imp = 378

worst case efficiency: 0.732971
[83 sec, 760820 itr]: obj = (0.221618), mov = 760820, inf = 99.8%, acc = 0.2%, imp = 378

worst case efficiency: 0.732971
[84 sec, 769827 itr]: obj = (0.221618), mov = 769827, inf = 99.8%, acc = 0.2%, imp = 378

worst case efficiency: 0.732971
[85 sec, 778926 itr]: obj = (0.221618), mov = 778926, inf = 99.8%, acc = 0.2%, imp = 378

worst case efficiency: 0.732971
[86 sec, 789034 itr]: obj = (0.221618), mov = 789034, inf = 99.9%, acc = 0.2%, imp = 378

worst case efficiency: 0.732971
[87 sec, 798754 itr]: obj = (0.221618), mov = 798754, inf = 99.9%, acc = 0.2%, imp = 378

worst case efficiency: 0.732971
[88 sec, 807932 itr]: obj = (0.221618), mov = 807932, inf = 99.9%, acc = 0.2%, imp = 378

worst case efficiency: 0.732971
[89 sec, 816391 itr]: obj = (0.221618), mov = 816391, inf = 99.9%, acc = 0.2%, imp = 378

worst case efficiency: 0.732971
[90 sec, 825644 itr]: obj = (0.221618), mov = 825644, inf = 99.9%, acc = 0.2%, imp = 378

worst case efficiency: 0.732971
[90 sec, 825644 itr]: obj = (0.221618), mov = 825644, inf = 99.9%, acc = 0.2%, imp = 378

worst case efficiency: 0.732971
825644 iterations, 825644 moves performed in 90 seconds
Feasible solution: obj = (0.221618)

Run output...
FINAL SOLUTION
Worst case efficiency: 0.732971
Mapping: 0->15, 1->35, 2->30, 3->18, 4->19, 5->44, 6->39, 7->9, 8->42, 9->14, 10->25, 11->31, 12->16, 13->20, 14->44, 15->8, 16->18, 17->1, 18->23, 19->33, 20->21, 21->32, 22->7, 23->14, 24->22, 25->23, 26->38, 27->3, 28->41, 29->3, 30->20, 31->10, 32->44, 33->41, 34->20, 35->6, 36->3, 37->2, 38->17, 39->47, 40->7, 41->31, 42->9, 43->10, 44->17, 45->43, 46->6, 47->28, 48->18, 49->24, 50->13, 51->40, 52->41, 53->6, 54->22, 55->11, 56->10, 57->11, 58->42, 59->15, 60->5, 61->19, 62->16, 63->1, 64->40, 65->38, 66->17, 67->24, 68->47, 69->30, 70->41, 71->15, 72->29, 73->24, 74->22, 75->39, 76->24, 77->19, 78->23, 79->27, 80->45, 81->18, 82->35, 83->23, 84->4, 85->11, 86->10, 87->39, 88->8, 89->40, 90->14, 91->7, 92->37, 93->22, 94->14, 95->4, 96->39, 97->38, 98->29, 99->47, 100->12, 101->47, 102->8, 103->31, 104->25, 105->32, 106->39, 107->10, 108->33, 109->1, 110->18, 111->47, 112->12, 113->36, 114->45, 115->30, 116->0, 117->33, 118->28, 119->43, 120->35, 121->16, 122->8, 123->15, 124->17, 125->46, 126->12, 127->43, 128->0, 129->0, 130->37, 131->43, 132->37, 133->25, 134->32, 135->20, 136->14, 137->9, 138->22, 139->23, 140->5, 141->36, 142->5, 143->39, 144->25, 145->7, 146->36, 147->41, 148->40, 149->21, 150->7, 151->44, 152->13, 153->5, 154->5, 155->27, 156->26, 157->45, 158->31, 159->34, 160->8, 161->8, 162->12, 163->15, 164->7, 165->27, 166->19, 167->33, 168->21, 169->28, 170->38, 171->21, 172->43, 173->29, 174->30, 175->13, 176->34, 177->42, 178->32, 179->24, 180->40, 181->31, 182->4, 183->25, 184->23, 185->37, 186->42, 187->16, 188->9, 189->0, 190->9, 191->46, 192->27, 193->34, 194->27, 195->4, 196->36, 197->38, 198->6, 199->2, 200->30, 201->0, 202->19, 203->46, 204->1, 205->32, 206->26, 207->45, 208->1, 209->9, 210->0, 211->42, 212->3, 213->38, 214->19, 215->22, 216->45, 217->25, 218->34, 219->46, 220->45, 221->40, 222->26, 223->12, 224->33, 225->34, 226->20, 227->16, 228->46, 229->43, 230->14, 231->27, 232->3, 233->26, 234->13, 235->28, 236->5, 237->30, 238->35, 239->34, 240->6, 241->13, 242->35, 243->6, 244->29, 245->11, 246->11, 247->3, 248->36, 249->1, 250->10, 251->47, 252->36, 253->11, 254->21, 255->42, 256->24, 257->17, 258->13, 259->12, 260->2, 261->29, 262->16, 263->26, 264->21, 265->44, 266->37, 267->28, 268->2, 269->26, 270->2, 271->31, 272->4, 273->28, 274->46, 275->15, 276->33, 277->18, 278->2, 279->32, 280->44, 281->37, 282->29, 283->17, 284->20, 285->41, 286->35, 287->4
Number of tasks per core:
	6	6	6	6	6	6
	6	6	6	6	6	6
	6	6	6	6	6	6
	6	6	6	6	6	6
	6	6	6	6	6	6
	6	6	6	6	6	6
	6	6	6	6	6	6
	6	6	6	6	6	6
Average CPI map:
	1.31442	1.39722	2.4871	1.91616	10.0776	0.612096
	1.65988	6.38133	14.1949	3.74028	6.92436	4.19389
	7.05444	2.91002	16.2001	7.25767	3.30251	8.03775
	2.03524	6.72525	4.37727	9.98741	5.56867	1.89169
	0.828234	7.63127	6.47577	6.34816	5.18985	4.6085
	1.45148	6.95815	6.6794	5.91856	4.69527	3.0582
	1.45355	4.56446	4.52458	7.8259	5.11243	1.61733
	1.11655	5.65828	2.39243	4.74778	5.51641	1.38024
Efficiency map:
	0.99722	0.90404	0.98849	0.998512	1.00009	1.00307
	0.76171	0.853963	0.873648	0.732971	0.811226	0.854367
	0.899156	0.733975	0.965121	0.838989	0.751798	0.987454
	0.861735	0.778419	0.750874	0.911529	0.823143	0.836464
	0.819095	0.824434	0.742706	0.756757	0.747335	0.898989
	0.806209	0.74855	0.732971	0.773667	0.781452	0.850459
	0.816976	0.740135	0.766116	0.825262	0.747042	0.837984
	0.814148	0.775773	0.737854	0.742733	0.862871	0.802636
==============================================================================
Local Solver optimizer for EML demonstration
==============================================================================

Option values: --wld-idx 9 --global-tlim 90 --seed 501

Starting the Optimization Process
