LocalSolver 4.0 (MacOS64, build 20131224)
Copyright (C) 2013 Bouygues SA, Aix-Marseille University, CNRS.
All rights reserved (see Terms and Conditions for details).

Load localsolver_res/tawd_ls.lsp...
Run input...
ANNs For the Platform:
4,2,1,6.45294,0.0174524,1.58234,2.29305,2.12057,3.95113,12.7206,-19.3278,5.58789,9.38298,0.00306445,0.00353919,0.795949
4,2,1,3.10684,7.56359,0.502116,0.637049,12.0356,-2.9013,-3.22211,-0.368567,-0.562298,-7.37831,2.38595,1.22203,-0.360292
4,2,1,4.88387,44.8399,1.27345,1.24496,49.1775,-8.83277,-3.12983,-1.00946,11.7,-3.01002,0.132635,0.00372271,0.673996
4,2,1,4.73045,19.3982,0.449241,0.753865,25.7092,17.3605,0.0558085,-8.91516,0.49993,10.3396,4.06312,-0.0136297,-3.24599
4,2,1,-7.16849,-10.0957,-0.518885,-0.00359459,5.93351,5.62684,52.0516,1.48603,1.30274,57.2311,0.250578,0.137157,0.417379
4,2,1,0.412706,-2.89716,0.137754,-2.57826,11.0947,121.374,858.444,-136.26,-14917.8,-1308.92,-3.36558,-0.000403784,4.17997
4,2,1,-8.8269,-0.482244,-0.0820712,-0.0562713,-10.1617,9.78118,-7.01882,-0.428151,-0.0606718,2.56012,-8.54699,-0.509991,-7.23704
4,2,1,2.19881,4.94147,0.541452,0.107587,6.45213,1.0452,0.405805,0.555763,3.64728,1.95727,0.425683,-0.00188273,0.383643
4,2,1,-6.13316,1.92598,-0.0562274,-0.0731719,-4.60606,0.509071,7.79918,0.393802,0.0114563,7.9345,-1.13416,0.310582,-0.637365
4,2,1,1.73462,2.97854,0.276167,0.0859465,3.6912,3.09203,3.25403,0.324282,0.112495,4.06123,0.954718,-0.48836,0.344765
4,2,1,1.57339,3.84603,-3.4467,0.7429,2.75709,2.1802,5.09535,0.482172,0.106131,6.49189,-0.0251827,0.433535,0.393482
4,2,1,4.13514,21.6229,1.1931,0.354612,24.1372,25.5916,0.432728,-12.6725,-0.45345,15.3428,0.194819,-0.0364695,0.647465
4,2,1,-0.728632,5.60079,1.78098,1.8429,-5.74354,-3.26566,-13.0026,-0.907163,-0.31822,-15.3707,-0.427666,-0.224298,0.154329
4,2,1,3.81854,-4.98219,-0.293924,-0.103604,-6.7034,2.28654,4.72568,0.469524,0.115005,6.05901,-0.511241,0.421809,-0.121549
4,2,1,-1.23773,5.98591,0.224555,-0.359337,6.05767,2.3852,3.4706,0.220977,0.179377,4.88772,0.199751,0.432231,0.177791
4,2,1,1.12189,4.09326,0.850801,0.171671,-5.17646,-1.9656,-4.07995,-0.210811,-0.113853,-5.17242,-2.70452,-0.46094,-2.36326
4,2,1,2.08858,4.80174,0.367584,0.109336,6.02292,4.32969,4.35157,0.772172,10.015,-0.96022,0.43933,4.17055e-05,0.365228
4,2,1,1.18806,3.00188,0.124753,0.00191203,3.75084,1.03049,2.7808,0.137818,0.0250058,4.01619,-1.05018,2.49176,-0.635083
4,2,1,3.11788,10.9247,0.699295,0.170953,13.0959,-11.4646,-5.88946,11.0137,8.74787,-11.701,0.236706,0.0216102,0.59131
4,2,1,7.53568,1.94998,-2.27776,-1.91765,0.451708,2.13206,4.27547,0.333162,0.0864645,5.45063,-0.0153486,0.447774,0.366202
4,2,1,-2.12436,-3.29848,-0.0965154,-0.0454545,-3.86293,4.27042,3.64797,0.106703,0.057602,4.81479,-1.28015,-0.815344,0.346524
4,2,1,2.06313,3.99765,-9.94001e-06,0.200591,5.05136,-0.024567,-3.22765,-1.84842,1.73493,-3.87425,0.446216,-0.0350173,0.320411
4,2,1,3.3952,3.19239,0.219932,0.0459907,4.0724,1.85184,2.9352,0.236295,0.0535068,3.62882,-0.516849,0.990723,0.337742
4,2,1,-6.32145,2.68844,0.160066,0.0633176,-3.81442,9.03888,1.31396,0.253255,-0.0684612,6.93971,1.83579,0.440423,2.20116
4,2,1,-4.54148,-0.217309,1.86369,-0.409034,0.0885675,-3.10698,-12.3715,-0.753639,-0.275832,-14.544,0.00344558,-0.233405,0.57337
4,2,1,-0.743367,6.86662,-0.19496,-0.0184317,7.54898,2.69258,3.24789,0.437511,0.121848,4.97423,0.830361,0.39615,-0.417087
4,2,1,2.07654,3.2533,0.103762,0.0837251,4.40922,1.95615,-2.57949,-0.10147,-0.0485499,-3.72005,0.479113,-0.433879,-0.0966803
4,2,1,-0.480501,-0.00331725,1.67452,0.764966,-1.53387,1.99113,3.67475,0.0228188,0.0287235,4.64739,0.15721,0.465135,0.487915
4,2,1,1.11584,-5.79333,-0.212675,0.376981,-6.64888,2.45003,3.54368,0.313683,0.144659,5.05472,-0.777178,0.423599,-0.389995
4,2,1,2.39093,1.70258,-0.183288,-0.314006,4.06496,2.34881,2.91375,-0.0230153,-0.18977,5.26307,-1.33645,1.84807,0.292237
4,2,1,0.88022,3.23795,0.179315,0.0205209,3.57684,0.764441,2.74982,0.156077,0.0273373,3.62313,-0.980719,2.16912,-0.37872
4,2,1,-1.27932,7.09751,-0.0490235,0.455487,7.14709,-2.57722,-4.06233,-0.410784,-0.0433739,-5.6171,0.164894,-0.408714,0.23583
4,2,1,0.623158,5.01876,0.194867,0.0365944,4.99458,-16.0815,2.94826,-1.82463,-1.90388,-9.56395,0.291148,-0.155001,0.360694
4,2,1,1.86251,3.92056,0.158781,0.0575693,4.93436,0.681285,4.09563,1.09826,-3.65606,2.09524,0.482473,-0.00448292,0.322397
4,2,1,3.33939,3.52877,0.262622,0.0607689,4.45842,2.23218,3.37107,0.256541,0.0516206,4.05014,-1.2701,1.7162,0.365737
4,2,1,5.0585,4.68315,2.53887,0.128578,8.9709,3.62833,11.0789,1.32555,0.190392,13.8026,-0.126366,0.350541,0.580103
4,2,1,4.99986,2.75557,1.33036,-0.0119951,6.91685,4.23025,5.34568,1.08928,0.0379928,8.80363,-0.700785,0.958812,0.547325
4,2,1,1.95024,3.24732,0.229322,0.0270089,3.53624,1.62575,3.04977,0.230194,0.0319079,3.46966,-1.34015,1.81817,0.333213
4,2,1,2.11055,5.16581,0.225183,0.0767342,6.2013,3.43647,-3.10756,1.22453,-6.27082,5.92438,0.428242,2.12665,-1.75474
4,2,1,10.028,2.55152,-0.0579427,-0.0186516,-2.98054,2.14055,4.33639,0.203596,0.057269,5.47668,0.0078111,0.436528,0.371941
4,2,1,1.80421,3.45533,0.27065,0.0337725,4.14172,3.00203,3.65885,0.26995,0.0620062,4.37924,0.892686,-0.440136,0.355377
4,2,1,-2.76424,-10.7675,-0.741451,-0.141046,-12.927,13.6995,2.51611,0.90934,27.76,15.1973,-0.260938,-0.00175312,0.546274
4,2,1,2.26659,3.88332,0.083697,0.287373,-5.89957,3.07548,7.5942,0.285535,0.141703,9.90558,1.94369,0.273352,2.47758
4,2,1,5.41472,-1.35343,-0.0808605,2.27411,0.928252,2.55844,6.15687,0.338903,0.0735359,7.47381,-0.0148119,0.388691,0.423615
4,2,1,4.53285,3.66527,0.130055,0.0722232,4.95325,-2.1632,-3.34312,-0.11633,-0.0577237,-3.98867,-0.759785,-1.19124,0.379449
4,2,1,2.36669,5.75119,0.132783,0.0812059,6.8845,-8.68015,-0.488627,0.811521,2.16444,0.277436,0.40839,0.00790296,0.400784
4,2,1,0.583762,8.58805,0.307497,0.0165495,8.61973,-7.32584,1.34397,-0.0108636,-0.0260377,-6.96836,0.266022,-5.2323,-4.69173
4,2,1,1.76683,-0.336959,-0.116305,-0.0696435,-1.62311,2.51027,5.65249,0.180271,0.0657051,7.97995,-0.0500539,0.457869,0.308072
Workload Information:
1.84673, 2.42041, 1.75834, 2.89474, 1.69427, 1.38551, 2.46235, 2.45504, 2.59606, 1.19601, 1.87234, 1.4182, 1.96128, 3.15571, 2.79729, 1.32267, 0.5, 2.26305, 1.98228, 1.70508, 2.12024, 2.14991, 2.2916, 1.75088, 0.755484, 0.54686, 3.83922, 5.19541, 0.5, 1.16302, 2.31989, 2.38874, 2.43641, 0.5, 2.13179, 2.22317, 1.80714, 2.11006, 2.15256, 2.34256, 2.10042, 1.48726, 1.54461, 0.950353, 1.20445, 2.23662, 2.34683, 3.71713, 0.5, 5.36224, 0.52865, 1.66361, 1.90721, 2.03829, 2.63978, 2.09741, 0.5, 2.30381, 1.44335, 3.01565, 2.2646, 1.3469, 2.25602, 2.25683, 1.50227, 2.37337, 1.72578, 3.07984, 0.5, 3.07049, 0.585183, 3.03871, 2.12267, 1.79963, 1.99877, 2.14155, 2.01018, 1.92719, 2.3373, 2.3218, 2.19505, 2.30847, 1.90687, 0.930507, 0.740703, 3.24553, 2.54162, 3.22214, 0.5, 1.75, 2.17663, 1.5442, 3.09303, 2.12222, 2.33044, 0.733481, 1.65176, 1.40424, 1.94511, 2.71177, 0.843633, 3.44348, 2.63126, 0.689534, 3.32652, 1.1783, 3.6744, 0.5, 22.613, 19.2856, 24.0149, 21.6445, 20.458, 23.984, 15.2837, 10.2637, 27.7006, 12.2867, 35, 31.4654, 1.80152, 1.23191, 0.550734, 3.99936, 3.35929, 1.0572, 2.26222, 1.65845, 3.09067, 2.85354, 1.63512, 0.5, 1.83445, 1.91787, 1.87037, 2.22042, 2.07836, 2.07853, 1.66042, 2.31611, 1.87707, 1.20918, 2.37445, 2.56278, 25.1259, 15.8035, 23.3291, 21.0531, 21.6562, 25.0322, 10.9908, 1.62279, 18.9686, 19.8039, 7.58867, 1.02528, 3.64823, 2.04994, 0.5, 2.62994, 2.36995, 0.801942, 1.75267, 1.71425, 1.81136, 1.75732, 3.94108, 1.02332, 2.27859, 2.10621, 2.25153, 1.61356, 1.40716, 2.34295, 4.48751, 4.12667, 1.1188, 0.514438, 1.25258, 0.5, 10.6497, 0.826623, 0.5, 15.7283, 16.8589, 15.4365, 16.8585, 24.4301, 18.4259, 14.0159, 35, 23.2696, 1.8135, 2.09478, 2.49123, 2.24576, 2.04372, 1.31101, 2.23927, 1.93707, 2.01063, 1.91386, 1.5333, 2.36588, 2.58282, 0.5, 2.27296, 1.7874, 2.44696, 2.40986, 1.34271, 1.11543, 3.32638, 0.96229, 0.78731, 4.46588, 2.24659, 2.17077, 1.50713, 2.3402, 1.93202, 1.80329, 3.47984, 3.08617, 1.73913, 0.5, 0.839388, 2.35547, 0.947781, 2.24221, 1.3508, 0.5, 0.532641, 6.42657, 2.65936, 2.69733, 1.49764, 1.00509, 2.65979, 1.48079, 2.1002, 2.24337, 0.877869, 2.03223, 2.57752, 2.1688, 1.42136, 2.52297, 2.24222, 4.64462, 0.668832, 0.5, 2.67184, 2.39625, 0.5, 2.7517, 2.04332, 1.63688, 1.80828, 3.27928, 2.29494, 3.27757, 0.75066, 0.589273, 0.5, 2.90151, 1.90318, 3.349, 1.29194, 2.05437, 1.39794, 2.55799, 2.06636, 1.34371, 3.54123, 1.09276, 0.635287, 5.14838, 2.68593, 1.68248, 1.34793, 0.5, 1.79803, 1.27074, 3.93878, 0.648722, 3.84373, 0.5
cpi min/max: 0.5/35
neighbors of 0: 1 6, number of others: 45
neighbors of 1: 0 2 6 7, number of others: 43
neighbors of 2: 1 3 7 8, number of others: 43
neighbors of 3: 2 4 8 9, number of others: 43
neighbors of 4: 3 5 9 10, number of others: 43
neighbors of 5: 4 10 11, number of others: 44
neighbors of 6: 0 1 7 12, number of others: 43
neighbors of 7: 1 2 6 8 12 13, number of others: 41
neighbors of 8: 2 3 7 9 13 14, number of others: 41
neighbors of 9: 3 4 8 10 14 15, number of others: 41
neighbors of 10: 4 5 9 11 15 16, number of others: 41
neighbors of 11: 5 10 16 17, number of others: 43
neighbors of 12: 6 7 13 18, number of others: 43
neighbors of 13: 7 8 12 14 18 19, number of others: 41
neighbors of 14: 8 9 13 15 19 20, number of others: 41
neighbors of 15: 9 10 14 16 20 21, number of others: 41
neighbors of 16: 10 11 15 17 21 22, number of others: 41
neighbors of 17: 11 16 22 23, number of others: 43
neighbors of 18: 12 13 19 24, number of others: 43
neighbors of 19: 13 14 18 20 24 25, number of others: 41
neighbors of 20: 14 15 19 21 25 26, number of others: 41
neighbors of 21: 15 16 20 22 26 27, number of others: 41
neighbors of 22: 16 17 21 23 27 28, number of others: 41
neighbors of 23: 17 22 28 29, number of others: 43
neighbors of 24: 18 19 25 30, number of others: 43
neighbors of 25: 19 20 24 26 30 31, number of others: 41
neighbors of 26: 20 21 25 27 31 32, number of others: 41
neighbors of 27: 21 22 26 28 32 33, number of others: 41
neighbors of 28: 22 23 27 29 33 34, number of others: 41
neighbors of 29: 23 28 34 35, number of others: 43
neighbors of 30: 24 25 31 36, number of others: 43
neighbors of 31: 25 26 30 32 36 37, number of others: 41
neighbors of 32: 26 27 31 33 37 38, number of others: 41
neighbors of 33: 27 28 32 34 38 39, number of others: 41
neighbors of 34: 28 29 33 35 39 40, number of others: 41
neighbors of 35: 29 34 40 41, number of others: 43
neighbors of 36: 30 31 37 42, number of others: 43
neighbors of 37: 31 32 36 38 42 43, number of others: 41
neighbors of 38: 32 33 37 39 43 44, number of others: 41
neighbors of 39: 33 34 38 40 44 45, number of others: 41
neighbors of 40: 34 35 39 41 45 46, number of others: 41
neighbors of 41: 35 40 46 47, number of others: 43
neighbors of 42: 36 37 43, number of others: 44
neighbors of 43: 37 38 42 44, number of others: 43
neighbors of 44: 38 39 43 45, number of others: 43
neighbors of 45: 39 40 44 46, number of others: 43
neighbors of 46: 40 41 45 47, number of others: 43
neighbors of 47: 41 46, number of others: 45
Run model...
Preprocess model 0% ...Preprocess model 16% ...Preprocess model 32% ...Preprocess model 48% ...Preprocess model 66% ...Preprocess model 84% ...Preprocess model 100% ...
Close model 0% ...Close model 9% ...Close model 18% ...Close model 27% ...Close model 36% ...Close model 45% ...Close model 54% ...Close model 63% ...Close model 72% ...Close model 81% ...Close model 91% ...Close model 100% ...
Run param...
Run solver...
Initialize threads 0% ...Initialize threads 100% ...
Push initial solutions 0% ...Push initial solutions 100% ...

Model: 
  expressions = 44729, operands = 116736
  decisions = 13824, constraints = 336, objectives = 1

Param: 
  time limit = 90 sec, no iteration limit
  seed = 0, nb threads = 1, annealing level = 1

Objectives:
  Obj 0: maximize, no bound

Phases:
  Phase 0: time limit = 90 sec, no iteration limit, optimized objective = 0


Computed bounds:
  Obj 0: upper bound = 0.664125


Phase 0:
[0 sec, 0 itr]: infeas = (336, 336, 576), mov = 0, inf < 0.1%, acc < 0.1%, imp = 0

worst case efficiency: 0.998464
[1 sec, 1452 itr]: infeas = (146, 146, 216), mov = 1452, inf = 82.6%, acc = 16%, imp = 64

worst case efficiency: 0.647543
[2 sec, 20557 itr]: obj = (0.0756391), mov = 20557, inf = 95.3%, acc = 4.2%, imp = 174

worst case efficiency: 0.645383
[3 sec, 37126 itr]: obj = (0.100779), mov = 37126, inf = 97.1%, acc = 2.6%, imp = 211

worst case efficiency: 0.660468
[4 sec, 47485 itr]: obj = (0.106447), mov = 47485, inf = 97.6%, acc = 2.2%, imp = 254

worst case efficiency: 0.663868
[5 sec, 54836 itr]: obj = (0.12866), mov = 54836, inf = 97.7%, acc = 2.1%, imp = 313

worst case efficiency: 0.677196
[6 sec, 61189 itr]: obj = (0.146512), mov = 61189, inf = 97.9%, acc = 2%, imp = 353

worst case efficiency: 0.687907
[7 sec, 67211 itr]: obj = (0.157693), mov = 67211, inf = 98%, acc = 1.9%, imp = 393

worst case efficiency: 0.694616
[8 sec, 72977 itr]: obj = (0.184344), mov = 72977, inf = 98.1%, acc = 1.8%, imp = 440

worst case efficiency: 0.710607
[9 sec, 78559 itr]: obj = (0.199851), mov = 78559, inf = 98.1%, acc = 1.7%, imp = 490

worst case efficiency: 0.71991
[10 sec, 83766 itr]: obj = (0.20955), mov = 83766, inf = 98.2%, acc = 1.7%, imp = 525

worst case efficiency: 0.72573
[11 sec, 89318 itr]: obj = (0.225969), mov = 89318, inf = 98.3%, acc = 1.6%, imp = 564

worst case efficiency: 0.735582
[12 sec, 94680 itr]: obj = (0.230235), mov = 94680, inf = 98.3%, acc = 1.6%, imp = 589

worst case efficiency: 0.738141
[13 sec, 99940 itr]: obj = (0.236293), mov = 99940, inf = 98.4%, acc = 1.5%, imp = 598

worst case efficiency: 0.741776
[14 sec, 105312 itr]: obj = (0.242619), mov = 105312, inf = 98.4%, acc = 1.5%, imp = 640

worst case efficiency: 0.745572
[15 sec, 110572 itr]: obj = (0.249766), mov = 110572, inf = 98.5%, acc = 1.5%, imp = 682

worst case efficiency: 0.749859
[16 sec, 115708 itr]: obj = (0.256916), mov = 115708, inf = 98.5%, acc = 1.4%, imp = 720

worst case efficiency: 0.754149
[17 sec, 120863 itr]: obj = (0.259758), mov = 120863, inf = 98.5%, acc = 1.4%, imp = 739

worst case efficiency: 0.755855
[18 sec, 126094 itr]: obj = (0.261736), mov = 126094, inf = 98.6%, acc = 1.4%, imp = 763

worst case efficiency: 0.757042
[19 sec, 131242 itr]: obj = (0.266217), mov = 131242, inf = 98.6%, acc = 1.3%, imp = 791

worst case efficiency: 0.75973
[20 sec, 136674 itr]: obj = (0.269444), mov = 136674, inf = 98.7%, acc = 1.3%, imp = 819

worst case efficiency: 0.761667
[21 sec, 142177 itr]: obj = (0.274115), mov = 142177, inf = 98.7%, acc = 1.3%, imp = 842

worst case efficiency: 0.764469
[22 sec, 147550 itr]: obj = (0.274115), mov = 147550, inf = 98.7%, acc = 1.2%, imp = 842

worst case efficiency: 0.764469
[23 sec, 153173 itr]: obj = (0.274115), mov = 153173, inf = 98.8%, acc = 1.2%, imp = 842

worst case efficiency: 0.764469
[24 sec, 159077 itr]: obj = (0.274115), mov = 159077, inf = 98.8%, acc = 1.1%, imp = 842

worst case efficiency: 0.764469
[25 sec, 165551 itr]: obj = (0.274115), mov = 165551, inf = 98.9%, acc = 1.1%, imp = 842

worst case efficiency: 0.764469
[26 sec, 172328 itr]: obj = (0.274115), mov = 172328, inf = 98.9%, acc = 1.1%, imp = 842

worst case efficiency: 0.764469
[27 sec, 179773 itr]: obj = (0.274115), mov = 179773, inf = 98.9%, acc = 1%, imp = 842

worst case efficiency: 0.764469
[28 sec, 188493 itr]: obj = (0.274115), mov = 188493, inf = 99%, acc = 1%, imp = 842

worst case efficiency: 0.764469
[29 sec, 201034 itr]: obj = (0.274115), mov = 201034, inf = 99%, acc = 0.9%, imp = 842

worst case efficiency: 0.764469
[30 sec, 221959 itr]: obj = (0.274115), mov = 221959, inf = 99.1%, acc = 0.9%, imp = 842

worst case efficiency: 0.764469
[31 sec, 250219 itr]: obj = (0.274115), mov = 250219, inf = 99.2%, acc = 0.8%, imp = 842

worst case efficiency: 0.764469
[32 sec, 279750 itr]: obj = (0.274115), mov = 279750, inf = 99.2%, acc = 0.8%, imp = 842

worst case efficiency: 0.764469
[33 sec, 300809 itr]: obj = (0.274115), mov = 300809, inf = 99.3%, acc = 0.7%, imp = 842

worst case efficiency: 0.764469
[34 sec, 318766 itr]: obj = (0.274115), mov = 318766, inf = 99.3%, acc = 0.7%, imp = 842

worst case efficiency: 0.764469
[35 sec, 336716 itr]: obj = (0.274115), mov = 336716, inf = 99.3%, acc = 0.7%, imp = 842

worst case efficiency: 0.764469
[36 sec, 354676 itr]: obj = (0.274115), mov = 354676, inf = 99.3%, acc = 0.7%, imp = 842

worst case efficiency: 0.764469
[37 sec, 372323 itr]: obj = (0.274115), mov = 372323, inf = 99.4%, acc = 0.6%, imp = 842

worst case efficiency: 0.764469
[38 sec, 389879 itr]: obj = (0.274115), mov = 389879, inf = 99.4%, acc = 0.6%, imp = 842

worst case efficiency: 0.764469
[39 sec, 404998 itr]: obj = (0.274115), mov = 404998, inf = 99.4%, acc = 0.6%, imp = 842

worst case efficiency: 0.764469
[40 sec, 421314 itr]: obj = (0.274115), mov = 421314, inf = 99.4%, acc = 0.6%, imp = 842

worst case efficiency: 0.764469
[41 sec, 437136 itr]: obj = (0.274115), mov = 437136, inf = 99.4%, acc = 0.6%, imp = 842

worst case efficiency: 0.764469
[42 sec, 454634 itr]: obj = (0.274115), mov = 454634, inf = 99.4%, acc = 0.6%, imp = 842

worst case efficiency: 0.764469
[43 sec, 470552 itr]: obj = (0.274115), mov = 470552, inf = 99.4%, acc = 0.6%, imp = 842

worst case efficiency: 0.764469
[44 sec, 486364 itr]: obj = (0.274115), mov = 486364, inf = 99.4%, acc = 0.6%, imp = 842

worst case efficiency: 0.764469
[45 sec, 502540 itr]: obj = (0.274115), mov = 502540, inf = 99.5%, acc = 0.6%, imp = 842

worst case efficiency: 0.764469
[46 sec, 518472 itr]: obj = (0.274115), mov = 518472, inf = 99.5%, acc = 0.5%, imp = 842

worst case efficiency: 0.764469
[47 sec, 535510 itr]: obj = (0.274115), mov = 535510, inf = 99.5%, acc = 0.5%, imp = 842

worst case efficiency: 0.764469
[48 sec, 552769 itr]: obj = (0.274115), mov = 552769, inf = 99.5%, acc = 0.5%, imp = 842

worst case efficiency: 0.764469
[49 sec, 566511 itr]: obj = (0.274115), mov = 566511, inf = 99.5%, acc = 0.5%, imp = 842

worst case efficiency: 0.764469
[50 sec, 579570 itr]: obj = (0.274115), mov = 579570, inf = 99.5%, acc = 0.5%, imp = 842

worst case efficiency: 0.764469
[51 sec, 591881 itr]: obj = (0.274115), mov = 591881, inf = 99.5%, acc = 0.5%, imp = 842

worst case efficiency: 0.764469
[52 sec, 608430 itr]: obj = (0.274115), mov = 608430, inf = 99.5%, acc = 0.5%, imp = 842

worst case efficiency: 0.764469
[53 sec, 623569 itr]: obj = (0.274115), mov = 623569, inf = 99.5%, acc = 0.5%, imp = 842

worst case efficiency: 0.764469
[54 sec, 640126 itr]: obj = (0.274115), mov = 640126, inf = 99.5%, acc = 0.5%, imp = 843

worst case efficiency: 0.764469
[55 sec, 656953 itr]: obj = (0.274115), mov = 656953, inf = 99.5%, acc = 0.5%, imp = 843

worst case efficiency: 0.764469
[56 sec, 675573 itr]: obj = (0.274115), mov = 675573, inf = 99.5%, acc = 0.5%, imp = 843

worst case efficiency: 0.764469
[57 sec, 693141 itr]: obj = (0.274115), mov = 693141, inf = 99.5%, acc = 0.5%, imp = 843

worst case efficiency: 0.764469
[58 sec, 709006 itr]: obj = (0.274115), mov = 709006, inf = 99.5%, acc = 0.5%, imp = 843

worst case efficiency: 0.764469
[59 sec, 721967 itr]: obj = (0.274115), mov = 721967, inf = 99.5%, acc = 0.5%, imp = 843

worst case efficiency: 0.764469
[60 sec, 738716 itr]: obj = (0.274115), mov = 738716, inf = 99.6%, acc = 0.5%, imp = 843

worst case efficiency: 0.764469
[61 sec, 755920 itr]: obj = (0.274115), mov = 755920, inf = 99.6%, acc = 0.5%, imp = 843

worst case efficiency: 0.764469
[62 sec, 774287 itr]: obj = (0.274115), mov = 774287, inf = 99.6%, acc = 0.5%, imp = 843

worst case efficiency: 0.764469
[63 sec, 791970 itr]: obj = (0.274115), mov = 791970, inf = 99.6%, acc = 0.5%, imp = 843

worst case efficiency: 0.764469
[64 sec, 809083 itr]: obj = (0.274115), mov = 809083, inf = 99.6%, acc = 0.4%, imp = 843

worst case efficiency: 0.764469
[65 sec, 825467 itr]: obj = (0.274115), mov = 825467, inf = 99.6%, acc = 0.4%, imp = 843

worst case efficiency: 0.764469
[66 sec, 842571 itr]: obj = (0.274115), mov = 842571, inf = 99.6%, acc = 0.4%, imp = 843

worst case efficiency: 0.764469
[67 sec, 861011 itr]: obj = (0.274115), mov = 861011, inf = 99.6%, acc = 0.4%, imp = 843

worst case efficiency: 0.764469
[68 sec, 879102 itr]: obj = (0.274115), mov = 879102, inf = 99.6%, acc = 0.4%, imp = 843

worst case efficiency: 0.764469
[69 sec, 895842 itr]: obj = (0.274115), mov = 895842, inf = 99.6%, acc = 0.4%, imp = 843

worst case efficiency: 0.764469
[70 sec, 913608 itr]: obj = (0.274115), mov = 913608, inf = 99.6%, acc = 0.4%, imp = 843

worst case efficiency: 0.764469
[71 sec, 931225 itr]: obj = (0.274115), mov = 931225, inf = 99.6%, acc = 0.4%, imp = 843

worst case efficiency: 0.764469
[72 sec, 948255 itr]: obj = (0.274115), mov = 948255, inf = 99.6%, acc = 0.4%, imp = 843

worst case efficiency: 0.764469
[73 sec, 965067 itr]: obj = (0.274115), mov = 965067, inf = 99.6%, acc = 0.4%, imp = 843

worst case efficiency: 0.764469
[74 sec, 982200 itr]: obj = (0.274115), mov = 982200, inf = 99.6%, acc = 0.4%, imp = 843

worst case efficiency: 0.764469
[75 sec, 999416 itr]: obj = (0.274115), mov = 999416, inf = 99.6%, acc = 0.4%, imp = 843

worst case efficiency: 0.764469
[76 sec, 1017008 itr]: obj = (0.274115), mov = 1017008, inf = 99.6%, acc = 0.4%, imp = 843

worst case efficiency: 0.764469
[77 sec, 1034984 itr]: obj = (0.274115), mov = 1034984, inf = 99.6%, acc = 0.4%, imp = 843

worst case efficiency: 0.764469
[78 sec, 1052967 itr]: obj = (0.274115), mov = 1052967, inf = 99.6%, acc = 0.4%, imp = 843

worst case efficiency: 0.764469
[79 sec, 1069654 itr]: obj = (0.274115), mov = 1069654, inf = 99.6%, acc = 0.4%, imp = 843

worst case efficiency: 0.764469
[80 sec, 1086944 itr]: obj = (0.274115), mov = 1086944, inf = 99.6%, acc = 0.4%, imp = 843

worst case efficiency: 0.764469
[81 sec, 1103904 itr]: obj = (0.274115), mov = 1103904, inf = 99.6%, acc = 0.4%, imp = 843

worst case efficiency: 0.764469
[82 sec, 1120970 itr]: obj = (0.274115), mov = 1120970, inf = 99.6%, acc = 0.4%, imp = 843

worst case efficiency: 0.764469
[83 sec, 1139202 itr]: obj = (0.274115), mov = 1139202, inf = 99.6%, acc = 0.4%, imp = 843

worst case efficiency: 0.764469
[84 sec, 1157621 itr]: obj = (0.274115), mov = 1157621, inf = 99.6%, acc = 0.4%, imp = 843

worst case efficiency: 0.764469
[85 sec, 1174628 itr]: obj = (0.274115), mov = 1174628, inf = 99.6%, acc = 0.4%, imp = 843

worst case efficiency: 0.764469
[86 sec, 1191165 itr]: obj = (0.274115), mov = 1191165, inf = 99.6%, acc = 0.4%, imp = 843

worst case efficiency: 0.764469
[87 sec, 1208378 itr]: obj = (0.274115), mov = 1208378, inf = 99.6%, acc = 0.4%, imp = 843

worst case efficiency: 0.764469
[88 sec, 1225437 itr]: obj = (0.274115), mov = 1225437, inf = 99.6%, acc = 0.4%, imp = 843

worst case efficiency: 0.764469
[89 sec, 1243165 itr]: obj = (0.274115), mov = 1243165, inf = 99.6%, acc = 0.4%, imp = 843

worst case efficiency: 0.764469
[90 sec, 1260666 itr]: obj = (0.274115), mov = 1260666, inf = 99.6%, acc = 0.4%, imp = 843

worst case efficiency: 0.764469
[90 sec, 1260666 itr]: obj = (0.274115), mov = 1260666, inf = 99.6%, acc = 0.4%, imp = 843

worst case efficiency: 0.764469
1260666 iterations, 1260666 moves performed in 90 seconds
Feasible solution: obj = (0.274115)

Run output...
FINAL SOLUTION
Worst case efficiency: 0.764469
Mapping: 0->21, 1->15, 2->5, 3->11, 4->38, 5->6, 6->14, 7->25, 8->33, 9->18, 10->27, 11->24, 12->21, 13->35, 14->19, 15->39, 16->23, 17->4, 18->13, 19->25, 20->14, 21->46, 22->40, 23->36, 24->6, 25->17, 26->21, 27->39, 28->3, 29->8, 30->9, 31->10, 32->27, 33->2, 34->25, 35->22, 36->42, 37->30, 38->42, 39->27, 40->28, 41->3, 42->39, 43->6, 44->2, 45->42, 46->10, 47->24, 48->47, 49->26, 50->12, 51->29, 52->4, 53->5, 54->22, 55->25, 56->3, 57->5, 58->35, 59->27, 60->10, 61->9, 62->10, 63->37, 64->7, 65->43, 66->33, 67->41, 68->41, 69->46, 70->24, 71->10, 72->9, 73->6, 74->34, 75->30, 76->12, 77->28, 78->43, 79->38, 80->22, 81->17, 82->28, 83->17, 84->44, 85->13, 86->37, 87->20, 88->23, 89->23, 90->36, 91->24, 92->15, 93->45, 94->40, 95->1, 96->43, 97->15, 98->7, 99->20, 100->0, 101->19, 102->21, 103->29, 104->33, 105->42, 106->32, 107->2, 108->20, 109->33, 110->22, 111->9, 112->7, 113->44, 114->27, 115->26, 116->37, 117->34, 118->27, 119->15, 120->12, 121->35, 122->1, 123->46, 124->45, 125->1, 126->31, 127->29, 128->7, 129->41, 130->29, 131->23, 132->18, 133->25, 134->22, 135->31, 136->18, 137->38, 138->47, 139->34, 140->0, 141->3, 142->15, 143->26, 144->13, 145->31, 146->35, 147->16, 148->25, 149->28, 150->39, 151->43, 152->8, 153->19, 154->32, 155->11, 156->33, 157->38, 158->1, 159->40, 160->11, 161->0, 162->28, 163->12, 164->44, 165->12, 166->26, 167->34, 168->19, 169->32, 170->20, 171->4, 172->36, 173->13, 174->46, 175->40, 176->37, 177->3, 178->22, 179->17, 180->20, 181->16, 182->1, 183->45, 184->34, 185->32, 186->21, 187->39, 188->14, 189->16, 190->38, 191->43, 192->36, 193->8, 194->31, 195->5, 196->5, 197->8, 198->43, 199->19, 200->7, 201->7, 202->33, 203->44, 204->4, 205->2, 206->18, 207->28, 208->42, 209->4, 210->24, 211->30, 212->9, 213->17, 214->1, 215->8, 216->35, 217->42, 218->0, 219->45, 220->39, 221->34, 222->32, 223->16, 224->41, 225->30, 226->47, 227->14, 228->16, 229->41, 230->44, 231->2, 232->36, 233->32, 234->31, 235->10, 236->13, 237->0, 238->11, 239->4, 240->5, 241->29, 242->36, 243->14, 244->19, 245->16, 246->18, 247->35, 248->11, 249->8, 250->30, 251->12, 252->40, 253->45, 254->47, 255->15, 256->3, 257->6, 258->20, 259->38, 260->26, 261->21, 262->23, 263->24, 264->23, 265->40, 266->31, 267->26, 268->2, 269->17, 270->45, 271->37, 272->14, 273->47, 274->6, 275->44, 276->30, 277->46, 278->11, 279->46, 280->29, 281->18, 282->41, 283->9, 284->13, 285->0, 286->37, 287->47
Number of tasks per core:
	6	6	6	6	6	6
	6	6	6	6	6	6
	6	6	6	6	6	6
	6	6	6	6	6	6
	6	6	6	6	6	6
	6	6	6	6	6	6
	6	6	6	6	6	6
	6	6	6	6	6	6
Average CPI map:
	1.11393	0.688121	0.749399	1.04237	2.04288	2.08169
	1.67818	5.15343	5.44131	5.33851	2.49871	2.31298
	1.38532	6.35552	4.91042	7.25153	7.01641	1.21708
	1.55052	5.47298	7.20941	5.0691	5.69931	0.750109
	1.53278	5.32723	4.62896	9.99177	5.75112	1.53967
	1.19519	4.55665	6.45203	5.35258	6.04785	5.65493
	1.42645	6.66992	7.7373	7.56926	2.82533	2.03546
	1.99873	5.58235	5.22425	4.55737	3.42302	0.890586
Efficiency map:
	0.99722	0.853466	0.909876	0.831371	0.999335	1.00307
	0.77075	0.78553	0.857176	0.773733	0.764469	0.857321
	0.824451	0.784861	0.769068	0.805172	0.769618	0.774229
	0.820455	0.787203	0.857574	0.765747	0.770394	1.01193
	0.824244	0.766339	0.773371	0.894136	0.787224	0.818704
	0.780416	0.764944	0.764501	0.766926	0.777938	0.926751
	0.817654	0.794198	0.846258	0.824361	0.764746	0.8239
	0.864954	0.818672	0.764469	0.765561	0.857077	0.782431
==============================================================================
Local Solver optimizer for EML demonstration
==============================================================================

Option values: --wld-idx 1 --global-tlim 90 --seed 0

Starting the Optimization Process
