LocalSolver 4.0 (MacOS64, build 20131224)
Copyright (C) 2013 Bouygues SA, Aix-Marseille University, CNRS.
All rights reserved (see Terms and Conditions for details).

Load localsolver_res/tawd_ls.lsp...
Run input...
ANNs For the Platform:
4,2,1,6.45294,0.0174524,1.58234,2.29305,2.12057,3.95113,12.7206,-19.3278,5.58789,9.38298,0.00306445,0.00353919,0.795949
4,2,1,3.10684,7.56359,0.502116,0.637049,12.0356,-2.9013,-3.22211,-0.368567,-0.562298,-7.37831,2.38595,1.22203,-0.360292
4,2,1,4.88387,44.8399,1.27345,1.24496,49.1775,-8.83277,-3.12983,-1.00946,11.7,-3.01002,0.132635,0.00372271,0.673996
4,2,1,4.73045,19.3982,0.449241,0.753865,25.7092,17.3605,0.0558085,-8.91516,0.49993,10.3396,4.06312,-0.0136297,-3.24599
4,2,1,-7.16849,-10.0957,-0.518885,-0.00359459,5.93351,5.62684,52.0516,1.48603,1.30274,57.2311,0.250578,0.137157,0.417379
4,2,1,0.412706,-2.89716,0.137754,-2.57826,11.0947,121.374,858.444,-136.26,-14917.8,-1308.92,-3.36558,-0.000403784,4.17997
4,2,1,-8.8269,-0.482244,-0.0820712,-0.0562713,-10.1617,9.78118,-7.01882,-0.428151,-0.0606718,2.56012,-8.54699,-0.509991,-7.23704
4,2,1,2.19881,4.94147,0.541452,0.107587,6.45213,1.0452,0.405805,0.555763,3.64728,1.95727,0.425683,-0.00188273,0.383643
4,2,1,-6.13316,1.92598,-0.0562274,-0.0731719,-4.60606,0.509071,7.79918,0.393802,0.0114563,7.9345,-1.13416,0.310582,-0.637365
4,2,1,1.73462,2.97854,0.276167,0.0859465,3.6912,3.09203,3.25403,0.324282,0.112495,4.06123,0.954718,-0.48836,0.344765
4,2,1,1.57339,3.84603,-3.4467,0.7429,2.75709,2.1802,5.09535,0.482172,0.106131,6.49189,-0.0251827,0.433535,0.393482
4,2,1,4.13514,21.6229,1.1931,0.354612,24.1372,25.5916,0.432728,-12.6725,-0.45345,15.3428,0.194819,-0.0364695,0.647465
4,2,1,-0.728632,5.60079,1.78098,1.8429,-5.74354,-3.26566,-13.0026,-0.907163,-0.31822,-15.3707,-0.427666,-0.224298,0.154329
4,2,1,3.81854,-4.98219,-0.293924,-0.103604,-6.7034,2.28654,4.72568,0.469524,0.115005,6.05901,-0.511241,0.421809,-0.121549
4,2,1,-1.23773,5.98591,0.224555,-0.359337,6.05767,2.3852,3.4706,0.220977,0.179377,4.88772,0.199751,0.432231,0.177791
4,2,1,1.12189,4.09326,0.850801,0.171671,-5.17646,-1.9656,-4.07995,-0.210811,-0.113853,-5.17242,-2.70452,-0.46094,-2.36326
4,2,1,2.08858,4.80174,0.367584,0.109336,6.02292,4.32969,4.35157,0.772172,10.015,-0.96022,0.43933,4.17055e-05,0.365228
4,2,1,1.18806,3.00188,0.124753,0.00191203,3.75084,1.03049,2.7808,0.137818,0.0250058,4.01619,-1.05018,2.49176,-0.635083
4,2,1,3.11788,10.9247,0.699295,0.170953,13.0959,-11.4646,-5.88946,11.0137,8.74787,-11.701,0.236706,0.0216102,0.59131
4,2,1,7.53568,1.94998,-2.27776,-1.91765,0.451708,2.13206,4.27547,0.333162,0.0864645,5.45063,-0.0153486,0.447774,0.366202
4,2,1,-2.12436,-3.29848,-0.0965154,-0.0454545,-3.86293,4.27042,3.64797,0.106703,0.057602,4.81479,-1.28015,-0.815344,0.346524
4,2,1,2.06313,3.99765,-9.94001e-06,0.200591,5.05136,-0.024567,-3.22765,-1.84842,1.73493,-3.87425,0.446216,-0.0350173,0.320411
4,2,1,3.3952,3.19239,0.219932,0.0459907,4.0724,1.85184,2.9352,0.236295,0.0535068,3.62882,-0.516849,0.990723,0.337742
4,2,1,-6.32145,2.68844,0.160066,0.0633176,-3.81442,9.03888,1.31396,0.253255,-0.0684612,6.93971,1.83579,0.440423,2.20116
4,2,1,-4.54148,-0.217309,1.86369,-0.409034,0.0885675,-3.10698,-12.3715,-0.753639,-0.275832,-14.544,0.00344558,-0.233405,0.57337
4,2,1,-0.743367,6.86662,-0.19496,-0.0184317,7.54898,2.69258,3.24789,0.437511,0.121848,4.97423,0.830361,0.39615,-0.417087
4,2,1,2.07654,3.2533,0.103762,0.0837251,4.40922,1.95615,-2.57949,-0.10147,-0.0485499,-3.72005,0.479113,-0.433879,-0.0966803
4,2,1,-0.480501,-0.00331725,1.67452,0.764966,-1.53387,1.99113,3.67475,0.0228188,0.0287235,4.64739,0.15721,0.465135,0.487915
4,2,1,1.11584,-5.79333,-0.212675,0.376981,-6.64888,2.45003,3.54368,0.313683,0.144659,5.05472,-0.777178,0.423599,-0.389995
4,2,1,2.39093,1.70258,-0.183288,-0.314006,4.06496,2.34881,2.91375,-0.0230153,-0.18977,5.26307,-1.33645,1.84807,0.292237
4,2,1,0.88022,3.23795,0.179315,0.0205209,3.57684,0.764441,2.74982,0.156077,0.0273373,3.62313,-0.980719,2.16912,-0.37872
4,2,1,-1.27932,7.09751,-0.0490235,0.455487,7.14709,-2.57722,-4.06233,-0.410784,-0.0433739,-5.6171,0.164894,-0.408714,0.23583
4,2,1,0.623158,5.01876,0.194867,0.0365944,4.99458,-16.0815,2.94826,-1.82463,-1.90388,-9.56395,0.291148,-0.155001,0.360694
4,2,1,1.86251,3.92056,0.158781,0.0575693,4.93436,0.681285,4.09563,1.09826,-3.65606,2.09524,0.482473,-0.00448292,0.322397
4,2,1,3.33939,3.52877,0.262622,0.0607689,4.45842,2.23218,3.37107,0.256541,0.0516206,4.05014,-1.2701,1.7162,0.365737
4,2,1,5.0585,4.68315,2.53887,0.128578,8.9709,3.62833,11.0789,1.32555,0.190392,13.8026,-0.126366,0.350541,0.580103
4,2,1,4.99986,2.75557,1.33036,-0.0119951,6.91685,4.23025,5.34568,1.08928,0.0379928,8.80363,-0.700785,0.958812,0.547325
4,2,1,1.95024,3.24732,0.229322,0.0270089,3.53624,1.62575,3.04977,0.230194,0.0319079,3.46966,-1.34015,1.81817,0.333213
4,2,1,2.11055,5.16581,0.225183,0.0767342,6.2013,3.43647,-3.10756,1.22453,-6.27082,5.92438,0.428242,2.12665,-1.75474
4,2,1,10.028,2.55152,-0.0579427,-0.0186516,-2.98054,2.14055,4.33639,0.203596,0.057269,5.47668,0.0078111,0.436528,0.371941
4,2,1,1.80421,3.45533,0.27065,0.0337725,4.14172,3.00203,3.65885,0.26995,0.0620062,4.37924,0.892686,-0.440136,0.355377
4,2,1,-2.76424,-10.7675,-0.741451,-0.141046,-12.927,13.6995,2.51611,0.90934,27.76,15.1973,-0.260938,-0.00175312,0.546274
4,2,1,2.26659,3.88332,0.083697,0.287373,-5.89957,3.07548,7.5942,0.285535,0.141703,9.90558,1.94369,0.273352,2.47758
4,2,1,5.41472,-1.35343,-0.0808605,2.27411,0.928252,2.55844,6.15687,0.338903,0.0735359,7.47381,-0.0148119,0.388691,0.423615
4,2,1,4.53285,3.66527,0.130055,0.0722232,4.95325,-2.1632,-3.34312,-0.11633,-0.0577237,-3.98867,-0.759785,-1.19124,0.379449
4,2,1,2.36669,5.75119,0.132783,0.0812059,6.8845,-8.68015,-0.488627,0.811521,2.16444,0.277436,0.40839,0.00790296,0.400784
4,2,1,0.583762,8.58805,0.307497,0.0165495,8.61973,-7.32584,1.34397,-0.0108636,-0.0260377,-6.96836,0.266022,-5.2323,-4.69173
4,2,1,1.76683,-0.336959,-0.116305,-0.0696435,-1.62311,2.51027,5.65249,0.180271,0.0657051,7.97995,-0.0500539,0.457869,0.308072
Workload Information:
1.84673, 2.42041, 1.75834, 2.89474, 1.69427, 1.38551, 2.46235, 2.45504, 2.59606, 1.19601, 1.87234, 1.4182, 1.96128, 3.15571, 2.79729, 1.32267, 0.5, 2.26305, 1.98228, 1.70508, 2.12024, 2.14991, 2.2916, 1.75088, 0.755484, 0.54686, 3.83922, 5.19541, 0.5, 1.16302, 2.31989, 2.38874, 2.43641, 0.5, 2.13179, 2.22317, 1.80714, 2.11006, 2.15256, 2.34256, 2.10042, 1.48726, 1.54461, 0.950353, 1.20445, 2.23662, 2.34683, 3.71713, 0.5, 5.36224, 0.52865, 1.66361, 1.90721, 2.03829, 2.63978, 2.09741, 0.5, 2.30381, 1.44335, 3.01565, 2.2646, 1.3469, 2.25602, 2.25683, 1.50227, 2.37337, 1.72578, 3.07984, 0.5, 3.07049, 0.585183, 3.03871, 2.12267, 1.79963, 1.99877, 2.14155, 2.01018, 1.92719, 2.3373, 2.3218, 2.19505, 2.30847, 1.90687, 0.930507, 0.740703, 3.24553, 2.54162, 3.22214, 0.5, 1.75, 2.17663, 1.5442, 3.09303, 2.12222, 2.33044, 0.733481, 1.65176, 1.40424, 1.94511, 2.71177, 0.843633, 3.44348, 2.63126, 0.689534, 3.32652, 1.1783, 3.6744, 0.5, 22.613, 19.2856, 24.0149, 21.6445, 20.458, 23.984, 15.2837, 10.2637, 27.7006, 12.2867, 35, 31.4654, 1.80152, 1.23191, 0.550734, 3.99936, 3.35929, 1.0572, 2.26222, 1.65845, 3.09067, 2.85354, 1.63512, 0.5, 1.83445, 1.91787, 1.87037, 2.22042, 2.07836, 2.07853, 1.66042, 2.31611, 1.87707, 1.20918, 2.37445, 2.56278, 25.1259, 15.8035, 23.3291, 21.0531, 21.6562, 25.0322, 10.9908, 1.62279, 18.9686, 19.8039, 7.58867, 1.02528, 3.64823, 2.04994, 0.5, 2.62994, 2.36995, 0.801942, 1.75267, 1.71425, 1.81136, 1.75732, 3.94108, 1.02332, 2.27859, 2.10621, 2.25153, 1.61356, 1.40716, 2.34295, 4.48751, 4.12667, 1.1188, 0.514438, 1.25258, 0.5, 10.6497, 0.826623, 0.5, 15.7283, 16.8589, 15.4365, 16.8585, 24.4301, 18.4259, 14.0159, 35, 23.2696, 1.8135, 2.09478, 2.49123, 2.24576, 2.04372, 1.31101, 2.23927, 1.93707, 2.01063, 1.91386, 1.5333, 2.36588, 2.58282, 0.5, 2.27296, 1.7874, 2.44696, 2.40986, 1.34271, 1.11543, 3.32638, 0.96229, 0.78731, 4.46588, 2.24659, 2.17077, 1.50713, 2.3402, 1.93202, 1.80329, 3.47984, 3.08617, 1.73913, 0.5, 0.839388, 2.35547, 0.947781, 2.24221, 1.3508, 0.5, 0.532641, 6.42657, 2.65936, 2.69733, 1.49764, 1.00509, 2.65979, 1.48079, 2.1002, 2.24337, 0.877869, 2.03223, 2.57752, 2.1688, 1.42136, 2.52297, 2.24222, 4.64462, 0.668832, 0.5, 2.67184, 2.39625, 0.5, 2.7517, 2.04332, 1.63688, 1.80828, 3.27928, 2.29494, 3.27757, 0.75066, 0.589273, 0.5, 2.90151, 1.90318, 3.349, 1.29194, 2.05437, 1.39794, 2.55799, 2.06636, 1.34371, 3.54123, 1.09276, 0.635287, 5.14838, 2.68593, 1.68248, 1.34793, 0.5, 1.79803, 1.27074, 3.93878, 0.648722, 3.84373, 0.5
cpi min/max: 0.5/35
neighbors of 0: 1 6, number of others: 45
neighbors of 1: 0 2 6 7, number of others: 43
neighbors of 2: 1 3 7 8, number of others: 43
neighbors of 3: 2 4 8 9, number of others: 43
neighbors of 4: 3 5 9 10, number of others: 43
neighbors of 5: 4 10 11, number of others: 44
neighbors of 6: 0 1 7 12, number of others: 43
neighbors of 7: 1 2 6 8 12 13, number of others: 41
neighbors of 8: 2 3 7 9 13 14, number of others: 41
neighbors of 9: 3 4 8 10 14 15, number of others: 41
neighbors of 10: 4 5 9 11 15 16, number of others: 41
neighbors of 11: 5 10 16 17, number of others: 43
neighbors of 12: 6 7 13 18, number of others: 43
neighbors of 13: 7 8 12 14 18 19, number of others: 41
neighbors of 14: 8 9 13 15 19 20, number of others: 41
neighbors of 15: 9 10 14 16 20 21, number of others: 41
neighbors of 16: 10 11 15 17 21 22, number of others: 41
neighbors of 17: 11 16 22 23, number of others: 43
neighbors of 18: 12 13 19 24, number of others: 43
neighbors of 19: 13 14 18 20 24 25, number of others: 41
neighbors of 20: 14 15 19 21 25 26, number of others: 41
neighbors of 21: 15 16 20 22 26 27, number of others: 41
neighbors of 22: 16 17 21 23 27 28, number of others: 41
neighbors of 23: 17 22 28 29, number of others: 43
neighbors of 24: 18 19 25 30, number of others: 43
neighbors of 25: 19 20 24 26 30 31, number of others: 41
neighbors of 26: 20 21 25 27 31 32, number of others: 41
neighbors of 27: 21 22 26 28 32 33, number of others: 41
neighbors of 28: 22 23 27 29 33 34, number of others: 41
neighbors of 29: 23 28 34 35, number of others: 43
neighbors of 30: 24 25 31 36, number of others: 43
neighbors of 31: 25 26 30 32 36 37, number of others: 41
neighbors of 32: 26 27 31 33 37 38, number of others: 41
neighbors of 33: 27 28 32 34 38 39, number of others: 41
neighbors of 34: 28 29 33 35 39 40, number of others: 41
neighbors of 35: 29 34 40 41, number of others: 43
neighbors of 36: 30 31 37 42, number of others: 43
neighbors of 37: 31 32 36 38 42 43, number of others: 41
neighbors of 38: 32 33 37 39 43 44, number of others: 41
neighbors of 39: 33 34 38 40 44 45, number of others: 41
neighbors of 40: 34 35 39 41 45 46, number of others: 41
neighbors of 41: 35 40 46 47, number of others: 43
neighbors of 42: 36 37 43, number of others: 44
neighbors of 43: 37 38 42 44, number of others: 43
neighbors of 44: 38 39 43 45, number of others: 43
neighbors of 45: 39 40 44 46, number of others: 43
neighbors of 46: 40 41 45 47, number of others: 43
neighbors of 47: 41 46, number of others: 45
Run model...
Preprocess model 0% ...Preprocess model 16% ...Preprocess model 32% ...Preprocess model 48% ...Preprocess model 66% ...Preprocess model 84% ...Preprocess model 100% ...
Close model 0% ...Close model 9% ...Close model 18% ...Close model 27% ...Close model 36% ...Close model 45% ...Close model 54% ...Close model 63% ...Close model 72% ...Close model 81% ...Close model 91% ...Close model 100% ...
Run param...
Run solver...
Initialize threads 0% ...Initialize threads 100% ...
Push initial solutions 0% ...Push initial solutions 100% ...

Model: 
  expressions = 44729, operands = 116736
  decisions = 13824, constraints = 336, objectives = 1

Param: 
  time limit = 90 sec, no iteration limit
  seed = 401, nb threads = 1, annealing level = 1

Objectives:
  Obj 0: maximize, no bound

Phases:
  Phase 0: time limit = 90 sec, no iteration limit, optimized objective = 0


Computed bounds:
  Obj 0: upper bound = 0.664125


Phase 0:
[0 sec, 0 itr]: infeas = (336, 336, 576), mov = 0, inf < 0.1%, acc < 0.1%, imp = 0

worst case efficiency: 0.998464
[1 sec, 4676 itr]: obj = (0.0546777), mov = 4676, inf = 79.9%, acc = 18%, imp = 140

worst case efficiency: 0.632807
[2 sec, 21669 itr]: obj = (0.0651901), mov = 21669, inf = 95.5%, acc = 4.1%, imp = 175

worst case efficiency: 0.639114
[3 sec, 33359 itr]: obj = (0.0848605), mov = 33359, inf = 97%, acc = 2.8%, imp = 218

worst case efficiency: 0.650916
[4 sec, 41877 itr]: obj = (0.0928885), mov = 41877, inf = 97.5%, acc = 2.3%, imp = 246

worst case efficiency: 0.655733
[5 sec, 48831 itr]: obj = (0.130555), mov = 48831, inf = 97.8%, acc = 2.1%, imp = 293

worst case efficiency: 0.678333
[6 sec, 54366 itr]: obj = (0.150008), mov = 54366, inf = 97.9%, acc = 2%, imp = 333

worst case efficiency: 0.690005
[7 sec, 59208 itr]: obj = (0.158301), mov = 59208, inf = 98%, acc = 1.9%, imp = 370

worst case efficiency: 0.694981
[8 sec, 63747 itr]: obj = (0.187589), mov = 63747, inf = 98.1%, acc = 1.8%, imp = 411

worst case efficiency: 0.712554
[9 sec, 68341 itr]: obj = (0.195655), mov = 68341, inf = 98.2%, acc = 1.8%, imp = 447

worst case efficiency: 0.717393
[10 sec, 72780 itr]: obj = (0.204628), mov = 72780, inf = 98.2%, acc = 1.7%, imp = 493

worst case efficiency: 0.722777
[11 sec, 77054 itr]: obj = (0.205789), mov = 77054, inf = 98.3%, acc = 1.6%, imp = 504

worst case efficiency: 0.723473
[12 sec, 81414 itr]: obj = (0.205789), mov = 81414, inf = 98.4%, acc = 1.6%, imp = 504

worst case efficiency: 0.723473
[13 sec, 85631 itr]: obj = (0.205789), mov = 85631, inf = 98.5%, acc = 1.5%, imp = 504

worst case efficiency: 0.723473
[14 sec, 89475 itr]: obj = (0.205789), mov = 89475, inf = 98.6%, acc = 1.4%, imp = 504

worst case efficiency: 0.723473
[15 sec, 92496 itr]: obj = (0.205789), mov = 92496, inf = 98.6%, acc = 1.4%, imp = 504

worst case efficiency: 0.723473
[16 sec, 96509 itr]: obj = (0.205789), mov = 96509, inf = 98.7%, acc = 1.3%, imp = 504

worst case efficiency: 0.723473
[17 sec, 100894 itr]: obj = (0.205789), mov = 100894, inf = 98.7%, acc = 1.3%, imp = 504

worst case efficiency: 0.723473
[18 sec, 105384 itr]: obj = (0.205789), mov = 105384, inf = 98.8%, acc = 1.2%, imp = 504

worst case efficiency: 0.723473
[19 sec, 109985 itr]: obj = (0.205789), mov = 109985, inf = 98.8%, acc = 1.2%, imp = 504

worst case efficiency: 0.723473
[20 sec, 115015 itr]: obj = (0.205789), mov = 115015, inf = 98.9%, acc = 1.1%, imp = 504

worst case efficiency: 0.723473
[21 sec, 120616 itr]: obj = (0.205789), mov = 120616, inf = 98.9%, acc = 1.1%, imp = 504

worst case efficiency: 0.723473
[22 sec, 127074 itr]: obj = (0.205789), mov = 127074, inf = 99%, acc = 1%, imp = 504

worst case efficiency: 0.723473
[23 sec, 134844 itr]: obj = (0.205789), mov = 134844, inf = 99%, acc = 1%, imp = 504

worst case efficiency: 0.723473
[24 sec, 145821 itr]: obj = (0.205789), mov = 145821, inf = 99.1%, acc = 0.9%, imp = 504

worst case efficiency: 0.723473
[25 sec, 162861 itr]: obj = (0.205789), mov = 162861, inf = 99.2%, acc = 0.8%, imp = 504

worst case efficiency: 0.723473
[26 sec, 188917 itr]: obj = (0.205888), mov = 188917, inf = 99.3%, acc = 0.8%, imp = 508

worst case efficiency: 0.723533
[27 sec, 217615 itr]: obj = (0.206121), mov = 217615, inf = 99.2%, acc = 0.8%, imp = 510

worst case efficiency: 0.723672
[28 sec, 249869 itr]: obj = (0.209347), mov = 249869, inf = 99%, acc = 0.9%, imp = 525

worst case efficiency: 0.725608
[29 sec, 281714 itr]: obj = (0.209395), mov = 281714, inf = 98.8%, acc = 1.1%, imp = 529

worst case efficiency: 0.725637
[30 sec, 313093 itr]: obj = (0.20971), mov = 313093, inf = 98.7%, acc = 1.1%, imp = 533

worst case efficiency: 0.725826
[31 sec, 345703 itr]: obj = (0.20973), mov = 345703, inf = 98.5%, acc = 1.2%, imp = 534

worst case efficiency: 0.725838
[32 sec, 379645 itr]: obj = (0.209883), mov = 379645, inf = 98.4%, acc = 1.3%, imp = 538

worst case efficiency: 0.72593
[33 sec, 412316 itr]: obj = (0.210112), mov = 412316, inf = 98.4%, acc = 1.4%, imp = 542

worst case efficiency: 0.726067
[34 sec, 444990 itr]: obj = (0.210863), mov = 444990, inf = 98.3%, acc = 1.4%, imp = 546

worst case efficiency: 0.726518
[35 sec, 477580 itr]: obj = (0.211641), mov = 477580, inf = 98.3%, acc = 1.5%, imp = 548

worst case efficiency: 0.726985
[36 sec, 509796 itr]: obj = (0.213359), mov = 509796, inf = 98.2%, acc = 1.5%, imp = 559

worst case efficiency: 0.728015
[37 sec, 542879 itr]: obj = (0.214723), mov = 542879, inf = 98.2%, acc = 1.5%, imp = 569

worst case efficiency: 0.728834
[38 sec, 575460 itr]: obj = (0.217209), mov = 575460, inf = 98.1%, acc = 1.5%, imp = 583

worst case efficiency: 0.730326
[39 sec, 608400 itr]: obj = (0.218549), mov = 608400, inf = 98.1%, acc = 1.5%, imp = 614

worst case efficiency: 0.731129
[40 sec, 642123 itr]: obj = (0.218657), mov = 642123, inf = 98.1%, acc = 1.5%, imp = 626

worst case efficiency: 0.731194
[41 sec, 674902 itr]: obj = (0.218669), mov = 674902, inf = 98.1%, acc = 1.5%, imp = 628

worst case efficiency: 0.731201
[42 sec, 707875 itr]: obj = (0.225269), mov = 707875, inf = 98%, acc = 1.5%, imp = 652

worst case efficiency: 0.735161
[43 sec, 741511 itr]: obj = (0.225369), mov = 741511, inf = 98%, acc = 1.5%, imp = 664

worst case efficiency: 0.735221
[44 sec, 774769 itr]: obj = (0.22538), mov = 774769, inf = 98%, acc = 1.5%, imp = 668

worst case efficiency: 0.735228
[45 sec, 801282 itr]: obj = (0.225412), mov = 801282, inf = 98%, acc = 1.5%, imp = 671

worst case efficiency: 0.735247
[46 sec, 829628 itr]: obj = (0.227539), mov = 829628, inf = 98%, acc = 1.5%, imp = 679

worst case efficiency: 0.736524
[47 sec, 859687 itr]: obj = (0.230095), mov = 859687, inf = 98%, acc = 1.5%, imp = 691

worst case efficiency: 0.738057
[48 sec, 892103 itr]: obj = (0.230156), mov = 892103, inf = 98%, acc = 1.5%, imp = 692

worst case efficiency: 0.738094
[49 sec, 925592 itr]: obj = (0.230645), mov = 925592, inf = 98%, acc = 1.5%, imp = 698

worst case efficiency: 0.738387
[50 sec, 960582 itr]: obj = (0.230682), mov = 960582, inf = 98.1%, acc = 1.5%, imp = 699

worst case efficiency: 0.738409
[51 sec, 995231 itr]: obj = (0.230875), mov = 995231, inf = 98.1%, acc = 1.4%, imp = 701

worst case efficiency: 0.738525
[52 sec, 1030270 itr]: obj = (0.231125), mov = 1030270, inf = 98.1%, acc = 1.4%, imp = 704

worst case efficiency: 0.738675
[53 sec, 1064971 itr]: obj = (0.232318), mov = 1064971, inf = 98.2%, acc = 1.4%, imp = 706

worst case efficiency: 0.739391
[54 sec, 1100269 itr]: obj = (0.232799), mov = 1100269, inf = 98.2%, acc = 1.4%, imp = 710

worst case efficiency: 0.73968
[55 sec, 1134115 itr]: obj = (0.23291), mov = 1134115, inf = 98.2%, acc = 1.3%, imp = 713

worst case efficiency: 0.739746
[56 sec, 1169717 itr]: obj = (0.233157), mov = 1169717, inf = 98.2%, acc = 1.3%, imp = 716

worst case efficiency: 0.739894
[57 sec, 1204273 itr]: obj = (0.233157), mov = 1204273, inf = 98.3%, acc = 1.3%, imp = 716

worst case efficiency: 0.739894
[58 sec, 1238446 itr]: obj = (0.233157), mov = 1238446, inf = 98.3%, acc = 1.3%, imp = 716

worst case efficiency: 0.739894
[59 sec, 1273009 itr]: obj = (0.233157), mov = 1273009, inf = 98.3%, acc = 1.3%, imp = 716

worst case efficiency: 0.739894
[60 sec, 1307680 itr]: obj = (0.234688), mov = 1307680, inf = 98.3%, acc = 1.3%, imp = 721

worst case efficiency: 0.740813
[61 sec, 1341930 itr]: obj = (0.235141), mov = 1341930, inf = 98.3%, acc = 1.2%, imp = 727

worst case efficiency: 0.741084
[62 sec, 1377185 itr]: obj = (0.235212), mov = 1377185, inf = 98.4%, acc = 1.2%, imp = 730

worst case efficiency: 0.741127
[63 sec, 1411779 itr]: obj = (0.235212), mov = 1411779, inf = 98.4%, acc = 1.2%, imp = 730

worst case efficiency: 0.741127
[64 sec, 1447160 itr]: obj = (0.235805), mov = 1447160, inf = 98.4%, acc = 1.2%, imp = 736

worst case efficiency: 0.741483
[65 sec, 1482685 itr]: obj = (0.236347), mov = 1482685, inf = 98.4%, acc = 1.2%, imp = 739

worst case efficiency: 0.741808
[66 sec, 1517802 itr]: obj = (0.236962), mov = 1517802, inf = 98.4%, acc = 1.2%, imp = 744

worst case efficiency: 0.742177
[67 sec, 1552740 itr]: obj = (0.237002), mov = 1552740, inf = 98.4%, acc = 1.2%, imp = 745

worst case efficiency: 0.742201
[68 sec, 1586950 itr]: obj = (0.237505), mov = 1586950, inf = 98.5%, acc = 1.2%, imp = 747

worst case efficiency: 0.742503
[69 sec, 1622178 itr]: obj = (0.237698), mov = 1622178, inf = 98.5%, acc = 1.1%, imp = 751

worst case efficiency: 0.742619
[70 sec, 1657211 itr]: obj = (0.237875), mov = 1657211, inf = 98.5%, acc = 1.1%, imp = 752

worst case efficiency: 0.742725
[71 sec, 1692256 itr]: obj = (0.237925), mov = 1692256, inf = 98.5%, acc = 1.1%, imp = 754

worst case efficiency: 0.742755
[72 sec, 1728285 itr]: obj = (0.238721), mov = 1728285, inf = 98.5%, acc = 1.1%, imp = 757

worst case efficiency: 0.743233
[73 sec, 1763918 itr]: obj = (0.238788), mov = 1763918, inf = 98.6%, acc = 1.1%, imp = 758

worst case efficiency: 0.743273
[74 sec, 1799333 itr]: obj = (0.239924), mov = 1799333, inf = 98.6%, acc = 1.1%, imp = 761

worst case efficiency: 0.743954
[75 sec, 1833837 itr]: obj = (0.241261), mov = 1833837, inf = 98.6%, acc = 1.1%, imp = 768

worst case efficiency: 0.744757
[76 sec, 1866529 itr]: obj = (0.242527), mov = 1866529, inf = 98.6%, acc = 1.1%, imp = 772

worst case efficiency: 0.745516
[77 sec, 1897359 itr]: obj = (0.243148), mov = 1897359, inf = 98.6%, acc = 1%, imp = 775

worst case efficiency: 0.745889
[78 sec, 1932247 itr]: obj = (0.243362), mov = 1932247, inf = 98.6%, acc = 1%, imp = 777

worst case efficiency: 0.746017
[79 sec, 1966986 itr]: obj = (0.243379), mov = 1966986, inf = 98.6%, acc = 1%, imp = 779

worst case efficiency: 0.746027
[80 sec, 2001798 itr]: obj = (0.243858), mov = 2001798, inf = 98.6%, acc = 1%, imp = 783

worst case efficiency: 0.746315
[81 sec, 2036633 itr]: obj = (0.244672), mov = 2036633, inf = 98.7%, acc = 1%, imp = 789

worst case efficiency: 0.746803
[82 sec, 2071747 itr]: obj = (0.245164), mov = 2071747, inf = 98.7%, acc = 1%, imp = 794

worst case efficiency: 0.747098
[83 sec, 2107305 itr]: obj = (0.248774), mov = 2107305, inf = 98.7%, acc = 1%, imp = 798

worst case efficiency: 0.749264
[84 sec, 2143502 itr]: obj = (0.249988), mov = 2143502, inf = 98.7%, acc = 1%, imp = 806

worst case efficiency: 0.749993
[85 sec, 2179334 itr]: obj = (0.250886), mov = 2179334, inf = 98.7%, acc = 1%, imp = 816

worst case efficiency: 0.750532
[86 sec, 2214865 itr]: obj = (0.252313), mov = 2214865, inf = 98.7%, acc = 1%, imp = 820

worst case efficiency: 0.751388
[87 sec, 2250956 itr]: obj = (0.252795), mov = 2250956, inf = 98.7%, acc = 1%, imp = 825

worst case efficiency: 0.751677
[88 sec, 2285424 itr]: obj = (0.253953), mov = 2285424, inf = 98.8%, acc = 0.9%, imp = 831

worst case efficiency: 0.752372
[89 sec, 2321748 itr]: obj = (0.254896), mov = 2321748, inf = 98.8%, acc = 0.9%, imp = 835

worst case efficiency: 0.752937
[90 sec, 2357976 itr]: obj = (0.255347), mov = 2357976, inf = 98.8%, acc = 0.9%, imp = 839

worst case efficiency: 0.753208
[90 sec, 2357976 itr]: obj = (0.255347), mov = 2357976, inf = 98.8%, acc = 0.9%, imp = 839

worst case efficiency: 0.753208
2357976 iterations, 2357976 moves performed in 90 seconds
Feasible solution: obj = (0.255347)

Run output...
FINAL SOLUTION
Worst case efficiency: 0.753208
Mapping: 0->35, 1->20, 2->28, 3->9, 4->24, 5->31, 6->45, 7->40, 8->17, 9->5, 10->46, 11->47, 12->13, 13->43, 14->13, 15->22, 16->30, 17->14, 18->26, 19->43, 20->19, 21->38, 22->12, 23->13, 24->24, 25->30, 26->27, 27->27, 28->3, 29->1, 30->46, 31->4, 32->45, 33->41, 34->8, 35->32, 36->3, 37->16, 38->21, 39->14, 40->11, 41->44, 42->36, 43->34, 44->4, 45->8, 46->21, 47->5, 48->47, 49->14, 50->7, 51->33, 52->41, 53->23, 54->39, 55->31, 56->47, 57->13, 58->13, 59->34, 60->33, 61->36, 62->5, 63->40, 64->0, 65->21, 66->36, 67->37, 68->47, 69->32, 70->34, 71->45, 72->24, 73->31, 74->28, 75->25, 76->8, 77->22, 78->26, 79->35, 80->18, 81->41, 82->12, 83->17, 84->3, 85->16, 86->45, 87->8, 88->2, 89->29, 90->32, 91->9, 92->44, 93->15, 94->18, 95->42, 96->18, 97->40, 98->11, 99->39, 100->1, 101->27, 102->44, 103->41, 104->22, 105->41, 106->43, 107->7, 108->19, 109->22, 110->7, 111->31, 112->21, 113->32, 114->18, 115->44, 116->33, 117->9, 118->34, 119->25, 120->23, 121->20, 122->36, 123->23, 124->26, 125->30, 126->5, 127->21, 128->15, 129->12, 130->1, 131->29, 132->1, 133->4, 134->35, 135->26, 136->12, 137->4, 138->12, 139->14, 140->25, 141->30, 142->24, 143->8, 144->13, 145->26, 146->16, 147->27, 148->28, 149->38, 150->7, 151->2, 152->40, 153->15, 154->38, 155->10, 156->16, 157->36, 158->2, 159->35, 160->16, 161->6, 162->40, 163->16, 164->34, 165->19, 166->46, 167->30, 168->31, 169->25, 170->6, 171->29, 172->19, 173->43, 174->11, 175->10, 176->2, 177->33, 178->42, 179->19, 180->33, 181->24, 182->42, 183->19, 184->37, 185->14, 186->39, 187->20, 188->31, 189->20, 190->43, 191->10, 192->34, 193->15, 194->11, 195->33, 196->36, 197->17, 198->20, 199->17, 200->11, 201->14, 202->38, 203->37, 204->20, 205->0, 206->7, 207->10, 208->44, 209->37, 210->40, 211->35, 212->46, 213->35, 214->17, 215->28, 216->25, 217->0, 218->5, 219->39, 220->3, 221->7, 222->45, 223->37, 224->46, 225->42, 226->0, 227->17, 228->2, 229->32, 230->5, 231->6, 232->41, 233->37, 234->4, 235->45, 236->6, 237->1, 238->4, 239->23, 240->22, 241->18, 242->10, 243->28, 244->39, 245->38, 246->47, 247->43, 248->44, 249->26, 250->2, 251->0, 252->27, 253->9, 254->1, 255->18, 256->8, 257->0, 258->24, 259->27, 260->6, 261->32, 262->42, 263->29, 264->47, 265->22, 266->29, 267->21, 268->12, 269->25, 270->23, 271->39, 272->28, 273->46, 274->38, 275->3, 276->3, 277->9, 278->15, 279->15, 280->11, 281->23, 282->10, 283->42, 284->6, 285->30, 286->9, 287->29
Number of tasks per core:
	6	6	6	6	6	6
	6	6	6	6	6	6
	6	6	6	6	6	6
	6	6	6	6	6	6
	6	6	6	6	6	6
	6	6	6	6	6	6
	6	6	6	6	6	6
	6	6	6	6	6	6
Average CPI map:
	1.19155	1.16355	0.893034	1.11798	2.15146	2.04822
	1.88081	6.68509	2.36781	4.68567	5.48081	2.39714
	2.01379	5.89709	4.93905	5.24667	6.06951	1.6529
	4.40933	7.35434	7.82006	5.38971	5.14395	1.86965
	1.59696	6.98186	5.0579	6.5804	5.66297	1.14267
	0.83088	7.93858	6.16234	7.50644	7.19601	1.79109
	1.54362	5.70454	7.00235	4.94764	4.69668	1.18603
	0.834576	8.06685	3.69408	2.77605	2.42376	0.806593
Efficiency map:
	0.99722	0.882478	0.91035	0.830482	0.996708	1.00307
	0.807821	0.762857	0.754771	0.76844	0.753208	0.880696
	0.869498	0.77205	0.762333	0.766426	0.801378	0.822499
	0.929845	0.761611	0.835937	0.763912	0.755372	0.828866
	0.834483	0.830296	0.771638	0.851627	0.784851	0.785057
	0.777212	0.834239	0.753369	0.765442	0.782308	0.837664
	0.821274	0.844293	0.81641	0.809304	0.754316	0.810803
	0.810613	0.888579	0.754917	0.785295	0.759961	0.77714
==============================================================================
Local Solver optimizer for EML demonstration
==============================================================================

Option values: --wld-idx 1 --global-tlim 90 --seed 401

Starting the Optimization Process
