756 4
17.5 17.5 17.5 0.6
17.5 17.5 17.5 0.6
-0.885714285714 -0.885714285714 -0.885714285714 0.0247833333333
-0.885714285714 -0.885714285714 -0.428571428571 0.0805
-0.885714285714 -0.885714285714 0.257142857143 0.0933666666667
-0.885714285714 -0.657142857143 -0.885714285714 0.0913833333333
-0.885714285714 -0.657142857143 -0.428571428571 0.0491
-0.885714285714 -0.657142857143 0.257142857143 0.1245
-0.885714285714 -0.314285714286 -0.885714285714 0.11525
-0.885714285714 -0.314285714286 -0.428571428571 0.15765
-0.885714285714 -0.314285714286 0.257142857143 0.20495
-0.885714285714 -0.657142857143 -0.885714285714 0.0757833333333
-0.885714285714 -0.657142857143 -0.428571428571 0.0295833333333
-0.885714285714 -0.657142857143 0.257142857143 0.124333333333
-0.885714285714 -0.428571428571 -0.885714285714 0.0884666666667
-0.885714285714 -0.428571428571 -0.428571428571 0.138116666667
-0.885714285714 -0.428571428571 0.257142857143 0.0505666666667
-0.885714285714 -0.0857142857143 -0.885714285714 0.0776833333333
-0.885714285714 -0.0857142857143 -0.428571428571 0.11695
-0.885714285714 -0.0857142857143 0.257142857143 0.171816666667
-0.885714285714 -0.314285714286 -0.885714285714 0.0709666666667
-0.885714285714 -0.314285714286 -0.428571428571 0.0905
-0.885714285714 -0.314285714286 0.257142857143 0.1308
-0.885714285714 -0.0857142857143 -0.885714285714 0.09105
-0.885714285714 -0.0857142857143 -0.428571428571 0.0843
-0.885714285714 -0.0857142857143 0.257142857143 0.13685
-0.885714285714 0.257142857143 -0.885714285714 0.119383333333
-0.885714285714 0.257142857143 -0.428571428571 0.160483333333
-0.885714285714 0.257142857143 0.257142857143 0.113933333333
-0.885714285714 -0.742857142857 -0.885714285714 0.0487
-0.885714285714 -0.742857142857 -0.428571428571 0.07285
-0.885714285714 -0.742857142857 0.257142857143 0.0691833333333
-0.885714285714 -0.742857142857 -0.885714285714 0.0556333333333
-0.885714285714 -0.742857142857 -0.428571428571 0.1052
-0.885714285714 -0.742857142857 0.257142857143 0.0962333333333
-0.885714285714 -0.742857142857 -0.885714285714 0.0809833333333
-0.885714285714 -0.742857142857 -0.428571428571 0.0625666666667
-0.885714285714 -0.742857142857 0.257142857143 0.0959333333333
-0.885714285714 -0.742857142857 -0.885714285714 0.0962166666667
-0.885714285714 -0.742857142857 -0.428571428571 0.0866166666667
-0.885714285714 -0.742857142857 0.257142857143 0.0627833333333
-0.885714285714 -0.485714285714 -0.885714285714 0.0611
-0.885714285714 -0.485714285714 -0.428571428571 0.126466666667
-0.885714285714 -0.485714285714 0.257142857143 0.11165
-0.885714285714 -0.485714285714 -0.885714285714 0.0673166666667
-0.885714285714 -0.485714285714 -0.428571428571 0.12865
-0.885714285714 -0.485714285714 0.257142857143 0.130183333333
-0.885714285714 -0.485714285714 -0.885714285714 0.0370666666667
-0.885714285714 -0.485714285714 -0.428571428571 0.101916666667
-0.885714285714 -0.485714285714 0.257142857143 0.121766666667
-0.885714285714 -0.485714285714 -0.885714285714 0.07805
-0.885714285714 -0.485714285714 -0.428571428571 0.0865666666667
-0.885714285714 -0.485714285714 0.257142857143 0.106166666667
-0.885714285714 0.114285714286 -0.885714285714 0.0953833333333
-0.885714285714 0.114285714286 -0.428571428571 0.171016666667
-0.885714285714 0.114285714286 0.257142857143 0.2026
-0.885714285714 0.114285714286 -0.885714285714 0.0741
-0.885714285714 0.114285714286 -0.428571428571 0.19825
-0.885714285714 0.114285714286 0.257142857143 0.19735
-0.885714285714 0.114285714286 -0.885714285714 0.119416666667
-0.885714285714 0.114285714286 -0.428571428571 0.15365
-0.885714285714 0.114285714286 0.257142857143 0.2069
-0.885714285714 0.114285714286 -0.885714285714 0.07295
-0.885714285714 0.114285714286 -0.428571428571 0.13735
-0.885714285714 0.114285714286 0.257142857143 0.22945
-0.885714285714 -0.885714285714 -0.885714285714 0.0589166666667
-0.885714285714 -0.885714285714 -0.428571428571 0.04605
-0.885714285714 -0.885714285714 0.257142857143 0.0688
-0.885714285714 -0.657142857143 -0.885714285714 0.0627
-0.885714285714 -0.657142857143 -0.428571428571 0.0814333333333
-0.885714285714 -0.657142857143 0.257142857143 0.0724333333333
-0.885714285714 -0.314285714286 -0.885714285714 0.0909
-0.885714285714 -0.314285714286 -0.428571428571 0.13415
-0.885714285714 -0.314285714286 0.257142857143 0.122416666667
-0.885714285714 -0.657142857143 -0.885714285714 0.0328333333333
-0.885714285714 -0.657142857143 -0.428571428571 0.0753
-0.885714285714 -0.657142857143 0.257142857143 0.09085
-0.885714285714 -0.428571428571 -0.885714285714 0.01325
-0.885714285714 -0.428571428571 -0.428571428571 0.00178333333333
-0.885714285714 -0.428571428571 0.257142857143 0.0866166666667
-0.885714285714 -0.0857142857143 -0.885714285714 0.0914166666667
-0.885714285714 -0.0857142857143 -0.428571428571 0.111933333333
-0.885714285714 -0.0857142857143 0.257142857143 0.166716666667
-0.885714285714 -0.314285714286 -0.885714285714 0.01
-0.885714285714 -0.314285714286 -0.428571428571 0.107366666667
-0.885714285714 -0.314285714286 0.257142857143 0.0613
-0.885714285714 -0.0857142857143 -0.885714285714 0.09345
-0.885714285714 -0.0857142857143 -0.428571428571 0.03045
-0.885714285714 -0.0857142857143 0.257142857143 0.0395833333333
-0.885714285714 0.257142857143 -0.885714285714 0.09135
-0.885714285714 0.257142857143 -0.428571428571 0.104316666667
-0.885714285714 0.257142857143 0.257142857143 0.181483333333
-0.885714285714 -0.742857142857 -0.885714285714 0.0100166666667
-0.885714285714 -0.742857142857 -0.428571428571 0.0813
-0.885714285714 -0.742857142857 0.257142857143 0.0874833333333
-0.885714285714 -0.742857142857 -0.885714285714 0.0652
-0.885714285714 -0.742857142857 -0.428571428571 0.0934833333333
-0.885714285714 -0.742857142857 0.257142857143 0.106733333333
-0.885714285714 -0.742857142857 -0.885714285714 0.0324
-0.885714285714 -0.742857142857 -0.428571428571 0.0251833333333
-0.885714285714 -0.742857142857 0.257142857143 0.02295
-0.885714285714 -0.742857142857 -0.885714285714 0.0976333333333
-0.885714285714 -0.742857142857 -0.428571428571 0.0702666666667
-0.885714285714 -0.742857142857 0.257142857143 0.0357333333333
-0.885714285714 -0.485714285714 -0.885714285714 0.0174
-0.885714285714 -0.485714285714 -0.428571428571 0.0752333333333
-0.885714285714 -0.485714285714 0.257142857143 0.02305
-0.885714285714 -0.485714285714 -0.885714285714 0.101866666667
-0.885714285714 -0.485714285714 -0.428571428571 0.0277333333333
-0.885714285714 -0.485714285714 0.257142857143 0.09255
-0.885714285714 -0.485714285714 -0.885714285714 0.0462333333333
-0.885714285714 -0.485714285714 -0.428571428571 0.106583333333
-0.885714285714 -0.485714285714 0.257142857143 0.0946
-0.885714285714 -0.485714285714 -0.885714285714 0.0569833333333
-0.885714285714 -0.485714285714 -0.428571428571 0.0452
-0.885714285714 -0.485714285714 0.257142857143 0.0681
-0.885714285714 0.114285714286 -0.885714285714 0.0562833333333
-0.885714285714 0.114285714286 -0.428571428571 0.1393
-0.885714285714 0.114285714286 0.257142857143 0.13835
-0.885714285714 0.114285714286 -0.885714285714 0.0725
-0.885714285714 0.114285714286 -0.428571428571 0.0955
-0.885714285714 0.114285714286 0.257142857143 0.03515
-0.885714285714 0.114285714286 -0.885714285714 0.12095
-0.885714285714 0.114285714286 -0.428571428571 0.138466666667
-0.885714285714 0.114285714286 0.257142857143 0.0853333333333
-0.885714285714 0.114285714286 -0.885714285714 0.0553333333333
-0.885714285714 0.114285714286 -0.428571428571 0.170016666667
-0.885714285714 0.114285714286 0.257142857143 0.173833333333
-0.885714285714 -0.885714285714 -0.885714285714 0.11925
-0.885714285714 -0.885714285714 -0.428571428571 0.119216666667
-0.885714285714 -0.885714285714 0.257142857143 0.133033333333
-0.885714285714 -0.657142857143 -0.885714285714 0.0976166666667
-0.885714285714 -0.657142857143 -0.428571428571 0.138816666667
-0.885714285714 -0.657142857143 0.257142857143 0.1624
-0.885714285714 -0.314285714286 -0.885714285714 0.13105
-0.885714285714 -0.314285714286 -0.428571428571 0.1819
-0.885714285714 -0.314285714286 0.257142857143 0.166266666667
-0.885714285714 -0.657142857143 -0.885714285714 0.112833333333
-0.885714285714 -0.657142857143 -0.428571428571 0.1205
-0.885714285714 -0.657142857143 0.257142857143 0.134316666667
-0.885714285714 -0.428571428571 -0.885714285714 0.107416666667
-0.885714285714 -0.428571428571 -0.428571428571 0.135316666667
-0.885714285714 -0.428571428571 0.257142857143 0.160966666667
-0.885714285714 -0.0857142857143 -0.885714285714 0.1364
-0.885714285714 -0.0857142857143 -0.428571428571 0.2023
-0.885714285714 -0.0857142857143 0.257142857143 0.223833333333
-0.885714285714 -0.314285714286 -0.885714285714 0.116966666667
-0.885714285714 -0.314285714286 -0.428571428571 0.129483333333
-0.885714285714 -0.314285714286 0.257142857143 0.13685
-0.885714285714 -0.0857142857143 -0.885714285714 0.111983333333
-0.885714285714 -0.0857142857143 -0.428571428571 0.139983333333
-0.885714285714 -0.0857142857143 0.257142857143 0.160316666667
-0.885714285714 0.257142857143 -0.885714285714 0.159016666667
-0.885714285714 0.257142857143 -0.428571428571 0.1452
-0.885714285714 0.257142857143 0.257142857143 0.2433
-0.885714285714 -0.742857142857 -0.885714285714 0.1158
-0.885714285714 -0.742857142857 -0.428571428571 0.121416666667
-0.885714285714 -0.742857142857 0.257142857143 0.129333333333
-0.885714285714 -0.742857142857 -0.885714285714 0.121916666667
-0.885714285714 -0.742857142857 -0.428571428571 0.117833333333
-0.885714285714 -0.742857142857 0.257142857143 0.129266666667
-0.885714285714 -0.742857142857 -0.885714285714 0.114433333333
-0.885714285714 -0.742857142857 -0.428571428571 0.116166666667
-0.885714285714 -0.742857142857 0.257142857143 0.1322
-0.885714285714 -0.742857142857 -0.885714285714 0.10925
-0.885714285714 -0.742857142857 -0.428571428571 0.119616666667
-0.885714285714 -0.742857142857 0.257142857143 0.133983333333
-0.885714285714 -0.485714285714 -0.885714285714 0.114666666667
-0.885714285714 -0.485714285714 -0.428571428571 0.135383333333
-0.885714285714 -0.485714285714 0.257142857143 0.14505
-0.885714285714 -0.485714285714 -0.885714285714 0.112266666667
-0.885714285714 -0.485714285714 -0.428571428571 0.1209
-0.885714285714 -0.485714285714 0.257142857143 0.18695
-0.885714285714 -0.485714285714 -0.885714285714 0.11475
-0.885714285714 -0.485714285714 -0.428571428571 0.147266666667
-0.885714285714 -0.485714285714 0.257142857143 0.1461
-0.885714285714 -0.485714285714 -0.885714285714 0.11195
-0.885714285714 -0.485714285714 -0.428571428571 0.115
-0.885714285714 -0.485714285714 0.257142857143 0.189866666667
-0.885714285714 0.114285714286 -0.885714285714 0.150133333333
-0.885714285714 0.114285714286 -0.428571428571 0.205566666667
-0.885714285714 0.114285714286 0.257142857143 0.238866666667
-0.885714285714 0.114285714286 -0.885714285714 0.153366666667
-0.885714285714 0.114285714286 -0.428571428571 0.201816666667
-0.885714285714 0.114285714286 0.257142857143 0.237366666667
-0.885714285714 0.114285714286 -0.885714285714 0.145116666667
-0.885714285714 0.114285714286 -0.428571428571 0.201066666667
-0.885714285714 0.114285714286 0.257142857143 0.234216666667
-0.885714285714 0.114285714286 -0.885714285714 0.139283333333
-0.885714285714 0.114285714286 -0.428571428571 0.196983333333
-0.885714285714 0.114285714286 0.257142857143 0.249883333333
-0.885714285714 -0.885714285714 -0.885714285714 0.0637
-0.885714285714 -0.885714285714 -0.428571428571 0.00211666666667
-0.885714285714 -0.885714285714 0.257142857143 0.06945
-0.885714285714 -0.657142857143 -0.885714285714 0.0456166666667
-0.885714285714 -0.657142857143 -0.428571428571 0.110716666667
-0.885714285714 -0.657142857143 0.257142857143 0.105666666667
-0.885714285714 -0.314285714286 -0.885714285714 0.07825
-0.885714285714 -0.314285714286 -0.428571428571 0.0766666666667
-0.885714285714 -0.314285714286 0.257142857143 0.183116666667
-0.885714285714 -0.657142857143 -0.885714285714 0.05915
-0.885714285714 -0.657142857143 -0.428571428571 0.0710666666667
-0.885714285714 -0.657142857143 0.257142857143 0.03745
-0.885714285714 -0.428571428571 -0.885714285714 0.0542166666667
-0.885714285714 -0.428571428571 -0.428571428571 0.0683
-0.885714285714 -0.428571428571 0.257142857143 0.102266666667
-0.885714285714 -0.0857142857143 -0.885714285714 0.0773833333333
-0.885714285714 -0.0857142857143 -0.428571428571 0.14695
-0.885714285714 -0.0857142857143 0.257142857143 0.1923
-0.885714285714 -0.314285714286 -0.885714285714 0.04665
-0.885714285714 -0.314285714286 -0.428571428571 0.08515
-0.885714285714 -0.314285714286 0.257142857143 0.0511166666667
-0.885714285714 -0.0857142857143 -0.885714285714 0.0327333333333
-0.885714285714 -0.0857142857143 -0.428571428571 0.0900833333333
-0.885714285714 -0.0857142857143 0.257142857143 0.0514666666667
-0.885714285714 0.257142857143 -0.885714285714 0.11135
-0.885714285714 0.257142857143 -0.428571428571 0.185683333333
-0.885714285714 0.257142857143 0.257142857143 0.153666666667
-0.885714285714 -0.742857142857 -0.885714285714 0.0615333333333
-0.885714285714 -0.742857142857 -0.428571428571 0.0535166666667
-0.885714285714 -0.742857142857 0.257142857143 0.07035
-0.885714285714 -0.742857142857 -0.885714285714 0.0851166666667
-0.885714285714 -0.742857142857 -0.428571428571 0.0581166666667
-0.885714285714 -0.742857142857 0.257142857143 0.0838333333333
-0.885714285714 -0.742857142857 -0.885714285714 0.0765166666667
-0.885714285714 -0.742857142857 -0.428571428571 0.0930833333333
-0.885714285714 -0.742857142857 0.257142857143 0.0881166666667
-0.885714285714 -0.742857142857 -0.885714285714 0.08925
-0.885714285714 -0.742857142857 -0.428571428571 0.0586833333333
-0.885714285714 -0.742857142857 0.257142857143 0.0386166666667
-0.885714285714 -0.485714285714 -0.885714285714 0.0983666666667
-0.885714285714 -0.485714285714 -0.428571428571 0.0980666666667
-0.885714285714 -0.485714285714 0.257142857143 0.10305
-0.885714285714 -0.485714285714 -0.885714285714 0.102233333333
-0.885714285714 -0.485714285714 -0.428571428571 0.06835
-0.885714285714 -0.485714285714 0.257142857143 0.156983333333
-0.885714285714 -0.485714285714 -0.885714285714 -0.0110166666667
-0.885714285714 -0.485714285714 -0.428571428571 0.0750333333333
-0.885714285714 -0.485714285714 0.257142857143 0.11105
-0.885714285714 -0.485714285714 -0.885714285714 -0.0574833333333
-0.885714285714 -0.485714285714 -0.428571428571 0.149966666667
-0.885714285714 -0.485714285714 0.257142857143 0.119266666667
-0.885714285714 0.114285714286 -0.885714285714 0.1076
-0.885714285714 0.114285714286 -0.428571428571 0.10475
-0.885714285714 0.114285714286 0.257142857143 0.119383333333
-0.885714285714 0.114285714286 -0.885714285714 0.08
-0.885714285714 0.114285714286 -0.428571428571 0.159583333333
-0.885714285714 0.114285714286 0.257142857143 0.117666666667
-0.885714285714 0.114285714286 -0.885714285714 0.0235
-0.885714285714 0.114285714286 -0.428571428571 0.13385
-0.885714285714 0.114285714286 0.257142857143 0.156483333333
-0.885714285714 0.114285714286 -0.885714285714 0.148016666667
-0.885714285714 0.114285714286 -0.428571428571 0.146183333333
-0.885714285714 0.114285714286 0.257142857143 0.163983333333
-0.428571428571 -0.885714285714 -0.885714285714 0.548066666667
-0.428571428571 -0.885714285714 -0.428571428571 0.577433333333
-0.428571428571 -0.885714285714 0.257142857143 0.4427
-0.428571428571 -0.657142857143 -0.885714285714 0.488183333333
-0.428571428571 -0.657142857143 -0.428571428571 0.464433333333
-0.428571428571 -0.657142857143 0.257142857143 0.652283333333
-0.428571428571 -0.314285714286 -0.885714285714 0.616866666667
-0.428571428571 -0.314285714286 -0.428571428571 0.621433333333
-0.428571428571 -0.314285714286 0.257142857143 0.520166666667
-0.428571428571 -0.657142857143 -0.885714285714 0.476433333333
-0.428571428571 -0.657142857143 -0.428571428571 0.59695
-0.428571428571 -0.657142857143 0.257142857143 0.365183333333
-0.428571428571 -0.428571428571 -0.885714285714 0.57075
-0.428571428571 -0.428571428571 -0.428571428571 0.44655
-0.428571428571 -0.428571428571 0.257142857143 0.651833333333
-0.428571428571 -0.0857142857143 -0.885714285714 0.619333333333
-0.428571428571 -0.0857142857143 -0.428571428571 0.594266666667
-0.428571428571 -0.0857142857143 0.257142857143 0.666666666667
-0.428571428571 -0.314285714286 -0.885714285714 0.594733333333
-0.428571428571 -0.314285714286 -0.428571428571 0.581766666667
-0.428571428571 -0.314285714286 0.257142857143 0.512133333333
-0.428571428571 -0.0857142857143 -0.885714285714 0.574783333333
-0.428571428571 -0.0857142857143 -0.428571428571 0.57285
-0.428571428571 -0.0857142857143 0.257142857143 0.649516666667
-0.428571428571 0.257142857143 -0.885714285714 0.520566666667
-0.428571428571 0.257142857143 -0.428571428571 0.666666666667
-0.428571428571 0.257142857143 0.257142857143 0.666666666667
-0.428571428571 -0.742857142857 -0.885714285714 0.49565
-0.428571428571 -0.742857142857 -0.428571428571 0.5618
-0.428571428571 -0.742857142857 0.257142857143 0.4689
-0.428571428571 -0.742857142857 -0.885714285714 0.6495
-0.428571428571 -0.742857142857 -0.428571428571 0.599866666667
-0.428571428571 -0.742857142857 0.257142857143 0.64645
-0.428571428571 -0.742857142857 -0.885714285714 0.501933333333
-0.428571428571 -0.742857142857 -0.428571428571 0.5984
-0.428571428571 -0.742857142857 0.257142857143 0.519833333333
-0.428571428571 -0.742857142857 -0.885714285714 0.590333333333
-0.428571428571 -0.742857142857 -0.428571428571 0.595166666667
-0.428571428571 -0.742857142857 0.257142857143 0.580583333333
-0.428571428571 -0.485714285714 -0.885714285714 0.626366666667
-0.428571428571 -0.485714285714 -0.428571428571 0.50485
-0.428571428571 -0.485714285714 0.257142857143 0.666666666667
-0.428571428571 -0.485714285714 -0.885714285714 0.48355
-0.428571428571 -0.485714285714 -0.428571428571 0.5676
-0.428571428571 -0.485714285714 0.257142857143 0.50165
-0.428571428571 -0.485714285714 -0.885714285714 0.545816666667
-0.428571428571 -0.485714285714 -0.428571428571 0.483483333333
-0.428571428571 -0.485714285714 0.257142857143 0.5556
-0.428571428571 -0.485714285714 -0.885714285714 0.513266666667
-0.428571428571 -0.485714285714 -0.428571428571 0.4881
-0.428571428571 -0.485714285714 0.257142857143 0.593783333333
-0.428571428571 0.114285714286 -0.885714285714 0.56165
-0.428571428571 0.114285714286 -0.428571428571 0.6038
-0.428571428571 0.114285714286 0.257142857143 0.549216666667
-0.428571428571 0.114285714286 -0.885714285714 0.5939
-0.428571428571 0.114285714286 -0.428571428571 0.5959
-0.428571428571 0.114285714286 0.257142857143 0.615833333333
-0.428571428571 0.114285714286 -0.885714285714 0.582866666667
-0.428571428571 0.114285714286 -0.428571428571 0.55515
-0.428571428571 0.114285714286 0.257142857143 0.636483333333
-0.428571428571 0.114285714286 -0.885714285714 0.548916666667
-0.428571428571 0.114285714286 -0.428571428571 0.666666666667
-0.428571428571 0.114285714286 0.257142857143 0.575266666667
-0.428571428571 -0.885714285714 -0.885714285714 0.472533333333
-0.428571428571 -0.885714285714 -0.428571428571 0.588816666667
-0.428571428571 -0.885714285714 0.257142857143 0.570366666667
-0.428571428571 -0.657142857143 -0.885714285714 0.38165
-0.428571428571 -0.657142857143 -0.428571428571 0.4946
-0.428571428571 -0.657142857143 0.257142857143 0.520883333333
-0.428571428571 -0.314285714286 -0.885714285714 0.63485
-0.428571428571 -0.314285714286 -0.428571428571 0.634166666667
-0.428571428571 -0.314285714286 0.257142857143 0.666666666667
-0.428571428571 -0.657142857143 -0.885714285714 0.582183333333
-0.428571428571 -0.657142857143 -0.428571428571 0.480566666667
-0.428571428571 -0.657142857143 0.257142857143 0.401033333333
-0.428571428571 -0.428571428571 -0.885714285714 0.597083333333
-0.428571428571 -0.428571428571 -0.428571428571 0.366366666667
-0.428571428571 -0.428571428571 0.257142857143 0.580366666667
-0.428571428571 -0.0857142857143 -0.885714285714 0.637016666667
-0.428571428571 -0.0857142857143 -0.428571428571 0.559416666667
-0.428571428571 -0.0857142857143 0.257142857143 0.544583333333
-0.428571428571 -0.314285714286 -0.885714285714 0.54525
-0.428571428571 -0.314285714286 -0.428571428571 0.643083333333
-0.428571428571 -0.314285714286 0.257142857143 0.579116666667
-0.428571428571 -0.0857142857143 -0.885714285714 0.485533333333
-0.428571428571 -0.0857142857143 -0.428571428571 0.6133
-0.428571428571 -0.0857142857143 0.257142857143 0.499066666667
-0.428571428571 0.257142857143 -0.885714285714 0.505433333333
-0.428571428571 0.257142857143 -0.428571428571 0.666666666667
-0.428571428571 0.257142857143 0.257142857143 0.666666666667
-0.428571428571 -0.742857142857 -0.885714285714 0.555216666667
-0.428571428571 -0.742857142857 -0.428571428571 0.533833333333
-0.428571428571 -0.742857142857 0.257142857143 0.626333333333
-0.428571428571 -0.742857142857 -0.885714285714 0.405566666667
-0.428571428571 -0.742857142857 -0.428571428571 0.476316666667
-0.428571428571 -0.742857142857 0.257142857143 0.6215
-0.428571428571 -0.742857142857 -0.885714285714 0.630183333333
-0.428571428571 -0.742857142857 -0.428571428571 0.618183333333
-0.428571428571 -0.742857142857 0.257142857143 0.599266666667
-0.428571428571 -0.742857142857 -0.885714285714 0.542
-0.428571428571 -0.742857142857 -0.428571428571 0.447866666667
-0.428571428571 -0.742857142857 0.257142857143 0.620383333333
-0.428571428571 -0.485714285714 -0.885714285714 0.498533333333
-0.428571428571 -0.485714285714 -0.428571428571 0.476033333333
-0.428571428571 -0.485714285714 0.257142857143 0.491533333333
-0.428571428571 -0.485714285714 -0.885714285714 0.5869
-0.428571428571 -0.485714285714 -0.428571428571 0.556483333333
-0.428571428571 -0.485714285714 0.257142857143 0.5307
-0.428571428571 -0.485714285714 -0.885714285714 0.5878
-0.428571428571 -0.485714285714 -0.428571428571 0.500616666667
-0.428571428571 -0.485714285714 0.257142857143 0.569133333333
-0.428571428571 -0.485714285714 -0.885714285714 0.428733333333
-0.428571428571 -0.485714285714 -0.428571428571 0.523366666667
-0.428571428571 -0.485714285714 0.257142857143 0.603783333333
-0.428571428571 0.114285714286 -0.885714285714 0.578116666667
-0.428571428571 0.114285714286 -0.428571428571 0.612683333333
-0.428571428571 0.114285714286 0.257142857143 0.619366666667
-0.428571428571 0.114285714286 -0.885714285714 0.6239
-0.428571428571 0.114285714286 -0.428571428571 0.557783333333
-0.428571428571 0.114285714286 0.257142857143 0.62035
-0.428571428571 0.114285714286 -0.885714285714 0.612733333333
-0.428571428571 0.114285714286 -0.428571428571 0.580116666667
-0.428571428571 0.114285714286 0.257142857143 0.666666666667
-0.428571428571 0.114285714286 -0.885714285714 0.579616666667
-0.428571428571 0.114285714286 -0.428571428571 0.54145
-0.428571428571 0.114285714286 0.257142857143 0.666666666667
-0.428571428571 -0.885714285714 -0.885714285714 0.6506
-0.428571428571 -0.885714285714 -0.428571428571 0.625616666667
-0.428571428571 -0.885714285714 0.257142857143 0.666666666667
-0.428571428571 -0.657142857143 -0.885714285714 0.666666666667
-0.428571428571 -0.657142857143 -0.428571428571 0.666666666667
-0.428571428571 -0.657142857143 0.257142857143 0.666666666667
-0.428571428571 -0.314285714286 -0.885714285714 0.663933333333
-0.428571428571 -0.314285714286 -0.428571428571 0.666666666667
-0.428571428571 -0.314285714286 0.257142857143 0.666666666667
-0.428571428571 -0.657142857143 -0.885714285714 0.666666666667
-0.428571428571 -0.657142857143 -0.428571428571 0.666666666667
-0.428571428571 -0.657142857143 0.257142857143 0.666666666667
-0.428571428571 -0.428571428571 -0.885714285714 0.663416666667
-0.428571428571 -0.428571428571 -0.428571428571 0.666666666667
-0.428571428571 -0.428571428571 0.257142857143 0.666666666667
-0.428571428571 -0.0857142857143 -0.885714285714 0.654116666667
-0.428571428571 -0.0857142857143 -0.428571428571 0.666666666667
-0.428571428571 -0.0857142857143 0.257142857143 0.666666666667
-0.428571428571 -0.314285714286 -0.885714285714 0.636283333333
-0.428571428571 -0.314285714286 -0.428571428571 0.666666666667
-0.428571428571 -0.314285714286 0.257142857143 0.666666666667
-0.428571428571 -0.0857142857143 -0.885714285714 0.652316666667
-0.428571428571 -0.0857142857143 -0.428571428571 0.653416666667
-0.428571428571 -0.0857142857143 0.257142857143 0.666666666667
-0.428571428571 0.257142857143 -0.885714285714 0.666666666667
-0.428571428571 0.257142857143 -0.428571428571 0.666666666667
-0.428571428571 0.257142857143 0.257142857143 0.666666666667
-0.428571428571 -0.742857142857 -0.885714285714 0.666666666667
-0.428571428571 -0.742857142857 -0.428571428571 0.611566666667
-0.428571428571 -0.742857142857 0.257142857143 0.654133333333
-0.428571428571 -0.742857142857 -0.885714285714 0.635666666667
-0.428571428571 -0.742857142857 -0.428571428571 0.654133333333
-0.428571428571 -0.742857142857 0.257142857143 0.666666666667
-0.428571428571 -0.742857142857 -0.885714285714 0.650683333333
-0.428571428571 -0.742857142857 -0.428571428571 0.666666666667
-0.428571428571 -0.742857142857 0.257142857143 0.653666666667
-0.428571428571 -0.742857142857 -0.885714285714 0.611483333333
-0.428571428571 -0.742857142857 -0.428571428571 0.650916666667
-0.428571428571 -0.742857142857 0.257142857143 0.654233333333
-0.428571428571 -0.485714285714 -0.885714285714 0.643566666667
-0.428571428571 -0.485714285714 -0.428571428571 0.666666666667
-0.428571428571 -0.485714285714 0.257142857143 0.666666666667
-0.428571428571 -0.485714285714 -0.885714285714 0.615616666667
-0.428571428571 -0.485714285714 -0.428571428571 0.64945
-0.428571428571 -0.485714285714 0.257142857143 0.666666666667
-0.428571428571 -0.485714285714 -0.885714285714 0.646816666667
-0.428571428571 -0.485714285714 -0.428571428571 0.66315
-0.428571428571 -0.485714285714 0.257142857143 0.666666666667
-0.428571428571 -0.485714285714 -0.885714285714 0.6402
-0.428571428571 -0.485714285714 -0.428571428571 0.666666666667
-0.428571428571 -0.485714285714 0.257142857143 0.666666666667
-0.428571428571 0.114285714286 -0.885714285714 0.666666666667
-0.428571428571 0.114285714286 -0.428571428571 0.666666666667
-0.428571428571 0.114285714286 0.257142857143 0.666666666667
-0.428571428571 0.114285714286 -0.885714285714 0.657833333333
-0.428571428571 0.114285714286 -0.428571428571 0.666666666667
-0.428571428571 0.114285714286 0.257142857143 0.666666666667
-0.428571428571 0.114285714286 -0.885714285714 0.666666666667
-0.428571428571 0.114285714286 -0.428571428571 0.666666666667
-0.428571428571 0.114285714286 0.257142857143 0.666666666667
-0.428571428571 0.114285714286 -0.885714285714 0.666666666667
-0.428571428571 0.114285714286 -0.428571428571 0.666666666667
-0.428571428571 0.114285714286 0.257142857143 0.666666666667
-0.428571428571 -0.885714285714 -0.885714285714 0.401183333333
-0.428571428571 -0.885714285714 -0.428571428571 0.42115
-0.428571428571 -0.885714285714 0.257142857143 0.489866666667
-0.428571428571 -0.657142857143 -0.885714285714 0.617133333333
-0.428571428571 -0.657142857143 -0.428571428571 0.398033333333
-0.428571428571 -0.657142857143 0.257142857143 0.376733333333
-0.428571428571 -0.314285714286 -0.885714285714 0.625233333333
-0.428571428571 -0.314285714286 -0.428571428571 0.5391
-0.428571428571 -0.314285714286 0.257142857143 0.442433333333
-0.428571428571 -0.657142857143 -0.885714285714 0.396
-0.428571428571 -0.657142857143 -0.428571428571 0.440933333333
-0.428571428571 -0.657142857143 0.257142857143 0.4697
-0.428571428571 -0.428571428571 -0.885714285714 0.467683333333
-0.428571428571 -0.428571428571 -0.428571428571 0.35795
-0.428571428571 -0.428571428571 0.257142857143 0.465383333333
-0.428571428571 -0.0857142857143 -0.885714285714 0.501966666667
-0.428571428571 -0.0857142857143 -0.428571428571 0.510683333333
-0.428571428571 -0.0857142857143 0.257142857143 0.537816666667
-0.428571428571 -0.314285714286 -0.885714285714 0.53065
-0.428571428571 -0.314285714286 -0.428571428571 0.522566666667
-0.428571428571 -0.314285714286 0.257142857143 0.611833333333
-0.428571428571 -0.0857142857143 -0.885714285714 0.455583333333
-0.428571428571 -0.0857142857143 -0.428571428571 0.465433333333
-0.428571428571 -0.0857142857143 0.257142857143 0.666666666667
-0.428571428571 0.257142857143 -0.885714285714 0.6065
-0.428571428571 0.257142857143 -0.428571428571 0.330283333333
-0.428571428571 0.257142857143 0.257142857143 0.573516666667
-0.428571428571 -0.742857142857 -0.885714285714 0.3712
-0.428571428571 -0.742857142857 -0.428571428571 0.322633333333
-0.428571428571 -0.742857142857 0.257142857143 0.643083333333
-0.428571428571 -0.742857142857 -0.885714285714 0.364883333333
-0.428571428571 -0.742857142857 -0.428571428571 0.35915
-0.428571428571 -0.742857142857 0.257142857143 0.457333333333
-0.428571428571 -0.742857142857 -0.885714285714 0.499516666667
-0.428571428571 -0.742857142857 -0.428571428571 0.460633333333
-0.428571428571 -0.742857142857 0.257142857143 0.221183333333
-0.428571428571 -0.742857142857 -0.885714285714 0.586933333333
-0.428571428571 -0.742857142857 -0.428571428571 0.493633333333
-0.428571428571 -0.742857142857 0.257142857143 0.428783333333
-0.428571428571 -0.485714285714 -0.885714285714 0.554966666667
-0.428571428571 -0.485714285714 -0.428571428571 0.506533333333
-0.428571428571 -0.485714285714 0.257142857143 0.649633333333
-0.428571428571 -0.485714285714 -0.885714285714 0.604766666667
-0.428571428571 -0.485714285714 -0.428571428571 0.405033333333
-0.428571428571 -0.485714285714 0.257142857143 0.634183333333
-0.428571428571 -0.485714285714 -0.885714285714 0.473266666667
-0.428571428571 -0.485714285714 -0.428571428571 0.35435
-0.428571428571 -0.485714285714 0.257142857143 0.395066666667
-0.428571428571 -0.485714285714 -0.885714285714 0.3523
-0.428571428571 -0.485714285714 -0.428571428571 0.397133333333
-0.428571428571 -0.485714285714 0.257142857143 0.355766666667
-0.428571428571 0.114285714286 -0.885714285714 0.556016666667
-0.428571428571 0.114285714286 -0.428571428571 0.38515
-0.428571428571 0.114285714286 0.257142857143 0.666666666667
-0.428571428571 0.114285714286 -0.885714285714 0.3661
-0.428571428571 0.114285714286 -0.428571428571 0.36705
-0.428571428571 0.114285714286 0.257142857143 0.573166666667
-0.428571428571 0.114285714286 -0.885714285714 0.48535
-0.428571428571 0.114285714286 -0.428571428571 0.56225
-0.428571428571 0.114285714286 0.257142857143 0.666666666667
-0.428571428571 0.114285714286 -0.885714285714 0.378883333333
-0.428571428571 0.114285714286 -0.428571428571 0.4262
-0.428571428571 0.114285714286 0.257142857143 0.418433333333
0.257142857143 -0.885714285714 -0.885714285714 0.666666666667
0.257142857143 -0.885714285714 -0.428571428571 0.666666666667
0.257142857143 -0.885714285714 0.257142857143 0.666666666667
0.257142857143 -0.657142857143 -0.885714285714 0.608416666667
0.257142857143 -0.657142857143 -0.428571428571 0.666666666667
0.257142857143 -0.657142857143 0.257142857143 0.666666666667
0.257142857143 -0.314285714286 -0.885714285714 0.666666666667
0.257142857143 -0.314285714286 -0.428571428571 0.666666666667
0.257142857143 -0.314285714286 0.257142857143 0.666666666667
0.257142857143 -0.657142857143 -0.885714285714 0.666666666667
0.257142857143 -0.657142857143 -0.428571428571 0.666666666667
0.257142857143 -0.657142857143 0.257142857143 0.666666666667
0.257142857143 -0.428571428571 -0.885714285714 0.666666666667
0.257142857143 -0.428571428571 -0.428571428571 0.666666666667
0.257142857143 -0.428571428571 0.257142857143 0.665433333333
0.257142857143 -0.0857142857143 -0.885714285714 0.666666666667
0.257142857143 -0.0857142857143 -0.428571428571 0.666666666667
0.257142857143 -0.0857142857143 0.257142857143 0.666666666667
0.257142857143 -0.314285714286 -0.885714285714 0.666666666667
0.257142857143 -0.314285714286 -0.428571428571 0.666666666667
0.257142857143 -0.314285714286 0.257142857143 0.666666666667
0.257142857143 -0.0857142857143 -0.885714285714 0.666666666667
0.257142857143 -0.0857142857143 -0.428571428571 0.666666666667
0.257142857143 -0.0857142857143 0.257142857143 0.666666666667
0.257142857143 0.257142857143 -0.885714285714 0.666666666667
0.257142857143 0.257142857143 -0.428571428571 0.666666666667
0.257142857143 0.257142857143 0.257142857143 0.666666666667
0.257142857143 -0.742857142857 -0.885714285714 0.666666666667
0.257142857143 -0.742857142857 -0.428571428571 0.666666666667
0.257142857143 -0.742857142857 0.257142857143 0.666666666667
0.257142857143 -0.742857142857 -0.885714285714 0.610333333333
0.257142857143 -0.742857142857 -0.428571428571 0.666666666667
0.257142857143 -0.742857142857 0.257142857143 0.632866666667
0.257142857143 -0.742857142857 -0.885714285714 0.666666666667
0.257142857143 -0.742857142857 -0.428571428571 0.6642
0.257142857143 -0.742857142857 0.257142857143 0.666666666667
0.257142857143 -0.742857142857 -0.885714285714 0.662933333333
0.257142857143 -0.742857142857 -0.428571428571 0.664866666667
0.257142857143 -0.742857142857 0.257142857143 0.666666666667
0.257142857143 -0.485714285714 -0.885714285714 0.666666666667
0.257142857143 -0.485714285714 -0.428571428571 0.666666666667
0.257142857143 -0.485714285714 0.257142857143 0.620383333333
0.257142857143 -0.485714285714 -0.885714285714 0.620066666667
0.257142857143 -0.485714285714 -0.428571428571 0.666666666667
0.257142857143 -0.485714285714 0.257142857143 0.666666666667
0.257142857143 -0.485714285714 -0.885714285714 0.666666666667
0.257142857143 -0.485714285714 -0.428571428571 0.666666666667
0.257142857143 -0.485714285714 0.257142857143 0.666666666667
0.257142857143 -0.485714285714 -0.885714285714 0.666666666667
0.257142857143 -0.485714285714 -0.428571428571 0.666666666667
0.257142857143 -0.485714285714 0.257142857143 0.666666666667
0.257142857143 0.114285714286 -0.885714285714 0.666666666667
0.257142857143 0.114285714286 -0.428571428571 0.666666666667
0.257142857143 0.114285714286 0.257142857143 0.666666666667
0.257142857143 0.114285714286 -0.885714285714 0.666666666667
0.257142857143 0.114285714286 -0.428571428571 0.666666666667
0.257142857143 0.114285714286 0.257142857143 0.666666666667
0.257142857143 0.114285714286 -0.885714285714 0.666666666667
0.257142857143 0.114285714286 -0.428571428571 0.666666666667
0.257142857143 0.114285714286 0.257142857143 0.666666666667
0.257142857143 0.114285714286 -0.885714285714 0.666666666667
0.257142857143 0.114285714286 -0.428571428571 0.666666666667
0.257142857143 0.114285714286 0.257142857143 0.666666666667
0.257142857143 -0.885714285714 -0.885714285714 0.666666666667
0.257142857143 -0.885714285714 -0.428571428571 0.666666666667
0.257142857143 -0.885714285714 0.257142857143 0.666666666667
0.257142857143 -0.657142857143 -0.885714285714 0.666666666667
0.257142857143 -0.657142857143 -0.428571428571 0.666666666667
0.257142857143 -0.657142857143 0.257142857143 0.666666666667
0.257142857143 -0.314285714286 -0.885714285714 0.666666666667
0.257142857143 -0.314285714286 -0.428571428571 0.666666666667
0.257142857143 -0.314285714286 0.257142857143 0.666666666667
0.257142857143 -0.657142857143 -0.885714285714 0.666666666667
0.257142857143 -0.657142857143 -0.428571428571 0.666666666667
0.257142857143 -0.657142857143 0.257142857143 0.666666666667
0.257142857143 -0.428571428571 -0.885714285714 0.666666666667
0.257142857143 -0.428571428571 -0.428571428571 0.666666666667
0.257142857143 -0.428571428571 0.257142857143 0.666666666667
0.257142857143 -0.0857142857143 -0.885714285714 0.666666666667
0.257142857143 -0.0857142857143 -0.428571428571 0.666666666667
0.257142857143 -0.0857142857143 0.257142857143 0.666666666667
0.257142857143 -0.314285714286 -0.885714285714 0.666666666667
0.257142857143 -0.314285714286 -0.428571428571 0.666666666667
0.257142857143 -0.314285714286 0.257142857143 0.563733333333
0.257142857143 -0.0857142857143 -0.885714285714 0.651333333333
0.257142857143 -0.0857142857143 -0.428571428571 0.666666666667
0.257142857143 -0.0857142857143 0.257142857143 0.666666666667
0.257142857143 0.257142857143 -0.885714285714 0.666666666667
0.257142857143 0.257142857143 -0.428571428571 0.666666666667
0.257142857143 0.257142857143 0.257142857143 0.666666666667
0.257142857143 -0.742857142857 -0.885714285714 0.666666666667
0.257142857143 -0.742857142857 -0.428571428571 0.666666666667
0.257142857143 -0.742857142857 0.257142857143 0.666666666667
0.257142857143 -0.742857142857 -0.885714285714 0.666666666667
0.257142857143 -0.742857142857 -0.428571428571 0.666666666667
0.257142857143 -0.742857142857 0.257142857143 0.666666666667
0.257142857143 -0.742857142857 -0.885714285714 0.666666666667
0.257142857143 -0.742857142857 -0.428571428571 0.666666666667
0.257142857143 -0.742857142857 0.257142857143 0.666666666667
0.257142857143 -0.742857142857 -0.885714285714 0.666666666667
0.257142857143 -0.742857142857 -0.428571428571 0.666666666667
0.257142857143 -0.742857142857 0.257142857143 0.666666666667
0.257142857143 -0.485714285714 -0.885714285714 0.666666666667
0.257142857143 -0.485714285714 -0.428571428571 0.666666666667
0.257142857143 -0.485714285714 0.257142857143 0.666666666667
0.257142857143 -0.485714285714 -0.885714285714 0.666666666667
0.257142857143 -0.485714285714 -0.428571428571 0.666666666667
0.257142857143 -0.485714285714 0.257142857143 0.666666666667
0.257142857143 -0.485714285714 -0.885714285714 0.666666666667
0.257142857143 -0.485714285714 -0.428571428571 0.666666666667
0.257142857143 -0.485714285714 0.257142857143 0.666666666667
0.257142857143 -0.485714285714 -0.885714285714 0.666666666667
0.257142857143 -0.485714285714 -0.428571428571 0.666666666667
0.257142857143 -0.485714285714 0.257142857143 0.666666666667
0.257142857143 0.114285714286 -0.885714285714 0.666666666667
0.257142857143 0.114285714286 -0.428571428571 0.666666666667
0.257142857143 0.114285714286 0.257142857143 0.666666666667
0.257142857143 0.114285714286 -0.885714285714 0.666666666667
0.257142857143 0.114285714286 -0.428571428571 0.666666666667
0.257142857143 0.114285714286 0.257142857143 0.666666666667
0.257142857143 0.114285714286 -0.885714285714 0.666666666667
0.257142857143 0.114285714286 -0.428571428571 0.666666666667
0.257142857143 0.114285714286 0.257142857143 0.666666666667
0.257142857143 0.114285714286 -0.885714285714 0.666666666667
0.257142857143 0.114285714286 -0.428571428571 0.666666666667
0.257142857143 0.114285714286 0.257142857143 0.666666666667
0.257142857143 -0.885714285714 -0.885714285714 0.666666666667
0.257142857143 -0.885714285714 -0.428571428571 0.666666666667
0.257142857143 -0.885714285714 0.257142857143 0.666666666667
0.257142857143 -0.657142857143 -0.885714285714 0.666666666667
0.257142857143 -0.657142857143 -0.428571428571 0.666666666667
0.257142857143 -0.657142857143 0.257142857143 0.666666666667
0.257142857143 -0.314285714286 -0.885714285714 0.666666666667
0.257142857143 -0.314285714286 -0.428571428571 0.666666666667
0.257142857143 -0.314285714286 0.257142857143 0.666666666667
0.257142857143 -0.657142857143 -0.885714285714 0.666666666667
0.257142857143 -0.657142857143 -0.428571428571 0.666666666667
0.257142857143 -0.657142857143 0.257142857143 0.666666666667
0.257142857143 -0.428571428571 -0.885714285714 0.666666666667
0.257142857143 -0.428571428571 -0.428571428571 0.666666666667
0.257142857143 -0.428571428571 0.257142857143 0.666666666667
0.257142857143 -0.0857142857143 -0.885714285714 0.666666666667
0.257142857143 -0.0857142857143 -0.428571428571 0.666666666667
0.257142857143 -0.0857142857143 0.257142857143 0.666666666667
0.257142857143 -0.314285714286 -0.885714285714 0.666666666667
0.257142857143 -0.314285714286 -0.428571428571 0.666666666667
0.257142857143 -0.314285714286 0.257142857143 0.666666666667
0.257142857143 -0.0857142857143 -0.885714285714 0.666666666667
0.257142857143 -0.0857142857143 -0.428571428571 0.666666666667
0.257142857143 -0.0857142857143 0.257142857143 0.666666666667
0.257142857143 0.257142857143 -0.885714285714 0.666666666667
0.257142857143 0.257142857143 -0.428571428571 0.666666666667
0.257142857143 0.257142857143 0.257142857143 0.666666666667
0.257142857143 -0.742857142857 -0.885714285714 0.666666666667
0.257142857143 -0.742857142857 -0.428571428571 0.666666666667
0.257142857143 -0.742857142857 0.257142857143 0.666666666667
0.257142857143 -0.742857142857 -0.885714285714 0.666666666667
0.257142857143 -0.742857142857 -0.428571428571 0.666666666667
0.257142857143 -0.742857142857 0.257142857143 0.666666666667
0.257142857143 -0.742857142857 -0.885714285714 0.666666666667
0.257142857143 -0.742857142857 -0.428571428571 0.666666666667
0.257142857143 -0.742857142857 0.257142857143 0.666666666667
0.257142857143 -0.742857142857 -0.885714285714 0.666666666667
0.257142857143 -0.742857142857 -0.428571428571 0.666666666667
0.257142857143 -0.742857142857 0.257142857143 0.666666666667
0.257142857143 -0.485714285714 -0.885714285714 0.666666666667
0.257142857143 -0.485714285714 -0.428571428571 0.666666666667
0.257142857143 -0.485714285714 0.257142857143 0.666666666667
0.257142857143 -0.485714285714 -0.885714285714 0.666666666667
0.257142857143 -0.485714285714 -0.428571428571 0.666666666667
0.257142857143 -0.485714285714 0.257142857143 0.666666666667
0.257142857143 -0.485714285714 -0.885714285714 0.666666666667
0.257142857143 -0.485714285714 -0.428571428571 0.666666666667
0.257142857143 -0.485714285714 0.257142857143 0.666666666667
0.257142857143 -0.485714285714 -0.885714285714 0.666666666667
0.257142857143 -0.485714285714 -0.428571428571 0.666666666667
0.257142857143 -0.485714285714 0.257142857143 0.666666666667
0.257142857143 0.114285714286 -0.885714285714 0.666666666667
0.257142857143 0.114285714286 -0.428571428571 0.666666666667
0.257142857143 0.114285714286 0.257142857143 0.666666666667
0.257142857143 0.114285714286 -0.885714285714 0.666666666667
0.257142857143 0.114285714286 -0.428571428571 0.666666666667
0.257142857143 0.114285714286 0.257142857143 0.666666666667
0.257142857143 0.114285714286 -0.885714285714 0.666666666667
0.257142857143 0.114285714286 -0.428571428571 0.666666666667
0.257142857143 0.114285714286 0.257142857143 0.666666666667
0.257142857143 0.114285714286 -0.885714285714 0.666666666667
0.257142857143 0.114285714286 -0.428571428571 0.666666666667
0.257142857143 0.114285714286 0.257142857143 0.666666666667
0.257142857143 -0.885714285714 -0.885714285714 0.666666666667
0.257142857143 -0.885714285714 -0.428571428571 0.666666666667
0.257142857143 -0.885714285714 0.257142857143 0.666666666667
0.257142857143 -0.657142857143 -0.885714285714 0.664833333333
0.257142857143 -0.657142857143 -0.428571428571 0.666666666667
0.257142857143 -0.657142857143 0.257142857143 0.666666666667
0.257142857143 -0.314285714286 -0.885714285714 0.666666666667
0.257142857143 -0.314285714286 -0.428571428571 0.533033333333
0.257142857143 -0.314285714286 0.257142857143 0.666666666667
0.257142857143 -0.657142857143 -0.885714285714 0.639483333333
0.257142857143 -0.657142857143 -0.428571428571 0.5811
0.257142857143 -0.657142857143 0.257142857143 0.666666666667
0.257142857143 -0.428571428571 -0.885714285714 0.666666666667
0.257142857143 -0.428571428571 -0.428571428571 0.666666666667
0.257142857143 -0.428571428571 0.257142857143 0.542666666667
0.257142857143 -0.0857142857143 -0.885714285714 0.666666666667
0.257142857143 -0.0857142857143 -0.428571428571 0.666666666667
0.257142857143 -0.0857142857143 0.257142857143 0.666666666667
0.257142857143 -0.314285714286 -0.885714285714 0.666666666667
0.257142857143 -0.314285714286 -0.428571428571 0.666666666667
0.257142857143 -0.314285714286 0.257142857143 0.666666666667
0.257142857143 -0.0857142857143 -0.885714285714 0.666666666667
0.257142857143 -0.0857142857143 -0.428571428571 0.666666666667
0.257142857143 -0.0857142857143 0.257142857143 0.666666666667
0.257142857143 0.257142857143 -0.885714285714 0.666666666667
0.257142857143 0.257142857143 -0.428571428571 0.666666666667
0.257142857143 0.257142857143 0.257142857143 0.666666666667
0.257142857143 -0.742857142857 -0.885714285714 0.666666666667
0.257142857143 -0.742857142857 -0.428571428571 0.666666666667
0.257142857143 -0.742857142857 0.257142857143 0.515933333333
0.257142857143 -0.742857142857 -0.885714285714 0.666666666667
0.257142857143 -0.742857142857 -0.428571428571 0.666666666667
0.257142857143 -0.742857142857 0.257142857143 0.587983333333
0.257142857143 -0.742857142857 -0.885714285714 0.5744
0.257142857143 -0.742857142857 -0.428571428571 0.666666666667
0.257142857143 -0.742857142857 0.257142857143 0.618966666667
0.257142857143 -0.742857142857 -0.885714285714 0.666666666667
0.257142857143 -0.742857142857 -0.428571428571 0.666666666667
0.257142857143 -0.742857142857 0.257142857143 0.56675
0.257142857143 -0.485714285714 -0.885714285714 0.666666666667
0.257142857143 -0.485714285714 -0.428571428571 0.666666666667
0.257142857143 -0.485714285714 0.257142857143 0.666666666667
0.257142857143 -0.485714285714 -0.885714285714 0.666666666667
0.257142857143 -0.485714285714 -0.428571428571 0.666666666667
0.257142857143 -0.485714285714 0.257142857143 0.666666666667
0.257142857143 -0.485714285714 -0.885714285714 0.666666666667
0.257142857143 -0.485714285714 -0.428571428571 0.52045
0.257142857143 -0.485714285714 0.257142857143 0.4642
0.257142857143 -0.485714285714 -0.885714285714 0.666666666667
0.257142857143 -0.485714285714 -0.428571428571 0.666666666667
0.257142857143 -0.485714285714 0.257142857143 0.666666666667
0.257142857143 0.114285714286 -0.885714285714 0.666666666667
0.257142857143 0.114285714286 -0.428571428571 0.666666666667
0.257142857143 0.114285714286 0.257142857143 0.666666666667
0.257142857143 0.114285714286 -0.885714285714 0.666666666667
0.257142857143 0.114285714286 -0.428571428571 0.547766666667
0.257142857143 0.114285714286 0.257142857143 0.539316666667
0.257142857143 0.114285714286 -0.885714285714 0.666666666667
0.257142857143 0.114285714286 -0.428571428571 0.5713
0.257142857143 0.114285714286 0.257142857143 0.666666666667
0.257142857143 0.114285714286 -0.885714285714 0.666666666667
0.257142857143 0.114285714286 -0.428571428571 0.666666666667
0.257142857143 0.114285714286 0.257142857143 0.666666666667
