648 4
17.5 17.5 17.5 0.6
17.5 17.5 17.5 0.6
-0.885714285714 -0.885714285714 -0.885714285714 0.56565
-0.885714285714 -0.885714285714 -0.428571428571 0.580983333333
-0.885714285714 -0.885714285714 0.257142857143 0.643866666667
-0.885714285714 -0.702857142857 -0.885714285714 0.48895
-0.885714285714 -0.702857142857 -0.428571428571 0.63445
-0.885714285714 -0.702857142857 0.257142857143 0.666666666667
-0.885714285714 -0.428571428571 -0.885714285714 0.575866666667
-0.885714285714 -0.428571428571 -0.428571428571 0.666666666667
-0.885714285714 -0.428571428571 0.257142857143 0.666666666667
-0.885714285714 -0.611428571429 -0.885714285714 0.536633333333
-0.885714285714 -0.611428571429 -0.428571428571 0.645783333333
-0.885714285714 -0.611428571429 0.257142857143 0.641316666667
-0.885714285714 -0.428571428571 -0.885714285714 0.590883333333
-0.885714285714 -0.428571428571 -0.428571428571 0.666666666667
-0.885714285714 -0.428571428571 0.257142857143 0.666666666667
-0.885714285714 -0.154285714286 -0.885714285714 0.656316666667
-0.885714285714 -0.154285714286 -0.428571428571 0.666666666667
-0.885714285714 -0.154285714286 0.257142857143 0.666666666667
-0.885714285714 -0.2 -0.885714285714 0.579233333333
-0.885714285714 -0.2 -0.428571428571 0.627616666667
-0.885714285714 -0.2 0.257142857143 0.666666666667
-0.885714285714 -0.0171428571429 -0.885714285714 0.618416666667
-0.885714285714 -0.0171428571429 -0.428571428571 0.666666666667
-0.885714285714 -0.0171428571429 0.257142857143 0.666666666667
-0.885714285714 0.257142857143 -0.885714285714 0.585216666667
-0.885714285714 0.257142857143 -0.428571428571 0.666666666667
-0.885714285714 0.257142857143 0.257142857143 0.666666666667
-0.885714285714 -0.657142857143 -0.885714285714 0.480966666667
-0.885714285714 -0.657142857143 -0.428571428571 0.666666666667
-0.885714285714 -0.657142857143 0.257142857143 0.598833333333
-0.885714285714 -0.657142857143 -0.885714285714 0.477166666667
-0.885714285714 -0.657142857143 -0.428571428571 0.637383333333
-0.885714285714 -0.657142857143 0.257142857143 0.6108
-0.885714285714 -0.657142857143 -0.885714285714 0.49855
-0.885714285714 -0.657142857143 -0.428571428571 0.639733333333
-0.885714285714 -0.657142857143 0.257142857143 0.658583333333
-0.885714285714 -0.52 -0.885714285714 0.649166666667
-0.885714285714 -0.52 -0.428571428571 0.666666666667
-0.885714285714 -0.52 0.257142857143 0.666666666667
-0.885714285714 -0.52 -0.885714285714 0.6272
-0.885714285714 -0.52 -0.428571428571 0.666666666667
-0.885714285714 -0.52 0.257142857143 0.666666666667
-0.885714285714 -0.52 -0.885714285714 0.572066666667
-0.885714285714 -0.52 -0.428571428571 0.62085
-0.885714285714 -0.52 0.257142857143 0.65145
-0.885714285714 0.0285714285714 -0.885714285714 0.620166666667
-0.885714285714 0.0285714285714 -0.428571428571 0.666666666667
-0.885714285714 0.0285714285714 0.257142857143 0.666666666667
-0.885714285714 0.0285714285714 -0.885714285714 0.606816666667
-0.885714285714 0.0285714285714 -0.428571428571 0.666666666667
-0.885714285714 0.0285714285714 0.257142857143 0.666666666667
-0.885714285714 0.0285714285714 -0.885714285714 0.564816666667
-0.885714285714 0.0285714285714 -0.428571428571 0.622133333333
-0.885714285714 0.0285714285714 0.257142857143 0.666666666667
-0.885714285714 -0.885714285714 -0.885714285714 0.58195
-0.885714285714 -0.885714285714 -0.428571428571 0.571766666667
-0.885714285714 -0.885714285714 0.257142857143 0.583933333333
-0.885714285714 -0.702857142857 -0.885714285714 0.592366666667
-0.885714285714 -0.702857142857 -0.428571428571 0.626683333333
-0.885714285714 -0.702857142857 0.257142857143 0.666666666667
-0.885714285714 -0.428571428571 -0.885714285714 0.615933333333
-0.885714285714 -0.428571428571 -0.428571428571 0.666666666667
-0.885714285714 -0.428571428571 0.257142857143 0.6531
-0.885714285714 -0.611428571429 -0.885714285714 0.481833333333
-0.885714285714 -0.611428571429 -0.428571428571 0.58355
-0.885714285714 -0.611428571429 0.257142857143 0.666666666667
-0.885714285714 -0.428571428571 -0.885714285714 0.612783333333
-0.885714285714 -0.428571428571 -0.428571428571 0.63865
-0.885714285714 -0.428571428571 0.257142857143 0.666666666667
-0.885714285714 -0.154285714286 -0.885714285714 0.52895
-0.885714285714 -0.154285714286 -0.428571428571 0.666666666667
-0.885714285714 -0.154285714286 0.257142857143 0.666666666667
-0.885714285714 -0.2 -0.885714285714 0.523983333333
-0.885714285714 -0.2 -0.428571428571 0.55035
-0.885714285714 -0.2 0.257142857143 0.666666666667
-0.885714285714 -0.0171428571429 -0.885714285714 0.601466666667
-0.885714285714 -0.0171428571429 -0.428571428571 0.64595
-0.885714285714 -0.0171428571429 0.257142857143 0.666666666667
-0.885714285714 0.257142857143 -0.885714285714 0.646833333333
-0.885714285714 0.257142857143 -0.428571428571 0.666666666667
-0.885714285714 0.257142857143 0.257142857143 0.666666666667
-0.885714285714 -0.657142857143 -0.885714285714 0.562966666667
-0.885714285714 -0.657142857143 -0.428571428571 0.55875
-0.885714285714 -0.657142857143 0.257142857143 0.625333333333
-0.885714285714 -0.657142857143 -0.885714285714 0.483983333333
-0.885714285714 -0.657142857143 -0.428571428571 0.644783333333
-0.885714285714 -0.657142857143 0.257142857143 0.624766666667
-0.885714285714 -0.657142857143 -0.885714285714 0.487683333333
-0.885714285714 -0.657142857143 -0.428571428571 0.61505
-0.885714285714 -0.657142857143 0.257142857143 0.626233333333
-0.885714285714 -0.52 -0.885714285714 0.5607
-0.885714285714 -0.52 -0.428571428571 0.666666666667
-0.885714285714 -0.52 0.257142857143 0.666666666667
-0.885714285714 -0.52 -0.885714285714 0.593666666667
-0.885714285714 -0.52 -0.428571428571 0.623716666667
-0.885714285714 -0.52 0.257142857143 0.666666666667
-0.885714285714 -0.52 -0.885714285714 0.5756
-0.885714285714 -0.52 -0.428571428571 0.6065
-0.885714285714 -0.52 0.257142857143 0.666666666667
-0.885714285714 0.0285714285714 -0.885714285714 0.599183333333
-0.885714285714 0.0285714285714 -0.428571428571 0.666666666667
-0.885714285714 0.0285714285714 0.257142857143 0.666666666667
-0.885714285714 0.0285714285714 -0.885714285714 0.632083333333
-0.885714285714 0.0285714285714 -0.428571428571 0.6571
-0.885714285714 0.0285714285714 0.257142857143 0.666666666667
-0.885714285714 0.0285714285714 -0.885714285714 0.572416666667
-0.885714285714 0.0285714285714 -0.428571428571 0.607666666667
-0.885714285714 0.0285714285714 0.257142857143 0.666666666667
-0.885714285714 -0.885714285714 -0.885714285714 0.651783333333
-0.885714285714 -0.885714285714 -0.428571428571 0.666666666667
-0.885714285714 -0.885714285714 0.257142857143 0.666666666667
-0.885714285714 -0.702857142857 -0.885714285714 0.666666666667
-0.885714285714 -0.702857142857 -0.428571428571 0.666666666667
-0.885714285714 -0.702857142857 0.257142857143 0.666666666667
-0.885714285714 -0.428571428571 -0.885714285714 0.666666666667
-0.885714285714 -0.428571428571 -0.428571428571 0.666666666667
-0.885714285714 -0.428571428571 0.257142857143 0.666666666667
-0.885714285714 -0.611428571429 -0.885714285714 0.666666666667
-0.885714285714 -0.611428571429 -0.428571428571 0.666666666667
-0.885714285714 -0.611428571429 0.257142857143 0.666666666667
-0.885714285714 -0.428571428571 -0.885714285714 0.666666666667
-0.885714285714 -0.428571428571 -0.428571428571 0.666666666667
-0.885714285714 -0.428571428571 0.257142857143 0.666666666667
-0.885714285714 -0.154285714286 -0.885714285714 0.666666666667
-0.885714285714 -0.154285714286 -0.428571428571 0.666666666667
-0.885714285714 -0.154285714286 0.257142857143 0.666666666667
-0.885714285714 -0.2 -0.885714285714 0.666666666667
-0.885714285714 -0.2 -0.428571428571 0.666666666667
-0.885714285714 -0.2 0.257142857143 0.666666666667
-0.885714285714 -0.0171428571429 -0.885714285714 0.666666666667
-0.885714285714 -0.0171428571429 -0.428571428571 0.666666666667
-0.885714285714 -0.0171428571429 0.257142857143 0.666666666667
-0.885714285714 0.257142857143 -0.885714285714 0.666666666667
-0.885714285714 0.257142857143 -0.428571428571 0.666666666667
-0.885714285714 0.257142857143 0.257142857143 0.666666666667
-0.885714285714 -0.657142857143 -0.885714285714 0.666666666667
-0.885714285714 -0.657142857143 -0.428571428571 0.666666666667
-0.885714285714 -0.657142857143 0.257142857143 0.666666666667
-0.885714285714 -0.657142857143 -0.885714285714 0.576983333333
-0.885714285714 -0.657142857143 -0.428571428571 0.666666666667
-0.885714285714 -0.657142857143 0.257142857143 0.666666666667
-0.885714285714 -0.657142857143 -0.885714285714 0.666666666667
-0.885714285714 -0.657142857143 -0.428571428571 0.666666666667
-0.885714285714 -0.657142857143 0.257142857143 0.666666666667
-0.885714285714 -0.52 -0.885714285714 0.666666666667
-0.885714285714 -0.52 -0.428571428571 0.666666666667
-0.885714285714 -0.52 0.257142857143 0.666666666667
-0.885714285714 -0.52 -0.885714285714 0.666666666667
-0.885714285714 -0.52 -0.428571428571 0.666666666667
-0.885714285714 -0.52 0.257142857143 0.666666666667
-0.885714285714 -0.52 -0.885714285714 0.666666666667
-0.885714285714 -0.52 -0.428571428571 0.666666666667
-0.885714285714 -0.52 0.257142857143 0.666666666667
-0.885714285714 0.0285714285714 -0.885714285714 0.666666666667
-0.885714285714 0.0285714285714 -0.428571428571 0.666666666667
-0.885714285714 0.0285714285714 0.257142857143 0.666666666667
-0.885714285714 0.0285714285714 -0.885714285714 0.666666666667
-0.885714285714 0.0285714285714 -0.428571428571 0.666666666667
-0.885714285714 0.0285714285714 0.257142857143 0.666666666667
-0.885714285714 0.0285714285714 -0.885714285714 0.666666666667
-0.885714285714 0.0285714285714 -0.428571428571 0.666666666667
-0.885714285714 0.0285714285714 0.257142857143 0.666666666667
-0.885714285714 -0.885714285714 -0.885714285714 0.542033333333
-0.885714285714 -0.885714285714 -0.428571428571 0.574216666667
-0.885714285714 -0.885714285714 0.257142857143 0.618583333333
-0.885714285714 -0.702857142857 -0.885714285714 0.412
-0.885714285714 -0.702857142857 -0.428571428571 0.605516666667
-0.885714285714 -0.702857142857 0.257142857143 0.625916666667
-0.885714285714 -0.428571428571 -0.885714285714 0.611933333333
-0.885714285714 -0.428571428571 -0.428571428571 0.592416666667
-0.885714285714 -0.428571428571 0.257142857143 0.663633333333
-0.885714285714 -0.611428571429 -0.885714285714 0.5232
-0.885714285714 -0.611428571429 -0.428571428571 0.60505
-0.885714285714 -0.611428571429 0.257142857143 0.644966666667
-0.885714285714 -0.428571428571 -0.885714285714 0.59145
-0.885714285714 -0.428571428571 -0.428571428571 0.527483333333
-0.885714285714 -0.428571428571 0.257142857143 0.666666666667
-0.885714285714 -0.154285714286 -0.885714285714 0.622516666667
-0.885714285714 -0.154285714286 -0.428571428571 0.666666666667
-0.885714285714 -0.154285714286 0.257142857143 0.666666666667
-0.885714285714 -0.2 -0.885714285714 0.572583333333
-0.885714285714 -0.2 -0.428571428571 0.646166666667
-0.885714285714 -0.2 0.257142857143 0.619666666667
-0.885714285714 -0.0171428571429 -0.885714285714 0.619133333333
-0.885714285714 -0.0171428571429 -0.428571428571 0.666666666667
-0.885714285714 -0.0171428571429 0.257142857143 0.666666666667
-0.885714285714 0.257142857143 -0.885714285714 0.609766666667
-0.885714285714 0.257142857143 -0.428571428571 0.666666666667
-0.885714285714 0.257142857143 0.257142857143 0.666666666667
-0.885714285714 -0.657142857143 -0.885714285714 0.562966666667
-0.885714285714 -0.657142857143 -0.428571428571 0.481916666667
-0.885714285714 -0.657142857143 0.257142857143 0.58385
-0.885714285714 -0.657142857143 -0.885714285714 0.422666666667
-0.885714285714 -0.657142857143 -0.428571428571 0.580583333333
-0.885714285714 -0.657142857143 0.257142857143 0.606033333333
-0.885714285714 -0.657142857143 -0.885714285714 0.519583333333
-0.885714285714 -0.657142857143 -0.428571428571 0.639883333333
-0.885714285714 -0.657142857143 0.257142857143 0.640383333333
-0.885714285714 -0.52 -0.885714285714 0.540033333333
-0.885714285714 -0.52 -0.428571428571 0.656983333333
-0.885714285714 -0.52 0.257142857143 0.666666666667
-0.885714285714 -0.52 -0.885714285714 0.666666666667
-0.885714285714 -0.52 -0.428571428571 0.666666666667
-0.885714285714 -0.52 0.257142857143 0.666666666667
-0.885714285714 -0.52 -0.885714285714 0.566383333333
-0.885714285714 -0.52 -0.428571428571 0.55145
-0.885714285714 -0.52 0.257142857143 0.603216666667
-0.885714285714 0.0285714285714 -0.885714285714 0.515616666667
-0.885714285714 0.0285714285714 -0.428571428571 0.666666666667
-0.885714285714 0.0285714285714 0.257142857143 0.666666666667
-0.885714285714 0.0285714285714 -0.885714285714 0.666666666667
-0.885714285714 0.0285714285714 -0.428571428571 0.666666666667
-0.885714285714 0.0285714285714 0.257142857143 0.666666666667
-0.885714285714 0.0285714285714 -0.885714285714 0.5494
-0.885714285714 0.0285714285714 -0.428571428571 0.643533333333
-0.885714285714 0.0285714285714 0.257142857143 0.666666666667
-0.428571428571 -0.885714285714 -0.885714285714 0.666666666667
-0.428571428571 -0.885714285714 -0.428571428571 0.666666666667
-0.428571428571 -0.885714285714 0.257142857143 0.666666666667
-0.428571428571 -0.702857142857 -0.885714285714 0.666666666667
-0.428571428571 -0.702857142857 -0.428571428571 0.666666666667
-0.428571428571 -0.702857142857 0.257142857143 0.666666666667
-0.428571428571 -0.428571428571 -0.885714285714 0.666666666667
-0.428571428571 -0.428571428571 -0.428571428571 0.666666666667
-0.428571428571 -0.428571428571 0.257142857143 0.666666666667
-0.428571428571 -0.611428571429 -0.885714285714 0.666666666667
-0.428571428571 -0.611428571429 -0.428571428571 0.666666666667
-0.428571428571 -0.611428571429 0.257142857143 0.666666666667
-0.428571428571 -0.428571428571 -0.885714285714 0.666666666667
-0.428571428571 -0.428571428571 -0.428571428571 0.666666666667
-0.428571428571 -0.428571428571 0.257142857143 0.666666666667
-0.428571428571 -0.154285714286 -0.885714285714 0.666666666667
-0.428571428571 -0.154285714286 -0.428571428571 0.666666666667
-0.428571428571 -0.154285714286 0.257142857143 0.666666666667
-0.428571428571 -0.2 -0.885714285714 0.666666666667
-0.428571428571 -0.2 -0.428571428571 0.666666666667
-0.428571428571 -0.2 0.257142857143 0.666666666667
-0.428571428571 -0.0171428571429 -0.885714285714 0.666666666667
-0.428571428571 -0.0171428571429 -0.428571428571 0.666666666667
-0.428571428571 -0.0171428571429 0.257142857143 0.666666666667
-0.428571428571 0.257142857143 -0.885714285714 0.666666666667
-0.428571428571 0.257142857143 -0.428571428571 0.666666666667
-0.428571428571 0.257142857143 0.257142857143 0.666666666667
-0.428571428571 -0.657142857143 -0.885714285714 0.666666666667
-0.428571428571 -0.657142857143 -0.428571428571 0.666666666667
-0.428571428571 -0.657142857143 0.257142857143 0.666666666667
-0.428571428571 -0.657142857143 -0.885714285714 0.666666666667
-0.428571428571 -0.657142857143 -0.428571428571 0.666666666667
-0.428571428571 -0.657142857143 0.257142857143 0.666666666667
-0.428571428571 -0.657142857143 -0.885714285714 0.666666666667
-0.428571428571 -0.657142857143 -0.428571428571 0.666666666667
-0.428571428571 -0.657142857143 0.257142857143 0.666666666667
-0.428571428571 -0.52 -0.885714285714 0.666666666667
-0.428571428571 -0.52 -0.428571428571 0.666666666667
-0.428571428571 -0.52 0.257142857143 0.666666666667
-0.428571428571 -0.52 -0.885714285714 0.666666666667
-0.428571428571 -0.52 -0.428571428571 0.666666666667
-0.428571428571 -0.52 0.257142857143 0.666666666667
-0.428571428571 -0.52 -0.885714285714 0.666666666667
-0.428571428571 -0.52 -0.428571428571 0.666666666667
-0.428571428571 -0.52 0.257142857143 0.666666666667
-0.428571428571 0.0285714285714 -0.885714285714 0.666666666667
-0.428571428571 0.0285714285714 -0.428571428571 0.666666666667
-0.428571428571 0.0285714285714 0.257142857143 0.666666666667
-0.428571428571 0.0285714285714 -0.885714285714 0.666666666667
-0.428571428571 0.0285714285714 -0.428571428571 0.666666666667
-0.428571428571 0.0285714285714 0.257142857143 0.666666666667
-0.428571428571 0.0285714285714 -0.885714285714 0.666666666667
-0.428571428571 0.0285714285714 -0.428571428571 0.666666666667
-0.428571428571 0.0285714285714 0.257142857143 0.666666666667
-0.428571428571 -0.885714285714 -0.885714285714 0.666666666667
-0.428571428571 -0.885714285714 -0.428571428571 0.666666666667
-0.428571428571 -0.885714285714 0.257142857143 0.666666666667
-0.428571428571 -0.702857142857 -0.885714285714 0.666666666667
-0.428571428571 -0.702857142857 -0.428571428571 0.666666666667
-0.428571428571 -0.702857142857 0.257142857143 0.666666666667
-0.428571428571 -0.428571428571 -0.885714285714 0.666666666667
-0.428571428571 -0.428571428571 -0.428571428571 0.666666666667
-0.428571428571 -0.428571428571 0.257142857143 0.666666666667
-0.428571428571 -0.611428571429 -0.885714285714 0.666666666667
-0.428571428571 -0.611428571429 -0.428571428571 0.666666666667
-0.428571428571 -0.611428571429 0.257142857143 0.666666666667
-0.428571428571 -0.428571428571 -0.885714285714 0.666666666667
-0.428571428571 -0.428571428571 -0.428571428571 0.666666666667
-0.428571428571 -0.428571428571 0.257142857143 0.666666666667
-0.428571428571 -0.154285714286 -0.885714285714 0.666666666667
-0.428571428571 -0.154285714286 -0.428571428571 0.666666666667
-0.428571428571 -0.154285714286 0.257142857143 0.666666666667
-0.428571428571 -0.2 -0.885714285714 0.666666666667
-0.428571428571 -0.2 -0.428571428571 0.666666666667
-0.428571428571 -0.2 0.257142857143 0.666666666667
-0.428571428571 -0.0171428571429 -0.885714285714 0.666666666667
-0.428571428571 -0.0171428571429 -0.428571428571 0.666666666667
-0.428571428571 -0.0171428571429 0.257142857143 0.666666666667
-0.428571428571 0.257142857143 -0.885714285714 0.666666666667
-0.428571428571 0.257142857143 -0.428571428571 0.666666666667
-0.428571428571 0.257142857143 0.257142857143 0.666666666667
-0.428571428571 -0.657142857143 -0.885714285714 0.666666666667
-0.428571428571 -0.657142857143 -0.428571428571 0.666666666667
-0.428571428571 -0.657142857143 0.257142857143 0.666666666667
-0.428571428571 -0.657142857143 -0.885714285714 0.666666666667
-0.428571428571 -0.657142857143 -0.428571428571 0.666666666667
-0.428571428571 -0.657142857143 0.257142857143 0.666666666667
-0.428571428571 -0.657142857143 -0.885714285714 0.666666666667
-0.428571428571 -0.657142857143 -0.428571428571 0.666666666667
-0.428571428571 -0.657142857143 0.257142857143 0.666666666667
-0.428571428571 -0.52 -0.885714285714 0.666666666667
-0.428571428571 -0.52 -0.428571428571 0.666666666667
-0.428571428571 -0.52 0.257142857143 0.666666666667
-0.428571428571 -0.52 -0.885714285714 0.666666666667
-0.428571428571 -0.52 -0.428571428571 0.666666666667
-0.428571428571 -0.52 0.257142857143 0.666666666667
-0.428571428571 -0.52 -0.885714285714 0.666666666667
-0.428571428571 -0.52 -0.428571428571 0.666666666667
-0.428571428571 -0.52 0.257142857143 0.666666666667
-0.428571428571 0.0285714285714 -0.885714285714 0.666666666667
-0.428571428571 0.0285714285714 -0.428571428571 0.666666666667
-0.428571428571 0.0285714285714 0.257142857143 0.666666666667
-0.428571428571 0.0285714285714 -0.885714285714 0.666666666667
-0.428571428571 0.0285714285714 -0.428571428571 0.666666666667
-0.428571428571 0.0285714285714 0.257142857143 0.666666666667
-0.428571428571 0.0285714285714 -0.885714285714 0.666666666667
-0.428571428571 0.0285714285714 -0.428571428571 0.666666666667
-0.428571428571 0.0285714285714 0.257142857143 0.666666666667
-0.428571428571 -0.885714285714 -0.885714285714 0.666666666667
-0.428571428571 -0.885714285714 -0.428571428571 0.666666666667
-0.428571428571 -0.885714285714 0.257142857143 0.666666666667
-0.428571428571 -0.702857142857 -0.885714285714 0.666666666667
-0.428571428571 -0.702857142857 -0.428571428571 0.666666666667
-0.428571428571 -0.702857142857 0.257142857143 0.666666666667
-0.428571428571 -0.428571428571 -0.885714285714 0.666666666667
-0.428571428571 -0.428571428571 -0.428571428571 0.666666666667
-0.428571428571 -0.428571428571 0.257142857143 0.666666666667
-0.428571428571 -0.611428571429 -0.885714285714 0.666666666667
-0.428571428571 -0.611428571429 -0.428571428571 0.666666666667
-0.428571428571 -0.611428571429 0.257142857143 0.666666666667
-0.428571428571 -0.428571428571 -0.885714285714 0.666666666667
-0.428571428571 -0.428571428571 -0.428571428571 0.666666666667
-0.428571428571 -0.428571428571 0.257142857143 0.666666666667
-0.428571428571 -0.154285714286 -0.885714285714 0.666666666667
-0.428571428571 -0.154285714286 -0.428571428571 0.666666666667
-0.428571428571 -0.154285714286 0.257142857143 0.666666666667
-0.428571428571 -0.2 -0.885714285714 0.666666666667
-0.428571428571 -0.2 -0.428571428571 0.666666666667
-0.428571428571 -0.2 0.257142857143 0.666666666667
-0.428571428571 -0.0171428571429 -0.885714285714 0.666666666667
-0.428571428571 -0.0171428571429 -0.428571428571 0.666666666667
-0.428571428571 -0.0171428571429 0.257142857143 0.666666666667
-0.428571428571 0.257142857143 -0.885714285714 0.666666666667
-0.428571428571 0.257142857143 -0.428571428571 0.666666666667
-0.428571428571 0.257142857143 0.257142857143 0.666666666667
-0.428571428571 -0.657142857143 -0.885714285714 0.666666666667
-0.428571428571 -0.657142857143 -0.428571428571 0.666666666667
-0.428571428571 -0.657142857143 0.257142857143 0.666666666667
-0.428571428571 -0.657142857143 -0.885714285714 0.666666666667
-0.428571428571 -0.657142857143 -0.428571428571 0.666666666667
-0.428571428571 -0.657142857143 0.257142857143 0.666666666667
-0.428571428571 -0.657142857143 -0.885714285714 0.666666666667
-0.428571428571 -0.657142857143 -0.428571428571 0.666666666667
-0.428571428571 -0.657142857143 0.257142857143 0.666666666667
-0.428571428571 -0.52 -0.885714285714 0.666666666667
-0.428571428571 -0.52 -0.428571428571 0.666666666667
-0.428571428571 -0.52 0.257142857143 0.666666666667
-0.428571428571 -0.52 -0.885714285714 0.666666666667
-0.428571428571 -0.52 -0.428571428571 0.666666666667
-0.428571428571 -0.52 0.257142857143 0.666666666667
-0.428571428571 -0.52 -0.885714285714 0.666666666667
-0.428571428571 -0.52 -0.428571428571 0.666666666667
-0.428571428571 -0.52 0.257142857143 0.666666666667
-0.428571428571 0.0285714285714 -0.885714285714 0.666666666667
-0.428571428571 0.0285714285714 -0.428571428571 0.666666666667
-0.428571428571 0.0285714285714 0.257142857143 0.666666666667
-0.428571428571 0.0285714285714 -0.885714285714 0.666666666667
-0.428571428571 0.0285714285714 -0.428571428571 0.666666666667
-0.428571428571 0.0285714285714 0.257142857143 0.666666666667
-0.428571428571 0.0285714285714 -0.885714285714 0.666666666667
-0.428571428571 0.0285714285714 -0.428571428571 0.666666666667
-0.428571428571 0.0285714285714 0.257142857143 0.666666666667
-0.428571428571 -0.885714285714 -0.885714285714 0.666666666667
-0.428571428571 -0.885714285714 -0.428571428571 0.666666666667
-0.428571428571 -0.885714285714 0.257142857143 0.666666666667
-0.428571428571 -0.702857142857 -0.885714285714 0.666666666667
-0.428571428571 -0.702857142857 -0.428571428571 0.666666666667
-0.428571428571 -0.702857142857 0.257142857143 0.666666666667
-0.428571428571 -0.428571428571 -0.885714285714 0.666666666667
-0.428571428571 -0.428571428571 -0.428571428571 0.666666666667
-0.428571428571 -0.428571428571 0.257142857143 0.666666666667
-0.428571428571 -0.611428571429 -0.885714285714 0.666666666667
-0.428571428571 -0.611428571429 -0.428571428571 0.666666666667
-0.428571428571 -0.611428571429 0.257142857143 0.666666666667
-0.428571428571 -0.428571428571 -0.885714285714 0.666666666667
-0.428571428571 -0.428571428571 -0.428571428571 0.666666666667
-0.428571428571 -0.428571428571 0.257142857143 0.666666666667
-0.428571428571 -0.154285714286 -0.885714285714 0.666666666667
-0.428571428571 -0.154285714286 -0.428571428571 0.666666666667
-0.428571428571 -0.154285714286 0.257142857143 0.666666666667
-0.428571428571 -0.2 -0.885714285714 0.641566666667
-0.428571428571 -0.2 -0.428571428571 0.666666666667
-0.428571428571 -0.2 0.257142857143 0.666666666667
-0.428571428571 -0.0171428571429 -0.885714285714 0.666666666667
-0.428571428571 -0.0171428571429 -0.428571428571 0.666666666667
-0.428571428571 -0.0171428571429 0.257142857143 0.666666666667
-0.428571428571 0.257142857143 -0.885714285714 0.666666666667
-0.428571428571 0.257142857143 -0.428571428571 0.666666666667
-0.428571428571 0.257142857143 0.257142857143 0.666666666667
-0.428571428571 -0.657142857143 -0.885714285714 0.666666666667
-0.428571428571 -0.657142857143 -0.428571428571 0.666666666667
-0.428571428571 -0.657142857143 0.257142857143 0.666666666667
-0.428571428571 -0.657142857143 -0.885714285714 0.666666666667
-0.428571428571 -0.657142857143 -0.428571428571 0.666666666667
-0.428571428571 -0.657142857143 0.257142857143 0.666666666667
-0.428571428571 -0.657142857143 -0.885714285714 0.666666666667
-0.428571428571 -0.657142857143 -0.428571428571 0.666666666667
-0.428571428571 -0.657142857143 0.257142857143 0.666666666667
-0.428571428571 -0.52 -0.885714285714 0.666666666667
-0.428571428571 -0.52 -0.428571428571 0.666666666667
-0.428571428571 -0.52 0.257142857143 0.666666666667
-0.428571428571 -0.52 -0.885714285714 0.666666666667
-0.428571428571 -0.52 -0.428571428571 0.666666666667
-0.428571428571 -0.52 0.257142857143 0.666666666667
-0.428571428571 -0.52 -0.885714285714 0.666666666667
-0.428571428571 -0.52 -0.428571428571 0.666666666667
-0.428571428571 -0.52 0.257142857143 0.666666666667
-0.428571428571 0.0285714285714 -0.885714285714 0.666666666667
-0.428571428571 0.0285714285714 -0.428571428571 0.666666666667
-0.428571428571 0.0285714285714 0.257142857143 0.666666666667
-0.428571428571 0.0285714285714 -0.885714285714 0.666666666667
-0.428571428571 0.0285714285714 -0.428571428571 0.666666666667
-0.428571428571 0.0285714285714 0.257142857143 0.666666666667
-0.428571428571 0.0285714285714 -0.885714285714 0.666666666667
-0.428571428571 0.0285714285714 -0.428571428571 0.666666666667
-0.428571428571 0.0285714285714 0.257142857143 0.666666666667
0.257142857143 -0.885714285714 -0.885714285714 0.666666666667
0.257142857143 -0.885714285714 -0.428571428571 0.666666666667
0.257142857143 -0.885714285714 0.257142857143 0.666666666667
0.257142857143 -0.702857142857 -0.885714285714 0.666666666667
0.257142857143 -0.702857142857 -0.428571428571 0.666666666667
0.257142857143 -0.702857142857 0.257142857143 0.666666666667
0.257142857143 -0.428571428571 -0.885714285714 0.666666666667
0.257142857143 -0.428571428571 -0.428571428571 0.666666666667
0.257142857143 -0.428571428571 0.257142857143 0.666666666667
0.257142857143 -0.611428571429 -0.885714285714 0.666666666667
0.257142857143 -0.611428571429 -0.428571428571 0.666666666667
0.257142857143 -0.611428571429 0.257142857143 0.666666666667
0.257142857143 -0.428571428571 -0.885714285714 0.666666666667
0.257142857143 -0.428571428571 -0.428571428571 0.666666666667
0.257142857143 -0.428571428571 0.257142857143 0.666666666667
0.257142857143 -0.154285714286 -0.885714285714 0.666666666667
0.257142857143 -0.154285714286 -0.428571428571 0.666666666667
0.257142857143 -0.154285714286 0.257142857143 0.666666666667
0.257142857143 -0.2 -0.885714285714 0.666666666667
0.257142857143 -0.2 -0.428571428571 0.666666666667
0.257142857143 -0.2 0.257142857143 0.666666666667
0.257142857143 -0.0171428571429 -0.885714285714 0.666666666667
0.257142857143 -0.0171428571429 -0.428571428571 0.666666666667
0.257142857143 -0.0171428571429 0.257142857143 0.666666666667
0.257142857143 0.257142857143 -0.885714285714 0.666666666667
0.257142857143 0.257142857143 -0.428571428571 0.666666666667
0.257142857143 0.257142857143 0.257142857143 0.666666666667
0.257142857143 -0.657142857143 -0.885714285714 0.666666666667
0.257142857143 -0.657142857143 -0.428571428571 0.666666666667
0.257142857143 -0.657142857143 0.257142857143 0.666666666667
0.257142857143 -0.657142857143 -0.885714285714 0.666666666667
0.257142857143 -0.657142857143 -0.428571428571 0.666666666667
0.257142857143 -0.657142857143 0.257142857143 0.666666666667
0.257142857143 -0.657142857143 -0.885714285714 0.666666666667
0.257142857143 -0.657142857143 -0.428571428571 0.666666666667
0.257142857143 -0.657142857143 0.257142857143 0.666666666667
0.257142857143 -0.52 -0.885714285714 0.666666666667
0.257142857143 -0.52 -0.428571428571 0.666666666667
0.257142857143 -0.52 0.257142857143 0.666666666667
0.257142857143 -0.52 -0.885714285714 0.666666666667
0.257142857143 -0.52 -0.428571428571 0.666666666667
0.257142857143 -0.52 0.257142857143 0.666666666667
0.257142857143 -0.52 -0.885714285714 0.666666666667
0.257142857143 -0.52 -0.428571428571 0.666666666667
0.257142857143 -0.52 0.257142857143 0.666666666667
0.257142857143 0.0285714285714 -0.885714285714 0.666666666667
0.257142857143 0.0285714285714 -0.428571428571 0.666666666667
0.257142857143 0.0285714285714 0.257142857143 0.666666666667
0.257142857143 0.0285714285714 -0.885714285714 0.666666666667
0.257142857143 0.0285714285714 -0.428571428571 0.666666666667
0.257142857143 0.0285714285714 0.257142857143 0.666666666667
0.257142857143 0.0285714285714 -0.885714285714 0.666666666667
0.257142857143 0.0285714285714 -0.428571428571 0.666666666667
0.257142857143 0.0285714285714 0.257142857143 0.666666666667
0.257142857143 -0.885714285714 -0.885714285714 0.666666666667
0.257142857143 -0.885714285714 -0.428571428571 0.666666666667
0.257142857143 -0.885714285714 0.257142857143 0.666666666667
0.257142857143 -0.702857142857 -0.885714285714 0.666666666667
0.257142857143 -0.702857142857 -0.428571428571 0.666666666667
0.257142857143 -0.702857142857 0.257142857143 0.666666666667
0.257142857143 -0.428571428571 -0.885714285714 0.666666666667
0.257142857143 -0.428571428571 -0.428571428571 0.666666666667
0.257142857143 -0.428571428571 0.257142857143 0.666666666667
0.257142857143 -0.611428571429 -0.885714285714 0.666666666667
0.257142857143 -0.611428571429 -0.428571428571 0.666666666667
0.257142857143 -0.611428571429 0.257142857143 0.666666666667
0.257142857143 -0.428571428571 -0.885714285714 0.666666666667
0.257142857143 -0.428571428571 -0.428571428571 0.666666666667
0.257142857143 -0.428571428571 0.257142857143 0.666666666667
0.257142857143 -0.154285714286 -0.885714285714 0.666666666667
0.257142857143 -0.154285714286 -0.428571428571 0.666666666667
0.257142857143 -0.154285714286 0.257142857143 0.666666666667
0.257142857143 -0.2 -0.885714285714 0.666666666667
0.257142857143 -0.2 -0.428571428571 0.666666666667
0.257142857143 -0.2 0.257142857143 0.666666666667
0.257142857143 -0.0171428571429 -0.885714285714 0.666666666667
0.257142857143 -0.0171428571429 -0.428571428571 0.666666666667
0.257142857143 -0.0171428571429 0.257142857143 0.666666666667
0.257142857143 0.257142857143 -0.885714285714 0.666666666667
0.257142857143 0.257142857143 -0.428571428571 0.666666666667
0.257142857143 0.257142857143 0.257142857143 0.666666666667
0.257142857143 -0.657142857143 -0.885714285714 0.666666666667
0.257142857143 -0.657142857143 -0.428571428571 0.666666666667
0.257142857143 -0.657142857143 0.257142857143 0.666666666667
0.257142857143 -0.657142857143 -0.885714285714 0.666666666667
0.257142857143 -0.657142857143 -0.428571428571 0.666666666667
0.257142857143 -0.657142857143 0.257142857143 0.666666666667
0.257142857143 -0.657142857143 -0.885714285714 0.666666666667
0.257142857143 -0.657142857143 -0.428571428571 0.666666666667
0.257142857143 -0.657142857143 0.257142857143 0.666666666667
0.257142857143 -0.52 -0.885714285714 0.666666666667
0.257142857143 -0.52 -0.428571428571 0.666666666667
0.257142857143 -0.52 0.257142857143 0.666666666667
0.257142857143 -0.52 -0.885714285714 0.666666666667
0.257142857143 -0.52 -0.428571428571 0.666666666667
0.257142857143 -0.52 0.257142857143 0.666666666667
0.257142857143 -0.52 -0.885714285714 0.666666666667
0.257142857143 -0.52 -0.428571428571 0.666666666667
0.257142857143 -0.52 0.257142857143 0.666666666667
0.257142857143 0.0285714285714 -0.885714285714 0.666666666667
0.257142857143 0.0285714285714 -0.428571428571 0.666666666667
0.257142857143 0.0285714285714 0.257142857143 0.666666666667
0.257142857143 0.0285714285714 -0.885714285714 0.666666666667
0.257142857143 0.0285714285714 -0.428571428571 0.666666666667
0.257142857143 0.0285714285714 0.257142857143 0.666666666667
0.257142857143 0.0285714285714 -0.885714285714 0.666666666667
0.257142857143 0.0285714285714 -0.428571428571 0.666666666667
0.257142857143 0.0285714285714 0.257142857143 0.666666666667
0.257142857143 -0.885714285714 -0.885714285714 0.666666666667
0.257142857143 -0.885714285714 -0.428571428571 0.666666666667
0.257142857143 -0.885714285714 0.257142857143 0.666666666667
0.257142857143 -0.702857142857 -0.885714285714 0.666666666667
0.257142857143 -0.702857142857 -0.428571428571 0.666666666667
0.257142857143 -0.702857142857 0.257142857143 0.666666666667
0.257142857143 -0.428571428571 -0.885714285714 0.666666666667
0.257142857143 -0.428571428571 -0.428571428571 0.666666666667
0.257142857143 -0.428571428571 0.257142857143 0.666666666667
0.257142857143 -0.611428571429 -0.885714285714 0.666666666667
0.257142857143 -0.611428571429 -0.428571428571 0.666666666667
0.257142857143 -0.611428571429 0.257142857143 0.666666666667
0.257142857143 -0.428571428571 -0.885714285714 0.666666666667
0.257142857143 -0.428571428571 -0.428571428571 0.666666666667
0.257142857143 -0.428571428571 0.257142857143 0.666666666667
0.257142857143 -0.154285714286 -0.885714285714 0.666666666667
0.257142857143 -0.154285714286 -0.428571428571 0.666666666667
0.257142857143 -0.154285714286 0.257142857143 0.666666666667
0.257142857143 -0.2 -0.885714285714 0.666666666667
0.257142857143 -0.2 -0.428571428571 0.666666666667
0.257142857143 -0.2 0.257142857143 0.666666666667
0.257142857143 -0.0171428571429 -0.885714285714 0.666666666667
0.257142857143 -0.0171428571429 -0.428571428571 0.666666666667
0.257142857143 -0.0171428571429 0.257142857143 0.666666666667
0.257142857143 0.257142857143 -0.885714285714 0.666666666667
0.257142857143 0.257142857143 -0.428571428571 0.666666666667
0.257142857143 0.257142857143 0.257142857143 0.666666666667
0.257142857143 -0.657142857143 -0.885714285714 0.666666666667
0.257142857143 -0.657142857143 -0.428571428571 0.666666666667
0.257142857143 -0.657142857143 0.257142857143 0.666666666667
0.257142857143 -0.657142857143 -0.885714285714 0.666666666667
0.257142857143 -0.657142857143 -0.428571428571 0.666666666667
0.257142857143 -0.657142857143 0.257142857143 0.666666666667
0.257142857143 -0.657142857143 -0.885714285714 0.666666666667
0.257142857143 -0.657142857143 -0.428571428571 0.666666666667
0.257142857143 -0.657142857143 0.257142857143 0.666666666667
0.257142857143 -0.52 -0.885714285714 0.666666666667
0.257142857143 -0.52 -0.428571428571 0.666666666667
0.257142857143 -0.52 0.257142857143 0.666666666667
0.257142857143 -0.52 -0.885714285714 0.666666666667
0.257142857143 -0.52 -0.428571428571 0.666666666667
0.257142857143 -0.52 0.257142857143 0.666666666667
0.257142857143 -0.52 -0.885714285714 0.666666666667
0.257142857143 -0.52 -0.428571428571 0.666666666667
0.257142857143 -0.52 0.257142857143 0.666666666667
0.257142857143 0.0285714285714 -0.885714285714 0.666666666667
0.257142857143 0.0285714285714 -0.428571428571 0.666666666667
0.257142857143 0.0285714285714 0.257142857143 0.666666666667
0.257142857143 0.0285714285714 -0.885714285714 0.666666666667
0.257142857143 0.0285714285714 -0.428571428571 0.666666666667
0.257142857143 0.0285714285714 0.257142857143 0.666666666667
0.257142857143 0.0285714285714 -0.885714285714 0.666666666667
0.257142857143 0.0285714285714 -0.428571428571 0.666666666667
0.257142857143 0.0285714285714 0.257142857143 0.666666666667
0.257142857143 -0.885714285714 -0.885714285714 0.666666666667
0.257142857143 -0.885714285714 -0.428571428571 0.666666666667
0.257142857143 -0.885714285714 0.257142857143 0.666666666667
0.257142857143 -0.702857142857 -0.885714285714 0.666666666667
0.257142857143 -0.702857142857 -0.428571428571 0.666666666667
0.257142857143 -0.702857142857 0.257142857143 0.666666666667
0.257142857143 -0.428571428571 -0.885714285714 0.666666666667
0.257142857143 -0.428571428571 -0.428571428571 0.666666666667
0.257142857143 -0.428571428571 0.257142857143 0.666666666667
0.257142857143 -0.611428571429 -0.885714285714 0.666666666667
0.257142857143 -0.611428571429 -0.428571428571 0.666666666667
0.257142857143 -0.611428571429 0.257142857143 0.666666666667
0.257142857143 -0.428571428571 -0.885714285714 0.666666666667
0.257142857143 -0.428571428571 -0.428571428571 0.666666666667
0.257142857143 -0.428571428571 0.257142857143 0.666666666667
0.257142857143 -0.154285714286 -0.885714285714 0.666666666667
0.257142857143 -0.154285714286 -0.428571428571 0.666666666667
0.257142857143 -0.154285714286 0.257142857143 0.666666666667
0.257142857143 -0.2 -0.885714285714 0.666666666667
0.257142857143 -0.2 -0.428571428571 0.666666666667
0.257142857143 -0.2 0.257142857143 0.666666666667
0.257142857143 -0.0171428571429 -0.885714285714 0.666666666667
0.257142857143 -0.0171428571429 -0.428571428571 0.666666666667
0.257142857143 -0.0171428571429 0.257142857143 0.666666666667
0.257142857143 0.257142857143 -0.885714285714 0.666666666667
0.257142857143 0.257142857143 -0.428571428571 0.666666666667
0.257142857143 0.257142857143 0.257142857143 0.666666666667
0.257142857143 -0.657142857143 -0.885714285714 0.666666666667
0.257142857143 -0.657142857143 -0.428571428571 0.666666666667
0.257142857143 -0.657142857143 0.257142857143 0.666666666667
0.257142857143 -0.657142857143 -0.885714285714 0.666666666667
0.257142857143 -0.657142857143 -0.428571428571 0.666666666667
0.257142857143 -0.657142857143 0.257142857143 0.666666666667
0.257142857143 -0.657142857143 -0.885714285714 0.666666666667
0.257142857143 -0.657142857143 -0.428571428571 0.666666666667
0.257142857143 -0.657142857143 0.257142857143 0.666666666667
0.257142857143 -0.52 -0.885714285714 0.666666666667
0.257142857143 -0.52 -0.428571428571 0.666666666667
0.257142857143 -0.52 0.257142857143 0.666666666667
0.257142857143 -0.52 -0.885714285714 0.666666666667
0.257142857143 -0.52 -0.428571428571 0.666666666667
0.257142857143 -0.52 0.257142857143 0.666666666667
0.257142857143 -0.52 -0.885714285714 0.666666666667
0.257142857143 -0.52 -0.428571428571 0.666666666667
0.257142857143 -0.52 0.257142857143 0.666666666667
0.257142857143 0.0285714285714 -0.885714285714 0.666666666667
0.257142857143 0.0285714285714 -0.428571428571 0.666666666667
0.257142857143 0.0285714285714 0.257142857143 0.666666666667
0.257142857143 0.0285714285714 -0.885714285714 0.666666666667
0.257142857143 0.0285714285714 -0.428571428571 0.666666666667
0.257142857143 0.0285714285714 0.257142857143 0.666666666667
0.257142857143 0.0285714285714 -0.885714285714 0.666666666667
0.257142857143 0.0285714285714 -0.428571428571 0.666666666667
0.257142857143 0.0285714285714 0.257142857143 0.666666666667
