648 4
17.5 17.5 17.5 0.6
17.5 17.5 17.5 0.6
-0.885714285714 -0.885714285714 -0.885714285714 0.3376
-0.885714285714 -0.885714285714 -0.428571428571 0.359933333333
-0.885714285714 -0.885714285714 0.257142857143 0.283766666667
-0.885714285714 -0.702857142857 -0.885714285714 0.437683333333
-0.885714285714 -0.702857142857 -0.428571428571 0.381983333333
-0.885714285714 -0.702857142857 0.257142857143 0.44965
-0.885714285714 -0.428571428571 -0.885714285714 0.373983333333
-0.885714285714 -0.428571428571 -0.428571428571 0.38585
-0.885714285714 -0.428571428571 0.257142857143 0.510416666667
-0.885714285714 -0.611428571429 -0.885714285714 0.421166666667
-0.885714285714 -0.611428571429 -0.428571428571 0.430933333333
-0.885714285714 -0.611428571429 0.257142857143 0.4516
-0.885714285714 -0.428571428571 -0.885714285714 0.385233333333
-0.885714285714 -0.428571428571 -0.428571428571 0.533816666667
-0.885714285714 -0.428571428571 0.257142857143 0.52815
-0.885714285714 -0.154285714286 -0.885714285714 0.387833333333
-0.885714285714 -0.154285714286 -0.428571428571 0.51765
-0.885714285714 -0.154285714286 0.257142857143 0.484233333333
-0.885714285714 -0.2 -0.885714285714 0.423383333333
-0.885714285714 -0.2 -0.428571428571 0.40165
-0.885714285714 -0.2 0.257142857143 0.445316666667
-0.885714285714 -0.0171428571429 -0.885714285714 0.363316666667
-0.885714285714 -0.0171428571429 -0.428571428571 0.562966666667
-0.885714285714 -0.0171428571429 0.257142857143 0.493333333333
-0.885714285714 0.257142857143 -0.885714285714 0.4105
-0.885714285714 0.257142857143 -0.428571428571 0.448566666667
-0.885714285714 0.257142857143 0.257142857143 0.596416666667
-0.885714285714 -0.657142857143 -0.885714285714 0.384483333333
-0.885714285714 -0.657142857143 -0.428571428571 0.4013
-0.885714285714 -0.657142857143 0.257142857143 0.36775
-0.885714285714 -0.657142857143 -0.885714285714 0.36285
-0.885714285714 -0.657142857143 -0.428571428571 0.410383333333
-0.885714285714 -0.657142857143 0.257142857143 0.386166666667
-0.885714285714 -0.657142857143 -0.885714285714 0.366383333333
-0.885714285714 -0.657142857143 -0.428571428571 0.363016666667
-0.885714285714 -0.657142857143 0.257142857143 0.46315
-0.885714285714 -0.52 -0.885714285714 0.488016666667
-0.885714285714 -0.52 -0.428571428571 0.547883333333
-0.885714285714 -0.52 0.257142857143 0.4947
-0.885714285714 -0.52 -0.885714285714 0.50865
-0.885714285714 -0.52 -0.428571428571 0.471083333333
-0.885714285714 -0.52 0.257142857143 0.475716666667
-0.885714285714 -0.52 -0.885714285714 0.5039
-0.885714285714 -0.52 -0.428571428571 0.458033333333
-0.885714285714 -0.52 0.257142857143 0.448483333333
-0.885714285714 0.0285714285714 -0.885714285714 0.5167
-0.885714285714 0.0285714285714 -0.428571428571 0.553933333333
-0.885714285714 0.0285714285714 0.257142857143 0.54655
-0.885714285714 0.0285714285714 -0.885714285714 0.562966666667
-0.885714285714 0.0285714285714 -0.428571428571 0.475716666667
-0.885714285714 0.0285714285714 0.257142857143 0.47705
-0.885714285714 0.0285714285714 -0.885714285714 0.507183333333
-0.885714285714 0.0285714285714 -0.428571428571 0.477383333333
-0.885714285714 0.0285714285714 0.257142857143 0.464016666667
-0.885714285714 -0.885714285714 -0.885714285714 0.260866666667
-0.885714285714 -0.885714285714 -0.428571428571 0.269816666667
-0.885714285714 -0.885714285714 0.257142857143 0.393116666667
-0.885714285714 -0.702857142857 -0.885714285714 0.336216666667
-0.885714285714 -0.702857142857 -0.428571428571 0.446383333333
-0.885714285714 -0.702857142857 0.257142857143 0.472516666667
-0.885714285714 -0.428571428571 -0.885714285714 0.4678
-0.885714285714 -0.428571428571 -0.428571428571 0.375516666667
-0.885714285714 -0.428571428571 0.257142857143 0.4568
-0.885714285714 -0.611428571429 -0.885714285714 0.316233333333
-0.885714285714 -0.611428571429 -0.428571428571 0.321033333333
-0.885714285714 -0.611428571429 0.257142857143 0.36205
-0.885714285714 -0.428571428571 -0.885714285714 0.3858
-0.885714285714 -0.428571428571 -0.428571428571 0.4749
-0.885714285714 -0.428571428571 0.257142857143 0.4735
-0.885714285714 -0.154285714286 -0.885714285714 0.430166666667
-0.885714285714 -0.154285714286 -0.428571428571 0.489783333333
-0.885714285714 -0.154285714286 0.257142857143 0.562116666667
-0.885714285714 -0.2 -0.885714285714 0.376783333333
-0.885714285714 -0.2 -0.428571428571 0.414516666667
-0.885714285714 -0.2 0.257142857143 0.451583333333
-0.885714285714 -0.0171428571429 -0.885714285714 0.431366666667
-0.885714285714 -0.0171428571429 -0.428571428571 0.501416666667
-0.885714285714 -0.0171428571429 0.257142857143 0.525983333333
-0.885714285714 0.257142857143 -0.885714285714 0.389333333333
-0.885714285714 0.257142857143 -0.428571428571 0.488866666667
-0.885714285714 0.257142857143 0.257142857143 0.481283333333
-0.885714285714 -0.657142857143 -0.885714285714 0.26645
-0.885714285714 -0.657142857143 -0.428571428571 0.3763
-0.885714285714 -0.657142857143 0.257142857143 0.337783333333
-0.885714285714 -0.657142857143 -0.885714285714 0.314666666667
-0.885714285714 -0.657142857143 -0.428571428571 0.301433333333
-0.885714285714 -0.657142857143 0.257142857143 0.372083333333
-0.885714285714 -0.657142857143 -0.885714285714 0.38285
-0.885714285714 -0.657142857143 -0.428571428571 0.449766666667
-0.885714285714 -0.657142857143 0.257142857143 0.503783333333
-0.885714285714 -0.52 -0.885714285714 0.421916666667
-0.885714285714 -0.52 -0.428571428571 0.496566666667
-0.885714285714 -0.52 0.257142857143 0.536816666667
-0.885714285714 -0.52 -0.885714285714 0.521616666667
-0.885714285714 -0.52 -0.428571428571 0.482633333333
-0.885714285714 -0.52 0.257142857143 0.478266666667
-0.885714285714 -0.52 -0.885714285714 0.362316666667
-0.885714285714 -0.52 -0.428571428571 0.36545
-0.885714285714 -0.52 0.257142857143 0.462866666667
-0.885714285714 0.0285714285714 -0.885714285714 0.422816666667
-0.885714285714 0.0285714285714 -0.428571428571 0.560433333333
-0.885714285714 0.0285714285714 0.257142857143 0.585616666667
-0.885714285714 0.0285714285714 -0.885714285714 0.411683333333
-0.885714285714 0.0285714285714 -0.428571428571 0.542333333333
-0.885714285714 0.0285714285714 0.257142857143 0.573866666667
-0.885714285714 0.0285714285714 -0.885714285714 0.511633333333
-0.885714285714 0.0285714285714 -0.428571428571 0.470733333333
-0.885714285714 0.0285714285714 0.257142857143 0.466216666667
-0.885714285714 -0.885714285714 -0.885714285714 0.4109
-0.885714285714 -0.885714285714 -0.428571428571 0.439366666667
-0.885714285714 -0.885714285714 0.257142857143 0.45215
-0.885714285714 -0.702857142857 -0.885714285714 0.49925
-0.885714285714 -0.702857142857 -0.428571428571 0.489633333333
-0.885714285714 -0.702857142857 0.257142857143 0.5457
-0.885714285714 -0.428571428571 -0.885714285714 0.508766666667
-0.885714285714 -0.428571428571 -0.428571428571 0.58385
-0.885714285714 -0.428571428571 0.257142857143 0.5901
-0.885714285714 -0.611428571429 -0.885714285714 0.462466666667
-0.885714285714 -0.611428571429 -0.428571428571 0.487633333333
-0.885714285714 -0.611428571429 0.257142857143 0.45715
-0.885714285714 -0.428571428571 -0.885714285714 0.544866666667
-0.885714285714 -0.428571428571 -0.428571428571 0.541766666667
-0.885714285714 -0.428571428571 0.257142857143 0.563466666667
-0.885714285714 -0.154285714286 -0.885714285714 0.519033333333
-0.885714285714 -0.154285714286 -0.428571428571 0.608816666667
-0.885714285714 -0.154285714286 0.257142857143 0.6087
-0.885714285714 -0.2 -0.885714285714 0.474383333333
-0.885714285714 -0.2 -0.428571428571 0.490533333333
-0.885714285714 -0.2 0.257142857143 0.5201
-0.885714285714 -0.0171428571429 -0.885714285714 0.54895
-0.885714285714 -0.0171428571429 -0.428571428571 0.54425
-0.885714285714 -0.0171428571429 0.257142857143 0.599783333333
-0.885714285714 0.257142857143 -0.885714285714 0.57065
-0.885714285714 0.257142857143 -0.428571428571 0.5819
-0.885714285714 0.257142857143 0.257142857143 0.666666666667
-0.885714285714 -0.657142857143 -0.885714285714 0.437416666667
-0.885714285714 -0.657142857143 -0.428571428571 0.433083333333
-0.885714285714 -0.657142857143 0.257142857143 0.4516
-0.885714285714 -0.657142857143 -0.885714285714 0.421
-0.885714285714 -0.657142857143 -0.428571428571 0.43885
-0.885714285714 -0.657142857143 0.257142857143 0.4546
-0.885714285714 -0.657142857143 -0.885714285714 0.467016666667
-0.885714285714 -0.657142857143 -0.428571428571 0.491783333333
-0.885714285714 -0.657142857143 0.257142857143 0.487016666667
-0.885714285714 -0.52 -0.885714285714 0.50255
-0.885714285714 -0.52 -0.428571428571 0.56775
-0.885714285714 -0.52 0.257142857143 0.561433333333
-0.885714285714 -0.52 -0.885714285714 0.502033333333
-0.885714285714 -0.52 -0.428571428571 0.572466666667
-0.885714285714 -0.52 0.257142857143 0.59585
-0.885714285714 -0.52 -0.885714285714 0.5071
-0.885714285714 -0.52 -0.428571428571 0.510883333333
-0.885714285714 -0.52 0.257142857143 0.530283333333
-0.885714285714 0.0285714285714 -0.885714285714 0.579916666667
-0.885714285714 0.0285714285714 -0.428571428571 0.640183333333
-0.885714285714 0.0285714285714 0.257142857143 0.58295
-0.885714285714 0.0285714285714 -0.885714285714 0.578216666667
-0.885714285714 0.0285714285714 -0.428571428571 0.643616666667
-0.885714285714 0.0285714285714 0.257142857143 0.6375
-0.885714285714 0.0285714285714 -0.885714285714 0.53765
-0.885714285714 0.0285714285714 -0.428571428571 0.56735
-0.885714285714 0.0285714285714 0.257142857143 0.608383333333
-0.885714285714 -0.885714285714 -0.885714285714 0.38995
-0.885714285714 -0.885714285714 -0.428571428571 0.285616666667
-0.885714285714 -0.885714285714 0.257142857143 0.415616666667
-0.885714285714 -0.702857142857 -0.885714285714 0.438566666667
-0.885714285714 -0.702857142857 -0.428571428571 0.41775
-0.885714285714 -0.702857142857 0.257142857143 0.38515
-0.885714285714 -0.428571428571 -0.885714285714 0.495633333333
-0.885714285714 -0.428571428571 -0.428571428571 0.467333333333
-0.885714285714 -0.428571428571 0.257142857143 0.4674
-0.885714285714 -0.611428571429 -0.885714285714 0.386966666667
-0.885714285714 -0.611428571429 -0.428571428571 0.392066666667
-0.885714285714 -0.611428571429 0.257142857143 0.406166666667
-0.885714285714 -0.428571428571 -0.885714285714 0.399633333333
-0.885714285714 -0.428571428571 -0.428571428571 0.359016666667
-0.885714285714 -0.428571428571 0.257142857143 0.359833333333
-0.885714285714 -0.154285714286 -0.885714285714 0.488066666667
-0.885714285714 -0.154285714286 -0.428571428571 0.577466666667
-0.885714285714 -0.154285714286 0.257142857143 0.535833333333
-0.885714285714 -0.2 -0.885714285714 0.422083333333
-0.885714285714 -0.2 -0.428571428571 0.467016666667
-0.885714285714 -0.2 0.257142857143 0.44645
-0.885714285714 -0.0171428571429 -0.885714285714 0.363966666667
-0.885714285714 -0.0171428571429 -0.428571428571 0.4798
-0.885714285714 -0.0171428571429 0.257142857143 0.491683333333
-0.885714285714 0.257142857143 -0.885714285714 0.46785
-0.885714285714 0.257142857143 -0.428571428571 0.408733333333
-0.885714285714 0.257142857143 0.257142857143 0.546333333333
-0.885714285714 -0.657142857143 -0.885714285714 0.337516666667
-0.885714285714 -0.657142857143 -0.428571428571 0.339183333333
-0.885714285714 -0.657142857143 0.257142857143 0.417266666667
-0.885714285714 -0.657142857143 -0.885714285714 0.39025
-0.885714285714 -0.657142857143 -0.428571428571 0.340233333333
-0.885714285714 -0.657142857143 0.257142857143 0.330533333333
-0.885714285714 -0.657142857143 -0.885714285714 0.372666666667
-0.885714285714 -0.657142857143 -0.428571428571 0.39735
-0.885714285714 -0.657142857143 0.257142857143 0.322333333333
-0.885714285714 -0.52 -0.885714285714 0.460133333333
-0.885714285714 -0.52 -0.428571428571 0.461733333333
-0.885714285714 -0.52 0.257142857143 0.528916666667
-0.885714285714 -0.52 -0.885714285714 0.4619
-0.885714285714 -0.52 -0.428571428571 0.501166666667
-0.885714285714 -0.52 0.257142857143 0.54365
-0.885714285714 -0.52 -0.885714285714 0.320316666667
-0.885714285714 -0.52 -0.428571428571 0.49355
-0.885714285714 -0.52 0.257142857143 0.357333333333
-0.885714285714 0.0285714285714 -0.885714285714 0.570783333333
-0.885714285714 0.0285714285714 -0.428571428571 0.4089
-0.885714285714 0.0285714285714 0.257142857143 0.544816666667
-0.885714285714 0.0285714285714 -0.885714285714 0.566433333333
-0.885714285714 0.0285714285714 -0.428571428571 0.381116666667
-0.885714285714 0.0285714285714 0.257142857143 0.515333333333
-0.885714285714 0.0285714285714 -0.885714285714 0.387
-0.885714285714 0.0285714285714 -0.428571428571 0.457183333333
-0.885714285714 0.0285714285714 0.257142857143 0.437833333333
-0.428571428571 -0.885714285714 -0.885714285714 0.666666666667
-0.428571428571 -0.885714285714 -0.428571428571 0.587483333333
-0.428571428571 -0.885714285714 0.257142857143 0.666666666667
-0.428571428571 -0.702857142857 -0.885714285714 0.666666666667
-0.428571428571 -0.702857142857 -0.428571428571 0.666666666667
-0.428571428571 -0.702857142857 0.257142857143 0.666666666667
-0.428571428571 -0.428571428571 -0.885714285714 0.617933333333
-0.428571428571 -0.428571428571 -0.428571428571 0.666666666667
-0.428571428571 -0.428571428571 0.257142857143 0.666666666667
-0.428571428571 -0.611428571429 -0.885714285714 0.666666666667
-0.428571428571 -0.611428571429 -0.428571428571 0.666666666667
-0.428571428571 -0.611428571429 0.257142857143 0.666666666667
-0.428571428571 -0.428571428571 -0.885714285714 0.666666666667
-0.428571428571 -0.428571428571 -0.428571428571 0.666666666667
-0.428571428571 -0.428571428571 0.257142857143 0.666666666667
-0.428571428571 -0.154285714286 -0.885714285714 0.666666666667
-0.428571428571 -0.154285714286 -0.428571428571 0.666666666667
-0.428571428571 -0.154285714286 0.257142857143 0.666666666667
-0.428571428571 -0.2 -0.885714285714 0.666666666667
-0.428571428571 -0.2 -0.428571428571 0.666666666667
-0.428571428571 -0.2 0.257142857143 0.666666666667
-0.428571428571 -0.0171428571429 -0.885714285714 0.666666666667
-0.428571428571 -0.0171428571429 -0.428571428571 0.666666666667
-0.428571428571 -0.0171428571429 0.257142857143 0.666666666667
-0.428571428571 0.257142857143 -0.885714285714 0.666666666667
-0.428571428571 0.257142857143 -0.428571428571 0.666666666667
-0.428571428571 0.257142857143 0.257142857143 0.6622
-0.428571428571 -0.657142857143 -0.885714285714 0.666666666667
-0.428571428571 -0.657142857143 -0.428571428571 0.60095
-0.428571428571 -0.657142857143 0.257142857143 0.666666666667
-0.428571428571 -0.657142857143 -0.885714285714 0.6641
-0.428571428571 -0.657142857143 -0.428571428571 0.666666666667
-0.428571428571 -0.657142857143 0.257142857143 0.666666666667
-0.428571428571 -0.657142857143 -0.885714285714 0.581516666667
-0.428571428571 -0.657142857143 -0.428571428571 0.6468
-0.428571428571 -0.657142857143 0.257142857143 0.626916666667
-0.428571428571 -0.52 -0.885714285714 0.666666666667
-0.428571428571 -0.52 -0.428571428571 0.666666666667
-0.428571428571 -0.52 0.257142857143 0.666666666667
-0.428571428571 -0.52 -0.885714285714 0.627416666667
-0.428571428571 -0.52 -0.428571428571 0.666666666667
-0.428571428571 -0.52 0.257142857143 0.666666666667
-0.428571428571 -0.52 -0.885714285714 0.666666666667
-0.428571428571 -0.52 -0.428571428571 0.666666666667
-0.428571428571 -0.52 0.257142857143 0.666666666667
-0.428571428571 0.0285714285714 -0.885714285714 0.666666666667
-0.428571428571 0.0285714285714 -0.428571428571 0.652466666667
-0.428571428571 0.0285714285714 0.257142857143 0.666666666667
-0.428571428571 0.0285714285714 -0.885714285714 0.666666666667
-0.428571428571 0.0285714285714 -0.428571428571 0.666666666667
-0.428571428571 0.0285714285714 0.257142857143 0.666666666667
-0.428571428571 0.0285714285714 -0.885714285714 0.666666666667
-0.428571428571 0.0285714285714 -0.428571428571 0.666666666667
-0.428571428571 0.0285714285714 0.257142857143 0.620166666667
-0.428571428571 -0.885714285714 -0.885714285714 0.6515
-0.428571428571 -0.885714285714 -0.428571428571 0.666666666667
-0.428571428571 -0.885714285714 0.257142857143 0.666666666667
-0.428571428571 -0.702857142857 -0.885714285714 0.666666666667
-0.428571428571 -0.702857142857 -0.428571428571 0.666666666667
-0.428571428571 -0.702857142857 0.257142857143 0.666666666667
-0.428571428571 -0.428571428571 -0.885714285714 0.666666666667
-0.428571428571 -0.428571428571 -0.428571428571 0.666666666667
-0.428571428571 -0.428571428571 0.257142857143 0.666666666667
-0.428571428571 -0.611428571429 -0.885714285714 0.666666666667
-0.428571428571 -0.611428571429 -0.428571428571 0.666666666667
-0.428571428571 -0.611428571429 0.257142857143 0.660316666667
-0.428571428571 -0.428571428571 -0.885714285714 0.666666666667
-0.428571428571 -0.428571428571 -0.428571428571 0.666666666667
-0.428571428571 -0.428571428571 0.257142857143 0.666666666667
-0.428571428571 -0.154285714286 -0.885714285714 0.654783333333
-0.428571428571 -0.154285714286 -0.428571428571 0.666666666667
-0.428571428571 -0.154285714286 0.257142857143 0.666666666667
-0.428571428571 -0.2 -0.885714285714 0.666666666667
-0.428571428571 -0.2 -0.428571428571 0.666666666667
-0.428571428571 -0.2 0.257142857143 0.666666666667
-0.428571428571 -0.0171428571429 -0.885714285714 0.666666666667
-0.428571428571 -0.0171428571429 -0.428571428571 0.666666666667
-0.428571428571 -0.0171428571429 0.257142857143 0.666666666667
-0.428571428571 0.257142857143 -0.885714285714 0.666666666667
-0.428571428571 0.257142857143 -0.428571428571 0.666666666667
-0.428571428571 0.257142857143 0.257142857143 0.666666666667
-0.428571428571 -0.657142857143 -0.885714285714 0.666666666667
-0.428571428571 -0.657142857143 -0.428571428571 0.666666666667
-0.428571428571 -0.657142857143 0.257142857143 0.666666666667
-0.428571428571 -0.657142857143 -0.885714285714 0.644933333333
-0.428571428571 -0.657142857143 -0.428571428571 0.666666666667
-0.428571428571 -0.657142857143 0.257142857143 0.666666666667
-0.428571428571 -0.657142857143 -0.885714285714 0.666666666667
-0.428571428571 -0.657142857143 -0.428571428571 0.666666666667
-0.428571428571 -0.657142857143 0.257142857143 0.666666666667
-0.428571428571 -0.52 -0.885714285714 0.666666666667
-0.428571428571 -0.52 -0.428571428571 0.666666666667
-0.428571428571 -0.52 0.257142857143 0.666666666667
-0.428571428571 -0.52 -0.885714285714 0.666666666667
-0.428571428571 -0.52 -0.428571428571 0.666666666667
-0.428571428571 -0.52 0.257142857143 0.666666666667
-0.428571428571 -0.52 -0.885714285714 0.666666666667
-0.428571428571 -0.52 -0.428571428571 0.666666666667
-0.428571428571 -0.52 0.257142857143 0.666666666667
-0.428571428571 0.0285714285714 -0.885714285714 0.666666666667
-0.428571428571 0.0285714285714 -0.428571428571 0.666666666667
-0.428571428571 0.0285714285714 0.257142857143 0.666666666667
-0.428571428571 0.0285714285714 -0.885714285714 0.666666666667
-0.428571428571 0.0285714285714 -0.428571428571 0.666666666667
-0.428571428571 0.0285714285714 0.257142857143 0.666666666667
-0.428571428571 0.0285714285714 -0.885714285714 0.666666666667
-0.428571428571 0.0285714285714 -0.428571428571 0.666666666667
-0.428571428571 0.0285714285714 0.257142857143 0.666666666667
-0.428571428571 -0.885714285714 -0.885714285714 0.666666666667
-0.428571428571 -0.885714285714 -0.428571428571 0.666666666667
-0.428571428571 -0.885714285714 0.257142857143 0.666666666667
-0.428571428571 -0.702857142857 -0.885714285714 0.666666666667
-0.428571428571 -0.702857142857 -0.428571428571 0.666666666667
-0.428571428571 -0.702857142857 0.257142857143 0.666666666667
-0.428571428571 -0.428571428571 -0.885714285714 0.666666666667
-0.428571428571 -0.428571428571 -0.428571428571 0.666666666667
-0.428571428571 -0.428571428571 0.257142857143 0.666666666667
-0.428571428571 -0.611428571429 -0.885714285714 0.666666666667
-0.428571428571 -0.611428571429 -0.428571428571 0.666666666667
-0.428571428571 -0.611428571429 0.257142857143 0.666666666667
-0.428571428571 -0.428571428571 -0.885714285714 0.666666666667
-0.428571428571 -0.428571428571 -0.428571428571 0.666666666667
-0.428571428571 -0.428571428571 0.257142857143 0.666666666667
-0.428571428571 -0.154285714286 -0.885714285714 0.666666666667
-0.428571428571 -0.154285714286 -0.428571428571 0.666666666667
-0.428571428571 -0.154285714286 0.257142857143 0.666666666667
-0.428571428571 -0.2 -0.885714285714 0.666666666667
-0.428571428571 -0.2 -0.428571428571 0.666666666667
-0.428571428571 -0.2 0.257142857143 0.666666666667
-0.428571428571 -0.0171428571429 -0.885714285714 0.666666666667
-0.428571428571 -0.0171428571429 -0.428571428571 0.666666666667
-0.428571428571 -0.0171428571429 0.257142857143 0.666666666667
-0.428571428571 0.257142857143 -0.885714285714 0.666666666667
-0.428571428571 0.257142857143 -0.428571428571 0.666666666667
-0.428571428571 0.257142857143 0.257142857143 0.666666666667
-0.428571428571 -0.657142857143 -0.885714285714 0.666666666667
-0.428571428571 -0.657142857143 -0.428571428571 0.666666666667
-0.428571428571 -0.657142857143 0.257142857143 0.666666666667
-0.428571428571 -0.657142857143 -0.885714285714 0.666666666667
-0.428571428571 -0.657142857143 -0.428571428571 0.666666666667
-0.428571428571 -0.657142857143 0.257142857143 0.666666666667
-0.428571428571 -0.657142857143 -0.885714285714 0.666666666667
-0.428571428571 -0.657142857143 -0.428571428571 0.666666666667
-0.428571428571 -0.657142857143 0.257142857143 0.666666666667
-0.428571428571 -0.52 -0.885714285714 0.666666666667
-0.428571428571 -0.52 -0.428571428571 0.666666666667
-0.428571428571 -0.52 0.257142857143 0.666666666667
-0.428571428571 -0.52 -0.885714285714 0.666666666667
-0.428571428571 -0.52 -0.428571428571 0.666666666667
-0.428571428571 -0.52 0.257142857143 0.666666666667
-0.428571428571 -0.52 -0.885714285714 0.666666666667
-0.428571428571 -0.52 -0.428571428571 0.666666666667
-0.428571428571 -0.52 0.257142857143 0.666666666667
-0.428571428571 0.0285714285714 -0.885714285714 0.666666666667
-0.428571428571 0.0285714285714 -0.428571428571 0.666666666667
-0.428571428571 0.0285714285714 0.257142857143 0.666666666667
-0.428571428571 0.0285714285714 -0.885714285714 0.666666666667
-0.428571428571 0.0285714285714 -0.428571428571 0.666666666667
-0.428571428571 0.0285714285714 0.257142857143 0.666666666667
-0.428571428571 0.0285714285714 -0.885714285714 0.666666666667
-0.428571428571 0.0285714285714 -0.428571428571 0.666666666667
-0.428571428571 0.0285714285714 0.257142857143 0.666666666667
-0.428571428571 -0.885714285714 -0.885714285714 0.666666666667
-0.428571428571 -0.885714285714 -0.428571428571 0.666666666667
-0.428571428571 -0.885714285714 0.257142857143 0.574316666667
-0.428571428571 -0.702857142857 -0.885714285714 0.666666666667
-0.428571428571 -0.702857142857 -0.428571428571 0.666666666667
-0.428571428571 -0.702857142857 0.257142857143 0.666666666667
-0.428571428571 -0.428571428571 -0.885714285714 0.628266666667
-0.428571428571 -0.428571428571 -0.428571428571 0.6119
-0.428571428571 -0.428571428571 0.257142857143 0.666666666667
-0.428571428571 -0.611428571429 -0.885714285714 0.59375
-0.428571428571 -0.611428571429 -0.428571428571 0.666666666667
-0.428571428571 -0.611428571429 0.257142857143 0.543833333333
-0.428571428571 -0.428571428571 -0.885714285714 0.64715
-0.428571428571 -0.428571428571 -0.428571428571 0.6386
-0.428571428571 -0.428571428571 0.257142857143 0.624633333333
-0.428571428571 -0.154285714286 -0.885714285714 0.643366666667
-0.428571428571 -0.154285714286 -0.428571428571 0.666666666667
-0.428571428571 -0.154285714286 0.257142857143 0.666666666667
-0.428571428571 -0.2 -0.885714285714 0.564683333333
-0.428571428571 -0.2 -0.428571428571 0.666666666667
-0.428571428571 -0.2 0.257142857143 0.666666666667
-0.428571428571 -0.0171428571429 -0.885714285714 0.666666666667
-0.428571428571 -0.0171428571429 -0.428571428571 0.566966666667
-0.428571428571 -0.0171428571429 0.257142857143 0.666666666667
-0.428571428571 0.257142857143 -0.885714285714 0.602633333333
-0.428571428571 0.257142857143 -0.428571428571 0.659316666667
-0.428571428571 0.257142857143 0.257142857143 0.666666666667
-0.428571428571 -0.657142857143 -0.885714285714 0.632083333333
-0.428571428571 -0.657142857143 -0.428571428571 0.666666666667
-0.428571428571 -0.657142857143 0.257142857143 0.666666666667
-0.428571428571 -0.657142857143 -0.885714285714 0.666666666667
-0.428571428571 -0.657142857143 -0.428571428571 0.574116666667
-0.428571428571 -0.657142857143 0.257142857143 0.666666666667
-0.428571428571 -0.657142857143 -0.885714285714 0.660333333333
-0.428571428571 -0.657142857143 -0.428571428571 0.488116666667
-0.428571428571 -0.657142857143 0.257142857143 0.666666666667
-0.428571428571 -0.52 -0.885714285714 0.666666666667
-0.428571428571 -0.52 -0.428571428571 0.666666666667
-0.428571428571 -0.52 0.257142857143 0.639483333333
-0.428571428571 -0.52 -0.885714285714 0.666666666667
-0.428571428571 -0.52 -0.428571428571 0.666666666667
-0.428571428571 -0.52 0.257142857143 0.652183333333
-0.428571428571 -0.52 -0.885714285714 0.61605
-0.428571428571 -0.52 -0.428571428571 0.666666666667
-0.428571428571 -0.52 0.257142857143 0.666666666667
-0.428571428571 0.0285714285714 -0.885714285714 0.642683333333
-0.428571428571 0.0285714285714 -0.428571428571 0.666666666667
-0.428571428571 0.0285714285714 0.257142857143 0.638033333333
-0.428571428571 0.0285714285714 -0.885714285714 0.666666666667
-0.428571428571 0.0285714285714 -0.428571428571 0.666666666667
-0.428571428571 0.0285714285714 0.257142857143 0.666666666667
-0.428571428571 0.0285714285714 -0.885714285714 0.666666666667
-0.428571428571 0.0285714285714 -0.428571428571 0.666666666667
-0.428571428571 0.0285714285714 0.257142857143 0.666666666667
0.257142857143 -0.885714285714 -0.885714285714 0.666666666667
0.257142857143 -0.885714285714 -0.428571428571 0.666666666667
0.257142857143 -0.885714285714 0.257142857143 0.666666666667
0.257142857143 -0.702857142857 -0.885714285714 0.666666666667
0.257142857143 -0.702857142857 -0.428571428571 0.666666666667
0.257142857143 -0.702857142857 0.257142857143 0.666666666667
0.257142857143 -0.428571428571 -0.885714285714 0.666666666667
0.257142857143 -0.428571428571 -0.428571428571 0.666666666667
0.257142857143 -0.428571428571 0.257142857143 0.666666666667
0.257142857143 -0.611428571429 -0.885714285714 0.666666666667
0.257142857143 -0.611428571429 -0.428571428571 0.666666666667
0.257142857143 -0.611428571429 0.257142857143 0.666666666667
0.257142857143 -0.428571428571 -0.885714285714 0.666666666667
0.257142857143 -0.428571428571 -0.428571428571 0.666666666667
0.257142857143 -0.428571428571 0.257142857143 0.666666666667
0.257142857143 -0.154285714286 -0.885714285714 0.666666666667
0.257142857143 -0.154285714286 -0.428571428571 0.666666666667
0.257142857143 -0.154285714286 0.257142857143 0.666666666667
0.257142857143 -0.2 -0.885714285714 0.666666666667
0.257142857143 -0.2 -0.428571428571 0.666666666667
0.257142857143 -0.2 0.257142857143 0.666666666667
0.257142857143 -0.0171428571429 -0.885714285714 0.666666666667
0.257142857143 -0.0171428571429 -0.428571428571 0.666666666667
0.257142857143 -0.0171428571429 0.257142857143 0.666666666667
0.257142857143 0.257142857143 -0.885714285714 0.666666666667
0.257142857143 0.257142857143 -0.428571428571 0.666666666667
0.257142857143 0.257142857143 0.257142857143 0.666666666667
0.257142857143 -0.657142857143 -0.885714285714 0.666666666667
0.257142857143 -0.657142857143 -0.428571428571 0.666666666667
0.257142857143 -0.657142857143 0.257142857143 0.666666666667
0.257142857143 -0.657142857143 -0.885714285714 0.666666666667
0.257142857143 -0.657142857143 -0.428571428571 0.666666666667
0.257142857143 -0.657142857143 0.257142857143 0.666666666667
0.257142857143 -0.657142857143 -0.885714285714 0.666666666667
0.257142857143 -0.657142857143 -0.428571428571 0.666666666667
0.257142857143 -0.657142857143 0.257142857143 0.666666666667
0.257142857143 -0.52 -0.885714285714 0.666666666667
0.257142857143 -0.52 -0.428571428571 0.666666666667
0.257142857143 -0.52 0.257142857143 0.666666666667
0.257142857143 -0.52 -0.885714285714 0.666666666667
0.257142857143 -0.52 -0.428571428571 0.666666666667
0.257142857143 -0.52 0.257142857143 0.666666666667
0.257142857143 -0.52 -0.885714285714 0.666666666667
0.257142857143 -0.52 -0.428571428571 0.666666666667
0.257142857143 -0.52 0.257142857143 0.666666666667
0.257142857143 0.0285714285714 -0.885714285714 0.666666666667
0.257142857143 0.0285714285714 -0.428571428571 0.666666666667
0.257142857143 0.0285714285714 0.257142857143 0.666666666667
0.257142857143 0.0285714285714 -0.885714285714 0.666666666667
0.257142857143 0.0285714285714 -0.428571428571 0.666666666667
0.257142857143 0.0285714285714 0.257142857143 0.666666666667
0.257142857143 0.0285714285714 -0.885714285714 0.666666666667
0.257142857143 0.0285714285714 -0.428571428571 0.666666666667
0.257142857143 0.0285714285714 0.257142857143 0.666666666667
0.257142857143 -0.885714285714 -0.885714285714 0.666666666667
0.257142857143 -0.885714285714 -0.428571428571 0.666666666667
0.257142857143 -0.885714285714 0.257142857143 0.666666666667
0.257142857143 -0.702857142857 -0.885714285714 0.666666666667
0.257142857143 -0.702857142857 -0.428571428571 0.666666666667
0.257142857143 -0.702857142857 0.257142857143 0.666666666667
0.257142857143 -0.428571428571 -0.885714285714 0.666666666667
0.257142857143 -0.428571428571 -0.428571428571 0.666666666667
0.257142857143 -0.428571428571 0.257142857143 0.666666666667
0.257142857143 -0.611428571429 -0.885714285714 0.666666666667
0.257142857143 -0.611428571429 -0.428571428571 0.666666666667
0.257142857143 -0.611428571429 0.257142857143 0.666666666667
0.257142857143 -0.428571428571 -0.885714285714 0.666666666667
0.257142857143 -0.428571428571 -0.428571428571 0.666666666667
0.257142857143 -0.428571428571 0.257142857143 0.666666666667
0.257142857143 -0.154285714286 -0.885714285714 0.666666666667
0.257142857143 -0.154285714286 -0.428571428571 0.666666666667
0.257142857143 -0.154285714286 0.257142857143 0.666666666667
0.257142857143 -0.2 -0.885714285714 0.666666666667
0.257142857143 -0.2 -0.428571428571 0.666666666667
0.257142857143 -0.2 0.257142857143 0.666666666667
0.257142857143 -0.0171428571429 -0.885714285714 0.666666666667
0.257142857143 -0.0171428571429 -0.428571428571 0.666666666667
0.257142857143 -0.0171428571429 0.257142857143 0.666666666667
0.257142857143 0.257142857143 -0.885714285714 0.666666666667
0.257142857143 0.257142857143 -0.428571428571 0.666666666667
0.257142857143 0.257142857143 0.257142857143 0.666666666667
0.257142857143 -0.657142857143 -0.885714285714 0.666666666667
0.257142857143 -0.657142857143 -0.428571428571 0.666666666667
0.257142857143 -0.657142857143 0.257142857143 0.666666666667
0.257142857143 -0.657142857143 -0.885714285714 0.666666666667
0.257142857143 -0.657142857143 -0.428571428571 0.666666666667
0.257142857143 -0.657142857143 0.257142857143 0.666666666667
0.257142857143 -0.657142857143 -0.885714285714 0.666666666667
0.257142857143 -0.657142857143 -0.428571428571 0.666666666667
0.257142857143 -0.657142857143 0.257142857143 0.666666666667
0.257142857143 -0.52 -0.885714285714 0.666666666667
0.257142857143 -0.52 -0.428571428571 0.666666666667
0.257142857143 -0.52 0.257142857143 0.666666666667
0.257142857143 -0.52 -0.885714285714 0.666666666667
0.257142857143 -0.52 -0.428571428571 0.666666666667
0.257142857143 -0.52 0.257142857143 0.666666666667
0.257142857143 -0.52 -0.885714285714 0.666666666667
0.257142857143 -0.52 -0.428571428571 0.666666666667
0.257142857143 -0.52 0.257142857143 0.666666666667
0.257142857143 0.0285714285714 -0.885714285714 0.666666666667
0.257142857143 0.0285714285714 -0.428571428571 0.666666666667
0.257142857143 0.0285714285714 0.257142857143 0.666666666667
0.257142857143 0.0285714285714 -0.885714285714 0.666666666667
0.257142857143 0.0285714285714 -0.428571428571 0.666666666667
0.257142857143 0.0285714285714 0.257142857143 0.666666666667
0.257142857143 0.0285714285714 -0.885714285714 0.666666666667
0.257142857143 0.0285714285714 -0.428571428571 0.666666666667
0.257142857143 0.0285714285714 0.257142857143 0.666666666667
0.257142857143 -0.885714285714 -0.885714285714 0.666666666667
0.257142857143 -0.885714285714 -0.428571428571 0.666666666667
0.257142857143 -0.885714285714 0.257142857143 0.666666666667
0.257142857143 -0.702857142857 -0.885714285714 0.666666666667
0.257142857143 -0.702857142857 -0.428571428571 0.666666666667
0.257142857143 -0.702857142857 0.257142857143 0.666666666667
0.257142857143 -0.428571428571 -0.885714285714 0.666666666667
0.257142857143 -0.428571428571 -0.428571428571 0.666666666667
0.257142857143 -0.428571428571 0.257142857143 0.666666666667
0.257142857143 -0.611428571429 -0.885714285714 0.666666666667
0.257142857143 -0.611428571429 -0.428571428571 0.666666666667
0.257142857143 -0.611428571429 0.257142857143 0.666666666667
0.257142857143 -0.428571428571 -0.885714285714 0.666666666667
0.257142857143 -0.428571428571 -0.428571428571 0.666666666667
0.257142857143 -0.428571428571 0.257142857143 0.666666666667
0.257142857143 -0.154285714286 -0.885714285714 0.666666666667
0.257142857143 -0.154285714286 -0.428571428571 0.666666666667
0.257142857143 -0.154285714286 0.257142857143 0.666666666667
0.257142857143 -0.2 -0.885714285714 0.666666666667
0.257142857143 -0.2 -0.428571428571 0.666666666667
0.257142857143 -0.2 0.257142857143 0.666666666667
0.257142857143 -0.0171428571429 -0.885714285714 0.666666666667
0.257142857143 -0.0171428571429 -0.428571428571 0.666666666667
0.257142857143 -0.0171428571429 0.257142857143 0.666666666667
0.257142857143 0.257142857143 -0.885714285714 0.666666666667
0.257142857143 0.257142857143 -0.428571428571 0.666666666667
0.257142857143 0.257142857143 0.257142857143 0.666666666667
0.257142857143 -0.657142857143 -0.885714285714 0.666666666667
0.257142857143 -0.657142857143 -0.428571428571 0.666666666667
0.257142857143 -0.657142857143 0.257142857143 0.666666666667
0.257142857143 -0.657142857143 -0.885714285714 0.666666666667
0.257142857143 -0.657142857143 -0.428571428571 0.666666666667
0.257142857143 -0.657142857143 0.257142857143 0.666666666667
0.257142857143 -0.657142857143 -0.885714285714 0.666666666667
0.257142857143 -0.657142857143 -0.428571428571 0.666666666667
0.257142857143 -0.657142857143 0.257142857143 0.666666666667
0.257142857143 -0.52 -0.885714285714 0.666666666667
0.257142857143 -0.52 -0.428571428571 0.666666666667
0.257142857143 -0.52 0.257142857143 0.666666666667
0.257142857143 -0.52 -0.885714285714 0.666666666667
0.257142857143 -0.52 -0.428571428571 0.666666666667
0.257142857143 -0.52 0.257142857143 0.666666666667
0.257142857143 -0.52 -0.885714285714 0.666666666667
0.257142857143 -0.52 -0.428571428571 0.666666666667
0.257142857143 -0.52 0.257142857143 0.666666666667
0.257142857143 0.0285714285714 -0.885714285714 0.666666666667
0.257142857143 0.0285714285714 -0.428571428571 0.666666666667
0.257142857143 0.0285714285714 0.257142857143 0.666666666667
0.257142857143 0.0285714285714 -0.885714285714 0.666666666667
0.257142857143 0.0285714285714 -0.428571428571 0.666666666667
0.257142857143 0.0285714285714 0.257142857143 0.666666666667
0.257142857143 0.0285714285714 -0.885714285714 0.666666666667
0.257142857143 0.0285714285714 -0.428571428571 0.666666666667
0.257142857143 0.0285714285714 0.257142857143 0.666666666667
0.257142857143 -0.885714285714 -0.885714285714 0.666666666667
0.257142857143 -0.885714285714 -0.428571428571 0.666666666667
0.257142857143 -0.885714285714 0.257142857143 0.666666666667
0.257142857143 -0.702857142857 -0.885714285714 0.666666666667
0.257142857143 -0.702857142857 -0.428571428571 0.666666666667
0.257142857143 -0.702857142857 0.257142857143 0.666666666667
0.257142857143 -0.428571428571 -0.885714285714 0.666666666667
0.257142857143 -0.428571428571 -0.428571428571 0.666666666667
0.257142857143 -0.428571428571 0.257142857143 0.666666666667
0.257142857143 -0.611428571429 -0.885714285714 0.666666666667
0.257142857143 -0.611428571429 -0.428571428571 0.666666666667
0.257142857143 -0.611428571429 0.257142857143 0.666666666667
0.257142857143 -0.428571428571 -0.885714285714 0.666666666667
0.257142857143 -0.428571428571 -0.428571428571 0.666666666667
0.257142857143 -0.428571428571 0.257142857143 0.666666666667
0.257142857143 -0.154285714286 -0.885714285714 0.666666666667
0.257142857143 -0.154285714286 -0.428571428571 0.666666666667
0.257142857143 -0.154285714286 0.257142857143 0.666666666667
0.257142857143 -0.2 -0.885714285714 0.666666666667
0.257142857143 -0.2 -0.428571428571 0.666666666667
0.257142857143 -0.2 0.257142857143 0.666666666667
0.257142857143 -0.0171428571429 -0.885714285714 0.666666666667
0.257142857143 -0.0171428571429 -0.428571428571 0.666666666667
0.257142857143 -0.0171428571429 0.257142857143 0.666666666667
0.257142857143 0.257142857143 -0.885714285714 0.666666666667
0.257142857143 0.257142857143 -0.428571428571 0.666666666667
0.257142857143 0.257142857143 0.257142857143 0.666666666667
0.257142857143 -0.657142857143 -0.885714285714 0.666666666667
0.257142857143 -0.657142857143 -0.428571428571 0.666666666667
0.257142857143 -0.657142857143 0.257142857143 0.666666666667
0.257142857143 -0.657142857143 -0.885714285714 0.666666666667
0.257142857143 -0.657142857143 -0.428571428571 0.666666666667
0.257142857143 -0.657142857143 0.257142857143 0.666666666667
0.257142857143 -0.657142857143 -0.885714285714 0.666666666667
0.257142857143 -0.657142857143 -0.428571428571 0.666666666667
0.257142857143 -0.657142857143 0.257142857143 0.666666666667
0.257142857143 -0.52 -0.885714285714 0.666666666667
0.257142857143 -0.52 -0.428571428571 0.666666666667
0.257142857143 -0.52 0.257142857143 0.666666666667
0.257142857143 -0.52 -0.885714285714 0.666666666667
0.257142857143 -0.52 -0.428571428571 0.666666666667
0.257142857143 -0.52 0.257142857143 0.666666666667
0.257142857143 -0.52 -0.885714285714 0.666666666667
0.257142857143 -0.52 -0.428571428571 0.666666666667
0.257142857143 -0.52 0.257142857143 0.666666666667
0.257142857143 0.0285714285714 -0.885714285714 0.666666666667
0.257142857143 0.0285714285714 -0.428571428571 0.666666666667
0.257142857143 0.0285714285714 0.257142857143 0.666666666667
0.257142857143 0.0285714285714 -0.885714285714 0.666666666667
0.257142857143 0.0285714285714 -0.428571428571 0.666666666667
0.257142857143 0.0285714285714 0.257142857143 0.666666666667
0.257142857143 0.0285714285714 -0.885714285714 0.666666666667
0.257142857143 0.0285714285714 -0.428571428571 0.666666666667
0.257142857143 0.0285714285714 0.257142857143 0.666666666667
