==============================================================================
LNS optimizer for EML demonstration
==============================================================================

Option values: --wld-idx 14 --prec 10000 --step 0 --global-tlim 90 --global-iter 1000 --local-tlim 3 --local-nsol 1 --restart-base 100 --restart-strat luby --seed 301

Starting the Optimization Process
reserved_tasks None
Finding a first solution
LNS iteration #0 ========================================
- worst case average CPI: 2.170
- worst case efficiency: 0.637
- efficiency to beat: 0.637
- normalized lower bound 704
--- checking solution
--- solution ok! Maximum rounding error: 0.000045
- solution found, obj var is: 749
- de-normalized obj var: 0.644940
- time (local/global): 0.000/0.000
- branches (local/global): 22/22
- fails (local/global): 0/0
- lns time: 0.005000
- lns branches: 22
- lns fails: 0
LNS iteration #1 ========================================
- worst case average CPI: 1.597
- worst case efficiency: 0.643
- efficiency to beat: 0.643
- normalized lower bound 806
--- checking solution
--- solution ok! Maximum rounding error: 0.000089
- solution found, obj var is: 817
- de-normalized obj var: 0.649020
- time (local/global): 0.001/0.006
- branches (local/global): 25/47
- fails (local/global): 2/2
- lns time: 0.005000
- lns branches: 25
- lns fails: 2
LNS iteration #2 ========================================
- worst case average CPI: 1.597
- worst case efficiency: 0.645
- efficiency to beat: 0.645
- normalized lower bound 833
- lns time: 3.004000
- lns branches: 179554
- lns fails: 87717
LNS iteration #3 ========================================
- worst case average CPI: 1.597
- worst case efficiency: 0.645
- efficiency to beat: 0.645
- normalized lower bound 833
--- checking solution
--- solution ok! Maximum rounding error: 0.000046
- solution found, obj var is: 835
- de-normalized obj var: 0.650100
- time (local/global): 0.313/3.327
- branches (local/global): 17425/197026
- fails (local/global): 8430/96149
- lns time: 0.317000
- lns branches: 17425
- lns fails: 8430
LNS iteration #4 ========================================
- worst case average CPI: 1.312
- worst case efficiency: 0.646
- efficiency to beat: 0.646
- normalized lower bound 849
--- checking solution
--- solution ok! Maximum rounding error: 0.000031
- solution found, obj var is: 1127
- de-normalized obj var: 0.667620
- time (local/global): 0.001/3.332
- branches (local/global): 23/197049
- fails (local/global): 1/96150
- lns time: 0.006000
- lns branches: 23
- lns fails: 1
LNS iteration #5 ========================================
- worst case average CPI: 1.182
- worst case efficiency: 0.649
- efficiency to beat: 0.649
- normalized lower bound 907
--- checking solution
--- solution ok! Maximum rounding error: 0.000050
- solution found, obj var is: 1124
- de-normalized obj var: 0.667440
- time (local/global): 0.001/3.338
- branches (local/global): 21/197070
- fails (local/global): 0/96150
- lns time: 0.005000
- lns branches: 21
- lns fails: 0
LNS iteration #6 ========================================
- worst case average CPI: 1.190
- worst case efficiency: 0.649
- efficiency to beat: 0.649
- normalized lower bound 909
--- checking solution
--- solution ok! Maximum rounding error: 0.000026
- solution found, obj var is: 933
- de-normalized obj var: 0.655980
- time (local/global): 0.001/3.343
- branches (local/global): 21/197091
- fails (local/global): 1/96151
- lns time: 0.005000
- lns branches: 21
- lns fails: 1
LNS iteration #7 ========================================
- worst case average CPI: 1.190
- worst case efficiency: 0.650
- efficiency to beat: 0.650
- normalized lower bound 925
- lns time: 3.004000
- lns branches: 186075
- lns fails: 91819
LNS iteration #8 ========================================
- worst case average CPI: 1.190
- worst case efficiency: 0.650
- efficiency to beat: 0.650
- normalized lower bound 925
--- checking solution
--- solution ok! Maximum rounding error: 0.000058
- solution found, obj var is: 960
- de-normalized obj var: 0.657600
- time (local/global): 0.024/6.375
- branches (local/global): 1757/384923
- fails (local/global): 818/188788
- lns time: 0.028000
- lns branches: 1757
- lns fails: 818
LNS iteration #9 ========================================
- worst case average CPI: 1.190
- worst case efficiency: 0.651
- efficiency to beat: 0.651
- normalized lower bound 931
--- checking solution
--- solution ok! Maximum rounding error: 0.000049
- solution found, obj var is: 1006
- de-normalized obj var: 0.660360
- time (local/global): 0.003/6.382
- branches (local/global): 245/385168
- fails (local/global): 102/188890
- lns time: 0.007000
- lns branches: 245
- lns fails: 102
LNS iteration #10 ========================================
- worst case average CPI: 1.190
- worst case efficiency: 0.651
- efficiency to beat: 0.651
- normalized lower bound 932
--- checking solution
--- solution ok! Maximum rounding error: 0.000114
- solution found, obj var is: 2528
- de-normalized obj var: 0.751680
- time (local/global): 0.001/6.387
- branches (local/global): 22/385190
- fails (local/global): 0/188890
- lns time: 0.005000
- lns branches: 22
- lns fails: 0
LNS iteration #11 ========================================
- worst case average CPI: 1.190
- worst case efficiency: 0.651
- efficiency to beat: 0.651
- normalized lower bound 939
--- checking solution
--- solution ok! Maximum rounding error: 0.000071
- solution found, obj var is: 945
- de-normalized obj var: 0.656700
- time (local/global): 0.001/6.392
- branches (local/global): 21/385211
- fails (local/global): 0/188890
- lns time: 0.005000
- lns branches: 21
- lns fails: 0
LNS iteration #12 ========================================
- worst case average CPI: 1.190
- worst case efficiency: 0.652
- efficiency to beat: 0.652
- normalized lower bound 954
--- checking solution
--- solution ok! Maximum rounding error: 0.000164
- solution found, obj var is: 1860
- de-normalized obj var: 0.711600
- time (local/global): 0.001/6.397
- branches (local/global): 23/385234
- fails (local/global): 0/188890
- lns time: 0.005000
- lns branches: 23
- lns fails: 0
LNS iteration #13 ========================================
- worst case average CPI: 1.190
- worst case efficiency: 0.656
- efficiency to beat: 0.656
- normalized lower bound 1010
--- checking solution
--- solution ok! Maximum rounding error: 0.000027
- solution found, obj var is: 1032
- de-normalized obj var: 0.661920
- time (local/global): 0.001/6.402
- branches (local/global): 28/385262
- fails (local/global): 5/188895
- lns time: 0.005000
- lns branches: 28
- lns fails: 5
LNS iteration #14 ========================================
- worst case average CPI: 1.190
- worst case efficiency: 0.657
- efficiency to beat: 0.657
- normalized lower bound 1028
--- checking solution
--- solution ok! Maximum rounding error: 0.000087
- solution found, obj var is: 1079
- de-normalized obj var: 0.664740
- time (local/global): 0.001/6.407
- branches (local/global): 22/385284
- fails (local/global): 0/188895
- lns time: 0.005000
- lns branches: 22
- lns fails: 0
LNS iteration #15 ========================================
- worst case average CPI: 1.190
- worst case efficiency: 0.658
- efficiency to beat: 0.658
- normalized lower bound 1057
--- checking solution
--- solution ok! Maximum rounding error: 0.000041
- solution found, obj var is: 1123
- de-normalized obj var: 0.667380
- time (local/global): 0.001/6.412
- branches (local/global): 22/385306
- fails (local/global): 0/188895
- lns time: 0.005000
- lns branches: 22
- lns fails: 0
LNS iteration #16 ========================================
- worst case average CPI: 1.190
- worst case efficiency: 0.658
- efficiency to beat: 0.658
- normalized lower bound 1059
--- checking solution
--- solution ok! Maximum rounding error: 0.000075
- solution found, obj var is: 1059
- de-normalized obj var: 0.663540
- time (local/global): 0.003/6.419
- branches (local/global): 252/385558
- fails (local/global): 108/189003
- lns time: 0.007000
- lns branches: 252
- lns fails: 108
LNS iteration #17 ========================================
- worst case average CPI: 1.190
- worst case efficiency: 0.660
- efficiency to beat: 0.660
- normalized lower bound 1083
--- checking solution
--- solution ok! Maximum rounding error: 0.000063
- solution found, obj var is: 1108
- de-normalized obj var: 0.666480
- time (local/global): 0.001/6.424
- branches (local/global): 25/385583
- fails (local/global): 2/189005
- lns time: 0.005000
- lns branches: 25
- lns fails: 2
LNS iteration #18 ========================================
- worst case average CPI: 1.190
- worst case efficiency: 0.661
- efficiency to beat: 0.661
- normalized lower bound 1099
--- checking solution
--- solution ok! Maximum rounding error: 0.000000
- solution found, obj var is: 1101
- de-normalized obj var: 0.666060
- time (local/global): 0.001/6.429
- branches (local/global): 49/385632
- fails (local/global): 13/189018
- lns time: 0.005000
- lns branches: 49
- lns fails: 13
LNS iteration #19 ========================================
- worst case average CPI: 1.190
- worst case efficiency: 0.662
- efficiency to beat: 0.662
- normalized lower bound 1116
--- checking solution
--- solution ok! Maximum rounding error: 0.000057
- solution found, obj var is: 1140
- de-normalized obj var: 0.668400
- time (local/global): 0.001/6.434
- branches (local/global): 33/385665
- fails (local/global): 7/189025
- lns time: 0.005000
- lns branches: 33
- lns fails: 7
LNS iteration #20 ========================================
- worst case average CPI: 1.190
- worst case efficiency: 0.662
- efficiency to beat: 0.662
- normalized lower bound 1124
- lns time: 3.004000
- lns branches: 176148
- lns fails: 86357
LNS iteration #21 ========================================
- worst case average CPI: 1.190
- worst case efficiency: 0.662
- efficiency to beat: 0.662
- normalized lower bound 1124
--- checking solution
--- solution ok! Maximum rounding error: 0.000055
- solution found, obj var is: 1126
- de-normalized obj var: 0.667560
- time (local/global): 0.053/9.495
- branches (local/global): 3412/565225
- fails (local/global): 1623/277005
- lns time: 0.057000
- lns branches: 3412
- lns fails: 1623
LNS iteration #22 ========================================
- worst case average CPI: 1.190
- worst case efficiency: 0.662
- efficiency to beat: 0.662
- normalized lower bound 1125
--- checking solution
--- solution ok! Maximum rounding error: 0.000070
- solution found, obj var is: 1377
- de-normalized obj var: 0.682620
- time (local/global): 0.001/9.500
- branches (local/global): 22/565247
- fails (local/global): 0/277005
- lns time: 0.005000
- lns branches: 22
- lns fails: 0
LNS iteration #23 ========================================
- worst case average CPI: 1.190
- worst case efficiency: 0.664
- efficiency to beat: 0.664
- normalized lower bound 1152
--- checking solution
--- solution ok! Maximum rounding error: 0.000043
- solution found, obj var is: 1153
- de-normalized obj var: 0.669180
- time (local/global): 0.090/9.594
- branches (local/global): 6868/572115
- fails (local/global): 3357/280362
- lns time: 0.094000
- lns branches: 6868
- lns fails: 3357
LNS iteration #24 ========================================
- worst case average CPI: 1.185
- worst case efficiency: 0.665
- efficiency to beat: 0.665
- normalized lower bound 1165
--- checking solution
--- solution ok! Maximum rounding error: 0.000000
- solution found, obj var is: 1166
- de-normalized obj var: 0.669960
- time (local/global): 0.003/9.601
- branches (local/global): 122/572237
- fails (local/global): 51/280413
- lns time: 0.007000
- lns branches: 122
- lns fails: 51
LNS iteration #25 ========================================
- worst case average CPI: 1.185
- worst case efficiency: 0.666
- efficiency to beat: 0.666
- normalized lower bound 1184
--- checking solution
--- solution ok! Maximum rounding error: 0.000063
- solution found, obj var is: 1266
- de-normalized obj var: 0.675960
- time (local/global): 0.001/9.606
- branches (local/global): 25/572262
- fails (local/global): 2/280415
- lns time: 0.005000
- lns branches: 25
- lns fails: 2
LNS iteration #26 ========================================
- worst case average CPI: 1.185
- worst case efficiency: 0.667
- efficiency to beat: 0.667
- normalized lower bound 1194
--- checking solution
--- solution ok! Maximum rounding error: 0.000134
- solution found, obj var is: 1762
- de-normalized obj var: 0.705720
- time (local/global): 0.001/9.611
- branches (local/global): 21/572283
- fails (local/global): 0/280415
- lns time: 0.005000
- lns branches: 21
- lns fails: 0
LNS iteration #27 ========================================
- worst case average CPI: 1.185
- worst case efficiency: 0.667
- efficiency to beat: 0.667
- normalized lower bound 1208
--- checking solution
--- solution ok! Maximum rounding error: 0.000094
- solution found, obj var is: 1413
- de-normalized obj var: 0.684780
- time (local/global): 0.001/9.616
- branches (local/global): 21/572304
- fails (local/global): 0/280415
- lns time: 0.005000
- lns branches: 21
- lns fails: 0
LNS iteration #28 ========================================
- worst case average CPI: 1.185
- worst case efficiency: 0.668
- efficiency to beat: 0.668
- normalized lower bound 1219
--- checking solution
--- solution ok! Maximum rounding error: 0.000042
- solution found, obj var is: 1235
- de-normalized obj var: 0.674100
- time (local/global): 0.001/9.621
- branches (local/global): 21/572325
- fails (local/global): 0/280415
- lns time: 0.005000
- lns branches: 21
- lns fails: 0
LNS iteration #29 ========================================
- worst case average CPI: 1.185
- worst case efficiency: 0.668
- efficiency to beat: 0.668
- normalized lower bound 1217
--- checking solution
--- solution ok! Maximum rounding error: 0.000038
- solution found, obj var is: 1258
- de-normalized obj var: 0.675480
- time (local/global): 0.004/9.629
- branches (local/global): 414/572739
- fails (local/global): 189/280604
- lns time: 0.008000
- lns branches: 414
- lns fails: 189
LNS iteration #30 ========================================
- worst case average CPI: 1.190
- worst case efficiency: 0.668
- efficiency to beat: 0.668
- normalized lower bound 1218
--- checking solution
--- solution ok! Maximum rounding error: 0.000066
- solution found, obj var is: 1303
- de-normalized obj var: 0.678180
- time (local/global): 0.001/9.634
- branches (local/global): 22/572761
- fails (local/global): 0/280604
- lns time: 0.005000
- lns branches: 22
- lns fails: 0
LNS iteration #31 ========================================
- worst case average CPI: 1.190
- worst case efficiency: 0.668
- efficiency to beat: 0.668
- normalized lower bound 1221
--- checking solution
--- solution ok! Maximum rounding error: 0.000094
- solution found, obj var is: 1299
- de-normalized obj var: 0.677940
- time (local/global): 0.001/9.639
- branches (local/global): 18/572779
- fails (local/global): 0/280604
- lns time: 0.005000
- lns branches: 18
- lns fails: 0
LNS iteration #32 ========================================
- worst case average CPI: 1.190
- worst case efficiency: 0.669
- efficiency to beat: 0.669
- normalized lower bound 1234
--- checking solution
--- solution ok! Maximum rounding error: 0.000042
- solution found, obj var is: 1384
- de-normalized obj var: 0.683040
- time (local/global): 0.001/9.644
- branches (local/global): 21/572800
- fails (local/global): 0/280604
- lns time: 0.005000
- lns branches: 21
- lns fails: 0
LNS iteration #33 ========================================
- worst case average CPI: 1.190
- worst case efficiency: 0.669
- efficiency to beat: 0.669
- normalized lower bound 1239
--- checking solution
--- solution ok! Maximum rounding error: 0.000093
- solution found, obj var is: 1381
- de-normalized obj var: 0.682860
- time (local/global): 0.001/9.649
- branches (local/global): 25/572825
- fails (local/global): 1/280605
- lns time: 0.005000
- lns branches: 25
- lns fails: 1
LNS iteration #34 ========================================
- worst case average CPI: 1.190
- worst case efficiency: 0.669
- efficiency to beat: 0.669
- normalized lower bound 1242
--- checking solution
--- solution ok! Maximum rounding error: 0.000025
- solution found, obj var is: 1253
- de-normalized obj var: 0.675180
- time (local/global): 0.006/9.659
- branches (local/global): 546/573371
- fails (local/global): 248/280853
- lns time: 0.010000
- lns branches: 546
- lns fails: 248
LNS iteration #35 ========================================
- worst case average CPI: 1.190
- worst case efficiency: 0.670
- efficiency to beat: 0.670
- normalized lower bound 1244
--- checking solution
--- solution ok! Maximum rounding error: 0.000059
- solution found, obj var is: 1248
- de-normalized obj var: 0.674880
- time (local/global): 0.001/9.664
- branches (local/global): 19/573390
- fails (local/global): 0/280853
- lns time: 0.005000
- lns branches: 19
- lns fails: 0
LNS iteration #36 ========================================
- worst case average CPI: 1.190
- worst case efficiency: 0.670
- efficiency to beat: 0.670
- normalized lower bound 1252
--- checking solution
--- solution ok! Maximum rounding error: 0.000026
- solution found, obj var is: 1463
- de-normalized obj var: 0.687780
- time (local/global): 0.002/9.670
- branches (local/global): 239/573629
- fails (local/global): 106/280959
- lns time: 0.006000
- lns branches: 239
- lns fails: 106
LNS iteration #37 ========================================
- worst case average CPI: 1.190
- worst case efficiency: 0.670
- efficiency to beat: 0.670
- normalized lower bound 1254
--- checking solution
XXX Rounding error: 8
--- solution ok! Maximum rounding error: 0.000417
- solution found, obj var is: 1286
- de-normalized obj var: 0.677160
- time (local/global): 0.001/9.675
- branches (local/global): 20/573649
- fails (local/global): 0/280959
- lns time: 0.005000
- lns branches: 20
- lns fails: 0
LNS iteration #38 ========================================
- worst case average CPI: 1.190
- worst case efficiency: 0.672
- efficiency to beat: 0.672
- normalized lower bound 1279
--- checking solution
--- solution ok! Maximum rounding error: 0.000064
- solution found, obj var is: 1279
- de-normalized obj var: 0.676740
- time (local/global): 0.011/9.690
- branches (local/global): 1115/574764
- fails (local/global): 530/281489
- lns time: 0.015000
- lns branches: 1115
- lns fails: 530
LNS iteration #39 ========================================
- worst case average CPI: 1.190
- worst case efficiency: 0.674
- efficiency to beat: 0.674
- normalized lower bound 1322
--- checking solution
--- solution ok! Maximum rounding error: 0.000013
- solution found, obj var is: 1325
- de-normalized obj var: 0.679500
- time (local/global): 0.015/9.709
- branches (local/global): 1200/575964
- fails (local/global): 572/282061
- lns time: 0.019000
- lns branches: 1200
- lns fails: 572
LNS iteration #40 ========================================
- worst case average CPI: 1.190
- worst case efficiency: 0.675
- efficiency to beat: 0.675
- normalized lower bound 1332
--- checking solution
--- solution ok! Maximum rounding error: 0.000073
- solution found, obj var is: 1384
- de-normalized obj var: 0.683040
- time (local/global): 0.000/9.713
- branches (local/global): 19/575983
- fails (local/global): 0/282061
- lns time: 0.004000
- lns branches: 19
- lns fails: 0
LNS iteration #41 ========================================
- worst case average CPI: 1.190
- worst case efficiency: 0.675
- efficiency to beat: 0.675
- normalized lower bound 1338
--- checking solution
--- solution ok! Maximum rounding error: 0.000100
- solution found, obj var is: 2392
- de-normalized obj var: 0.743520
- time (local/global): 0.000/9.717
- branches (local/global): 22/576005
- fails (local/global): 0/282061
- lns time: 0.004000
- lns branches: 22
- lns fails: 0
LNS iteration #42 ========================================
- worst case average CPI: 1.190
- worst case efficiency: 0.676
- efficiency to beat: 0.676
- normalized lower bound 1351
--- checking solution
--- solution ok! Maximum rounding error: 0.000047
- solution found, obj var is: 1415
- de-normalized obj var: 0.684900
- time (local/global): 0.001/9.722
- branches (local/global): 19/576024
- fails (local/global): 0/282061
- lns time: 0.005000
- lns branches: 19
- lns fails: 0
LNS iteration #43 ========================================
- worst case average CPI: 1.190
- worst case efficiency: 0.677
- efficiency to beat: 0.677
- normalized lower bound 1366
--- checking solution
--- solution ok! Maximum rounding error: 0.000071
- solution found, obj var is: 1477
- de-normalized obj var: 0.688620
- time (local/global): 0.001/9.727
- branches (local/global): 21/576045
- fails (local/global): 0/282061
- lns time: 0.005000
- lns branches: 21
- lns fails: 0
LNS iteration #44 ========================================
- worst case average CPI: 1.190
- worst case efficiency: 0.677
- efficiency to beat: 0.677
- normalized lower bound 1368
- lns time: 3.004000
- lns branches: 230243
- lns fails: 112658
LNS iteration #45 ========================================
- worst case average CPI: 1.190
- worst case efficiency: 0.677
- efficiency to beat: 0.677
- normalized lower bound 1368
--- checking solution
--- solution ok! Maximum rounding error: 0.000075
- solution found, obj var is: 1374
- de-normalized obj var: 0.682440
- time (local/global): 0.019/12.754
- branches (local/global): 1722/808010
- fails (local/global): 800/395519
- lns time: 0.023000
- lns branches: 1722
- lns fails: 800
LNS iteration #46 ========================================
- worst case average CPI: 1.190
- worst case efficiency: 0.678
- efficiency to beat: 0.678
- normalized lower bound 1379
--- checking solution
--- solution ok! Maximum rounding error: 0.000116
- solution found, obj var is: 1392
- de-normalized obj var: 0.683520
- time (local/global): 0.001/12.759
- branches (local/global): 23/808033
- fails (local/global): 2/395521
- lns time: 0.005000
- lns branches: 23
- lns fails: 2
LNS iteration #47 ========================================
- worst case average CPI: 1.190
- worst case efficiency: 0.679
- efficiency to beat: 0.679
- normalized lower bound 1399
--- checking solution
--- solution ok! Maximum rounding error: 0.000000
- solution found, obj var is: 1465
- de-normalized obj var: 0.687900
- time (local/global): 0.006/12.769
- branches (local/global): 446/808479
- fails (local/global): 200/395721
- lns time: 0.011000
- lns branches: 446
- lns fails: 200
LNS iteration #48 ========================================
- worst case average CPI: 1.190
- worst case efficiency: 0.680
- efficiency to beat: 0.680
- normalized lower bound 1410
--- checking solution
--- solution ok! Maximum rounding error: 0.000000
- solution found, obj var is: 1414
- de-normalized obj var: 0.684840
- time (local/global): 0.491/13.265
- branches (local/global): 49735/858214
- fails (local/global): 24101/419822
- lns time: 0.495000
- lns branches: 49735
- lns fails: 24101
LNS iteration #49 ========================================
- worst case average CPI: 1.190
- worst case efficiency: 0.679
- efficiency to beat: 0.679
- normalized lower bound 1407
--- checking solution
--- solution ok! Maximum rounding error: 0.000061
- solution found, obj var is: 1443
- de-normalized obj var: 0.686580
- time (local/global): 0.003/13.272
- branches (local/global): 253/858467
- fails (local/global): 109/419931
- lns time: 0.007000
- lns branches: 253
- lns fails: 109
LNS iteration #50 ========================================
- worst case average CPI: 0.990
- worst case efficiency: 0.681
- efficiency to beat: 0.681
- normalized lower bound 1436
--- checking solution
--- solution ok! Maximum rounding error: 0.000157
- solution found, obj var is: 1637
- de-normalized obj var: 0.698220
- time (local/global): 0.000/13.276
- branches (local/global): 16/858483
- fails (local/global): 0/419931
- lns time: 0.004000
- lns branches: 16
- lns fails: 0
LNS iteration #51 ========================================
- worst case average CPI: 0.990
- worst case efficiency: 0.681
- efficiency to beat: 0.681
- normalized lower bound 1437
--- checking solution
--- solution ok! Maximum rounding error: 0.000082
- solution found, obj var is: 1450
- de-normalized obj var: 0.687000
- time (local/global): 0.013/13.293
- branches (local/global): 1178/859661
- fails (local/global): 545/420476
- lns time: 0.017000
- lns branches: 1178
- lns fails: 545
LNS iteration #52 ========================================
- worst case average CPI: 0.990
- worst case efficiency: 0.682
- efficiency to beat: 0.682
- normalized lower bound 1444
--- checking solution
--- solution ok! Maximum rounding error: 0.000184
- solution found, obj var is: 1511
- de-normalized obj var: 0.690660
- time (local/global): 0.013/13.310
- branches (local/global): 1375/861036
- fails (local/global): 657/421133
- lns time: 0.017000
- lns branches: 1375
- lns fails: 657
LNS iteration #53 ========================================
- worst case average CPI: 0.990
- worst case efficiency: 0.683
- efficiency to beat: 0.683
- normalized lower bound 1461
--- checking solution
--- solution ok! Maximum rounding error: 0.000131
- solution found, obj var is: 1530
- de-normalized obj var: 0.691800
- time (local/global): 0.001/13.315
- branches (local/global): 23/861059
- fails (local/global): 2/421135
- lns time: 0.005000
- lns branches: 23
- lns fails: 2
LNS iteration #54 ========================================
- worst case average CPI: 0.990
- worst case efficiency: 0.683
- efficiency to beat: 0.683
- normalized lower bound 1469
--- checking solution
--- solution ok! Maximum rounding error: 0.000054
- solution found, obj var is: 1475
- de-normalized obj var: 0.688500
- time (local/global): 0.117/13.436
- branches (local/global): 9403/870462
- fails (local/global): 4508/425643
- lns time: 0.121000
- lns branches: 9403
- lns fails: 4508
LNS iteration #55 ========================================
- worst case average CPI: 0.990
- worst case efficiency: 0.683
- efficiency to beat: 0.683
- normalized lower bound 1470
--- checking solution
--- solution ok! Maximum rounding error: 0.000161
- solution found, obj var is: 1930
- de-normalized obj var: 0.715800
- time (local/global): 0.001/13.441
- branches (local/global): 21/870483
- fails (local/global): 0/425643
- lns time: 0.006000
- lns branches: 21
- lns fails: 0
LNS iteration #56 ========================================
- worst case average CPI: 0.990
- worst case efficiency: 0.684
- efficiency to beat: 0.684
- normalized lower bound 1490
--- checking solution
--- solution ok! Maximum rounding error: 0.000068
- solution found, obj var is: 1501
- de-normalized obj var: 0.690060
- time (local/global): 0.005/13.451
- branches (local/global): 322/870805
- fails (local/global): 144/425787
- lns time: 0.009000
- lns branches: 322
- lns fails: 144
LNS iteration #57 ========================================
- worst case average CPI: 0.990
- worst case efficiency: 0.685
- efficiency to beat: 0.685
- normalized lower bound 1499
--- checking solution
--- solution ok! Maximum rounding error: 0.000064
- solution found, obj var is: 1505
- de-normalized obj var: 0.690300
- time (local/global): 0.011/13.466
- branches (local/global): 978/871783
- fails (local/global): 456/426243
- lns time: 0.016000
- lns branches: 978
- lns fails: 456
LNS iteration #58 ========================================
- worst case average CPI: 0.990
- worst case efficiency: 0.686
- efficiency to beat: 0.686
- normalized lower bound 1511
--- checking solution
--- solution ok! Maximum rounding error: 0.000019
- solution found, obj var is: 1612
- de-normalized obj var: 0.696720
- time (local/global): 0.015/13.486
- branches (local/global): 1357/873140
- fails (local/global): 629/426872
- lns time: 0.019000
- lns branches: 1357
- lns fails: 629
LNS iteration #59 ========================================
- worst case average CPI: 0.990
- worst case efficiency: 0.686
- efficiency to beat: 0.686
- normalized lower bound 1522
--- checking solution
--- solution ok! Maximum rounding error: 0.000067
- solution found, obj var is: 1571
- de-normalized obj var: 0.694260
- time (local/global): 0.047/13.537
- branches (local/global): 3198/876338
- fails (local/global): 1517/428389
- lns time: 0.051000
- lns branches: 3198
- lns fails: 1517
LNS iteration #60 ========================================
- worst case average CPI: 0.990
- worst case efficiency: 0.687
- efficiency to beat: 0.687
- normalized lower bound 1538
--- checking solution
--- solution ok! Maximum rounding error: 0.000087
- solution found, obj var is: 1558
- de-normalized obj var: 0.693480
- time (local/global): 0.121/13.662
- branches (local/global): 8406/884744
- fails (local/global): 4013/432402
- lns time: 0.125000
- lns branches: 8406
- lns fails: 4013
LNS iteration #61 ========================================
- worst case average CPI: 0.990
- worst case efficiency: 0.688
- efficiency to beat: 0.688
- normalized lower bound 1547
--- checking solution
--- solution ok! Maximum rounding error: 0.000032
- solution found, obj var is: 1555
- de-normalized obj var: 0.693300
- time (local/global): 2.205/15.871
- branches (local/global): 145144/1029888
- fails (local/global): 70937/503339
- lns time: 2.209000
- lns branches: 145144
- lns fails: 70937
LNS iteration #62 ========================================
- worst case average CPI: 0.990
- worst case efficiency: 0.688
- efficiency to beat: 0.688
- normalized lower bound 1552
--- checking solution
--- solution ok! Maximum rounding error: 0.000133
- solution found, obj var is: 1606
- de-normalized obj var: 0.696360
- time (local/global): 0.003/15.878
- branches (local/global): 240/1030128
- fails (local/global): 102/503441
- lns time: 0.007000
- lns branches: 240
- lns fails: 102
LNS iteration #63 ========================================
- worst case average CPI: 0.990
- worst case efficiency: 0.688
- efficiency to beat: 0.688
- normalized lower bound 1552
--- checking solution
--- solution ok! Maximum rounding error: 0.000024
- solution found, obj var is: 1554
- de-normalized obj var: 0.693240
- time (local/global): 0.053/15.935
- branches (local/global): 4170/1034298
- fails (local/global): 1984/505425
- lns time: 0.057000
- lns branches: 4170
- lns fails: 1984
LNS iteration #64 ========================================
- worst case average CPI: 0.990
- worst case efficiency: 0.690
- efficiency to beat: 0.690
- normalized lower bound 1582
--- checking solution
--- solution ok! Maximum rounding error: 0.000012
- solution found, obj var is: 1614
- de-normalized obj var: 0.696840
- time (local/global): 0.126/16.065
- branches (local/global): 10430/1044728
- fails (local/global): 5001/510426
- lns time: 0.130000
- lns branches: 10430
- lns fails: 5001
LNS iteration #65 ========================================
- worst case average CPI: 0.990
- worst case efficiency: 0.690
- efficiency to beat: 0.690
- normalized lower bound 1589
--- checking solution
--- solution ok! Maximum rounding error: 0.000088
- solution found, obj var is: 1630
- de-normalized obj var: 0.697800
- time (local/global): 0.034/16.103
- branches (local/global): 2771/1047499
- fails (local/global): 1313/511739
- lns time: 0.038000
- lns branches: 2771
- lns fails: 1313
LNS iteration #66 ========================================
- worst case average CPI: 0.990
- worst case efficiency: 0.690
- efficiency to beat: 0.690
- normalized lower bound 1590
--- checking solution
--- solution ok! Maximum rounding error: 0.000080
- solution found, obj var is: 1590
- de-normalized obj var: 0.695400
- time (local/global): 0.039/16.146
- branches (local/global): 2579/1050078
- fails (local/global): 1229/512968
- lns time: 0.043000
- lns branches: 2579
- lns fails: 1229
LNS iteration #67 ========================================
- worst case average CPI: 0.990
- worst case efficiency: 0.692
- efficiency to beat: 0.692
- normalized lower bound 1619
--- checking solution
--- solution ok! Maximum rounding error: 0.000078
- solution found, obj var is: 1621
- de-normalized obj var: 0.697260
- time (local/global): 0.017/16.167
- branches (local/global): 1165/1051243
- fails (local/global): 547/513515
- lns time: 0.021000
- lns branches: 1165
- lns fails: 547
LNS iteration #68 ========================================
- worst case average CPI: 0.880
- worst case efficiency: 0.692
- efficiency to beat: 0.692
- normalized lower bound 1625
--- checking solution
--- solution ok! Maximum rounding error: 0.000074
- solution found, obj var is: 1667
- de-normalized obj var: 0.700020
- time (local/global): 0.017/16.188
- branches (local/global): 1716/1052959
- fails (local/global): 802/514317
- lns time: 0.021000
- lns branches: 1716
- lns fails: 802
LNS iteration #69 ========================================
- worst case average CPI: 0.978
- worst case efficiency: 0.693
- efficiency to beat: 0.693
- normalized lower bound 1635
--- checking solution
--- solution ok! Maximum rounding error: 0.000028
- solution found, obj var is: 1641
- de-normalized obj var: 0.698460
- time (local/global): 0.027/16.219
- branches (local/global): 1881/1054840
- fails (local/global): 889/515206
- lns time: 0.031000
- lns branches: 1881
- lns fails: 889
LNS iteration #70 ========================================
- worst case average CPI: 0.978
- worst case efficiency: 0.693
- efficiency to beat: 0.693
- normalized lower bound 1640
--- checking solution
--- solution ok! Maximum rounding error: 0.000084
- solution found, obj var is: 1666
- de-normalized obj var: 0.699960
- time (local/global): 0.010/16.233
- branches (local/global): 866/1055706
- fails (local/global): 413/515619
- lns time: 0.014000
- lns branches: 866
- lns fails: 413
LNS iteration #71 ========================================
- worst case average CPI: 0.978
- worst case efficiency: 0.694
- efficiency to beat: 0.694
- normalized lower bound 1645
--- checking solution
--- solution ok! Maximum rounding error: 0.000012
- solution found, obj var is: 1713
- de-normalized obj var: 0.702780
- time (local/global): 0.018/16.255
- branches (local/global): 1720/1057426
- fails (local/global): 801/516420
- lns time: 0.022000
- lns branches: 1720
- lns fails: 801
LNS iteration #72 ========================================
- worst case average CPI: 0.978
- worst case efficiency: 0.694
- efficiency to beat: 0.694
- normalized lower bound 1647
--- checking solution
--- solution ok! Maximum rounding error: 0.000075
- solution found, obj var is: 1674
- de-normalized obj var: 0.700440
- time (local/global): 0.041/16.300
- branches (local/global): 3169/1060595
- fails (local/global): 1501/517921
- lns time: 0.045000
- lns branches: 3169
- lns fails: 1501
LNS iteration #73 ========================================
- worst case average CPI: 0.978
- worst case efficiency: 0.695
- efficiency to beat: 0.695
- normalized lower bound 1667
- lns time: 3.004000
- lns branches: 265627
- lns fails: 130011
LNS iteration #74 ========================================
- worst case average CPI: 0.978
- worst case efficiency: 0.695
- efficiency to beat: 0.695
- normalized lower bound 1667
--- checking solution
--- solution ok! Maximum rounding error: 0.000070
- solution found, obj var is: 1675
- de-normalized obj var: 0.700500
- time (local/global): 0.172/19.480
- branches (local/global): 9593/1335815
- fails (local/global): 4611/652543
- lns time: 0.176000
- lns branches: 9593
- lns fails: 4611
LNS iteration #75 ========================================
- worst case average CPI: 0.978
- worst case efficiency: 0.695
- efficiency to beat: 0.695
- normalized lower bound 1669
--- checking solution
--- solution ok! Maximum rounding error: 0.000062
- solution found, obj var is: 1715
- de-normalized obj var: 0.702900
- time (local/global): 0.008/19.492
- branches (local/global): 459/1336274
- fails (local/global): 204/652747
- lns time: 0.012000
- lns branches: 459
- lns fails: 204
LNS iteration #76 ========================================
- worst case average CPI: 0.978
- worst case efficiency: 0.696
- efficiency to beat: 0.696
- normalized lower bound 1684
--- checking solution
--- solution ok! Maximum rounding error: 0.000232
- solution found, obj var is: 1719
- de-normalized obj var: 0.703140
- time (local/global): 0.006/19.502
- branches (local/global): 449/1336723
- fails (local/global): 200/652947
- lns time: 0.010000
- lns branches: 449
- lns fails: 200
LNS iteration #77 ========================================
- worst case average CPI: 0.978
- worst case efficiency: 0.696
- efficiency to beat: 0.696
- normalized lower bound 1690
--- checking solution
--- solution ok! Maximum rounding error: 0.000071
- solution found, obj var is: 1781
- de-normalized obj var: 0.706860
- time (local/global): 0.001/19.507
- branches (local/global): 21/1336744
- fails (local/global): 0/652947
- lns time: 0.005000
- lns branches: 21
- lns fails: 0
LNS iteration #78 ========================================
- worst case average CPI: 0.978
- worst case efficiency: 0.697
- efficiency to beat: 0.697
- normalized lower bound 1694
--- checking solution
--- solution ok! Maximum rounding error: 0.000059
- solution found, obj var is: 1795
- de-normalized obj var: 0.707700
- time (local/global): 0.034/19.545
- branches (local/global): 2533/1339277
- fails (local/global): 1203/654150
- lns time: 0.038000
- lns branches: 2533
- lns fails: 1203
LNS iteration #79 ========================================
- worst case average CPI: 0.978
- worst case efficiency: 0.697
- efficiency to beat: 0.697
- normalized lower bound 1703
- lns time: 3.004000
- lns branches: 251513
- lns fails: 123177
LNS iteration #80 ========================================
- worst case average CPI: 0.978
- worst case efficiency: 0.697
- efficiency to beat: 0.697
- normalized lower bound 1703
- lns time: 3.004000
- lns branches: 267228
- lns fails: 130777
LNS iteration #81 ========================================
- worst case average CPI: 0.978
- worst case efficiency: 0.697
- efficiency to beat: 0.697
- normalized lower bound 1703
--- checking solution
--- solution ok! Maximum rounding error: 0.000061
- solution found, obj var is: 1726
- de-normalized obj var: 0.703560
- time (local/global): 0.873/26.430
- branches (local/global): 69241/1927259
- fails (local/global): 33684/941788
- lns time: 0.877000
- lns branches: 69241
- lns fails: 33684
LNS iteration #82 ========================================
- worst case average CPI: 0.978
- worst case efficiency: 0.698
- efficiency to beat: 0.698
- normalized lower bound 1710
--- checking solution
--- solution ok! Maximum rounding error: 0.000225
- solution found, obj var is: 1713
- de-normalized obj var: 0.702780
- time (local/global): 0.015/26.449
- branches (local/global): 1103/1928362
- fails (local/global): 510/942298
- lns time: 0.019000
- lns branches: 1103
- lns fails: 510
LNS iteration #83 ========================================
- worst case average CPI: 0.978
- worst case efficiency: 0.698
- efficiency to beat: 0.698
- normalized lower bound 1714
--- checking solution
--- solution ok! Maximum rounding error: 0.000156
- solution found, obj var is: 1759
- de-normalized obj var: 0.705540
- time (local/global): 0.001/26.454
- branches (local/global): 19/1928381
- fails (local/global): 0/942298
- lns time: 0.005000
- lns branches: 19
- lns fails: 0
LNS iteration #84 ========================================
- worst case average CPI: 0.978
- worst case efficiency: 0.698
- efficiency to beat: 0.698
- normalized lower bound 1723
--- checking solution
--- solution ok! Maximum rounding error: 0.000056
- solution found, obj var is: 1747
- de-normalized obj var: 0.704820
- time (local/global): 0.714/27.172
- branches (local/global): 59187/1987568
- fails (local/global): 28801/971099
- lns time: 0.718000
- lns branches: 59187
- lns fails: 28801
LNS iteration #85 ========================================
- worst case average CPI: 0.978
- worst case efficiency: 0.699
- efficiency to beat: 0.699
- normalized lower bound 1728
--- checking solution
--- solution ok! Maximum rounding error: 0.000088
- solution found, obj var is: 1747
- de-normalized obj var: 0.704820
- time (local/global): 0.019/27.195
- branches (local/global): 814/1988382
- fails (local/global): 384/971483
- lns time: 0.023000
- lns branches: 814
- lns fails: 384
LNS iteration #86 ========================================
- worst case average CPI: 0.978
- worst case efficiency: 0.699
- efficiency to beat: 0.699
- normalized lower bound 1735
- lns time: 3.004000
- lns branches: 246503
- lns fails: 121881
LNS iteration #87 ========================================
- worst case average CPI: 0.978
- worst case efficiency: 0.699
- efficiency to beat: 0.699
- normalized lower bound 1735
--- checking solution
--- solution ok! Maximum rounding error: 0.000061
- solution found, obj var is: 1743
- de-normalized obj var: 0.704580
- time (local/global): 0.377/30.580
- branches (local/global): 30232/2265117
- fails (local/global): 14610/1107974
- lns time: 0.381000
- lns branches: 30232
- lns fails: 14610
LNS iteration #88 ========================================
- worst case average CPI: 0.797
- worst case efficiency: 0.700
- efficiency to beat: 0.700
- normalized lower bound 1753
--- checking solution
--- solution ok! Maximum rounding error: 0.000035
- solution found, obj var is: 1797
- de-normalized obj var: 0.707820
- time (local/global): 0.056/30.640
- branches (local/global): 4287/2269404
- fails (local/global): 2026/1110000
- lns time: 0.060000
- lns branches: 4287
- lns fails: 2026
LNS iteration #89 ========================================
- worst case average CPI: 0.797
- worst case efficiency: 0.701
- efficiency to beat: 0.701
- normalized lower bound 1760
- lns time: 3.004000
- lns branches: 203188
- lns fails: 99753
LNS iteration #90 ========================================
- worst case average CPI: 0.797
- worst case efficiency: 0.701
- efficiency to beat: 0.701
- normalized lower bound 1760
- lns time: 3.004000
- lns branches: 230584
- lns fails: 113050
LNS iteration #91 ========================================
- worst case average CPI: 0.797
- worst case efficiency: 0.701
- efficiency to beat: 0.701
- normalized lower bound 1760
--- checking solution
--- solution ok! Maximum rounding error: 0.000043
- solution found, obj var is: 1760
- de-normalized obj var: 0.705600
- time (local/global): 0.788/37.440
- branches (local/global): 62566/2765742
- fails (local/global): 30440/1353243
- lns time: 0.792000
- lns branches: 62566
- lns fails: 30440
LNS iteration #92 ========================================
- worst case average CPI: 0.797
- worst case efficiency: 0.702
- efficiency to beat: 0.702
- normalized lower bound 1778
--- checking solution
--- solution ok! Maximum rounding error: 0.000172
- solution found, obj var is: 1786
- de-normalized obj var: 0.707160
- time (local/global): 0.300/37.744
- branches (local/global): 27723/2793465
- fails (local/global): 13372/1366615
- lns time: 0.304000
- lns branches: 27723
- lns fails: 13372
LNS iteration #93 ========================================
- worst case average CPI: 0.797
- worst case efficiency: 0.702
- efficiency to beat: 0.702
- normalized lower bound 1791
--- checking solution
--- solution ok! Maximum rounding error: 0.000023
- solution found, obj var is: 1813
- de-normalized obj var: 0.708780
- time (local/global): 0.041/37.789
- branches (local/global): 2951/2796416
- fails (local/global): 1400/1368015
- lns time: 0.045000
- lns branches: 2951
- lns fails: 1400
LNS iteration #94 ========================================
- worst case average CPI: 0.797
- worst case efficiency: 0.703
- efficiency to beat: 0.703
- normalized lower bound 1795
--- checking solution
--- solution ok! Maximum rounding error: 0.000136
- solution found, obj var is: 1825
- de-normalized obj var: 0.709500
- time (local/global): 0.031/37.824
- branches (local/global): 3532/2799948
- fails (local/global): 1681/1369696
- lns time: 0.035000
- lns branches: 3532
- lns fails: 1681
LNS iteration #95 ========================================
- worst case average CPI: 0.797
- worst case efficiency: 0.703
- efficiency to beat: 0.703
- normalized lower bound 1795
--- checking solution
--- solution ok! Maximum rounding error: 0.000157
- solution found, obj var is: 1854
- de-normalized obj var: 0.711240
- time (local/global): 0.628/38.456
- branches (local/global): 43702/2843650
- fails (local/global): 21248/1390944
- lns time: 0.633000
- lns branches: 43702
- lns fails: 21248
LNS iteration #96 ========================================
- worst case average CPI: 0.797
- worst case efficiency: 0.703
- efficiency to beat: 0.703
- normalized lower bound 1798
- lns time: 3.004000
- lns branches: 253351
- lns fails: 124044
LNS iteration #97 ========================================
- worst case average CPI: 0.797
- worst case efficiency: 0.703
- efficiency to beat: 0.703
- normalized lower bound 1798
- lns time: 3.004000
- lns branches: 279216
- lns fails: 136393
LNS iteration #98 ========================================
- worst case average CPI: 0.797
- worst case efficiency: 0.703
- efficiency to beat: 0.703
- normalized lower bound 1798
- lns time: 3.004000
- lns branches: 188165
- lns fails: 92262
LNS iteration #99 ========================================
- worst case average CPI: 0.797
- worst case efficiency: 0.703
- efficiency to beat: 0.703
- normalized lower bound 1798
--- checking solution
--- solution ok! Maximum rounding error: 0.000031
- solution found, obj var is: 1875
- de-normalized obj var: 0.712500
- time (local/global): 1.110/48.583
- branches (local/global): 92559/3656941
- fails (local/global): 45202/1788845
- lns time: 1.114000
- lns branches: 92559
- lns fails: 45202
LNS iteration #100 ========================================
- worst case average CPI: 0.797
- worst case efficiency: 0.703
- efficiency to beat: 0.703
- normalized lower bound 1800
--- checking solution
--- solution ok! Maximum rounding error: 0.000026
- solution found, obj var is: 1805
- de-normalized obj var: 0.708300
- time (local/global): 0.764/49.351
- branches (local/global): 64343/3721284
- fails (local/global): 31223/1820068
- lns time: 0.768000
- lns branches: 64343
- lns fails: 31223
LNS iteration #101 ========================================
- worst case average CPI: 0.963
- worst case efficiency: 0.703
- efficiency to beat: 0.703
- normalized lower bound 1806
- lns time: 3.004000
- lns branches: 184861
- lns fails: 90476
LNS iteration #102 ========================================
- worst case average CPI: 0.963
- worst case efficiency: 0.703
- efficiency to beat: 0.703
- normalized lower bound 1806
- lns time: 3.004000
- lns branches: 331409
- lns fails: 163505
LNS iteration #103 ========================================
- worst case average CPI: 0.963
- worst case efficiency: 0.703
- efficiency to beat: 0.703
- normalized lower bound 1806
- lns time: 3.004000
- lns branches: 264511
- lns fails: 129466
LNS iteration #104 ========================================
- worst case average CPI: 0.963
- worst case efficiency: 0.703
- efficiency to beat: 0.703
- normalized lower bound 1806
- lns time: 3.004000
- lns branches: 295935
- lns fails: 144922
LNS iteration #105 ========================================
- worst case average CPI: 0.963
- worst case efficiency: 0.703
- efficiency to beat: 0.703
- normalized lower bound 1806
- lns time: 3.004000
- lns branches: 224536
- lns fails: 110141
LNS iteration #106 ========================================
- worst case average CPI: 0.963
- worst case efficiency: 0.703
- efficiency to beat: 0.703
- normalized lower bound 1806
--- checking solution
--- solution ok! Maximum rounding error: 0.000045
- solution found, obj var is: 1810
- de-normalized obj var: 0.708600
- time (local/global): 0.092/64.467
- branches (local/global): 9616/5032152
- fails (local/global): 4686/2463264
- lns time: 0.096000
- lns branches: 9616
- lns fails: 4686
LNS iteration #107 ========================================
- worst case average CPI: 0.963
- worst case efficiency: 0.704
- efficiency to beat: 0.704
- normalized lower bound 1819
- lns time: 3.004000
- lns branches: 251064
- lns fails: 123096
LNS iteration #108 ========================================
- worst case average CPI: 0.963
- worst case efficiency: 0.704
- efficiency to beat: 0.704
- normalized lower bound 1819
- lns time: 0.021000
- lns branches: 2310
- lns fails: 1145
LNS iteration #109 ========================================
- worst case average CPI: 0.963
- worst case efficiency: 0.704
- efficiency to beat: 0.704
- normalized lower bound 1819
- lns time: 3.004000
- lns branches: 196112
- lns fails: 96238
LNS iteration #110 ========================================
- worst case average CPI: 0.963
- worst case efficiency: 0.704
- efficiency to beat: 0.704
- normalized lower bound 1819
--- checking solution
--- solution ok! Maximum rounding error: 0.000081
- solution found, obj var is: 1831
- de-normalized obj var: 0.709860
- time (local/global): 0.170/70.670
- branches (local/global): 12114/5493752
- fails (local/global): 5824/2689567
- lns time: 0.174000
- lns branches: 12114
- lns fails: 5824
LNS iteration #111 ========================================
- worst case average CPI: 0.963
- worst case efficiency: 0.705
- efficiency to beat: 0.705
- normalized lower bound 1830
--- checking solution
--- solution ok! Maximum rounding error: 0.000047
- solution found, obj var is: 1837
- de-normalized obj var: 0.710220
- time (local/global): 0.267/70.941
- branches (local/global): 25861/5519613
- fails (local/global): 12464/2702031
- lns time: 0.272000
- lns branches: 25861
- lns fails: 12464
LNS iteration #112 ========================================
- worst case average CPI: 0.963
- worst case efficiency: 0.705
- efficiency to beat: 0.705
- normalized lower bound 1828
--- checking solution
--- solution ok! Maximum rounding error: 0.000028
- solution found, obj var is: 1897
- de-normalized obj var: 0.713820
- time (local/global): 0.001/70.947
- branches (local/global): 32/5519645
- fails (local/global): 6/2702037
- lns time: 0.006000
- lns branches: 32
- lns fails: 6
LNS iteration #113 ========================================
- worst case average CPI: 0.826
- worst case efficiency: 0.705
- efficiency to beat: 0.705
- normalized lower bound 1836
- lns time: 3.004000
- lns branches: 196965
- lns fails: 96573
LNS iteration #114 ========================================
- worst case average CPI: 0.826
- worst case efficiency: 0.705
- efficiency to beat: 0.705
- normalized lower bound 1836
- lns time: 3.004000
- lns branches: 290480
- lns fails: 143359
LNS iteration #115 ========================================
- worst case average CPI: 0.826
- worst case efficiency: 0.705
- efficiency to beat: 0.705
- normalized lower bound 1836
- lns time: 3.004000
- lns branches: 204292
- lns fails: 100183
LNS iteration #116 ========================================
- worst case average CPI: 0.826
- worst case efficiency: 0.705
- efficiency to beat: 0.705
- normalized lower bound 1836
- lns time: 3.004000
- lns branches: 209801
- lns fails: 103092
LNS iteration #117 ========================================
- worst case average CPI: 0.826
- worst case efficiency: 0.705
- efficiency to beat: 0.705
- normalized lower bound 1836
- lns time: 3.004000
- lns branches: 198210
- lns fails: 98156
LNS iteration #118 ========================================
- worst case average CPI: 0.826
- worst case efficiency: 0.705
- efficiency to beat: 0.705
- normalized lower bound 1836
- lns time: 3.004000
- lns branches: 210885
- lns fails: 103555
LNS iteration #119 ========================================
- worst case average CPI: 0.826
- worst case efficiency: 0.705
- efficiency to beat: 0.705
- normalized lower bound 1836
- lns time: 1.028000
- lns branches: 72038
- lns fails: 35126

LNS optimization is over========================================
initial worst case average CPI: 2.170
final worst case average CPI: 0.826
initial worst case efficiency: 0.637
final worst case efficiency: 0.705
number of iterations: 120
total time: 90004.000000
total branches: 6902316
total fails: 3382081

Final Solution: 0->6, 1->38, 2->17, 3->7, 4->10, 5->29, 6->31, 7->17, 8->1, 9->0, 10->46, 11->8, 12->29, 13->21, 14->6, 15->41, 16->26, 17->12, 18->30, 19->12, 20->3, 21->33, 22->1, 23->34, 24->26, 25->24, 26->32, 27->46, 28->29, 29->2, 30->28, 31->30, 32->45, 33->29, 34->27, 35->5, 36->46, 37->39, 38->34, 39->40, 40->34, 41->19, 42->18, 43->20, 44->2, 45->42, 46->38, 47->22, 48->19, 49->6, 50->12, 51->44, 52->41, 53->20, 54->42, 55->2, 56->19, 57->45, 58->39, 59->3, 60->21, 61->2, 62->5, 63->1, 64->43, 65->15, 66->16, 67->29, 68->22, 69->16, 70->7, 71->37, 72->2, 73->37, 74->5, 75->46, 76->34, 77->44, 78->36, 79->25, 80->19, 81->36, 82->40, 83->12, 84->34, 85->45, 86->13, 87->21, 88->46, 89->41, 90->2, 91->14, 92->7, 93->17, 94->12, 95->33, 96->45, 97->1, 98->17, 99->27, 100->13, 101->7, 102->14, 103->33, 104->18, 105->42, 106->40, 107->35, 108->37, 109->5, 110->16, 111->42, 112->15, 113->36, 114->17, 115->8, 116->5, 117->6, 118->26, 119->45, 120->23, 121->31, 122->9, 123->8, 124->8, 125->9, 126->41, 127->11, 128->16, 129->27, 130->35, 131->28, 132->4, 133->10, 134->4, 135->23, 136->17, 137->28, 138->8, 139->1, 140->36, 141->30, 142->41, 143->27, 144->1, 145->0, 146->13, 147->31, 148->39, 149->26, 150->45, 151->0, 152->23, 153->10, 154->24, 155->31, 156->22, 157->46, 158->10, 159->4, 160->23, 161->4, 162->30, 163->43, 164->21, 165->14, 166->12, 167->47, 168->8, 169->25, 170->24, 171->4, 172->6, 173->32, 174->47, 175->3, 176->47, 177->33, 178->25, 179->14, 180->24, 181->3, 182->42, 183->5, 184->38, 185->47, 186->33, 187->28, 188->20, 189->20, 190->42, 191->36, 192->18, 193->9, 194->0, 195->32, 196->43, 197->22, 198->15, 199->9, 200->44, 201->21, 202->3, 203->41, 204->26, 205->33, 206->32, 207->3, 208->0, 209->10, 210->27, 211->32, 212->9, 213->11, 214->13, 215->14, 216->35, 217->32, 218->11, 219->7, 220->6, 221->25, 222->40, 223->40, 224->43, 225->18, 226->4, 227->0, 228->11, 229->30, 230->30, 231->25, 232->37, 233->11, 234->24, 235->22, 236->38, 237->29, 238->39, 239->43, 240->19, 241->13, 242->11, 243->16, 244->13, 245->21, 246->26, 247->9, 248->15, 249->25, 250->20, 251->44, 252->31, 253->47, 254->36, 255->22, 256->35, 257->23, 258->28, 259->24, 260->15, 261->43, 262->39, 263->10, 264->18, 265->35, 266->20, 267->18, 268->44, 269->35, 270->23, 271->38, 272->44, 273->37, 274->47, 275->19, 276->14, 277->16, 278->15, 279->39, 280->40, 281->31, 282->37, 283->27, 284->28, 285->38, 286->34, 287->7

Average CPI map:
	6.10,	1.85,	1.19,	0.96,	0.83,	1.01
	1.41,	3.15,	2.92,	3.76,	2.96,	1.30
	1.26,	5.63,	4.25,	7.68,	4.66,	1.49
	1.02,	4.57,	4.04,	4.02,	3.05,	1.04
	1.25,	3.42,	4.82,	5.11,	4.30,	1.71
	1.54,	4.73,	6.49,	4.42,	3.52,	1.74
	1.29,	4.39,	4.08,	2.95,	3.69,	1.29
	1.56,	2.20,	2.59,	2.66,	2.89,	1.23

Efficiency map:
	0.997,	0.941,	0.880,	0.877,	0.924,	0.996
	0.820,	0.709,	0.708,	0.717,	0.706,	0.817
	0.812,	0.714,	0.705,	0.710,	0.709,	0.813
	0.799,	0.710,	0.714,	0.714,	0.711,	0.799
	0.798,	0.713,	0.707,	0.706,	0.709,	0.799
	0.793,	0.705,	0.707,	0.711,	0.709,	0.820
	0.872,	0.710,	0.710,	0.706,	0.711,	0.782
	0.829,	0.710,	0.709,	0.715,	0.709,	0.811
