==============================================================================
LNS optimizer for EML demonstration
==============================================================================

Option values: --wld-idx 5 --prec 10000 --step 0 --global-tlim 90 --global-iter 1000 --local-tlim 3 --local-nsol 1 --restart-base 100 --restart-strat luby --seed 301

Starting the Optimization Process
reserved_tasks None
Finding a first solution
LNS iteration #0 ========================================
- worst case average CPI: 2.173
- worst case efficiency: 0.636
- efficiency to beat: 0.636
- normalized lower bound 690
--- checking solution
--- solution ok! Maximum rounding error: 0.000019
- solution found, obj var is: 746
- de-normalized obj var: 0.644760
- time (local/global): 0.001/0.001
- branches (local/global): 23/23
- fails (local/global): 0/0
- lns time: 0.006000
- lns branches: 23
- lns fails: 0
LNS iteration #1 ========================================
- worst case average CPI: 1.415
- worst case efficiency: 0.638
- efficiency to beat: 0.638
- normalized lower bound 712
--- checking solution
--- solution ok! Maximum rounding error: 0.000009
- solution found, obj var is: 737
- de-normalized obj var: 0.644220
- time (local/global): 0.006/0.012
- branches (local/global): 245/268
- fails (local/global): 105/105
- lns time: 0.011000
- lns branches: 245
- lns fails: 105
LNS iteration #2 ========================================
- worst case average CPI: 1.415
- worst case efficiency: 0.643
- efficiency to beat: 0.643
- normalized lower bound 799
--- checking solution
--- solution ok! Maximum rounding error: 0.000029
- solution found, obj var is: 803
- de-normalized obj var: 0.648180
- time (local/global): 0.002/0.019
- branches (local/global): 56/324
- fails (local/global): 19/124
- lns time: 0.010000
- lns branches: 56
- lns fails: 19
LNS iteration #3 ========================================
- worst case average CPI: 1.415
- worst case efficiency: 0.644
- efficiency to beat: 0.644
- normalized lower bound 821
--- checking solution
--- solution ok! Maximum rounding error: 0.000000
- solution found, obj var is: 878
- de-normalized obj var: 0.652680
- time (local/global): 0.020/0.047
- branches (local/global): 1091/1415
- fails (local/global): 500/624
- lns time: 0.025000
- lns branches: 1091
- lns fails: 500
LNS iteration #4 ========================================
- worst case average CPI: 1.415
- worst case efficiency: 0.645
- efficiency to beat: 0.645
- normalized lower bound 829
--- checking solution
--- solution ok! Maximum rounding error: 0.000046
- solution found, obj var is: 838
- de-normalized obj var: 0.650280
- time (local/global): 0.004/0.056
- branches (local/global): 237/1652
- fails (local/global): 100/724
- lns time: 0.009000
- lns branches: 237
- lns fails: 100
LNS iteration #5 ========================================
- worst case average CPI: 1.490
- worst case efficiency: 0.648
- efficiency to beat: 0.648
- normalized lower bound 879
--- checking solution
--- solution ok! Maximum rounding error: 0.000095
- solution found, obj var is: 964
- de-normalized obj var: 0.657840
- time (local/global): 0.004/0.065
- branches (local/global): 238/1890
- fails (local/global): 100/824
- lns time: 0.010000
- lns branches: 238
- lns fails: 100
LNS iteration #6 ========================================
- worst case average CPI: 1.490
- worst case efficiency: 0.648
- efficiency to beat: 0.648
- normalized lower bound 889
--- checking solution
--- solution ok! Maximum rounding error: 0.000093
- solution found, obj var is: 890
- de-normalized obj var: 0.653400
- time (local/global): 0.034/0.105
- branches (local/global): 2759/4649
- fails (local/global): 1301/2125
- lns time: 0.039000
- lns branches: 2759
- lns fails: 1301
LNS iteration #7 ========================================
- worst case average CPI: 1.490
- worst case efficiency: 0.648
- efficiency to beat: 0.648
- normalized lower bound 889
--- checking solution
--- solution ok! Maximum rounding error: 0.000133
- solution found, obj var is: 916
- de-normalized obj var: 0.654960
- time (local/global): 0.003/0.113
- branches (local/global): 195/4844
- fails (local/global): 90/2215
- lns time: 0.007000
- lns branches: 195
- lns fails: 90
LNS iteration #8 ========================================
- worst case average CPI: 1.490
- worst case efficiency: 0.650
- efficiency to beat: 0.650
- normalized lower bound 919
--- checking solution
--- solution ok! Maximum rounding error: 0.000098
- solution found, obj var is: 920
- de-normalized obj var: 0.655200
- time (local/global): 0.022/0.139
- branches (local/global): 1725/6569
- fails (local/global): 800/3015
- lns time: 0.026000
- lns branches: 1725
- lns fails: 800
LNS iteration #9 ========================================
- worst case average CPI: 1.490
- worst case efficiency: 0.650
- efficiency to beat: 0.650
- normalized lower bound 925
--- checking solution
--- solution ok! Maximum rounding error: 0.000056
- solution found, obj var is: 1005
- de-normalized obj var: 0.660300
- time (local/global): 0.008/0.151
- branches (local/global): 456/7025
- fails (local/global): 200/3215
- lns time: 0.012000
- lns branches: 456
- lns fails: 200
LNS iteration #10 ========================================
- worst case average CPI: 1.374
- worst case efficiency: 0.652
- efficiency to beat: 0.652
- normalized lower bound 947
--- checking solution
--- solution ok! Maximum rounding error: 0.000038
- solution found, obj var is: 967
- de-normalized obj var: 0.658020
- time (local/global): 0.034/0.189
- branches (local/global): 3205/10230
- fails (local/global): 1517/4732
- lns time: 0.042000
- lns branches: 3205
- lns fails: 1517
LNS iteration #11 ========================================
- worst case average CPI: 1.374
- worst case efficiency: 0.654
- efficiency to beat: 0.654
- normalized lower bound 981
--- checking solution
--- solution ok! Maximum rounding error: 0.000000
- solution found, obj var is: 1330
- de-normalized obj var: 0.679800
- time (local/global): 0.001/0.198
- branches (local/global): 22/10252
- fails (local/global): 0/4732
- lns time: 0.005000
- lns branches: 22
- lns fails: 0
LNS iteration #12 ========================================
- worst case average CPI: 1.374
- worst case efficiency: 0.655
- efficiency to beat: 0.655
- normalized lower bound 996
--- checking solution
--- solution ok! Maximum rounding error: 0.000055
- solution found, obj var is: 1079
- de-normalized obj var: 0.664740
- time (local/global): 0.003/0.205
- branches (local/global): 241/10493
- fails (local/global): 100/4832
- lns time: 0.007000
- lns branches: 241
- lns fails: 100
LNS iteration #13 ========================================
- worst case average CPI: 1.374
- worst case efficiency: 0.655
- efficiency to beat: 0.655
- normalized lower bound 998
--- checking solution
--- solution ok! Maximum rounding error: 0.000076
- solution found, obj var is: 1011
- de-normalized obj var: 0.660660
- time (local/global): 0.018/0.227
- branches (local/global): 1314/11807
- fails (local/global): 605/5437
- lns time: 0.023000
- lns branches: 1314
- lns fails: 605
LNS iteration #14 ========================================
- worst case average CPI: 1.357
- worst case efficiency: 0.655
- efficiency to beat: 0.655
- normalized lower bound 998
--- checking solution
--- solution ok! Maximum rounding error: 0.000054
- solution found, obj var is: 1027
- de-normalized obj var: 0.661620
- time (local/global): 0.003/0.235
- branches (local/global): 240/12047
- fails (local/global): 101/5538
- lns time: 0.007000
- lns branches: 240
- lns fails: 101
LNS iteration #15 ========================================
- worst case average CPI: 1.357
- worst case efficiency: 0.655
- efficiency to beat: 0.655
- normalized lower bound 1004
--- checking solution
--- solution ok! Maximum rounding error: 0.000057
- solution found, obj var is: 1063
- de-normalized obj var: 0.663780
- time (local/global): 0.018/0.257
- branches (local/global): 1308/13355
- fails (local/global): 600/6138
- lns time: 0.022000
- lns branches: 1308
- lns fails: 600
LNS iteration #16 ========================================
- worst case average CPI: 1.357
- worst case efficiency: 0.658
- efficiency to beat: 0.658
- normalized lower bound 1046
--- checking solution
--- solution ok! Maximum rounding error: 0.000000
- solution found, obj var is: 1048
- de-normalized obj var: 0.662880
- time (local/global): 0.011/0.272
- branches (local/global): 867/14222
- fails (local/global): 402/6540
- lns time: 0.016000
- lns branches: 867
- lns fails: 402
LNS iteration #17 ========================================
- worst case average CPI: 1.357
- worst case efficiency: 0.658
- efficiency to beat: 0.658
- normalized lower bound 1049
- lns time: 3.004000
- lns branches: 221249
- lns fails: 108419
LNS iteration #18 ========================================
- worst case average CPI: 1.357
- worst case efficiency: 0.658
- efficiency to beat: 0.658
- normalized lower bound 1049
--- checking solution
--- solution ok! Maximum rounding error: 0.000028
- solution found, obj var is: 1052
- de-normalized obj var: 0.663120
- time (local/global): 0.081/3.362
- branches (local/global): 7089/242560
- fails (local/global): 3400/118359
- lns time: 0.085000
- lns branches: 7089
- lns fails: 3400
LNS iteration #19 ========================================
- worst case average CPI: 1.299
- worst case efficiency: 0.660
- efficiency to beat: 0.660
- normalized lower bound 1081
--- checking solution
--- solution ok! Maximum rounding error: 0.000053
- solution found, obj var is: 1115
- de-normalized obj var: 0.666900
- time (local/global): 0.015/3.381
- branches (local/global): 1310/243870
- fails (local/global): 601/118960
- lns time: 0.019000
- lns branches: 1310
- lns fails: 601
LNS iteration #20 ========================================
- worst case average CPI: 1.299
- worst case efficiency: 0.660
- efficiency to beat: 0.660
- normalized lower bound 1090
--- checking solution
--- solution ok! Maximum rounding error: 0.000077
- solution found, obj var is: 1380
- de-normalized obj var: 0.682800
- time (local/global): 0.049/3.434
- branches (local/global): 3813/247683
- fails (local/global): 1800/120760
- lns time: 0.053000
- lns branches: 3813
- lns fails: 1800
LNS iteration #21 ========================================
- worst case average CPI: 1.299
- worst case efficiency: 0.662
- efficiency to beat: 0.662
- normalized lower bound 1120
- lns time: 3.004000
- lns branches: 251701
- lns fails: 123337
LNS iteration #22 ========================================
- worst case average CPI: 1.299
- worst case efficiency: 0.662
- efficiency to beat: 0.662
- normalized lower bound 1120
- lns time: 3.004000
- lns branches: 236201
- lns fails: 115703
LNS iteration #23 ========================================
- worst case average CPI: 1.299
- worst case efficiency: 0.662
- efficiency to beat: 0.662
- normalized lower bound 1120
- lns time: 3.005000
- lns branches: 283620
- lns fails: 140202
LNS iteration #24 ========================================
- worst case average CPI: 1.299
- worst case efficiency: 0.662
- efficiency to beat: 0.662
- normalized lower bound 1120
- lns time: 3.005000
- lns branches: 307050
- lns fails: 150320
LNS iteration #25 ========================================
- worst case average CPI: 1.299
- worst case efficiency: 0.662
- efficiency to beat: 0.662
- normalized lower bound 1120
- lns time: 3.004000
- lns branches: 247736
- lns fails: 121401
LNS iteration #26 ========================================
- worst case average CPI: 1.299
- worst case efficiency: 0.662
- efficiency to beat: 0.662
- normalized lower bound 1120
- lns time: 3.004000
- lns branches: 257436
- lns fails: 126172
LNS iteration #27 ========================================
- worst case average CPI: 1.299
- worst case efficiency: 0.662
- efficiency to beat: 0.662
- normalized lower bound 1120
- lns time: 3.004000
- lns branches: 225530
- lns fails: 110683
LNS iteration #28 ========================================
- worst case average CPI: 1.299
- worst case efficiency: 0.662
- efficiency to beat: 0.662
- normalized lower bound 1120
- lns time: 3.004000
- lns branches: 215330
- lns fails: 105665
LNS iteration #29 ========================================
- worst case average CPI: 1.299
- worst case efficiency: 0.662
- efficiency to beat: 0.662
- normalized lower bound 1120
- lns time: 3.004000
- lns branches: 250344
- lns fails: 122771
LNS iteration #30 ========================================
- worst case average CPI: 1.299
- worst case efficiency: 0.662
- efficiency to beat: 0.662
- normalized lower bound 1120
- lns time: 3.004000
- lns branches: 212249
- lns fails: 104161
LNS iteration #31 ========================================
- worst case average CPI: 1.299
- worst case efficiency: 0.662
- efficiency to beat: 0.662
- normalized lower bound 1120
- lns time: 3.004000
- lns branches: 290925
- lns fails: 142381
LNS iteration #32 ========================================
- worst case average CPI: 1.299
- worst case efficiency: 0.662
- efficiency to beat: 0.662
- normalized lower bound 1120
--- checking solution
--- solution ok! Maximum rounding error: 0.000011
- solution found, obj var is: 1120
- de-normalized obj var: 0.667200
- time (local/global): 0.036/36.520
- branches (local/global): 3197/3029002
- fails (local/global): 1514/1485070
- lns time: 0.040000
- lns branches: 3197
- lns fails: 1514
LNS iteration #33 ========================================
- worst case average CPI: 0.901
- worst case efficiency: 0.663
- efficiency to beat: 0.663
- normalized lower bound 1134
--- checking solution
--- solution ok! Maximum rounding error: 0.000044
- solution found, obj var is: 1437
- de-normalized obj var: 0.686220
- time (local/global): 0.003/36.527
- branches (local/global): 241/3029243
- fails (local/global): 100/1485170
- lns time: 0.007000
- lns branches: 241
- lns fails: 100
LNS iteration #34 ========================================
- worst case average CPI: 0.901
- worst case efficiency: 0.663
- efficiency to beat: 0.663
- normalized lower bound 1137
--- checking solution
--- solution ok! Maximum rounding error: 0.000058
- solution found, obj var is: 1137
- de-normalized obj var: 0.668220
- time (local/global): 0.006/36.537
- branches (local/global): 455/3029698
- fails (local/global): 200/1485370
- lns time: 0.010000
- lns branches: 455
- lns fails: 200
LNS iteration #35 ========================================
- worst case average CPI: 0.901
- worst case efficiency: 0.664
- efficiency to beat: 0.664
- normalized lower bound 1150
--- checking solution
--- solution ok! Maximum rounding error: 0.000051
- solution found, obj var is: 1221
- de-normalized obj var: 0.673260
- time (local/global): 0.012/36.553
- branches (local/global): 1091/3030789
- fails (local/global): 502/1485872
- lns time: 0.016000
- lns branches: 1091
- lns fails: 502
LNS iteration #36 ========================================
- worst case average CPI: 0.901
- worst case efficiency: 0.665
- efficiency to beat: 0.665
- normalized lower bound 1168
--- checking solution
--- solution ok! Maximum rounding error: 0.000074
- solution found, obj var is: 1194
- de-normalized obj var: 0.671640
- time (local/global): 0.022/36.579
- branches (local/global): 1927/3032716
- fails (local/global): 923/1486795
- lns time: 0.026000
- lns branches: 1927
- lns fails: 923
LNS iteration #37 ========================================
- worst case average CPI: 0.901
- worst case efficiency: 0.667
- efficiency to beat: 0.667
- normalized lower bound 1204
--- checking solution
--- solution ok! Maximum rounding error: 0.000056
- solution found, obj var is: 1266
- de-normalized obj var: 0.675960
- time (local/global): 0.079/36.662
- branches (local/global): 7089/3039805
- fails (local/global): 3401/1490196
- lns time: 0.084000
- lns branches: 7089
- lns fails: 3401
LNS iteration #38 ========================================
- worst case average CPI: 0.901
- worst case efficiency: 0.667
- efficiency to beat: 0.667
- normalized lower bound 1205
--- checking solution
--- solution ok! Maximum rounding error: 0.000000
- solution found, obj var is: 1209
- de-normalized obj var: 0.672540
- time (local/global): 0.001/36.668
- branches (local/global): 90/3039895
- fails (local/global): 39/1490235
- lns time: 0.005000
- lns branches: 90
- lns fails: 39
LNS iteration #39 ========================================
- worst case average CPI: 0.901
- worst case efficiency: 0.668
- efficiency to beat: 0.668
- normalized lower bound 1213
--- checking solution
--- solution ok! Maximum rounding error: 0.000032
- solution found, obj var is: 1214
- de-normalized obj var: 0.672840
- time (local/global): 1.090/37.762
- branches (local/global): 126769/3166664
- fails (local/global): 62412/1552647
- lns time: 1.094000
- lns branches: 126769
- lns fails: 62412
LNS iteration #40 ========================================
- worst case average CPI: 0.901
- worst case efficiency: 0.668
- efficiency to beat: 0.668
- normalized lower bound 1225
--- checking solution
--- solution ok! Maximum rounding error: 0.000030
- solution found, obj var is: 1267
- de-normalized obj var: 0.676020
- time (local/global): 0.544/38.310
- branches (local/global): 39694/3206358
- fails (local/global): 19339/1571986
- lns time: 0.548000
- lns branches: 39694
- lns fails: 19339
LNS iteration #41 ========================================
- worst case average CPI: 0.901
- worst case efficiency: 0.669
- efficiency to beat: 0.669
- normalized lower bound 1235
--- checking solution
--- solution ok! Maximum rounding error: 0.000062
- solution found, obj var is: 1500
- de-normalized obj var: 0.690000
- time (local/global): 0.003/38.317
- branches (local/global): 238/3206596
- fails (local/global): 100/1572086
- lns time: 0.007000
- lns branches: 238
- lns fails: 100
LNS iteration #42 ========================================
- worst case average CPI: 0.901
- worst case efficiency: 0.669
- efficiency to beat: 0.669
- normalized lower bound 1240
--- checking solution
--- solution ok! Maximum rounding error: 0.000036
- solution found, obj var is: 1535
- de-normalized obj var: 0.692100
- time (local/global): 0.003/38.324
- branches (local/global): 241/3206837
- fails (local/global): 100/1572186
- lns time: 0.007000
- lns branches: 241
- lns fails: 100
LNS iteration #43 ========================================
- worst case average CPI: 0.901
- worst case efficiency: 0.670
- efficiency to beat: 0.670
- normalized lower bound 1258
--- checking solution
--- solution ok! Maximum rounding error: 0.000141
- solution found, obj var is: 1261
- de-normalized obj var: 0.675660
- time (local/global): 0.036/38.364
- branches (local/global): 2557/3209394
- fails (local/global): 1215/1573401
- lns time: 0.040000
- lns branches: 2557
- lns fails: 1215
LNS iteration #44 ========================================
- worst case average CPI: 0.901
- worst case efficiency: 0.671
- efficiency to beat: 0.671
- normalized lower bound 1259
--- checking solution
--- solution ok! Maximum rounding error: 0.000008
- solution found, obj var is: 1431
- de-normalized obj var: 0.685860
- time (local/global): 0.001/38.369
- branches (local/global): 22/3209416
- fails (local/global): 0/1573401
- lns time: 0.005000
- lns branches: 22
- lns fails: 0
LNS iteration #45 ========================================
- worst case average CPI: 0.901
- worst case efficiency: 0.671
- efficiency to beat: 0.671
- normalized lower bound 1269
--- checking solution
--- solution ok! Maximum rounding error: 0.000429
- solution found, obj var is: 1290
- de-normalized obj var: 0.677400
- time (local/global): 0.060/38.433
- branches (local/global): 5084/3214500
- fails (local/global): 2415/1575816
- lns time: 0.064000
- lns branches: 5084
- lns fails: 2415
LNS iteration #46 ========================================
- worst case average CPI: 0.895
- worst case efficiency: 0.672
- efficiency to beat: 0.672
- normalized lower bound 1281
--- checking solution
--- solution ok! Maximum rounding error: 0.000061
- solution found, obj var is: 1329
- de-normalized obj var: 0.679740
- time (local/global): 0.318/38.755
- branches (local/global): 17797/3232297
- fails (local/global): 8600/1584416
- lns time: 0.323000
- lns branches: 17797
- lns fails: 8600
LNS iteration #47 ========================================
- worst case average CPI: 0.895
- worst case efficiency: 0.673
- efficiency to beat: 0.673
- normalized lower bound 1298
--- checking solution
--- solution ok! Maximum rounding error: 0.000083
- solution found, obj var is: 1382
- de-normalized obj var: 0.682920
- time (local/global): 0.001/38.761
- branches (local/global): 21/3232318
- fails (local/global): 0/1584416
- lns time: 0.007000
- lns branches: 21
- lns fails: 0
LNS iteration #48 ========================================
- worst case average CPI: 0.895
- worst case efficiency: 0.675
- efficiency to beat: 0.675
- normalized lower bound 1338
--- checking solution
--- solution ok! Maximum rounding error: 0.000074
- solution found, obj var is: 1366
- de-normalized obj var: 0.681960
- time (local/global): 0.001/38.768
- branches (local/global): 21/3232339
- fails (local/global): 0/1584416
- lns time: 0.006000
- lns branches: 21
- lns fails: 0
LNS iteration #49 ========================================
- worst case average CPI: 0.895
- worst case efficiency: 0.676
- efficiency to beat: 0.676
- normalized lower bound 1344
--- checking solution
--- solution ok! Maximum rounding error: 0.000077
- solution found, obj var is: 1429
- de-normalized obj var: 0.685740
- time (local/global): 0.006/38.779
- branches (local/global): 497/3232836
- fails (local/global): 221/1584637
- lns time: 0.011000
- lns branches: 497
- lns fails: 221
LNS iteration #50 ========================================
- worst case average CPI: 0.895
- worst case efficiency: 0.676
- efficiency to beat: 0.676
- normalized lower bound 1348
--- checking solution
--- solution ok! Maximum rounding error: 0.000077
- solution found, obj var is: 1481
- de-normalized obj var: 0.688860
- time (local/global): 0.000/38.784
- branches (local/global): 16/3232852
- fails (local/global): 0/1584637
- lns time: 0.005000
- lns branches: 16
- lns fails: 0
LNS iteration #51 ========================================
- worst case average CPI: 0.895
- worst case efficiency: 0.677
- efficiency to beat: 0.677
- normalized lower bound 1361
--- checking solution
--- solution ok! Maximum rounding error: 0.000025
- solution found, obj var is: 1371
- de-normalized obj var: 0.682260
- time (local/global): 1.426/40.215
- branches (local/global): 132359/3365211
- fails (local/global): 64555/1649192
- lns time: 1.431000
- lns branches: 132359
- lns fails: 64555
LNS iteration #52 ========================================
- worst case average CPI: 0.895
- worst case efficiency: 0.677
- efficiency to beat: 0.677
- normalized lower bound 1367
--- checking solution
--- solution ok! Maximum rounding error: 0.000037
- solution found, obj var is: 1379
- de-normalized obj var: 0.682740
- time (local/global): 0.148/40.368
- branches (local/global): 14009/3379220
- fails (local/global): 6843/1656035
- lns time: 0.152000
- lns branches: 14009
- lns fails: 6843
LNS iteration #53 ========================================
- worst case average CPI: 0.895
- worst case efficiency: 0.677
- efficiency to beat: 0.677
- normalized lower bound 1375
--- checking solution
--- solution ok! Maximum rounding error: 0.000072
- solution found, obj var is: 1395
- de-normalized obj var: 0.683700
- time (local/global): 0.069/40.441
- branches (local/global): 6956/3386176
- fails (local/global): 3334/1659369
- lns time: 0.073000
- lns branches: 6956
- lns fails: 3334
LNS iteration #54 ========================================
- worst case average CPI: 0.895
- worst case efficiency: 0.678
- efficiency to beat: 0.678
- normalized lower bound 1377
--- checking solution
--- solution ok! Maximum rounding error: 0.000090
- solution found, obj var is: 1450
- de-normalized obj var: 0.687000
- time (local/global): 0.003/40.448
- branches (local/global): 234/3386410
- fails (local/global): 100/1659469
- lns time: 0.008000
- lns branches: 234
- lns fails: 100
LNS iteration #55 ========================================
- worst case average CPI: 0.895
- worst case efficiency: 0.679
- efficiency to beat: 0.679
- normalized lower bound 1403
--- checking solution
--- solution ok! Maximum rounding error: 0.000058
- solution found, obj var is: 1411
- de-normalized obj var: 0.684660
- time (local/global): 0.003/40.456
- branches (local/global): 238/3386648
- fails (local/global): 100/1659569
- lns time: 0.007000
- lns branches: 238
- lns fails: 100
LNS iteration #56 ========================================
- worst case average CPI: 0.895
- worst case efficiency: 0.681
- efficiency to beat: 0.681
- normalized lower bound 1440
--- checking solution
--- solution ok! Maximum rounding error: 0.000050
- solution found, obj var is: 1442
- de-normalized obj var: 0.686520
- time (local/global): 0.422/40.882
- branches (local/global): 25668/3412316
- fails (local/global): 12404/1671973
- lns time: 0.426000
- lns branches: 25668
- lns fails: 12404
LNS iteration #57 ========================================
- worst case average CPI: 0.895
- worst case efficiency: 0.682
- efficiency to beat: 0.682
- normalized lower bound 1450
--- checking solution
--- solution ok! Maximum rounding error: 0.000000
- solution found, obj var is: 1458
- de-normalized obj var: 0.687480
- time (local/global): 0.001/40.887
- branches (local/global): 20/3412336
- fails (local/global): 0/1671973
- lns time: 0.006000
- lns branches: 20
- lns fails: 0
LNS iteration #58 ========================================
- worst case average CPI: 0.895
- worst case efficiency: 0.682
- efficiency to beat: 0.682
- normalized lower bound 1456
--- checking solution
--- solution ok! Maximum rounding error: 0.000096
- solution found, obj var is: 1460
- de-normalized obj var: 0.687600
- time (local/global): 0.560/41.452
- branches (local/global): 50322/3462658
- fails (local/global): 24400/1696373
- lns time: 0.564000
- lns branches: 50322
- lns fails: 24400
LNS iteration #59 ========================================
- worst case average CPI: 0.895
- worst case efficiency: 0.683
- efficiency to beat: 0.683
- normalized lower bound 1470
- lns time: 3.004000
- lns branches: 247323
- lns fails: 121125
LNS iteration #60 ========================================
- worst case average CPI: 0.895
- worst case efficiency: 0.683
- efficiency to beat: 0.683
- normalized lower bound 1470
--- checking solution
--- solution ok! Maximum rounding error: 0.000075
- solution found, obj var is: 1506
- de-normalized obj var: 0.690360
- time (local/global): 1.420/45.880
- branches (local/global): 101982/3811963
- fails (local/global): 49722/1867220
- lns time: 1.425000
- lns branches: 101982
- lns fails: 49722
LNS iteration #61 ========================================
- worst case average CPI: 0.895
- worst case efficiency: 0.684
- efficiency to beat: 0.684
- normalized lower bound 1477
- lns time: 3.004000
- lns branches: 298795
- lns fails: 147472
LNS iteration #62 ========================================
- worst case average CPI: 0.895
- worst case efficiency: 0.684
- efficiency to beat: 0.684
- normalized lower bound 1477
--- checking solution
--- solution ok! Maximum rounding error: 0.000070
- solution found, obj var is: 1547
- de-normalized obj var: 0.692820
- time (local/global): 0.003/48.892
- branches (local/global): 242/4111000
- fails (local/global): 102/2014794
- lns time: 0.007000
- lns branches: 242
- lns fails: 102
LNS iteration #63 ========================================
- worst case average CPI: 0.895
- worst case efficiency: 0.684
- efficiency to beat: 0.684
- normalized lower bound 1480
--- checking solution
--- solution ok! Maximum rounding error: 0.000076
- solution found, obj var is: 1482
- de-normalized obj var: 0.688920
- time (local/global): 2.034/50.930
- branches (local/global): 158444/4269444
- fails (local/global): 77196/2091990
- lns time: 2.038000
- lns branches: 158444
- lns fails: 77196
LNS iteration #64 ========================================
- worst case average CPI: 0.895
- worst case efficiency: 0.684
- efficiency to beat: 0.684
- normalized lower bound 1491
--- checking solution
--- solution ok! Maximum rounding error: 0.000053
- solution found, obj var is: 1550
- de-normalized obj var: 0.693000
- time (local/global): 0.352/51.286
- branches (local/global): 28155/4297599
- fails (local/global): 13600/2105590
- lns time: 0.356000
- lns branches: 28155
- lns fails: 13600
LNS iteration #65 ========================================
- worst case average CPI: 0.895
- worst case efficiency: 0.685
- efficiency to beat: 0.685
- normalized lower bound 1496
- lns time: 3.006000
- lns branches: 233197
- lns fails: 114186
LNS iteration #66 ========================================
- worst case average CPI: 0.895
- worst case efficiency: 0.685
- efficiency to beat: 0.685
- normalized lower bound 1496
--- checking solution
--- solution ok! Maximum rounding error: 0.000300
- solution found, obj var is: 1518
- de-normalized obj var: 0.691080
- time (local/global): 0.260/54.556
- branches (local/global): 19945/4550741
- fails (local/global): 9639/2229415
- lns time: 0.264000
- lns branches: 19945
- lns fails: 9639
LNS iteration #67 ========================================
- worst case average CPI: 1.098
- worst case efficiency: 0.685
- efficiency to beat: 0.685
- normalized lower bound 1508
- lns time: 3.004000
- lns branches: 219815
- lns fails: 107726
LNS iteration #68 ========================================
- worst case average CPI: 1.098
- worst case efficiency: 0.685
- efficiency to beat: 0.685
- normalized lower bound 1508
--- checking solution
--- solution ok! Maximum rounding error: 0.000052
- solution found, obj var is: 1516
- de-normalized obj var: 0.690960
- time (local/global): 0.001/57.565
- branches (local/global): 57/4770613
- fails (local/global): 19/2337160
- lns time: 0.007000
- lns branches: 57
- lns fails: 19
LNS iteration #69 ========================================
- worst case average CPI: 1.098
- worst case efficiency: 0.686
- efficiency to beat: 0.686
- normalized lower bound 1512
- lns time: 3.005000
- lns branches: 224230
- lns fails: 109890
LNS iteration #70 ========================================
- worst case average CPI: 1.098
- worst case efficiency: 0.686
- efficiency to beat: 0.686
- normalized lower bound 1512
- lns time: 3.004000
- lns branches: 316746
- lns fails: 156253
LNS iteration #71 ========================================
- worst case average CPI: 1.098
- worst case efficiency: 0.686
- efficiency to beat: 0.686
- normalized lower bound 1512
--- checking solution
--- solution ok! Maximum rounding error: 0.000028
- solution found, obj var is: 1577
- de-normalized obj var: 0.694620
- time (local/global): 0.007/63.587
- branches (local/global): 464/5312053
- fails (local/global): 204/2603507
- lns time: 0.011000
- lns branches: 464
- lns fails: 204
LNS iteration #72 ========================================
- worst case average CPI: 1.098
- worst case efficiency: 0.686
- efficiency to beat: 0.686
- normalized lower bound 1524
--- checking solution
--- solution ok! Maximum rounding error: 0.000036
- solution found, obj var is: 1531
- de-normalized obj var: 0.691860
- time (local/global): 0.006/63.597
- branches (local/global): 459/5312512
- fails (local/global): 200/2603707
- lns time: 0.010000
- lns branches: 459
- lns fails: 200
LNS iteration #73 ========================================
- worst case average CPI: 1.098
- worst case efficiency: 0.687
- efficiency to beat: 0.687
- normalized lower bound 1527
--- checking solution
--- solution ok! Maximum rounding error: 0.000041
- solution found, obj var is: 1528
- de-normalized obj var: 0.691680
- time (local/global): 0.727/64.328
- branches (local/global): 49523/5362035
- fails (local/global): 24074/2627781
- lns time: 0.731000
- lns branches: 49523
- lns fails: 24074
LNS iteration #74 ========================================
- worst case average CPI: 1.098
- worst case efficiency: 0.687
- efficiency to beat: 0.687
- normalized lower bound 1538
--- checking solution
--- solution ok! Maximum rounding error: 0.000107
- solution found, obj var is: 1559
- de-normalized obj var: 0.693540
- time (local/global): 0.097/64.429
- branches (local/global): 9200/5371235
- fails (local/global): 4404/2632185
- lns time: 0.101000
- lns branches: 9200
- lns fails: 4404
LNS iteration #75 ========================================
- worst case average CPI: 1.026
- worst case efficiency: 0.689
- efficiency to beat: 0.689
- normalized lower bound 1562
--- checking solution
--- solution ok! Maximum rounding error: 0.000025
- solution found, obj var is: 1567
- de-normalized obj var: 0.694020
- time (local/global): 0.652/65.085
- branches (local/global): 59301/5430536
- fails (local/global): 28800/2660985
- lns time: 0.656000
- lns branches: 59301
- lns fails: 28800
LNS iteration #76 ========================================
- worst case average CPI: 1.026
- worst case efficiency: 0.689
- efficiency to beat: 0.689
- normalized lower bound 1565
--- checking solution
--- solution ok! Maximum rounding error: 0.000025
- solution found, obj var is: 1584
- de-normalized obj var: 0.695040
- time (local/global): 0.165/65.254
- branches (local/global): 17004/5447540
- fails (local/global): 8202/2669187
- lns time: 0.170000
- lns branches: 17004
- lns fails: 8202
LNS iteration #77 ========================================
- worst case average CPI: 1.026
- worst case efficiency: 0.689
- efficiency to beat: 0.689
- normalized lower bound 1567
--- checking solution
--- solution ok! Maximum rounding error: 0.000061
- solution found, obj var is: 1580
- de-normalized obj var: 0.694800
- time (local/global): 0.268/65.527
- branches (local/global): 19902/5467442
- fails (local/global): 9605/2678792
- lns time: 0.272000
- lns branches: 19902
- lns fails: 9605
LNS iteration #78 ========================================
- worst case average CPI: 1.026
- worst case efficiency: 0.690
- efficiency to beat: 0.690
- normalized lower bound 1587
- lns time: 3.004000
- lns branches: 203516
- lns fails: 99834
LNS iteration #79 ========================================
- worst case average CPI: 1.026
- worst case efficiency: 0.690
- efficiency to beat: 0.690
- normalized lower bound 1587
--- checking solution
--- solution ok! Maximum rounding error: 0.000093
- solution found, obj var is: 1595
- de-normalized obj var: 0.695700
- time (local/global): 1.401/69.936
- branches (local/global): 132911/5803869
- fails (local/global): 64800/2843426
- lns time: 1.405000
- lns branches: 132911
- lns fails: 64800
LNS iteration #80 ========================================
- worst case average CPI: 1.026
- worst case efficiency: 0.691
- efficiency to beat: 0.691
- normalized lower bound 1602
- lns time: 3.004000
- lns branches: 257135
- lns fails: 125863
LNS iteration #81 ========================================
- worst case average CPI: 1.026
- worst case efficiency: 0.691
- efficiency to beat: 0.691
- normalized lower bound 1602
--- checking solution
--- solution ok! Maximum rounding error: 0.000028
- solution found, obj var is: 1605
- de-normalized obj var: 0.696300
- time (local/global): 0.546/73.490
- branches (local/global): 50333/6111337
- fails (local/global): 24403/2993692
- lns time: 0.550000
- lns branches: 50333
- lns fails: 24403
LNS iteration #82 ========================================
- worst case average CPI: 1.026
- worst case efficiency: 0.691
- efficiency to beat: 0.691
- normalized lower bound 1605
--- checking solution
--- solution ok! Maximum rounding error: 0.000063
- solution found, obj var is: 1609
- de-normalized obj var: 0.696540
- time (local/global): 0.021/73.515
- branches (local/global): 1727/6113064
- fails (local/global): 800/2994492
- lns time: 0.025000
- lns branches: 1727
- lns fails: 800
LNS iteration #83 ========================================
- worst case average CPI: 1.026
- worst case efficiency: 0.692
- efficiency to beat: 0.692
- normalized lower bound 1614
--- checking solution
--- solution ok! Maximum rounding error: 0.000059
- solution found, obj var is: 1649
- de-normalized obj var: 0.698940
- time (local/global): 1.309/74.828
- branches (local/global): 121510/6234574
- fails (local/global): 59206/3053698
- lns time: 1.313000
- lns branches: 121510
- lns fails: 59206
LNS iteration #84 ========================================
- worst case average CPI: 1.026
- worst case efficiency: 0.692
- efficiency to beat: 0.692
- normalized lower bound 1614
--- checking solution
--- solution ok! Maximum rounding error: 0.000059
- solution found, obj var is: 1614
- de-normalized obj var: 0.696840
- time (local/global): 0.394/75.226
- branches (local/global): 29785/6264359
- fails (local/global): 14401/3068099
- lns time: 0.398000
- lns branches: 29785
- lns fails: 14401
LNS iteration #85 ========================================
- worst case average CPI: 1.026
- worst case efficiency: 0.693
- efficiency to beat: 0.693
- normalized lower bound 1636
- lns time: 3.004000
- lns branches: 252509
- lns fails: 123742
LNS iteration #86 ========================================
- worst case average CPI: 1.026
- worst case efficiency: 0.693
- efficiency to beat: 0.693
- normalized lower bound 1636
- lns time: 3.004000
- lns branches: 299963
- lns fails: 148124
LNS iteration #87 ========================================
- worst case average CPI: 1.026
- worst case efficiency: 0.693
- efficiency to beat: 0.693
- normalized lower bound 1636
- lns time: 3.004000
- lns branches: 262617
- lns fails: 128630
LNS iteration #88 ========================================
- worst case average CPI: 1.026
- worst case efficiency: 0.693
- efficiency to beat: 0.693
- normalized lower bound 1636
- lns time: 3.004000
- lns branches: 224180
- lns fails: 109906
LNS iteration #89 ========================================
- worst case average CPI: 1.026
- worst case efficiency: 0.693
- efficiency to beat: 0.693
- normalized lower bound 1636
- lns time: 2.759000
- lns branches: 213325
- lns fails: 104618

LNS optimization is over========================================
initial worst case average CPI: 2.173
final worst case average CPI: 1.026
initial worst case efficiency: 0.636
final worst case efficiency: 0.693
number of iterations: 90
total time: 90005.000000
total branches: 7516953
total fails: 3683119

Final Solution: 0->37, 1->2, 2->22, 3->18, 4->28, 5->22, 6->0, 7->5, 8->10, 9->13, 10->16, 11->7, 12->29, 13->18, 14->34, 15->29, 16->39, 17->9, 18->22, 19->10, 20->33, 21->29, 22->40, 23->30, 24->39, 25->40, 26->26, 27->35, 28->19, 29->17, 30->17, 31->38, 32->23, 33->5, 34->22, 35->14, 36->13, 37->13, 38->28, 39->40, 40->31, 41->16, 42->25, 43->32, 44->28, 45->27, 46->32, 47->32, 48->31, 49->16, 50->22, 51->32, 52->17, 53->21, 54->15, 55->25, 56->33, 57->44, 58->17, 59->10, 60->14, 61->11, 62->36, 63->1, 64->36, 65->23, 66->6, 67->3, 68->31, 69->33, 70->25, 71->7, 72->19, 73->31, 74->0, 75->38, 76->6, 77->44, 78->6, 79->33, 80->15, 81->20, 82->38, 83->37, 84->38, 85->17, 86->15, 87->17, 88->16, 89->47, 90->8, 91->31, 92->21, 93->27, 94->24, 95->7, 96->39, 97->15, 98->33, 99->18, 100->1, 101->39, 102->0, 103->18, 104->24, 105->39, 106->12, 107->19, 108->21, 109->14, 110->4, 111->34, 112->14, 113->8, 114->26, 115->22, 116->33, 117->15, 118->43, 119->32, 120->37, 121->8, 122->24, 123->9, 124->34, 125->41, 126->0, 127->37, 128->41, 129->14, 130->23, 131->36, 132->7, 133->44, 134->45, 135->44, 136->42, 137->24, 138->2, 139->28, 140->2, 141->9, 142->16, 143->38, 144->12, 145->4, 146->0, 147->31, 148->41, 149->0, 150->1, 151->44, 152->38, 153->34, 154->47, 155->41, 156->24, 157->19, 158->37, 159->13, 160->13, 161->27, 162->30, 163->12, 164->34, 165->47, 166->30, 167->6, 168->39, 169->27, 170->11, 171->13, 172->41, 173->42, 174->7, 175->2, 176->24, 177->25, 178->2, 179->18, 180->12, 181->40, 182->44, 183->34, 184->1, 185->18, 186->35, 187->7, 188->42, 189->42, 190->4, 191->1, 192->19, 193->43, 194->23, 195->23, 196->10, 197->23, 198->47, 199->36, 200->43, 201->42, 202->28, 203->19, 204->3, 205->4, 206->8, 207->12, 208->41, 209->43, 210->10, 211->5, 212->11, 213->32, 214->46, 215->37, 216->36, 217->43, 218->42, 219->45, 220->4, 221->3, 222->25, 223->9, 224->21, 225->46, 226->45, 227->25, 228->35, 229->35, 230->29, 231->10, 232->47, 233->20, 234->35, 235->3, 236->4, 237->8, 238->46, 239->27, 240->5, 241->21, 242->36, 243->15, 244->14, 245->46, 246->3, 247->26, 248->35, 249->28, 250->12, 251->20, 252->11, 253->20, 254->3, 255->9, 256->47, 257->20, 258->45, 259->11, 260->29, 261->20, 262->6, 263->46, 264->1, 265->2, 266->26, 267->40, 268->45, 269->45, 270->11, 271->46, 272->30, 273->26, 274->27, 275->43, 276->6, 277->40, 278->5, 279->9, 280->26, 281->30, 282->30, 283->16, 284->5, 285->8, 286->21, 287->29

Average CPI map:
	7.27,	1.81,	1.23,	1.93,	1.38,	1.19
	1.65,	2.93,	3.02,	3.19,	2.76,	1.23
	1.48,	5.14,	5.20,	7.30,	4.35,	1.56
	1.82,	4.09,	3.58,	3.58,	3.37,	2.18
	1.41,	3.21,	4.48,	4.83,	3.94,	1.25
	1.10,	4.44,	6.16,	4.66,	3.71,	1.03
	1.96,	3.86,	3.64,	2.76,	3.47,	1.81
	1.62,	2.16,	2.71,	2.40,	2.49,	1.65

Efficiency map:
	0.997,	0.942,	0.884,	0.935,	0.932,	0.996
	0.832,	0.702,	0.714,	0.698,	0.698,	0.814
	0.818,	0.698,	0.739,	0.693,	0.699,	0.816
	0.821,	0.695,	0.695,	0.697,	0.729,	0.833
	0.804,	0.702,	0.694,	0.696,	0.696,	0.749
	0.763,	0.696,	0.693,	0.720,	0.716,	0.789
	0.872,	0.696,	0.694,	0.695,	0.703,	0.816
	0.831,	0.704,	0.715,	0.699,	0.697,	0.830
