LocalSolver 4.0 (MacOS64, build 20131224)
Copyright (C) 2013 Bouygues SA, Aix-Marseille University, CNRS.
All rights reserved (see Terms and Conditions for details).

Load localsolver_res/tawd_ls.lsp...
Run input...
ANNs For the Platform:
3,2,1,0.413586,-0.0266769,-0.0683771,-5.1002,70.5254,-0.257939,-72.3361,-14.3957,-55.9961,0.000416225,-55.1984
3,2,1,7.29748,1.94844,3.18138,9.63196,-4.67735,-4.13678,1.22405,-8.03403,0.0803394,-0.125838,0.598848
3,2,1,6.43996,0.383984,0.598454,7.79024,-4.25175,0.123161,-0.278344,-5.71253,1.47885,1.00258,0.327892
3,2,1,3.45395,0.140329,0.51254,4.25255,4.08469,0.00326531,0.722664,3.88666,1.2829,-0.290289,-0.187123
3,2,1,1.76581,-0.7465,16.0398,1.01103,2.42771,0.96084,1.00318,4.14242,-0.00284347,0.244904,0.56299
3,2,1,1.87058,0.359859,-0.0851999,0.818043,3.18969,0.847611,-7.29654,-2.24823,0.00245596,0.000486788,0.794563
3,2,1,3.28113,0.579268,0.142679,3.72653,-0.240895,-0.149383,25.0414,7.13641,0.488705,-0.00083541,0.320468
3,2,1,-4.78997,-2.53518,1.7971,11.1628,-3.08773,-0.470276,-0.0894822,-2.63871,1.46314,-0.463195,-1.12076
3,2,1,-0.392198,-0.00544948,0.0100489,-0.634573,-1.21109,-0.0856362,-0.013156,-1.60668,1.54201,-2.33195,-0.462253
3,2,1,3.15031,0.401017,0.160161,2.51156,5.71314,0.59291,-11.6364,2.59774,0.430465,0.00737346,0.36306
3,2,1,2.64111,0.312028,0.0803827,2.35273,-4.25958,3.48188,-1.59773,-1.57632,0.565527,0.0271972,0.266241
3,2,1,2.2658,0.0425076,0.0191991,-0.583848,2.82415,0.533705,0.0754136,3.33659,-0.0169351,0.54785,0.257008
3,2,1,6.01014,0.654767,0.24854,5.54419,5.68574,0.00137666,0.00103835,-1.46229,0.258518,0.00962319,0.54621
3,2,1,-0.828282,0.684875,0.223674,-1.44779,5.0064,0.272371,0.00344824,2.89438,0.397142,0.379767,0.797684
3,2,1,-0.166745,-1.25514,-0.967701,-3.82155,3.34568,0.34907,0.176897,2.37943,0.567319,0.42026,0.93611
3,2,1,-10.035,3.55243,8.66202,-21.5626,10.92,0.228744,0.12852,5.40188,0.871264,0.345634,1.3209
3,2,1,4.50278,0.709934,0.227356,3.41616,1.455,0.115548,0.0125181,-1.15221,0.345467,0.222127,0.602264
3,2,1,3.51765,0.552987,0.202187,3.41883,0.53704,0.0709757,-0.0346297,-0.38017,0.320095,-0.0397752,0.474568
3,2,1,3.62936,0.506661,0.201819,3.49179,3.4019,-3.09955,1.3332,0.961184,0.32649,-0.0126443,0.488413
3,2,1,3.50925,0.448618,0.127508,2.4823,1.78455,1.6893,1.46456,-0.207671,0.400287,0.00684206,0.402337
3,2,1,-0.52883,0.00691432,0.00617163,-0.194006,1.73284,0.0488672,0.0179273,1.25978,0.716787,0.92667,0.162242
3,2,1,2.48239,0.190378,0.120167,1.91689,1.21532,1.48543,0.644574,2.68198,0.547395,-0.0744913,0.328097
3,2,1,2.55861,2.02297,0.650126,2.19109,2.44652,0.0836318,0.0133745,2.4369,0.0418722,0.798841,-0.0334834
3,2,1,5.07371,0.556895,0.217981,4.66725,-0.00829845,-0.00544544,0.00934569,-0.672651,0.280461,-0.520981,0.217266
3,2,1,1.56588,0.201966,0.0665967,1.82578,1.97654,0.236717,0.0903453,1.08195,1.02748,-0.229836,0.011785
3,2,1,2.41728,0.208205,-0.0012583,2.05484,1.41976,-1.30194,1.45365,1.79277,0.56727,0.031184,0.207229
3,2,1,3.71833,0.202336,0.172606,2.43155,5.03284,0.375118,-0.790998,-3.83455,0.400925,0.372075,0.754779
3,2,1,-1.25583,1.47411,0.819895,-2.78448,4.36107,0.113478,0.107247,2.55416,0.385214,0.384141,0.797017
3,2,1,1.71562,-0.478906,-0.61026,-1.17859,3.1361,0.360865,0.0914124,2.2536,-0.0127033,0.431384,0.365879
3,2,1,-1.75501,-0.0880109,-0.026461,-2.68365,2.88327,0.072433,0.0245574,1.95701,-5.87306,-0.563325,-4.48698
3,2,1,1.87886,0.47325,-0.0511434,1.79719,1.94184,0.328234,0.0220624,2.54301,-0.401251,1.77114,-0.565042
3,2,1,-1.60981,1.67946,0.217969,-1.01084,4.35765,0.130722,0.127348,2.65259,0.0709006,0.384957,0.481341
3,2,1,6.90393,1.27603,0.349979,4.84299,12.4465,-4.65212,-2.15462,0.408255,0.295914,0.0666312,0.4354
3,2,1,3.04491,0.18183,0.111428,2.10543,3.32281,-0.49945,-3.78487,-7.88748,0.444834,-4.36795,-4.01116
3,2,1,2.91407,0.251062,0.0435786,2.27032,0.308764,1.59867,0.766589,0.134898,0.475285,0.00569166,0.326702
3,2,1,1.44846,0.205113,0.0448314,1.45909,1.93039,0.286882,0.0586866,1.17886,1.39166,-0.600981,0.0448012
3,2,1,-0.702729,1.84783,-0.00894741,-12.1377,-140.908,-69.0514,-27.175,-146.219,-4.51728,-0.14351,-3.88527
3,2,1,4.2004,0.255152,0.0750175,2.63627,-1.17866,1.67307,0.209535,-1.03514,0.371915,0.0747402,0.498851
3,2,1,3.28015,0.190841,0.175032,2.31848,-0.821253,-1.83022,1.5009,-1.6155,0.417221,-0.0239081,0.360136
3,2,1,2.0525,0.0719707,0.0148549,2.1486,2.00198,1.73479,2.09334,1.44082,0.954066,0.00952719,-0.152697
3,2,1,3.31406,0.407717,0.0380361,2.47187,-0.266021,-1.73458,0.970613,-1.79463,0.415264,-0.0144649,0.374956
3,2,1,6.25099,-3.17047,1.46865,-0.279767,-2.91952,-0.395169,-0.0444215,-3.76202,-0.00491872,-1.23429,-0.425145
3,2,1,1.59636,0.096013,0.0630313,0.826005,1.46151,0.077228,0.0482484,1.68899,-0.289647,1.15304,-0.0688712
3,2,1,33.0172,0.520442,0.135338,28.5555,-3.97298,-0.0574545,-0.0193135,3.34452,0.297691,-5.9863,6.38072
3,2,1,2.32742,0.056139,0.0279748,2.30198,0.254535,0.117712,2.12797,1.7883,0.827797,-0.00209653,-0.0205758
3,2,1,-1.76524,-0.0296866,-0.00748622,-2.47523,4.4267,-0.377196,-4.83785,1.3517,-2.37434,-0.00716866,-1.55224
3,2,1,1.2047,-1.47491,1.03821,1.50617,3.23679,0.3845,-0.018138,2.47251,0.0419137,0.407618,0.357451
3,2,1,3.93828,-0.00820725,-0.00812648,-1.1651,2.06372,0.114124,0.0339398,2.70327,-0.0635318,1.17159,-0.373077
Workload Information:
0.972575, 2.39708, 1.10988, 0.590115, 2.58177, 4.34858, 0.5, 1.03667, 2.36382, 0.612766, 3.57534, 3.91141, 1.53204, 1.85105, 4.67066, 0.5, 0.6393, 2.80695, 13.572, 11.5707, 5.78405, 1.9676, 3.78843, 23.3172, 3.32744, 18.1633, 17.1306, 7.28002, 12.9949, 1.10378, 1.90526, 2.45448, 1.46299, 2.49448, 1.50742, 2.17537, 2.51368, 2.46304, 2.01304, 1.88034, 1.14183, 1.98806, 2.41115, 2.15852, 1.81141, 1.37689, 2.11544, 2.12659, 14.241, 15.1094, 5.59434, 15.7059, 5.7725, 3.57682, 10.6036, 11.2391, 10.6929, 7.39745, 9.05378, 11.0131, 9.26518, 8.19654, 3.98137, 6.80209, 11.9629, 19.7919, 2.29059, 1.7813, 1.95388, 1.60408, 2.19396, 2.17619, 3.01605, 1.42464, 2.53107, 0.629612, 3.18414, 1.21449, 0.858703, 2.41671, 2.0058, 1.96992, 2.39201, 2.35686, 0.906531, 2.81277, 0.641091, 4.01414, 0.512801, 3.11266, 1.29375, 3.07795, 1.05474, 3.58323, 0.5, 2.49033, 0.813519, 2.64727, 2.57569, 0.5, 2.6701, 2.79341, 0.838942, 0.639214, 4.65179, 3.15641, 0.5, 2.21365, 0.822736, 1.76103, 3.18847, 1.62129, 3.12014, 1.48633, 0.856542, 3.11118, 0.734933, 1.39642, 2.67217, 3.22875, 2.33159, 2.2639, 2.43214, 0.610603, 2.72188, 1.63988, 0.838625, 2.88699, 0.5, 4.7624, 1.22551, 1.78647, 2.69998, 0.968234, 2.62558, 2.53529, 2.67092, 0.5, 1.83021, 0.705851, 2.55879, 2.46593, 1.96498, 2.47424, 0.757559, 4.31369, 0.5, 1.76552, 4.10794, 0.555287, 0.948601, 2.08102, 2.35583, 2.07851, 2.32456, 2.21146, 3.39997, 0.5, 2.10716, 1.45376, 2.94558, 1.59353, 1.84764, 1.28335, 6.56344, 0.5, 1.24181, 0.563758, 0.5, 3.44047, 1.82506, 1.52724, 3.49939, 1.20783, 0.5, 2.74182, 2.42425, 2.52648, 1.167, 2.64046, 1.58248, 4.07144, 0.672312, 0.5, 4.6308, 0.542965, 3.10362, 2.06947, 0.5, 0.636549, 2.62714, 3.06321, 1.7173, 2.11514, 0.653563, 3.4178, 1.74094, 2.35526, 2.27769, 1.52815, 1.97292, 2.64313, 1.15193, 2.42618, 2.36577, 1.7214, 0.530125, 2.67858, 2.26666, 2.43746, 2.29013, 2.83215, 1.9097, 2.04107, 1.27906, 1.64788, 1.13966, 4.91036, 2.18005, 1.36552, 1.85803, 0.546382, 1.86867, 2.12365, 1.72341, 1.64876, 2.39067, 2.24484, 2.67214, 2.48739, 2.3493, 1.05876, 2.06872, 1.36369, 2.23285, 2.10667, 1.6163, 2.10851, 1.89827, 2.0374, 1.19725, 3.74648, 1.12694, 1.76902, 0.5, 3.6603, 2.25271, 1.96708, 1.64466, 1.87493, 1.98718, 2.27345, 1.27521, 0.5, 2.63387, 2.36776, 2.66633, 2.55683, 1.63328, 1.66022, 0.770267, 3.53181, 0.677605, 3.72681, 2.49276, 2.95295, 2.51765, 1.08754, 0.5, 2.4491, 1.9564, 0.5, 3.14584, 2.26871, 0.660473, 3.46857, 0.975609, 1.64126, 2.93782, 2.28308, 1.04524, 3.117, 1.79099, 0.5, 2.6142, 1.96334, 2.28364, 2.84784
cpi min/max: 0.5/23.3172
neighbors of 0: 1 6, number of others: 45
neighbors of 1: 0 2 6 7, number of others: 43
neighbors of 2: 1 3 7 8, number of others: 43
neighbors of 3: 2 4 8 9, number of others: 43
neighbors of 4: 3 5 9 10, number of others: 43
neighbors of 5: 4 10 11, number of others: 44
neighbors of 6: 0 1 7 12, number of others: 43
neighbors of 7: 1 2 6 8 12 13, number of others: 41
neighbors of 8: 2 3 7 9 13 14, number of others: 41
neighbors of 9: 3 4 8 10 14 15, number of others: 41
neighbors of 10: 4 5 9 11 15 16, number of others: 41
neighbors of 11: 5 10 16 17, number of others: 43
neighbors of 12: 6 7 13 18, number of others: 43
neighbors of 13: 7 8 12 14 18 19, number of others: 41
neighbors of 14: 8 9 13 15 19 20, number of others: 41
neighbors of 15: 9 10 14 16 20 21, number of others: 41
neighbors of 16: 10 11 15 17 21 22, number of others: 41
neighbors of 17: 11 16 22 23, number of others: 43
neighbors of 18: 12 13 19 24, number of others: 43
neighbors of 19: 13 14 18 20 24 25, number of others: 41
neighbors of 20: 14 15 19 21 25 26, number of others: 41
neighbors of 21: 15 16 20 22 26 27, number of others: 41
neighbors of 22: 16 17 21 23 27 28, number of others: 41
neighbors of 23: 17 22 28 29, number of others: 43
neighbors of 24: 18 19 25 30, number of others: 43
neighbors of 25: 19 20 24 26 30 31, number of others: 41
neighbors of 26: 20 21 25 27 31 32, number of others: 41
neighbors of 27: 21 22 26 28 32 33, number of others: 41
neighbors of 28: 22 23 27 29 33 34, number of others: 41
neighbors of 29: 23 28 34 35, number of others: 43
neighbors of 30: 24 25 31 36, number of others: 43
neighbors of 31: 25 26 30 32 36 37, number of others: 41
neighbors of 32: 26 27 31 33 37 38, number of others: 41
neighbors of 33: 27 28 32 34 38 39, number of others: 41
neighbors of 34: 28 29 33 35 39 40, number of others: 41
neighbors of 35: 29 34 40 41, number of others: 43
neighbors of 36: 30 31 37 42, number of others: 43
neighbors of 37: 31 32 36 38 42 43, number of others: 41
neighbors of 38: 32 33 37 39 43 44, number of others: 41
neighbors of 39: 33 34 38 40 44 45, number of others: 41
neighbors of 40: 34 35 39 41 45 46, number of others: 41
neighbors of 41: 35 40 46 47, number of others: 43
neighbors of 42: 36 37 43, number of others: 44
neighbors of 43: 37 38 42 44, number of others: 43
neighbors of 44: 38 39 43 45, number of others: 43
neighbors of 45: 39 40 44 46, number of others: 43
neighbors of 46: 40 41 45 47, number of others: 43
neighbors of 47: 41 46, number of others: 45
Run model...
Preprocess model 0% ...Preprocess model 16% ...Preprocess model 32% ...Preprocess model 48% ...Preprocess model 66% ...Preprocess model 84% ...Preprocess model 100% ...
Close model 0% ...Close model 9% ...Close model 18% ...Close model 27% ...Close model 36% ...Close model 45% ...Close model 54% ...Close model 63% ...Close model 72% ...Close model 81% ...Close model 91% ...Close model 100% ...
Run param...
Run solver...
Initialize threads 0% ...Initialize threads 100% ...
Push initial solutions 0% ...Push initial solutions 100% ...

Model: 
  expressions = 30667, operands = 74976
  decisions = 13824, constraints = 336, objectives = 1

Param: 
  time limit = 90 sec, no iteration limit
  seed = 601, nb threads = 1, annealing level = 1

Objectives:
  Obj 0: maximize, no bound

Phases:
  Phase 0: time limit = 90 sec, no iteration limit, optimized objective = 0


Computed bounds:
  Obj 0: upper bound = 0.617747


Phase 0:
[0 sec, 0 itr]: infeas = (336, 336, 576), mov = 0, inf < 0.1%, acc < 0.1%, imp = 0

worst case efficiency: 0.965273
[1 sec, 18750 itr]: obj = (0.069437), mov = 18750, inf = 93.7%, acc = 5%, imp = 174

worst case efficiency: 0.641662
[2 sec, 37015 itr]: obj = (0.0817799), mov = 37015, inf = 96.7%, acc = 2.7%, imp = 211

worst case efficiency: 0.649068
[3 sec, 49718 itr]: obj = (0.0857091), mov = 49718, inf = 97.5%, acc = 2%, imp = 226

worst case efficiency: 0.651425
[4 sec, 60517 itr]: obj = (0.0876001), mov = 60517, inf = 98%, acc = 1.7%, imp = 242

worst case efficiency: 0.65256
[5 sec, 68382 itr]: obj = (0.0930274), mov = 68382, inf = 98.2%, acc = 1.6%, imp = 269

worst case efficiency: 0.655816
[6 sec, 74203 itr]: obj = (0.0952305), mov = 74203, inf = 98.3%, acc = 1.5%, imp = 295

worst case efficiency: 0.657138
[7 sec, 79219 itr]: obj = (0.100944), mov = 79219, inf = 98.4%, acc = 1.4%, imp = 323

worst case efficiency: 0.660566
[8 sec, 83924 itr]: obj = (0.101672), mov = 83924, inf = 98.4%, acc = 1.4%, imp = 340

worst case efficiency: 0.661003
[9 sec, 88449 itr]: obj = (0.101672), mov = 88449, inf = 98.5%, acc = 1.3%, imp = 340

worst case efficiency: 0.661003
[10 sec, 93081 itr]: obj = (0.101672), mov = 93081, inf = 98.6%, acc = 1.2%, imp = 340

worst case efficiency: 0.661003
[11 sec, 97849 itr]: obj = (0.101672), mov = 97849, inf = 98.7%, acc = 1.2%, imp = 340

worst case efficiency: 0.661003
[12 sec, 102941 itr]: obj = (0.101672), mov = 102941, inf = 98.7%, acc = 1.1%, imp = 340

worst case efficiency: 0.661003
[13 sec, 108179 itr]: obj = (0.101672), mov = 108179, inf = 98.8%, acc = 1.1%, imp = 340

worst case efficiency: 0.661003
[14 sec, 113786 itr]: obj = (0.101672), mov = 113786, inf = 98.8%, acc = 1%, imp = 340

worst case efficiency: 0.661003
[15 sec, 120027 itr]: obj = (0.101672), mov = 120027, inf = 98.9%, acc = 1%, imp = 340

worst case efficiency: 0.661003
[16 sec, 126436 itr]: obj = (0.101672), mov = 126436, inf = 99%, acc = 0.9%, imp = 340

worst case efficiency: 0.661003
[17 sec, 135165 itr]: obj = (0.101672), mov = 135165, inf = 99%, acc = 0.9%, imp = 340

worst case efficiency: 0.661003
[18 sec, 146240 itr]: obj = (0.101672), mov = 146240, inf = 99.1%, acc = 0.8%, imp = 340

worst case efficiency: 0.661003
[19 sec, 166699 itr]: obj = (0.101672), mov = 166699, inf = 99.2%, acc = 0.7%, imp = 340

worst case efficiency: 0.661003
[20 sec, 193420 itr]: obj = (0.101672), mov = 193420, inf = 99.3%, acc = 0.6%, imp = 340

worst case efficiency: 0.661003
[21 sec, 213120 itr]: obj = (0.101672), mov = 213120, inf = 99.4%, acc = 0.6%, imp = 340

worst case efficiency: 0.661003
[22 sec, 231781 itr]: obj = (0.101672), mov = 231781, inf = 99.5%, acc = 0.5%, imp = 340

worst case efficiency: 0.661003
[23 sec, 250139 itr]: obj = (0.101672), mov = 250139, inf = 99.5%, acc = 0.5%, imp = 340

worst case efficiency: 0.661003
[24 sec, 268456 itr]: obj = (0.101672), mov = 268456, inf = 99.5%, acc = 0.5%, imp = 340

worst case efficiency: 0.661003
[25 sec, 287314 itr]: obj = (0.101672), mov = 287314, inf = 99.6%, acc = 0.4%, imp = 340

worst case efficiency: 0.661003
[26 sec, 306155 itr]: obj = (0.101672), mov = 306155, inf = 99.6%, acc = 0.4%, imp = 340

worst case efficiency: 0.661003
[27 sec, 324472 itr]: obj = (0.101672), mov = 324472, inf = 99.6%, acc = 0.4%, imp = 340

worst case efficiency: 0.661003
[28 sec, 343126 itr]: obj = (0.101672), mov = 343126, inf = 99.6%, acc = 0.4%, imp = 340

worst case efficiency: 0.661003
[29 sec, 361132 itr]: obj = (0.101672), mov = 361132, inf = 99.7%, acc = 0.4%, imp = 340

worst case efficiency: 0.661003
[30 sec, 379733 itr]: obj = (0.101672), mov = 379733, inf = 99.7%, acc = 0.3%, imp = 340

worst case efficiency: 0.661003
[31 sec, 398167 itr]: obj = (0.101672), mov = 398167, inf = 99.7%, acc = 0.3%, imp = 340

worst case efficiency: 0.661003
[32 sec, 416131 itr]: obj = (0.101672), mov = 416131, inf = 99.7%, acc = 0.3%, imp = 340

worst case efficiency: 0.661003
[33 sec, 434464 itr]: obj = (0.101672), mov = 434464, inf = 99.7%, acc = 0.3%, imp = 340

worst case efficiency: 0.661003
[34 sec, 452449 itr]: obj = (0.101672), mov = 452449, inf = 99.7%, acc = 0.3%, imp = 340

worst case efficiency: 0.661003
[35 sec, 469842 itr]: obj = (0.101672), mov = 469842, inf = 99.8%, acc = 0.3%, imp = 340

worst case efficiency: 0.661003
[36 sec, 487622 itr]: obj = (0.101672), mov = 487622, inf = 99.8%, acc = 0.3%, imp = 340

worst case efficiency: 0.661003
[37 sec, 505465 itr]: obj = (0.101672), mov = 505465, inf = 99.8%, acc = 0.3%, imp = 340

worst case efficiency: 0.661003
[38 sec, 522739 itr]: obj = (0.101672), mov = 522739, inf = 99.8%, acc = 0.3%, imp = 340

worst case efficiency: 0.661003
[39 sec, 541546 itr]: obj = (0.101672), mov = 541546, inf = 99.8%, acc = 0.3%, imp = 340

worst case efficiency: 0.661003
[40 sec, 559223 itr]: obj = (0.101672), mov = 559223, inf = 99.8%, acc = 0.2%, imp = 340

worst case efficiency: 0.661003
[41 sec, 577537 itr]: obj = (0.101672), mov = 577537, inf = 99.8%, acc = 0.2%, imp = 340

worst case efficiency: 0.661003
[42 sec, 595889 itr]: obj = (0.101672), mov = 595889, inf = 99.8%, acc = 0.2%, imp = 340

worst case efficiency: 0.661003
[43 sec, 613802 itr]: obj = (0.101672), mov = 613802, inf = 99.8%, acc = 0.2%, imp = 340

worst case efficiency: 0.661003
[44 sec, 631312 itr]: obj = (0.101672), mov = 631312, inf = 99.8%, acc = 0.2%, imp = 340

worst case efficiency: 0.661003
[45 sec, 649670 itr]: obj = (0.101672), mov = 649670, inf = 99.8%, acc = 0.2%, imp = 340

worst case efficiency: 0.661003
[46 sec, 667673 itr]: obj = (0.101672), mov = 667673, inf = 99.8%, acc = 0.2%, imp = 340

worst case efficiency: 0.661003
[47 sec, 685711 itr]: obj = (0.101672), mov = 685711, inf = 99.8%, acc = 0.2%, imp = 340

worst case efficiency: 0.661003
[48 sec, 703881 itr]: obj = (0.101672), mov = 703881, inf = 99.9%, acc = 0.2%, imp = 340

worst case efficiency: 0.661003
[49 sec, 722710 itr]: obj = (0.101672), mov = 722710, inf = 99.9%, acc = 0.2%, imp = 340

worst case efficiency: 0.661003
[50 sec, 741119 itr]: obj = (0.101672), mov = 741119, inf = 99.9%, acc = 0.2%, imp = 340

worst case efficiency: 0.661003
[51 sec, 759101 itr]: obj = (0.101672), mov = 759101, inf = 99.9%, acc = 0.2%, imp = 340

worst case efficiency: 0.661003
[52 sec, 777193 itr]: obj = (0.101672), mov = 777193, inf = 99.9%, acc = 0.2%, imp = 340

worst case efficiency: 0.661003
[53 sec, 795305 itr]: obj = (0.101672), mov = 795305, inf = 99.9%, acc = 0.2%, imp = 340

worst case efficiency: 0.661003
[54 sec, 813539 itr]: obj = (0.101672), mov = 813539, inf = 99.9%, acc = 0.2%, imp = 340

worst case efficiency: 0.661003
[55 sec, 831270 itr]: obj = (0.101672), mov = 831270, inf = 99.9%, acc = 0.2%, imp = 340

worst case efficiency: 0.661003
[56 sec, 849547 itr]: obj = (0.101672), mov = 849547, inf = 99.9%, acc = 0.2%, imp = 340

worst case efficiency: 0.661003
[57 sec, 868222 itr]: obj = (0.101672), mov = 868222, inf = 99.9%, acc = 0.2%, imp = 340

worst case efficiency: 0.661003
[58 sec, 886282 itr]: obj = (0.101672), mov = 886282, inf = 99.9%, acc = 0.2%, imp = 340

worst case efficiency: 0.661003
[59 sec, 904616 itr]: obj = (0.101672), mov = 904616, inf = 99.9%, acc = 0.2%, imp = 340

worst case efficiency: 0.661003
[60 sec, 922753 itr]: obj = (0.101672), mov = 922753, inf = 99.9%, acc = 0.2%, imp = 340

worst case efficiency: 0.661003
[61 sec, 941302 itr]: obj = (0.101672), mov = 941302, inf = 99.9%, acc = 0.2%, imp = 340

worst case efficiency: 0.661003
[62 sec, 959577 itr]: obj = (0.101672), mov = 959577, inf = 99.9%, acc = 0.2%, imp = 340

worst case efficiency: 0.661003
[63 sec, 977635 itr]: obj = (0.101672), mov = 977635, inf = 99.9%, acc = 0.2%, imp = 340

worst case efficiency: 0.661003
[64 sec, 995921 itr]: obj = (0.101672), mov = 995921, inf = 99.9%, acc = 0.2%, imp = 340

worst case efficiency: 0.661003
[65 sec, 1014505 itr]: obj = (0.101672), mov = 1014505, inf = 99.9%, acc = 0.2%, imp = 340

worst case efficiency: 0.661003
[66 sec, 1032175 itr]: obj = (0.101672), mov = 1032175, inf = 99.9%, acc = 0.2%, imp = 340

worst case efficiency: 0.661003
[67 sec, 1050783 itr]: obj = (0.101672), mov = 1050783, inf = 99.9%, acc = 0.2%, imp = 340

worst case efficiency: 0.661003
[68 sec, 1067661 itr]: obj = (0.101672), mov = 1067661, inf = 99.9%, acc = 0.2%, imp = 340

worst case efficiency: 0.661003
[69 sec, 1084793 itr]: obj = (0.101672), mov = 1084793, inf = 99.9%, acc = 0.2%, imp = 340

worst case efficiency: 0.661003
[70 sec, 1103913 itr]: obj = (0.101672), mov = 1103913, inf = 99.9%, acc = 0.2%, imp = 340

worst case efficiency: 0.661003
[71 sec, 1122164 itr]: obj = (0.101672), mov = 1122164, inf = 99.9%, acc < 0.1%, imp = 340

worst case efficiency: 0.661003
[72 sec, 1140396 itr]: obj = (0.101672), mov = 1140396, inf = 99.9%, acc < 0.1%, imp = 340

worst case efficiency: 0.661003
[73 sec, 1158890 itr]: obj = (0.101672), mov = 1158890, inf = 99.9%, acc < 0.1%, imp = 340

worst case efficiency: 0.661003
[74 sec, 1176964 itr]: obj = (0.101672), mov = 1176964, inf = 99.9%, acc < 0.1%, imp = 340

worst case efficiency: 0.661003
[75 sec, 1195152 itr]: obj = (0.101672), mov = 1195152, inf = 99.9%, acc < 0.1%, imp = 340

worst case efficiency: 0.661003
[76 sec, 1213535 itr]: obj = (0.101672), mov = 1213535, inf = 99.9%, acc < 0.1%, imp = 340

worst case efficiency: 0.661003
[77 sec, 1232069 itr]: obj = (0.101672), mov = 1232069, inf = 99.9%, acc < 0.1%, imp = 340

worst case efficiency: 0.661003
[78 sec, 1250117 itr]: obj = (0.101672), mov = 1250117, inf = 99.9%, acc < 0.1%, imp = 340

worst case efficiency: 0.661003
[79 sec, 1268931 itr]: obj = (0.101672), mov = 1268931, inf = 99.9%, acc < 0.1%, imp = 340

worst case efficiency: 0.661003
[80 sec, 1287698 itr]: obj = (0.101672), mov = 1287698, inf = 99.9%, acc < 0.1%, imp = 340

worst case efficiency: 0.661003
[81 sec, 1302437 itr]: obj = (0.101672), mov = 1302437, inf = 99.9%, acc < 0.1%, imp = 340

worst case efficiency: 0.661003
[82 sec, 1319998 itr]: obj = (0.101672), mov = 1319998, inf = 99.9%, acc < 0.1%, imp = 340

worst case efficiency: 0.661003
[83 sec, 1337354 itr]: obj = (0.101672), mov = 1337354, inf = 99.9%, acc < 0.1%, imp = 340

worst case efficiency: 0.661003
[84 sec, 1355911 itr]: obj = (0.101672), mov = 1355911, inf = 99.9%, acc < 0.1%, imp = 340

worst case efficiency: 0.661003
[85 sec, 1374594 itr]: obj = (0.101672), mov = 1374594, inf = 99.9%, acc < 0.1%, imp = 340

worst case efficiency: 0.661003
[86 sec, 1393852 itr]: obj = (0.101672), mov = 1393852, inf = 100%, acc < 0.1%, imp = 340

worst case efficiency: 0.661003
[87 sec, 1412865 itr]: obj = (0.101672), mov = 1412865, inf = 100%, acc < 0.1%, imp = 340

worst case efficiency: 0.661003
[88 sec, 1431501 itr]: obj = (0.101672), mov = 1431501, inf = 100%, acc < 0.1%, imp = 340

worst case efficiency: 0.661003
[89 sec, 1450517 itr]: obj = (0.101672), mov = 1450517, inf = 100%, acc < 0.1%, imp = 340

worst case efficiency: 0.661003
[90 sec, 1469227 itr]: obj = (0.101672), mov = 1469227, inf = 100%, acc < 0.1%, imp = 340

worst case efficiency: 0.661003
[90 sec, 1469227 itr]: obj = (0.101672), mov = 1469227, inf = 100%, acc < 0.1%, imp = 340

worst case efficiency: 0.661003
1469227 iterations, 1469227 moves performed in 90 seconds
Feasible solution: obj = (0.101672)

Run output...
FINAL SOLUTION
Worst case efficiency: 0.661003
Mapping: 0->43, 1->46, 2->13, 3->35, 4->38, 5->44, 6->36, 7->9, 8->30, 9->6, 10->37, 11->14, 12->8, 13->3, 14->37, 15->45, 16->46, 17->42, 18->9, 19->33, 20->19, 21->24, 22->26, 23->20, 24->18, 25->22, 26->12, 27->23, 28->31, 29->15, 30->1, 31->21, 32->18, 33->35, 34->7, 35->17, 36->13, 37->47, 38->47, 39->34, 40->0, 41->43, 42->2, 43->14, 44->10, 45->42, 46->25, 47->28, 48->13, 49->27, 50->31, 51->33, 52->31, 53->7, 54->14, 55->38, 56->26, 57->25, 58->25, 59->21, 60->33, 61->32, 62->18, 63->32, 64->40, 65->28, 66->28, 67->13, 68->0, 69->9, 70->34, 71->8, 72->19, 73->12, 74->40, 75->11, 76->21, 77->29, 78->46, 79->24, 80->1, 81->14, 82->41, 83->20, 84->6, 85->30, 86->0, 87->12, 88->11, 89->15, 90->35, 91->45, 92->47, 93->16, 94->2, 95->1, 96->9, 97->24, 98->10, 99->0, 100->10, 101->32, 102->5, 103->19, 104->16, 105->44, 106->30, 107->27, 108->44, 109->7, 110->21, 111->15, 112->8, 113->23, 114->41, 115->25, 116->4, 117->24, 118->16, 119->10, 120->17, 121->40, 122->45, 123->42, 124->45, 125->6, 126->41, 127->20, 128->1, 129->31, 130->0, 131->35, 132->13, 133->36, 134->30, 135->22, 136->26, 137->16, 138->23, 139->47, 140->6, 141->43, 142->41, 143->39, 144->25, 145->34, 146->25, 147->45, 148->18, 149->46, 150->47, 151->5, 152->34, 153->33, 154->39, 155->0, 156->28, 157->11, 158->15, 159->28, 160->27, 161->40, 162->6, 163->17, 164->17, 165->2, 166->42, 167->2, 168->23, 169->37, 170->3, 171->31, 172->5, 173->20, 174->36, 175->8, 176->21, 177->5, 178->9, 179->22, 180->17, 181->27, 182->21, 183->6, 184->32, 185->29, 186->12, 187->7, 188->3, 189->35, 190->40, 191->32, 192->3, 193->18, 194->11, 195->30, 196->20, 197->39, 198->5, 199->44, 200->36, 201->15, 202->47, 203->10, 204->34, 205->39, 206->42, 207->22, 208->43, 209->4, 210->42, 211->39, 212->4, 213->8, 214->7, 215->41, 216->29, 217->18, 218->44, 219->29, 220->37, 221->4, 222->10, 223->38, 224->29, 225->45, 226->7, 227->19, 228->27, 229->37, 230->11, 231->9, 232->16, 233->19, 234->39, 235->26, 236->41, 237->35, 238->36, 239->11, 240->26, 241->33, 242->30, 243->17, 244->1, 245->24, 246->28, 247->31, 248->4, 249->46, 250->14, 251->2, 252->13, 253->3, 254->2, 255->44, 256->26, 257->33, 258->34, 259->3, 260->43, 261->16, 262->29, 263->22, 264->12, 265->37, 266->22, 267->46, 268->5, 269->38, 270->38, 271->43, 272->1, 273->23, 274->4, 275->19, 276->36, 277->24, 278->15, 279->40, 280->23, 281->27, 282->8, 283->20, 284->12, 285->32, 286->14, 287->38
Number of tasks per core:
	6	6	6	6	6	6
	6	6	6	6	6	6
	6	6	6	6	6	6
	6	6	6	6	6	6
	6	6	6	6	6	6
	6	6	6	6	6	6
	6	6	6	6	6	6
	6	6	6	6	6	6
Average CPI map:
	1.27896	1.75787	1.48037	1.34227	1.32227	1.95392
	1.34427	2.09741	2.23371	3.20867	2.43013	1.11378
	5.12999	3.93684	3.81905	2.25431	2.83462	2.61754
	3.31754	2.75274	5.33498	3.8228	5.37701	2.40175
	2.28826	3.82257	3.85375	5.02154	5.21925	1.11061
	2.14115	5.43641	4.5749	7.48727	2.45715	1.48498
	1.13584	3.16414	3.8663	2.32341	3.87694	1.55272
	1.47609	1.49392	2.40061	2.02438	1.23547	1.38953
Efficiency map:
	0.996715	0.934044	0.899817	0.900599	0.930629	0.995963
	0.808326	0.665474	0.665234	0.693296	0.677756	0.810488
	0.948024	0.66973	0.689537	0.662241	0.661003	0.847416
	0.870535	0.66104	0.762908	0.706677	0.823655	0.843558
	0.838558	0.731175	0.674476	0.702985	0.747051	0.732492
	0.828593	0.730071	0.661003	0.834573	0.667239	0.805381
	0.871815	0.680354	0.701704	0.668734	0.713568	0.79488
	0.824201	0.66219	0.695742	0.672326	0.661251	0.815482
==============================================================================
Local Solver optimizer for EML demonstration
==============================================================================

Option values: --wld-idx 7 --global-tlim 90 --seed 601

Starting the Optimization Process
