LocalSolver 4.0 (MacOS64, build 20131224)
Copyright (C) 2013 Bouygues SA, Aix-Marseille University, CNRS.
All rights reserved (see Terms and Conditions for details).

Load localsolver_res/tawd_ls.lsp...
Run input...
ANNs For the Platform:
3,2,1,0.413586,-0.0266769,-0.0683771,-5.1002,70.5254,-0.257939,-72.3361,-14.3957,-55.9961,0.000416225,-55.1984
3,2,1,7.29748,1.94844,3.18138,9.63196,-4.67735,-4.13678,1.22405,-8.03403,0.0803394,-0.125838,0.598848
3,2,1,6.43996,0.383984,0.598454,7.79024,-4.25175,0.123161,-0.278344,-5.71253,1.47885,1.00258,0.327892
3,2,1,3.45395,0.140329,0.51254,4.25255,4.08469,0.00326531,0.722664,3.88666,1.2829,-0.290289,-0.187123
3,2,1,1.76581,-0.7465,16.0398,1.01103,2.42771,0.96084,1.00318,4.14242,-0.00284347,0.244904,0.56299
3,2,1,1.87058,0.359859,-0.0851999,0.818043,3.18969,0.847611,-7.29654,-2.24823,0.00245596,0.000486788,0.794563
3,2,1,3.28113,0.579268,0.142679,3.72653,-0.240895,-0.149383,25.0414,7.13641,0.488705,-0.00083541,0.320468
3,2,1,-4.78997,-2.53518,1.7971,11.1628,-3.08773,-0.470276,-0.0894822,-2.63871,1.46314,-0.463195,-1.12076
3,2,1,-0.392198,-0.00544948,0.0100489,-0.634573,-1.21109,-0.0856362,-0.013156,-1.60668,1.54201,-2.33195,-0.462253
3,2,1,3.15031,0.401017,0.160161,2.51156,5.71314,0.59291,-11.6364,2.59774,0.430465,0.00737346,0.36306
3,2,1,2.64111,0.312028,0.0803827,2.35273,-4.25958,3.48188,-1.59773,-1.57632,0.565527,0.0271972,0.266241
3,2,1,2.2658,0.0425076,0.0191991,-0.583848,2.82415,0.533705,0.0754136,3.33659,-0.0169351,0.54785,0.257008
3,2,1,6.01014,0.654767,0.24854,5.54419,5.68574,0.00137666,0.00103835,-1.46229,0.258518,0.00962319,0.54621
3,2,1,-0.828282,0.684875,0.223674,-1.44779,5.0064,0.272371,0.00344824,2.89438,0.397142,0.379767,0.797684
3,2,1,-0.166745,-1.25514,-0.967701,-3.82155,3.34568,0.34907,0.176897,2.37943,0.567319,0.42026,0.93611
3,2,1,-10.035,3.55243,8.66202,-21.5626,10.92,0.228744,0.12852,5.40188,0.871264,0.345634,1.3209
3,2,1,4.50278,0.709934,0.227356,3.41616,1.455,0.115548,0.0125181,-1.15221,0.345467,0.222127,0.602264
3,2,1,3.51765,0.552987,0.202187,3.41883,0.53704,0.0709757,-0.0346297,-0.38017,0.320095,-0.0397752,0.474568
3,2,1,3.62936,0.506661,0.201819,3.49179,3.4019,-3.09955,1.3332,0.961184,0.32649,-0.0126443,0.488413
3,2,1,3.50925,0.448618,0.127508,2.4823,1.78455,1.6893,1.46456,-0.207671,0.400287,0.00684206,0.402337
3,2,1,-0.52883,0.00691432,0.00617163,-0.194006,1.73284,0.0488672,0.0179273,1.25978,0.716787,0.92667,0.162242
3,2,1,2.48239,0.190378,0.120167,1.91689,1.21532,1.48543,0.644574,2.68198,0.547395,-0.0744913,0.328097
3,2,1,2.55861,2.02297,0.650126,2.19109,2.44652,0.0836318,0.0133745,2.4369,0.0418722,0.798841,-0.0334834
3,2,1,5.07371,0.556895,0.217981,4.66725,-0.00829845,-0.00544544,0.00934569,-0.672651,0.280461,-0.520981,0.217266
3,2,1,1.56588,0.201966,0.0665967,1.82578,1.97654,0.236717,0.0903453,1.08195,1.02748,-0.229836,0.011785
3,2,1,2.41728,0.208205,-0.0012583,2.05484,1.41976,-1.30194,1.45365,1.79277,0.56727,0.031184,0.207229
3,2,1,3.71833,0.202336,0.172606,2.43155,5.03284,0.375118,-0.790998,-3.83455,0.400925,0.372075,0.754779
3,2,1,-1.25583,1.47411,0.819895,-2.78448,4.36107,0.113478,0.107247,2.55416,0.385214,0.384141,0.797017
3,2,1,1.71562,-0.478906,-0.61026,-1.17859,3.1361,0.360865,0.0914124,2.2536,-0.0127033,0.431384,0.365879
3,2,1,-1.75501,-0.0880109,-0.026461,-2.68365,2.88327,0.072433,0.0245574,1.95701,-5.87306,-0.563325,-4.48698
3,2,1,1.87886,0.47325,-0.0511434,1.79719,1.94184,0.328234,0.0220624,2.54301,-0.401251,1.77114,-0.565042
3,2,1,-1.60981,1.67946,0.217969,-1.01084,4.35765,0.130722,0.127348,2.65259,0.0709006,0.384957,0.481341
3,2,1,6.90393,1.27603,0.349979,4.84299,12.4465,-4.65212,-2.15462,0.408255,0.295914,0.0666312,0.4354
3,2,1,3.04491,0.18183,0.111428,2.10543,3.32281,-0.49945,-3.78487,-7.88748,0.444834,-4.36795,-4.01116
3,2,1,2.91407,0.251062,0.0435786,2.27032,0.308764,1.59867,0.766589,0.134898,0.475285,0.00569166,0.326702
3,2,1,1.44846,0.205113,0.0448314,1.45909,1.93039,0.286882,0.0586866,1.17886,1.39166,-0.600981,0.0448012
3,2,1,-0.702729,1.84783,-0.00894741,-12.1377,-140.908,-69.0514,-27.175,-146.219,-4.51728,-0.14351,-3.88527
3,2,1,4.2004,0.255152,0.0750175,2.63627,-1.17866,1.67307,0.209535,-1.03514,0.371915,0.0747402,0.498851
3,2,1,3.28015,0.190841,0.175032,2.31848,-0.821253,-1.83022,1.5009,-1.6155,0.417221,-0.0239081,0.360136
3,2,1,2.0525,0.0719707,0.0148549,2.1486,2.00198,1.73479,2.09334,1.44082,0.954066,0.00952719,-0.152697
3,2,1,3.31406,0.407717,0.0380361,2.47187,-0.266021,-1.73458,0.970613,-1.79463,0.415264,-0.0144649,0.374956
3,2,1,6.25099,-3.17047,1.46865,-0.279767,-2.91952,-0.395169,-0.0444215,-3.76202,-0.00491872,-1.23429,-0.425145
3,2,1,1.59636,0.096013,0.0630313,0.826005,1.46151,0.077228,0.0482484,1.68899,-0.289647,1.15304,-0.0688712
3,2,1,33.0172,0.520442,0.135338,28.5555,-3.97298,-0.0574545,-0.0193135,3.34452,0.297691,-5.9863,6.38072
3,2,1,2.32742,0.056139,0.0279748,2.30198,0.254535,0.117712,2.12797,1.7883,0.827797,-0.00209653,-0.0205758
3,2,1,-1.76524,-0.0296866,-0.00748622,-2.47523,4.4267,-0.377196,-4.83785,1.3517,-2.37434,-0.00716866,-1.55224
3,2,1,1.2047,-1.47491,1.03821,1.50617,3.23679,0.3845,-0.018138,2.47251,0.0419137,0.407618,0.357451
3,2,1,3.93828,-0.00820725,-0.00812648,-1.1651,2.06372,0.114124,0.0339398,2.70327,-0.0635318,1.17159,-0.373077
Workload Information:
1.23096, 1.16925, 2.43663, 2.89784, 2.52097, 1.74435, 0.5, 2.10585, 3.24167, 1.83105, 1.584, 2.73743, 1.86299, 2.07441, 1.98376, 1.97798, 1.91419, 2.18667, 1.51308, 2.79429, 3.86066, 0.5, 2.82264, 0.509336, 2.70846, 3.62027, 1.87642, 0.5, 1.70072, 1.59413, 3.09531, 2.9454, 0.5, 1.28056, 1.14986, 3.02888, 10.4148, 10.9857, 9.59205, 9.58493, 9.63964, 9.7829, 7.13399, 11.3218, 5.45118, 16.8645, 11.6546, 7.57401, 3.60585, 2.44578, 1.73347, 1.70234, 1.12283, 1.38973, 3.76849, 0.5, 1.85507, 4.26678, 1.01218, 0.59748, 0.740313, 0.549421, 4.7972, 0.857577, 0.5, 4.55549, 0.639264, 1.20949, 3.88082, 1.67569, 4.09474, 0.5, 13.3876, 4.98203, 34.1476, 4.53449, 1.54418, 1.40407, 3.07133, 17.329, 7.53159, 7.11184, 8.86937, 16.0869, 1.30519, 1.94698, 2.28193, 0.592364, 4.43367, 1.43987, 0.5, 1.385, 2.34045, 2.52259, 1.10892, 4.14303, 1.68927, 2.3023, 1.5714, 2.22756, 2.05526, 2.15419, 1.62609, 1.09086, 2.10101, 3.93658, 0.5, 2.74546, 12.3646, 19.3229, 1.42378, 14.1161, 1.6416, 11.1309, 13.4342, 11.6597, 1.68469, 24.952, 5.56244, 2.70694, 1.07726, 1.81151, 1.69125, 3.9252, 1.54788, 1.94689, 1.06557, 1.20262, 1.43283, 3.50576, 2.89907, 1.89414, 2.4728, 2.22111, 2.59166, 1.5929, 2.62153, 0.5, 0.5, 1.92189, 1.70312, 3.98958, 2.71674, 1.16866, 0.953174, 1.10072, 3.75512, 3.15326, 0.505136, 2.53259, 0.986199, 4.32132, 3.04017, 0.5, 0.657454, 2.49486, 1.21604, 2.24417, 2.74436, 2.56076, 1.99584, 1.23882, 2.19047, 2.34784, 1.71665, 2.59214, 1.61241, 1.54049, 4.15551, 1.2971, 0.5, 3.04795, 2.3335, 0.665945, 3.63169, 0.528328, 1.84933, 3.03667, 1.81802, 1.13596, 2.24493, 2.33553, 2.46773, 2.3855, 1.09922, 1.4671, 0.5, 4.11853, 1.19228, 0.998987, 1.27981, 3.9104, 2.3036, 0.5, 0.525606, 3.21428, 4.04133, 1.41519, 1.37534, 1.63482, 2.48103, 2.3302, 1.99165, 2.18695, 2.0745, 1.98482, 2.225, 1.846, 2.13661, 1.73306, 2.43862, 1.14685, 2.88516, 2.00514, 2.69807, 0.826166, 2.03281, 2.11459, 1.90136, 2.3161, 1.37218, 2.26295, 2.5482, 3.49115, 1.21409, 0.5, 2.30291, 1.94365, 0.5, 1.44397, 1.70755, 3.42068, 1.57037, 3.35744, 1.48342, 2.18574, 1.11062, 0.5, 3.3884, 3.33182, 0.5, 1.79175, 0.873457, 2.98627, 2.96385, 2.88468, 2.07367, 2.46013, 1.72976, 2.18934, 1.00173, 2.54537, 1.79865, 2.27953, 1.80193, 1.99753, 2.24217, 1.88018, 2.7667, 0.650729, 0.688534, 4.30086, 0.721227, 2.87195, 1.93076, 1.66155, 1.98001, 1.97579, 2.2762, 2.1757, 1.02259, 2.58134, 0.551086, 3.57126, 3.73188, 0.541843, 2.37773, 0.5, 0.755259, 3.57949, 3.56401, 1.22352, 0.5, 5.135, 1.3267, 1.94202, 2.35417, 0.742105
cpi min/max: 0.5/34.1476
neighbors of 0: 1 6, number of others: 45
neighbors of 1: 0 2 6 7, number of others: 43
neighbors of 2: 1 3 7 8, number of others: 43
neighbors of 3: 2 4 8 9, number of others: 43
neighbors of 4: 3 5 9 10, number of others: 43
neighbors of 5: 4 10 11, number of others: 44
neighbors of 6: 0 1 7 12, number of others: 43
neighbors of 7: 1 2 6 8 12 13, number of others: 41
neighbors of 8: 2 3 7 9 13 14, number of others: 41
neighbors of 9: 3 4 8 10 14 15, number of others: 41
neighbors of 10: 4 5 9 11 15 16, number of others: 41
neighbors of 11: 5 10 16 17, number of others: 43
neighbors of 12: 6 7 13 18, number of others: 43
neighbors of 13: 7 8 12 14 18 19, number of others: 41
neighbors of 14: 8 9 13 15 19 20, number of others: 41
neighbors of 15: 9 10 14 16 20 21, number of others: 41
neighbors of 16: 10 11 15 17 21 22, number of others: 41
neighbors of 17: 11 16 22 23, number of others: 43
neighbors of 18: 12 13 19 24, number of others: 43
neighbors of 19: 13 14 18 20 24 25, number of others: 41
neighbors of 20: 14 15 19 21 25 26, number of others: 41
neighbors of 21: 15 16 20 22 26 27, number of others: 41
neighbors of 22: 16 17 21 23 27 28, number of others: 41
neighbors of 23: 17 22 28 29, number of others: 43
neighbors of 24: 18 19 25 30, number of others: 43
neighbors of 25: 19 20 24 26 30 31, number of others: 41
neighbors of 26: 20 21 25 27 31 32, number of others: 41
neighbors of 27: 21 22 26 28 32 33, number of others: 41
neighbors of 28: 22 23 27 29 33 34, number of others: 41
neighbors of 29: 23 28 34 35, number of others: 43
neighbors of 30: 24 25 31 36, number of others: 43
neighbors of 31: 25 26 30 32 36 37, number of others: 41
neighbors of 32: 26 27 31 33 37 38, number of others: 41
neighbors of 33: 27 28 32 34 38 39, number of others: 41
neighbors of 34: 28 29 33 35 39 40, number of others: 41
neighbors of 35: 29 34 40 41, number of others: 43
neighbors of 36: 30 31 37 42, number of others: 43
neighbors of 37: 31 32 36 38 42 43, number of others: 41
neighbors of 38: 32 33 37 39 43 44, number of others: 41
neighbors of 39: 33 34 38 40 44 45, number of others: 41
neighbors of 40: 34 35 39 41 45 46, number of others: 41
neighbors of 41: 35 40 46 47, number of others: 43
neighbors of 42: 36 37 43, number of others: 44
neighbors of 43: 37 38 42 44, number of others: 43
neighbors of 44: 38 39 43 45, number of others: 43
neighbors of 45: 39 40 44 46, number of others: 43
neighbors of 46: 40 41 45 47, number of others: 43
neighbors of 47: 41 46, number of others: 45
Run model...
Preprocess model 0% ...Preprocess model 16% ...Preprocess model 32% ...Preprocess model 48% ...Preprocess model 66% ...Preprocess model 84% ...Preprocess model 100% ...
Close model 0% ...Close model 9% ...Close model 18% ...Close model 27% ...Close model 36% ...Close model 45% ...Close model 54% ...Close model 63% ...Close model 72% ...Close model 81% ...Close model 91% ...Close model 100% ...
Run param...
Run solver...
Initialize threads 0% ...Initialize threads 100% ...
Push initial solutions 0% ...Push initial solutions 100% ...

Model: 
  expressions = 30665, operands = 74976
  decisions = 13824, constraints = 336, objectives = 1

Param: 
  time limit = 90 sec, no iteration limit
  seed = 901, nb threads = 1, annealing level = 1

Objectives:
  Obj 0: maximize, no bound

Phases:
  Phase 0: time limit = 90 sec, no iteration limit, optimized objective = 0


Computed bounds:
  Obj 0: upper bound = 0.650128


Phase 0:
[0 sec, 0 itr]: infeas = (336, 336, 576), mov = 0, inf < 0.1%, acc < 0.1%, imp = 0

worst case efficiency: 0.965273
[1 sec, 5251 itr]: infeas = (2, 2, 8), mov = 5251, inf = 46.4%, acc = 36.9%, imp = 175

worst case efficiency: 0.602513
[2 sec, 23316 itr]: obj = (0.0430168), mov = 23316, inf = 77.7%, acc = 14.4%, imp = 193

worst case efficiency: 0.62581
[3 sec, 44157 itr]: obj = (0.0629755), mov = 44157, inf = 88.2%, acc = 7.7%, imp = 224

worst case efficiency: 0.637785
[4 sec, 57798 itr]: obj = (0.0816287), mov = 57798, inf = 90.9%, acc = 6%, imp = 270

worst case efficiency: 0.648977
[5 sec, 69636 itr]: obj = (0.0832467), mov = 69636, inf = 92.4%, acc = 5%, imp = 297

worst case efficiency: 0.649948
[6 sec, 80429 itr]: obj = (0.0861546), mov = 80429, inf = 93.4%, acc = 4.4%, imp = 324

worst case efficiency: 0.651693
[7 sec, 89677 itr]: obj = (0.0861546), mov = 89677, inf = 94.1%, acc = 3.9%, imp = 336

worst case efficiency: 0.651693
[8 sec, 98892 itr]: obj = (0.0861546), mov = 98892, inf = 94.6%, acc = 3.6%, imp = 346

worst case efficiency: 0.651693
[9 sec, 108099 itr]: obj = (0.0861546), mov = 108099, inf = 95.1%, acc = 3.3%, imp = 354

worst case efficiency: 0.651693
[10 sec, 117482 itr]: obj = (0.0861546), mov = 117482, inf = 95.4%, acc = 3.1%, imp = 387

worst case efficiency: 0.651693
[11 sec, 125960 itr]: obj = (0.0872056), mov = 125960, inf = 95.7%, acc = 2.9%, imp = 413

worst case efficiency: 0.652323
[12 sec, 134387 itr]: obj = (0.0887584), mov = 134387, inf = 96%, acc = 2.7%, imp = 431

worst case efficiency: 0.653255
[13 sec, 142275 itr]: obj = (0.0903863), mov = 142275, inf = 96.2%, acc = 2.6%, imp = 446

worst case efficiency: 0.654232
[14 sec, 150127 itr]: obj = (0.0912378), mov = 150127, inf = 96.4%, acc = 2.5%, imp = 465

worst case efficiency: 0.654743
[15 sec, 156479 itr]: obj = (0.0930034), mov = 156479, inf = 96.5%, acc = 2.4%, imp = 481

worst case efficiency: 0.655802
[16 sec, 163964 itr]: obj = (0.0934269), mov = 163964, inf = 96.7%, acc = 2.3%, imp = 492

worst case efficiency: 0.656056
[17 sec, 171356 itr]: obj = (0.0934269), mov = 171356, inf = 96.8%, acc = 2.2%, imp = 492

worst case efficiency: 0.656056
[18 sec, 178633 itr]: obj = (0.0934269), mov = 178633, inf = 97%, acc = 2.1%, imp = 492

worst case efficiency: 0.656056
[19 sec, 186018 itr]: obj = (0.0934269), mov = 186018, inf = 97.1%, acc = 2%, imp = 492

worst case efficiency: 0.656056
[20 sec, 193535 itr]: obj = (0.0948807), mov = 193535, inf = 97.2%, acc = 1.9%, imp = 505

worst case efficiency: 0.656928
[21 sec, 200547 itr]: obj = (0.096269), mov = 200547, inf = 97.3%, acc = 1.9%, imp = 522

worst case efficiency: 0.657761
[22 sec, 207585 itr]: obj = (0.0996902), mov = 207585, inf = 97.4%, acc = 1.8%, imp = 537

worst case efficiency: 0.659814
[23 sec, 214648 itr]: obj = (0.103066), mov = 214648, inf = 97.4%, acc = 1.8%, imp = 549

worst case efficiency: 0.66184
[24 sec, 223247 itr]: obj = (0.104572), mov = 223247, inf = 97.5%, acc = 1.7%, imp = 558

worst case efficiency: 0.662743
[25 sec, 233291 itr]: obj = (0.109665), mov = 233291, inf = 97.6%, acc = 1.7%, imp = 577

worst case efficiency: 0.665799
[26 sec, 247334 itr]: obj = (0.112035), mov = 247334, inf = 97.8%, acc = 1.6%, imp = 590

worst case efficiency: 0.667221
[27 sec, 286625 itr]: obj = (0.112243), mov = 286625, inf = 98.1%, acc = 1.4%, imp = 596

worst case efficiency: 0.667346
[28 sec, 322208 itr]: obj = (0.112346), mov = 322208, inf = 98.3%, acc = 1.2%, imp = 599

worst case efficiency: 0.667408
[29 sec, 353257 itr]: obj = (0.112507), mov = 353257, inf = 98.5%, acc = 1.1%, imp = 600

worst case efficiency: 0.667504
[30 sec, 384830 itr]: obj = (0.112977), mov = 384830, inf = 98.6%, acc = 1%, imp = 602

worst case efficiency: 0.667786
[31 sec, 414954 itr]: obj = (0.113015), mov = 414954, inf = 98.7%, acc = 1%, imp = 604

worst case efficiency: 0.667809
[32 sec, 444158 itr]: obj = (0.11305), mov = 444158, inf = 98.8%, acc = 0.9%, imp = 606

worst case efficiency: 0.66783
[33 sec, 470518 itr]: obj = (0.113094), mov = 470518, inf = 98.8%, acc = 0.9%, imp = 607

worst case efficiency: 0.667857
[34 sec, 487511 itr]: obj = (0.11316), mov = 487511, inf = 98.9%, acc = 0.8%, imp = 610

worst case efficiency: 0.667896
[35 sec, 510410 itr]: obj = (0.11316), mov = 510410, inf = 98.9%, acc = 0.8%, imp = 610

worst case efficiency: 0.667896
[36 sec, 539463 itr]: obj = (0.113183), mov = 539463, inf = 99%, acc = 0.8%, imp = 611

worst case efficiency: 0.66791
[37 sec, 568989 itr]: obj = (0.113548), mov = 568989, inf = 99%, acc = 0.7%, imp = 613

worst case efficiency: 0.668129
[38 sec, 599363 itr]: obj = (0.113624), mov = 599363, inf = 99.1%, acc = 0.7%, imp = 615

worst case efficiency: 0.668174
[39 sec, 624751 itr]: obj = (0.113624), mov = 624751, inf = 99.1%, acc = 0.7%, imp = 615

worst case efficiency: 0.668174
[40 sec, 642919 itr]: obj = (0.11395), mov = 642919, inf = 99.2%, acc = 0.7%, imp = 616

worst case efficiency: 0.66837
[41 sec, 658941 itr]: obj = (0.114338), mov = 658941, inf = 99.2%, acc = 0.6%, imp = 617

worst case efficiency: 0.668603
[42 sec, 679606 itr]: obj = (0.114419), mov = 679606, inf = 99.2%, acc = 0.6%, imp = 618

worst case efficiency: 0.668652
[43 sec, 710613 itr]: obj = (0.11444), mov = 710613, inf = 99.2%, acc = 0.6%, imp = 620

worst case efficiency: 0.668664
[44 sec, 743161 itr]: obj = (0.114459), mov = 743161, inf = 99.3%, acc = 0.6%, imp = 622

worst case efficiency: 0.668675
[45 sec, 776495 itr]: obj = (0.114589), mov = 776495, inf = 99.3%, acc = 0.6%, imp = 626

worst case efficiency: 0.668754
[46 sec, 812984 itr]: obj = (0.114679), mov = 812984, inf = 99.3%, acc = 0.5%, imp = 628

worst case efficiency: 0.668808
[47 sec, 848969 itr]: obj = (0.114699), mov = 848969, inf = 99.4%, acc = 0.5%, imp = 629

worst case efficiency: 0.66882
[48 sec, 882667 itr]: obj = (0.114934), mov = 882667, inf = 99.4%, acc = 0.5%, imp = 632

worst case efficiency: 0.66896
[49 sec, 917329 itr]: obj = (0.115151), mov = 917329, inf = 99.4%, acc = 0.5%, imp = 636

worst case efficiency: 0.66909
[50 sec, 951990 itr]: obj = (0.115215), mov = 951990, inf = 99.4%, acc = 0.5%, imp = 639

worst case efficiency: 0.669129
[51 sec, 986905 itr]: obj = (0.11528), mov = 986905, inf = 99.5%, acc = 0.4%, imp = 640

worst case efficiency: 0.669168
[52 sec, 1021470 itr]: obj = (0.115452), mov = 1021470, inf = 99.5%, acc = 0.4%, imp = 641

worst case efficiency: 0.669271
[53 sec, 1055933 itr]: obj = (0.115567), mov = 1055933, inf = 99.5%, acc = 0.4%, imp = 646

worst case efficiency: 0.66934
[54 sec, 1087398 itr]: obj = (0.115936), mov = 1087398, inf = 99.5%, acc = 0.4%, imp = 648

worst case efficiency: 0.669561
[55 sec, 1115776 itr]: obj = (0.116863), mov = 1115776, inf = 99.5%, acc = 0.4%, imp = 652

worst case efficiency: 0.670118
[56 sec, 1149029 itr]: obj = (0.116863), mov = 1149029, inf = 99.5%, acc = 0.4%, imp = 652

worst case efficiency: 0.670118
[57 sec, 1184611 itr]: obj = (0.116878), mov = 1184611, inf = 99.6%, acc = 0.4%, imp = 653

worst case efficiency: 0.670127
[58 sec, 1220001 itr]: obj = (0.118126), mov = 1220001, inf = 99.6%, acc = 0.4%, imp = 662

worst case efficiency: 0.670876
[59 sec, 1254306 itr]: obj = (0.120265), mov = 1254306, inf = 99.6%, acc = 0.4%, imp = 668

worst case efficiency: 0.672159
[60 sec, 1289340 itr]: obj = (0.121913), mov = 1289340, inf = 99.6%, acc = 0.4%, imp = 671

worst case efficiency: 0.673148
[61 sec, 1323128 itr]: obj = (0.121991), mov = 1323128, inf = 99.6%, acc = 0.3%, imp = 673

worst case efficiency: 0.673195
[62 sec, 1356143 itr]: obj = (0.122127), mov = 1356143, inf = 99.6%, acc = 0.3%, imp = 675

worst case efficiency: 0.673276
[63 sec, 1391427 itr]: obj = (0.122127), mov = 1391427, inf = 99.6%, acc = 0.3%, imp = 675

worst case efficiency: 0.673276
[64 sec, 1425764 itr]: obj = (0.122127), mov = 1425764, inf = 99.6%, acc = 0.3%, imp = 675

worst case efficiency: 0.673276
[65 sec, 1461066 itr]: obj = (0.122127), mov = 1461066, inf = 99.6%, acc = 0.3%, imp = 675

worst case efficiency: 0.673276
[66 sec, 1495205 itr]: obj = (0.122127), mov = 1495205, inf = 99.7%, acc = 0.3%, imp = 675

worst case efficiency: 0.673276
[67 sec, 1531189 itr]: obj = (0.122127), mov = 1531189, inf = 99.7%, acc = 0.3%, imp = 675

worst case efficiency: 0.673276
[68 sec, 1568510 itr]: obj = (0.122127), mov = 1568510, inf = 99.7%, acc = 0.3%, imp = 675

worst case efficiency: 0.673276
[69 sec, 1605420 itr]: obj = (0.122127), mov = 1605420, inf = 99.7%, acc = 0.3%, imp = 675

worst case efficiency: 0.673276
[70 sec, 1641196 itr]: obj = (0.122127), mov = 1641196, inf = 99.7%, acc = 0.3%, imp = 675

worst case efficiency: 0.673276
[71 sec, 1675975 itr]: obj = (0.122127), mov = 1675975, inf = 99.7%, acc = 0.3%, imp = 675

worst case efficiency: 0.673276
[72 sec, 1709129 itr]: obj = (0.122127), mov = 1709129, inf = 99.7%, acc = 0.3%, imp = 675

worst case efficiency: 0.673276
[73 sec, 1742968 itr]: obj = (0.122127), mov = 1742968, inf = 99.7%, acc = 0.3%, imp = 675

worst case efficiency: 0.673276
[74 sec, 1778456 itr]: obj = (0.122127), mov = 1778456, inf = 99.7%, acc = 0.3%, imp = 675

worst case efficiency: 0.673276
[75 sec, 1812635 itr]: obj = (0.122127), mov = 1812635, inf = 99.7%, acc = 0.3%, imp = 675

worst case efficiency: 0.673276
[76 sec, 1847237 itr]: obj = (0.122127), mov = 1847237, inf = 99.7%, acc = 0.3%, imp = 675

worst case efficiency: 0.673276
[77 sec, 1883630 itr]: obj = (0.122127), mov = 1883630, inf = 99.7%, acc = 0.3%, imp = 675

worst case efficiency: 0.673276
[78 sec, 1920447 itr]: obj = (0.122127), mov = 1920447, inf = 99.7%, acc = 0.3%, imp = 675

worst case efficiency: 0.673276
[79 sec, 1955519 itr]: obj = (0.122127), mov = 1955519, inf = 99.7%, acc = 0.3%, imp = 675

worst case efficiency: 0.673276
[80 sec, 1989844 itr]: obj = (0.122127), mov = 1989844, inf = 99.8%, acc = 0.3%, imp = 675

worst case efficiency: 0.673276
[81 sec, 2025732 itr]: obj = (0.122127), mov = 2025732, inf = 99.8%, acc = 0.2%, imp = 675

worst case efficiency: 0.673276
[82 sec, 2061565 itr]: obj = (0.122127), mov = 2061565, inf = 99.8%, acc = 0.2%, imp = 675

worst case efficiency: 0.673276
[83 sec, 2098363 itr]: obj = (0.122127), mov = 2098363, inf = 99.8%, acc = 0.2%, imp = 675

worst case efficiency: 0.673276
[84 sec, 2133155 itr]: obj = (0.122127), mov = 2133155, inf = 99.8%, acc = 0.2%, imp = 675

worst case efficiency: 0.673276
[85 sec, 2161889 itr]: obj = (0.122127), mov = 2161889, inf = 99.8%, acc = 0.2%, imp = 675

worst case efficiency: 0.673276
[86 sec, 2197157 itr]: obj = (0.122127), mov = 2197157, inf = 99.8%, acc = 0.2%, imp = 675

worst case efficiency: 0.673276
[87 sec, 2232663 itr]: obj = (0.122127), mov = 2232663, inf = 99.8%, acc = 0.2%, imp = 675

worst case efficiency: 0.673276
[88 sec, 2266198 itr]: obj = (0.122127), mov = 2266198, inf = 99.8%, acc = 0.2%, imp = 675

worst case efficiency: 0.673276
[89 sec, 2301224 itr]: obj = (0.122127), mov = 2301224, inf = 99.8%, acc = 0.2%, imp = 675

worst case efficiency: 0.673276
[90 sec, 2335571 itr]: obj = (0.122127), mov = 2335571, inf = 99.8%, acc = 0.2%, imp = 675

worst case efficiency: 0.673276
[90 sec, 2335571 itr]: obj = (0.122127), mov = 2335571, inf = 99.8%, acc = 0.2%, imp = 675

worst case efficiency: 0.673276
2335571 iterations, 2335571 moves performed in 90 seconds
Feasible solution: obj = (0.122127)

Run output...
FINAL SOLUTION
Worst case efficiency: 0.673276
Mapping: 0->45, 1->25, 2->19, 3->7, 4->34, 5->28, 6->3, 7->12, 8->2, 9->33, 10->41, 11->17, 12->4, 13->25, 14->35, 15->14, 16->36, 17->38, 18->18, 19->36, 20->8, 21->19, 22->8, 23->47, 24->46, 25->19, 26->16, 27->47, 28->43, 29->6, 30->37, 31->9, 32->24, 33->1, 34->23, 35->25, 36->20, 37->40, 38->26, 39->44, 40->27, 41->21, 42->15, 43->42, 44->22, 45->21, 46->9, 47->16, 48->34, 49->32, 50->36, 51->4, 52->23, 53->3, 54->34, 55->0, 56->2, 57->21, 58->1, 59->2, 60->18, 61->24, 62->11, 63->24, 64->29, 65->27, 66->11, 67->22, 68->13, 69->40, 70->39, 71->31, 72->19, 73->46, 74->33, 75->30, 76->24, 77->5, 78->10, 79->31, 80->2, 81->1, 82->14, 83->7, 84->36, 85->1, 86->44, 87->27, 88->13, 89->35, 90->41, 91->5, 92->16, 93->18, 94->6, 95->37, 96->20, 97->17, 98->28, 99->12, 100->30, 101->26, 102->45, 103->4, 104->13, 105->15, 106->4, 107->14, 108->45, 109->15, 110->2, 111->13, 112->44, 113->38, 114->22, 115->28, 116->41, 117->32, 118->11, 119->15, 120->23, 121->1, 122->6, 123->27, 124->20, 125->23, 126->44, 127->34, 128->38, 129->38, 130->25, 131->5, 132->42, 133->43, 134->14, 135->29, 136->10, 137->30, 138->29, 139->17, 140->10, 141->14, 142->24, 143->41, 144->5, 145->0, 146->32, 147->43, 148->4, 149->19, 150->8, 151->26, 152->45, 153->42, 154->3, 155->44, 156->46, 157->30, 158->22, 159->26, 160->36, 161->17, 162->18, 163->9, 164->3, 165->11, 166->29, 167->10, 168->27, 169->45, 170->5, 171->39, 172->40, 173->28, 174->15, 175->0, 176->4, 177->39, 178->29, 179->34, 180->17, 181->12, 182->32, 183->23, 184->47, 185->6, 186->40, 187->31, 188->31, 189->47, 190->12, 191->14, 192->42, 193->23, 194->46, 195->39, 196->9, 197->18, 198->20, 199->35, 200->37, 201->40, 202->31, 203->0, 204->20, 205->32, 206->36, 207->12, 208->2, 209->44, 210->12, 211->20, 212->8, 213->16, 214->13, 215->6, 216->40, 217->33, 218->10, 219->22, 220->43, 221->21, 222->33, 223->38, 224->3, 225->1, 226->26, 227->28, 228->35, 229->17, 230->29, 231->16, 232->24, 233->8, 234->41, 235->47, 236->27, 237->39, 238->25, 239->22, 240->0, 241->28, 242->46, 243->15, 244->31, 245->21, 246->30, 247->43, 248->7, 249->33, 250->43, 251->16, 252->19, 253->37, 254->10, 255->9, 256->8, 257->7, 258->42, 259->3, 260->35, 261->11, 262->41, 263->11, 264->42, 265->46, 266->7, 267->13, 268->38, 269->21, 270->37, 271->33, 272->6, 273->34, 274->37, 275->30, 276->5, 277->7, 278->18, 279->25, 280->32, 281->47, 282->0, 283->35, 284->45, 285->39, 286->26, 287->9
Number of tasks per core:
	6	6	6	6	6	6
	6	6	6	6	6	6
	6	6	6	6	6	6
	6	6	6	6	6	6
	6	6	6	6	6	6
	6	6	6	6	6	6
	6	6	6	6	6	6
	6	6	6	6	6	6
Average CPI map:
	0.886	2.27718	2.7977	1.02144	1.25178	1.41902
	1.20644	4.17911	2.69238	3.9548	2.10663	3.46064
	2.0389	4.86758	4.01408	6.61973	3.29368	1.98156
	1.52282	4.04596	3.04144	6.37291	4.74786	1.36372
	1.28972	2.68992	3.8809	3.99647	3.22947	1.28848
	1.99157	4.68255	6.52824	7.56869	2.63419	1.897
	1.99466	2.79223	4.00392	2.63928	3.30965	1.19033
	3.54928	1.98485	3.13366	3.48094	1.99452	1.08613
Efficiency map:
	0.996731	0.941888	0.967688	0.882192	0.930201	0.995929
	0.800215	0.751307	0.69577	0.723859	0.673349	0.897901
	0.835076	0.690064	0.696888	0.676064	0.674648	0.829967
	0.812426	0.692098	0.673276	0.807787	0.797321	0.806853
	0.796612	0.677671	0.675383	0.673469	0.675411	0.750452
	0.816719	0.703466	0.710474	0.837834	0.673276	0.822213
	0.871815	0.675131	0.708236	0.688361	0.69629	0.769574
	0.894665	0.68461	0.739869	0.76277	0.681437	0.801324
==============================================================================
Local Solver optimizer for EML demonstration
==============================================================================

Option values: --wld-idx 5 --global-tlim 90 --seed 901

Starting the Optimization Process
