LocalSolver 4.0 (MacOS64, build 20131224)
Copyright (C) 2013 Bouygues SA, Aix-Marseille University, CNRS.
All rights reserved (see Terms and Conditions for details).

Load localsolver_res/tawd_ls.lsp...
Run input...
ANNs For the Platform:
3,2,1,0.413586,-0.0266769,-0.0683771,-5.1002,70.5254,-0.257939,-72.3361,-14.3957,-55.9961,0.000416225,-55.1984
3,2,1,7.29748,1.94844,3.18138,9.63196,-4.67735,-4.13678,1.22405,-8.03403,0.0803394,-0.125838,0.598848
3,2,1,6.43996,0.383984,0.598454,7.79024,-4.25175,0.123161,-0.278344,-5.71253,1.47885,1.00258,0.327892
3,2,1,3.45395,0.140329,0.51254,4.25255,4.08469,0.00326531,0.722664,3.88666,1.2829,-0.290289,-0.187123
3,2,1,1.76581,-0.7465,16.0398,1.01103,2.42771,0.96084,1.00318,4.14242,-0.00284347,0.244904,0.56299
3,2,1,1.87058,0.359859,-0.0851999,0.818043,3.18969,0.847611,-7.29654,-2.24823,0.00245596,0.000486788,0.794563
3,2,1,3.28113,0.579268,0.142679,3.72653,-0.240895,-0.149383,25.0414,7.13641,0.488705,-0.00083541,0.320468
3,2,1,-4.78997,-2.53518,1.7971,11.1628,-3.08773,-0.470276,-0.0894822,-2.63871,1.46314,-0.463195,-1.12076
3,2,1,-0.392198,-0.00544948,0.0100489,-0.634573,-1.21109,-0.0856362,-0.013156,-1.60668,1.54201,-2.33195,-0.462253
3,2,1,3.15031,0.401017,0.160161,2.51156,5.71314,0.59291,-11.6364,2.59774,0.430465,0.00737346,0.36306
3,2,1,2.64111,0.312028,0.0803827,2.35273,-4.25958,3.48188,-1.59773,-1.57632,0.565527,0.0271972,0.266241
3,2,1,2.2658,0.0425076,0.0191991,-0.583848,2.82415,0.533705,0.0754136,3.33659,-0.0169351,0.54785,0.257008
3,2,1,6.01014,0.654767,0.24854,5.54419,5.68574,0.00137666,0.00103835,-1.46229,0.258518,0.00962319,0.54621
3,2,1,-0.828282,0.684875,0.223674,-1.44779,5.0064,0.272371,0.00344824,2.89438,0.397142,0.379767,0.797684
3,2,1,-0.166745,-1.25514,-0.967701,-3.82155,3.34568,0.34907,0.176897,2.37943,0.567319,0.42026,0.93611
3,2,1,-10.035,3.55243,8.66202,-21.5626,10.92,0.228744,0.12852,5.40188,0.871264,0.345634,1.3209
3,2,1,4.50278,0.709934,0.227356,3.41616,1.455,0.115548,0.0125181,-1.15221,0.345467,0.222127,0.602264
3,2,1,3.51765,0.552987,0.202187,3.41883,0.53704,0.0709757,-0.0346297,-0.38017,0.320095,-0.0397752,0.474568
3,2,1,3.62936,0.506661,0.201819,3.49179,3.4019,-3.09955,1.3332,0.961184,0.32649,-0.0126443,0.488413
3,2,1,3.50925,0.448618,0.127508,2.4823,1.78455,1.6893,1.46456,-0.207671,0.400287,0.00684206,0.402337
3,2,1,-0.52883,0.00691432,0.00617163,-0.194006,1.73284,0.0488672,0.0179273,1.25978,0.716787,0.92667,0.162242
3,2,1,2.48239,0.190378,0.120167,1.91689,1.21532,1.48543,0.644574,2.68198,0.547395,-0.0744913,0.328097
3,2,1,2.55861,2.02297,0.650126,2.19109,2.44652,0.0836318,0.0133745,2.4369,0.0418722,0.798841,-0.0334834
3,2,1,5.07371,0.556895,0.217981,4.66725,-0.00829845,-0.00544544,0.00934569,-0.672651,0.280461,-0.520981,0.217266
3,2,1,1.56588,0.201966,0.0665967,1.82578,1.97654,0.236717,0.0903453,1.08195,1.02748,-0.229836,0.011785
3,2,1,2.41728,0.208205,-0.0012583,2.05484,1.41976,-1.30194,1.45365,1.79277,0.56727,0.031184,0.207229
3,2,1,3.71833,0.202336,0.172606,2.43155,5.03284,0.375118,-0.790998,-3.83455,0.400925,0.372075,0.754779
3,2,1,-1.25583,1.47411,0.819895,-2.78448,4.36107,0.113478,0.107247,2.55416,0.385214,0.384141,0.797017
3,2,1,1.71562,-0.478906,-0.61026,-1.17859,3.1361,0.360865,0.0914124,2.2536,-0.0127033,0.431384,0.365879
3,2,1,-1.75501,-0.0880109,-0.026461,-2.68365,2.88327,0.072433,0.0245574,1.95701,-5.87306,-0.563325,-4.48698
3,2,1,1.87886,0.47325,-0.0511434,1.79719,1.94184,0.328234,0.0220624,2.54301,-0.401251,1.77114,-0.565042
3,2,1,-1.60981,1.67946,0.217969,-1.01084,4.35765,0.130722,0.127348,2.65259,0.0709006,0.384957,0.481341
3,2,1,6.90393,1.27603,0.349979,4.84299,12.4465,-4.65212,-2.15462,0.408255,0.295914,0.0666312,0.4354
3,2,1,3.04491,0.18183,0.111428,2.10543,3.32281,-0.49945,-3.78487,-7.88748,0.444834,-4.36795,-4.01116
3,2,1,2.91407,0.251062,0.0435786,2.27032,0.308764,1.59867,0.766589,0.134898,0.475285,0.00569166,0.326702
3,2,1,1.44846,0.205113,0.0448314,1.45909,1.93039,0.286882,0.0586866,1.17886,1.39166,-0.600981,0.0448012
3,2,1,-0.702729,1.84783,-0.00894741,-12.1377,-140.908,-69.0514,-27.175,-146.219,-4.51728,-0.14351,-3.88527
3,2,1,4.2004,0.255152,0.0750175,2.63627,-1.17866,1.67307,0.209535,-1.03514,0.371915,0.0747402,0.498851
3,2,1,3.28015,0.190841,0.175032,2.31848,-0.821253,-1.83022,1.5009,-1.6155,0.417221,-0.0239081,0.360136
3,2,1,2.0525,0.0719707,0.0148549,2.1486,2.00198,1.73479,2.09334,1.44082,0.954066,0.00952719,-0.152697
3,2,1,3.31406,0.407717,0.0380361,2.47187,-0.266021,-1.73458,0.970613,-1.79463,0.415264,-0.0144649,0.374956
3,2,1,6.25099,-3.17047,1.46865,-0.279767,-2.91952,-0.395169,-0.0444215,-3.76202,-0.00491872,-1.23429,-0.425145
3,2,1,1.59636,0.096013,0.0630313,0.826005,1.46151,0.077228,0.0482484,1.68899,-0.289647,1.15304,-0.0688712
3,2,1,33.0172,0.520442,0.135338,28.5555,-3.97298,-0.0574545,-0.0193135,3.34452,0.297691,-5.9863,6.38072
3,2,1,2.32742,0.056139,0.0279748,2.30198,0.254535,0.117712,2.12797,1.7883,0.827797,-0.00209653,-0.0205758
3,2,1,-1.76524,-0.0296866,-0.00748622,-2.47523,4.4267,-0.377196,-4.83785,1.3517,-2.37434,-0.00716866,-1.55224
3,2,1,1.2047,-1.47491,1.03821,1.50617,3.23679,0.3845,-0.018138,2.47251,0.0419137,0.407618,0.357451
3,2,1,3.93828,-0.00820725,-0.00812648,-1.1651,2.06372,0.114124,0.0339398,2.70327,-0.0635318,1.17159,-0.373077
Workload Information:
1.94365, 1.72274, 3.0003, 2.67473, 0.708817, 1.94976, 2.19814, 1.98059, 1.65253, 2.4329, 1.55026, 2.18558, 1.48288, 2.34618, 2.63831, 0.569931, 2.33748, 2.62522, 0.804851, 1.52861, 1.80011, 2.60212, 2.33104, 2.93327, 1.94532, 4.65093, 0.878058, 0.5, 1.06048, 2.96521, 2.23336, 2.27321, 1.83764, 2.40798, 2.09804, 1.14978, 2.18893, 1.90383, 1.76951, 2.21741, 1.98643, 1.93389, 1.55668, 2.88121, 2.46075, 0.911159, 3.03305, 1.15715, 0.591041, 1.89129, 1.07596, 6.14979, 0.665151, 1.62677, 0.767756, 4.62481, 4.39743, 1.19803, 0.511976, 0.5, 1.96853, 2.16397, 1.90805, 2.06591, 1.81344, 2.0801, 3.14364, 2.68947, 3.07273, 0.992259, 1.12898, 0.972916, 1.28574, 3.11346, 2.32277, 3.49911, 0.5, 1.27892, 2.49159, 1.16019, 1.80184, 1.58221, 2.66877, 2.29539, 3.32212, 0.892106, 1.63738, 3.35417, 0.746758, 2.04747, 3.13617, 0.50463, 0.5, 2.24314, 3.80159, 1.81447, 3.23507, 1.39096, 1.87515, 0.5, 4.3616, 0.637222, 1.13916, 0.822893, 4.33047, 0.600166, 4.60731, 0.5, 1.53706, 1.61894, 2.89586, 3.09672, 1.62184, 1.22957, 2.25583, 2.5967, 1.38999, 1.90329, 1.28025, 2.57393, 5.29231, 1.79515, 1.08895, 2.52152, 0.5, 0.802071, 1.39208, 4.15828, 1.19659, 3.60276, 0.832847, 0.817443, 1.42375, 3.38068, 3.5672, 1.98301, 0.5, 1.14536, 2.08175, 1.67462, 1.4119, 2.48904, 2.36101, 1.98167, 0.831055, 2.3706, 2.51188, 1.69479, 2.39317, 2.1985, 2.14689, 1.49416, 2.03144, 2.24304, 1.86527, 2.21921, 0.5, 3.26911, 3.04269, 1.6405, 0.513251, 3.03445, 2.40604, 1.29186, 1.22159, 4.02385, 2.55665, 0.5, 0.5, 1.05656, 1.97776, 3.13619, 0.881539, 4.44794, 3.45001, 1.15696, 1.77274, 2.26232, 0.5, 2.85797, 2.69944, 2.17428, 2.35897, 0.949505, 1.29318, 2.52463, 2.31628, 1.77659, 2.19046, 1.3835, 2.0286, 2.30457, 2.11015, 1.89318, 1.85647, 1.92611, 2.07169, 2.1424, 13.0536, 21.2619, 23.5566, 26.8842, 25.3488, 21.8948, 1.7748, 0.834071, 3.4189, 0.867087, 3.53284, 1.57231, 3.08433, 0.5, 0.925509, 1.9174, 3.21161, 2.36115, 3.31126, 0.804972, 5.2321, 0.809171, 1.18812, 0.654377, 3.01691, 2.54381, 1.23675, 1.63031, 2.58394, 0.988287, 0.619142, 2.15659, 3.61914, 1.34939, 3.50477, 0.750974, 1.35392, 1.40387, 2.36883, 1.9597, 2.43715, 2.47654, 1.52286, 2.39294, 2.11697, 2.54111, 2.11235, 1.31377, 2.14366, 1.8421, 2.27972, 2.50482, 1.00258, 2.22712, 4.00905, 0.693261, 2.39196, 3.76351, 0.5, 0.642218, 2.10021, 2.42915, 1.13832, 3.29873, 0.550335, 2.48325, 1.22267, 2.23415, 4.01466, 1.01903, 3.00948, 0.5, 3.52561, 1.02266, 1.11455, 2.19579, 2.65783, 1.48356, 1.83991, 1.85062, 2.77056, 0.5, 2.90158, 2.13732, 1.16738, 1.15033, 2.96474, 3.88986, 1.97515, 0.852553
cpi min/max: 0.5/26.8842
neighbors of 0: 1 6, number of others: 45
neighbors of 1: 0 2 6 7, number of others: 43
neighbors of 2: 1 3 7 8, number of others: 43
neighbors of 3: 2 4 8 9, number of others: 43
neighbors of 4: 3 5 9 10, number of others: 43
neighbors of 5: 4 10 11, number of others: 44
neighbors of 6: 0 1 7 12, number of others: 43
neighbors of 7: 1 2 6 8 12 13, number of others: 41
neighbors of 8: 2 3 7 9 13 14, number of others: 41
neighbors of 9: 3 4 8 10 14 15, number of others: 41
neighbors of 10: 4 5 9 11 15 16, number of others: 41
neighbors of 11: 5 10 16 17, number of others: 43
neighbors of 12: 6 7 13 18, number of others: 43
neighbors of 13: 7 8 12 14 18 19, number of others: 41
neighbors of 14: 8 9 13 15 19 20, number of others: 41
neighbors of 15: 9 10 14 16 20 21, number of others: 41
neighbors of 16: 10 11 15 17 21 22, number of others: 41
neighbors of 17: 11 16 22 23, number of others: 43
neighbors of 18: 12 13 19 24, number of others: 43
neighbors of 19: 13 14 18 20 24 25, number of others: 41
neighbors of 20: 14 15 19 21 25 26, number of others: 41
neighbors of 21: 15 16 20 22 26 27, number of others: 41
neighbors of 22: 16 17 21 23 27 28, number of others: 41
neighbors of 23: 17 22 28 29, number of others: 43
neighbors of 24: 18 19 25 30, number of others: 43
neighbors of 25: 19 20 24 26 30 31, number of others: 41
neighbors of 26: 20 21 25 27 31 32, number of others: 41
neighbors of 27: 21 22 26 28 32 33, number of others: 41
neighbors of 28: 22 23 27 29 33 34, number of others: 41
neighbors of 29: 23 28 34 35, number of others: 43
neighbors of 30: 24 25 31 36, number of others: 43
neighbors of 31: 25 26 30 32 36 37, number of others: 41
neighbors of 32: 26 27 31 33 37 38, number of others: 41
neighbors of 33: 27 28 32 34 38 39, number of others: 41
neighbors of 34: 28 29 33 35 39 40, number of others: 41
neighbors of 35: 29 34 40 41, number of others: 43
neighbors of 36: 30 31 37 42, number of others: 43
neighbors of 37: 31 32 36 38 42 43, number of others: 41
neighbors of 38: 32 33 37 39 43 44, number of others: 41
neighbors of 39: 33 34 38 40 44 45, number of others: 41
neighbors of 40: 34 35 39 41 45 46, number of others: 41
neighbors of 41: 35 40 46 47, number of others: 43
neighbors of 42: 36 37 43, number of others: 44
neighbors of 43: 37 38 42 44, number of others: 43
neighbors of 44: 38 39 43 45, number of others: 43
neighbors of 45: 39 40 44 46, number of others: 43
neighbors of 46: 40 41 45 47, number of others: 43
neighbors of 47: 41 46, number of others: 45
Run model...
Preprocess model 0% ...Preprocess model 16% ...Preprocess model 32% ...Preprocess model 48% ...Preprocess model 66% ...Preprocess model 84% ...Preprocess model 100% ...
Close model 0% ...Close model 9% ...Close model 18% ...Close model 27% ...Close model 36% ...Close model 45% ...Close model 54% ...Close model 63% ...Close model 72% ...Close model 81% ...Close model 91% ...Close model 100% ...
Run param...
Run solver...
Initialize threads 0% ...Initialize threads 100% ...
Push initial solutions 0% ...Push initial solutions 100% ...

Model: 
  expressions = 30670, operands = 74976
  decisions = 13824, constraints = 336, objectives = 1

Param: 
  time limit = 90 sec, no iteration limit
  seed = 401, nb threads = 1, annealing level = 1

Objectives:
  Obj 0: maximize, no bound

Phases:
  Phase 0: time limit = 90 sec, no iteration limit, optimized objective = 0


Computed bounds:
  Obj 0: upper bound = 0.650128


Phase 0:
[0 sec, 0 itr]: infeas = (336, 336, 576), mov = 0, inf < 0.1%, acc < 0.1%, imp = 0

worst case efficiency: 0.965273
[1 sec, 24272 itr]: obj = (0.0535939), mov = 24272, inf = 95.6%, acc = 3.7%, imp = 175

worst case efficiency: 0.632156
[2 sec, 47774 itr]: obj = (0.0641446), mov = 47774, inf = 97.6%, acc = 2%, imp = 219

worst case efficiency: 0.638487
[3 sec, 60546 itr]: obj = (0.0687242), mov = 60546, inf = 98%, acc = 1.7%, imp = 254

worst case efficiency: 0.641234
[4 sec, 70098 itr]: obj = (0.0697051), mov = 70098, inf = 98.2%, acc = 1.5%, imp = 277

worst case efficiency: 0.641823
[5 sec, 78538 itr]: obj = (0.0719677), mov = 78538, inf = 98.4%, acc = 1.4%, imp = 287

worst case efficiency: 0.643181
[6 sec, 86738 itr]: obj = (0.0747328), mov = 86738, inf = 98.5%, acc = 1.3%, imp = 315

worst case efficiency: 0.64484
[7 sec, 94367 itr]: obj = (0.07866), mov = 94367, inf = 98.6%, acc = 1.3%, imp = 345

worst case efficiency: 0.647196
[8 sec, 102043 itr]: obj = (0.0798845), mov = 102043, inf = 98.6%, acc = 1.2%, imp = 371

worst case efficiency: 0.647931
[9 sec, 109585 itr]: obj = (0.080908), mov = 109585, inf = 98.7%, acc = 1.1%, imp = 385

worst case efficiency: 0.648545
[10 sec, 116999 itr]: obj = (0.0825943), mov = 116999, inf = 98.8%, acc = 1.1%, imp = 413

worst case efficiency: 0.649557
[11 sec, 124476 itr]: obj = (0.0840424), mov = 124476, inf = 98.8%, acc = 1.1%, imp = 437

worst case efficiency: 0.650425
[12 sec, 130799 itr]: obj = (0.0847229), mov = 130799, inf = 98.9%, acc = 1%, imp = 454

worst case efficiency: 0.650834
[13 sec, 137107 itr]: obj = (0.0857565), mov = 137107, inf = 98.9%, acc = 1%, imp = 469

worst case efficiency: 0.651454
[14 sec, 144146 itr]: obj = (0.0867695), mov = 144146, inf = 98.9%, acc = 1%, imp = 478

worst case efficiency: 0.652062
[15 sec, 152099 itr]: obj = (0.0878107), mov = 152099, inf = 99%, acc = 0.9%, imp = 492

worst case efficiency: 0.652686
[16 sec, 160898 itr]: obj = (0.0892577), mov = 160898, inf = 99%, acc = 0.9%, imp = 509

worst case efficiency: 0.653555
[17 sec, 172708 itr]: obj = (0.0897226), mov = 172708, inf = 99.1%, acc = 0.9%, imp = 519

worst case efficiency: 0.653834
[18 sec, 192269 itr]: obj = (0.0900071), mov = 192269, inf = 99.2%, acc = 0.8%, imp = 524

worst case efficiency: 0.654004
[19 sec, 221336 itr]: obj = (0.0901347), mov = 221336, inf = 99.2%, acc = 0.7%, imp = 526

worst case efficiency: 0.654081
[20 sec, 254001 itr]: obj = (0.0901347), mov = 254001, inf = 99.2%, acc = 0.7%, imp = 526

worst case efficiency: 0.654081
[21 sec, 292039 itr]: obj = (0.0901347), mov = 292039, inf = 99.2%, acc = 0.7%, imp = 526

worst case efficiency: 0.654081
[22 sec, 329013 itr]: obj = (0.0903099), mov = 329013, inf = 99.2%, acc = 0.7%, imp = 529

worst case efficiency: 0.654186
[23 sec, 366397 itr]: obj = (0.0907664), mov = 366397, inf = 99.2%, acc = 0.7%, imp = 534

worst case efficiency: 0.65446
[24 sec, 404564 itr]: obj = (0.0917512), mov = 404564, inf = 99.3%, acc = 0.6%, imp = 554

worst case efficiency: 0.655051
[25 sec, 441993 itr]: obj = (0.0918927), mov = 441993, inf = 99.3%, acc = 0.6%, imp = 559

worst case efficiency: 0.655136
[26 sec, 480359 itr]: obj = (0.0919059), mov = 480359, inf = 99.3%, acc = 0.6%, imp = 560

worst case efficiency: 0.655144
[27 sec, 518584 itr]: obj = (0.0923721), mov = 518584, inf = 99.3%, acc = 0.6%, imp = 562

worst case efficiency: 0.655423
[28 sec, 557130 itr]: obj = (0.0925024), mov = 557130, inf = 99.3%, acc = 0.6%, imp = 563

worst case efficiency: 0.655501
[29 sec, 595185 itr]: obj = (0.0928561), mov = 595185, inf = 99.3%, acc = 0.6%, imp = 566

worst case efficiency: 0.655714
[30 sec, 633429 itr]: obj = (0.0932971), mov = 633429, inf = 99.3%, acc = 0.6%, imp = 569

worst case efficiency: 0.655978
[31 sec, 671462 itr]: obj = (0.0934765), mov = 671462, inf = 99.3%, acc = 0.6%, imp = 571

worst case efficiency: 0.656086
[32 sec, 709991 itr]: obj = (0.0939908), mov = 709991, inf = 99.3%, acc = 0.6%, imp = 583

worst case efficiency: 0.656394
[33 sec, 745987 itr]: obj = (0.0943109), mov = 745987, inf = 99.3%, acc = 0.6%, imp = 593

worst case efficiency: 0.656587
[34 sec, 780884 itr]: obj = (0.0943372), mov = 780884, inf = 99.3%, acc = 0.6%, imp = 595

worst case efficiency: 0.656602
[35 sec, 818017 itr]: obj = (0.0944063), mov = 818017, inf = 99.3%, acc = 0.6%, imp = 600

worst case efficiency: 0.656644
[36 sec, 856212 itr]: obj = (0.0945317), mov = 856212, inf = 99.3%, acc = 0.5%, imp = 604

worst case efficiency: 0.656719
[37 sec, 894667 itr]: obj = (0.0950924), mov = 894667, inf = 99.3%, acc = 0.5%, imp = 609

worst case efficiency: 0.657055
[38 sec, 933227 itr]: obj = (0.0951167), mov = 933227, inf = 99.3%, acc = 0.5%, imp = 610

worst case efficiency: 0.65707
[39 sec, 971221 itr]: obj = (0.095166), mov = 971221, inf = 99.3%, acc = 0.5%, imp = 611

worst case efficiency: 0.6571
[40 sec, 1009925 itr]: obj = (0.0953076), mov = 1009925, inf = 99.3%, acc = 0.5%, imp = 613

worst case efficiency: 0.657185
[41 sec, 1048810 itr]: obj = (0.0953363), mov = 1048810, inf = 99.4%, acc = 0.5%, imp = 616

worst case efficiency: 0.657202
[42 sec, 1087958 itr]: obj = (0.0953502), mov = 1087958, inf = 99.4%, acc = 0.5%, imp = 617

worst case efficiency: 0.65721
[43 sec, 1126511 itr]: obj = (0.0953502), mov = 1126511, inf = 99.4%, acc = 0.5%, imp = 618

worst case efficiency: 0.65721
[44 sec, 1164600 itr]: obj = (0.0954097), mov = 1164600, inf = 99.4%, acc = 0.5%, imp = 619

worst case efficiency: 0.657246
[45 sec, 1203618 itr]: obj = (0.0959728), mov = 1203618, inf = 99.4%, acc = 0.5%, imp = 630

worst case efficiency: 0.657584
[46 sec, 1242504 itr]: obj = (0.0961397), mov = 1242504, inf = 99.4%, acc = 0.5%, imp = 638

worst case efficiency: 0.657684
[47 sec, 1280898 itr]: obj = (0.0963078), mov = 1280898, inf = 99.4%, acc = 0.5%, imp = 644

worst case efficiency: 0.657785
[48 sec, 1319385 itr]: obj = (0.0963455), mov = 1319385, inf = 99.4%, acc = 0.5%, imp = 646

worst case efficiency: 0.657807
[49 sec, 1358505 itr]: obj = (0.0963455), mov = 1358505, inf = 99.4%, acc = 0.4%, imp = 646

worst case efficiency: 0.657807
[50 sec, 1397238 itr]: obj = (0.0964844), mov = 1397238, inf = 99.4%, acc = 0.4%, imp = 649

worst case efficiency: 0.657891
[51 sec, 1436240 itr]: obj = (0.0964909), mov = 1436240, inf = 99.4%, acc = 0.4%, imp = 650

worst case efficiency: 0.657895
[52 sec, 1475069 itr]: obj = (0.0965774), mov = 1475069, inf = 99.4%, acc = 0.4%, imp = 654

worst case efficiency: 0.657946
[53 sec, 1514082 itr]: obj = (0.096697), mov = 1514082, inf = 99.4%, acc = 0.4%, imp = 657

worst case efficiency: 0.658018
[54 sec, 1552829 itr]: obj = (0.0967527), mov = 1552829, inf = 99.4%, acc = 0.4%, imp = 660

worst case efficiency: 0.658052
[55 sec, 1590953 itr]: obj = (0.0967981), mov = 1590953, inf = 99.4%, acc = 0.4%, imp = 663

worst case efficiency: 0.658079
[56 sec, 1629738 itr]: obj = (0.0967981), mov = 1629738, inf = 99.4%, acc = 0.4%, imp = 663

worst case efficiency: 0.658079
[57 sec, 1668156 itr]: obj = (0.0976784), mov = 1668156, inf = 99.4%, acc = 0.4%, imp = 672

worst case efficiency: 0.658607
[58 sec, 1706493 itr]: obj = (0.0976784), mov = 1706493, inf = 99.4%, acc = 0.4%, imp = 672

worst case efficiency: 0.658607
[59 sec, 1744867 itr]: obj = (0.0976784), mov = 1744867, inf = 99.4%, acc = 0.4%, imp = 672

worst case efficiency: 0.658607
[60 sec, 1783278 itr]: obj = (0.0977131), mov = 1783278, inf = 99.4%, acc = 0.4%, imp = 674

worst case efficiency: 0.658628
[61 sec, 1822256 itr]: obj = (0.0977534), mov = 1822256, inf = 99.4%, acc = 0.4%, imp = 675

worst case efficiency: 0.658652
[62 sec, 1860535 itr]: obj = (0.0977545), mov = 1860535, inf = 99.4%, acc = 0.4%, imp = 676

worst case efficiency: 0.658653
[63 sec, 1898785 itr]: obj = (0.0977545), mov = 1898785, inf = 99.4%, acc = 0.4%, imp = 676

worst case efficiency: 0.658653
[64 sec, 1936863 itr]: obj = (0.0977545), mov = 1936863, inf = 99.4%, acc = 0.4%, imp = 676

worst case efficiency: 0.658653
[65 sec, 1975413 itr]: obj = (0.0977802), mov = 1975413, inf = 99.4%, acc = 0.4%, imp = 678

worst case efficiency: 0.658668
[66 sec, 2013768 itr]: obj = (0.097872), mov = 2013768, inf = 99.4%, acc = 0.4%, imp = 679

worst case efficiency: 0.658723
[67 sec, 2051874 itr]: obj = (0.097872), mov = 2051874, inf = 99.4%, acc = 0.4%, imp = 679

worst case efficiency: 0.658723
[68 sec, 2090511 itr]: obj = (0.0979886), mov = 2090511, inf = 99.4%, acc = 0.4%, imp = 682

worst case efficiency: 0.658793
[69 sec, 2129113 itr]: obj = (0.0980818), mov = 2129113, inf = 99.4%, acc = 0.4%, imp = 689

worst case efficiency: 0.658849
[70 sec, 2167348 itr]: obj = (0.0985242), mov = 2167348, inf = 99.4%, acc = 0.4%, imp = 692

worst case efficiency: 0.659115
[71 sec, 2206101 itr]: obj = (0.0985242), mov = 2206101, inf = 99.4%, acc = 0.4%, imp = 692

worst case efficiency: 0.659115
[72 sec, 2244271 itr]: obj = (0.098709), mov = 2244271, inf = 99.4%, acc = 0.4%, imp = 694

worst case efficiency: 0.659225
[73 sec, 2283369 itr]: obj = (0.098709), mov = 2283369, inf = 99.4%, acc = 0.4%, imp = 695

worst case efficiency: 0.659225
[74 sec, 2322006 itr]: obj = (0.0987439), mov = 2322006, inf = 99.4%, acc = 0.4%, imp = 698

worst case efficiency: 0.659246
[75 sec, 2360165 itr]: obj = (0.0989146), mov = 2360165, inf = 99.4%, acc = 0.4%, imp = 701

worst case efficiency: 0.659349
[76 sec, 2398942 itr]: obj = (0.0989733), mov = 2398942, inf = 99.4%, acc = 0.4%, imp = 704

worst case efficiency: 0.659384
[77 sec, 2437328 itr]: obj = (0.099094), mov = 2437328, inf = 99.4%, acc = 0.4%, imp = 707

worst case efficiency: 0.659456
[78 sec, 2474717 itr]: obj = (0.0994615), mov = 2474717, inf = 99.4%, acc = 0.4%, imp = 715

worst case efficiency: 0.659677
[79 sec, 2513281 itr]: obj = (0.0995777), mov = 2513281, inf = 99.4%, acc = 0.4%, imp = 723

worst case efficiency: 0.659747
[80 sec, 2552010 itr]: obj = (0.0995942), mov = 2552010, inf = 99.4%, acc = 0.4%, imp = 727

worst case efficiency: 0.659757
[81 sec, 2590482 itr]: obj = (0.0996591), mov = 2590482, inf = 99.4%, acc = 0.4%, imp = 732

worst case efficiency: 0.659795
[82 sec, 2628807 itr]: obj = (0.0997411), mov = 2628807, inf = 99.4%, acc = 0.4%, imp = 738

worst case efficiency: 0.659845
[83 sec, 2667595 itr]: obj = (0.099815), mov = 2667595, inf = 99.4%, acc = 0.4%, imp = 741

worst case efficiency: 0.659889
[84 sec, 2705740 itr]: obj = (0.0999424), mov = 2705740, inf = 99.4%, acc = 0.4%, imp = 745

worst case efficiency: 0.659965
[85 sec, 2743566 itr]: obj = (0.0999424), mov = 2743566, inf = 99.4%, acc = 0.4%, imp = 747

worst case efficiency: 0.659965
[86 sec, 2781990 itr]: obj = (0.100341), mov = 2781990, inf = 99.4%, acc = 0.4%, imp = 757

worst case efficiency: 0.660204
[87 sec, 2820403 itr]: obj = (0.100435), mov = 2820403, inf = 99.4%, acc = 0.4%, imp = 760

worst case efficiency: 0.660261
[88 sec, 2859203 itr]: obj = (0.100493), mov = 2859203, inf = 99.4%, acc = 0.4%, imp = 764

worst case efficiency: 0.660296
[89 sec, 2897931 itr]: obj = (0.100493), mov = 2897931, inf = 99.4%, acc = 0.4%, imp = 765

worst case efficiency: 0.660296
[90 sec, 2936659 itr]: obj = (0.100493), mov = 2936659, inf = 99.4%, acc = 0.4%, imp = 765

worst case efficiency: 0.660296
[90 sec, 2936659 itr]: obj = (0.100493), mov = 2936659, inf = 99.4%, acc = 0.4%, imp = 765

worst case efficiency: 0.660296
2936659 iterations, 2936659 moves performed in 90 seconds
Feasible solution: obj = (0.100493)

Run output...
FINAL SOLUTION
Worst case efficiency: 0.660296
Mapping: 0->22, 1->4, 2->32, 3->12, 4->1, 5->6, 6->0, 7->40, 8->45, 9->21, 10->5, 11->8, 12->23, 13->13, 14->33, 15->0, 16->32, 17->37, 18->20, 19->34, 20->7, 21->19, 22->18, 23->45, 24->37, 25->13, 26->1, 27->3, 28->23, 29->10, 30->36, 31->36, 32->7, 33->37, 34->18, 35->47, 36->38, 37->3, 38->30, 39->14, 40->36, 41->26, 42->2, 43->18, 44->27, 45->2, 46->39, 47->15, 48->37, 49->23, 50->11, 51->27, 52->2, 53->35, 54->42, 55->38, 56->16, 57->29, 58->22, 59->6, 60->34, 61->18, 62->33, 63->28, 64->40, 65->17, 66->9, 67->12, 68->8, 69->6, 70->17, 71->0, 72->21, 73->38, 74->40, 75->13, 76->0, 77->7, 78->13, 79->15, 80->32, 81->35, 82->40, 83->7, 84->27, 85->4, 86->6, 87->14, 88->29, 89->31, 90->25, 91->46, 92->4, 93->30, 94->34, 95->46, 96->31, 97->5, 98->29, 99->5, 100->34, 101->5, 102->41, 103->41, 104->28, 105->11, 106->16, 107->42, 108->9, 109->35, 110->13, 111->16, 112->30, 113->17, 114->10, 115->25, 116->44, 117->8, 118->41, 119->7, 120->22, 121->26, 122->35, 123->30, 124->6, 125->43, 126->9, 127->27, 128->4, 129->28, 130->24, 131->24, 132->3, 133->14, 134->21, 135->24, 136->11, 137->12, 138->45, 139->20, 140->46, 141->3, 142->44, 143->10, 144->41, 145->22, 146->16, 147->6, 148->17, 149->16, 150->10, 151->23, 152->16, 153->36, 154->47, 155->27, 156->44, 157->26, 158->43, 159->38, 160->24, 161->31, 162->35, 163->3, 164->43, 165->33, 166->21, 167->2, 168->2, 169->15, 170->33, 171->19, 172->23, 173->32, 174->31, 175->29, 176->40, 177->47, 178->0, 179->19, 180->28, 181->11, 182->46, 183->29, 184->17, 185->14, 186->39, 187->29, 188->25, 189->47, 190->15, 191->36, 192->39, 193->18, 194->42, 195->12, 196->9, 197->8, 198->20, 199->32, 200->26, 201->8, 202->8, 203->40, 204->18, 205->4, 206->44, 207->2, 208->13, 209->15, 210->7, 211->46, 212->20, 213->11, 214->22, 215->10, 216->37, 217->42, 218->33, 219->20, 220->15, 221->42, 222->21, 223->39, 224->22, 225->0, 226->44, 227->1, 228->24, 229->38, 230->25, 231->5, 232->19, 233->43, 234->44, 235->1, 236->47, 237->9, 238->31, 239->25, 240->24, 241->9, 242->37, 243->30, 244->25, 245->1, 246->39, 247->46, 248->26, 249->33, 250->11, 251->14, 252->12, 253->43, 254->36, 255->32, 256->5, 257->4, 258->30, 259->28, 260->39, 261->45, 262->34, 263->27, 264->45, 265->38, 266->26, 267->42, 268->31, 269->1, 270->12, 271->10, 272->20, 273->28, 274->19, 275->41, 276->43, 277->45, 278->19, 279->35, 280->14, 281->34, 282->3, 283->23, 284->21, 285->17, 286->47, 287->41
Number of tasks per core:
	6	6	6	6	6	6
	6	6	6	6	6	6
	6	6	6	6	6	6
	6	6	6	6	6	6
	6	6	6	6	6	6
	6	6	6	6	6	6
	6	6	6	6	6	6
	6	6	6	6	6	6
Average CPI map:
	1.06188	0.965468	0.833346	1.46264	0.964621	0.987972
	1.21236	2.14505	10.2562	2.08285	2.12224	1.21173
	2.66172	3.23609	2.7676	1.36049	3.14055	2.00248
	2.19037	2.92157	3.06372	2.63736	2.42782	1.32678
	1.04809	2.68856	6.14152	3.46557	2.88725	1.28383
	2.13289	2.86894	6.10217	3.04749	2.39133	1.47049
	2.23876	2.1663	2.65974	2.21421	5.40885	1.06825
	0.933767	1.39175	1.93463	2.17326	1.40534	1.83414
Efficiency map:
	0.99672	0.925978	0.842093	0.90811	0.920161	0.995932
	0.793739	0.669658	0.94229	0.660895	0.660393	0.811013
	0.854268	0.660725	0.661189	0.662199	0.663532	0.824173
	0.828693	0.660981	0.671394	0.663148	0.67096	0.803083
	0.784575	0.676431	0.756866	0.660617	0.660973	0.746896
	0.820305	0.660297	0.687543	0.660592	0.661758	0.805823
	0.871815	0.664059	0.661714	0.660296	0.772934	0.764157
	0.801732	0.660665	0.665872	0.682837	0.665774	0.834958
==============================================================================
Local Solver optimizer for EML demonstration
==============================================================================

Option values: --wld-idx 16 --global-tlim 90 --seed 401

Starting the Optimization Process
