==============================================================================
LNS optimizer for EML demonstration
==============================================================================

Option values: --wld-idx 6 --prec 10000 --step 0 --global-tlim 90 --global-iter 1000 --local-tlim 3 --local-nsol 1 --restart-base 100 --restart-strat luby --seed 201

Starting the Optimization Process
reserved_tasks None
Finding a first solution
LNS iteration #0 ========================================
- worst case average CPI: 2.535
- worst case efficiency: 0.664
- efficiency to beat: 0.664
- normalized lower bound 1150
--- checking solution
--- solution ok! Maximum rounding error: 0.000056
- solution found, obj var is: 1223
- de-normalized obj var: 0.673380
- time (local/global): 0.001/0.001
- branches (local/global): 24/24
- fails (local/global): 1/1
- lns time: 0.007000
- lns branches: 24
- lns fails: 1
LNS iteration #1 ========================================
- worst case average CPI: 1.948
- worst case efficiency: 0.669
- efficiency to beat: 0.669
- normalized lower bound 1237
--- checking solution
--- solution ok! Maximum rounding error: 0.000098
- solution found, obj var is: 1373
- de-normalized obj var: 0.682380
- time (local/global): 0.001/0.008
- branches (local/global): 22/46
- fails (local/global): 0/1
- lns time: 0.005000
- lns branches: 22
- lns fails: 0
LNS iteration #2 ========================================
- worst case average CPI: 1.937
- worst case efficiency: 0.673
- efficiency to beat: 0.673
- normalized lower bound 1305
--- checking solution
--- solution ok! Maximum rounding error: 0.000039
- solution found, obj var is: 2851
- de-normalized obj var: 0.771060
- time (local/global): 0.000/0.012
- branches (local/global): 22/68
- fails (local/global): 0/1
- lns time: 0.005000
- lns branches: 22
- lns fails: 0
LNS iteration #3 ========================================
- worst case average CPI: 1.937
- worst case efficiency: 0.682
- efficiency to beat: 0.682
- normalized lower bound 1457
--- checking solution
--- solution ok! Maximum rounding error: 0.000141
- solution found, obj var is: 1471
- de-normalized obj var: 0.688260
- time (local/global): 0.001/0.018
- branches (local/global): 22/90
- fails (local/global): 0/1
- lns time: 0.005000
- lns branches: 22
- lns fails: 0
LNS iteration #4 ========================================
- worst case average CPI: 1.969
- worst case efficiency: 0.688
- efficiency to beat: 0.688
- normalized lower bound 1556
--- checking solution
--- solution ok! Maximum rounding error: 0.000110
- solution found, obj var is: 2731
- de-normalized obj var: 0.763860
- time (local/global): 0.001/0.023
- branches (local/global): 35/125
- fails (local/global): 7/8
- lns time: 0.005000
- lns branches: 35
- lns fails: 7
LNS iteration #5 ========================================
- worst case average CPI: 1.969
- worst case efficiency: 0.692
- efficiency to beat: 0.692
- normalized lower bound 1613
--- checking solution
--- solution ok! Maximum rounding error: 0.000053
- solution found, obj var is: 1646
- de-normalized obj var: 0.698760
- time (local/global): 0.001/0.028
- branches (local/global): 21/146
- fails (local/global): 0/8
- lns time: 0.006000
- lns branches: 21
- lns fails: 0
LNS iteration #6 ========================================
- worst case average CPI: 2.120
- worst case efficiency: 0.699
- efficiency to beat: 0.699
- normalized lower bound 1729
--- checking solution
--- solution ok! Maximum rounding error: 0.000222
- solution found, obj var is: 1733
- de-normalized obj var: 0.703980
- time (local/global): 0.003/0.036
- branches (local/global): 237/383
- fails (local/global): 101/109
- lns time: 0.007000
- lns branches: 237
- lns fails: 101
LNS iteration #7 ========================================
- worst case average CPI: 2.234
- worst case efficiency: 0.702
- efficiency to beat: 0.702
- normalized lower bound 1780
--- checking solution
XXX Rounding error: 6
--- solution ok! Maximum rounding error: 0.000310
- solution found, obj var is: 1992
- de-normalized obj var: 0.719520
- time (local/global): 0.011/0.051
- branches (local/global): 878/1261
- fails (local/global): 405/514
- lns time: 0.015000
- lns branches: 878
- lns fails: 405
LNS iteration #8 ========================================
- worst case average CPI: 2.234
- worst case efficiency: 0.704
- efficiency to beat: 0.704
- normalized lower bound 1815
--- checking solution
--- solution ok! Maximum rounding error: 0.000132
- solution found, obj var is: 3373
- de-normalized obj var: 0.802380
- time (local/global): 0.002/0.057
- branches (local/global): 227/1488
- fails (local/global): 100/614
- lns time: 0.006000
- lns branches: 227
- lns fails: 100
LNS iteration #9 ========================================
- worst case average CPI: 2.234
- worst case efficiency: 0.701
- efficiency to beat: 0.701
- normalized lower bound 1763
--- checking solution
--- solution ok! Maximum rounding error: 0.000059
- solution found, obj var is: 1842
- de-normalized obj var: 0.710520
- time (local/global): 0.004/0.065
- branches (local/global): 237/1725
- fails (local/global): 100/714
- lns time: 0.008000
- lns branches: 237
- lns fails: 100
LNS iteration #10 ========================================
- worst case average CPI: 1.780
- worst case efficiency: 0.711
- efficiency to beat: 0.711
- normalized lower bound 1926
--- checking solution
--- solution ok! Maximum rounding error: 0.000153
- solution found, obj var is: 2028
- de-normalized obj var: 0.721680
- time (local/global): 0.001/0.070
- branches (local/global): 22/1747
- fails (local/global): 0/714
- lns time: 0.005000
- lns branches: 22
- lns fails: 0
LNS iteration #11 ========================================
- worst case average CPI: 1.780
- worst case efficiency: 0.714
- efficiency to beat: 0.714
- normalized lower bound 1980
--- checking solution
--- solution ok! Maximum rounding error: 0.000120
- solution found, obj var is: 2670
- de-normalized obj var: 0.760200
- time (local/global): 0.001/0.075
- branches (local/global): 48/1795
- fails (local/global): 13/727
- lns time: 0.005000
- lns branches: 48
- lns fails: 13
LNS iteration #12 ========================================
- worst case average CPI: 1.780
- worst case efficiency: 0.714
- efficiency to beat: 0.714
- normalized lower bound 1989
--- checking solution
--- solution ok! Maximum rounding error: 0.000095
- solution found, obj var is: 2400
- de-normalized obj var: 0.744000
- time (local/global): 0.002/0.081
- branches (local/global): 91/1886
- fails (local/global): 35/762
- lns time: 0.006000
- lns branches: 91
- lns fails: 35
LNS iteration #13 ========================================
- worst case average CPI: 1.780
- worst case efficiency: 0.720
- efficiency to beat: 0.720
- normalized lower bound 2086
--- checking solution
--- solution ok! Maximum rounding error: 0.000016
- solution found, obj var is: 2110
- de-normalized obj var: 0.726600
- time (local/global): 0.070/0.155
- branches (local/global): 7391/9277
- fails (local/global): 3600/4362
- lns time: 0.074000
- lns branches: 7391
- lns fails: 3600
LNS iteration #14 ========================================
- worst case average CPI: 1.780
- worst case efficiency: 0.723
- efficiency to beat: 0.723
- normalized lower bound 2128
--- checking solution
--- solution ok! Maximum rounding error: 0.000025
- solution found, obj var is: 2436
- de-normalized obj var: 0.746160
- time (local/global): 0.000/0.159
- branches (local/global): 18/9295
- fails (local/global): 1/4363
- lns time: 0.004000
- lns branches: 18
- lns fails: 1
LNS iteration #15 ========================================
- worst case average CPI: 1.780
- worst case efficiency: 0.727
- efficiency to beat: 0.727
- normalized lower bound 2193
--- checking solution
--- solution ok! Maximum rounding error: 0.000085
- solution found, obj var is: 2193
- de-normalized obj var: 0.731580
- time (local/global): 0.563/0.726
- branches (local/global): 39430/48725
- fails (local/global): 19205/23568
- lns time: 0.567000
- lns branches: 39430
- lns fails: 19205
LNS iteration #16 ========================================
- worst case average CPI: 1.780
- worst case efficiency: 0.727
- efficiency to beat: 0.727
- normalized lower bound 2200
--- checking solution
--- solution ok! Maximum rounding error: 0.000000
- solution found, obj var is: 3319
- de-normalized obj var: 0.799140
- time (local/global): 0.001/0.731
- branches (local/global): 21/48746
- fails (local/global): 0/23568
- lns time: 0.006000
- lns branches: 21
- lns fails: 0
LNS iteration #17 ========================================
- worst case average CPI: 1.780
- worst case efficiency: 0.728
- efficiency to beat: 0.728
- normalized lower bound 2218
--- checking solution
--- solution ok! Maximum rounding error: 0.000003
- solution found, obj var is: 3747
- de-normalized obj var: 0.824820
- time (local/global): 0.000/0.736
- branches (local/global): 16/48762
- fails (local/global): 0/23568
- lns time: 0.005000
- lns branches: 16
- lns fails: 0
LNS iteration #18 ========================================
- worst case average CPI: 1.780
- worst case efficiency: 0.732
- efficiency to beat: 0.732
- normalized lower bound 2278
--- checking solution
--- solution ok! Maximum rounding error: 0.000041
- solution found, obj var is: 2913
- de-normalized obj var: 0.774780
- time (local/global): 0.037/0.778
- branches (local/global): 2757/51519
- fails (local/global): 1300/24868
- lns time: 0.042000
- lns branches: 2757
- lns fails: 1300
LNS iteration #19 ========================================
- worst case average CPI: 1.505
- worst case efficiency: 0.734
- efficiency to beat: 0.734
- normalized lower bound 2311
--- checking solution
--- solution ok! Maximum rounding error: 0.000069
- solution found, obj var is: 2441
- de-normalized obj var: 0.746460
- time (local/global): 0.015/0.798
- branches (local/global): 873/52392
- fails (local/global): 405/25273
- lns time: 0.020000
- lns branches: 873
- lns fails: 405
LNS iteration #20 ========================================
- worst case average CPI: 1.505
- worst case efficiency: 0.736
- efficiency to beat: 0.736
- normalized lower bound 2343
--- checking solution
--- solution ok! Maximum rounding error: 0.000080
- solution found, obj var is: 2399
- de-normalized obj var: 0.743940
- time (local/global): 0.010/0.813
- branches (local/global): 876/53268
- fails (local/global): 402/25675
- lns time: 0.015000
- lns branches: 876
- lns fails: 402
LNS iteration #21 ========================================
- worst case average CPI: 1.399
- worst case efficiency: 0.741
- efficiency to beat: 0.741
- normalized lower bound 2432
--- checking solution
--- solution ok! Maximum rounding error: 0.000026
- solution found, obj var is: 2535
- de-normalized obj var: 0.752100
- time (local/global): 0.001/0.819
- branches (local/global): 101/53369
- fails (local/global): 40/25715
- lns time: 0.006000
- lns branches: 101
- lns fails: 40
LNS iteration #22 ========================================
- worst case average CPI: 1.399
- worst case efficiency: 0.743
- efficiency to beat: 0.743
- normalized lower bound 2465
--- checking solution
--- solution ok! Maximum rounding error: 0.000094
- solution found, obj var is: 2665
- de-normalized obj var: 0.759900
- time (local/global): 0.001/0.825
- branches (local/global): 22/53391
- fails (local/global): 0/25715
- lns time: 0.005000
- lns branches: 22
- lns fails: 0
LNS iteration #23 ========================================
- worst case average CPI: 1.399
- worst case efficiency: 0.744
- efficiency to beat: 0.744
- normalized lower bound 2483
--- checking solution
--- solution ok! Maximum rounding error: 0.000184
- solution found, obj var is: 3181
- de-normalized obj var: 0.790860
- time (local/global): 0.001/0.830
- branches (local/global): 22/53413
- fails (local/global): 0/25715
- lns time: 0.005000
- lns branches: 22
- lns fails: 0
LNS iteration #24 ========================================
- worst case average CPI: 1.399
- worst case efficiency: 0.747
- efficiency to beat: 0.747
- normalized lower bound 2529
--- checking solution
--- solution ok! Maximum rounding error: 0.000071
- solution found, obj var is: 3074
- de-normalized obj var: 0.784440
- time (local/global): 0.054/0.888
- branches (local/global): 4245/57658
- fails (local/global): 2000/27715
- lns time: 0.058000
- lns branches: 4245
- lns fails: 2000
LNS iteration #25 ========================================
- worst case average CPI: 0.948
- worst case efficiency: 0.748
- efficiency to beat: 0.748
- normalized lower bound 2559
--- checking solution
--- solution ok! Maximum rounding error: 0.000087
- solution found, obj var is: 2819
- de-normalized obj var: 0.769140
- time (local/global): 0.001/0.893
- branches (local/global): 51/57709
- fails (local/global): 14/27729
- lns time: 0.005000
- lns branches: 51
- lns fails: 14
LNS iteration #26 ========================================
- worst case average CPI: 0.948
- worst case efficiency: 0.749
- efficiency to beat: 0.749
- normalized lower bound 2575
--- checking solution
--- solution ok! Maximum rounding error: 0.000064
- solution found, obj var is: 2941
- de-normalized obj var: 0.776460
- time (local/global): 0.030/0.927
- branches (local/global): 2761/60470
- fails (local/global): 1300/29029
- lns time: 0.035000
- lns branches: 2761
- lns fails: 1300
LNS iteration #27 ========================================
- worst case average CPI: 1.399
- worst case efficiency: 0.750
- efficiency to beat: 0.750
- normalized lower bound 2584
--- checking solution
--- solution ok! Maximum rounding error: 0.000041
- solution found, obj var is: 2873
- de-normalized obj var: 0.772380
- time (local/global): 0.003/0.935
- branches (local/global): 238/60708
- fails (local/global): 101/29130
- lns time: 0.007000
- lns branches: 238
- lns fails: 101
LNS iteration #28 ========================================
- worst case average CPI: 1.159
- worst case efficiency: 0.752
- efficiency to beat: 0.752
- normalized lower bound 2624
--- checking solution
--- solution ok! Maximum rounding error: 0.000108
- solution found, obj var is: 2685
- de-normalized obj var: 0.761100
- time (local/global): 0.527/1.466
- branches (local/global): 42569/103277
- fails (local/global): 20708/49838
- lns time: 0.531000
- lns branches: 42569
- lns fails: 20708
LNS iteration #29 ========================================
- worst case average CPI: 1.399
- worst case efficiency: 0.760
- efficiency to beat: 0.760
- normalized lower bound 2748
--- checking solution
--- solution ok! Maximum rounding error: 0.000057
- solution found, obj var is: 4166
- de-normalized obj var: 0.849960
- time (local/global): 0.001/1.471
- branches (local/global): 22/103299
- fails (local/global): 0/49838
- lns time: 0.005000
- lns branches: 22
- lns fails: 0
LNS iteration #30 ========================================
- worst case average CPI: 1.399
- worst case efficiency: 0.759
- efficiency to beat: 0.759
- normalized lower bound 2729
--- checking solution
--- solution ok! Maximum rounding error: 0.000060
- solution found, obj var is: 2756
- de-normalized obj var: 0.765360
- time (local/global): 0.027/1.502
- branches (local/global): 2132/105431
- fails (local/global): 1013/50851
- lns time: 0.031000
- lns branches: 2132
- lns fails: 1013
LNS iteration #31 ========================================
- worst case average CPI: 1.399
- worst case efficiency: 0.765
- efficiency to beat: 0.765
- normalized lower bound 2840
--- checking solution
--- solution ok! Maximum rounding error: 0.000068
- solution found, obj var is: 3973
- de-normalized obj var: 0.838380
- time (local/global): 0.011/1.517
- branches (local/global): 871/106302
- fails (local/global): 400/51251
- lns time: 0.015000
- lns branches: 871
- lns fails: 400
LNS iteration #32 ========================================
- worst case average CPI: 1.399
- worst case efficiency: 0.768
- efficiency to beat: 0.768
- normalized lower bound 2883
--- checking solution
--- solution ok! Maximum rounding error: 0.000100
- solution found, obj var is: 2898
- de-normalized obj var: 0.773880
- time (local/global): 0.001/1.522
- branches (local/global): 24/106326
- fails (local/global): 1/51252
- lns time: 0.005000
- lns branches: 24
- lns fails: 1
LNS iteration #33 ========================================
- worst case average CPI: 1.174
- worst case efficiency: 0.771
- efficiency to beat: 0.771
- normalized lower bound 2940
--- checking solution
--- solution ok! Maximum rounding error: 0.000065
- solution found, obj var is: 3134
- de-normalized obj var: 0.788040
- time (local/global): 0.007/1.533
- branches (local/global): 460/106786
- fails (local/global): 203/51455
- lns time: 0.011000
- lns branches: 460
- lns fails: 203
LNS iteration #34 ========================================
- worst case average CPI: 1.174
- worst case efficiency: 0.773
- efficiency to beat: 0.773
- normalized lower bound 2959
--- checking solution
--- solution ok! Maximum rounding error: 0.000050
- solution found, obj var is: 3701
- de-normalized obj var: 0.822060
- time (local/global): 0.012/1.549
- branches (local/global): 619/107405
- fails (local/global): 283/51738
- lns time: 0.019000
- lns branches: 619
- lns fails: 283
LNS iteration #35 ========================================
- worst case average CPI: 1.174
- worst case efficiency: 0.775
- efficiency to beat: 0.775
- normalized lower bound 3002
--- checking solution
--- solution ok! Maximum rounding error: 0.000054
- solution found, obj var is: 3098
- de-normalized obj var: 0.785880
- time (local/global): 0.001/1.557
- branches (local/global): 32/107437
- fails (local/global): 6/51744
- lns time: 0.005000
- lns branches: 32
- lns fails: 6
LNS iteration #36 ========================================
- worst case average CPI: 1.174
- worst case efficiency: 0.776
- efficiency to beat: 0.776
- normalized lower bound 3016
--- checking solution
--- solution ok! Maximum rounding error: 0.000019
- solution found, obj var is: 3224
- de-normalized obj var: 0.793440
- time (local/global): 0.001/1.562
- branches (local/global): 21/107458
- fails (local/global): 0/51744
- lns time: 0.005000
- lns branches: 21
- lns fails: 0
LNS iteration #37 ========================================
- worst case average CPI: 1.174
- worst case efficiency: 0.776
- efficiency to beat: 0.776
- normalized lower bound 3011
--- checking solution
--- solution ok! Maximum rounding error: 0.000050
- solution found, obj var is: 3014
- de-normalized obj var: 0.780840
- time (local/global): 0.015/1.581
- branches (local/global): 908/108366
- fails (local/global): 422/52166
- lns time: 0.019000
- lns branches: 908
- lns fails: 422
LNS iteration #38 ========================================
- worst case average CPI: 1.174
- worst case efficiency: 0.776
- efficiency to beat: 0.776
- normalized lower bound 3024
--- checking solution
--- solution ok! Maximum rounding error: 0.000009
- solution found, obj var is: 3038
- de-normalized obj var: 0.782280
- time (local/global): 0.089/1.674
- branches (local/global): 6871/115237
- fails (local/global): 3303/55469
- lns time: 0.093000
- lns branches: 6871
- lns fails: 3303
LNS iteration #39 ========================================
- worst case average CPI: 1.174
- worst case efficiency: 0.781
- efficiency to beat: 0.781
- normalized lower bound 3098
--- checking solution
--- solution ok! Maximum rounding error: 0.000094
- solution found, obj var is: 3425
- de-normalized obj var: 0.805500
- time (local/global): 0.058/1.736
- branches (local/global): 3815/119052
- fails (local/global): 1800/57269
- lns time: 0.062000
- lns branches: 3815
- lns fails: 1800
LNS iteration #40 ========================================
- worst case average CPI: 1.174
- worst case efficiency: 0.782
- efficiency to beat: 0.782
- normalized lower bound 3114
--- checking solution
--- solution ok! Maximum rounding error: 0.000045
- solution found, obj var is: 3155
- de-normalized obj var: 0.789300
- time (local/global): 0.001/1.741
- branches (local/global): 22/119074
- fails (local/global): 0/57269
- lns time: 0.005000
- lns branches: 22
- lns fails: 0
LNS iteration #41 ========================================
- worst case average CPI: 1.055
- worst case efficiency: 0.782
- efficiency to beat: 0.782
- normalized lower bound 3116
--- checking solution
--- solution ok! Maximum rounding error: 0.000074
- solution found, obj var is: 3821
- de-normalized obj var: 0.829260
- time (local/global): 0.001/1.746
- branches (local/global): 22/119096
- fails (local/global): 0/57269
- lns time: 0.005000
- lns branches: 22
- lns fails: 0
LNS iteration #42 ========================================
- worst case average CPI: 1.055
- worst case efficiency: 0.782
- efficiency to beat: 0.782
- normalized lower bound 3121
--- checking solution
--- solution ok! Maximum rounding error: 0.000068
- solution found, obj var is: 3159
- de-normalized obj var: 0.789540
- time (local/global): 0.001/1.751
- branches (local/global): 21/119117
- fails (local/global): 0/57269
- lns time: 0.005000
- lns branches: 21
- lns fails: 0
LNS iteration #43 ========================================
- worst case average CPI: 1.055
- worst case efficiency: 0.784
- efficiency to beat: 0.784
- normalized lower bound 3148
--- checking solution
--- solution ok! Maximum rounding error: 0.000030
- solution found, obj var is: 4047
- de-normalized obj var: 0.842820
- time (local/global): 0.001/1.756
- branches (local/global): 22/119139
- fails (local/global): 0/57269
- lns time: 0.005000
- lns branches: 22
- lns fails: 0
LNS iteration #44 ========================================
- worst case average CPI: 1.055
- worst case efficiency: 0.785
- efficiency to beat: 0.785
- normalized lower bound 3162
--- checking solution
--- solution ok! Maximum rounding error: 0.000037
- solution found, obj var is: 3443
- de-normalized obj var: 0.806580
- time (local/global): 0.000/1.760
- branches (local/global): 21/119160
- fails (local/global): 3/57272
- lns time: 0.004000
- lns branches: 21
- lns fails: 3
LNS iteration #45 ========================================
- worst case average CPI: 1.055
- worst case efficiency: 0.786
- efficiency to beat: 0.786
- normalized lower bound 3180
--- checking solution
--- solution ok! Maximum rounding error: 0.000127
- solution found, obj var is: 3651
- de-normalized obj var: 0.819060
- time (local/global): 0.001/1.765
- branches (local/global): 21/119181
- fails (local/global): 0/57272
- lns time: 0.005000
- lns branches: 21
- lns fails: 0
LNS iteration #46 ========================================
- worst case average CPI: 1.055
- worst case efficiency: 0.790
- efficiency to beat: 0.790
- normalized lower bound 3242
--- checking solution
--- solution ok! Maximum rounding error: 0.000042
- solution found, obj var is: 3278
- de-normalized obj var: 0.796680
- time (local/global): 0.020/1.789
- branches (local/global): 1630/120811
- fails (local/global): 768/58040
- lns time: 0.024000
- lns branches: 1630
- lns fails: 768
LNS iteration #47 ========================================
- worst case average CPI: 1.055
- worst case efficiency: 0.791
- efficiency to beat: 0.791
- normalized lower bound 3272
--- checking solution
--- solution ok! Maximum rounding error: 0.000037
- solution found, obj var is: 3533
- de-normalized obj var: 0.811980
- time (local/global): 0.134/1.927
- branches (local/global): 9593/130404
- fails (local/global): 4600/62640
- lns time: 0.139000
- lns branches: 9593
- lns fails: 4600
LNS iteration #48 ========================================
- worst case average CPI: 1.055
- worst case efficiency: 0.793
- efficiency to beat: 0.793
- normalized lower bound 3300
--- checking solution
--- solution ok! Maximum rounding error: 0.000047
- solution found, obj var is: 3405
- de-normalized obj var: 0.804300
- time (local/global): 0.020/1.952
- branches (local/global): 1306/131710
- fails (local/global): 600/63240
- lns time: 0.026000
- lns branches: 1306
- lns fails: 600
LNS iteration #49 ========================================
- worst case average CPI: 1.055
- worst case efficiency: 0.793
- efficiency to beat: 0.793
- normalized lower bound 3302
--- checking solution
--- solution ok! Maximum rounding error: 0.000044
- solution found, obj var is: 3476
- de-normalized obj var: 0.808560
- time (local/global): 0.003/1.961
- branches (local/global): 239/131949
- fails (local/global): 101/63341
- lns time: 0.008000
- lns branches: 239
- lns fails: 101
LNS iteration #50 ========================================
- worst case average CPI: 1.055
- worst case efficiency: 0.796
- efficiency to beat: 0.796
- normalized lower bound 3344
--- checking solution
--- solution ok! Maximum rounding error: 0.000092
- solution found, obj var is: 3890
- de-normalized obj var: 0.833400
- time (local/global): 0.001/1.967
- branches (local/global): 23/131972
- fails (local/global): 0/63341
- lns time: 0.005000
- lns branches: 23
- lns fails: 0
LNS iteration #51 ========================================
- worst case average CPI: 1.055
- worst case efficiency: 0.796
- efficiency to beat: 0.796
- normalized lower bound 3347
--- checking solution
--- solution ok! Maximum rounding error: 0.000054
- solution found, obj var is: 3463
- de-normalized obj var: 0.807780
- time (local/global): 0.012/1.983
- branches (local/global): 889/132861
- fails (local/global): 411/63752
- lns time: 0.016000
- lns branches: 889
- lns fails: 411
LNS iteration #52 ========================================
- worst case average CPI: 1.055
- worst case efficiency: 0.800
- efficiency to beat: 0.800
- normalized lower bound 3420
--- checking solution
--- solution ok! Maximum rounding error: 0.000047
- solution found, obj var is: 3488
- de-normalized obj var: 0.809280
- time (local/global): 0.016/2.003
- branches (local/global): 1205/134066
- fails (local/global): 563/64315
- lns time: 0.020000
- lns branches: 1205
- lns fails: 563
LNS iteration #53 ========================================
- worst case average CPI: 1.055
- worst case efficiency: 0.804
- efficiency to beat: 0.804
- normalized lower bound 3488
--- checking solution
--- solution ok! Maximum rounding error: 0.000033
- solution found, obj var is: 3521
- de-normalized obj var: 0.811260
- time (local/global): 0.017/2.024
- branches (local/global): 1298/135364
- fails (local/global): 601/64916
- lns time: 0.021000
- lns branches: 1298
- lns fails: 601
LNS iteration #54 ========================================
- worst case average CPI: 1.055
- worst case efficiency: 0.805
- efficiency to beat: 0.805
- normalized lower bound 3499
--- checking solution
--- solution ok! Maximum rounding error: 0.000100
- solution found, obj var is: 3831
- de-normalized obj var: 0.829860
- time (local/global): 0.001/2.029
- branches (local/global): 21/135385
- fails (local/global): 0/64916
- lns time: 0.005000
- lns branches: 21
- lns fails: 0
LNS iteration #55 ========================================
- worst case average CPI: 1.055
- worst case efficiency: 0.806
- efficiency to beat: 0.806
- normalized lower bound 3509
--- checking solution
--- solution ok! Maximum rounding error: 0.000090
- solution found, obj var is: 3534
- de-normalized obj var: 0.812040
- time (local/global): 0.003/2.036
- branches (local/global): 243/135628
- fails (local/global): 102/65018
- lns time: 0.007000
- lns branches: 243
- lns fails: 102
LNS iteration #56 ========================================
- worst case average CPI: 1.055
- worst case efficiency: 0.806
- efficiency to beat: 0.806
- normalized lower bound 3522
--- checking solution
--- solution ok! Maximum rounding error: 0.000043
- solution found, obj var is: 3615
- de-normalized obj var: 0.816900
- time (local/global): 0.020/2.060
- branches (local/global): 2183/137811
- fails (local/global): 1032/66050
- lns time: 0.025000
- lns branches: 2183
- lns fails: 1032
LNS iteration #57 ========================================
- worst case average CPI: 1.055
- worst case efficiency: 0.807
- efficiency to beat: 0.807
- normalized lower bound 3535
--- checking solution
--- solution ok! Maximum rounding error: 0.000090
- solution found, obj var is: 3557
- de-normalized obj var: 0.813420
- time (local/global): 0.006/2.071
- branches (local/global): 482/138293
- fails (local/global): 215/66265
- lns time: 0.010000
- lns branches: 482
- lns fails: 215
LNS iteration #58 ========================================
- worst case average CPI: 1.055
- worst case efficiency: 0.810
- efficiency to beat: 0.810
- normalized lower bound 3586
--- checking solution
--- solution ok! Maximum rounding error: 0.000076
- solution found, obj var is: 3607
- de-normalized obj var: 0.816420
- time (local/global): 0.051/2.126
- branches (local/global): 2791/141084
- fails (local/global): 1323/67588
- lns time: 0.055000
- lns branches: 2791
- lns fails: 1323
LNS iteration #59 ========================================
- worst case average CPI: 1.055
- worst case efficiency: 0.810
- efficiency to beat: 0.810
- normalized lower bound 3588
--- checking solution
--- solution ok! Maximum rounding error: 0.000007
- solution found, obj var is: 3654
- de-normalized obj var: 0.819240
- time (local/global): 0.013/2.143
- branches (local/global): 875/141959
- fails (local/global): 405/67993
- lns time: 0.017000
- lns branches: 875
- lns fails: 405
LNS iteration #60 ========================================
- worst case average CPI: 1.055
- worst case efficiency: 0.813
- efficiency to beat: 0.813
- normalized lower bound 3627
--- checking solution
--- solution ok! Maximum rounding error: 0.000098
- solution found, obj var is: 3783
- de-normalized obj var: 0.826980
- time (local/global): 0.003/2.150
- branches (local/global): 239/142198
- fails (local/global): 100/68093
- lns time: 0.007000
- lns branches: 239
- lns fails: 100
LNS iteration #61 ========================================
- worst case average CPI: 1.055
- worst case efficiency: 0.813
- efficiency to beat: 0.813
- normalized lower bound 3628
--- checking solution
--- solution ok! Maximum rounding error: 0.000044
- solution found, obj var is: 3708
- de-normalized obj var: 0.822480
- time (local/global): 0.005/2.159
- branches (local/global): 380/142578
- fails (local/global): 172/68265
- lns time: 0.009000
- lns branches: 380
- lns fails: 172
LNS iteration #62 ========================================
- worst case average CPI: 1.284
- worst case efficiency: 0.813
- efficiency to beat: 0.813
- normalized lower bound 3630
--- checking solution
--- solution ok! Maximum rounding error: 0.000160
- solution found, obj var is: 3854
- de-normalized obj var: 0.831240
- time (local/global): 0.001/2.164
- branches (local/global): 34/142612
- fails (local/global): 7/68272
- lns time: 0.005000
- lns branches: 34
- lns fails: 7
LNS iteration #63 ========================================
- worst case average CPI: 1.284
- worst case efficiency: 0.813
- efficiency to beat: 0.813
- normalized lower bound 3641
--- checking solution
--- solution ok! Maximum rounding error: 0.000038
- solution found, obj var is: 3803
- de-normalized obj var: 0.828180
- time (local/global): 0.001/2.169
- branches (local/global): 22/142634
- fails (local/global): 0/68272
- lns time: 0.005000
- lns branches: 22
- lns fails: 0
LNS iteration #64 ========================================
- worst case average CPI: 1.284
- worst case efficiency: 0.813
- efficiency to beat: 0.813
- normalized lower bound 3634
--- checking solution
--- solution ok! Maximum rounding error: 0.000124
- solution found, obj var is: 3637
- de-normalized obj var: 0.818220
- time (local/global): 0.356/2.529
- branches (local/global): 32393/175027
- fails (local/global): 15707/83979
- lns time: 0.360000
- lns branches: 32393
- lns fails: 15707
LNS iteration #65 ========================================
- worst case average CPI: 1.284
- worst case efficiency: 0.818
- efficiency to beat: 0.818
- normalized lower bound 3721
--- checking solution
--- solution ok! Maximum rounding error: 0.000020
- solution found, obj var is: 3738
- de-normalized obj var: 0.824280
- time (local/global): 0.219/2.752
- branches (local/global): 16487/191514
- fails (local/global): 8003/91982
- lns time: 0.223000
- lns branches: 16487
- lns fails: 8003
LNS iteration #66 ========================================
- worst case average CPI: 1.284
- worst case efficiency: 0.819
- efficiency to beat: 0.819
- normalized lower bound 3726
--- checking solution
--- solution ok! Maximum rounding error: 0.000036
- solution found, obj var is: 3912
- de-normalized obj var: 0.834720
- time (local/global): 0.004/2.760
- branches (local/global): 292/191806
- fails (local/global): 126/92108
- lns time: 0.009000
- lns branches: 292
- lns fails: 126
LNS iteration #67 ========================================
- worst case average CPI: 1.284
- worst case efficiency: 0.819
- efficiency to beat: 0.819
- normalized lower bound 3729
--- checking solution
--- solution ok! Maximum rounding error: 0.000061
- solution found, obj var is: 3749
- de-normalized obj var: 0.824940
- time (local/global): 0.005/2.770
- branches (local/global): 270/192076
- fails (local/global): 118/92226
- lns time: 0.009000
- lns branches: 270
- lns fails: 118
LNS iteration #68 ========================================
- worst case average CPI: 1.284
- worst case efficiency: 0.819
- efficiency to beat: 0.819
- normalized lower bound 3737
--- checking solution
--- solution ok! Maximum rounding error: 0.000047
- solution found, obj var is: 3751
- de-normalized obj var: 0.825060
- time (local/global): 0.636/3.410
- branches (local/global): 48913/240989
- fails (local/global): 23808/116034
- lns time: 0.641000
- lns branches: 48913
- lns fails: 23808
LNS iteration #69 ========================================
- worst case average CPI: 1.284
- worst case efficiency: 0.820
- efficiency to beat: 0.820
- normalized lower bound 3750
--- checking solution
--- solution ok! Maximum rounding error: 0.000111
- solution found, obj var is: 3768
- de-normalized obj var: 0.826080
- time (local/global): 0.001/3.416
- branches (local/global): 19/241008
- fails (local/global): 0/116034
- lns time: 0.005000
- lns branches: 19
- lns fails: 0
LNS iteration #70 ========================================
- worst case average CPI: 1.284
- worst case efficiency: 0.824
- efficiency to beat: 0.824
- normalized lower bound 3811
--- checking solution
--- solution ok! Maximum rounding error: 0.000043
- solution found, obj var is: 4318
- de-normalized obj var: 0.859080
- time (local/global): 0.001/3.421
- branches (local/global): 24/241032
- fails (local/global): 1/116035
- lns time: 0.005000
- lns branches: 24
- lns fails: 1
LNS iteration #71 ========================================
- worst case average CPI: 1.284
- worst case efficiency: 0.824
- efficiency to beat: 0.824
- normalized lower bound 3821
--- checking solution
--- solution ok! Maximum rounding error: 0.000025
- solution found, obj var is: 3929
- de-normalized obj var: 0.835740
- time (local/global): 0.563/3.988
- branches (local/global): 46323/287355
- fails (local/global): 22500/138535
- lns time: 0.567000
- lns branches: 46323
- lns fails: 22500
LNS iteration #72 ========================================
- worst case average CPI: 0.866
- worst case efficiency: 0.825
- efficiency to beat: 0.825
- normalized lower bound 3837
--- checking solution
--- solution ok! Maximum rounding error: 0.000030
- solution found, obj var is: 4075
- de-normalized obj var: 0.844500
- time (local/global): 0.001/3.993
- branches (local/global): 38/287393
- fails (local/global): 12/138547
- lns time: 0.007000
- lns branches: 38
- lns fails: 12
LNS iteration #73 ========================================
- worst case average CPI: 0.866
- worst case efficiency: 0.825
- efficiency to beat: 0.825
- normalized lower bound 3839
--- checking solution
--- solution ok! Maximum rounding error: 0.000271
- solution found, obj var is: 3918
- de-normalized obj var: 0.835080
- time (local/global): 0.651/4.650
- branches (local/global): 62670/350063
- fails (local/global): 30458/169005
- lns time: 0.656000
- lns branches: 62670
- lns fails: 30458
LNS iteration #74 ========================================
- worst case average CPI: 0.866
- worst case efficiency: 0.826
- efficiency to beat: 0.826
- normalized lower bound 3844
--- checking solution
--- solution ok! Maximum rounding error: 0.000050
- solution found, obj var is: 3885
- de-normalized obj var: 0.833100
- time (local/global): 0.010/4.665
- branches (local/global): 1157/351220
- fails (local/global): 551/169556
- lns time: 0.015000
- lns branches: 1157
- lns fails: 551
LNS iteration #75 ========================================
- worst case average CPI: 0.866
- worst case efficiency: 0.826
- efficiency to beat: 0.826
- normalized lower bound 3852
--- checking solution
--- solution ok! Maximum rounding error: 0.000017
- solution found, obj var is: 3853
- de-normalized obj var: 0.831180
- time (local/global): 0.003/4.673
- branches (local/global): 175/351395
- fails (local/global): 79/169635
- lns time: 0.007000
- lns branches: 175
- lns fails: 79
LNS iteration #76 ========================================
- worst case average CPI: 0.866
- worst case efficiency: 0.826
- efficiency to beat: 0.826
- normalized lower bound 3855
--- checking solution
--- solution ok! Maximum rounding error: 0.000037
- solution found, obj var is: 4116
- de-normalized obj var: 0.846960
- time (local/global): 0.034/4.711
- branches (local/global): 2739/354134
- fails (local/global): 1300/170935
- lns time: 0.039000
- lns branches: 2739
- lns fails: 1300
LNS iteration #77 ========================================
- worst case average CPI: 0.866
- worst case efficiency: 0.826
- efficiency to beat: 0.826
- normalized lower bound 3850
--- checking solution
--- solution ok! Maximum rounding error: 0.000074
- solution found, obj var is: 4006
- de-normalized obj var: 0.840360
- time (local/global): 0.004/4.720
- branches (local/global): 244/354378
- fails (local/global): 102/171037
- lns time: 0.008000
- lns branches: 244
- lns fails: 102
LNS iteration #78 ========================================
- worst case average CPI: 0.866
- worst case efficiency: 0.827
- efficiency to beat: 0.827
- normalized lower bound 3869
--- checking solution
--- solution ok! Maximum rounding error: 0.000025
- solution found, obj var is: 3944
- de-normalized obj var: 0.836640
- time (local/global): 0.003/4.727
- branches (local/global): 241/354619
- fails (local/global): 100/171137
- lns time: 0.008000
- lns branches: 241
- lns fails: 100
LNS iteration #79 ========================================
- worst case average CPI: 0.866
- worst case efficiency: 0.826
- efficiency to beat: 0.826
- normalized lower bound 3850
--- checking solution
--- solution ok! Maximum rounding error: 0.000080
- solution found, obj var is: 3871
- de-normalized obj var: 0.832260
- time (local/global): 0.146/4.878
- branches (local/global): 9697/364316
- fails (local/global): 4658/175795
- lns time: 0.150000
- lns branches: 9697
- lns fails: 4658
LNS iteration #80 ========================================
- worst case average CPI: 0.866
- worst case efficiency: 0.828
- efficiency to beat: 0.828
- normalized lower bound 3876
--- checking solution
--- solution ok! Maximum rounding error: 0.000061
- solution found, obj var is: 3892
- de-normalized obj var: 0.833520
- time (local/global): 0.309/5.191
- branches (local/global): 23546/387862
- fails (local/global): 11399/187194
- lns time: 0.313000
- lns branches: 23546
- lns fails: 11399
LNS iteration #81 ========================================
- worst case average CPI: 0.866
- worst case efficiency: 0.828
- efficiency to beat: 0.828
- normalized lower bound 3882
--- checking solution
--- solution ok! Maximum rounding error: 0.000025
- solution found, obj var is: 3939
- de-normalized obj var: 0.836340
- time (local/global): 0.001/5.196
- branches (local/global): 24/387886
- fails (local/global): 1/187195
- lns time: 0.005000
- lns branches: 24
- lns fails: 1
LNS iteration #82 ========================================
- worst case average CPI: 0.866
- worst case efficiency: 0.830
- efficiency to beat: 0.830
- normalized lower bound 3910
--- checking solution
--- solution ok! Maximum rounding error: 0.000143
- solution found, obj var is: 3916
- de-normalized obj var: 0.834960
- time (local/global): 0.004/5.204
- branches (local/global): 254/388140
- fails (local/global): 109/187304
- lns time: 0.008000
- lns branches: 254
- lns fails: 109
LNS iteration #83 ========================================
- worst case average CPI: 0.887
- worst case efficiency: 0.830
- efficiency to beat: 0.830
- normalized lower bound 3922
--- checking solution
--- solution ok! Maximum rounding error: 0.000081
- solution found, obj var is: 4276
- de-normalized obj var: 0.856560
- time (local/global): 0.001/5.209
- branches (local/global): 21/388161
- fails (local/global): 0/187304
- lns time: 0.005000
- lns branches: 21
- lns fails: 0
LNS iteration #84 ========================================
- worst case average CPI: 1.098
- worst case efficiency: 0.831
- efficiency to beat: 0.831
- normalized lower bound 3930
--- checking solution
--- solution ok! Maximum rounding error: 0.000071
- solution found, obj var is: 3997
- de-normalized obj var: 0.839820
- time (local/global): 0.001/5.214
- branches (local/global): 34/388195
- fails (local/global): 7/187311
- lns time: 0.005000
- lns branches: 34
- lns fails: 7
LNS iteration #85 ========================================
- worst case average CPI: 1.098
- worst case efficiency: 0.831
- efficiency to beat: 0.831
- normalized lower bound 3941
- lns time: 3.004000
- lns branches: 253467
- lns fails: 124155
LNS iteration #86 ========================================
- worst case average CPI: 1.098
- worst case efficiency: 0.831
- efficiency to beat: 0.831
- normalized lower bound 3941
- lns time: 3.004000
- lns branches: 242566
- lns fails: 118924
LNS iteration #87 ========================================
- worst case average CPI: 1.098
- worst case efficiency: 0.831
- efficiency to beat: 0.831
- normalized lower bound 3941
--- checking solution
--- solution ok! Maximum rounding error: 0.000097
- solution found, obj var is: 3955
- de-normalized obj var: 0.837300
- time (local/global): 0.001/11.227
- branches (local/global): 29/884257
- fails (local/global): 6/430396
- lns time: 0.005000
- lns branches: 29
- lns fails: 6
LNS iteration #88 ========================================
- worst case average CPI: 1.098
- worst case efficiency: 0.832
- efficiency to beat: 0.832
- normalized lower bound 3954
- lns time: 3.004000
- lns branches: 281913
- lns fails: 139099
LNS iteration #89 ========================================
- worst case average CPI: 1.098
- worst case efficiency: 0.832
- efficiency to beat: 0.832
- normalized lower bound 3954
- lns time: 3.004000
- lns branches: 218558
- lns fails: 107175
LNS iteration #90 ========================================
- worst case average CPI: 1.098
- worst case efficiency: 0.832
- efficiency to beat: 0.832
- normalized lower bound 3954
--- checking solution
--- solution ok! Maximum rounding error: 0.000032
- solution found, obj var is: 4029
- de-normalized obj var: 0.841740
- time (local/global): 0.004/17.243
- branches (local/global): 281/1385009
- fails (local/global): 120/676790
- lns time: 0.008000
- lns branches: 281
- lns fails: 120
LNS iteration #91 ========================================
- worst case average CPI: 1.317
- worst case efficiency: 0.832
- efficiency to beat: 0.832
- normalized lower bound 3957
--- checking solution
--- solution ok! Maximum rounding error: 0.000062
- solution found, obj var is: 4035
- de-normalized obj var: 0.842100
- time (local/global): 0.047/17.294
- branches (local/global): 3956/1388965
- fails (local/global): 1876/678666
- lns time: 0.051000
- lns branches: 3956
- lns fails: 1876
LNS iteration #92 ========================================
- worst case average CPI: 1.317
- worst case efficiency: 0.832
- efficiency to beat: 0.832
- normalized lower bound 3957
--- checking solution
--- solution ok! Maximum rounding error: 0.000095
- solution found, obj var is: 3977
- de-normalized obj var: 0.838620
- time (local/global): 0.017/17.315
- branches (local/global): 1311/1390276
- fails (local/global): 606/679272
- lns time: 0.021000
- lns branches: 1311
- lns fails: 606
LNS iteration #93 ========================================
- worst case average CPI: 1.317
- worst case efficiency: 0.831
- efficiency to beat: 0.831
- normalized lower bound 3936
--- checking solution
--- solution ok! Maximum rounding error: 0.000025
- solution found, obj var is: 3970
- de-normalized obj var: 0.838200
- time (local/global): 0.003/17.322
- branches (local/global): 255/1390531
- fails (local/global): 110/679382
- lns time: 0.007000
- lns branches: 255
- lns fails: 110
LNS iteration #94 ========================================
- worst case average CPI: 1.317
- worst case efficiency: 0.833
- efficiency to beat: 0.833
- normalized lower bound 3964
- lns time: 3.004000
- lns branches: 177069
- lns fails: 86760
LNS iteration #95 ========================================
- worst case average CPI: 1.317
- worst case efficiency: 0.833
- efficiency to beat: 0.833
- normalized lower bound 3964
- lns time: 3.005000
- lns branches: 235208
- lns fails: 115317
LNS iteration #96 ========================================
- worst case average CPI: 1.317
- worst case efficiency: 0.833
- efficiency to beat: 0.833
- normalized lower bound 3964
--- checking solution
--- solution ok! Maximum rounding error: 0.000060
- solution found, obj var is: 4000
- de-normalized obj var: 0.840000
- time (local/global): 0.001/23.336
- branches (local/global): 69/1802877
- fails (local/global): 23/881482
- lns time: 0.005000
- lns branches: 69
- lns fails: 23
LNS iteration #97 ========================================
- worst case average CPI: 1.074
- worst case efficiency: 0.834
- efficiency to beat: 0.834
- normalized lower bound 3983
--- checking solution
--- solution ok! Maximum rounding error: 0.000057
- solution found, obj var is: 4047
- de-normalized obj var: 0.842820
- time (local/global): 0.492/23.832
- branches (local/global): 42309/1845186
- fails (local/global): 20603/902085
- lns time: 0.496000
- lns branches: 42309
- lns fails: 20603
LNS iteration #98 ========================================
- worst case average CPI: 1.074
- worst case efficiency: 0.835
- efficiency to beat: 0.835
- normalized lower bound 3995
--- checking solution
--- solution ok! Maximum rounding error: 0.000059
- solution found, obj var is: 4017
- de-normalized obj var: 0.841020
- time (local/global): 0.226/24.062
- branches (local/global): 17771/1862957
- fails (local/global): 8601/910686
- lns time: 0.230000
- lns branches: 17771
- lns fails: 8601
LNS iteration #99 ========================================
- worst case average CPI: 1.074
- worst case efficiency: 0.834
- efficiency to beat: 0.834
- normalized lower bound 3989
- lns time: 3.004000
- lns branches: 232188
- lns fails: 114672
LNS iteration #100 ========================================
- worst case average CPI: 1.074
- worst case efficiency: 0.834
- efficiency to beat: 0.834
- normalized lower bound 3989
- lns time: 3.004000
- lns branches: 159635
- lns fails: 77939
LNS iteration #101 ========================================
- worst case average CPI: 1.074
- worst case efficiency: 0.834
- efficiency to beat: 0.834
- normalized lower bound 3989
--- checking solution
--- solution ok! Maximum rounding error: 0.000090
- solution found, obj var is: 3997
- de-normalized obj var: 0.839820
- time (local/global): 0.025/30.099
- branches (local/global): 1907/2256687
- fails (local/global): 896/1104193
- lns time: 0.029000
- lns branches: 1907
- lns fails: 896
LNS iteration #102 ========================================
- worst case average CPI: 1.074
- worst case efficiency: 0.837
- efficiency to beat: 0.837
- normalized lower bound 4035
--- checking solution
--- solution ok! Maximum rounding error: 0.000012
- solution found, obj var is: 4122
- de-normalized obj var: 0.847320
- time (local/global): 0.001/30.104
- branches (local/global): 27/2256714
- fails (local/global): 3/1104196
- lns time: 0.005000
- lns branches: 27
- lns fails: 3
LNS iteration #103 ========================================
- worst case average CPI: 1.074
- worst case efficiency: 0.837
- efficiency to beat: 0.837
- normalized lower bound 4040
- lns time: 3.004000
- lns branches: 255495
- lns fails: 125227
LNS iteration #104 ========================================
- worst case average CPI: 1.074
- worst case efficiency: 0.837
- efficiency to beat: 0.837
- normalized lower bound 4040
- lns time: 3.005000
- lns branches: 170565
- lns fails: 83403
LNS iteration #105 ========================================
- worst case average CPI: 1.074
- worst case efficiency: 0.837
- efficiency to beat: 0.837
- normalized lower bound 4040
--- checking solution
--- solution ok! Maximum rounding error: 0.000044
- solution found, obj var is: 4055
- de-normalized obj var: 0.843300
- time (local/global): 0.332/36.449
- branches (local/global): 21043/2703817
- fails (local/global): 10188/1323014
- lns time: 0.337000
- lns branches: 21043
- lns fails: 10188
LNS iteration #106 ========================================
- worst case average CPI: 1.211
- worst case efficiency: 0.839
- efficiency to beat: 0.839
- normalized lower bound 4064
- lns time: 3.007000
- lns branches: 193858
- lns fails: 95030
LNS iteration #107 ========================================
- worst case average CPI: 1.211
- worst case efficiency: 0.839
- efficiency to beat: 0.839
- normalized lower bound 4064
--- checking solution
--- solution ok! Maximum rounding error: 0.000024
- solution found, obj var is: 4069
- de-normalized obj var: 0.844140
- time (local/global): 0.399/39.860
- branches (local/global): 27362/2925037
- fails (local/global): 13233/1431277
- lns time: 0.403000
- lns branches: 27362
- lns fails: 13233
LNS iteration #108 ========================================
- worst case average CPI: 0.978
- worst case efficiency: 0.840
- efficiency to beat: 0.840
- normalized lower bound 4076
- lns time: 3.004000
- lns branches: 262270
- lns fails: 128486
LNS iteration #109 ========================================
- worst case average CPI: 0.978
- worst case efficiency: 0.840
- efficiency to beat: 0.840
- normalized lower bound 4076
--- checking solution
--- solution ok! Maximum rounding error: 0.000062
- solution found, obj var is: 4147
- de-normalized obj var: 0.848820
- time (local/global): 0.006/42.874
- branches (local/global): 453/3187760
- fails (local/global): 201/1559964
- lns time: 0.010000
- lns branches: 453
- lns fails: 201
LNS iteration #110 ========================================
- worst case average CPI: 0.978
- worst case efficiency: 0.839
- efficiency to beat: 0.839
- normalized lower bound 4071
--- checking solution
--- solution ok! Maximum rounding error: 0.000075
- solution found, obj var is: 4072
- de-normalized obj var: 0.844320
- time (local/global): 0.001/42.879
- branches (local/global): 21/3187781
- fails (local/global): 0/1559964
- lns time: 0.005000
- lns branches: 21
- lns fails: 0
LNS iteration #111 ========================================
- worst case average CPI: 0.978
- worst case efficiency: 0.840
- efficiency to beat: 0.840
- normalized lower bound 4076
--- checking solution
--- solution ok! Maximum rounding error: 0.000029
- solution found, obj var is: 4222
- de-normalized obj var: 0.853320
- time (local/global): 0.006/42.889
- branches (local/global): 453/3188234
- fails (local/global): 200/1560164
- lns time: 0.010000
- lns branches: 453
- lns fails: 200
LNS iteration #112 ========================================
- worst case average CPI: 0.978
- worst case efficiency: 0.841
- efficiency to beat: 0.841
- normalized lower bound 4095
--- checking solution
--- solution ok! Maximum rounding error: 0.000048
- solution found, obj var is: 4109
- de-normalized obj var: 0.846540
- time (local/global): 2.165/45.058
- branches (local/global): 147656/3335890
- fails (local/global): 72102/1632266
- lns time: 2.169000
- lns branches: 147656
- lns fails: 72102
LNS iteration #113 ========================================
- worst case average CPI: 0.908
- worst case efficiency: 0.841
- efficiency to beat: 0.841
- normalized lower bound 4104
--- checking solution
--- solution ok! Maximum rounding error: 0.000071
- solution found, obj var is: 4124
- de-normalized obj var: 0.847440
- time (local/global): 0.382/45.444
- branches (local/global): 20594/3356484
- fails (local/global): 9969/1642235
- lns time: 0.386000
- lns branches: 20594
- lns fails: 9969
LNS iteration #114 ========================================
- worst case average CPI: 0.908
- worst case efficiency: 0.841
- efficiency to beat: 0.841
- normalized lower bound 4107
--- checking solution
--- solution ok! Maximum rounding error: 0.000069
- solution found, obj var is: 4108
- de-normalized obj var: 0.846480
- time (local/global): 0.324/45.772
- branches (local/global): 20718/3377202
- fails (local/global): 10017/1652252
- lns time: 0.328000
- lns branches: 20718
- lns fails: 10017
LNS iteration #115 ========================================
- worst case average CPI: 0.908
- worst case efficiency: 0.842
- efficiency to beat: 0.842
- normalized lower bound 4114
- lns time: 3.006000
- lns branches: 207241
- lns fails: 101745
LNS iteration #116 ========================================
- worst case average CPI: 0.908
- worst case efficiency: 0.842
- efficiency to beat: 0.842
- normalized lower bound 4114
--- checking solution
--- solution ok! Maximum rounding error: 0.000058
- solution found, obj var is: 4147
- de-normalized obj var: 0.848820
- time (local/global): 0.768/49.550
- branches (local/global): 56152/3640595
- fails (local/global): 27357/1781354
- lns time: 0.772000
- lns branches: 56152
- lns fails: 27357
LNS iteration #117 ========================================
- worst case average CPI: 0.892
- worst case efficiency: 0.842
- efficiency to beat: 0.842
- normalized lower bound 4123
--- checking solution
--- solution ok! Maximum rounding error: 0.000067
- solution found, obj var is: 4128
- de-normalized obj var: 0.847680
- time (local/global): 0.084/49.638
- branches (local/global): 4732/3645327
- fails (local/global): 2253/1783607
- lns time: 0.089000
- lns branches: 4732
- lns fails: 2253
LNS iteration #118 ========================================
- worst case average CPI: 0.892
- worst case efficiency: 0.843
- efficiency to beat: 0.843
- normalized lower bound 4135
--- checking solution
--- solution ok! Maximum rounding error: 0.000040
- solution found, obj var is: 4139
- de-normalized obj var: 0.848340
- time (local/global): 0.095/49.738
- branches (local/global): 7753/3653080
- fails (local/global): 3720/1787327
- lns time: 0.099000
- lns branches: 7753
- lns fails: 3720
LNS iteration #119 ========================================
- worst case average CPI: 0.892
- worst case efficiency: 0.843
- efficiency to beat: 0.843
- normalized lower bound 4129
--- checking solution
--- solution ok! Maximum rounding error: 0.000053
- solution found, obj var is: 4225
- de-normalized obj var: 0.853500
- time (local/global): 0.002/49.744
- branches (local/global): 62/3653142
- fails (local/global): 20/1787347
- lns time: 0.007000
- lns branches: 62
- lns fails: 20
LNS iteration #120 ========================================
- worst case average CPI: 0.892
- worst case efficiency: 0.844
- efficiency to beat: 0.844
- normalized lower bound 4144
--- checking solution
--- solution ok! Maximum rounding error: 0.000067
- solution found, obj var is: 4155
- de-normalized obj var: 0.849300
- time (local/global): 0.027/49.776
- branches (local/global): 1426/3654568
- fails (local/global): 666/1788013
- lns time: 0.031000
- lns branches: 1426
- lns fails: 666
LNS iteration #121 ========================================
- worst case average CPI: 0.892
- worst case efficiency: 0.844
- efficiency to beat: 0.844
- normalized lower bound 4148
- lns time: 3.004000
- lns branches: 212806
- lns fails: 104380
LNS iteration #122 ========================================
- worst case average CPI: 0.892
- worst case efficiency: 0.844
- efficiency to beat: 0.844
- normalized lower bound 4148
- lns time: 3.004000
- lns branches: 254364
- lns fails: 124756
LNS iteration #123 ========================================
- worst case average CPI: 0.892
- worst case efficiency: 0.844
- efficiency to beat: 0.844
- normalized lower bound 4148
--- checking solution
--- solution ok! Maximum rounding error: 0.000082
- solution found, obj var is: 4159
- de-normalized obj var: 0.849540
- time (local/global): 0.023/55.811
- branches (local/global): 1826/4123564
- fails (local/global): 856/2018005
- lns time: 0.027000
- lns branches: 1826
- lns fails: 856
LNS iteration #124 ========================================
- worst case average CPI: 0.892
- worst case efficiency: 0.844
- efficiency to beat: 0.844
- normalized lower bound 4157
--- checking solution
--- solution ok! Maximum rounding error: 0.000082
- solution found, obj var is: 4159
- de-normalized obj var: 0.849540
- time (local/global): 0.139/55.954
- branches (local/global): 8254/4131818
- fails (local/global): 3958/2021963
- lns time: 0.144000
- lns branches: 8254
- lns fails: 3958
LNS iteration #125 ========================================
- worst case average CPI: 0.892
- worst case efficiency: 0.845
- efficiency to beat: 0.845
- normalized lower bound 4165
--- checking solution
--- solution ok! Maximum rounding error: 0.000049
- solution found, obj var is: 4181
- de-normalized obj var: 0.850860
- time (local/global): 0.486/56.445
- branches (local/global): 39688/4171506
- fails (local/global): 19336/2041299
- lns time: 0.490000
- lns branches: 39688
- lns fails: 19336
LNS iteration #126 ========================================
- worst case average CPI: 0.892
- worst case efficiency: 0.845
- efficiency to beat: 0.845
- normalized lower bound 4175
--- checking solution
--- solution ok! Maximum rounding error: 0.000000
- solution found, obj var is: 4224
- de-normalized obj var: 0.853440
- time (local/global): 0.017/56.466
- branches (local/global): 1081/4172587
- fails (local/global): 500/2041799
- lns time: 0.022000
- lns branches: 1081
- lns fails: 500
LNS iteration #127 ========================================
- worst case average CPI: 0.635
- worst case efficiency: 0.847
- efficiency to beat: 0.847
- normalized lower bound 4196
- lns time: 3.004000
- lns branches: 242506
- lns fails: 118824
LNS iteration #128 ========================================
- worst case average CPI: 0.635
- worst case efficiency: 0.847
- efficiency to beat: 0.847
- normalized lower bound 4196
--- checking solution
--- solution ok! Maximum rounding error: 0.000003
- solution found, obj var is: 4276
- de-normalized obj var: 0.856560
- time (local/global): 0.002/59.477
- branches (local/global): 79/4415172
- fails (local/global): 29/2160652
- lns time: 0.006000
- lns branches: 79
- lns fails: 29
LNS iteration #129 ========================================
- worst case average CPI: 0.635
- worst case efficiency: 0.847
- efficiency to beat: 0.847
- normalized lower bound 4196
--- checking solution
--- solution ok! Maximum rounding error: 0.000068
- solution found, obj var is: 4215
- de-normalized obj var: 0.852900
- time (local/global): 0.026/59.507
- branches (local/global): 1806/4416978
- fails (local/global): 851/2161503
- lns time: 0.030000
- lns branches: 1806
- lns fails: 851
LNS iteration #130 ========================================
- worst case average CPI: 0.635
- worst case efficiency: 0.847
- efficiency to beat: 0.847
- normalized lower bound 4200
- lns time: 3.004000
- lns branches: 259354
- lns fails: 128049
LNS iteration #131 ========================================
- worst case average CPI: 0.635
- worst case efficiency: 0.847
- efficiency to beat: 0.847
- normalized lower bound 4200
--- checking solution
--- solution ok! Maximum rounding error: 0.000037
- solution found, obj var is: 4222
- de-normalized obj var: 0.853320
- time (local/global): 0.241/62.756
- branches (local/global): 15996/4692328
- fails (local/global): 7760/2297312
- lns time: 0.245000
- lns branches: 15996
- lns fails: 7760
LNS iteration #132 ========================================
- worst case average CPI: 0.635
- worst case efficiency: 0.847
- efficiency to beat: 0.847
- normalized lower bound 4206
--- checking solution
--- solution ok! Maximum rounding error: 0.000025
- solution found, obj var is: 4212
- de-normalized obj var: 0.852720
- time (local/global): 0.001/62.761
- branches (local/global): 43/4692371
- fails (local/global): 10/2297322
- lns time: 0.006000
- lns branches: 43
- lns fails: 10
LNS iteration #133 ========================================
- worst case average CPI: 0.635
- worst case efficiency: 0.847
- efficiency to beat: 0.847
- normalized lower bound 4208
- lns time: 3.005000
- lns branches: 182229
- lns fails: 89232
LNS iteration #134 ========================================
- worst case average CPI: 0.635
- worst case efficiency: 0.847
- efficiency to beat: 0.847
- normalized lower bound 4208
- lns time: 3.005000
- lns branches: 177987
- lns fails: 87179
LNS iteration #135 ========================================
- worst case average CPI: 0.635
- worst case efficiency: 0.847
- efficiency to beat: 0.847
- normalized lower bound 4208
--- checking solution
--- solution ok! Maximum rounding error: 0.000008
- solution found, obj var is: 4209
- de-normalized obj var: 0.852540
- time (local/global): 0.414/69.190
- branches (local/global): 29514/5082101
- fails (local/global): 14308/2488041
- lns time: 0.418000
- lns branches: 29514
- lns fails: 14308
LNS iteration #136 ========================================
- worst case average CPI: 0.635
- worst case efficiency: 0.848
- efficiency to beat: 0.848
- normalized lower bound 4210
--- checking solution
--- solution ok! Maximum rounding error: 0.000087
- solution found, obj var is: 4221
- de-normalized obj var: 0.853260
- time (local/global): 0.005/69.199
- branches (local/global): 235/5082336
- fails (local/global): 100/2488141
- lns time: 0.009000
- lns branches: 235
- lns fails: 100
LNS iteration #137 ========================================
- worst case average CPI: 0.635
- worst case efficiency: 0.848
- efficiency to beat: 0.848
- normalized lower bound 4211
--- checking solution
--- solution ok! Maximum rounding error: 0.000092
- solution found, obj var is: 4267
- de-normalized obj var: 0.856020
- time (local/global): 0.039/69.242
- branches (local/global): 3119/5085455
- fails (local/global): 1484/2489625
- lns time: 0.043000
- lns branches: 3119
- lns fails: 1484
LNS iteration #138 ========================================
- worst case average CPI: 0.635
- worst case efficiency: 0.848
- efficiency to beat: 0.848
- normalized lower bound 4212
--- checking solution
--- solution ok! Maximum rounding error: 0.000018
- solution found, obj var is: 4477
- de-normalized obj var: 0.868620
- time (local/global): 0.003/69.249
- branches (local/global): 238/5085693
- fails (local/global): 100/2489725
- lns time: 0.007000
- lns branches: 238
- lns fails: 100
LNS iteration #139 ========================================
- worst case average CPI: 1.414
- worst case efficiency: 0.848
- efficiency to beat: 0.848
- normalized lower bound 4215
--- checking solution
--- solution ok! Maximum rounding error: 0.000079
- solution found, obj var is: 4230
- de-normalized obj var: 0.853800
- time (local/global): 0.081/69.334
- branches (local/global): 6723/5092416
- fails (local/global): 3225/2492950
- lns time: 0.085000
- lns branches: 6723
- lns fails: 3225
LNS iteration #140 ========================================
- worst case average CPI: 1.156
- worst case efficiency: 0.850
- efficiency to beat: 0.850
- normalized lower bound 4244
--- checking solution
--- solution ok! Maximum rounding error: 0.000052
- solution found, obj var is: 4246
- de-normalized obj var: 0.854760
- time (local/global): 0.648/69.986
- branches (local/global): 40522/5132938
- fails (local/global): 19748/2512698
- lns time: 0.653000
- lns branches: 40522
- lns fails: 19748
LNS iteration #141 ========================================
- worst case average CPI: 1.156
- worst case efficiency: 0.850
- efficiency to beat: 0.850
- normalized lower bound 4250
--- checking solution
--- solution ok! Maximum rounding error: 0.000109
- solution found, obj var is: 4253
- de-normalized obj var: 0.855180
- time (local/global): 0.049/70.040
- branches (local/global): 2787/5135725
- fails (local/global): 1322/2514020
- lns time: 0.053000
- lns branches: 2787
- lns fails: 1322
LNS iteration #142 ========================================
- worst case average CPI: 0.832
- worst case efficiency: 0.850
- efficiency to beat: 0.850
- normalized lower bound 4252
--- checking solution
--- solution ok! Maximum rounding error: 0.000124
- solution found, obj var is: 4353
- de-normalized obj var: 0.861180
- time (local/global): 0.004/70.048
- branches (local/global): 235/5135960
- fails (local/global): 100/2514120
- lns time: 0.009000
- lns branches: 235
- lns fails: 100
LNS iteration #143 ========================================
- worst case average CPI: 0.832
- worst case efficiency: 0.850
- efficiency to beat: 0.850
- normalized lower bound 4254
--- checking solution
--- solution ok! Maximum rounding error: 0.000142
- solution found, obj var is: 4261
- de-normalized obj var: 0.855660
- time (local/global): 0.079/70.132
- branches (local/global): 7357/5143317
- fails (local/global): 3589/2517709
- lns time: 0.083000
- lns branches: 7357
- lns fails: 3589
LNS iteration #144 ========================================
- worst case average CPI: 0.832
- worst case efficiency: 0.851
- efficiency to beat: 0.851
- normalized lower bound 4269
--- checking solution
--- solution ok! Maximum rounding error: 0.000036
- solution found, obj var is: 4373
- de-normalized obj var: 0.862380
- time (local/global): 0.002/70.138
- branches (local/global): 130/5143447
- fails (local/global): 56/2517765
- lns time: 0.006000
- lns branches: 130
- lns fails: 56
LNS iteration #145 ========================================
- worst case average CPI: 0.832
- worst case efficiency: 0.851
- efficiency to beat: 0.851
- normalized lower bound 4270
--- checking solution
--- solution ok! Maximum rounding error: 0.000008
- solution found, obj var is: 4329
- de-normalized obj var: 0.859740
- time (local/global): 0.001/70.143
- branches (local/global): 51/5143498
- fails (local/global): 15/2517780
- lns time: 0.005000
- lns branches: 51
- lns fails: 15
LNS iteration #146 ========================================
- worst case average CPI: 0.832
- worst case efficiency: 0.852
- efficiency to beat: 0.852
- normalized lower bound 4285
--- checking solution
--- solution ok! Maximum rounding error: 0.000000
- solution found, obj var is: 4301
- de-normalized obj var: 0.858060
- time (local/global): 0.102/70.249
- branches (local/global): 8362/5151860
- fails (local/global): 4006/2521786
- lns time: 0.106000
- lns branches: 8362
- lns fails: 4006
LNS iteration #147 ========================================
- worst case average CPI: 0.832
- worst case efficiency: 0.852
- efficiency to beat: 0.852
- normalized lower bound 4286
- lns time: 3.004000
- lns branches: 224976
- lns fails: 110548
LNS iteration #148 ========================================
- worst case average CPI: 0.832
- worst case efficiency: 0.852
- efficiency to beat: 0.852
- normalized lower bound 4286
- lns time: 3.004000
- lns branches: 213411
- lns fails: 104834
LNS iteration #149 ========================================
- worst case average CPI: 0.832
- worst case efficiency: 0.852
- efficiency to beat: 0.852
- normalized lower bound 4286
--- checking solution
--- solution ok! Maximum rounding error: 0.000009
- solution found, obj var is: 4292
- de-normalized obj var: 0.857520
- time (local/global): 1.040/77.301
- branches (local/global): 78897/5669144
- fails (local/global): 38501/2775669
- lns time: 1.045000
- lns branches: 78897
- lns fails: 38501
LNS iteration #150 ========================================
- worst case average CPI: 0.832
- worst case efficiency: 0.853
- efficiency to beat: 0.853
- normalized lower bound 4293
--- checking solution
--- solution ok! Maximum rounding error: 0.000062
- solution found, obj var is: 4295
- de-normalized obj var: 0.857700
- time (local/global): 0.067/77.373
- branches (local/global): 4641/5673785
- fails (local/global): 2206/2777875
- lns time: 0.073000
- lns branches: 4641
- lns fails: 2206
LNS iteration #151 ========================================
- worst case average CPI: 0.832
- worst case efficiency: 0.853
- efficiency to beat: 0.853
- normalized lower bound 4306
--- checking solution
--- solution ok! Maximum rounding error: 0.000096
- solution found, obj var is: 4361
- de-normalized obj var: 0.861660
- time (local/global): 0.005/77.384
- branches (local/global): 320/5674105
- fails (local/global): 143/2778018
- lns time: 0.009000
- lns branches: 320
- lns fails: 143
LNS iteration #152 ========================================
- worst case average CPI: 0.832
- worst case efficiency: 0.854
- efficiency to beat: 0.854
- normalized lower bound 4310
--- checking solution
--- solution ok! Maximum rounding error: 0.000032
- solution found, obj var is: 4313
- de-normalized obj var: 0.858780
- time (local/global): 0.153/77.541
- branches (local/global): 9744/5683849
- fails (local/global): 4685/2782703
- lns time: 0.157000
- lns branches: 9744
- lns fails: 4685
LNS iteration #153 ========================================
- worst case average CPI: 0.832
- worst case efficiency: 0.854
- efficiency to beat: 0.854
- normalized lower bound 4317
- lns time: 3.004000
- lns branches: 236539
- lns fails: 115961
LNS iteration #154 ========================================
- worst case average CPI: 0.832
- worst case efficiency: 0.854
- efficiency to beat: 0.854
- normalized lower bound 4317
--- checking solution
--- solution ok! Maximum rounding error: 0.000025
- solution found, obj var is: 4331
- de-normalized obj var: 0.859860
- time (local/global): 2.890/83.439
- branches (local/global): 255304/6175692
- fails (local/global): 125002/3023666
- lns time: 2.894000
- lns branches: 255304
- lns fails: 125002
LNS iteration #155 ========================================
- worst case average CPI: 0.724
- worst case efficiency: 0.854
- efficiency to beat: 0.854
- normalized lower bound 4320
- lns time: 3.004000
- lns branches: 197946
- lns fails: 97170
LNS iteration #156 ========================================
- worst case average CPI: 0.724
- worst case efficiency: 0.854
- efficiency to beat: 0.854
- normalized lower bound 4320
--- checking solution
--- solution ok! Maximum rounding error: 0.000094
- solution found, obj var is: 4329
- de-normalized obj var: 0.859740
- time (local/global): 0.101/86.548
- branches (local/global): 6790/6380428
- fails (local/global): 3266/3124102
- lns time: 0.105000
- lns branches: 6790
- lns fails: 3266
LNS iteration #157 ========================================
- worst case average CPI: 0.759
- worst case efficiency: 0.854
- efficiency to beat: 0.854
- normalized lower bound 4323
--- checking solution
--- solution ok! Maximum rounding error: 0.000025
- solution found, obj var is: 4327
- de-normalized obj var: 0.859620
- time (local/global): 0.279/86.831
- branches (local/global): 23103/6403531
- fails (local/global): 11202/3135304
- lns time: 0.283000
- lns branches: 23103
- lns fails: 11202
LNS iteration #158 ========================================
- worst case average CPI: 0.759
- worst case efficiency: 0.855
- efficiency to beat: 0.855
- normalized lower bound 4326
- lns time: 3.004000
- lns branches: 218515
- lns fails: 107225
LNS iteration #159 ========================================
- worst case average CPI: 0.759
- worst case efficiency: 0.855
- efficiency to beat: 0.855
- normalized lower bound 4326
- lns time: 0.166000
- lns branches: 11270
- lns fails: 5441

LNS optimization is over========================================
initial worst case average CPI: 2.535
final worst case average CPI: 0.759
initial worst case efficiency: 0.664
final worst case efficiency: 0.855
number of iterations: 160
total time: 90005.000000
total branches: 6633316
total fails: 3247970

Final Solution: 0->1, 1->0, 2->4, 3->21, 4->33, 5->33, 6->34, 7->36, 8->26, 9->6, 10->1, 11->32, 12->38, 13->40, 14->43, 15->7, 16->5, 17->37, 18->10, 19->44, 20->20, 21->38, 22->12, 23->20, 24->30, 25->40, 26->43, 27->6, 28->26, 29->45, 30->39, 31->20, 32->42, 33->27, 34->22, 35->47, 36->41, 37->19, 38->0, 39->44, 40->22, 41->26, 42->15, 43->14, 44->15, 45->37, 46->6, 47->33, 48->37, 49->0, 50->31, 51->22, 52->42, 53->29, 54->2, 55->9, 56->31, 57->0, 58->21, 59->34, 60->37, 61->41, 62->8, 63->24, 64->10, 65->36, 66->3, 67->13, 68->7, 69->2, 70->14, 71->38, 72->16, 73->22, 74->28, 75->42, 76->8, 77->28, 78->46, 79->16, 80->31, 81->18, 82->27, 83->5, 84->16, 85->5, 86->43, 87->30, 88->39, 89->10, 90->8, 91->46, 92->46, 93->6, 94->42, 95->44, 96->42, 97->46, 98->4, 99->17, 100->43, 101->33, 102->29, 103->40, 104->39, 105->29, 106->40, 107->44, 108->44, 109->17, 110->15, 111->25, 112->16, 113->26, 114->41, 115->9, 116->38, 117->40, 118->10, 119->33, 120->39, 121->26, 122->14, 123->38, 124->19, 125->31, 126->28, 127->40, 128->28, 129->21, 130->26, 131->8, 132->27, 133->24, 134->12, 135->32, 136->36, 137->43, 138->39, 139->5, 140->18, 141->12, 142->35, 143->23, 144->14, 145->32, 146->28, 147->31, 148->34, 149->15, 150->7, 151->34, 152->30, 153->6, 154->18, 155->24, 156->10, 157->46, 158->8, 159->13, 160->15, 161->22, 162->12, 163->45, 164->33, 165->14, 166->12, 167->47, 168->19, 169->47, 170->1, 171->11, 172->11, 173->46, 174->27, 175->1, 176->15, 177->36, 178->4, 179->11, 180->7, 181->31, 182->37, 183->20, 184->13, 185->45, 186->21, 187->27, 188->24, 189->20, 190->7, 191->32, 192->13, 193->27, 194->0, 195->28, 196->39, 197->19, 198->23, 199->19, 200->13, 201->47, 202->45, 203->44, 204->47, 205->18, 206->9, 207->7, 208->10, 209->4, 210->5, 211->34, 212->14, 213->25, 214->9, 215->3, 216->9, 217->16, 218->20, 219->30, 220->25, 221->22, 222->11, 223->30, 224->17, 225->5, 226->11, 227->4, 228->43, 229->3, 230->32, 231->19, 232->25, 233->0, 234->12, 235->36, 236->37, 237->2, 238->25, 239->23, 240->29, 241->29, 242->29, 243->45, 244->2, 245->23, 246->8, 247->4, 248->17, 249->25, 250->18, 251->16, 252->17, 253->35, 254->38, 255->41, 256->18, 257->2, 258->2, 259->1, 260->23, 261->32, 262->9, 263->17, 264->6, 265->21, 266->23, 267->42, 268->1, 269->3, 270->45, 271->41, 272->35, 273->3, 274->13, 275->47, 276->36, 277->34, 278->24, 279->41, 280->24, 281->3, 282->35, 283->11, 284->21, 285->35, 286->30, 287->35

Average CPI map:
	7.68,	2.21,	1.04,	1.22,	1.26,	0.76
	2.02,	6.50,	6.03,	6.96,	6.50,	1.92
	2.45,	8.33,	9.65,	10.78,	7.46,	2.56
	2.36,	7.78,	7.83,	7.76,	6.27,	2.46
	2.56,	6.81,	8.18,	8.24,	8.25,	2.30
	2.42,	8.78,	10.39,	7.71,	6.96,	2.40
	1.22,	7.86,	7.48,	8.30,	7.17,	4.39
	2.13,	2.73,	5.62,	5.76,	6.48,	2.08

Efficiency map:
	0.996,	0.959,	0.901,	0.922,	0.950,	0.996
	0.865,	0.866,	0.855,	0.861,	0.862,	0.857
	0.865,	0.858,	0.918,	0.966,	0.855,	0.860
	0.855,	0.855,	0.861,	0.860,	0.860,	0.857
	0.864,	0.860,	0.862,	0.855,	0.876,	0.867
	0.861,	0.892,	0.938,	0.855,	0.863,	0.864
	0.872,	0.859,	0.859,	0.910,	0.864,	0.935
	0.855,	0.858,	0.859,	0.861,	0.860,	0.858
