LocalSolver 4.0 (MacOS64, build 20131224)
Copyright (C) 2013 Bouygues SA, Aix-Marseille University, CNRS.
All rights reserved (see Terms and Conditions for details).

Load localsolver_res/tawd_ls.lsp...
Run input...
ANNs For the Platform:
3,2,1,0.413586,-0.0266769,-0.0683771,-5.1002,70.5254,-0.257939,-72.3361,-14.3957,-55.9961,0.000416225,-55.1984
3,2,1,7.29748,1.94844,3.18138,9.63196,-4.67735,-4.13678,1.22405,-8.03403,0.0803394,-0.125838,0.598848
3,2,1,6.43996,0.383984,0.598454,7.79024,-4.25175,0.123161,-0.278344,-5.71253,1.47885,1.00258,0.327892
3,2,1,3.45395,0.140329,0.51254,4.25255,4.08469,0.00326531,0.722664,3.88666,1.2829,-0.290289,-0.187123
3,2,1,1.76581,-0.7465,16.0398,1.01103,2.42771,0.96084,1.00318,4.14242,-0.00284347,0.244904,0.56299
3,2,1,1.87058,0.359859,-0.0851999,0.818043,3.18969,0.847611,-7.29654,-2.24823,0.00245596,0.000486788,0.794563
3,2,1,3.28113,0.579268,0.142679,3.72653,-0.240895,-0.149383,25.0414,7.13641,0.488705,-0.00083541,0.320468
3,2,1,-4.78997,-2.53518,1.7971,11.1628,-3.08773,-0.470276,-0.0894822,-2.63871,1.46314,-0.463195,-1.12076
3,2,1,-0.392198,-0.00544948,0.0100489,-0.634573,-1.21109,-0.0856362,-0.013156,-1.60668,1.54201,-2.33195,-0.462253
3,2,1,3.15031,0.401017,0.160161,2.51156,5.71314,0.59291,-11.6364,2.59774,0.430465,0.00737346,0.36306
3,2,1,2.64111,0.312028,0.0803827,2.35273,-4.25958,3.48188,-1.59773,-1.57632,0.565527,0.0271972,0.266241
3,2,1,2.2658,0.0425076,0.0191991,-0.583848,2.82415,0.533705,0.0754136,3.33659,-0.0169351,0.54785,0.257008
3,2,1,6.01014,0.654767,0.24854,5.54419,5.68574,0.00137666,0.00103835,-1.46229,0.258518,0.00962319,0.54621
3,2,1,-0.828282,0.684875,0.223674,-1.44779,5.0064,0.272371,0.00344824,2.89438,0.397142,0.379767,0.797684
3,2,1,-0.166745,-1.25514,-0.967701,-3.82155,3.34568,0.34907,0.176897,2.37943,0.567319,0.42026,0.93611
3,2,1,-10.035,3.55243,8.66202,-21.5626,10.92,0.228744,0.12852,5.40188,0.871264,0.345634,1.3209
3,2,1,4.50278,0.709934,0.227356,3.41616,1.455,0.115548,0.0125181,-1.15221,0.345467,0.222127,0.602264
3,2,1,3.51765,0.552987,0.202187,3.41883,0.53704,0.0709757,-0.0346297,-0.38017,0.320095,-0.0397752,0.474568
3,2,1,3.62936,0.506661,0.201819,3.49179,3.4019,-3.09955,1.3332,0.961184,0.32649,-0.0126443,0.488413
3,2,1,3.50925,0.448618,0.127508,2.4823,1.78455,1.6893,1.46456,-0.207671,0.400287,0.00684206,0.402337
3,2,1,-0.52883,0.00691432,0.00617163,-0.194006,1.73284,0.0488672,0.0179273,1.25978,0.716787,0.92667,0.162242
3,2,1,2.48239,0.190378,0.120167,1.91689,1.21532,1.48543,0.644574,2.68198,0.547395,-0.0744913,0.328097
3,2,1,2.55861,2.02297,0.650126,2.19109,2.44652,0.0836318,0.0133745,2.4369,0.0418722,0.798841,-0.0334834
3,2,1,5.07371,0.556895,0.217981,4.66725,-0.00829845,-0.00544544,0.00934569,-0.672651,0.280461,-0.520981,0.217266
3,2,1,1.56588,0.201966,0.0665967,1.82578,1.97654,0.236717,0.0903453,1.08195,1.02748,-0.229836,0.011785
3,2,1,2.41728,0.208205,-0.0012583,2.05484,1.41976,-1.30194,1.45365,1.79277,0.56727,0.031184,0.207229
3,2,1,3.71833,0.202336,0.172606,2.43155,5.03284,0.375118,-0.790998,-3.83455,0.400925,0.372075,0.754779
3,2,1,-1.25583,1.47411,0.819895,-2.78448,4.36107,0.113478,0.107247,2.55416,0.385214,0.384141,0.797017
3,2,1,1.71562,-0.478906,-0.61026,-1.17859,3.1361,0.360865,0.0914124,2.2536,-0.0127033,0.431384,0.365879
3,2,1,-1.75501,-0.0880109,-0.026461,-2.68365,2.88327,0.072433,0.0245574,1.95701,-5.87306,-0.563325,-4.48698
3,2,1,1.87886,0.47325,-0.0511434,1.79719,1.94184,0.328234,0.0220624,2.54301,-0.401251,1.77114,-0.565042
3,2,1,-1.60981,1.67946,0.217969,-1.01084,4.35765,0.130722,0.127348,2.65259,0.0709006,0.384957,0.481341
3,2,1,6.90393,1.27603,0.349979,4.84299,12.4465,-4.65212,-2.15462,0.408255,0.295914,0.0666312,0.4354
3,2,1,3.04491,0.18183,0.111428,2.10543,3.32281,-0.49945,-3.78487,-7.88748,0.444834,-4.36795,-4.01116
3,2,1,2.91407,0.251062,0.0435786,2.27032,0.308764,1.59867,0.766589,0.134898,0.475285,0.00569166,0.326702
3,2,1,1.44846,0.205113,0.0448314,1.45909,1.93039,0.286882,0.0586866,1.17886,1.39166,-0.600981,0.0448012
3,2,1,-0.702729,1.84783,-0.00894741,-12.1377,-140.908,-69.0514,-27.175,-146.219,-4.51728,-0.14351,-3.88527
3,2,1,4.2004,0.255152,0.0750175,2.63627,-1.17866,1.67307,0.209535,-1.03514,0.371915,0.0747402,0.498851
3,2,1,3.28015,0.190841,0.175032,2.31848,-0.821253,-1.83022,1.5009,-1.6155,0.417221,-0.0239081,0.360136
3,2,1,2.0525,0.0719707,0.0148549,2.1486,2.00198,1.73479,2.09334,1.44082,0.954066,0.00952719,-0.152697
3,2,1,3.31406,0.407717,0.0380361,2.47187,-0.266021,-1.73458,0.970613,-1.79463,0.415264,-0.0144649,0.374956
3,2,1,6.25099,-3.17047,1.46865,-0.279767,-2.91952,-0.395169,-0.0444215,-3.76202,-0.00491872,-1.23429,-0.425145
3,2,1,1.59636,0.096013,0.0630313,0.826005,1.46151,0.077228,0.0482484,1.68899,-0.289647,1.15304,-0.0688712
3,2,1,33.0172,0.520442,0.135338,28.5555,-3.97298,-0.0574545,-0.0193135,3.34452,0.297691,-5.9863,6.38072
3,2,1,2.32742,0.056139,0.0279748,2.30198,0.254535,0.117712,2.12797,1.7883,0.827797,-0.00209653,-0.0205758
3,2,1,-1.76524,-0.0296866,-0.00748622,-2.47523,4.4267,-0.377196,-4.83785,1.3517,-2.37434,-0.00716866,-1.55224
3,2,1,1.2047,-1.47491,1.03821,1.50617,3.23679,0.3845,-0.018138,2.47251,0.0419137,0.407618,0.357451
3,2,1,3.93828,-0.00820725,-0.00812648,-1.1651,2.06372,0.114124,0.0339398,2.70327,-0.0635318,1.17159,-0.373077
Workload Information:
2.90519, 3.00187, 2.59408, 0.764911, 0.602349, 2.1316, 0.945185, 2.18256, 2.29122, 2.06357, 2.25563, 2.26183, 1.9514, 2.07615, 1.46262, 2.1898, 2.08454, 2.23549, 0.578052, 2.78771, 2.71554, 1.39733, 2.5547, 1.96666, 1.77915, 2.29415, 2.28815, 1.52202, 2.04631, 2.07021, 0.705144, 3.52595, 0.577794, 4.35465, 2.00297, 0.8335, 2.27118, 1.69393, 2.16483, 2.14014, 1.47659, 2.25333, 2.1552, 2.09153, 4.46658, 0.968409, 1.81829, 0.5, 0.671436, 0.5, 3.58689, 5.41061, 1.06563, 0.765436, 2.44583, 0.5, 2.00023, 2.50143, 3.50006, 1.05246, 0.830313, 0.692026, 1.66722, 2.58658, 3.77569, 2.44817, 1.53474, 2.44819, 2.51045, 2.51047, 0.5, 2.49615, 2.07622, 1.75409, 2.42361, 1.82052, 1.43757, 2.48798, 0.674821, 1.93223, 1.22573, 2.59825, 3.23437, 2.3346, 2.02062, 1.56531, 0.685947, 2.50408, 2.53617, 2.68787, 2.18405, 1.74593, 2.38926, 1.61039, 2.05674, 2.01363, 2.79678, 2.81147, 0.814836, 0.5, 2.45418, 2.62273, 0.605606, 3.33616, 0.5, 3.92751, 2.85574, 0.774989, 4.03938, 1.63878, 2.82253, 0.5, 1.6534, 1.3459, 1.54685, 0.5, 2.79143, 2.7573, 1.90179, 2.50264, 3.17346, 1.34045, 1.67046, 0.944843, 3.21848, 1.65231, 0.5, 2.50508, 3.06415, 1.40992, 2.53316, 1.98769, 2.20824, 1.55341, 0.511615, 3.33439, 2.34796, 2.04439, 2.065, 2.08406, 2.0553, 2.22587, 1.59248, 1.97728, 1.10884, 2.33107, 0.734037, 1.20233, 5.75006, 0.873654, 2.11678, 2.13263, 1.99938, 2.2624, 1.61199, 1.87683, 1.92695, 2.1557, 2.19942, 2.03818, 1.83717, 1.84259, 1.06903, 1.63587, 2.1269, 2.24311, 3.16967, 1.75542, 2.27664, 2.31265, 2.80435, 1.44689, 1.45856, 1.7009, 3.03613, 0.892094, 1.26678, 3.03981, 2.10236, 1.66282, 0.894979, 0.940761, 1.88205, 0.974263, 2.63175, 4.67619, 2.46838, 1.70812, 2.64584, 1.40925, 1.87971, 1.88871, 35, 27.3053, 9.19818, 23.0218, 9.20599, 28.2687, 3.11393, 1.54415, 2.22701, 2.23798, 2.37693, 0.5, 35, 12.4549, 16.6137, 25.8873, 23.624, 18.4201, 3.5718, 2.28371, 0.5, 0.566681, 1.96172, 3.11608, 4.6502, 0.651365, 0.5, 0.509514, 2.67246, 3.01647, 0.959727, 0.5, 3.60859, 0.857319, 1.36745, 4.70692, 1.79929, 2.43769, 1.7069, 1.48299, 1.99055, 2.58259, 1.43298, 1.11253, 3.52307, 3.52528, 1.46405, 0.942092, 0.664891, 1.93508, 3.20626, 3.19041, 1.50792, 1.49543, 2.18655, 1.25744, 2.12228, 2.26964, 2.25767, 1.90641, 0.52902, 2.58977, 3.92245, 0.5, 0.607089, 3.85167, 0.5, 2.51582, 3.21189, 1.11241, 1.68973, 2.97016, 30.6793, 35, 4.2256, 22.2669, 31.2751, 8.55314, 0.766831, 3.50378, 1.21244, 1.36904, 1.13738, 4.01053, 28.0884, 20.8486, 15.6235, 35, 19.1319, 13.3075, 3.14793, 0.715389, 2.92986, 3.64648, 1.06034, 0.5
cpi min/max: 0.5/35
neighbors of 0: 1 6, number of others: 45
neighbors of 1: 0 2 6 7, number of others: 43
neighbors of 2: 1 3 7 8, number of others: 43
neighbors of 3: 2 4 8 9, number of others: 43
neighbors of 4: 3 5 9 10, number of others: 43
neighbors of 5: 4 10 11, number of others: 44
neighbors of 6: 0 1 7 12, number of others: 43
neighbors of 7: 1 2 6 8 12 13, number of others: 41
neighbors of 8: 2 3 7 9 13 14, number of others: 41
neighbors of 9: 3 4 8 10 14 15, number of others: 41
neighbors of 10: 4 5 9 11 15 16, number of others: 41
neighbors of 11: 5 10 16 17, number of others: 43
neighbors of 12: 6 7 13 18, number of others: 43
neighbors of 13: 7 8 12 14 18 19, number of others: 41
neighbors of 14: 8 9 13 15 19 20, number of others: 41
neighbors of 15: 9 10 14 16 20 21, number of others: 41
neighbors of 16: 10 11 15 17 21 22, number of others: 41
neighbors of 17: 11 16 22 23, number of others: 43
neighbors of 18: 12 13 19 24, number of others: 43
neighbors of 19: 13 14 18 20 24 25, number of others: 41
neighbors of 20: 14 15 19 21 25 26, number of others: 41
neighbors of 21: 15 16 20 22 26 27, number of others: 41
neighbors of 22: 16 17 21 23 27 28, number of others: 41
neighbors of 23: 17 22 28 29, number of others: 43
neighbors of 24: 18 19 25 30, number of others: 43
neighbors of 25: 19 20 24 26 30 31, number of others: 41
neighbors of 26: 20 21 25 27 31 32, number of others: 41
neighbors of 27: 21 22 26 28 32 33, number of others: 41
neighbors of 28: 22 23 27 29 33 34, number of others: 41
neighbors of 29: 23 28 34 35, number of others: 43
neighbors of 30: 24 25 31 36, number of others: 43
neighbors of 31: 25 26 30 32 36 37, number of others: 41
neighbors of 32: 26 27 31 33 37 38, number of others: 41
neighbors of 33: 27 28 32 34 38 39, number of others: 41
neighbors of 34: 28 29 33 35 39 40, number of others: 41
neighbors of 35: 29 34 40 41, number of others: 43
neighbors of 36: 30 31 37 42, number of others: 43
neighbors of 37: 31 32 36 38 42 43, number of others: 41
neighbors of 38: 32 33 37 39 43 44, number of others: 41
neighbors of 39: 33 34 38 40 44 45, number of others: 41
neighbors of 40: 34 35 39 41 45 46, number of others: 41
neighbors of 41: 35 40 46 47, number of others: 43
neighbors of 42: 36 37 43, number of others: 44
neighbors of 43: 37 38 42 44, number of others: 43
neighbors of 44: 38 39 43 45, number of others: 43
neighbors of 45: 39 40 44 46, number of others: 43
neighbors of 46: 40 41 45 47, number of others: 43
neighbors of 47: 41 46, number of others: 45
Run model...
Preprocess model 0% ...Preprocess model 16% ...Preprocess model 32% ...Preprocess model 48% ...Preprocess model 66% ...Preprocess model 84% ...Preprocess model 100% ...
Close model 0% ...Close model 9% ...Close model 18% ...Close model 27% ...Close model 36% ...Close model 45% ...Close model 54% ...Close model 63% ...Close model 72% ...Close model 81% ...Close model 91% ...Close model 100% ...
Run param...
Run solver...
Initialize threads 0% ...Initialize threads 100% ...
Push initial solutions 0% ...Push initial solutions 100% ...

Model: 
  expressions = 30667, operands = 74976
  decisions = 13824, constraints = 336, objectives = 1

Param: 
  time limit = 90 sec, no iteration limit
  seed = 801, nb threads = 1, annealing level = 1

Objectives:
  Obj 0: maximize, no bound

Phases:
  Phase 0: time limit = 90 sec, no iteration limit, optimized objective = 0


Computed bounds:
  Obj 0: upper bound = 0.650128


Phase 0:
[0 sec, 0 itr]: infeas = (336, 336, 576), mov = 0, inf < 0.1%, acc < 0.1%, imp = 0

worst case efficiency: 0.965273
[1 sec, 20864 itr]: obj = (0.0634639), mov = 20864, inf = 93.7%, acc = 5.1%, imp = 165

worst case efficiency: 0.638078
[2 sec, 43622 itr]: obj = (0.0824142), mov = 43622, inf = 97%, acc = 2.6%, imp = 193

worst case efficiency: 0.649449
[3 sec, 60335 itr]: obj = (0.0877064), mov = 60335, inf = 97.8%, acc = 1.9%, imp = 221

worst case efficiency: 0.652624
[4 sec, 71903 itr]: obj = (0.0882049), mov = 71903, inf = 98.1%, acc = 1.6%, imp = 232

worst case efficiency: 0.652923
[5 sec, 80996 itr]: obj = (0.088748), mov = 80996, inf = 98.3%, acc = 1.5%, imp = 253

worst case efficiency: 0.653249
[6 sec, 90125 itr]: obj = (0.0901162), mov = 90125, inf = 98.5%, acc = 1.4%, imp = 271

worst case efficiency: 0.65407
[7 sec, 97850 itr]: obj = (0.0940637), mov = 97850, inf = 98.6%, acc = 1.3%, imp = 292

worst case efficiency: 0.656438
[8 sec, 104881 itr]: obj = (0.0966094), mov = 104881, inf = 98.7%, acc = 1.2%, imp = 305

worst case efficiency: 0.657966
[9 sec, 112182 itr]: obj = (0.0969792), mov = 112182, inf = 98.7%, acc = 1.1%, imp = 314

worst case efficiency: 0.658188
[10 sec, 118281 itr]: obj = (0.0982941), mov = 118281, inf = 98.8%, acc = 1.1%, imp = 320

worst case efficiency: 0.658976
[11 sec, 124631 itr]: obj = (0.0996007), mov = 124631, inf = 98.9%, acc = 1%, imp = 333

worst case efficiency: 0.65976
[12 sec, 132211 itr]: obj = (0.101453), mov = 132211, inf = 98.9%, acc = 1%, imp = 351

worst case efficiency: 0.660872
[13 sec, 142189 itr]: obj = (0.103157), mov = 142189, inf = 99%, acc = 0.9%, imp = 361

worst case efficiency: 0.661894
[14 sec, 158687 itr]: obj = (0.103195), mov = 158687, inf = 99.1%, acc = 0.9%, imp = 365

worst case efficiency: 0.661917
[15 sec, 184713 itr]: obj = (0.103195), mov = 184713, inf = 99.2%, acc = 0.7%, imp = 365

worst case efficiency: 0.661917
[16 sec, 201383 itr]: obj = (0.103195), mov = 201383, inf = 99.3%, acc = 0.7%, imp = 365

worst case efficiency: 0.661917
[17 sec, 214649 itr]: obj = (0.103195), mov = 214649, inf = 99.3%, acc = 0.6%, imp = 365

worst case efficiency: 0.661917
[18 sec, 228510 itr]: obj = (0.103195), mov = 228510, inf = 99.4%, acc = 0.6%, imp = 365

worst case efficiency: 0.661917
[19 sec, 242335 itr]: obj = (0.103195), mov = 242335, inf = 99.4%, acc = 0.6%, imp = 365

worst case efficiency: 0.661917
[20 sec, 256383 itr]: obj = (0.103195), mov = 256383, inf = 99.5%, acc = 0.5%, imp = 365

worst case efficiency: 0.661917
[21 sec, 270329 itr]: obj = (0.103258), mov = 270329, inf = 99.5%, acc = 0.5%, imp = 367

worst case efficiency: 0.661955
[22 sec, 283727 itr]: obj = (0.103258), mov = 283727, inf = 99.5%, acc = 0.5%, imp = 367

worst case efficiency: 0.661955
[23 sec, 297203 itr]: obj = (0.103258), mov = 297203, inf = 99.5%, acc = 0.5%, imp = 367

worst case efficiency: 0.661955
[24 sec, 310478 itr]: obj = (0.103258), mov = 310478, inf = 99.6%, acc = 0.5%, imp = 367

worst case efficiency: 0.661955
[25 sec, 323806 itr]: obj = (0.103258), mov = 323806, inf = 99.6%, acc = 0.4%, imp = 367

worst case efficiency: 0.661955
[26 sec, 337463 itr]: obj = (0.103266), mov = 337463, inf = 99.6%, acc = 0.4%, imp = 368

worst case efficiency: 0.66196
[27 sec, 351172 itr]: obj = (0.103266), mov = 351172, inf = 99.6%, acc = 0.4%, imp = 368

worst case efficiency: 0.66196
[28 sec, 365075 itr]: obj = (0.103266), mov = 365075, inf = 99.6%, acc = 0.4%, imp = 368

worst case efficiency: 0.66196
[29 sec, 379169 itr]: obj = (0.103266), mov = 379169, inf = 99.6%, acc = 0.4%, imp = 368

worst case efficiency: 0.66196
[30 sec, 393181 itr]: obj = (0.103266), mov = 393181, inf = 99.7%, acc = 0.4%, imp = 368

worst case efficiency: 0.66196
[31 sec, 407010 itr]: obj = (0.103349), mov = 407010, inf = 99.7%, acc = 0.4%, imp = 369

worst case efficiency: 0.662009
[32 sec, 420957 itr]: obj = (0.103349), mov = 420957, inf = 99.7%, acc = 0.4%, imp = 369

worst case efficiency: 0.662009
[33 sec, 434438 itr]: obj = (0.103349), mov = 434438, inf = 99.7%, acc = 0.3%, imp = 369

worst case efficiency: 0.662009
[34 sec, 447872 itr]: obj = (0.103349), mov = 447872, inf = 99.7%, acc = 0.3%, imp = 369

worst case efficiency: 0.662009
[35 sec, 461495 itr]: obj = (0.103349), mov = 461495, inf = 99.7%, acc = 0.3%, imp = 369

worst case efficiency: 0.662009
[36 sec, 475155 itr]: obj = (0.103349), mov = 475155, inf = 99.7%, acc = 0.3%, imp = 369

worst case efficiency: 0.662009
[37 sec, 488921 itr]: obj = (0.103376), mov = 488921, inf = 99.7%, acc = 0.3%, imp = 370

worst case efficiency: 0.662026
[38 sec, 503241 itr]: obj = (0.103376), mov = 503241, inf = 99.7%, acc = 0.3%, imp = 370

worst case efficiency: 0.662026
[39 sec, 517519 itr]: obj = (0.103511), mov = 517519, inf = 99.7%, acc = 0.3%, imp = 372

worst case efficiency: 0.662106
[40 sec, 531446 itr]: obj = (0.103511), mov = 531446, inf = 99.8%, acc = 0.3%, imp = 372

worst case efficiency: 0.662106
[41 sec, 545519 itr]: obj = (0.103511), mov = 545519, inf = 99.8%, acc = 0.3%, imp = 372

worst case efficiency: 0.662106
[42 sec, 559335 itr]: obj = (0.103511), mov = 559335, inf = 99.8%, acc = 0.3%, imp = 372

worst case efficiency: 0.662106
[43 sec, 573175 itr]: obj = (0.103511), mov = 573175, inf = 99.8%, acc = 0.3%, imp = 372

worst case efficiency: 0.662106
[44 sec, 586955 itr]: obj = (0.103511), mov = 586955, inf = 99.8%, acc = 0.3%, imp = 372

worst case efficiency: 0.662106
[45 sec, 601170 itr]: obj = (0.103511), mov = 601170, inf = 99.8%, acc = 0.3%, imp = 372

worst case efficiency: 0.662106
[46 sec, 615354 itr]: obj = (0.103511), mov = 615354, inf = 99.8%, acc = 0.3%, imp = 372

worst case efficiency: 0.662106
[47 sec, 630130 itr]: obj = (0.103511), mov = 630130, inf = 99.8%, acc = 0.3%, imp = 372

worst case efficiency: 0.662106
[48 sec, 644327 itr]: obj = (0.103511), mov = 644327, inf = 99.8%, acc = 0.3%, imp = 372

worst case efficiency: 0.662106
[49 sec, 658466 itr]: obj = (0.103511), mov = 658466, inf = 99.8%, acc = 0.2%, imp = 372

worst case efficiency: 0.662106
[50 sec, 672485 itr]: obj = (0.103511), mov = 672485, inf = 99.8%, acc = 0.2%, imp = 372

worst case efficiency: 0.662106
[51 sec, 686814 itr]: obj = (0.103511), mov = 686814, inf = 99.8%, acc = 0.2%, imp = 372

worst case efficiency: 0.662106
[52 sec, 701066 itr]: obj = (0.103511), mov = 701066, inf = 99.8%, acc = 0.2%, imp = 372

worst case efficiency: 0.662106
[53 sec, 715321 itr]: obj = (0.103511), mov = 715321, inf = 99.8%, acc = 0.2%, imp = 372

worst case efficiency: 0.662106
[54 sec, 729374 itr]: obj = (0.103511), mov = 729374, inf = 99.8%, acc = 0.2%, imp = 372

worst case efficiency: 0.662106
[55 sec, 743127 itr]: obj = (0.103511), mov = 743127, inf = 99.8%, acc = 0.2%, imp = 372

worst case efficiency: 0.662106
[56 sec, 756353 itr]: obj = (0.103511), mov = 756353, inf = 99.8%, acc = 0.2%, imp = 372

worst case efficiency: 0.662106
[57 sec, 769982 itr]: obj = (0.103511), mov = 769982, inf = 99.8%, acc = 0.2%, imp = 372

worst case efficiency: 0.662106
[58 sec, 783540 itr]: obj = (0.103511), mov = 783540, inf = 99.8%, acc = 0.2%, imp = 372

worst case efficiency: 0.662106
[59 sec, 797171 itr]: obj = (0.103511), mov = 797171, inf = 99.9%, acc = 0.2%, imp = 372

worst case efficiency: 0.662106
[60 sec, 810483 itr]: obj = (0.103511), mov = 810483, inf = 99.9%, acc = 0.2%, imp = 372

worst case efficiency: 0.662106
[61 sec, 823914 itr]: obj = (0.103511), mov = 823914, inf = 99.9%, acc = 0.2%, imp = 372

worst case efficiency: 0.662106
[62 sec, 837299 itr]: obj = (0.103511), mov = 837299, inf = 99.9%, acc = 0.2%, imp = 372

worst case efficiency: 0.662106
[63 sec, 850778 itr]: obj = (0.103511), mov = 850778, inf = 99.9%, acc = 0.2%, imp = 372

worst case efficiency: 0.662106
[64 sec, 864276 itr]: obj = (0.103511), mov = 864276, inf = 99.9%, acc = 0.2%, imp = 372

worst case efficiency: 0.662106
[65 sec, 877937 itr]: obj = (0.103511), mov = 877937, inf = 99.9%, acc = 0.2%, imp = 372

worst case efficiency: 0.662106
[66 sec, 891265 itr]: obj = (0.103511), mov = 891265, inf = 99.9%, acc = 0.2%, imp = 372

worst case efficiency: 0.662106
[67 sec, 904976 itr]: obj = (0.103511), mov = 904976, inf = 99.9%, acc = 0.2%, imp = 372

worst case efficiency: 0.662106
[68 sec, 918476 itr]: obj = (0.103511), mov = 918476, inf = 99.9%, acc = 0.2%, imp = 372

worst case efficiency: 0.662106
[69 sec, 932107 itr]: obj = (0.103511), mov = 932107, inf = 99.9%, acc = 0.2%, imp = 372

worst case efficiency: 0.662106
[70 sec, 945612 itr]: obj = (0.103511), mov = 945612, inf = 99.9%, acc = 0.2%, imp = 372

worst case efficiency: 0.662106
[71 sec, 959278 itr]: obj = (0.103511), mov = 959278, inf = 99.9%, acc = 0.2%, imp = 372

worst case efficiency: 0.662106
[72 sec, 972691 itr]: obj = (0.103511), mov = 972691, inf = 99.9%, acc = 0.2%, imp = 372

worst case efficiency: 0.662106
[73 sec, 986067 itr]: obj = (0.103511), mov = 986067, inf = 99.9%, acc = 0.2%, imp = 372

worst case efficiency: 0.662106
[74 sec, 999555 itr]: obj = (0.103511), mov = 999555, inf = 99.9%, acc = 0.2%, imp = 372

worst case efficiency: 0.662106
[75 sec, 1013072 itr]: obj = (0.103511), mov = 1013072, inf = 99.9%, acc = 0.2%, imp = 372

worst case efficiency: 0.662106
[76 sec, 1026485 itr]: obj = (0.103511), mov = 1026485, inf = 99.9%, acc = 0.2%, imp = 372

worst case efficiency: 0.662106
[77 sec, 1039891 itr]: obj = (0.103511), mov = 1039891, inf = 99.9%, acc = 0.2%, imp = 372

worst case efficiency: 0.662106
[78 sec, 1053162 itr]: obj = (0.103511), mov = 1053162, inf = 99.9%, acc = 0.2%, imp = 372

worst case efficiency: 0.662106
[79 sec, 1066601 itr]: obj = (0.103511), mov = 1066601, inf = 99.9%, acc = 0.2%, imp = 372

worst case efficiency: 0.662106
[80 sec, 1080139 itr]: obj = (0.103511), mov = 1080139, inf = 99.9%, acc = 0.2%, imp = 372

worst case efficiency: 0.662106
[81 sec, 1093296 itr]: obj = (0.103511), mov = 1093296, inf = 99.9%, acc = 0.2%, imp = 372

worst case efficiency: 0.662106
[82 sec, 1106599 itr]: obj = (0.103511), mov = 1106599, inf = 99.9%, acc = 0.2%, imp = 372

worst case efficiency: 0.662106
[83 sec, 1120083 itr]: obj = (0.103511), mov = 1120083, inf = 99.9%, acc = 0.2%, imp = 372

worst case efficiency: 0.662106
[84 sec, 1133466 itr]: obj = (0.103511), mov = 1133466, inf = 99.9%, acc = 0.2%, imp = 372

worst case efficiency: 0.662106
[85 sec, 1146898 itr]: obj = (0.103511), mov = 1146898, inf = 99.9%, acc = 0.2%, imp = 372

worst case efficiency: 0.662106
[86 sec, 1160004 itr]: obj = (0.103511), mov = 1160004, inf = 99.9%, acc = 0.2%, imp = 372

worst case efficiency: 0.662106
[87 sec, 1173412 itr]: obj = (0.103511), mov = 1173412, inf = 99.9%, acc = 0.2%, imp = 372

worst case efficiency: 0.662106
[88 sec, 1186765 itr]: obj = (0.103511), mov = 1186765, inf = 99.9%, acc = 0.2%, imp = 372

worst case efficiency: 0.662106
[89 sec, 1200099 itr]: obj = (0.103511), mov = 1200099, inf = 99.9%, acc = 0.2%, imp = 372

worst case efficiency: 0.662106
[90 sec, 1213772 itr]: obj = (0.103511), mov = 1213772, inf = 99.9%, acc = 0.2%, imp = 372

worst case efficiency: 0.662106
[90 sec, 1213772 itr]: obj = (0.103511), mov = 1213772, inf = 99.9%, acc = 0.2%, imp = 372

worst case efficiency: 0.662106
1213772 iterations, 1213772 moves performed in 90 seconds
Feasible solution: obj = (0.103511)

Run output...
FINAL SOLUTION
Worst case efficiency: 0.662106
Mapping: 0->25, 1->41, 2->10, 3->4, 4->0, 5->29, 6->6, 7->40, 8->17, 9->35, 10->3, 11->21, 12->46, 13->25, 14->19, 15->1, 16->45, 17->8, 18->5, 19->21, 20->19, 21->23, 22->18, 23->5, 24->42, 25->28, 26->32, 27->18, 28->35, 29->1, 30->33, 31->8, 32->40, 33->31, 34->37, 35->15, 36->2, 37->30, 38->31, 39->13, 40->40, 41->3, 42->41, 43->27, 44->33, 45->38, 46->30, 47->15, 48->15, 49->41, 50->28, 51->27, 52->36, 53->3, 54->42, 55->46, 56->40, 57->44, 58->21, 59->42, 60->22, 61->22, 62->36, 63->14, 64->8, 65->30, 66->24, 67->10, 68->31, 69->39, 70->22, 71->13, 72->29, 73->15, 74->37, 75->0, 76->10, 77->18, 78->0, 79->5, 80->47, 81->0, 82->32, 83->13, 84->18, 85->23, 86->25, 87->35, 88->24, 89->1, 90->36, 91->42, 92->9, 93->24, 94->37, 95->21, 96->7, 97->4, 98->20, 99->16, 100->13, 101->12, 102->46, 103->30, 104->23, 105->19, 106->12, 107->17, 108->19, 109->20, 110->0, 111->16, 112->11, 113->6, 114->23, 115->15, 116->40, 117->21, 118->47, 119->26, 120->19, 121->43, 122->44, 123->1, 124->7, 125->45, 126->9, 127->4, 128->36, 129->29, 130->34, 131->47, 132->7, 133->46, 134->0, 135->38, 136->37, 137->5, 138->42, 139->31, 140->14, 141->1, 142->44, 143->39, 144->41, 145->45, 146->20, 147->11, 148->13, 149->29, 150->34, 151->35, 152->17, 153->19, 154->43, 155->28, 156->39, 157->10, 158->5, 159->4, 160->39, 161->45, 162->26, 163->26, 164->11, 165->5, 166->45, 167->9, 168->2, 169->12, 170->44, 171->6, 172->11, 173->43, 174->28, 175->43, 176->11, 177->36, 178->14, 179->34, 180->38, 181->33, 182->29, 183->43, 184->24, 185->31, 186->21, 187->24, 188->31, 189->39, 190->2, 191->41, 192->8, 193->44, 194->32, 195->38, 196->34, 197->28, 198->7, 199->7, 200->47, 201->43, 202->47, 203->10, 204->26, 205->38, 206->16, 207->29, 208->45, 209->20, 210->26, 211->37, 212->23, 213->23, 214->30, 215->27, 216->39, 217->24, 218->22, 219->42, 220->47, 221->33, 222->8, 223->16, 224->32, 225->4, 226->1, 227->32, 228->12, 229->34, 230->35, 231->34, 232->6, 233->16, 234->17, 235->25, 236->10, 237->32, 238->14, 239->11, 240->35, 241->6, 242->38, 243->36, 244->17, 245->2, 246->12, 247->4, 248->8, 249->18, 250->9, 251->9, 252->20, 253->3, 254->25, 255->22, 256->2, 257->40, 258->15, 259->9, 260->30, 261->16, 262->41, 263->27, 264->33, 265->25, 266->13, 267->22, 268->3, 269->33, 270->20, 271->28, 272->46, 273->46, 274->3, 275->27, 276->26, 277->14, 278->7, 279->14, 280->18, 281->12, 282->27, 283->44, 284->2, 285->37, 286->6, 287->17
Number of tasks per core:
	6	6	6	6	6	6
	6	6	6	6	6	6
	6	6	6	6	6	6
	6	6	6	6	6	6
	6	6	6	6	6	6
	6	6	6	6	6	6
	6	6	6	6	6	6
	6	6	6	6	6	6
Average CPI map:
	1.50502	1.91434	1.90999	6.71277	1.70573	1.82731
	1.45399	4.75085	7.93652	1.88743	2.10977	1.44168
	4.18075	3.23345	10.6762	0.793171	3.63478	1.41775
	4.99781	2.93015	3.81726	2.63148	4.21487	1.0127
	1.77876	7.61704	11.978	3.45781	7.09442	5.71012
	2.41169	3.07267	4.42691	8.06023	3.23991	1.85306
	2.36855	2.46024	7.31347	2.38522	2.14671	1.72406
	1.59965	1.45961	6.09823	5.78404	1.19865	2.06527
Efficiency map:
	0.996713	0.940376	0.946078	0.999878	0.944456	0.995894
	0.819712	0.782948	0.904051	0.663705	0.662111	0.824365
	0.922559	0.666786	0.935379	0.66219	0.676171	0.812328
	0.917582	0.670593	0.707059	0.662112	0.772632	0.803253
	0.827753	0.879683	0.955697	0.662527	0.825695	0.984584
	0.847562	0.667819	0.662636	0.85875	0.702223	0.827485
	0.871815	0.669541	0.842705	0.676493	0.663872	0.805734
	0.830393	0.662106	0.872921	0.859644	0.662106	0.846158
==============================================================================
Local Solver optimizer for EML demonstration
==============================================================================

Option values: --wld-idx 12 --global-tlim 90 --seed 801

Starting the Optimization Process
