LocalSolver 4.0 (MacOS64, build 20131224)
Copyright (C) 2013 Bouygues SA, Aix-Marseille University, CNRS.
All rights reserved (see Terms and Conditions for details).

Load localsolver_res/tawd_ls.lsp...
Run input...
ANNs For the Platform:
3,2,1,0.413586,-0.0266769,-0.0683771,-5.1002,70.5254,-0.257939,-72.3361,-14.3957,-55.9961,0.000416225,-55.1984
3,2,1,7.29748,1.94844,3.18138,9.63196,-4.67735,-4.13678,1.22405,-8.03403,0.0803394,-0.125838,0.598848
3,2,1,6.43996,0.383984,0.598454,7.79024,-4.25175,0.123161,-0.278344,-5.71253,1.47885,1.00258,0.327892
3,2,1,3.45395,0.140329,0.51254,4.25255,4.08469,0.00326531,0.722664,3.88666,1.2829,-0.290289,-0.187123
3,2,1,1.76581,-0.7465,16.0398,1.01103,2.42771,0.96084,1.00318,4.14242,-0.00284347,0.244904,0.56299
3,2,1,1.87058,0.359859,-0.0851999,0.818043,3.18969,0.847611,-7.29654,-2.24823,0.00245596,0.000486788,0.794563
3,2,1,3.28113,0.579268,0.142679,3.72653,-0.240895,-0.149383,25.0414,7.13641,0.488705,-0.00083541,0.320468
3,2,1,-4.78997,-2.53518,1.7971,11.1628,-3.08773,-0.470276,-0.0894822,-2.63871,1.46314,-0.463195,-1.12076
3,2,1,-0.392198,-0.00544948,0.0100489,-0.634573,-1.21109,-0.0856362,-0.013156,-1.60668,1.54201,-2.33195,-0.462253
3,2,1,3.15031,0.401017,0.160161,2.51156,5.71314,0.59291,-11.6364,2.59774,0.430465,0.00737346,0.36306
3,2,1,2.64111,0.312028,0.0803827,2.35273,-4.25958,3.48188,-1.59773,-1.57632,0.565527,0.0271972,0.266241
3,2,1,2.2658,0.0425076,0.0191991,-0.583848,2.82415,0.533705,0.0754136,3.33659,-0.0169351,0.54785,0.257008
3,2,1,6.01014,0.654767,0.24854,5.54419,5.68574,0.00137666,0.00103835,-1.46229,0.258518,0.00962319,0.54621
3,2,1,-0.828282,0.684875,0.223674,-1.44779,5.0064,0.272371,0.00344824,2.89438,0.397142,0.379767,0.797684
3,2,1,-0.166745,-1.25514,-0.967701,-3.82155,3.34568,0.34907,0.176897,2.37943,0.567319,0.42026,0.93611
3,2,1,-10.035,3.55243,8.66202,-21.5626,10.92,0.228744,0.12852,5.40188,0.871264,0.345634,1.3209
3,2,1,4.50278,0.709934,0.227356,3.41616,1.455,0.115548,0.0125181,-1.15221,0.345467,0.222127,0.602264
3,2,1,3.51765,0.552987,0.202187,3.41883,0.53704,0.0709757,-0.0346297,-0.38017,0.320095,-0.0397752,0.474568
3,2,1,3.62936,0.506661,0.201819,3.49179,3.4019,-3.09955,1.3332,0.961184,0.32649,-0.0126443,0.488413
3,2,1,3.50925,0.448618,0.127508,2.4823,1.78455,1.6893,1.46456,-0.207671,0.400287,0.00684206,0.402337
3,2,1,-0.52883,0.00691432,0.00617163,-0.194006,1.73284,0.0488672,0.0179273,1.25978,0.716787,0.92667,0.162242
3,2,1,2.48239,0.190378,0.120167,1.91689,1.21532,1.48543,0.644574,2.68198,0.547395,-0.0744913,0.328097
3,2,1,2.55861,2.02297,0.650126,2.19109,2.44652,0.0836318,0.0133745,2.4369,0.0418722,0.798841,-0.0334834
3,2,1,5.07371,0.556895,0.217981,4.66725,-0.00829845,-0.00544544,0.00934569,-0.672651,0.280461,-0.520981,0.217266
3,2,1,1.56588,0.201966,0.0665967,1.82578,1.97654,0.236717,0.0903453,1.08195,1.02748,-0.229836,0.011785
3,2,1,2.41728,0.208205,-0.0012583,2.05484,1.41976,-1.30194,1.45365,1.79277,0.56727,0.031184,0.207229
3,2,1,3.71833,0.202336,0.172606,2.43155,5.03284,0.375118,-0.790998,-3.83455,0.400925,0.372075,0.754779
3,2,1,-1.25583,1.47411,0.819895,-2.78448,4.36107,0.113478,0.107247,2.55416,0.385214,0.384141,0.797017
3,2,1,1.71562,-0.478906,-0.61026,-1.17859,3.1361,0.360865,0.0914124,2.2536,-0.0127033,0.431384,0.365879
3,2,1,-1.75501,-0.0880109,-0.026461,-2.68365,2.88327,0.072433,0.0245574,1.95701,-5.87306,-0.563325,-4.48698
3,2,1,1.87886,0.47325,-0.0511434,1.79719,1.94184,0.328234,0.0220624,2.54301,-0.401251,1.77114,-0.565042
3,2,1,-1.60981,1.67946,0.217969,-1.01084,4.35765,0.130722,0.127348,2.65259,0.0709006,0.384957,0.481341
3,2,1,6.90393,1.27603,0.349979,4.84299,12.4465,-4.65212,-2.15462,0.408255,0.295914,0.0666312,0.4354
3,2,1,3.04491,0.18183,0.111428,2.10543,3.32281,-0.49945,-3.78487,-7.88748,0.444834,-4.36795,-4.01116
3,2,1,2.91407,0.251062,0.0435786,2.27032,0.308764,1.59867,0.766589,0.134898,0.475285,0.00569166,0.326702
3,2,1,1.44846,0.205113,0.0448314,1.45909,1.93039,0.286882,0.0586866,1.17886,1.39166,-0.600981,0.0448012
3,2,1,-0.702729,1.84783,-0.00894741,-12.1377,-140.908,-69.0514,-27.175,-146.219,-4.51728,-0.14351,-3.88527
3,2,1,4.2004,0.255152,0.0750175,2.63627,-1.17866,1.67307,0.209535,-1.03514,0.371915,0.0747402,0.498851
3,2,1,3.28015,0.190841,0.175032,2.31848,-0.821253,-1.83022,1.5009,-1.6155,0.417221,-0.0239081,0.360136
3,2,1,2.0525,0.0719707,0.0148549,2.1486,2.00198,1.73479,2.09334,1.44082,0.954066,0.00952719,-0.152697
3,2,1,3.31406,0.407717,0.0380361,2.47187,-0.266021,-1.73458,0.970613,-1.79463,0.415264,-0.0144649,0.374956
3,2,1,6.25099,-3.17047,1.46865,-0.279767,-2.91952,-0.395169,-0.0444215,-3.76202,-0.00491872,-1.23429,-0.425145
3,2,1,1.59636,0.096013,0.0630313,0.826005,1.46151,0.077228,0.0482484,1.68899,-0.289647,1.15304,-0.0688712
3,2,1,33.0172,0.520442,0.135338,28.5555,-3.97298,-0.0574545,-0.0193135,3.34452,0.297691,-5.9863,6.38072
3,2,1,2.32742,0.056139,0.0279748,2.30198,0.254535,0.117712,2.12797,1.7883,0.827797,-0.00209653,-0.0205758
3,2,1,-1.76524,-0.0296866,-0.00748622,-2.47523,4.4267,-0.377196,-4.83785,1.3517,-2.37434,-0.00716866,-1.55224
3,2,1,1.2047,-1.47491,1.03821,1.50617,3.23679,0.3845,-0.018138,2.47251,0.0419137,0.407618,0.357451
3,2,1,3.93828,-0.00820725,-0.00812648,-1.1651,2.06372,0.114124,0.0339398,2.70327,-0.0635318,1.17159,-0.373077
Workload Information:
3.12567, 0.752061, 3.77408, 1.62275, 1.54955, 1.17589, 1.72939, 3.02359, 2.35293, 0.5, 3.11872, 1.27538, 17.84, 24.8309, 22.3046, 23.9911, 15.5276, 27.5057, 0.5, 1.8254, 3.13266, 3.48523, 1.94102, 1.1157, 2.11213, 2.06647, 1.99774, 1.74421, 2.0075, 2.07194, 0.522909, 1.49971, 1.5007, 3.20029, 3.94412, 1.33228, 2.47984, 1.60996, 1.63519, 2.5718, 1.81176, 1.89145, 3.25335, 0.5, 0.507717, 3.35651, 3.32506, 1.05735, 1.59151, 2.60202, 0.868737, 2.60868, 1.45236, 2.8767, 12.5817, 35, 12.3399, 20.615, 17.7576, 33.7058, 0.5, 2.2086, 4.49219, 0.521533, 0.703125, 3.57454, 1.32375, 0.5, 3.53538, 4.27056, 1.22948, 1.14083, 2.1446, 2.20424, 1.96104, 2.3198, 1.54687, 1.82346, 3.22698, 0.778605, 1.7414, 3.17747, 1.91045, 1.16509, 2.33292, 2.04677, 0.599128, 0.63446, 5.14332, 1.24341, 0.954258, 4.07886, 1.13576, 2.37027, 2.04029, 1.42056, 2.83431, 1.10327, 2.71016, 2.72216, 2.1301, 0.5, 1.53209, 2.281, 2.40503, 2.18578, 1.86167, 1.73443, 1.37888, 0.5, 3.68517, 2.2678, 3.31085, 0.85731, 1.65819, 3.48785, 2.43323, 0.5, 1.0792, 2.84153, 0.604221, 1.83231, 0.5, 1.61493, 4.32856, 3.11998, 2.26413, 1.06299, 1.88884, 2.27832, 2.21424, 2.29148, 3.33042, 0.786218, 1.01043, 3.19589, 0.5, 3.17704, 2.29831, 2.17468, 2.40911, 2.53069, 1.17653, 1.41068, 1.39781, 1.5314, 2.1906, 1.35996, 2.01672, 3.50351, 1.17117, 1.34719, 3.3889, 1.49879, 2.75224, 1.8417, 2.56654, 2.58568, 1.96223, 0.5, 2.58026, 1.8053, 0.5, 2.44487, 2.88778, 2.77599, 2.85053, 0.540841, 0.5, 4.13547, 4.13324, 0.602114, 1.27328, 1.3559, 2.10053, 2.27077, 1.69581, 2.41086, 2.27242, 1.24961, 1.70121, 3.12426, 2.78517, 0.96334, 1.21139, 2.21463, 2.55195, 2.33888, 1.12488, 1.28664, 2.49165, 2.206, 1.2706, 2.2993, 2.38943, 1.68816, 2.55896, 1.79355, 3.41952, 2.01037, 2.19211, 1.06076, 2.53684, 0.780401, 3.0517, 0.966597, 2.17906, 0.5, 3.13944, 2.16321, 4.00701, 1.14437, 1.66825, 1.46278, 0.5, 3.21759, 0.5, 2.20956, 3.44682, 1.98752, 2.67762, 1.17849, 1.89847, 1.28251, 2.3825, 2.37247, 1.96994, 2.09411, 2.33515, 1.65527, 1.94325, 1.54898, 1.9655, 2.55185, 2.18274, 0.5, 4.98818, 0.755168, 2.90778, 0.666132, 1.5655, 1.11219, 0.864467, 3.32768, 2.80025, 2.32992, 4.80928, 0.5, 0.877944, 0.527548, 0.644329, 4.6409, 2.55565, 2.59951, 2.2867, 1.42287, 0.851681, 2.28359, 4.41532, 0.5, 1.83263, 1.2317, 1.53574, 2.48461, 2.30571, 1.85041, 2.23376, 2.05481, 1.74023, 1.81507, 1.67615, 3.04315, 3.28507, 0.5, 2.93744, 0.558177, 2.41297, 2.36075, 2.18932, 1.05135, 1.98417, 2.00144, 1.52199, 2.30636, 1.96989, 1.97137, 1.243, 2.98739
cpi min/max: 0.5/35
neighbors of 0: 1 6, number of others: 45
neighbors of 1: 0 2 6 7, number of others: 43
neighbors of 2: 1 3 7 8, number of others: 43
neighbors of 3: 2 4 8 9, number of others: 43
neighbors of 4: 3 5 9 10, number of others: 43
neighbors of 5: 4 10 11, number of others: 44
neighbors of 6: 0 1 7 12, number of others: 43
neighbors of 7: 1 2 6 8 12 13, number of others: 41
neighbors of 8: 2 3 7 9 13 14, number of others: 41
neighbors of 9: 3 4 8 10 14 15, number of others: 41
neighbors of 10: 4 5 9 11 15 16, number of others: 41
neighbors of 11: 5 10 16 17, number of others: 43
neighbors of 12: 6 7 13 18, number of others: 43
neighbors of 13: 7 8 12 14 18 19, number of others: 41
neighbors of 14: 8 9 13 15 19 20, number of others: 41
neighbors of 15: 9 10 14 16 20 21, number of others: 41
neighbors of 16: 10 11 15 17 21 22, number of others: 41
neighbors of 17: 11 16 22 23, number of others: 43
neighbors of 18: 12 13 19 24, number of others: 43
neighbors of 19: 13 14 18 20 24 25, number of others: 41
neighbors of 20: 14 15 19 21 25 26, number of others: 41
neighbors of 21: 15 16 20 22 26 27, number of others: 41
neighbors of 22: 16 17 21 23 27 28, number of others: 41
neighbors of 23: 17 22 28 29, number of others: 43
neighbors of 24: 18 19 25 30, number of others: 43
neighbors of 25: 19 20 24 26 30 31, number of others: 41
neighbors of 26: 20 21 25 27 31 32, number of others: 41
neighbors of 27: 21 22 26 28 32 33, number of others: 41
neighbors of 28: 22 23 27 29 33 34, number of others: 41
neighbors of 29: 23 28 34 35, number of others: 43
neighbors of 30: 24 25 31 36, number of others: 43
neighbors of 31: 25 26 30 32 36 37, number of others: 41
neighbors of 32: 26 27 31 33 37 38, number of others: 41
neighbors of 33: 27 28 32 34 38 39, number of others: 41
neighbors of 34: 28 29 33 35 39 40, number of others: 41
neighbors of 35: 29 34 40 41, number of others: 43
neighbors of 36: 30 31 37 42, number of others: 43
neighbors of 37: 31 32 36 38 42 43, number of others: 41
neighbors of 38: 32 33 37 39 43 44, number of others: 41
neighbors of 39: 33 34 38 40 44 45, number of others: 41
neighbors of 40: 34 35 39 41 45 46, number of others: 41
neighbors of 41: 35 40 46 47, number of others: 43
neighbors of 42: 36 37 43, number of others: 44
neighbors of 43: 37 38 42 44, number of others: 43
neighbors of 44: 38 39 43 45, number of others: 43
neighbors of 45: 39 40 44 46, number of others: 43
neighbors of 46: 40 41 45 47, number of others: 43
neighbors of 47: 41 46, number of others: 45
Run model...
Preprocess model 0% ...Preprocess model 16% ...Preprocess model 32% ...Preprocess model 48% ...Preprocess model 66% ...Preprocess model 84% ...Preprocess model 100% ...
Close model 0% ...Close model 9% ...Close model 18% ...Close model 27% ...Close model 36% ...Close model 45% ...Close model 54% ...Close model 63% ...Close model 72% ...Close model 81% ...Close model 91% ...Close model 100% ...
Run param...
Run solver...
Initialize threads 0% ...Initialize threads 100% ...
Push initial solutions 0% ...Push initial solutions 100% ...

Model: 
  expressions = 30666, operands = 74976
  decisions = 13824, constraints = 336, objectives = 1

Param: 
  time limit = 90 sec, no iteration limit
  seed = 801, nb threads = 1, annealing level = 1

Objectives:
  Obj 0: maximize, no bound

Phases:
  Phase 0: time limit = 90 sec, no iteration limit, optimized objective = 0


Computed bounds:
  Obj 0: upper bound = 0.650128


Phase 0:
[0 sec, 0 itr]: infeas = (336, 336, 576), mov = 0, inf < 0.1%, acc < 0.1%, imp = 0

worst case efficiency: 0.965273
[1 sec, 20508 itr]: obj = (0.0726831), mov = 20508, inf = 95.5%, acc = 3.8%, imp = 171

worst case efficiency: 0.64361
[2 sec, 40675 itr]: obj = (0.0773681), mov = 40675, inf = 97.6%, acc = 2.1%, imp = 213

worst case efficiency: 0.646421
[3 sec, 54549 itr]: obj = (0.077992), mov = 54549, inf = 98.2%, acc = 1.6%, imp = 237

worst case efficiency: 0.646795
[4 sec, 62648 itr]: obj = (0.0783031), mov = 62648, inf = 98.4%, acc = 1.4%, imp = 250

worst case efficiency: 0.646982
[5 sec, 69366 itr]: obj = (0.0783031), mov = 69366, inf = 98.6%, acc = 1.3%, imp = 250

worst case efficiency: 0.646982
[6 sec, 75887 itr]: obj = (0.0783031), mov = 75887, inf = 98.7%, acc = 1.2%, imp = 250

worst case efficiency: 0.646982
[7 sec, 83443 itr]: obj = (0.0783031), mov = 83443, inf = 98.8%, acc = 1.1%, imp = 250

worst case efficiency: 0.646982
[8 sec, 92201 itr]: obj = (0.0802117), mov = 92201, inf = 98.9%, acc = 1%, imp = 258

worst case efficiency: 0.648127
[9 sec, 102128 itr]: obj = (0.0812526), mov = 102128, inf = 99%, acc = 0.9%, imp = 285

worst case efficiency: 0.648752
[10 sec, 115463 itr]: obj = (0.0847719), mov = 115463, inf = 99.1%, acc = 0.9%, imp = 309

worst case efficiency: 0.650863
[11 sec, 137412 itr]: obj = (0.0855676), mov = 137412, inf = 99.2%, acc = 0.8%, imp = 318

worst case efficiency: 0.651341
[12 sec, 166142 itr]: obj = (0.0855911), mov = 166142, inf = 99.3%, acc = 0.7%, imp = 320

worst case efficiency: 0.651355
[13 sec, 184839 itr]: obj = (0.0856248), mov = 184839, inf = 99.4%, acc = 0.6%, imp = 323

worst case efficiency: 0.651375
[14 sec, 203911 itr]: obj = (0.0856417), mov = 203911, inf = 99.4%, acc = 0.6%, imp = 324

worst case efficiency: 0.651385
[15 sec, 223087 itr]: obj = (0.0856557), mov = 223087, inf = 99.5%, acc = 0.5%, imp = 326

worst case efficiency: 0.651393
[16 sec, 237222 itr]: obj = (0.0856732), mov = 237222, inf = 99.5%, acc = 0.5%, imp = 327

worst case efficiency: 0.651404
[17 sec, 256305 itr]: obj = (0.0857293), mov = 256305, inf = 99.5%, acc = 0.5%, imp = 333

worst case efficiency: 0.651438
[18 sec, 275600 itr]: obj = (0.0857293), mov = 275600, inf = 99.5%, acc = 0.5%, imp = 333

worst case efficiency: 0.651438
[19 sec, 296191 itr]: obj = (0.0857293), mov = 296191, inf = 99.6%, acc = 0.4%, imp = 333

worst case efficiency: 0.651438
[20 sec, 316207 itr]: obj = (0.0857293), mov = 316207, inf = 99.6%, acc = 0.4%, imp = 333

worst case efficiency: 0.651438
[21 sec, 335306 itr]: obj = (0.0857293), mov = 335306, inf = 99.6%, acc = 0.4%, imp = 333

worst case efficiency: 0.651438
[22 sec, 354903 itr]: obj = (0.0857329), mov = 354903, inf = 99.6%, acc = 0.4%, imp = 334

worst case efficiency: 0.65144
[23 sec, 374037 itr]: obj = (0.0857329), mov = 374037, inf = 99.6%, acc = 0.4%, imp = 334

worst case efficiency: 0.65144
[24 sec, 393426 itr]: obj = (0.0857329), mov = 393426, inf = 99.7%, acc = 0.4%, imp = 335

worst case efficiency: 0.65144
[25 sec, 413363 itr]: obj = (0.0857454), mov = 413363, inf = 99.7%, acc = 0.4%, imp = 337

worst case efficiency: 0.651447
[26 sec, 430388 itr]: obj = (0.0857454), mov = 430388, inf = 99.7%, acc = 0.3%, imp = 337

worst case efficiency: 0.651447
[27 sec, 448178 itr]: obj = (0.0857454), mov = 448178, inf = 99.7%, acc = 0.3%, imp = 337

worst case efficiency: 0.651447
[28 sec, 465355 itr]: obj = (0.0857454), mov = 465355, inf = 99.7%, acc = 0.3%, imp = 337

worst case efficiency: 0.651447
[29 sec, 483753 itr]: obj = (0.0857454), mov = 483753, inf = 99.7%, acc = 0.3%, imp = 337

worst case efficiency: 0.651447
[30 sec, 502206 itr]: obj = (0.0857623), mov = 502206, inf = 99.7%, acc = 0.3%, imp = 338

worst case efficiency: 0.651457
[31 sec, 520892 itr]: obj = (0.0857623), mov = 520892, inf = 99.7%, acc = 0.3%, imp = 338

worst case efficiency: 0.651457
[32 sec, 539550 itr]: obj = (0.0857623), mov = 539550, inf = 99.7%, acc = 0.3%, imp = 338

worst case efficiency: 0.651457
[33 sec, 557452 itr]: obj = (0.0857623), mov = 557452, inf = 99.7%, acc = 0.3%, imp = 339

worst case efficiency: 0.651457
[34 sec, 575641 itr]: obj = (0.0857723), mov = 575641, inf = 99.7%, acc = 0.3%, imp = 341

worst case efficiency: 0.651463
[35 sec, 594700 itr]: obj = (0.0857723), mov = 594700, inf = 99.8%, acc = 0.3%, imp = 341

worst case efficiency: 0.651463
[36 sec, 613156 itr]: obj = (0.0857723), mov = 613156, inf = 99.8%, acc = 0.3%, imp = 341

worst case efficiency: 0.651463
[37 sec, 631946 itr]: obj = (0.0857723), mov = 631946, inf = 99.8%, acc = 0.3%, imp = 341

worst case efficiency: 0.651463
[38 sec, 650346 itr]: obj = (0.0857723), mov = 650346, inf = 99.8%, acc = 0.3%, imp = 341

worst case efficiency: 0.651463
[39 sec, 668859 itr]: obj = (0.0857759), mov = 668859, inf = 99.8%, acc = 0.3%, imp = 342

worst case efficiency: 0.651466
[40 sec, 687495 itr]: obj = (0.0857759), mov = 687495, inf = 99.8%, acc = 0.3%, imp = 342

worst case efficiency: 0.651466
[41 sec, 706003 itr]: obj = (0.0857759), mov = 706003, inf = 99.8%, acc = 0.3%, imp = 342

worst case efficiency: 0.651466
[42 sec, 724887 itr]: obj = (0.0857759), mov = 724887, inf = 99.8%, acc = 0.3%, imp = 342

worst case efficiency: 0.651466
[43 sec, 743498 itr]: obj = (0.0857789), mov = 743498, inf = 99.8%, acc = 0.3%, imp = 343

worst case efficiency: 0.651467
[44 sec, 762933 itr]: obj = (0.0858343), mov = 762933, inf = 99.8%, acc = 0.3%, imp = 346

worst case efficiency: 0.651501
[45 sec, 781730 itr]: obj = (0.0858512), mov = 781730, inf = 99.8%, acc = 0.3%, imp = 348

worst case efficiency: 0.651511
[46 sec, 798260 itr]: obj = (0.0858512), mov = 798260, inf = 99.8%, acc = 0.3%, imp = 348

worst case efficiency: 0.651511
[47 sec, 811799 itr]: obj = (0.0858512), mov = 811799, inf = 99.8%, acc = 0.2%, imp = 348

worst case efficiency: 0.651511
[48 sec, 828911 itr]: obj = (0.0858592), mov = 828911, inf = 99.8%, acc = 0.2%, imp = 349

worst case efficiency: 0.651515
[49 sec, 847478 itr]: obj = (0.0858592), mov = 847478, inf = 99.8%, acc = 0.2%, imp = 349

worst case efficiency: 0.651515
[50 sec, 866603 itr]: obj = (0.0858592), mov = 866603, inf = 99.8%, acc = 0.2%, imp = 349

worst case efficiency: 0.651515
[51 sec, 885594 itr]: obj = (0.0858592), mov = 885594, inf = 99.8%, acc = 0.2%, imp = 349

worst case efficiency: 0.651515
[52 sec, 903720 itr]: obj = (0.0858663), mov = 903720, inf = 99.8%, acc = 0.2%, imp = 350

worst case efficiency: 0.65152
[53 sec, 922141 itr]: obj = (0.0858979), mov = 922141, inf = 99.8%, acc = 0.2%, imp = 352

worst case efficiency: 0.651539
[54 sec, 940965 itr]: obj = (0.0859234), mov = 940965, inf = 99.8%, acc = 0.2%, imp = 353

worst case efficiency: 0.651554
[55 sec, 960431 itr]: obj = (0.0859699), mov = 960431, inf = 99.8%, acc = 0.2%, imp = 355

worst case efficiency: 0.651582
[56 sec, 979419 itr]: obj = (0.0859887), mov = 979419, inf = 99.8%, acc = 0.2%, imp = 357

worst case efficiency: 0.651593
[57 sec, 998390 itr]: obj = (0.0860463), mov = 998390, inf = 99.8%, acc = 0.2%, imp = 358

worst case efficiency: 0.651628
[58 sec, 1017244 itr]: obj = (0.0860702), mov = 1017244, inf = 99.8%, acc = 0.2%, imp = 360

worst case efficiency: 0.651642
[59 sec, 1035969 itr]: obj = (0.0861154), mov = 1035969, inf = 99.8%, acc = 0.2%, imp = 362

worst case efficiency: 0.651669
[60 sec, 1055052 itr]: obj = (0.0861154), mov = 1055052, inf = 99.8%, acc = 0.2%, imp = 362

worst case efficiency: 0.651669
[61 sec, 1074086 itr]: obj = (0.0861154), mov = 1074086, inf = 99.8%, acc = 0.2%, imp = 362

worst case efficiency: 0.651669
[62 sec, 1093911 itr]: obj = (0.086124), mov = 1093911, inf = 99.8%, acc = 0.2%, imp = 363

worst case efficiency: 0.651674
[63 sec, 1113577 itr]: obj = (0.086124), mov = 1113577, inf = 99.8%, acc = 0.2%, imp = 363

worst case efficiency: 0.651674
[64 sec, 1133024 itr]: obj = (0.086124), mov = 1133024, inf = 99.8%, acc = 0.2%, imp = 363

worst case efficiency: 0.651674
[65 sec, 1152950 itr]: obj = (0.086124), mov = 1152950, inf = 99.8%, acc = 0.2%, imp = 363

worst case efficiency: 0.651674
[66 sec, 1173344 itr]: obj = (0.086124), mov = 1173344, inf = 99.8%, acc = 0.2%, imp = 363

worst case efficiency: 0.651674
[67 sec, 1192721 itr]: obj = (0.0861335), mov = 1192721, inf = 99.8%, acc = 0.2%, imp = 364

worst case efficiency: 0.65168
[68 sec, 1211906 itr]: obj = (0.0861675), mov = 1211906, inf = 99.8%, acc = 0.2%, imp = 365

worst case efficiency: 0.6517
[69 sec, 1231126 itr]: obj = (0.0863903), mov = 1231126, inf = 99.8%, acc = 0.2%, imp = 368

worst case efficiency: 0.651834
[70 sec, 1248615 itr]: obj = (0.0863903), mov = 1248615, inf = 99.8%, acc = 0.2%, imp = 368

worst case efficiency: 0.651834
[71 sec, 1266356 itr]: obj = (0.0863984), mov = 1266356, inf = 99.8%, acc = 0.2%, imp = 369

worst case efficiency: 0.651839
[72 sec, 1284079 itr]: obj = (0.0863984), mov = 1284079, inf = 99.8%, acc = 0.2%, imp = 369

worst case efficiency: 0.651839
[73 sec, 1301940 itr]: obj = (0.0863984), mov = 1301940, inf = 99.8%, acc = 0.2%, imp = 369

worst case efficiency: 0.651839
[74 sec, 1320262 itr]: obj = (0.0863984), mov = 1320262, inf = 99.8%, acc = 0.2%, imp = 369

worst case efficiency: 0.651839
[75 sec, 1338711 itr]: obj = (0.086404), mov = 1338711, inf = 99.8%, acc = 0.2%, imp = 370

worst case efficiency: 0.651842
[76 sec, 1357286 itr]: obj = (0.086487), mov = 1357286, inf = 99.8%, acc = 0.2%, imp = 371

worst case efficiency: 0.651892
[77 sec, 1370753 itr]: obj = (0.0864881), mov = 1370753, inf = 99.8%, acc = 0.2%, imp = 372

worst case efficiency: 0.651893
[78 sec, 1388931 itr]: obj = (0.0865409), mov = 1388931, inf = 99.8%, acc = 0.2%, imp = 374

worst case efficiency: 0.651925
[79 sec, 1407766 itr]: obj = (0.0866737), mov = 1407766, inf = 99.8%, acc = 0.2%, imp = 377

worst case efficiency: 0.652004
[80 sec, 1426637 itr]: obj = (0.0866737), mov = 1426637, inf = 99.8%, acc = 0.2%, imp = 377

worst case efficiency: 0.652004
[81 sec, 1444938 itr]: obj = (0.0866737), mov = 1444938, inf = 99.8%, acc = 0.2%, imp = 377

worst case efficiency: 0.652004
[82 sec, 1462518 itr]: obj = (0.0866737), mov = 1462518, inf = 99.8%, acc = 0.2%, imp = 377

worst case efficiency: 0.652004
[83 sec, 1479920 itr]: obj = (0.0866737), mov = 1479920, inf = 99.8%, acc = 0.2%, imp = 377

worst case efficiency: 0.652004
[84 sec, 1498094 itr]: obj = (0.0866961), mov = 1498094, inf = 99.8%, acc = 0.2%, imp = 378

worst case efficiency: 0.652018
[85 sec, 1516996 itr]: obj = (0.0867514), mov = 1516996, inf = 99.8%, acc = 0.2%, imp = 382

worst case efficiency: 0.652051
[86 sec, 1536397 itr]: obj = (0.0867539), mov = 1536397, inf = 99.8%, acc = 0.2%, imp = 383

worst case efficiency: 0.652052
[87 sec, 1554915 itr]: obj = (0.0867539), mov = 1554915, inf = 99.8%, acc = 0.2%, imp = 383

worst case efficiency: 0.652052
[88 sec, 1573521 itr]: obj = (0.0867539), mov = 1573521, inf = 99.8%, acc = 0.2%, imp = 383

worst case efficiency: 0.652052
[89 sec, 1593071 itr]: obj = (0.0867686), mov = 1593071, inf = 99.8%, acc = 0.2%, imp = 384

worst case efficiency: 0.652061
[90 sec, 1612128 itr]: obj = (0.0868888), mov = 1612128, inf = 99.8%, acc = 0.2%, imp = 386

worst case efficiency: 0.652133
[90 sec, 1612128 itr]: obj = (0.0868888), mov = 1612128, inf = 99.8%, acc = 0.2%, imp = 386

worst case efficiency: 0.652133
1612128 iterations, 1612128 moves performed in 90 seconds
Feasible solution: obj = (0.0868888)

Run output...
FINAL SOLUTION
Worst case efficiency: 0.652133
Mapping: 0->7, 1->46, 2->8, 3->11, 4->42, 5->47, 6->37, 7->31, 8->21, 9->35, 10->14, 11->24, 12->22, 13->33, 14->26, 15->10, 16->38, 17->32, 18->11, 19->39, 20->23, 21->21, 22->44, 23->3, 24->15, 25->33, 26->7, 27->9, 28->10, 29->21, 30->6, 31->22, 32->36, 33->12, 34->19, 35->30, 36->17, 37->6, 38->42, 39->15, 40->5, 41->36, 42->37, 43->41, 44->23, 45->26, 46->39, 47->29, 48->2, 49->26, 50->2, 51->46, 52->4, 53->38, 54->24, 55->18, 56->27, 57->8, 58->4, 59->45, 60->6, 61->12, 62->27, 63->2, 64->30, 65->19, 66->5, 67->3, 68->24, 69->32, 70->0, 71->37, 72->26, 73->13, 74->20, 75->37, 76->17, 77->8, 78->32, 79->47, 80->42, 81->25, 82->26, 83->45, 84->19, 85->15, 86->16, 87->2, 88->10, 89->11, 90->22, 91->8, 92->40, 93->45, 94->8, 95->39, 96->16, 97->6, 98->31, 99->31, 100->26, 101->42, 102->6, 103->34, 104->34, 105->9, 106->1, 107->10, 108->16, 109->35, 110->14, 111->7, 112->16, 113->11, 114->40, 115->33, 116->3, 117->29, 118->21, 119->40, 120->43, 121->45, 122->0, 123->19, 124->33, 125->13, 126->38, 127->1, 128->11, 129->30, 130->31, 131->41, 132->34, 133->37, 134->5, 135->22, 136->5, 137->7, 138->24, 139->40, 140->12, 141->22, 142->28, 143->1, 144->3, 145->0, 146->36, 147->32, 148->43, 149->12, 150->35, 151->30, 152->10, 153->31, 154->39, 155->36, 156->9, 157->18, 158->24, 159->0, 160->16, 161->45, 162->5, 163->34, 164->8, 165->18, 166->16, 167->29, 168->47, 169->33, 170->18, 171->1, 172->5, 173->23, 174->46, 175->3, 176->27, 177->21, 178->27, 179->7, 180->25, 181->21, 182->12, 183->1, 184->1, 185->36, 186->40, 187->23, 188->15, 189->15, 190->20, 191->4, 192->4, 193->24, 194->41, 195->23, 196->9, 197->44, 198->28, 199->17, 200->40, 201->32, 202->14, 203->39, 204->38, 205->4, 206->42, 207->9, 208->19, 209->43, 210->35, 211->29, 212->35, 213->13, 214->9, 215->37, 216->43, 217->18, 218->7, 219->44, 220->20, 221->17, 222->17, 223->2, 224->0, 225->22, 226->28, 227->39, 228->25, 229->18, 230->13, 231->46, 232->47, 233->32, 234->28, 235->4, 236->28, 237->28, 238->34, 239->41, 240->36, 241->44, 242->47, 243->14, 244->25, 245->14, 246->20, 247->41, 248->45, 249->29, 250->25, 251->38, 252->42, 253->15, 254->6, 255->43, 256->29, 257->27, 258->33, 259->43, 260->13, 261->46, 262->38, 263->44, 264->2, 265->0, 266->30, 267->31, 268->41, 269->30, 270->44, 271->27, 272->14, 273->23, 274->20, 275->47, 276->10, 277->12, 278->20, 279->46, 280->17, 281->11, 282->3, 283->25, 284->34, 285->19, 286->35, 287->13
Number of tasks per core:
	6	6	6	6	6	6
	6	6	6	6	6	6
	6	6	6	6	6	6
	6	6	6	6	6	6
	6	6	6	6	6	6
	6	6	6	6	6	6
	6	6	6	6	6	6
	6	6	6	6	6	6
Average CPI map:
	1.3323	1.18536	1.20074	1.53992	4.02552	1.06987
	1.25915	2.54411	5.86992	1.67591	6.44637	1.35229
	2.74457	2.25838	3.04723	1.95695	2.25899	1.8497
	8.05995	2.76289	2.84439	2.42074	4.73217	1.58722
	3.99205	2.16079	5.74138	4.3545	2.41535	0.770299
	1.61829	2.37063	6.66264	7.21076	2.5565	1.5149
	1.86743	2.07453	4.9828	2.03296	2.09237	1.34788
	1.69348	1.20117	1.83251	6.95946	1.54888	0.973774
Efficiency map:
	0.996713	0.929315	0.880591	0.915586	0.962803	0.995951
	0.799076	0.68091	0.834825	0.652665	0.84688	0.824744
	0.863889	0.653169	0.667561	0.662221	0.652149	0.822558
	0.970939	0.661194	0.663002	0.655448	0.795075	0.812046
	0.897185	0.653297	0.740672	0.682296	0.652595	0.681168
	0.793477	0.653096	0.715839	0.82357	0.668089	0.803396
	0.871815	0.66368	0.743627	0.652133	0.662297	0.775767
	0.832154	0.659302	0.662136	0.892093	0.670205	0.795056
==============================================================================
Local Solver optimizer for EML demonstration
==============================================================================

Option values: --wld-idx 2 --global-tlim 90 --seed 801

Starting the Optimization Process
