==============================================================================
LNS optimizer for EML demonstration
==============================================================================

Option values: --wld-idx 9 --prec 10000 --step 0 --global-tlim 90 --global-iter 1000 --local-tlim 3 --local-nsol 1 --restart-base 100 --restart-strat luby --seed 701

Starting the Optimization Process
reserved_tasks None
Finding a first solution
LNS iteration #0 ========================================
- worst case average CPI: 2.372
- worst case efficiency: 0.657
- efficiency to beat: 0.657
- normalized lower bound 1033
--- checking solution
--- solution ok! Maximum rounding error: 0.000046
- solution found, obj var is: 1149
- de-normalized obj var: 0.668940
- time (local/global): 0.013/0.013
- branches (local/global): 874/874
- fails (local/global): 400/400
- lns time: 0.018000
- lns branches: 874
- lns fails: 400
LNS iteration #1 ========================================
- worst case average CPI: 1.810
- worst case efficiency: 0.667
- efficiency to beat: 0.667
- normalized lower bound 1199
--- checking solution
--- solution ok! Maximum rounding error: 0.000121
- solution found, obj var is: 1215
- de-normalized obj var: 0.672900
- time (local/global): 0.004/0.022
- branches (local/global): 273/1147
- fails (local/global): 119/519
- lns time: 0.008000
- lns branches: 273
- lns fails: 119
LNS iteration #2 ========================================
- worst case average CPI: 1.810
- worst case efficiency: 0.669
- efficiency to beat: 0.669
- normalized lower bound 1239
--- checking solution
--- solution ok! Maximum rounding error: 0.000002
- solution found, obj var is: 1262
- de-normalized obj var: 0.675720
- time (local/global): 0.025/0.051
- branches (local/global): 1306/2453
- fails (local/global): 600/1119
- lns time: 0.030000
- lns branches: 1306
- lns fails: 600
LNS iteration #3 ========================================
- worst case average CPI: 1.896
- worst case efficiency: 0.673
- efficiency to beat: 0.673
- normalized lower bound 1294
--- checking solution
--- solution ok! Maximum rounding error: 0.000026
- solution found, obj var is: 2005
- de-normalized obj var: 0.720300
- time (local/global): 0.003/0.059
- branches (local/global): 237/2690
- fails (local/global): 100/1219
- lns time: 0.009000
- lns branches: 237
- lns fails: 100
LNS iteration #4 ========================================
- worst case average CPI: 1.896
- worst case efficiency: 0.674
- efficiency to beat: 0.674
- normalized lower bound 1310
--- checking solution
--- solution ok! Maximum rounding error: 0.000080
- solution found, obj var is: 4207
- de-normalized obj var: 0.852420
- time (local/global): 0.000/0.065
- branches (local/global): 16/2706
- fails (local/global): 0/1219
- lns time: 0.004000
- lns branches: 16
- lns fails: 0
LNS iteration #5 ========================================
- worst case average CPI: 1.896
- worst case efficiency: 0.677
- efficiency to beat: 0.677
- normalized lower bound 1365
--- checking solution
--- solution ok! Maximum rounding error: 0.000064
- solution found, obj var is: 1841
- de-normalized obj var: 0.710460
- time (local/global): 0.016/0.085
- branches (local/global): 1086/3792
- fails (local/global): 500/1719
- lns time: 0.020000
- lns branches: 1086
- lns fails: 500
LNS iteration #6 ========================================
- worst case average CPI: 1.896
- worst case efficiency: 0.683
- efficiency to beat: 0.683
- normalized lower bound 1466
--- checking solution
--- solution ok! Maximum rounding error: 0.000089
- solution found, obj var is: 1568
- de-normalized obj var: 0.694080
- time (local/global): 0.000/0.089
- branches (local/global): 16/3808
- fails (local/global): 0/1719
- lns time: 0.004000
- lns branches: 16
- lns fails: 0
LNS iteration #7 ========================================
- worst case average CPI: 1.896
- worst case efficiency: 0.688
- efficiency to beat: 0.688
- normalized lower bound 1546
--- checking solution
--- solution ok! Maximum rounding error: 0.000075
- solution found, obj var is: 1606
- de-normalized obj var: 0.696360
- time (local/global): 0.011/0.104
- branches (local/global): 867/4675
- fails (local/global): 400/2119
- lns time: 0.015000
- lns branches: 867
- lns fails: 400
LNS iteration #8 ========================================
- worst case average CPI: 1.896
- worst case efficiency: 0.691
- efficiency to beat: 0.691
- normalized lower bound 1593
--- checking solution
--- solution ok! Maximum rounding error: 0.000047
- solution found, obj var is: 1598
- de-normalized obj var: 0.695880
- time (local/global): 0.001/0.109
- branches (local/global): 15/4690
- fails (local/global): 5/2124
- lns time: 0.004000
- lns branches: 15
- lns fails: 5
LNS iteration #9 ========================================
- worst case average CPI: 1.896
- worst case efficiency: 0.691
- efficiency to beat: 0.691
- normalized lower bound 1597
--- checking solution
--- solution ok! Maximum rounding error: 0.000033
- solution found, obj var is: 1610
- de-normalized obj var: 0.696600
- time (local/global): 0.125/0.237
- branches (local/global): 9180/13870
- fails (local/global): 4400/6524
- lns time: 0.129000
- lns branches: 9180
- lns fails: 4400
LNS iteration #10 ========================================
- worst case average CPI: 1.859
- worst case efficiency: 0.693
- efficiency to beat: 0.693
- normalized lower bound 1635
--- checking solution
--- solution ok! Maximum rounding error: 0.000100
- solution found, obj var is: 1669
- de-normalized obj var: 0.700140
- time (local/global): 0.005/0.246
- branches (local/global): 462/14332
- fails (local/global): 204/6728
- lns time: 0.009000
- lns branches: 462
- lns fails: 204
LNS iteration #11 ========================================
- worst case average CPI: 1.675
- worst case efficiency: 0.695
- efficiency to beat: 0.695
- normalized lower bound 1674
--- checking solution
--- solution ok! Maximum rounding error: 0.000000
- solution found, obj var is: 1767
- de-normalized obj var: 0.706020
- time (local/global): 0.492/0.742
- branches (local/global): 40714/55046
- fails (local/global): 19800/26528
- lns time: 0.496000
- lns branches: 40714
- lns fails: 19800
LNS iteration #12 ========================================
- worst case average CPI: 1.148
- worst case efficiency: 0.696
- efficiency to beat: 0.696
- normalized lower bound 1682
--- checking solution
--- solution ok! Maximum rounding error: 0.000087
- solution found, obj var is: 1699
- de-normalized obj var: 0.701940
- time (local/global): 0.136/0.882
- branches (local/global): 9601/64647
- fails (local/global): 4600/31128
- lns time: 0.140000
- lns branches: 9601
- lns fails: 4600
LNS iteration #13 ========================================
- worst case average CPI: 1.148
- worst case efficiency: 0.697
- efficiency to beat: 0.697
- normalized lower bound 1693
--- checking solution
--- solution ok! Maximum rounding error: 0.000063
- solution found, obj var is: 1770
- de-normalized obj var: 0.706200
- time (local/global): 0.000/0.886
- branches (local/global): 53/64700
- fails (local/global): 16/31144
- lns time: 0.008000
- lns branches: 53
- lns fails: 16
LNS iteration #14 ========================================
- worst case average CPI: 1.148
- worst case efficiency: 0.700
- efficiency to beat: 0.700
- normalized lower bound 1756
--- checking solution
--- solution ok! Maximum rounding error: 0.000073
- solution found, obj var is: 1795
- de-normalized obj var: 0.707700
- time (local/global): 2.716/3.610
- branches (local/global): 234618/299318
- fails (local/global): 114919/146063
- lns time: 2.721000
- lns branches: 234618
- lns fails: 114919
LNS iteration #15 ========================================
- worst case average CPI: 1.148
- worst case efficiency: 0.701
- efficiency to beat: 0.701
- normalized lower bound 1767
--- checking solution
--- solution ok! Maximum rounding error: 0.000055
- solution found, obj var is: 1955
- de-normalized obj var: 0.717300
- time (local/global): 0.001/3.616
- branches (local/global): 22/299340
- fails (local/global): 0/146063
- lns time: 0.005000
- lns branches: 22
- lns fails: 0
LNS iteration #16 ========================================
- worst case average CPI: 1.148
- worst case efficiency: 0.703
- efficiency to beat: 0.703
- normalized lower bound 1804
--- checking solution
--- solution ok! Maximum rounding error: 0.000062
- solution found, obj var is: 1817
- de-normalized obj var: 0.709020
- time (local/global): 0.001/3.621
- branches (local/global): 48/299388
- fails (local/global): 14/146077
- lns time: 0.005000
- lns branches: 48
- lns fails: 14
LNS iteration #17 ========================================
- worst case average CPI: 1.148
- worst case efficiency: 0.703
- efficiency to beat: 0.703
- normalized lower bound 1809
--- checking solution
--- solution ok! Maximum rounding error: 0.000062
- solution found, obj var is: 1912
- de-normalized obj var: 0.714720
- time (local/global): 0.006/3.631
- branches (local/global): 456/299844
- fails (local/global): 200/146277
- lns time: 0.010000
- lns branches: 456
- lns fails: 200
LNS iteration #18 ========================================
- worst case average CPI: 1.148
- worst case efficiency: 0.707
- efficiency to beat: 0.707
- normalized lower bound 1870
--- checking solution
--- solution ok! Maximum rounding error: 0.000158
- solution found, obj var is: 2118
- de-normalized obj var: 0.727080
- time (local/global): 0.001/3.636
- branches (local/global): 25/299869
- fails (local/global): 2/146279
- lns time: 0.005000
- lns branches: 25
- lns fails: 2
LNS iteration #19 ========================================
- worst case average CPI: 1.148
- worst case efficiency: 0.707
- efficiency to beat: 0.707
- normalized lower bound 1871
--- checking solution
--- solution ok! Maximum rounding error: 0.000018
- solution found, obj var is: 1884
- de-normalized obj var: 0.713040
- time (local/global): 0.696/4.336
- branches (local/global): 52700/352569
- fails (local/global): 25607/171886
- lns time: 0.700000
- lns branches: 52700
- lns fails: 25607
LNS iteration #20 ========================================
- worst case average CPI: 1.148
- worst case efficiency: 0.708
- efficiency to beat: 0.708
- normalized lower bound 1885
--- checking solution
--- solution ok! Maximum rounding error: 0.000032
- solution found, obj var is: 1962
- de-normalized obj var: 0.717720
- time (local/global): 0.001/4.341
- branches (local/global): 28/352597
- fails (local/global): 4/171890
- lns time: 0.005000
- lns branches: 28
- lns fails: 4
LNS iteration #21 ========================================
- worst case average CPI: 1.148
- worst case efficiency: 0.708
- efficiency to beat: 0.708
- normalized lower bound 1888
--- checking solution
--- solution ok! Maximum rounding error: 0.000173
- solution found, obj var is: 2135
- de-normalized obj var: 0.728100
- time (local/global): 0.001/4.346
- branches (local/global): 76/352673
- fails (local/global): 28/171918
- lns time: 0.005000
- lns branches: 76
- lns fails: 28
LNS iteration #22 ========================================
- worst case average CPI: 1.148
- worst case efficiency: 0.709
- efficiency to beat: 0.709
- normalized lower bound 1897
--- checking solution
--- solution ok! Maximum rounding error: 0.000211
- solution found, obj var is: 1968
- de-normalized obj var: 0.718080
- time (local/global): 0.235/4.585
- branches (local/global): 21701/374374
- fails (local/global): 10490/182408
- lns time: 0.239000
- lns branches: 21701
- lns fails: 10490
LNS iteration #23 ========================================
- worst case average CPI: 1.148
- worst case efficiency: 0.712
- efficiency to beat: 0.712
- normalized lower bound 1955
--- checking solution
--- solution ok! Maximum rounding error: 0.000051
- solution found, obj var is: 3744
- de-normalized obj var: 0.824640
- time (local/global): 0.001/4.590
- branches (local/global): 48/374422
- fails (local/global): 13/182421
- lns time: 0.005000
- lns branches: 48
- lns fails: 13
LNS iteration #24 ========================================
- worst case average CPI: 1.148
- worst case efficiency: 0.709
- efficiency to beat: 0.709
- normalized lower bound 1893
--- checking solution
--- solution ok! Maximum rounding error: 0.000059
- solution found, obj var is: 2030
- de-normalized obj var: 0.721800
- time (local/global): 0.082/4.676
- branches (local/global): 6694/381116
- fails (local/global): 3219/185640
- lns time: 0.086000
- lns branches: 6694
- lns fails: 3219
LNS iteration #25 ========================================
- worst case average CPI: 1.148
- worst case efficiency: 0.715
- efficiency to beat: 0.715
- normalized lower bound 2000
--- checking solution
--- solution ok! Maximum rounding error: 0.000045
- solution found, obj var is: 2489
- de-normalized obj var: 0.749340
- time (local/global): 0.001/4.681
- branches (local/global): 22/381138
- fails (local/global): 0/185640
- lns time: 0.005000
- lns branches: 22
- lns fails: 0
LNS iteration #26 ========================================
- worst case average CPI: 1.148
- worst case efficiency: 0.716
- efficiency to beat: 0.716
- normalized lower bound 2010
--- checking solution
--- solution ok! Maximum rounding error: 0.000078
- solution found, obj var is: 2287
- de-normalized obj var: 0.737220
- time (local/global): 0.001/4.686
- branches (local/global): 23/381161
- fails (local/global): 1/185641
- lns time: 0.005000
- lns branches: 23
- lns fails: 1
LNS iteration #27 ========================================
- worst case average CPI: 1.148
- worst case efficiency: 0.718
- efficiency to beat: 0.718
- normalized lower bound 2044
--- checking solution
--- solution ok! Maximum rounding error: 0.000000
- solution found, obj var is: 2112
- de-normalized obj var: 0.726720
- time (local/global): 0.001/4.691
- branches (local/global): 168/381329
- fails (local/global): 77/185718
- lns time: 0.005000
- lns branches: 168
- lns fails: 77
LNS iteration #28 ========================================
- worst case average CPI: 1.148
- worst case efficiency: 0.722
- efficiency to beat: 0.722
- normalized lower bound 2109
--- checking solution
--- solution ok! Maximum rounding error: 0.000052
- solution found, obj var is: 2172
- de-normalized obj var: 0.730320
- time (local/global): 0.007/4.702
- branches (local/global): 396/381725
- fails (local/global): 178/185896
- lns time: 0.011000
- lns branches: 396
- lns fails: 178
LNS iteration #29 ========================================
- worst case average CPI: 1.148
- worst case efficiency: 0.722
- efficiency to beat: 0.722
- normalized lower bound 2118
--- checking solution
--- solution ok! Maximum rounding error: 0.000057
- solution found, obj var is: 2134
- de-normalized obj var: 0.728040
- time (local/global): 0.021/4.727
- branches (local/global): 1988/383713
- fails (local/global): 934/186830
- lns time: 0.025000
- lns branches: 1988
- lns fails: 934
LNS iteration #30 ========================================
- worst case average CPI: 1.148
- worst case efficiency: 0.727
- efficiency to beat: 0.727
- normalized lower bound 2195
--- checking solution
--- solution ok! Maximum rounding error: 0.000023
- solution found, obj var is: 3349
- de-normalized obj var: 0.800940
- time (local/global): 0.003/4.734
- branches (local/global): 237/383950
- fails (local/global): 100/186930
- lns time: 0.007000
- lns branches: 237
- lns fails: 100
LNS iteration #31 ========================================
- worst case average CPI: 1.148
- worst case efficiency: 0.727
- efficiency to beat: 0.727
- normalized lower bound 2205
--- checking solution
--- solution ok! Maximum rounding error: 0.000075
- solution found, obj var is: 2205
- de-normalized obj var: 0.732300
- time (local/global): 0.006/4.744
- branches (local/global): 413/384363
- fails (local/global): 189/187119
- lns time: 0.010000
- lns branches: 413
- lns fails: 189
LNS iteration #32 ========================================
- worst case average CPI: 1.148
- worst case efficiency: 0.728
- efficiency to beat: 0.728
- normalized lower bound 2224
--- checking solution
--- solution ok! Maximum rounding error: 0.000102
- solution found, obj var is: 2272
- de-normalized obj var: 0.736320
- time (local/global): 0.001/4.749
- branches (local/global): 22/384385
- fails (local/global): 0/187119
- lns time: 0.005000
- lns branches: 22
- lns fails: 0
LNS iteration #33 ========================================
- worst case average CPI: 1.148
- worst case efficiency: 0.730
- efficiency to beat: 0.730
- normalized lower bound 2256
--- checking solution
--- solution ok! Maximum rounding error: 0.000090
- solution found, obj var is: 2380
- de-normalized obj var: 0.742800
- time (local/global): 0.001/4.754
- branches (local/global): 37/384422
- fails (local/global): 8/187127
- lns time: 0.005000
- lns branches: 37
- lns fails: 8
LNS iteration #34 ========================================
- worst case average CPI: 1.148
- worst case efficiency: 0.733
- efficiency to beat: 0.733
- normalized lower bound 2308
--- checking solution
--- solution ok! Maximum rounding error: 0.000313
- solution found, obj var is: 2316
- de-normalized obj var: 0.738960
- time (local/global): 0.002/4.760
- branches (local/global): 270/384692
- fails (local/global): 124/187251
- lns time: 0.006000
- lns branches: 270
- lns fails: 124
LNS iteration #35 ========================================
- worst case average CPI: 1.148
- worst case efficiency: 0.736
- efficiency to beat: 0.736
- normalized lower bound 2347
--- checking solution
--- solution ok! Maximum rounding error: 0.000025
- solution found, obj var is: 2367
- de-normalized obj var: 0.742020
- time (local/global): 0.003/4.767
- branches (local/global): 257/384949
- fails (local/global): 109/187360
- lns time: 0.007000
- lns branches: 257
- lns fails: 109
LNS iteration #36 ========================================
- worst case average CPI: 1.148
- worst case efficiency: 0.738
- efficiency to beat: 0.738
- normalized lower bound 2383
--- checking solution
--- solution ok! Maximum rounding error: 0.000141
- solution found, obj var is: 2409
- de-normalized obj var: 0.744540
- time (local/global): 0.001/4.772
- branches (local/global): 23/384972
- fails (local/global): 1/187361
- lns time: 0.006000
- lns branches: 23
- lns fails: 1
LNS iteration #37 ========================================
- worst case average CPI: 1.148
- worst case efficiency: 0.739
- efficiency to beat: 0.739
- normalized lower bound 2396
--- checking solution
--- solution ok! Maximum rounding error: 0.000022
- solution found, obj var is: 4163
- de-normalized obj var: 0.849780
- time (local/global): 0.003/4.780
- branches (local/global): 237/385209
- fails (local/global): 100/187461
- lns time: 0.007000
- lns branches: 237
- lns fails: 100
LNS iteration #38 ========================================
- worst case average CPI: 1.148
- worst case efficiency: 0.739
- efficiency to beat: 0.739
- normalized lower bound 2400
--- checking solution
--- solution ok! Maximum rounding error: 0.000001
- solution found, obj var is: 2850
- de-normalized obj var: 0.771000
- time (local/global): 0.017/4.801
- branches (local/global): 867/386076
- fails (local/global): 400/187861
- lns time: 0.024000
- lns branches: 867
- lns fails: 400
LNS iteration #39 ========================================
- worst case average CPI: 1.148
- worst case efficiency: 0.743
- efficiency to beat: 0.743
- normalized lower bound 2467
--- checking solution
--- solution ok! Maximum rounding error: 0.000030
- solution found, obj var is: 2577
- de-normalized obj var: 0.754620
- time (local/global): 0.005/4.813
- branches (local/global): 240/386316
- fails (local/global): 102/187963
- lns time: 0.009000
- lns branches: 240
- lns fails: 102
LNS iteration #40 ========================================
- worst case average CPI: 1.148
- worst case efficiency: 0.743
- efficiency to beat: 0.743
- normalized lower bound 2467
--- checking solution
--- solution ok! Maximum rounding error: 0.000044
- solution found, obj var is: 2507
- de-normalized obj var: 0.750420
- time (local/global): 0.001/4.818
- branches (local/global): 56/386372
- fails (local/global): 17/187980
- lns time: 0.007000
- lns branches: 56
- lns fails: 17
LNS iteration #41 ========================================
- worst case average CPI: 1.148
- worst case efficiency: 0.746
- efficiency to beat: 0.746
- normalized lower bound 2523
--- checking solution
--- solution ok! Maximum rounding error: 0.000048
- solution found, obj var is: 3785
- de-normalized obj var: 0.827100
- time (local/global): 0.000/4.824
- branches (local/global): 12/386384
- fails (local/global): 0/187980
- lns time: 0.006000
- lns branches: 12
- lns fails: 0
LNS iteration #42 ========================================
- worst case average CPI: 1.148
- worst case efficiency: 0.747
- efficiency to beat: 0.747
- normalized lower bound 2541
--- checking solution
--- solution ok! Maximum rounding error: 0.000094
- solution found, obj var is: 2881
- de-normalized obj var: 0.772860
- time (local/global): 0.029/4.859
- branches (local/global): 2536/388920
- fails (local/global): 1200/189180
- lns time: 0.033000
- lns branches: 2536
- lns fails: 1200
LNS iteration #43 ========================================
- worst case average CPI: 1.148
- worst case efficiency: 0.750
- efficiency to beat: 0.750
- normalized lower bound 2591
--- checking solution
--- solution ok! Maximum rounding error: 0.000043
- solution found, obj var is: 2732
- de-normalized obj var: 0.763920
- time (local/global): 0.113/4.976
- branches (local/global): 7927/396847
- fails (local/global): 3800/192980
- lns time: 0.117000
- lns branches: 7927
- lns fails: 3800
LNS iteration #44 ========================================
- worst case average CPI: 1.148
- worst case efficiency: 0.754
- efficiency to beat: 0.754
- normalized lower bound 2653
--- checking solution
--- solution ok! Maximum rounding error: 0.000043
- solution found, obj var is: 2814
- de-normalized obj var: 0.768840
- time (local/global): 0.031/5.011
- branches (local/global): 2760/399607
- fails (local/global): 1301/194281
- lns time: 0.035000
- lns branches: 2760
- lns fails: 1301
LNS iteration #45 ========================================
- worst case average CPI: 1.148
- worst case efficiency: 0.763
- efficiency to beat: 0.763
- normalized lower bound 2798
--- checking solution
--- solution ok! Maximum rounding error: 0.000011
- solution found, obj var is: 2842
- de-normalized obj var: 0.770520
- time (local/global): 0.001/5.016
- branches (local/global): 22/399629
- fails (local/global): 0/194281
- lns time: 0.009000
- lns branches: 22
- lns fails: 0
LNS iteration #46 ========================================
- worst case average CPI: 1.148
- worst case efficiency: 0.763
- efficiency to beat: 0.763
- normalized lower bound 2800
--- checking solution
--- solution ok! Maximum rounding error: 0.000040
- solution found, obj var is: 3016
- de-normalized obj var: 0.780960
- time (local/global): 0.003/5.027
- branches (local/global): 235/399864
- fails (local/global): 100/194381
- lns time: 0.007000
- lns branches: 235
- lns fails: 100
LNS iteration #47 ========================================
- worst case average CPI: 1.148
- worst case efficiency: 0.767
- efficiency to beat: 0.767
- normalized lower bound 2866
--- checking solution
--- solution ok! Maximum rounding error: 0.000028
- solution found, obj var is: 2931
- de-normalized obj var: 0.775860
- time (local/global): 0.003/5.034
- branches (local/global): 236/400100
- fails (local/global): 100/194481
- lns time: 0.007000
- lns branches: 236
- lns fails: 100
LNS iteration #48 ========================================
- worst case average CPI: 1.338
- worst case efficiency: 0.767
- efficiency to beat: 0.767
- normalized lower bound 2872
--- checking solution
--- solution ok! Maximum rounding error: 0.000044
- solution found, obj var is: 2967
- de-normalized obj var: 0.778020
- time (local/global): 0.001/5.039
- branches (local/global): 27/400127
- fails (local/global): 3/194484
- lns time: 0.005000
- lns branches: 27
- lns fails: 3
LNS iteration #49 ========================================
- worst case average CPI: 1.338
- worst case efficiency: 0.771
- efficiency to beat: 0.771
- normalized lower bound 2928
--- checking solution
--- solution ok! Maximum rounding error: 0.000011
- solution found, obj var is: 2993
- de-normalized obj var: 0.779580
- time (local/global): 0.003/5.046
- branches (local/global): 113/400240
- fails (local/global): 45/194529
- lns time: 0.007000
- lns branches: 113
- lns fails: 45
LNS iteration #50 ========================================
- worst case average CPI: 1.338
- worst case efficiency: 0.772
- efficiency to beat: 0.772
- normalized lower bound 2955
--- checking solution
--- solution ok! Maximum rounding error: 0.000093
- solution found, obj var is: 3769
- de-normalized obj var: 0.826140
- time (local/global): 0.001/5.051
- branches (local/global): 21/400261
- fails (local/global): 0/194529
- lns time: 0.006000
- lns branches: 21
- lns fails: 0
LNS iteration #51 ========================================
- worst case average CPI: 1.338
- worst case efficiency: 0.769
- efficiency to beat: 0.769
- normalized lower bound 2904
--- checking solution
--- solution ok! Maximum rounding error: 0.000110
- solution found, obj var is: 3114
- de-normalized obj var: 0.786840
- time (local/global): 0.017/5.073
- branches (local/global): 1295/401556
- fails (local/global): 600/195129
- lns time: 0.022000
- lns branches: 1295
- lns fails: 600
LNS iteration #52 ========================================
- worst case average CPI: 1.338
- worst case efficiency: 0.776
- efficiency to beat: 0.776
- normalized lower bound 3010
--- checking solution
--- solution ok! Maximum rounding error: 0.000045
- solution found, obj var is: 3059
- de-normalized obj var: 0.783540
- time (local/global): 0.015/5.093
- branches (local/global): 1088/402644
- fails (local/global): 500/195629
- lns time: 0.019000
- lns branches: 1088
- lns fails: 500
LNS iteration #53 ========================================
- worst case average CPI: 1.338
- worst case efficiency: 0.776
- efficiency to beat: 0.776
- normalized lower bound 3013
--- checking solution
--- solution ok! Maximum rounding error: 0.000024
- solution found, obj var is: 3042
- de-normalized obj var: 0.782520
- time (local/global): 0.003/5.100
- branches (local/global): 193/402837
- fails (local/global): 86/195715
- lns time: 0.007000
- lns branches: 193
- lns fails: 86
LNS iteration #54 ========================================
- worst case average CPI: 1.338
- worst case efficiency: 0.779
- efficiency to beat: 0.779
- normalized lower bound 3062
--- checking solution
--- solution ok! Maximum rounding error: 0.000072
- solution found, obj var is: 3069
- de-normalized obj var: 0.784140
- time (local/global): 0.008/5.112
- branches (local/global): 498/403335
- fails (local/global): 223/195938
- lns time: 0.012000
- lns branches: 498
- lns fails: 223
LNS iteration #55 ========================================
- worst case average CPI: 1.338
- worst case efficiency: 0.780
- efficiency to beat: 0.780
- normalized lower bound 3085
--- checking solution
--- solution ok! Maximum rounding error: 0.000128
- solution found, obj var is: 3170
- de-normalized obj var: 0.790200
- time (local/global): 0.727/5.843
- branches (local/global): 51314/454649
- fails (local/global): 24971/220909
- lns time: 0.731000
- lns branches: 51314
- lns fails: 24971
LNS iteration #56 ========================================
- worst case average CPI: 1.338
- worst case efficiency: 0.781
- efficiency to beat: 0.781
- normalized lower bound 3100
--- checking solution
--- solution ok! Maximum rounding error: 0.000059
- solution found, obj var is: 3313
- de-normalized obj var: 0.798780
- time (local/global): 0.001/5.848
- branches (local/global): 22/454671
- fails (local/global): 0/220909
- lns time: 0.005000
- lns branches: 22
- lns fails: 0
LNS iteration #57 ========================================
- worst case average CPI: 1.338
- worst case efficiency: 0.783
- efficiency to beat: 0.783
- normalized lower bound 3126
--- checking solution
--- solution ok! Maximum rounding error: 0.000073
- solution found, obj var is: 3251
- de-normalized obj var: 0.795060
- time (local/global): 0.583/6.435
- branches (local/global): 39597/494268
- fails (local/global): 19300/240209
- lns time: 0.587000
- lns branches: 39597
- lns fails: 19300
LNS iteration #58 ========================================
- worst case average CPI: 1.338
- worst case efficiency: 0.784
- efficiency to beat: 0.784
- normalized lower bound 3145
--- checking solution
--- solution ok! Maximum rounding error: 0.000018
- solution found, obj var is: 3217
- de-normalized obj var: 0.793020
- time (local/global): 0.001/6.440
- branches (local/global): 23/494291
- fails (local/global): 1/240210
- lns time: 0.005000
- lns branches: 23
- lns fails: 1
LNS iteration #59 ========================================
- worst case average CPI: 1.338
- worst case efficiency: 0.784
- efficiency to beat: 0.784
- normalized lower bound 3149
--- checking solution
--- solution ok! Maximum rounding error: 0.000079
- solution found, obj var is: 3152
- de-normalized obj var: 0.789120
- time (local/global): 0.010/6.454
- branches (local/global): 838/495129
- fails (local/global): 392/240602
- lns time: 0.014000
- lns branches: 838
- lns fails: 392
LNS iteration #60 ========================================
- worst case average CPI: 1.338
- worst case efficiency: 0.786
- efficiency to beat: 0.786
- normalized lower bound 3187
--- checking solution
--- solution ok! Maximum rounding error: 0.000044
- solution found, obj var is: 3864
- de-normalized obj var: 0.831840
- time (local/global): 0.020/6.478
- branches (local/global): 1725/496854
- fails (local/global): 800/241402
- lns time: 0.024000
- lns branches: 1725
- lns fails: 800
LNS iteration #61 ========================================
- worst case average CPI: 1.338
- worst case efficiency: 0.787
- efficiency to beat: 0.787
- normalized lower bound 3192
--- checking solution
--- solution ok! Maximum rounding error: 0.000077
- solution found, obj var is: 3195
- de-normalized obj var: 0.791700
- time (local/global): 0.004/6.486
- branches (local/global): 263/497117
- fails (local/global): 112/241514
- lns time: 0.008000
- lns branches: 263
- lns fails: 112
LNS iteration #62 ========================================
- worst case average CPI: 1.338
- worst case efficiency: 0.787
- efficiency to beat: 0.787
- normalized lower bound 3195
--- checking solution
--- solution ok! Maximum rounding error: 0.000067
- solution found, obj var is: 3347
- de-normalized obj var: 0.800820
- time (local/global): 0.006/6.496
- branches (local/global): 358/497475
- fails (local/global): 163/241677
- lns time: 0.010000
- lns branches: 358
- lns fails: 163
LNS iteration #63 ========================================
- worst case average CPI: 1.338
- worst case efficiency: 0.788
- efficiency to beat: 0.788
- normalized lower bound 3216
--- checking solution
--- solution ok! Maximum rounding error: 0.000092
- solution found, obj var is: 3221
- de-normalized obj var: 0.793260
- time (local/global): 0.554/7.054
- branches (local/global): 43049/540524
- fails (local/global): 20948/262625
- lns time: 0.558000
- lns branches: 43049
- lns fails: 20948
LNS iteration #64 ========================================
- worst case average CPI: 1.338
- worst case efficiency: 0.789
- efficiency to beat: 0.789
- normalized lower bound 3235
--- checking solution
--- solution ok! Maximum rounding error: 0.000093
- solution found, obj var is: 3282
- de-normalized obj var: 0.796920
- time (local/global): 0.024/7.082
- branches (local/global): 1566/542090
- fails (local/global): 735/263360
- lns time: 0.029000
- lns branches: 1566
- lns fails: 735
LNS iteration #65 ========================================
- worst case average CPI: 1.032
- worst case efficiency: 0.790
- efficiency to beat: 0.790
- normalized lower bound 3243
--- checking solution
--- solution ok! Maximum rounding error: 0.000094
- solution found, obj var is: 3304
- de-normalized obj var: 0.798240
- time (local/global): 0.075/7.162
- branches (local/global): 5390/547480
- fails (local/global): 2583/265943
- lns time: 0.079000
- lns branches: 5390
- lns fails: 2583
LNS iteration #66 ========================================
- worst case average CPI: 1.032
- worst case efficiency: 0.790
- efficiency to beat: 0.790
- normalized lower bound 3252
--- checking solution
--- solution ok! Maximum rounding error: 0.000071
- solution found, obj var is: 3544
- de-normalized obj var: 0.812640
- time (local/global): 0.318/7.484
- branches (local/global): 25853/573333
- fails (local/global): 12500/278443
- lns time: 0.322000
- lns branches: 25853
- lns fails: 12500
LNS iteration #67 ========================================
- worst case average CPI: 1.032
- worst case efficiency: 0.793
- efficiency to beat: 0.793
- normalized lower bound 3301
--- checking solution
--- solution ok! Maximum rounding error: 0.000090
- solution found, obj var is: 3375
- de-normalized obj var: 0.802500
- time (local/global): 0.006/7.494
- branches (local/global): 236/573569
- fails (local/global): 100/278543
- lns time: 0.014000
- lns branches: 236
- lns fails: 100
LNS iteration #68 ========================================
- worst case average CPI: 1.032
- worst case efficiency: 0.793
- efficiency to beat: 0.793
- normalized lower bound 3306
--- checking solution
--- solution ok! Maximum rounding error: 0.000033
- solution found, obj var is: 3325
- de-normalized obj var: 0.799500
- time (local/global): 2.445/9.947
- branches (local/global): 170495/744064
- fails (local/global): 83285/361828
- lns time: 2.449000
- lns branches: 170495
- lns fails: 83285
LNS iteration #69 ========================================
- worst case average CPI: 1.032
- worst case efficiency: 0.794
- efficiency to beat: 0.794
- normalized lower bound 3310
--- checking solution
--- solution ok! Maximum rounding error: 0.000022
- solution found, obj var is: 3352
- de-normalized obj var: 0.801120
- time (local/global): 0.338/10.289
- branches (local/global): 26829/770893
- fails (local/global): 12966/374794
- lns time: 0.342000
- lns branches: 26829
- lns fails: 12966
LNS iteration #70 ========================================
- worst case average CPI: 1.032
- worst case efficiency: 0.796
- efficiency to beat: 0.796
- normalized lower bound 3358
--- checking solution
--- solution ok! Maximum rounding error: 0.000068
- solution found, obj var is: 3365
- de-normalized obj var: 0.801900
- time (local/global): 1.857/12.150
- branches (local/global): 114875/885768
- fails (local/global): 56129/430923
- lns time: 1.861000
- lns branches: 114875
- lns fails: 56129
LNS iteration #71 ========================================
- worst case average CPI: 1.032
- worst case efficiency: 0.800
- efficiency to beat: 0.800
- normalized lower bound 3410
--- checking solution
--- solution ok! Maximum rounding error: 0.000007
- solution found, obj var is: 3415
- de-normalized obj var: 0.804900
- time (local/global): 0.591/12.745
- branches (local/global): 49110/934878
- fails (local/global): 23882/454805
- lns time: 0.595000
- lns branches: 49110
- lns fails: 23882
LNS iteration #72 ========================================
- worst case average CPI: 1.032
- worst case efficiency: 0.801
- efficiency to beat: 0.801
- normalized lower bound 3439
--- checking solution
--- solution ok! Maximum rounding error: 0.000042
- solution found, obj var is: 3441
- de-normalized obj var: 0.806460
- time (local/global): 0.176/12.925
- branches (local/global): 12168/947046
- fails (local/global): 5859/460664
- lns time: 0.180000
- lns branches: 12168
- lns fails: 5859
LNS iteration #73 ========================================
- worst case average CPI: 1.032
- worst case efficiency: 0.801
- efficiency to beat: 0.801
- normalized lower bound 3440
--- checking solution
--- solution ok! Maximum rounding error: 0.000047
- solution found, obj var is: 3973
- de-normalized obj var: 0.838380
- time (local/global): 0.001/12.930
- branches (local/global): 23/947069
- fails (local/global): 1/460665
- lns time: 0.006000
- lns branches: 23
- lns fails: 1
LNS iteration #74 ========================================
- worst case average CPI: 1.032
- worst case efficiency: 0.802
- efficiency to beat: 0.802
- normalized lower bound 3448
- lns time: 3.004000
- lns branches: 232129
- lns fails: 113772
LNS iteration #75 ========================================
- worst case average CPI: 1.032
- worst case efficiency: 0.802
- efficiency to beat: 0.802
- normalized lower bound 3448
--- checking solution
--- solution ok! Maximum rounding error: 0.000077
- solution found, obj var is: 3767
- de-normalized obj var: 0.826020
- time (local/global): 0.007/15.946
- branches (local/global): 236/1179434
- fails (local/global): 100/574537
- lns time: 0.047000
- lns branches: 236
- lns fails: 100
LNS iteration #76 ========================================
- worst case average CPI: 1.190
- worst case efficiency: 0.803
- efficiency to beat: 0.803
- normalized lower bound 3459
--- checking solution
--- solution ok! Maximum rounding error: 0.000061
- solution found, obj var is: 3506
- de-normalized obj var: 0.810360
- time (local/global): 0.001/15.987
- branches (local/global): 23/1179457
- fails (local/global): 1/574538
- lns time: 0.006000
- lns branches: 23
- lns fails: 1
LNS iteration #77 ========================================
- worst case average CPI: 1.190
- worst case efficiency: 0.803
- efficiency to beat: 0.803
- normalized lower bound 3461
- lns time: 3.004000
- lns branches: 318076
- lns fails: 155633
LNS iteration #78 ========================================
- worst case average CPI: 1.190
- worst case efficiency: 0.803
- efficiency to beat: 0.803
- normalized lower bound 3461
--- checking solution
--- solution ok! Maximum rounding error: 0.000035
- solution found, obj var is: 3500
- de-normalized obj var: 0.810000
- time (local/global): 0.030/19.026
- branches (local/global): 2290/1499823
- fails (local/global): 1090/731261
- lns time: 0.037000
- lns branches: 2290
- lns fails: 1090
LNS iteration #79 ========================================
- worst case average CPI: 1.190
- worst case efficiency: 0.804
- efficiency to beat: 0.804
- normalized lower bound 3490
--- checking solution
--- solution ok! Maximum rounding error: 0.000029
- solution found, obj var is: 3529
- de-normalized obj var: 0.811740
- time (local/global): 0.154/19.187
- branches (local/global): 11698/1511521
- fails (local/global): 5615/736876
- lns time: 0.159000
- lns branches: 11698
- lns fails: 5615
LNS iteration #80 ========================================
- worst case average CPI: 1.190
- worst case efficiency: 0.805
- efficiency to beat: 0.805
- normalized lower bound 3501
--- checking solution
--- solution ok! Maximum rounding error: 0.000428
- solution found, obj var is: 3556
- de-normalized obj var: 0.813360
- time (local/global): 0.215/19.407
- branches (local/global): 17563/1529084
- fails (local/global): 8503/745379
- lns time: 0.219000
- lns branches: 17563
- lns fails: 8503
LNS iteration #81 ========================================
- worst case average CPI: 1.190
- worst case efficiency: 0.808
- efficiency to beat: 0.808
- normalized lower bound 3558
--- checking solution
--- solution ok! Maximum rounding error: 0.000050
- solution found, obj var is: 3587
- de-normalized obj var: 0.815220
- time (local/global): 2.950/22.361
- branches (local/global): 186655/1715739
- fails (local/global): 91420/836799
- lns time: 2.954000
- lns branches: 186655
- lns fails: 91420
LNS iteration #82 ========================================
- worst case average CPI: 1.190
- worst case efficiency: 0.811
- efficiency to beat: 0.811
- normalized lower bound 3594
--- checking solution
--- solution ok! Maximum rounding error: 0.000090
- solution found, obj var is: 3602
- de-normalized obj var: 0.816120
- time (local/global): 0.001/22.366
- branches (local/global): 34/1715773
- fails (local/global): 7/836806
- lns time: 0.005000
- lns branches: 34
- lns fails: 7
LNS iteration #83 ========================================
- worst case average CPI: 1.332
- worst case efficiency: 0.812
- efficiency to beat: 0.812
- normalized lower bound 3619
--- checking solution
--- solution ok! Maximum rounding error: 0.000100
- solution found, obj var is: 3661
- de-normalized obj var: 0.819660
- time (local/global): 2.184/24.554
- branches (local/global): 213185/1928958
- fails (local/global): 104406/941212
- lns time: 2.191000
- lns branches: 213185
- lns fails: 104406
LNS iteration #84 ========================================
- worst case average CPI: 1.367
- worst case efficiency: 0.813
- efficiency to beat: 0.813
- normalized lower bound 3626
--- checking solution
--- solution ok! Maximum rounding error: 0.000050
- solution found, obj var is: 3654
- de-normalized obj var: 0.819240
- time (local/global): 0.020/24.581
- branches (local/global): 1141/1930099
- fails (local/global): 530/941742
- lns time: 0.024000
- lns branches: 1141
- lns fails: 530
LNS iteration #85 ========================================
- worst case average CPI: 1.085
- worst case efficiency: 0.813
- efficiency to beat: 0.813
- normalized lower bound 3628
--- checking solution
--- solution ok! Maximum rounding error: 0.000182
- solution found, obj var is: 3720
- de-normalized obj var: 0.823200
- time (local/global): 0.058/24.643
- branches (local/global): 4050/1934149
- fails (local/global): 1921/943663
- lns time: 0.062000
- lns branches: 4050
- lns fails: 1921
LNS iteration #86 ========================================
- worst case average CPI: 1.085
- worst case efficiency: 0.813
- efficiency to beat: 0.813
- normalized lower bound 3640
--- checking solution
--- solution ok! Maximum rounding error: 0.000019
- solution found, obj var is: 3644
- de-normalized obj var: 0.818640
- time (local/global): 0.001/24.648
- branches (local/global): 21/1934170
- fails (local/global): 0/943663
- lns time: 0.005000
- lns branches: 21
- lns fails: 0
LNS iteration #87 ========================================
- worst case average CPI: 1.085
- worst case efficiency: 0.814
- efficiency to beat: 0.814
- normalized lower bound 3658
--- checking solution
--- solution ok! Maximum rounding error: 0.000013
- solution found, obj var is: 3724
- de-normalized obj var: 0.823440
- time (local/global): 0.203/24.855
- branches (local/global): 12693/1946863
- fails (local/global): 6124/949787
- lns time: 0.207000
- lns branches: 12693
- lns fails: 6124
LNS iteration #88 ========================================
- worst case average CPI: 1.247
- worst case efficiency: 0.816
- efficiency to beat: 0.816
- normalized lower bound 3680
--- checking solution
--- solution ok! Maximum rounding error: 0.000043
- solution found, obj var is: 3685
- de-normalized obj var: 0.821100
- time (local/global): 0.025/24.884
- branches (local/global): 1726/1948589
- fails (local/global): 806/950593
- lns time: 0.032000
- lns branches: 1726
- lns fails: 806
LNS iteration #89 ========================================
- worst case average CPI: 1.247
- worst case efficiency: 0.816
- efficiency to beat: 0.816
- normalized lower bound 3685
--- checking solution
--- solution ok! Maximum rounding error: 0.000119
- solution found, obj var is: 3692
- de-normalized obj var: 0.821520
- time (local/global): 0.135/25.026
- branches (local/global): 7603/1956192
- fails (local/global): 3655/954248
- lns time: 0.141000
- lns branches: 7603
- lns fails: 3655
LNS iteration #90 ========================================
- worst case average CPI: 1.246
- worst case efficiency: 0.816
- efficiency to beat: 0.816
- normalized lower bound 3691
--- checking solution
--- solution ok! Maximum rounding error: 0.000000
- solution found, obj var is: 3695
- de-normalized obj var: 0.821700
- time (local/global): 0.012/25.044
- branches (local/global): 1116/1957308
- fails (local/global): 530/954778
- lns time: 0.016000
- lns branches: 1116
- lns fails: 530
LNS iteration #91 ========================================
- worst case average CPI: 1.246
- worst case efficiency: 0.819
- efficiency to beat: 0.819
- normalized lower bound 3732
--- checking solution
--- solution ok! Maximum rounding error: 0.000078
- solution found, obj var is: 3736
- de-normalized obj var: 0.824160
- time (local/global): 0.056/25.104
- branches (local/global): 3995/1961303
- fails (local/global): 1896/956674
- lns time: 0.060000
- lns branches: 3995
- lns fails: 1896
LNS iteration #92 ========================================
- worst case average CPI: 1.246
- worst case efficiency: 0.820
- efficiency to beat: 0.820
- normalized lower bound 3752
--- checking solution
--- solution ok! Maximum rounding error: 0.000037
- solution found, obj var is: 3756
- de-normalized obj var: 0.825360
- time (local/global): 0.137/25.245
- branches (local/global): 9843/1971146
- fails (local/global): 4729/961403
- lns time: 0.141000
- lns branches: 9843
- lns fails: 4729
LNS iteration #93 ========================================
- worst case average CPI: 1.246
- worst case efficiency: 0.820
- efficiency to beat: 0.820
- normalized lower bound 3756
--- checking solution
--- solution ok! Maximum rounding error: 0.000007
- solution found, obj var is: 3758
- de-normalized obj var: 0.825480
- time (local/global): 0.137/25.386
- branches (local/global): 10292/1981438
- fails (local/global): 4940/966343
- lns time: 0.141000
- lns branches: 10292
- lns fails: 4940
LNS iteration #94 ========================================
- worst case average CPI: 1.093
- worst case efficiency: 0.821
- efficiency to beat: 0.821
- normalized lower bound 3759
--- checking solution
--- solution ok! Maximum rounding error: 0.000190
- solution found, obj var is: 3759
- de-normalized obj var: 0.825540
- time (local/global): 0.743/26.133
- branches (local/global): 59733/2041171
- fails (local/global): 29036/995379
- lns time: 0.747000
- lns branches: 59733
- lns fails: 29036
LNS iteration #95 ========================================
- worst case average CPI: 1.204
- worst case efficiency: 0.821
- efficiency to beat: 0.821
- normalized lower bound 3774
--- checking solution
--- solution ok! Maximum rounding error: 0.000075
- solution found, obj var is: 3810
- de-normalized obj var: 0.828600
- time (local/global): 0.003/26.140
- branches (local/global): 317/2041488
- fails (local/global): 148/995527
- lns time: 0.007000
- lns branches: 317
- lns fails: 148
LNS iteration #96 ========================================
- worst case average CPI: 1.204
- worst case efficiency: 0.822
- efficiency to beat: 0.822
- normalized lower bound 3776
--- checking solution
--- solution ok! Maximum rounding error: 0.000004
- solution found, obj var is: 3777
- de-normalized obj var: 0.826620
- time (local/global): 0.064/26.208
- branches (local/global): 5389/2046877
- fails (local/global): 2572/998099
- lns time: 0.071000
- lns branches: 5389
- lns fails: 2572
LNS iteration #97 ========================================
- worst case average CPI: 1.210
- worst case efficiency: 0.823
- efficiency to beat: 0.823
- normalized lower bound 3794
--- checking solution
--- solution ok! Maximum rounding error: 0.000046
- solution found, obj var is: 3868
- de-normalized obj var: 0.832080
- time (local/global): 0.106/26.321
- branches (local/global): 7186/2054063
- fails (local/global): 3454/1001553
- lns time: 0.110000
- lns branches: 7186
- lns fails: 3454
LNS iteration #98 ========================================
- worst case average CPI: 1.210
- worst case efficiency: 0.823
- efficiency to beat: 0.823
- normalized lower bound 3806
--- checking solution
--- solution ok! Maximum rounding error: 0.000067
- solution found, obj var is: 3981
- de-normalized obj var: 0.838860
- time (local/global): 0.019/26.344
- branches (local/global): 1303/2055366
- fails (local/global): 603/1002156
- lns time: 0.023000
- lns branches: 1303
- lns fails: 603
LNS iteration #99 ========================================
- worst case average CPI: 1.210
- worst case efficiency: 0.823
- efficiency to beat: 0.823
- normalized lower bound 3807
--- checking solution
--- solution ok! Maximum rounding error: 0.000006
- solution found, obj var is: 3828
- de-normalized obj var: 0.829680
- time (local/global): 0.285/26.633
- branches (local/global): 23107/2078473
- fails (local/global): 11201/1013357
- lns time: 0.289000
- lns branches: 23107
- lns fails: 11201
LNS iteration #100 ========================================
- worst case average CPI: 1.210
- worst case efficiency: 0.824
- efficiency to beat: 0.824
- normalized lower bound 3809
--- checking solution
--- solution ok! Maximum rounding error: 0.000063
- solution found, obj var is: 3827
- de-normalized obj var: 0.829620
- time (local/global): 0.522/27.159
- branches (local/global): 38706/2117179
- fails (local/global): 18852/1032209
- lns time: 0.526000
- lns branches: 38706
- lns fails: 18852
LNS iteration #101 ========================================
- worst case average CPI: 1.210
- worst case efficiency: 0.824
- efficiency to beat: 0.824
- normalized lower bound 3819
- lns time: 3.004000
- lns branches: 180825
- lns fails: 88629
LNS iteration #102 ========================================
- worst case average CPI: 1.210
- worst case efficiency: 0.824
- efficiency to beat: 0.824
- normalized lower bound 3819
--- checking solution
--- solution ok! Maximum rounding error: 0.000057
- solution found, obj var is: 3819
- de-normalized obj var: 0.829140
- time (local/global): 1.962/32.129
- branches (local/global): 117554/2415558
- fails (local/global): 57420/1178258
- lns time: 1.966000
- lns branches: 117554
- lns fails: 57420
LNS iteration #103 ========================================
- worst case average CPI: 1.210
- worst case efficiency: 0.825
- efficiency to beat: 0.825
- normalized lower bound 3835
- lns time: 3.007000
- lns branches: 204413
- lns fails: 100546
LNS iteration #104 ========================================
- worst case average CPI: 1.210
- worst case efficiency: 0.825
- efficiency to beat: 0.825
- normalized lower bound 3835
--- checking solution
--- solution ok! Maximum rounding error: 0.000056
- solution found, obj var is: 3845
- de-normalized obj var: 0.830700
- time (local/global): 0.295/35.435
- branches (local/global): 22453/2642424
- fails (local/global): 10874/1289678
- lns time: 0.301000
- lns branches: 22453
- lns fails: 10874
LNS iteration #105 ========================================
- worst case average CPI: 1.210
- worst case efficiency: 0.825
- efficiency to beat: 0.825
- normalized lower bound 3840
--- checking solution
--- solution ok! Maximum rounding error: 0.000123
- solution found, obj var is: 3846
- de-normalized obj var: 0.830760
- time (local/global): 0.627/36.068
- branches (local/global): 45185/2687609
- fails (local/global): 22002/1311680
- lns time: 0.632000
- lns branches: 45185
- lns fails: 22002
LNS iteration #106 ========================================
- worst case average CPI: 1.210
- worst case efficiency: 0.826
- efficiency to beat: 0.826
- normalized lower bound 3847
--- checking solution
--- solution ok! Maximum rounding error: 0.000118
- solution found, obj var is: 3894
- de-normalized obj var: 0.833640
- time (local/global): 0.219/36.292
- branches (local/global): 17810/2705419
- fails (local/global): 8603/1320283
- lns time: 0.223000
- lns branches: 17810
- lns fails: 8603
LNS iteration #107 ========================================
- worst case average CPI: 1.210
- worst case efficiency: 0.826
- efficiency to beat: 0.826
- normalized lower bound 3858
--- checking solution
--- solution ok! Maximum rounding error: 0.000081
- solution found, obj var is: 3862
- de-normalized obj var: 0.831720
- time (local/global): 0.006/36.302
- branches (local/global): 332/2705751
- fails (local/global): 149/1320432
- lns time: 0.014000
- lns branches: 332
- lns fails: 149
LNS iteration #108 ========================================
- worst case average CPI: 1.210
- worst case efficiency: 0.826
- efficiency to beat: 0.826
- normalized lower bound 3858
- lns time: 3.004000
- lns branches: 206404
- lns fails: 101265
LNS iteration #109 ========================================
- worst case average CPI: 1.210
- worst case efficiency: 0.826
- efficiency to beat: 0.826
- normalized lower bound 3858
- lns time: 3.004000
- lns branches: 261326
- lns fails: 129052
LNS iteration #110 ========================================
- worst case average CPI: 1.210
- worst case efficiency: 0.826
- efficiency to beat: 0.826
- normalized lower bound 3858
- lns time: 3.004000
- lns branches: 289782
- lns fails: 143075
LNS iteration #111 ========================================
- worst case average CPI: 1.210
- worst case efficiency: 0.826
- efficiency to beat: 0.826
- normalized lower bound 3858
- lns time: 3.004000
- lns branches: 238498
- lns fails: 116926
LNS iteration #112 ========================================
- worst case average CPI: 1.210
- worst case efficiency: 0.826
- efficiency to beat: 0.826
- normalized lower bound 3858
--- checking solution
--- solution ok! Maximum rounding error: 0.000162
- solution found, obj var is: 3896
- de-normalized obj var: 0.833760
- time (local/global): 0.748/49.074
- branches (local/global): 58779/3760540
- fails (local/global): 28600/1839350
- lns time: 0.752000
- lns branches: 58779
- lns fails: 28600
LNS iteration #113 ========================================
- worst case average CPI: 1.194
- worst case efficiency: 0.827
- efficiency to beat: 0.827
- normalized lower bound 3868
- lns time: 3.005000
- lns branches: 245540
- lns fails: 121249
LNS iteration #114 ========================================
- worst case average CPI: 1.194
- worst case efficiency: 0.827
- efficiency to beat: 0.827
- normalized lower bound 3868
- lns time: 3.004000
- lns branches: 198463
- lns fails: 97342
LNS iteration #115 ========================================
- worst case average CPI: 1.194
- worst case efficiency: 0.827
- efficiency to beat: 0.827
- normalized lower bound 3868
--- checking solution
--- solution ok! Maximum rounding error: 0.000047
- solution found, obj var is: 4020
- de-normalized obj var: 0.841200
- time (local/global): 0.037/55.124
- branches (local/global): 2967/4207510
- fails (local/global): 1400/2059341
- lns time: 0.042000
- lns branches: 2967
- lns fails: 1400
LNS iteration #116 ========================================
- worst case average CPI: 1.194
- worst case efficiency: 0.827
- efficiency to beat: 0.827
- normalized lower bound 3870
- lns time: 3.004000
- lns branches: 234174
- lns fails: 114713
LNS iteration #117 ========================================
- worst case average CPI: 1.194
- worst case efficiency: 0.827
- efficiency to beat: 0.827
- normalized lower bound 3870
--- checking solution
--- solution ok! Maximum rounding error: 0.000013
- solution found, obj var is: 3968
- de-normalized obj var: 0.838080
- time (local/global): 0.048/58.181
- branches (local/global): 3817/4445501
- fails (local/global): 1802/2175856
- lns time: 0.053000
- lns branches: 3817
- lns fails: 1802
LNS iteration #118 ========================================
- worst case average CPI: 0.766
- worst case efficiency: 0.827
- efficiency to beat: 0.827
- normalized lower bound 3871
--- checking solution
--- solution ok! Maximum rounding error: 0.000078
- solution found, obj var is: 3901
- de-normalized obj var: 0.834060
- time (local/global): 0.005/58.191
- branches (local/global): 232/4445733
- fails (local/global): 100/2175956
- lns time: 0.009000
- lns branches: 232
- lns fails: 100
LNS iteration #119 ========================================
- worst case average CPI: 0.766
- worst case efficiency: 0.827
- efficiency to beat: 0.827
- normalized lower bound 3872
--- checking solution
--- solution ok! Maximum rounding error: 0.000038
- solution found, obj var is: 3879
- de-normalized obj var: 0.832740
- time (local/global): 1.609/59.804
- branches (local/global): 115972/4561705
- fails (local/global): 56644/2232600
- lns time: 1.613000
- lns branches: 115972
- lns fails: 56644
LNS iteration #120 ========================================
- worst case average CPI: 1.065
- worst case efficiency: 0.828
- efficiency to beat: 0.828
- normalized lower bound 3876
--- checking solution
--- solution ok! Maximum rounding error: 0.000016
- solution found, obj var is: 3876
- de-normalized obj var: 0.832560
- time (local/global): 1.542/61.350
- branches (local/global): 116001/4677706
- fails (local/global): 56696/2289296
- lns time: 1.546000
- lns branches: 116001
- lns fails: 56696
LNS iteration #121 ========================================
- worst case average CPI: 1.065
- worst case efficiency: 0.828
- efficiency to beat: 0.828
- normalized lower bound 3887
- lns time: 3.004000
- lns branches: 221165
- lns fails: 108432
LNS iteration #122 ========================================
- worst case average CPI: 1.065
- worst case efficiency: 0.828
- efficiency to beat: 0.828
- normalized lower bound 3887
--- checking solution
--- solution ok! Maximum rounding error: 0.000080
- solution found, obj var is: 3898
- de-normalized obj var: 0.833880
- time (local/global): 0.221/64.579
- branches (local/global): 17748/4916619
- fails (local/global): 8574/2406302
- lns time: 0.225000
- lns branches: 17748
- lns fails: 8574
LNS iteration #123 ========================================
- worst case average CPI: 1.065
- worst case efficiency: 0.829
- efficiency to beat: 0.829
- normalized lower bound 3904
--- checking solution
--- solution ok! Maximum rounding error: 0.000262
- solution found, obj var is: 3965
- de-normalized obj var: 0.837900
- time (local/global): 0.072/64.655
- branches (local/global): 7158/4923777
- fails (local/global): 3426/2409728
- lns time: 0.076000
- lns branches: 7158
- lns fails: 3426
LNS iteration #124 ========================================
- worst case average CPI: 1.065
- worst case efficiency: 0.830
- efficiency to beat: 0.830
- normalized lower bound 3917
--- checking solution
--- solution ok! Maximum rounding error: 0.000000
- solution found, obj var is: 3925
- de-normalized obj var: 0.835500
- time (local/global): 2.304/66.963
- branches (local/global): 141924/5065701
- fails (local/global): 69308/2479036
- lns time: 2.308000
- lns branches: 141924
- lns fails: 69308
LNS iteration #125 ========================================
- worst case average CPI: 1.065
- worst case efficiency: 0.831
- efficiency to beat: 0.831
- normalized lower bound 3928
--- checking solution
--- solution ok! Maximum rounding error: 0.000094
- solution found, obj var is: 3959
- de-normalized obj var: 0.837540
- time (local/global): 0.027/66.994
- branches (local/global): 1455/5067156
- fails (local/global): 680/2479716
- lns time: 0.032000
- lns branches: 1455
- lns fails: 680
LNS iteration #126 ========================================
- worst case average CPI: 1.065
- worst case efficiency: 0.831
- efficiency to beat: 0.831
- normalized lower bound 3936
--- checking solution
--- solution ok! Maximum rounding error: 0.000020
- solution found, obj var is: 3936
- de-normalized obj var: 0.836160
- time (local/global): 0.007/67.006
- branches (local/global): 332/5067488
- fails (local/global): 148/2479864
- lns time: 0.011000
- lns branches: 332
- lns fails: 148
LNS iteration #127 ========================================
- worst case average CPI: 1.065
- worst case efficiency: 0.833
- efficiency to beat: 0.833
- normalized lower bound 3961
--- checking solution
--- solution ok! Maximum rounding error: 0.000002
- solution found, obj var is: 3981
- de-normalized obj var: 0.838860
- time (local/global): 0.015/67.025
- branches (local/global): 932/5068420
- fails (local/global): 435/2480299
- lns time: 0.022000
- lns branches: 932
- lns fails: 435
LNS iteration #128 ========================================
- worst case average CPI: 1.065
- worst case efficiency: 0.831
- efficiency to beat: 0.831
- normalized lower bound 3942
--- checking solution
--- solution ok! Maximum rounding error: 0.000015
- solution found, obj var is: 3955
- de-normalized obj var: 0.837300
- time (local/global): 0.148/67.180
- branches (local/global): 7509/5075929
- fails (local/global): 3606/2483905
- lns time: 0.152000
- lns branches: 7509
- lns fails: 3606
LNS iteration #129 ========================================
- worst case average CPI: 1.065
- worst case efficiency: 0.832
- efficiency to beat: 0.832
- normalized lower bound 3954
- lns time: 3.004000
- lns branches: 202830
- lns fails: 99514
LNS iteration #130 ========================================
- worst case average CPI: 1.065
- worst case efficiency: 0.832
- efficiency to beat: 0.832
- normalized lower bound 3954
- lns time: 3.004000
- lns branches: 214813
- lns fails: 105359
LNS iteration #131 ========================================
- worst case average CPI: 1.065
- worst case efficiency: 0.832
- efficiency to beat: 0.832
- normalized lower bound 3954
- lns time: 3.005000
- lns branches: 236942
- lns fails: 116194
LNS iteration #132 ========================================
- worst case average CPI: 1.065
- worst case efficiency: 0.832
- efficiency to beat: 0.832
- normalized lower bound 3954
--- checking solution
--- solution ok! Maximum rounding error: 0.000091
- solution found, obj var is: 3975
- de-normalized obj var: 0.838500
- time (local/global): 0.204/76.401
- branches (local/global): 15795/5746309
- fails (local/global): 7660/2812632
- lns time: 0.208000
- lns branches: 15795
- lns fails: 7660
LNS iteration #133 ========================================
- worst case average CPI: 1.006
- worst case efficiency: 0.833
- efficiency to beat: 0.833
- normalized lower bound 3965
- lns time: 3.004000
- lns branches: 210586
- lns fails: 103372
LNS iteration #134 ========================================
- worst case average CPI: 1.006
- worst case efficiency: 0.833
- efficiency to beat: 0.833
- normalized lower bound 3965
- lns time: 3.005000
- lns branches: 248451
- lns fails: 122028
LNS iteration #135 ========================================
- worst case average CPI: 1.006
- worst case efficiency: 0.833
- efficiency to beat: 0.833
- normalized lower bound 3965
- lns time: 3.004000
- lns branches: 206840
- lns fails: 101738
LNS iteration #136 ========================================
- worst case average CPI: 1.006
- worst case efficiency: 0.833
- efficiency to beat: 0.833
- normalized lower bound 3965
- lns time: 3.004000
- lns branches: 166978
- lns fails: 81601
LNS iteration #137 ========================================
- worst case average CPI: 1.006
- worst case efficiency: 0.833
- efficiency to beat: 0.833
- normalized lower bound 3965
--- checking solution
--- solution ok! Maximum rounding error: 0.000025
- solution found, obj var is: 3982
- de-normalized obj var: 0.838920
- time (local/global): 0.331/88.753
- branches (local/global): 26906/6606070
- fails (local/global): 13002/3234373
- lns time: 0.335000
- lns branches: 26906
- lns fails: 13002
LNS iteration #138 ========================================
- worst case average CPI: 0.785
- worst case efficiency: 0.833
- efficiency to beat: 0.833
- normalized lower bound 3965
- lns time: 1.249000
- lns branches: 94472
- lns fails: 46244

LNS optimization is over========================================
initial worst case average CPI: 2.372
final worst case average CPI: 0.785
initial worst case efficiency: 0.657
final worst case efficiency: 0.833
number of iterations: 139
total time: 90006.000000
total branches: 6700542
total fails: 3280617

Final Solution: 0->32, 1->7, 2->5, 3->10, 4->28, 5->18, 6->13, 7->10, 8->42, 9->46, 10->14, 11->3, 12->46, 13->10, 14->19, 15->33, 16->20, 17->20, 18->8, 19->16, 20->29, 21->0, 22->33, 23->18, 24->18, 25->10, 26->47, 27->35, 28->37, 29->24, 30->3, 31->33, 32->27, 33->36, 34->19, 35->18, 36->24, 37->11, 38->20, 39->30, 40->43, 41->24, 42->4, 43->16, 44->15, 45->39, 46->19, 47->47, 48->15, 49->2, 50->27, 51->6, 52->45, 53->33, 54->10, 55->18, 56->24, 57->17, 58->17, 59->41, 60->12, 61->43, 62->12, 63->5, 64->35, 65->41, 66->12, 67->4, 68->44, 69->2, 70->5, 71->27, 72->8, 73->28, 74->19, 75->44, 76->32, 77->26, 78->27, 79->0, 80->14, 81->35, 82->47, 83->40, 84->10, 85->46, 86->21, 87->19, 88->14, 89->21, 90->37, 91->44, 92->20, 93->31, 94->25, 95->34, 96->12, 97->9, 98->32, 99->39, 100->39, 101->30, 102->5, 103->39, 104->41, 105->40, 106->9, 107->2, 108->2, 109->32, 110->0, 111->3, 112->9, 113->2, 114->27, 115->14, 116->3, 117->25, 118->37, 119->4, 120->28, 121->14, 122->7, 123->13, 124->38, 125->22, 126->31, 127->44, 128->3, 129->38, 130->42, 131->46, 132->26, 133->32, 134->16, 135->13, 136->45, 137->46, 138->15, 139->13, 140->6, 141->34, 142->25, 143->6, 144->23, 145->29, 146->11, 147->23, 148->34, 149->17, 150->18, 151->46, 152->25, 153->37, 154->42, 155->45, 156->28, 157->33, 158->0, 159->14, 160->20, 161->31, 162->27, 163->47, 164->16, 165->40, 166->26, 167->9, 168->15, 169->39, 170->15, 171->8, 172->35, 173->33, 174->19, 175->36, 176->44, 177->4, 178->42, 179->22, 180->39, 181->36, 182->26, 183->35, 184->2, 185->21, 186->47, 187->31, 188->37, 189->5, 190->13, 191->7, 192->34, 193->30, 194->30, 195->29, 196->9, 197->41, 198->24, 199->25, 200->34, 201->6, 202->45, 203->17, 204->29, 205->20, 206->0, 207->21, 208->4, 209->3, 210->37, 211->11, 212->43, 213->42, 214->11, 215->26, 216->1, 217->38, 218->21, 219->11, 220->38, 221->34, 222->16, 223->7, 224->6, 225->8, 226->31, 227->30, 228->17, 229->12, 230->12, 231->28, 232->25, 233->29, 234->43, 235->45, 236->42, 237->13, 238->31, 239->32, 240->1, 241->40, 242->16, 243->22, 244->30, 245->1, 246->9, 247->41, 248->44, 249->11, 250->15, 251->6, 252->0, 253->26, 254->24, 255->47, 256->28, 257->23, 258->22, 259->36, 260->45, 261->1, 262->35, 263->29, 264->23, 265->23, 266->40, 267->8, 268->1, 269->43, 270->23, 271->8, 272->4, 273->36, 274->43, 275->36, 276->5, 277->22, 278->38, 279->1, 280->17, 281->41, 282->7, 283->38, 284->7, 285->40, 286->21, 287->22

Average CPI map:
	7.49,	2.24,	1.26,	1.26,	0.79,	1.01
	1.50,	6.91,	5.62,	6.34,	5.97,	1.40
	1.78,	7.90,	7.43,	9.09,	7.78,	1.90
	1.97,	7.34,	7.16,	9.09,	5.66,	2.16
	2.06,	6.11,	7.56,	7.93,	7.07,	1.99
	2.03,	7.65,	8.15,	7.35,	6.24,	5.65
	1.51,	7.46,	7.44,	5.58,	6.62,	2.25
	1.63,	2.66,	4.98,	6.91,	5.95,	2.19

Efficiency map:
	0.996,	0.957,	0.914,	0.920,	0.941,	0.996
	0.841,	0.877,	0.839,	0.834,	0.841,	0.834
	0.837,	0.833,	0.844,	0.839,	0.864,	0.837
	0.839,	0.833,	0.838,	0.897,	0.838,	0.843
	0.843,	0.834,	0.834,	0.839,	0.833,	0.843
	0.839,	0.840,	0.834,	0.839,	0.834,	0.949
	0.872,	0.839,	0.855,	0.834,	0.842,	0.863
	0.837,	0.838,	0.834,	0.893,	0.837,	0.859
