LocalSolver 4.0 (MacOS64, build 20131224)
Copyright (C) 2013 Bouygues SA, Aix-Marseille University, CNRS.
All rights reserved (see Terms and Conditions for details).

Load localsolver_res/tawd_ls.lsp...
Run input...
ANNs For the Platform:
3,2,1,0.413586,-0.0266769,-0.0683771,-5.1002,70.5254,-0.257939,-72.3361,-14.3957,-55.9961,0.000416225,-55.1984
3,2,1,7.29748,1.94844,3.18138,9.63196,-4.67735,-4.13678,1.22405,-8.03403,0.0803394,-0.125838,0.598848
3,2,1,6.43996,0.383984,0.598454,7.79024,-4.25175,0.123161,-0.278344,-5.71253,1.47885,1.00258,0.327892
3,2,1,3.45395,0.140329,0.51254,4.25255,4.08469,0.00326531,0.722664,3.88666,1.2829,-0.290289,-0.187123
3,2,1,1.76581,-0.7465,16.0398,1.01103,2.42771,0.96084,1.00318,4.14242,-0.00284347,0.244904,0.56299
3,2,1,1.87058,0.359859,-0.0851999,0.818043,3.18969,0.847611,-7.29654,-2.24823,0.00245596,0.000486788,0.794563
3,2,1,3.28113,0.579268,0.142679,3.72653,-0.240895,-0.149383,25.0414,7.13641,0.488705,-0.00083541,0.320468
3,2,1,-4.78997,-2.53518,1.7971,11.1628,-3.08773,-0.470276,-0.0894822,-2.63871,1.46314,-0.463195,-1.12076
3,2,1,-0.392198,-0.00544948,0.0100489,-0.634573,-1.21109,-0.0856362,-0.013156,-1.60668,1.54201,-2.33195,-0.462253
3,2,1,3.15031,0.401017,0.160161,2.51156,5.71314,0.59291,-11.6364,2.59774,0.430465,0.00737346,0.36306
3,2,1,2.64111,0.312028,0.0803827,2.35273,-4.25958,3.48188,-1.59773,-1.57632,0.565527,0.0271972,0.266241
3,2,1,2.2658,0.0425076,0.0191991,-0.583848,2.82415,0.533705,0.0754136,3.33659,-0.0169351,0.54785,0.257008
3,2,1,6.01014,0.654767,0.24854,5.54419,5.68574,0.00137666,0.00103835,-1.46229,0.258518,0.00962319,0.54621
3,2,1,-0.828282,0.684875,0.223674,-1.44779,5.0064,0.272371,0.00344824,2.89438,0.397142,0.379767,0.797684
3,2,1,-0.166745,-1.25514,-0.967701,-3.82155,3.34568,0.34907,0.176897,2.37943,0.567319,0.42026,0.93611
3,2,1,-10.035,3.55243,8.66202,-21.5626,10.92,0.228744,0.12852,5.40188,0.871264,0.345634,1.3209
3,2,1,4.50278,0.709934,0.227356,3.41616,1.455,0.115548,0.0125181,-1.15221,0.345467,0.222127,0.602264
3,2,1,3.51765,0.552987,0.202187,3.41883,0.53704,0.0709757,-0.0346297,-0.38017,0.320095,-0.0397752,0.474568
3,2,1,3.62936,0.506661,0.201819,3.49179,3.4019,-3.09955,1.3332,0.961184,0.32649,-0.0126443,0.488413
3,2,1,3.50925,0.448618,0.127508,2.4823,1.78455,1.6893,1.46456,-0.207671,0.400287,0.00684206,0.402337
3,2,1,-0.52883,0.00691432,0.00617163,-0.194006,1.73284,0.0488672,0.0179273,1.25978,0.716787,0.92667,0.162242
3,2,1,2.48239,0.190378,0.120167,1.91689,1.21532,1.48543,0.644574,2.68198,0.547395,-0.0744913,0.328097
3,2,1,2.55861,2.02297,0.650126,2.19109,2.44652,0.0836318,0.0133745,2.4369,0.0418722,0.798841,-0.0334834
3,2,1,5.07371,0.556895,0.217981,4.66725,-0.00829845,-0.00544544,0.00934569,-0.672651,0.280461,-0.520981,0.217266
3,2,1,1.56588,0.201966,0.0665967,1.82578,1.97654,0.236717,0.0903453,1.08195,1.02748,-0.229836,0.011785
3,2,1,2.41728,0.208205,-0.0012583,2.05484,1.41976,-1.30194,1.45365,1.79277,0.56727,0.031184,0.207229
3,2,1,3.71833,0.202336,0.172606,2.43155,5.03284,0.375118,-0.790998,-3.83455,0.400925,0.372075,0.754779
3,2,1,-1.25583,1.47411,0.819895,-2.78448,4.36107,0.113478,0.107247,2.55416,0.385214,0.384141,0.797017
3,2,1,1.71562,-0.478906,-0.61026,-1.17859,3.1361,0.360865,0.0914124,2.2536,-0.0127033,0.431384,0.365879
3,2,1,-1.75501,-0.0880109,-0.026461,-2.68365,2.88327,0.072433,0.0245574,1.95701,-5.87306,-0.563325,-4.48698
3,2,1,1.87886,0.47325,-0.0511434,1.79719,1.94184,0.328234,0.0220624,2.54301,-0.401251,1.77114,-0.565042
3,2,1,-1.60981,1.67946,0.217969,-1.01084,4.35765,0.130722,0.127348,2.65259,0.0709006,0.384957,0.481341
3,2,1,6.90393,1.27603,0.349979,4.84299,12.4465,-4.65212,-2.15462,0.408255,0.295914,0.0666312,0.4354
3,2,1,3.04491,0.18183,0.111428,2.10543,3.32281,-0.49945,-3.78487,-7.88748,0.444834,-4.36795,-4.01116
3,2,1,2.91407,0.251062,0.0435786,2.27032,0.308764,1.59867,0.766589,0.134898,0.475285,0.00569166,0.326702
3,2,1,1.44846,0.205113,0.0448314,1.45909,1.93039,0.286882,0.0586866,1.17886,1.39166,-0.600981,0.0448012
3,2,1,-0.702729,1.84783,-0.00894741,-12.1377,-140.908,-69.0514,-27.175,-146.219,-4.51728,-0.14351,-3.88527
3,2,1,4.2004,0.255152,0.0750175,2.63627,-1.17866,1.67307,0.209535,-1.03514,0.371915,0.0747402,0.498851
3,2,1,3.28015,0.190841,0.175032,2.31848,-0.821253,-1.83022,1.5009,-1.6155,0.417221,-0.0239081,0.360136
3,2,1,2.0525,0.0719707,0.0148549,2.1486,2.00198,1.73479,2.09334,1.44082,0.954066,0.00952719,-0.152697
3,2,1,3.31406,0.407717,0.0380361,2.47187,-0.266021,-1.73458,0.970613,-1.79463,0.415264,-0.0144649,0.374956
3,2,1,6.25099,-3.17047,1.46865,-0.279767,-2.91952,-0.395169,-0.0444215,-3.76202,-0.00491872,-1.23429,-0.425145
3,2,1,1.59636,0.096013,0.0630313,0.826005,1.46151,0.077228,0.0482484,1.68899,-0.289647,1.15304,-0.0688712
3,2,1,33.0172,0.520442,0.135338,28.5555,-3.97298,-0.0574545,-0.0193135,3.34452,0.297691,-5.9863,6.38072
3,2,1,2.32742,0.056139,0.0279748,2.30198,0.254535,0.117712,2.12797,1.7883,0.827797,-0.00209653,-0.0205758
3,2,1,-1.76524,-0.0296866,-0.00748622,-2.47523,4.4267,-0.377196,-4.83785,1.3517,-2.37434,-0.00716866,-1.55224
3,2,1,1.2047,-1.47491,1.03821,1.50617,3.23679,0.3845,-0.018138,2.47251,0.0419137,0.407618,0.357451
3,2,1,3.93828,-0.00820725,-0.00812648,-1.1651,2.06372,0.114124,0.0339398,2.70327,-0.0635318,1.17159,-0.373077
Workload Information:
3.1185, 0.5, 0.607702, 3.19726, 2.97682, 1.59972, 1.2667, 0.5, 1.84807, 2.67677, 4.31718, 1.39128, 1.38609, 0.740994, 2.87739, 1.35274, 0.5, 5.14279, 2.03451, 1.58177, 1.99084, 2.24611, 2.47489, 1.67187, 2.29591, 1.95594, 2.15617, 2.23197, 2.12958, 1.23042, 1.90417, 0.952039, 2.77433, 3.27355, 2.59592, 0.5, 2.30129, 2.03152, 1.79238, 2.58658, 2.56517, 0.723053, 1.15921, 2.5037, 3.06571, 0.5, 4.01994, 0.751436, 2.07061, 2.85755, 2.15705, 2.13, 0.5, 2.28479, 0.5, 1.89212, 1.03681, 4.97361, 1.26166, 2.3358, 2.69817, 2.25878, 2.13461, 1.27949, 2.41042, 1.21854, 0.5, 2.91184, 1.75848, 0.602156, 2.03868, 4.18885, 3.17262, 0.836678, 1.13818, 2.52222, 3.8303, 0.5, 2.28779, 1.48897, 1.85023, 2.37186, 2.18497, 1.81617, 3.47157, 0.5, 1.6529, 3.37429, 1.13977, 1.86148, 0.659983, 3.33868, 3.06632, 0.5, 1.68691, 2.7481, 3.04099, 1.37412, 0.5, 1.30755, 2.75621, 3.02113, 2.33381, 1.36575, 1.99757, 2.25412, 2.02993, 2.01883, 23.3234, 11.3647, 20.8728, 35, 31.9616, 9.47742, 17.4741, 30.6184, 1.65074, 35, 12.6022, 34.6546, 22.2602, 32.7888, 24.5756, 28.6538, 20.0375, 3.68398, 1.50353, 1.90833, 2.17959, 2.2546, 2.10717, 2.04678, 1.21772, 0.5, 3.54066, 2.46042, 0.735172, 3.54603, 0.553124, 0.5, 2.27941, 1.90978, 3.50422, 3.25347, 22.0891, 18.8224, 24.2305, 25.6473, 27.3808, 13.83, 3.17025, 3.30664, 2.79629, 0.593973, 1.61461, 0.51823, 18.4125, 26.3241, 23.8043, 11.2281, 24.5957, 27.6354, 1.65389, 0.636179, 3.22803, 3.47817, 2.50373, 0.5, 2.31526, 2.39553, 2.21396, 0.5, 2.08559, 2.48966, 3.2208, 0.708539, 1.15484, 2.55069, 2.18064, 2.18449, 5.55644, 18.2864, 34.1855, 29.3457, 16.0332, 28.5927, 35, 16.9505, 11.0546, 10.5481, 25.3906, 33.0562, 14.4612, 22.5954, 35, 19.9472, 21.931, 18.0652, 2.45174, 1.45843, 2.87827, 3.2761, 0.5, 1.43546, 3.29898, 2.95099, 1.35285, 1.76898, 1.68086, 0.947335, 0.73712, 4.07143, 3.22793, 2.51851, 0.813986, 0.631026, 3.64731, 2.31815, 2.46721, 1.19628, 0.5, 1.87105, 3.39384, 2.72169, 0.935464, 0.5, 2.88208, 1.56692, 3.40934, 1.73601, 2.65717, 2.75577, 0.5, 0.941706, 2.62079, 0.5, 2.58771, 2.08297, 1.81875, 2.38979, 2.53707, 2.16432, 2.21632, 1.37434, 1.3439, 2.36405, 3.73156, 1.77974, 0.728544, 0.5, 2.90481, 2.35535, 0.5, 1.41785, 6.76133, 0.581924, 2.05896, 0.679942, 1.02313, 0.99413, 2.11886, 3.93538, 3.4285, 0.5, 2.09843, 1.83453, 2.19878, 2.24731, 1.88714, 1.7338, 2.19896, 0.845662, 3.11492, 0.865433, 2.44446, 2.53056, 1.83412, 3.42751, 0.87598, 2.87187, 1.11936, 1.87116, 3.03655, 0.5, 2.99289, 1.82857, 2.1193, 1.5227
cpi min/max: 0.5/35
neighbors of 0: 1 6, number of others: 45
neighbors of 1: 0 2 6 7, number of others: 43
neighbors of 2: 1 3 7 8, number of others: 43
neighbors of 3: 2 4 8 9, number of others: 43
neighbors of 4: 3 5 9 10, number of others: 43
neighbors of 5: 4 10 11, number of others: 44
neighbors of 6: 0 1 7 12, number of others: 43
neighbors of 7: 1 2 6 8 12 13, number of others: 41
neighbors of 8: 2 3 7 9 13 14, number of others: 41
neighbors of 9: 3 4 8 10 14 15, number of others: 41
neighbors of 10: 4 5 9 11 15 16, number of others: 41
neighbors of 11: 5 10 16 17, number of others: 43
neighbors of 12: 6 7 13 18, number of others: 43
neighbors of 13: 7 8 12 14 18 19, number of others: 41
neighbors of 14: 8 9 13 15 19 20, number of others: 41
neighbors of 15: 9 10 14 16 20 21, number of others: 41
neighbors of 16: 10 11 15 17 21 22, number of others: 41
neighbors of 17: 11 16 22 23, number of others: 43
neighbors of 18: 12 13 19 24, number of others: 43
neighbors of 19: 13 14 18 20 24 25, number of others: 41
neighbors of 20: 14 15 19 21 25 26, number of others: 41
neighbors of 21: 15 16 20 22 26 27, number of others: 41
neighbors of 22: 16 17 21 23 27 28, number of others: 41
neighbors of 23: 17 22 28 29, number of others: 43
neighbors of 24: 18 19 25 30, number of others: 43
neighbors of 25: 19 20 24 26 30 31, number of others: 41
neighbors of 26: 20 21 25 27 31 32, number of others: 41
neighbors of 27: 21 22 26 28 32 33, number of others: 41
neighbors of 28: 22 23 27 29 33 34, number of others: 41
neighbors of 29: 23 28 34 35, number of others: 43
neighbors of 30: 24 25 31 36, number of others: 43
neighbors of 31: 25 26 30 32 36 37, number of others: 41
neighbors of 32: 26 27 31 33 37 38, number of others: 41
neighbors of 33: 27 28 32 34 38 39, number of others: 41
neighbors of 34: 28 29 33 35 39 40, number of others: 41
neighbors of 35: 29 34 40 41, number of others: 43
neighbors of 36: 30 31 37 42, number of others: 43
neighbors of 37: 31 32 36 38 42 43, number of others: 41
neighbors of 38: 32 33 37 39 43 44, number of others: 41
neighbors of 39: 33 34 38 40 44 45, number of others: 41
neighbors of 40: 34 35 39 41 45 46, number of others: 41
neighbors of 41: 35 40 46 47, number of others: 43
neighbors of 42: 36 37 43, number of others: 44
neighbors of 43: 37 38 42 44, number of others: 43
neighbors of 44: 38 39 43 45, number of others: 43
neighbors of 45: 39 40 44 46, number of others: 43
neighbors of 46: 40 41 45 47, number of others: 43
neighbors of 47: 41 46, number of others: 45
Run model...
Preprocess model 0% ...Preprocess model 16% ...Preprocess model 32% ...Preprocess model 48% ...Preprocess model 66% ...Preprocess model 84% ...Preprocess model 100% ...
Close model 0% ...Close model 9% ...Close model 18% ...Close model 27% ...Close model 36% ...Close model 45% ...Close model 54% ...Close model 63% ...Close model 72% ...Close model 81% ...Close model 91% ...Close model 100% ...
Run param...
Run solver...
Initialize threads 0% ...Initialize threads 100% ...
Push initial solutions 0% ...Push initial solutions 100% ...

Model: 
  expressions = 30658, operands = 74976
  decisions = 13824, constraints = 336, objectives = 1

Param: 
  time limit = 90 sec, no iteration limit
  seed = 401, nb threads = 1, annealing level = 1

Objectives:
  Obj 0: maximize, no bound

Phases:
  Phase 0: time limit = 90 sec, no iteration limit, optimized objective = 0


Computed bounds:
  Obj 0: upper bound = 0.650128


Phase 0:
[0 sec, 0 itr]: infeas = (336, 336, 576), mov = 0, inf < 0.1%, acc < 0.1%, imp = 0

worst case efficiency: 0.965273
[1 sec, 37279 itr]: obj = (0.0624602), mov = 37279, inf = 98%, acc = 1.7%, imp = 154

worst case efficiency: 0.637476
[2 sec, 57053 itr]: obj = (0.0802418), mov = 57053, inf = 98.7%, acc = 1.1%, imp = 175

worst case efficiency: 0.648145
[3 sec, 67325 itr]: obj = (0.103928), mov = 67325, inf = 98.8%, acc = 1%, imp = 203

worst case efficiency: 0.662357
[4 sec, 73682 itr]: obj = (0.119248), mov = 73682, inf = 98.9%, acc = 1%, imp = 225

worst case efficiency: 0.671549
[5 sec, 78829 itr]: obj = (0.120238), mov = 78829, inf = 99%, acc = 0.9%, imp = 242

worst case efficiency: 0.672143
[6 sec, 83723 itr]: obj = (0.122763), mov = 83723, inf = 99%, acc = 0.9%, imp = 258

worst case efficiency: 0.673658
[7 sec, 88562 itr]: obj = (0.174074), mov = 88562, inf = 99%, acc = 0.9%, imp = 296

worst case efficiency: 0.704444
[8 sec, 93109 itr]: obj = (0.195059), mov = 93109, inf = 99.1%, acc = 0.9%, imp = 323

worst case efficiency: 0.717035
[9 sec, 97435 itr]: obj = (0.245679), mov = 97435, inf = 99.1%, acc = 0.9%, imp = 358

worst case efficiency: 0.747408
[10 sec, 101596 itr]: obj = (0.258012), mov = 101596, inf = 99.1%, acc = 0.9%, imp = 384

worst case efficiency: 0.754807
[11 sec, 105817 itr]: obj = (0.260504), mov = 105817, inf = 99.1%, acc = 0.9%, imp = 395

worst case efficiency: 0.756302
[12 sec, 110154 itr]: obj = (0.268527), mov = 110154, inf = 99.1%, acc = 0.8%, imp = 418

worst case efficiency: 0.761116
[13 sec, 114867 itr]: obj = (0.272806), mov = 114867, inf = 99.1%, acc = 0.8%, imp = 435

worst case efficiency: 0.763684
[14 sec, 119997 itr]: obj = (0.274548), mov = 119997, inf = 99.2%, acc = 0.8%, imp = 446

worst case efficiency: 0.764729
[15 sec, 125582 itr]: obj = (0.294706), mov = 125582, inf = 99.2%, acc = 0.8%, imp = 472

worst case efficiency: 0.776824
[16 sec, 131603 itr]: obj = (0.302222), mov = 131603, inf = 99.2%, acc = 0.8%, imp = 489

worst case efficiency: 0.781333
[17 sec, 138756 itr]: obj = (0.310762), mov = 138756, inf = 99.2%, acc = 0.7%, imp = 506

worst case efficiency: 0.786457
[18 sec, 146951 itr]: obj = (0.31223), mov = 146951, inf = 99.3%, acc = 0.7%, imp = 521

worst case efficiency: 0.787338
[19 sec, 156478 itr]: obj = (0.313737), mov = 156478, inf = 99.3%, acc = 0.7%, imp = 529

worst case efficiency: 0.788242
[20 sec, 167511 itr]: obj = (0.316064), mov = 167511, inf = 99.4%, acc = 0.6%, imp = 536

worst case efficiency: 0.789639
[21 sec, 178102 itr]: obj = (0.316228), mov = 178102, inf = 99.4%, acc = 0.6%, imp = 543

worst case efficiency: 0.789737
[22 sec, 188635 itr]: obj = (0.319211), mov = 188635, inf = 99.4%, acc = 0.6%, imp = 552

worst case efficiency: 0.791526
[23 sec, 199231 itr]: obj = (0.320674), mov = 199231, inf = 99.5%, acc = 0.6%, imp = 560

worst case efficiency: 0.792404
[24 sec, 209845 itr]: obj = (0.324782), mov = 209845, inf = 99.5%, acc = 0.5%, imp = 573

worst case efficiency: 0.794869
[25 sec, 220461 itr]: obj = (0.325055), mov = 220461, inf = 99.5%, acc = 0.5%, imp = 578

worst case efficiency: 0.795033
[26 sec, 231055 itr]: obj = (0.32855), mov = 231055, inf = 99.5%, acc = 0.5%, imp = 587

worst case efficiency: 0.79713
[27 sec, 241264 itr]: obj = (0.330565), mov = 241264, inf = 99.5%, acc = 0.5%, imp = 597

worst case efficiency: 0.798339
[28 sec, 251749 itr]: obj = (0.334202), mov = 251749, inf = 99.6%, acc = 0.5%, imp = 608

worst case efficiency: 0.800521
[29 sec, 262453 itr]: obj = (0.335872), mov = 262453, inf = 99.6%, acc = 0.5%, imp = 616

worst case efficiency: 0.801523
[30 sec, 272755 itr]: obj = (0.33887), mov = 272755, inf = 99.6%, acc = 0.4%, imp = 623

worst case efficiency: 0.803322
[31 sec, 282557 itr]: obj = (0.339582), mov = 282557, inf = 99.6%, acc = 0.4%, imp = 631

worst case efficiency: 0.803749
[32 sec, 292930 itr]: obj = (0.341984), mov = 292930, inf = 99.6%, acc = 0.4%, imp = 643

worst case efficiency: 0.805191
[33 sec, 303013 itr]: obj = (0.343284), mov = 303013, inf = 99.6%, acc = 0.4%, imp = 651

worst case efficiency: 0.805971
[34 sec, 313016 itr]: obj = (0.343544), mov = 313016, inf = 99.6%, acc = 0.4%, imp = 658

worst case efficiency: 0.806126
[35 sec, 323399 itr]: obj = (0.346115), mov = 323399, inf = 99.7%, acc = 0.4%, imp = 673

worst case efficiency: 0.807669
[36 sec, 333770 itr]: obj = (0.346124), mov = 333770, inf = 99.7%, acc = 0.4%, imp = 675

worst case efficiency: 0.807675
[37 sec, 344241 itr]: obj = (0.346161), mov = 344241, inf = 99.7%, acc = 0.4%, imp = 680

worst case efficiency: 0.807697
[38 sec, 354429 itr]: obj = (0.346689), mov = 354429, inf = 99.7%, acc = 0.4%, imp = 687

worst case efficiency: 0.808013
[39 sec, 364248 itr]: obj = (0.346869), mov = 364248, inf = 99.7%, acc = 0.4%, imp = 692

worst case efficiency: 0.808122
[40 sec, 374540 itr]: obj = (0.347026), mov = 374540, inf = 99.7%, acc = 0.4%, imp = 699

worst case efficiency: 0.808216
[41 sec, 385705 itr]: obj = (0.3472), mov = 385705, inf = 99.7%, acc = 0.4%, imp = 702

worst case efficiency: 0.80832
[42 sec, 396290 itr]: obj = (0.347243), mov = 396290, inf = 99.7%, acc = 0.3%, imp = 704

worst case efficiency: 0.808346
[43 sec, 407118 itr]: obj = (0.347451), mov = 407118, inf = 99.7%, acc = 0.3%, imp = 710

worst case efficiency: 0.80847
[44 sec, 417421 itr]: obj = (0.347697), mov = 417421, inf = 99.7%, acc = 0.3%, imp = 714

worst case efficiency: 0.808618
[45 sec, 427909 itr]: obj = (0.347752), mov = 427909, inf = 99.7%, acc = 0.3%, imp = 715

worst case efficiency: 0.808651
[46 sec, 437955 itr]: obj = (0.34785), mov = 437955, inf = 99.7%, acc = 0.3%, imp = 719

worst case efficiency: 0.80871
[47 sec, 448140 itr]: obj = (0.348113), mov = 448140, inf = 99.7%, acc = 0.3%, imp = 726

worst case efficiency: 0.808868
[48 sec, 458599 itr]: obj = (0.348225), mov = 458599, inf = 99.8%, acc = 0.3%, imp = 733

worst case efficiency: 0.808935
[49 sec, 469130 itr]: obj = (0.349901), mov = 469130, inf = 99.8%, acc = 0.3%, imp = 747

worst case efficiency: 0.80994
[50 sec, 479321 itr]: obj = (0.350074), mov = 479321, inf = 99.8%, acc = 0.3%, imp = 751

worst case efficiency: 0.810044
[51 sec, 489175 itr]: obj = (0.35155), mov = 489175, inf = 99.8%, acc = 0.3%, imp = 759

worst case efficiency: 0.81093
[52 sec, 499093 itr]: obj = (0.35155), mov = 499093, inf = 99.8%, acc = 0.3%, imp = 759

worst case efficiency: 0.81093
[53 sec, 509273 itr]: obj = (0.35174), mov = 509273, inf = 99.8%, acc = 0.3%, imp = 764

worst case efficiency: 0.811044
[54 sec, 519222 itr]: obj = (0.351777), mov = 519222, inf = 99.8%, acc = 0.3%, imp = 767

worst case efficiency: 0.811066
[55 sec, 529182 itr]: obj = (0.351944), mov = 529182, inf = 99.8%, acc = 0.3%, imp = 771

worst case efficiency: 0.811167
[56 sec, 539033 itr]: obj = (0.351944), mov = 539033, inf = 99.8%, acc = 0.3%, imp = 771

worst case efficiency: 0.811167
[57 sec, 549073 itr]: obj = (0.351944), mov = 549073, inf = 99.8%, acc = 0.3%, imp = 771

worst case efficiency: 0.811167
[58 sec, 559032 itr]: obj = (0.351944), mov = 559032, inf = 99.8%, acc = 0.3%, imp = 771

worst case efficiency: 0.811167
[59 sec, 569270 itr]: obj = (0.351944), mov = 569270, inf = 99.8%, acc = 0.3%, imp = 771

worst case efficiency: 0.811167
[60 sec, 579773 itr]: obj = (0.351944), mov = 579773, inf = 99.8%, acc = 0.3%, imp = 771

worst case efficiency: 0.811167
[61 sec, 589792 itr]: obj = (0.351944), mov = 589792, inf = 99.8%, acc = 0.3%, imp = 771

worst case efficiency: 0.811167
[62 sec, 600102 itr]: obj = (0.351944), mov = 600102, inf = 99.8%, acc = 0.3%, imp = 771

worst case efficiency: 0.811167
[63 sec, 610058 itr]: obj = (0.351944), mov = 610058, inf = 99.8%, acc = 0.3%, imp = 771

worst case efficiency: 0.811167
[64 sec, 620080 itr]: obj = (0.351944), mov = 620080, inf = 99.8%, acc = 0.3%, imp = 771

worst case efficiency: 0.811167
[65 sec, 630003 itr]: obj = (0.351944), mov = 630003, inf = 99.8%, acc = 0.2%, imp = 771

worst case efficiency: 0.811167
[66 sec, 639979 itr]: obj = (0.351944), mov = 639979, inf = 99.8%, acc = 0.2%, imp = 771

worst case efficiency: 0.811167
[67 sec, 649976 itr]: obj = (0.351944), mov = 649976, inf = 99.8%, acc = 0.2%, imp = 771

worst case efficiency: 0.811167
[68 sec, 660061 itr]: obj = (0.351944), mov = 660061, inf = 99.8%, acc = 0.2%, imp = 771

worst case efficiency: 0.811167
[69 sec, 669813 itr]: obj = (0.351944), mov = 669813, inf = 99.8%, acc = 0.2%, imp = 771

worst case efficiency: 0.811167
[70 sec, 679848 itr]: obj = (0.351944), mov = 679848, inf = 99.8%, acc = 0.2%, imp = 771

worst case efficiency: 0.811167
[71 sec, 689785 itr]: obj = (0.351944), mov = 689785, inf = 99.8%, acc = 0.2%, imp = 771

worst case efficiency: 0.811167
[72 sec, 699621 itr]: obj = (0.351944), mov = 699621, inf = 99.8%, acc = 0.2%, imp = 771

worst case efficiency: 0.811167
[73 sec, 709177 itr]: obj = (0.351944), mov = 709177, inf = 99.9%, acc = 0.2%, imp = 771

worst case efficiency: 0.811167
[74 sec, 719340 itr]: obj = (0.351944), mov = 719340, inf = 99.9%, acc = 0.2%, imp = 771

worst case efficiency: 0.811167
[75 sec, 728903 itr]: obj = (0.351944), mov = 728903, inf = 99.9%, acc = 0.2%, imp = 771

worst case efficiency: 0.811167
[76 sec, 738623 itr]: obj = (0.351944), mov = 738623, inf = 99.9%, acc = 0.2%, imp = 771

worst case efficiency: 0.811167
[77 sec, 748902 itr]: obj = (0.351944), mov = 748902, inf = 99.9%, acc = 0.2%, imp = 771

worst case efficiency: 0.811167
[78 sec, 758586 itr]: obj = (0.351944), mov = 758586, inf = 99.9%, acc = 0.2%, imp = 771

worst case efficiency: 0.811167
[79 sec, 768682 itr]: obj = (0.351944), mov = 768682, inf = 99.9%, acc = 0.2%, imp = 771

worst case efficiency: 0.811167
[80 sec, 778732 itr]: obj = (0.351944), mov = 778732, inf = 99.9%, acc = 0.2%, imp = 771

worst case efficiency: 0.811167
[81 sec, 788753 itr]: obj = (0.351944), mov = 788753, inf = 99.9%, acc = 0.2%, imp = 771

worst case efficiency: 0.811167
[82 sec, 798800 itr]: obj = (0.351944), mov = 798800, inf = 99.9%, acc = 0.2%, imp = 771

worst case efficiency: 0.811167
[83 sec, 808987 itr]: obj = (0.351944), mov = 808987, inf = 99.9%, acc = 0.2%, imp = 771

worst case efficiency: 0.811167
[84 sec, 818824 itr]: obj = (0.351944), mov = 818824, inf = 99.9%, acc = 0.2%, imp = 771

worst case efficiency: 0.811167
[85 sec, 828547 itr]: obj = (0.351944), mov = 828547, inf = 99.9%, acc = 0.2%, imp = 771

worst case efficiency: 0.811167
[86 sec, 838545 itr]: obj = (0.351944), mov = 838545, inf = 99.9%, acc = 0.2%, imp = 771

worst case efficiency: 0.811167
[87 sec, 848368 itr]: obj = (0.351944), mov = 848368, inf = 99.9%, acc = 0.2%, imp = 771

worst case efficiency: 0.811167
[88 sec, 858367 itr]: obj = (0.351944), mov = 858367, inf = 99.9%, acc = 0.2%, imp = 771

worst case efficiency: 0.811167
[89 sec, 868078 itr]: obj = (0.351944), mov = 868078, inf = 99.9%, acc = 0.2%, imp = 771

worst case efficiency: 0.811167
[90 sec, 877944 itr]: obj = (0.351944), mov = 877944, inf = 99.9%, acc = 0.2%, imp = 771

worst case efficiency: 0.811167
[90 sec, 877944 itr]: obj = (0.351944), mov = 877944, inf = 99.9%, acc = 0.2%, imp = 771

worst case efficiency: 0.811167
877944 iterations, 877944 moves performed in 90 seconds
Feasible solution: obj = (0.351944)

Run output...
FINAL SOLUTION
Worst case efficiency: 0.811167
Mapping: 0->17, 1->10, 2->30, 3->11, 4->7, 5->11, 6->30, 7->8, 8->19, 9->31, 10->28, 11->1, 12->18, 13->15, 14->20, 15->39, 16->3, 17->47, 18->40, 19->9, 20->45, 21->32, 22->22, 23->0, 24->45, 25->4, 26->3, 27->43, 28->42, 29->41, 30->7, 31->3, 32->22, 33->11, 34->32, 35->35, 36->40, 37->17, 38->7, 39->47, 40->34, 41->6, 42->24, 43->21, 44->34, 45->6, 46->23, 47->5, 48->2, 49->9, 50->45, 51->23, 52->24, 53->12, 54->38, 55->6, 56->30, 57->4, 58->21, 59->1, 60->5, 61->45, 62->19, 63->45, 64->36, 65->0, 66->18, 67->36, 68->2, 69->39, 70->13, 71->20, 72->36, 73->47, 74->13, 75->25, 76->26, 77->44, 78->21, 79->16, 80->41, 81->3, 82->6, 83->44, 84->23, 85->14, 86->7, 87->8, 88->2, 89->43, 90->46, 91->42, 92->19, 93->35, 94->11, 95->15, 96->22, 97->43, 98->2, 99->36, 100->34, 101->31, 102->17, 103->6, 104->1, 105->4, 106->20, 107->26, 108->9, 109->31, 110->15, 111->32, 112->38, 113->46, 114->15, 115->27, 116->14, 117->14, 118->34, 119->36, 120->27, 121->31, 122->16, 123->19, 124->23, 125->33, 126->35, 127->31, 128->40, 129->24, 130->30, 131->8, 132->0, 133->13, 134->23, 135->21, 136->0, 137->27, 138->12, 139->0, 140->39, 141->5, 142->43, 143->28, 144->41, 145->8, 146->26, 147->13, 148->45, 149->46, 150->4, 151->47, 152->25, 153->0, 154->24, 155->17, 156->44, 157->40, 158->39, 159->33, 160->37, 161->25, 162->38, 163->39, 164->9, 165->47, 166->22, 167->18, 168->29, 169->16, 170->38, 171->1, 172->5, 173->8, 174->28, 175->30, 176->1, 177->26, 178->25, 179->10, 180->26, 181->32, 182->20, 183->19, 184->7, 185->33, 186->31, 187->22, 188->16, 189->15, 190->25, 191->21, 192->7, 193->10, 194->13, 195->34, 196->43, 197->28, 198->25, 199->38, 200->22, 201->46, 202->12, 203->41, 204->16, 205->46, 206->38, 207->44, 208->20, 209->12, 210->14, 211->32, 212->37, 213->9, 214->19, 215->24, 216->37, 217->33, 218->41, 219->14, 220->24, 221->6, 222->29, 223->37, 224->9, 225->12, 226->28, 227->35, 228->26, 229->42, 230->37, 231->21, 232->10, 233->12, 234->37, 235->18, 236->42, 237->8, 238->4, 239->39, 240->33, 241->3, 242->46, 243->1, 244->43, 245->29, 246->32, 247->27, 248->2, 249->17, 250->42, 251->44, 252->5, 253->14, 254->28, 255->2, 256->5, 257->18, 258->42, 259->29, 260->18, 261->36, 262->40, 263->11, 264->41, 265->35, 266->4, 267->29, 268->23, 269->3, 270->10, 271->17, 272->27, 273->16, 274->27, 275->29, 276->11, 277->44, 278->33, 279->34, 280->40, 281->30, 282->13, 283->47, 284->15, 285->10, 286->20, 287->35
Number of tasks per core:
	6	6	6	6	6	6
	6	6	6	6	6	6
	6	6	6	6	6	6
	6	6	6	6	6	6
	6	6	6	6	6	6
	6	6	6	6	6	6
	6	6	6	6	6	6
	6	6	6	6	6	6
Average CPI map:
	0.989545	1.45897	1.12989	1.64637	2.72858	1.66732
	1.42282	6.47011	4.88601	5.7408	4.9679	2.01526
	0.954493	11.2268	6.75033	9.2295	7.27985	1.55795
	0.947481	10.9771	7.84697	7.38758	5.10379	5.84781
	1.10991	10.4961	6.93269	10.6273	6.41667	2.30753
	1.26635	14.46	10.9886	8.206	7.30141	1.23795
	8.0654	6.57843	6.52345	5.17744	6.23122	5.19514
	2.28665	5.37444	4.71341	6.22715	5.4018	2.64181
Efficiency map:
	0.996741	0.938775	0.903041	0.940711	0.964249	0.99581
	0.817031	0.857228	0.812273	0.812173	0.811167	0.861904
	0.811568	0.960734	0.819919	0.854315	0.842734	0.830276
	0.813125	0.947447	0.861628	0.847271	0.81881	0.959595
	0.811413	0.944507	0.813899	0.940674	0.811167	0.867484
	0.824077	0.989962	0.952581	0.872286	0.870643	0.815979
	0.990076	0.811169	0.821488	0.818596	0.825717	0.948858
	0.864946	0.959616	0.822933	0.874568	0.817073	0.876745
==============================================================================
Local Solver optimizer for EML demonstration
==============================================================================

Option values: --wld-idx 6 --global-tlim 90 --seed 401

Starting the Optimization Process
