LocalSolver 4.0 (MacOS64, build 20131224)
Copyright (C) 2013 Bouygues SA, Aix-Marseille University, CNRS.
All rights reserved (see Terms and Conditions for details).

Load localsolver_res/tawd_ls.lsp...
Run input...
ANNs For the Platform:
3,2,1,0.413586,-0.0266769,-0.0683771,-5.1002,70.5254,-0.257939,-72.3361,-14.3957,-55.9961,0.000416225,-55.1984
3,2,1,7.29748,1.94844,3.18138,9.63196,-4.67735,-4.13678,1.22405,-8.03403,0.0803394,-0.125838,0.598848
3,2,1,6.43996,0.383984,0.598454,7.79024,-4.25175,0.123161,-0.278344,-5.71253,1.47885,1.00258,0.327892
3,2,1,3.45395,0.140329,0.51254,4.25255,4.08469,0.00326531,0.722664,3.88666,1.2829,-0.290289,-0.187123
3,2,1,1.76581,-0.7465,16.0398,1.01103,2.42771,0.96084,1.00318,4.14242,-0.00284347,0.244904,0.56299
3,2,1,1.87058,0.359859,-0.0851999,0.818043,3.18969,0.847611,-7.29654,-2.24823,0.00245596,0.000486788,0.794563
3,2,1,3.28113,0.579268,0.142679,3.72653,-0.240895,-0.149383,25.0414,7.13641,0.488705,-0.00083541,0.320468
3,2,1,-4.78997,-2.53518,1.7971,11.1628,-3.08773,-0.470276,-0.0894822,-2.63871,1.46314,-0.463195,-1.12076
3,2,1,-0.392198,-0.00544948,0.0100489,-0.634573,-1.21109,-0.0856362,-0.013156,-1.60668,1.54201,-2.33195,-0.462253
3,2,1,3.15031,0.401017,0.160161,2.51156,5.71314,0.59291,-11.6364,2.59774,0.430465,0.00737346,0.36306
3,2,1,2.64111,0.312028,0.0803827,2.35273,-4.25958,3.48188,-1.59773,-1.57632,0.565527,0.0271972,0.266241
3,2,1,2.2658,0.0425076,0.0191991,-0.583848,2.82415,0.533705,0.0754136,3.33659,-0.0169351,0.54785,0.257008
3,2,1,6.01014,0.654767,0.24854,5.54419,5.68574,0.00137666,0.00103835,-1.46229,0.258518,0.00962319,0.54621
3,2,1,-0.828282,0.684875,0.223674,-1.44779,5.0064,0.272371,0.00344824,2.89438,0.397142,0.379767,0.797684
3,2,1,-0.166745,-1.25514,-0.967701,-3.82155,3.34568,0.34907,0.176897,2.37943,0.567319,0.42026,0.93611
3,2,1,-10.035,3.55243,8.66202,-21.5626,10.92,0.228744,0.12852,5.40188,0.871264,0.345634,1.3209
3,2,1,4.50278,0.709934,0.227356,3.41616,1.455,0.115548,0.0125181,-1.15221,0.345467,0.222127,0.602264
3,2,1,3.51765,0.552987,0.202187,3.41883,0.53704,0.0709757,-0.0346297,-0.38017,0.320095,-0.0397752,0.474568
3,2,1,3.62936,0.506661,0.201819,3.49179,3.4019,-3.09955,1.3332,0.961184,0.32649,-0.0126443,0.488413
3,2,1,3.50925,0.448618,0.127508,2.4823,1.78455,1.6893,1.46456,-0.207671,0.400287,0.00684206,0.402337
3,2,1,-0.52883,0.00691432,0.00617163,-0.194006,1.73284,0.0488672,0.0179273,1.25978,0.716787,0.92667,0.162242
3,2,1,2.48239,0.190378,0.120167,1.91689,1.21532,1.48543,0.644574,2.68198,0.547395,-0.0744913,0.328097
3,2,1,2.55861,2.02297,0.650126,2.19109,2.44652,0.0836318,0.0133745,2.4369,0.0418722,0.798841,-0.0334834
3,2,1,5.07371,0.556895,0.217981,4.66725,-0.00829845,-0.00544544,0.00934569,-0.672651,0.280461,-0.520981,0.217266
3,2,1,1.56588,0.201966,0.0665967,1.82578,1.97654,0.236717,0.0903453,1.08195,1.02748,-0.229836,0.011785
3,2,1,2.41728,0.208205,-0.0012583,2.05484,1.41976,-1.30194,1.45365,1.79277,0.56727,0.031184,0.207229
3,2,1,3.71833,0.202336,0.172606,2.43155,5.03284,0.375118,-0.790998,-3.83455,0.400925,0.372075,0.754779
3,2,1,-1.25583,1.47411,0.819895,-2.78448,4.36107,0.113478,0.107247,2.55416,0.385214,0.384141,0.797017
3,2,1,1.71562,-0.478906,-0.61026,-1.17859,3.1361,0.360865,0.0914124,2.2536,-0.0127033,0.431384,0.365879
3,2,1,-1.75501,-0.0880109,-0.026461,-2.68365,2.88327,0.072433,0.0245574,1.95701,-5.87306,-0.563325,-4.48698
3,2,1,1.87886,0.47325,-0.0511434,1.79719,1.94184,0.328234,0.0220624,2.54301,-0.401251,1.77114,-0.565042
3,2,1,-1.60981,1.67946,0.217969,-1.01084,4.35765,0.130722,0.127348,2.65259,0.0709006,0.384957,0.481341
3,2,1,6.90393,1.27603,0.349979,4.84299,12.4465,-4.65212,-2.15462,0.408255,0.295914,0.0666312,0.4354
3,2,1,3.04491,0.18183,0.111428,2.10543,3.32281,-0.49945,-3.78487,-7.88748,0.444834,-4.36795,-4.01116
3,2,1,2.91407,0.251062,0.0435786,2.27032,0.308764,1.59867,0.766589,0.134898,0.475285,0.00569166,0.326702
3,2,1,1.44846,0.205113,0.0448314,1.45909,1.93039,0.286882,0.0586866,1.17886,1.39166,-0.600981,0.0448012
3,2,1,-0.702729,1.84783,-0.00894741,-12.1377,-140.908,-69.0514,-27.175,-146.219,-4.51728,-0.14351,-3.88527
3,2,1,4.2004,0.255152,0.0750175,2.63627,-1.17866,1.67307,0.209535,-1.03514,0.371915,0.0747402,0.498851
3,2,1,3.28015,0.190841,0.175032,2.31848,-0.821253,-1.83022,1.5009,-1.6155,0.417221,-0.0239081,0.360136
3,2,1,2.0525,0.0719707,0.0148549,2.1486,2.00198,1.73479,2.09334,1.44082,0.954066,0.00952719,-0.152697
3,2,1,3.31406,0.407717,0.0380361,2.47187,-0.266021,-1.73458,0.970613,-1.79463,0.415264,-0.0144649,0.374956
3,2,1,6.25099,-3.17047,1.46865,-0.279767,-2.91952,-0.395169,-0.0444215,-3.76202,-0.00491872,-1.23429,-0.425145
3,2,1,1.59636,0.096013,0.0630313,0.826005,1.46151,0.077228,0.0482484,1.68899,-0.289647,1.15304,-0.0688712
3,2,1,33.0172,0.520442,0.135338,28.5555,-3.97298,-0.0574545,-0.0193135,3.34452,0.297691,-5.9863,6.38072
3,2,1,2.32742,0.056139,0.0279748,2.30198,0.254535,0.117712,2.12797,1.7883,0.827797,-0.00209653,-0.0205758
3,2,1,-1.76524,-0.0296866,-0.00748622,-2.47523,4.4267,-0.377196,-4.83785,1.3517,-2.37434,-0.00716866,-1.55224
3,2,1,1.2047,-1.47491,1.03821,1.50617,3.23679,0.3845,-0.018138,2.47251,0.0419137,0.407618,0.357451
3,2,1,3.93828,-0.00820725,-0.00812648,-1.1651,2.06372,0.114124,0.0339398,2.70327,-0.0635318,1.17159,-0.373077
Workload Information:
1.84673, 2.42041, 1.75834, 2.89474, 1.69427, 1.38551, 2.46235, 2.45504, 2.59606, 1.19601, 1.87234, 1.4182, 1.96128, 3.15571, 2.79729, 1.32267, 0.5, 2.26305, 1.98228, 1.70508, 2.12024, 2.14991, 2.2916, 1.75088, 0.755484, 0.54686, 3.83922, 5.19541, 0.5, 1.16302, 2.31989, 2.38874, 2.43641, 0.5, 2.13179, 2.22317, 1.80714, 2.11006, 2.15256, 2.34256, 2.10042, 1.48726, 1.54461, 0.950353, 1.20445, 2.23662, 2.34683, 3.71713, 0.5, 5.36224, 0.52865, 1.66361, 1.90721, 2.03829, 2.63978, 2.09741, 0.5, 2.30381, 1.44335, 3.01565, 2.2646, 1.3469, 2.25602, 2.25683, 1.50227, 2.37337, 1.72578, 3.07984, 0.5, 3.07049, 0.585183, 3.03871, 2.12267, 1.79963, 1.99877, 2.14155, 2.01018, 1.92719, 2.3373, 2.3218, 2.19505, 2.30847, 1.90687, 0.930507, 0.740703, 3.24553, 2.54162, 3.22214, 0.5, 1.75, 2.17663, 1.5442, 3.09303, 2.12222, 2.33044, 0.733481, 1.65176, 1.40424, 1.94511, 2.71177, 0.843633, 3.44348, 2.63126, 0.689534, 3.32652, 1.1783, 3.6744, 0.5, 22.613, 19.2856, 24.0149, 21.6445, 20.458, 23.984, 15.2837, 10.2637, 27.7006, 12.2867, 35, 31.4654, 1.80152, 1.23191, 0.550734, 3.99936, 3.35929, 1.0572, 2.26222, 1.65845, 3.09067, 2.85354, 1.63512, 0.5, 1.83445, 1.91787, 1.87037, 2.22042, 2.07836, 2.07853, 1.66042, 2.31611, 1.87707, 1.20918, 2.37445, 2.56278, 25.1259, 15.8035, 23.3291, 21.0531, 21.6562, 25.0322, 10.9908, 1.62279, 18.9686, 19.8039, 7.58867, 1.02528, 3.64823, 2.04994, 0.5, 2.62994, 2.36995, 0.801942, 1.75267, 1.71425, 1.81136, 1.75732, 3.94108, 1.02332, 2.27859, 2.10621, 2.25153, 1.61356, 1.40716, 2.34295, 4.48751, 4.12667, 1.1188, 0.514438, 1.25258, 0.5, 10.6497, 0.826623, 0.5, 15.7283, 16.8589, 15.4365, 16.8585, 24.4301, 18.4259, 14.0159, 35, 23.2696, 1.8135, 2.09478, 2.49123, 2.24576, 2.04372, 1.31101, 2.23927, 1.93707, 2.01063, 1.91386, 1.5333, 2.36588, 2.58282, 0.5, 2.27296, 1.7874, 2.44696, 2.40986, 1.34271, 1.11543, 3.32638, 0.96229, 0.78731, 4.46588, 2.24659, 2.17077, 1.50713, 2.3402, 1.93202, 1.80329, 3.47984, 3.08617, 1.73913, 0.5, 0.839388, 2.35547, 0.947781, 2.24221, 1.3508, 0.5, 0.532641, 6.42657, 2.65936, 2.69733, 1.49764, 1.00509, 2.65979, 1.48079, 2.1002, 2.24337, 0.877869, 2.03223, 2.57752, 2.1688, 1.42136, 2.52297, 2.24222, 4.64462, 0.668832, 0.5, 2.67184, 2.39625, 0.5, 2.7517, 2.04332, 1.63688, 1.80828, 3.27928, 2.29494, 3.27757, 0.75066, 0.589273, 0.5, 2.90151, 1.90318, 3.349, 1.29194, 2.05437, 1.39794, 2.55799, 2.06636, 1.34371, 3.54123, 1.09276, 0.635287, 5.14838, 2.68593, 1.68248, 1.34793, 0.5, 1.79803, 1.27074, 3.93878, 0.648722, 3.84373, 0.5
cpi min/max: 0.5/35
neighbors of 0: 1 6, number of others: 45
neighbors of 1: 0 2 6 7, number of others: 43
neighbors of 2: 1 3 7 8, number of others: 43
neighbors of 3: 2 4 8 9, number of others: 43
neighbors of 4: 3 5 9 10, number of others: 43
neighbors of 5: 4 10 11, number of others: 44
neighbors of 6: 0 1 7 12, number of others: 43
neighbors of 7: 1 2 6 8 12 13, number of others: 41
neighbors of 8: 2 3 7 9 13 14, number of others: 41
neighbors of 9: 3 4 8 10 14 15, number of others: 41
neighbors of 10: 4 5 9 11 15 16, number of others: 41
neighbors of 11: 5 10 16 17, number of others: 43
neighbors of 12: 6 7 13 18, number of others: 43
neighbors of 13: 7 8 12 14 18 19, number of others: 41
neighbors of 14: 8 9 13 15 19 20, number of others: 41
neighbors of 15: 9 10 14 16 20 21, number of others: 41
neighbors of 16: 10 11 15 17 21 22, number of others: 41
neighbors of 17: 11 16 22 23, number of others: 43
neighbors of 18: 12 13 19 24, number of others: 43
neighbors of 19: 13 14 18 20 24 25, number of others: 41
neighbors of 20: 14 15 19 21 25 26, number of others: 41
neighbors of 21: 15 16 20 22 26 27, number of others: 41
neighbors of 22: 16 17 21 23 27 28, number of others: 41
neighbors of 23: 17 22 28 29, number of others: 43
neighbors of 24: 18 19 25 30, number of others: 43
neighbors of 25: 19 20 24 26 30 31, number of others: 41
neighbors of 26: 20 21 25 27 31 32, number of others: 41
neighbors of 27: 21 22 26 28 32 33, number of others: 41
neighbors of 28: 22 23 27 29 33 34, number of others: 41
neighbors of 29: 23 28 34 35, number of others: 43
neighbors of 30: 24 25 31 36, number of others: 43
neighbors of 31: 25 26 30 32 36 37, number of others: 41
neighbors of 32: 26 27 31 33 37 38, number of others: 41
neighbors of 33: 27 28 32 34 38 39, number of others: 41
neighbors of 34: 28 29 33 35 39 40, number of others: 41
neighbors of 35: 29 34 40 41, number of others: 43
neighbors of 36: 30 31 37 42, number of others: 43
neighbors of 37: 31 32 36 38 42 43, number of others: 41
neighbors of 38: 32 33 37 39 43 44, number of others: 41
neighbors of 39: 33 34 38 40 44 45, number of others: 41
neighbors of 40: 34 35 39 41 45 46, number of others: 41
neighbors of 41: 35 40 46 47, number of others: 43
neighbors of 42: 36 37 43, number of others: 44
neighbors of 43: 37 38 42 44, number of others: 43
neighbors of 44: 38 39 43 45, number of others: 43
neighbors of 45: 39 40 44 46, number of others: 43
neighbors of 46: 40 41 45 47, number of others: 43
neighbors of 47: 41 46, number of others: 45
Run model...
Preprocess model 0% ...Preprocess model 16% ...Preprocess model 32% ...Preprocess model 48% ...Preprocess model 66% ...Preprocess model 84% ...Preprocess model 100% ...
Close model 0% ...Close model 9% ...Close model 18% ...Close model 27% ...Close model 36% ...Close model 45% ...Close model 54% ...Close model 63% ...Close model 72% ...Close model 81% ...Close model 91% ...Close model 100% ...
Run param...
Run solver...
Initialize threads 0% ...Initialize threads 100% ...
Push initial solutions 0% ...Push initial solutions 100% ...

Model: 
  expressions = 30665, operands = 74976
  decisions = 13824, constraints = 336, objectives = 1

Param: 
  time limit = 90 sec, no iteration limit
  seed = 301, nb threads = 1, annealing level = 1

Objectives:
  Obj 0: maximize, no bound

Phases:
  Phase 0: time limit = 90 sec, no iteration limit, optimized objective = 0


Computed bounds:
  Obj 0: upper bound = 0.650128


Phase 0:
[0 sec, 0 itr]: infeas = (336, 336, 576), mov = 0, inf < 0.1%, acc < 0.1%, imp = 0

worst case efficiency: 0.965273
[1 sec, 3212 itr]: infeas = (4, 4, 10), mov = 3212, inf = 58.9%, acc = 32%, imp = 178

worst case efficiency: 0.628331
[2 sec, 30791 itr]: obj = (0.0718276), mov = 30791, inf = 95.1%, acc = 3.9%, imp = 214

worst case efficiency: 0.643097
[3 sec, 49692 itr]: obj = (0.0788715), mov = 49692, inf = 96.9%, acc = 2.5%, imp = 239

worst case efficiency: 0.647323
[4 sec, 60321 itr]: obj = (0.084299), mov = 60321, inf = 97.4%, acc = 2.1%, imp = 266

worst case efficiency: 0.650579
[5 sec, 71038 itr]: obj = (0.0883087), mov = 71038, inf = 97.8%, acc = 1.8%, imp = 290

worst case efficiency: 0.652985
[6 sec, 78706 itr]: obj = (0.0937794), mov = 78706, inf = 98%, acc = 1.7%, imp = 309

worst case efficiency: 0.656268
[7 sec, 85803 itr]: obj = (0.097972), mov = 85803, inf = 98.1%, acc = 1.6%, imp = 337

worst case efficiency: 0.658783
[8 sec, 92472 itr]: obj = (0.105841), mov = 92472, inf = 98.2%, acc = 1.5%, imp = 369

worst case efficiency: 0.663505
[9 sec, 98241 itr]: obj = (0.107113), mov = 98241, inf = 98.3%, acc = 1.4%, imp = 383

worst case efficiency: 0.664268
[10 sec, 103657 itr]: obj = (0.109151), mov = 103657, inf = 98.4%, acc = 1.4%, imp = 404

worst case efficiency: 0.66549
[11 sec, 109155 itr]: obj = (0.109991), mov = 109155, inf = 98.5%, acc = 1.3%, imp = 423

worst case efficiency: 0.665995
[12 sec, 114902 itr]: obj = (0.113307), mov = 114902, inf = 98.5%, acc = 1.3%, imp = 439

worst case efficiency: 0.667984
[13 sec, 120455 itr]: obj = (0.118798), mov = 120455, inf = 98.6%, acc = 1.2%, imp = 473

worst case efficiency: 0.671279
[14 sec, 125583 itr]: obj = (0.12284), mov = 125583, inf = 98.6%, acc = 1.2%, imp = 493

worst case efficiency: 0.673704
[15 sec, 130458 itr]: obj = (0.125968), mov = 130458, inf = 98.6%, acc = 1.2%, imp = 514

worst case efficiency: 0.675581
[16 sec, 134805 itr]: obj = (0.127078), mov = 134805, inf = 98.7%, acc = 1.2%, imp = 537

worst case efficiency: 0.676247
[17 sec, 139097 itr]: obj = (0.127131), mov = 139097, inf = 98.7%, acc = 1.1%, imp = 540

worst case efficiency: 0.676278
[18 sec, 143379 itr]: obj = (0.127131), mov = 143379, inf = 98.7%, acc = 1.1%, imp = 540

worst case efficiency: 0.676278
[19 sec, 147919 itr]: obj = (0.128783), mov = 147919, inf = 98.8%, acc = 1.1%, imp = 552

worst case efficiency: 0.67727
[20 sec, 152784 itr]: obj = (0.131195), mov = 152784, inf = 98.8%, acc = 1.1%, imp = 571

worst case efficiency: 0.678717
[21 sec, 157886 itr]: obj = (0.134429), mov = 157886, inf = 98.8%, acc = 1%, imp = 590

worst case efficiency: 0.680658
[22 sec, 163261 itr]: obj = (0.138114), mov = 163261, inf = 98.9%, acc = 1%, imp = 613

worst case efficiency: 0.682868
[23 sec, 168810 itr]: obj = (0.147919), mov = 168810, inf = 98.9%, acc = 1%, imp = 642

worst case efficiency: 0.688751
[24 sec, 174989 itr]: obj = (0.161232), mov = 174989, inf = 98.9%, acc = 1%, imp = 668

worst case efficiency: 0.696739
[25 sec, 181771 itr]: obj = (0.167035), mov = 181771, inf = 98.9%, acc = 1%, imp = 684

worst case efficiency: 0.700221
[26 sec, 189420 itr]: obj = (0.177302), mov = 189420, inf = 99%, acc = 0.9%, imp = 713

worst case efficiency: 0.706381
[27 sec, 198816 itr]: obj = (0.183089), mov = 198816, inf = 99%, acc = 0.9%, imp = 727

worst case efficiency: 0.709853
[28 sec, 211044 itr]: obj = (0.184967), mov = 211044, inf = 99.1%, acc = 0.9%, imp = 734

worst case efficiency: 0.71098
[29 sec, 230605 itr]: obj = (0.189558), mov = 230605, inf = 99.1%, acc = 0.8%, imp = 739

worst case efficiency: 0.713735
[30 sec, 260766 itr]: obj = (0.189917), mov = 260766, inf = 99.2%, acc = 0.7%, imp = 740

worst case efficiency: 0.71395
[31 sec, 292713 itr]: obj = (0.190513), mov = 292713, inf = 99.2%, acc = 0.7%, imp = 743

worst case efficiency: 0.714308
[32 sec, 326153 itr]: obj = (0.190513), mov = 326153, inf = 99.3%, acc = 0.6%, imp = 743

worst case efficiency: 0.714308
[33 sec, 367376 itr]: obj = (0.191049), mov = 367376, inf = 99.2%, acc = 0.6%, imp = 746

worst case efficiency: 0.714629
[34 sec, 412362 itr]: obj = (0.191222), mov = 412362, inf = 99.2%, acc = 0.6%, imp = 748

worst case efficiency: 0.714733
[35 sec, 462001 itr]: obj = (0.19255), mov = 462001, inf = 99.2%, acc = 0.5%, imp = 750

worst case efficiency: 0.71553
[36 sec, 503275 itr]: obj = (0.192623), mov = 503275, inf = 99.3%, acc = 0.5%, imp = 751

worst case efficiency: 0.715574
[37 sec, 554221 itr]: obj = (0.192623), mov = 554221, inf = 99.3%, acc = 0.5%, imp = 751

worst case efficiency: 0.715574
[38 sec, 603037 itr]: obj = (0.192661), mov = 603037, inf = 99.3%, acc = 0.4%, imp = 752

worst case efficiency: 0.715597
[39 sec, 649406 itr]: obj = (0.192744), mov = 649406, inf = 99.3%, acc = 0.4%, imp = 754

worst case efficiency: 0.715646
[40 sec, 698180 itr]: obj = (0.192907), mov = 698180, inf = 99.4%, acc = 0.4%, imp = 755

worst case efficiency: 0.715744
[41 sec, 737122 itr]: obj = (0.192933), mov = 737122, inf = 99.4%, acc = 0.4%, imp = 756

worst case efficiency: 0.71576
[42 sec, 775029 itr]: obj = (0.192978), mov = 775029, inf = 99.4%, acc = 0.3%, imp = 758

worst case efficiency: 0.715787
[43 sec, 812904 itr]: obj = (0.193007), mov = 812904, inf = 99.4%, acc = 0.3%, imp = 759

worst case efficiency: 0.715804
[44 sec, 841856 itr]: obj = (0.193007), mov = 841856, inf = 99.4%, acc = 0.3%, imp = 759

worst case efficiency: 0.715804
[45 sec, 861606 itr]: obj = (0.193273), mov = 861606, inf = 99.4%, acc = 0.3%, imp = 761

worst case efficiency: 0.715964
[46 sec, 892896 itr]: obj = (0.193469), mov = 892896, inf = 99.4%, acc = 0.3%, imp = 762

worst case efficiency: 0.716082
[47 sec, 933325 itr]: obj = (0.193469), mov = 933325, inf = 99.4%, acc = 0.3%, imp = 762

worst case efficiency: 0.716082
[48 sec, 972141 itr]: obj = (0.19381), mov = 972141, inf = 99.5%, acc = 0.3%, imp = 766

worst case efficiency: 0.716286
[49 sec, 1016525 itr]: obj = (0.19381), mov = 1016525, inf = 99.4%, acc = 0.3%, imp = 766

worst case efficiency: 0.716286
[50 sec, 1048586 itr]: obj = (0.19398), mov = 1048586, inf = 99.5%, acc = 0.3%, imp = 767

worst case efficiency: 0.716388
[51 sec, 1085385 itr]: obj = (0.194055), mov = 1085385, inf = 99.5%, acc = 0.3%, imp = 769

worst case efficiency: 0.716433
[52 sec, 1128288 itr]: obj = (0.194108), mov = 1128288, inf = 99.5%, acc = 0.3%, imp = 771

worst case efficiency: 0.716465
[53 sec, 1173562 itr]: obj = (0.194108), mov = 1173562, inf = 99.5%, acc = 0.2%, imp = 771

worst case efficiency: 0.716465
[54 sec, 1219221 itr]: obj = (0.194134), mov = 1219221, inf = 99.5%, acc = 0.2%, imp = 774

worst case efficiency: 0.71648
[55 sec, 1264681 itr]: obj = (0.194139), mov = 1264681, inf = 99.5%, acc = 0.2%, imp = 775

worst case efficiency: 0.716484
[56 sec, 1312324 itr]: obj = (0.194146), mov = 1312324, inf = 99.5%, acc = 0.2%, imp = 776

worst case efficiency: 0.716487
[57 sec, 1361037 itr]: obj = (0.194168), mov = 1361037, inf = 99.5%, acc = 0.2%, imp = 777

worst case efficiency: 0.716501
[58 sec, 1410833 itr]: obj = (0.194257), mov = 1410833, inf = 99.5%, acc = 0.2%, imp = 778

worst case efficiency: 0.716554
[59 sec, 1460864 itr]: obj = (0.194333), mov = 1460864, inf = 99.5%, acc = 0.2%, imp = 781

worst case efficiency: 0.7166
[60 sec, 1504108 itr]: obj = (0.194333), mov = 1504108, inf = 99.5%, acc = 0.2%, imp = 781

worst case efficiency: 0.7166
[61 sec, 1549369 itr]: obj = (0.194333), mov = 1549369, inf = 99.5%, acc = 0.2%, imp = 781

worst case efficiency: 0.7166
[62 sec, 1592693 itr]: obj = (0.194333), mov = 1592693, inf = 99.5%, acc = 0.2%, imp = 781

worst case efficiency: 0.7166
[63 sec, 1633115 itr]: obj = (0.194387), mov = 1633115, inf = 99.5%, acc = 0.2%, imp = 782

worst case efficiency: 0.716632
[64 sec, 1680351 itr]: obj = (0.19441), mov = 1680351, inf = 99.5%, acc = 0.2%, imp = 783

worst case efficiency: 0.716646
[65 sec, 1728552 itr]: obj = (0.194476), mov = 1728552, inf = 99.5%, acc = 0.2%, imp = 785

worst case efficiency: 0.716686
[66 sec, 1772554 itr]: obj = (0.194774), mov = 1772554, inf = 99.5%, acc = 0.2%, imp = 787

worst case efficiency: 0.716864
[67 sec, 1815970 itr]: obj = (0.194774), mov = 1815970, inf = 99.5%, acc = 0.2%, imp = 787

worst case efficiency: 0.716864
[68 sec, 1864466 itr]: obj = (0.194774), mov = 1864466, inf = 99.5%, acc = 0.2%, imp = 787

worst case efficiency: 0.716864
[69 sec, 1904564 itr]: obj = (0.194831), mov = 1904564, inf = 99.5%, acc = 0.2%, imp = 789

worst case efficiency: 0.716899
[70 sec, 1950679 itr]: obj = (0.195348), mov = 1950679, inf = 99.5%, acc = 0.2%, imp = 790

worst case efficiency: 0.717209
[71 sec, 1994829 itr]: obj = (0.195446), mov = 1994829, inf = 99.5%, acc = 0.2%, imp = 791

worst case efficiency: 0.717268
[72 sec, 2040572 itr]: obj = (0.196823), mov = 2040572, inf = 99.5%, acc = 0.2%, imp = 796

worst case efficiency: 0.718094
[73 sec, 2083686 itr]: obj = (0.196861), mov = 2083686, inf = 99.5%, acc = 0.2%, imp = 797

worst case efficiency: 0.718116
[74 sec, 2133084 itr]: obj = (0.196945), mov = 2133084, inf = 99.5%, acc = 0.2%, imp = 799

worst case efficiency: 0.718167
[75 sec, 2177846 itr]: obj = (0.197055), mov = 2177846, inf = 99.5%, acc = 0.2%, imp = 801

worst case efficiency: 0.718233
[76 sec, 2226403 itr]: obj = (0.197188), mov = 2226403, inf = 99.5%, acc = 0.2%, imp = 803

worst case efficiency: 0.718313
[77 sec, 2273638 itr]: obj = (0.197188), mov = 2273638, inf = 99.5%, acc = 0.2%, imp = 803

worst case efficiency: 0.718313
[78 sec, 2315849 itr]: obj = (0.197281), mov = 2315849, inf = 99.5%, acc = 0.2%, imp = 805

worst case efficiency: 0.718369
[79 sec, 2363105 itr]: obj = (0.197324), mov = 2363105, inf = 99.5%, acc = 0.2%, imp = 806

worst case efficiency: 0.718394
[80 sec, 2409387 itr]: obj = (0.197527), mov = 2409387, inf = 99.5%, acc < 0.1%, imp = 808

worst case efficiency: 0.718516
[81 sec, 2446243 itr]: obj = (0.197581), mov = 2446243, inf = 99.5%, acc < 0.1%, imp = 810

worst case efficiency: 0.718548
[82 sec, 2484178 itr]: obj = (0.197729), mov = 2484178, inf = 99.5%, acc < 0.1%, imp = 811

worst case efficiency: 0.718637
[83 sec, 2522490 itr]: obj = (0.197729), mov = 2522490, inf = 99.5%, acc < 0.1%, imp = 811

worst case efficiency: 0.718637
[84 sec, 2565979 itr]: obj = (0.197791), mov = 2565979, inf = 99.5%, acc < 0.1%, imp = 812

worst case efficiency: 0.718674
[85 sec, 2613824 itr]: obj = (0.197874), mov = 2613824, inf = 99.5%, acc < 0.1%, imp = 814

worst case efficiency: 0.718724
[86 sec, 2658487 itr]: obj = (0.198016), mov = 2658487, inf = 99.5%, acc < 0.1%, imp = 815

worst case efficiency: 0.718809
[87 sec, 2703175 itr]: obj = (0.198145), mov = 2703175, inf = 99.5%, acc < 0.1%, imp = 817

worst case efficiency: 0.718887
[88 sec, 2753448 itr]: obj = (0.19816), mov = 2753448, inf = 99.5%, acc < 0.1%, imp = 818

worst case efficiency: 0.718896
[89 sec, 2801258 itr]: obj = (0.198194), mov = 2801258, inf = 99.5%, acc < 0.1%, imp = 819

worst case efficiency: 0.718916
[90 sec, 2847529 itr]: obj = (0.198194), mov = 2847529, inf = 99.5%, acc < 0.1%, imp = 819

worst case efficiency: 0.718916
[90 sec, 2847529 itr]: obj = (0.198194), mov = 2847529, inf = 99.5%, acc < 0.1%, imp = 819

worst case efficiency: 0.718916
2847529 iterations, 2847529 moves performed in 90 seconds
Feasible solution: obj = (0.198194)

Run output...
FINAL SOLUTION
Worst case efficiency: 0.718916
Mapping: 0->28, 1->2, 2->47, 3->8, 4->18, 5->43, 6->15, 7->9, 8->44, 9->30, 10->22, 11->18, 12->36, 13->43, 14->45, 15->34, 16->35, 17->12, 18->19, 19->26, 20->47, 21->11, 22->3, 23->5, 24->6, 25->1, 26->14, 27->4, 28->4, 29->30, 30->37, 31->37, 32->9, 33->33, 34->32, 35->33, 36->12, 37->4, 38->10, 39->34, 40->19, 41->21, 42->24, 43->21, 44->18, 45->39, 46->14, 47->10, 48->18, 49->13, 50->35, 51->24, 52->41, 53->39, 54->7, 55->5, 56->12, 57->22, 58->24, 59->7, 60->4, 61->2, 62->25, 63->43, 64->26, 65->38, 66->42, 67->38, 68->30, 69->23, 70->26, 71->46, 72->17, 73->6, 74->33, 75->36, 76->32, 77->3, 78->24, 79->18, 80->24, 81->45, 82->40, 83->1, 84->35, 85->31, 86->8, 87->16, 88->22, 89->42, 90->11, 91->28, 92->7, 93->43, 94->5, 95->6, 96->18, 97->4, 98->35, 99->43, 100->27, 101->34, 102->8, 103->29, 104->3, 105->27, 106->26, 107->1, 108->2, 109->16, 110->40, 111->15, 112->13, 113->45, 114->31, 115->32, 116->20, 117->22, 118->19, 119->7, 120->28, 121->6, 122->17, 123->38, 124->13, 125->34, 126->31, 127->36, 128->3, 129->8, 130->41, 131->35, 132->0, 133->39, 134->28, 135->25, 136->23, 137->38, 138->39, 139->4, 140->29, 141->34, 142->15, 143->3, 144->15, 145->34, 146->14, 147->14, 148->33, 149->9, 150->21, 151->5, 152->28, 153->37, 154->37, 155->17, 156->11, 157->37, 158->24, 159->13, 160->46, 161->17, 162->47, 163->43, 164->2, 165->44, 166->8, 167->19, 168->41, 169->16, 170->41, 171->42, 172->11, 173->9, 174->14, 175->25, 176->15, 177->21, 178->21, 179->29, 180->21, 181->20, 182->12, 183->9, 184->32, 185->38, 186->39, 187->25, 188->31, 189->44, 190->27, 191->26, 192->22, 193->17, 194->11, 195->26, 196->47, 197->0, 198->40, 199->8, 200->1, 201->20, 202->19, 203->36, 204->13, 205->17, 206->5, 207->0, 208->45, 209->40, 210->42, 211->30, 212->2, 213->1, 214->23, 215->16, 216->7, 217->25, 218->31, 219->10, 220->45, 221->27, 222->5, 223->46, 224->11, 225->23, 226->1, 227->41, 228->29, 229->47, 230->20, 231->22, 232->20, 233->9, 234->31, 235->41, 236->44, 237->12, 238->7, 239->39, 240->40, 241->16, 242->6, 243->15, 244->10, 245->28, 246->44, 247->33, 248->30, 249->2, 250->0, 251->6, 252->45, 253->46, 254->42, 255->40, 256->14, 257->12, 258->13, 259->46, 260->47, 261->27, 262->20, 263->44, 264->42, 265->23, 266->27, 267->19, 268->36, 269->32, 270->29, 271->10, 272->33, 273->23, 274->10, 275->35, 276->29, 277->32, 278->38, 279->36, 280->37, 281->0, 282->0, 283->16, 284->3, 285->30, 286->46, 287->25
Number of tasks per core:
	6	6	6	6	6	6
	6	6	6	6	6	6
	6	6	6	6	6	6
	6	6	6	6	6	6
	6	6	6	6	6	6
	6	6	6	6	6	6
	6	6	6	6	6	6
	6	6	6	6	6	6
Average CPI map:
	1.31662	0.964945	6.02712	2.85626	2.2984	2.25905
	0.983062	7.52003	2.79988	9.07024	2.81444	2.26872
	1.28536	6.03344	9.51652	9.12637	5.43232	1.18257
	1.46508	7.49805	5.51252	4.30751	3.21272	1.78023
	1.61399	5.95066	5.49705	7.33433	4.70003	1.00793
	1.14423	7.23063	6.41122	5.16124	4.19643	0.884537
	1.85026	5.91652	4.94225	4.36542	5.9038	2.18754
	1.23868	2.22438	3.64626	6.02343	3.00235	2.03536
Efficiency map:
	0.99672	0.93963	0.998601	0.976269	0.956968	0.99591
	0.795272	0.889477	0.718916	0.9202	0.71894	0.863287
	0.816078	0.738036	0.911597	0.840147	0.745832	0.808984
	0.817323	0.837198	0.776065	0.72601	0.721765	0.819978
	0.819503	0.825545	0.738399	0.80549	0.72765	0.722233
	0.779019	0.81683	0.718962	0.744474	0.740182	0.787188
	0.871815	0.768069	0.747255	0.781235	0.803031	0.842992
	0.819167	0.719254	0.769984	0.867791	0.718923	0.847703
==============================================================================
Local Solver optimizer for EML demonstration
==============================================================================

Option values: --wld-idx 1 --global-tlim 90 --seed 301

Starting the Optimization Process
