LocalSolver 4.0 (MacOS64, build 20131224)
Copyright (C) 2013 Bouygues SA, Aix-Marseille University, CNRS.
All rights reserved (see Terms and Conditions for details).

Load localsolver_res/tawd_ls.lsp...
Run input...
ANNs For the Platform:
3,2,1,0.413586,-0.0266769,-0.0683771,-5.1002,70.5254,-0.257939,-72.3361,-14.3957,-55.9961,0.000416225,-55.1984
3,2,1,7.29748,1.94844,3.18138,9.63196,-4.67735,-4.13678,1.22405,-8.03403,0.0803394,-0.125838,0.598848
3,2,1,6.43996,0.383984,0.598454,7.79024,-4.25175,0.123161,-0.278344,-5.71253,1.47885,1.00258,0.327892
3,2,1,3.45395,0.140329,0.51254,4.25255,4.08469,0.00326531,0.722664,3.88666,1.2829,-0.290289,-0.187123
3,2,1,1.76581,-0.7465,16.0398,1.01103,2.42771,0.96084,1.00318,4.14242,-0.00284347,0.244904,0.56299
3,2,1,1.87058,0.359859,-0.0851999,0.818043,3.18969,0.847611,-7.29654,-2.24823,0.00245596,0.000486788,0.794563
3,2,1,3.28113,0.579268,0.142679,3.72653,-0.240895,-0.149383,25.0414,7.13641,0.488705,-0.00083541,0.320468
3,2,1,-4.78997,-2.53518,1.7971,11.1628,-3.08773,-0.470276,-0.0894822,-2.63871,1.46314,-0.463195,-1.12076
3,2,1,-0.392198,-0.00544948,0.0100489,-0.634573,-1.21109,-0.0856362,-0.013156,-1.60668,1.54201,-2.33195,-0.462253
3,2,1,3.15031,0.401017,0.160161,2.51156,5.71314,0.59291,-11.6364,2.59774,0.430465,0.00737346,0.36306
3,2,1,2.64111,0.312028,0.0803827,2.35273,-4.25958,3.48188,-1.59773,-1.57632,0.565527,0.0271972,0.266241
3,2,1,2.2658,0.0425076,0.0191991,-0.583848,2.82415,0.533705,0.0754136,3.33659,-0.0169351,0.54785,0.257008
3,2,1,6.01014,0.654767,0.24854,5.54419,5.68574,0.00137666,0.00103835,-1.46229,0.258518,0.00962319,0.54621
3,2,1,-0.828282,0.684875,0.223674,-1.44779,5.0064,0.272371,0.00344824,2.89438,0.397142,0.379767,0.797684
3,2,1,-0.166745,-1.25514,-0.967701,-3.82155,3.34568,0.34907,0.176897,2.37943,0.567319,0.42026,0.93611
3,2,1,-10.035,3.55243,8.66202,-21.5626,10.92,0.228744,0.12852,5.40188,0.871264,0.345634,1.3209
3,2,1,4.50278,0.709934,0.227356,3.41616,1.455,0.115548,0.0125181,-1.15221,0.345467,0.222127,0.602264
3,2,1,3.51765,0.552987,0.202187,3.41883,0.53704,0.0709757,-0.0346297,-0.38017,0.320095,-0.0397752,0.474568
3,2,1,3.62936,0.506661,0.201819,3.49179,3.4019,-3.09955,1.3332,0.961184,0.32649,-0.0126443,0.488413
3,2,1,3.50925,0.448618,0.127508,2.4823,1.78455,1.6893,1.46456,-0.207671,0.400287,0.00684206,0.402337
3,2,1,-0.52883,0.00691432,0.00617163,-0.194006,1.73284,0.0488672,0.0179273,1.25978,0.716787,0.92667,0.162242
3,2,1,2.48239,0.190378,0.120167,1.91689,1.21532,1.48543,0.644574,2.68198,0.547395,-0.0744913,0.328097
3,2,1,2.55861,2.02297,0.650126,2.19109,2.44652,0.0836318,0.0133745,2.4369,0.0418722,0.798841,-0.0334834
3,2,1,5.07371,0.556895,0.217981,4.66725,-0.00829845,-0.00544544,0.00934569,-0.672651,0.280461,-0.520981,0.217266
3,2,1,1.56588,0.201966,0.0665967,1.82578,1.97654,0.236717,0.0903453,1.08195,1.02748,-0.229836,0.011785
3,2,1,2.41728,0.208205,-0.0012583,2.05484,1.41976,-1.30194,1.45365,1.79277,0.56727,0.031184,0.207229
3,2,1,3.71833,0.202336,0.172606,2.43155,5.03284,0.375118,-0.790998,-3.83455,0.400925,0.372075,0.754779
3,2,1,-1.25583,1.47411,0.819895,-2.78448,4.36107,0.113478,0.107247,2.55416,0.385214,0.384141,0.797017
3,2,1,1.71562,-0.478906,-0.61026,-1.17859,3.1361,0.360865,0.0914124,2.2536,-0.0127033,0.431384,0.365879
3,2,1,-1.75501,-0.0880109,-0.026461,-2.68365,2.88327,0.072433,0.0245574,1.95701,-5.87306,-0.563325,-4.48698
3,2,1,1.87886,0.47325,-0.0511434,1.79719,1.94184,0.328234,0.0220624,2.54301,-0.401251,1.77114,-0.565042
3,2,1,-1.60981,1.67946,0.217969,-1.01084,4.35765,0.130722,0.127348,2.65259,0.0709006,0.384957,0.481341
3,2,1,6.90393,1.27603,0.349979,4.84299,12.4465,-4.65212,-2.15462,0.408255,0.295914,0.0666312,0.4354
3,2,1,3.04491,0.18183,0.111428,2.10543,3.32281,-0.49945,-3.78487,-7.88748,0.444834,-4.36795,-4.01116
3,2,1,2.91407,0.251062,0.0435786,2.27032,0.308764,1.59867,0.766589,0.134898,0.475285,0.00569166,0.326702
3,2,1,1.44846,0.205113,0.0448314,1.45909,1.93039,0.286882,0.0586866,1.17886,1.39166,-0.600981,0.0448012
3,2,1,-0.702729,1.84783,-0.00894741,-12.1377,-140.908,-69.0514,-27.175,-146.219,-4.51728,-0.14351,-3.88527
3,2,1,4.2004,0.255152,0.0750175,2.63627,-1.17866,1.67307,0.209535,-1.03514,0.371915,0.0747402,0.498851
3,2,1,3.28015,0.190841,0.175032,2.31848,-0.821253,-1.83022,1.5009,-1.6155,0.417221,-0.0239081,0.360136
3,2,1,2.0525,0.0719707,0.0148549,2.1486,2.00198,1.73479,2.09334,1.44082,0.954066,0.00952719,-0.152697
3,2,1,3.31406,0.407717,0.0380361,2.47187,-0.266021,-1.73458,0.970613,-1.79463,0.415264,-0.0144649,0.374956
3,2,1,6.25099,-3.17047,1.46865,-0.279767,-2.91952,-0.395169,-0.0444215,-3.76202,-0.00491872,-1.23429,-0.425145
3,2,1,1.59636,0.096013,0.0630313,0.826005,1.46151,0.077228,0.0482484,1.68899,-0.289647,1.15304,-0.0688712
3,2,1,33.0172,0.520442,0.135338,28.5555,-3.97298,-0.0574545,-0.0193135,3.34452,0.297691,-5.9863,6.38072
3,2,1,2.32742,0.056139,0.0279748,2.30198,0.254535,0.117712,2.12797,1.7883,0.827797,-0.00209653,-0.0205758
3,2,1,-1.76524,-0.0296866,-0.00748622,-2.47523,4.4267,-0.377196,-4.83785,1.3517,-2.37434,-0.00716866,-1.55224
3,2,1,1.2047,-1.47491,1.03821,1.50617,3.23679,0.3845,-0.018138,2.47251,0.0419137,0.407618,0.357451
3,2,1,3.93828,-0.00820725,-0.00812648,-1.1651,2.06372,0.114124,0.0339398,2.70327,-0.0635318,1.17159,-0.373077
Workload Information:
1.94365, 1.72274, 3.0003, 2.67473, 0.708817, 1.94976, 2.19814, 1.98059, 1.65253, 2.4329, 1.55026, 2.18558, 1.48288, 2.34618, 2.63831, 0.569931, 2.33748, 2.62522, 0.804851, 1.52861, 1.80011, 2.60212, 2.33104, 2.93327, 1.94532, 4.65093, 0.878058, 0.5, 1.06048, 2.96521, 2.23336, 2.27321, 1.83764, 2.40798, 2.09804, 1.14978, 2.18893, 1.90383, 1.76951, 2.21741, 1.98643, 1.93389, 1.55668, 2.88121, 2.46075, 0.911159, 3.03305, 1.15715, 0.591041, 1.89129, 1.07596, 6.14979, 0.665151, 1.62677, 0.767756, 4.62481, 4.39743, 1.19803, 0.511976, 0.5, 1.96853, 2.16397, 1.90805, 2.06591, 1.81344, 2.0801, 3.14364, 2.68947, 3.07273, 0.992259, 1.12898, 0.972916, 1.28574, 3.11346, 2.32277, 3.49911, 0.5, 1.27892, 2.49159, 1.16019, 1.80184, 1.58221, 2.66877, 2.29539, 3.32212, 0.892106, 1.63738, 3.35417, 0.746758, 2.04747, 3.13617, 0.50463, 0.5, 2.24314, 3.80159, 1.81447, 3.23507, 1.39096, 1.87515, 0.5, 4.3616, 0.637222, 1.13916, 0.822893, 4.33047, 0.600166, 4.60731, 0.5, 1.53706, 1.61894, 2.89586, 3.09672, 1.62184, 1.22957, 2.25583, 2.5967, 1.38999, 1.90329, 1.28025, 2.57393, 5.29231, 1.79515, 1.08895, 2.52152, 0.5, 0.802071, 1.39208, 4.15828, 1.19659, 3.60276, 0.832847, 0.817443, 1.42375, 3.38068, 3.5672, 1.98301, 0.5, 1.14536, 2.08175, 1.67462, 1.4119, 2.48904, 2.36101, 1.98167, 0.831055, 2.3706, 2.51188, 1.69479, 2.39317, 2.1985, 2.14689, 1.49416, 2.03144, 2.24304, 1.86527, 2.21921, 0.5, 3.26911, 3.04269, 1.6405, 0.513251, 3.03445, 2.40604, 1.29186, 1.22159, 4.02385, 2.55665, 0.5, 0.5, 1.05656, 1.97776, 3.13619, 0.881539, 4.44794, 3.45001, 1.15696, 1.77274, 2.26232, 0.5, 2.85797, 2.69944, 2.17428, 2.35897, 0.949505, 1.29318, 2.52463, 2.31628, 1.77659, 2.19046, 1.3835, 2.0286, 2.30457, 2.11015, 1.89318, 1.85647, 1.92611, 2.07169, 2.1424, 13.0536, 21.2619, 23.5566, 26.8842, 25.3488, 21.8948, 1.7748, 0.834071, 3.4189, 0.867087, 3.53284, 1.57231, 3.08433, 0.5, 0.925509, 1.9174, 3.21161, 2.36115, 3.31126, 0.804972, 5.2321, 0.809171, 1.18812, 0.654377, 3.01691, 2.54381, 1.23675, 1.63031, 2.58394, 0.988287, 0.619142, 2.15659, 3.61914, 1.34939, 3.50477, 0.750974, 1.35392, 1.40387, 2.36883, 1.9597, 2.43715, 2.47654, 1.52286, 2.39294, 2.11697, 2.54111, 2.11235, 1.31377, 2.14366, 1.8421, 2.27972, 2.50482, 1.00258, 2.22712, 4.00905, 0.693261, 2.39196, 3.76351, 0.5, 0.642218, 2.10021, 2.42915, 1.13832, 3.29873, 0.550335, 2.48325, 1.22267, 2.23415, 4.01466, 1.01903, 3.00948, 0.5, 3.52561, 1.02266, 1.11455, 2.19579, 2.65783, 1.48356, 1.83991, 1.85062, 2.77056, 0.5, 2.90158, 2.13732, 1.16738, 1.15033, 2.96474, 3.88986, 1.97515, 0.852553
cpi min/max: 0.5/26.8842
neighbors of 0: 1 6, number of others: 45
neighbors of 1: 0 2 6 7, number of others: 43
neighbors of 2: 1 3 7 8, number of others: 43
neighbors of 3: 2 4 8 9, number of others: 43
neighbors of 4: 3 5 9 10, number of others: 43
neighbors of 5: 4 10 11, number of others: 44
neighbors of 6: 0 1 7 12, number of others: 43
neighbors of 7: 1 2 6 8 12 13, number of others: 41
neighbors of 8: 2 3 7 9 13 14, number of others: 41
neighbors of 9: 3 4 8 10 14 15, number of others: 41
neighbors of 10: 4 5 9 11 15 16, number of others: 41
neighbors of 11: 5 10 16 17, number of others: 43
neighbors of 12: 6 7 13 18, number of others: 43
neighbors of 13: 7 8 12 14 18 19, number of others: 41
neighbors of 14: 8 9 13 15 19 20, number of others: 41
neighbors of 15: 9 10 14 16 20 21, number of others: 41
neighbors of 16: 10 11 15 17 21 22, number of others: 41
neighbors of 17: 11 16 22 23, number of others: 43
neighbors of 18: 12 13 19 24, number of others: 43
neighbors of 19: 13 14 18 20 24 25, number of others: 41
neighbors of 20: 14 15 19 21 25 26, number of others: 41
neighbors of 21: 15 16 20 22 26 27, number of others: 41
neighbors of 22: 16 17 21 23 27 28, number of others: 41
neighbors of 23: 17 22 28 29, number of others: 43
neighbors of 24: 18 19 25 30, number of others: 43
neighbors of 25: 19 20 24 26 30 31, number of others: 41
neighbors of 26: 20 21 25 27 31 32, number of others: 41
neighbors of 27: 21 22 26 28 32 33, number of others: 41
neighbors of 28: 22 23 27 29 33 34, number of others: 41
neighbors of 29: 23 28 34 35, number of others: 43
neighbors of 30: 24 25 31 36, number of others: 43
neighbors of 31: 25 26 30 32 36 37, number of others: 41
neighbors of 32: 26 27 31 33 37 38, number of others: 41
neighbors of 33: 27 28 32 34 38 39, number of others: 41
neighbors of 34: 28 29 33 35 39 40, number of others: 41
neighbors of 35: 29 34 40 41, number of others: 43
neighbors of 36: 30 31 37 42, number of others: 43
neighbors of 37: 31 32 36 38 42 43, number of others: 41
neighbors of 38: 32 33 37 39 43 44, number of others: 41
neighbors of 39: 33 34 38 40 44 45, number of others: 41
neighbors of 40: 34 35 39 41 45 46, number of others: 41
neighbors of 41: 35 40 46 47, number of others: 43
neighbors of 42: 36 37 43, number of others: 44
neighbors of 43: 37 38 42 44, number of others: 43
neighbors of 44: 38 39 43 45, number of others: 43
neighbors of 45: 39 40 44 46, number of others: 43
neighbors of 46: 40 41 45 47, number of others: 43
neighbors of 47: 41 46, number of others: 45
Run model...
Preprocess model 0% ...Preprocess model 16% ...Preprocess model 32% ...Preprocess model 48% ...Preprocess model 66% ...Preprocess model 84% ...Preprocess model 100% ...
Close model 0% ...Close model 9% ...Close model 18% ...Close model 27% ...Close model 36% ...Close model 45% ...Close model 54% ...Close model 63% ...Close model 72% ...Close model 81% ...Close model 91% ...Close model 100% ...
Run param...
Run solver...
Initialize threads 0% ...Initialize threads 100% ...
Push initial solutions 0% ...Push initial solutions 100% ...

Model: 
  expressions = 30670, operands = 74976
  decisions = 13824, constraints = 336, objectives = 1

Param: 
  time limit = 90 sec, no iteration limit
  seed = 601, nb threads = 1, annealing level = 1

Objectives:
  Obj 0: maximize, no bound

Phases:
  Phase 0: time limit = 90 sec, no iteration limit, optimized objective = 0


Computed bounds:
  Obj 0: upper bound = 0.650128


Phase 0:
[0 sec, 0 itr]: infeas = (336, 336, 576), mov = 0, inf < 0.1%, acc < 0.1%, imp = 0

worst case efficiency: 0.965273
[1 sec, 11286 itr]: obj = (0.0106484), mov = 11286, inf = 87.5%, acc = 9.6%, imp = 181

worst case efficiency: 0.606389
[2 sec, 41833 itr]: obj = (0.0195388), mov = 41833, inf = 96.6%, acc = 2.7%, imp = 209

worst case efficiency: 0.611723
[3 sec, 60126 itr]: obj = (0.0681702), mov = 60126, inf = 97.6%, acc = 2%, imp = 248

worst case efficiency: 0.640902
[4 sec, 73246 itr]: obj = (0.0705498), mov = 73246, inf = 98%, acc = 1.7%, imp = 266

worst case efficiency: 0.64233
[5 sec, 83801 itr]: obj = (0.0771488), mov = 83801, inf = 98.2%, acc = 1.5%, imp = 306

worst case efficiency: 0.646289
[6 sec, 92083 itr]: obj = (0.0778504), mov = 92083, inf = 98.3%, acc = 1.4%, imp = 327

worst case efficiency: 0.64671
[7 sec, 99220 itr]: obj = (0.0797808), mov = 99220, inf = 98.4%, acc = 1.3%, imp = 356

worst case efficiency: 0.647868
[8 sec, 105235 itr]: obj = (0.08132), mov = 105235, inf = 98.5%, acc = 1.3%, imp = 382

worst case efficiency: 0.648792
[9 sec, 110731 itr]: obj = (0.0820779), mov = 110731, inf = 98.5%, acc = 1.2%, imp = 398

worst case efficiency: 0.649247
[10 sec, 116104 itr]: obj = (0.0840926), mov = 116104, inf = 98.6%, acc = 1.2%, imp = 425

worst case efficiency: 0.650456
[11 sec, 121030 itr]: obj = (0.0888676), mov = 121030, inf = 98.6%, acc = 1.2%, imp = 452

worst case efficiency: 0.653321
[12 sec, 125657 itr]: obj = (0.0899926), mov = 125657, inf = 98.7%, acc = 1.2%, imp = 469

worst case efficiency: 0.653996
[13 sec, 130325 itr]: obj = (0.0903487), mov = 130325, inf = 98.7%, acc = 1.1%, imp = 479

worst case efficiency: 0.654209
[14 sec, 134810 itr]: obj = (0.0911761), mov = 134810, inf = 98.7%, acc = 1.1%, imp = 492

worst case efficiency: 0.654706
[15 sec, 139346 itr]: obj = (0.0913651), mov = 139346, inf = 98.8%, acc = 1.1%, imp = 502

worst case efficiency: 0.654819
[16 sec, 144148 itr]: obj = (0.0921162), mov = 144148, inf = 98.8%, acc = 1.1%, imp = 515

worst case efficiency: 0.65527
[17 sec, 149262 itr]: obj = (0.0922632), mov = 149262, inf = 98.8%, acc = 1%, imp = 523

worst case efficiency: 0.655358
[18 sec, 154781 itr]: obj = (0.0925667), mov = 154781, inf = 98.9%, acc = 1%, imp = 538

worst case efficiency: 0.65554
[19 sec, 161078 itr]: obj = (0.0926115), mov = 161078, inf = 98.9%, acc = 1%, imp = 539

worst case efficiency: 0.655567
[20 sec, 168539 itr]: obj = (0.0926427), mov = 168539, inf = 98.9%, acc = 0.9%, imp = 542

worst case efficiency: 0.655586
[21 sec, 178247 itr]: obj = (0.0930184), mov = 178247, inf = 99%, acc = 0.9%, imp = 553

worst case efficiency: 0.655811
[22 sec, 193141 itr]: obj = (0.0931166), mov = 193141, inf = 99%, acc = 0.8%, imp = 559

worst case efficiency: 0.65587
[23 sec, 218602 itr]: obj = (0.0931166), mov = 218602, inf = 99.1%, acc = 0.8%, imp = 559

worst case efficiency: 0.65587
[24 sec, 246716 itr]: obj = (0.0931166), mov = 246716, inf = 99.2%, acc = 0.7%, imp = 559

worst case efficiency: 0.65587
[25 sec, 277367 itr]: obj = (0.0931166), mov = 277367, inf = 99.2%, acc = 0.7%, imp = 559

worst case efficiency: 0.65587
[26 sec, 309972 itr]: obj = (0.0931166), mov = 309972, inf = 99.2%, acc = 0.6%, imp = 559

worst case efficiency: 0.65587
[27 sec, 336895 itr]: obj = (0.0931824), mov = 336895, inf = 99.2%, acc = 0.6%, imp = 563

worst case efficiency: 0.655909
[28 sec, 369354 itr]: obj = (0.0932755), mov = 369354, inf = 99.2%, acc = 0.6%, imp = 569

worst case efficiency: 0.655965
[29 sec, 398546 itr]: obj = (0.0932878), mov = 398546, inf = 99.2%, acc = 0.6%, imp = 572

worst case efficiency: 0.655973
[30 sec, 433892 itr]: obj = (0.0933847), mov = 433892, inf = 99.2%, acc = 0.6%, imp = 578

worst case efficiency: 0.656031
[31 sec, 469299 itr]: obj = (0.0935008), mov = 469299, inf = 99.2%, acc = 0.6%, imp = 581

worst case efficiency: 0.6561
[32 sec, 505086 itr]: obj = (0.0936178), mov = 505086, inf = 99.2%, acc = 0.6%, imp = 585

worst case efficiency: 0.656171
[33 sec, 541408 itr]: obj = (0.0939036), mov = 541408, inf = 99.2%, acc = 0.6%, imp = 596

worst case efficiency: 0.656342
[34 sec, 577330 itr]: obj = (0.093934), mov = 577330, inf = 99.2%, acc = 0.6%, imp = 600

worst case efficiency: 0.65636
[35 sec, 613055 itr]: obj = (0.0939465), mov = 613055, inf = 99.2%, acc = 0.6%, imp = 603

worst case efficiency: 0.656368
[36 sec, 649868 itr]: obj = (0.094002), mov = 649868, inf = 99.2%, acc = 0.6%, imp = 610

worst case efficiency: 0.656401
[37 sec, 686436 itr]: obj = (0.094177), mov = 686436, inf = 99.2%, acc = 0.5%, imp = 617

worst case efficiency: 0.656506
[38 sec, 723112 itr]: obj = (0.0942353), mov = 723112, inf = 99.2%, acc = 0.5%, imp = 623

worst case efficiency: 0.656541
[39 sec, 759125 itr]: obj = (0.0942353), mov = 759125, inf = 99.2%, acc = 0.5%, imp = 624

worst case efficiency: 0.656541
[40 sec, 795785 itr]: obj = (0.0943043), mov = 795785, inf = 99.2%, acc = 0.5%, imp = 629

worst case efficiency: 0.656583
[41 sec, 832394 itr]: obj = (0.0943452), mov = 832394, inf = 99.2%, acc = 0.5%, imp = 631

worst case efficiency: 0.656607
[42 sec, 869189 itr]: obj = (0.0944284), mov = 869189, inf = 99.2%, acc = 0.5%, imp = 633

worst case efficiency: 0.656657
[43 sec, 905601 itr]: obj = (0.0952015), mov = 905601, inf = 99.2%, acc = 0.5%, imp = 638

worst case efficiency: 0.657121
[44 sec, 942086 itr]: obj = (0.0957509), mov = 942086, inf = 99.2%, acc = 0.5%, imp = 648

worst case efficiency: 0.657451
[45 sec, 978538 itr]: obj = (0.0958633), mov = 978538, inf = 99.2%, acc = 0.5%, imp = 659

worst case efficiency: 0.657518
[46 sec, 1015319 itr]: obj = (0.0958698), mov = 1015319, inf = 99.1%, acc = 0.5%, imp = 661

worst case efficiency: 0.657522
[47 sec, 1051458 itr]: obj = (0.0959478), mov = 1051458, inf = 99.1%, acc = 0.5%, imp = 665

worst case efficiency: 0.657569
[48 sec, 1086479 itr]: obj = (0.0960309), mov = 1086479, inf = 99.1%, acc = 0.5%, imp = 669

worst case efficiency: 0.657619
[49 sec, 1123188 itr]: obj = (0.0961234), mov = 1123188, inf = 99.1%, acc = 0.5%, imp = 672

worst case efficiency: 0.657674
[50 sec, 1159463 itr]: obj = (0.0961234), mov = 1159463, inf = 99.1%, acc = 0.5%, imp = 673

worst case efficiency: 0.657674
[51 sec, 1195973 itr]: obj = (0.0961234), mov = 1195973, inf = 99.1%, acc = 0.5%, imp = 673

worst case efficiency: 0.657674
[52 sec, 1232324 itr]: obj = (0.096278), mov = 1232324, inf = 99.1%, acc = 0.5%, imp = 687

worst case efficiency: 0.657767
[53 sec, 1268967 itr]: obj = (0.0963103), mov = 1268967, inf = 99.1%, acc = 0.5%, imp = 692

worst case efficiency: 0.657786
[54 sec, 1306464 itr]: obj = (0.0963103), mov = 1306464, inf = 99.1%, acc = 0.5%, imp = 694

worst case efficiency: 0.657786
[55 sec, 1342974 itr]: obj = (0.0963383), mov = 1342974, inf = 99.1%, acc = 0.5%, imp = 700

worst case efficiency: 0.657803
[56 sec, 1379657 itr]: obj = (0.0963554), mov = 1379657, inf = 99.1%, acc = 0.5%, imp = 701

worst case efficiency: 0.657813
[57 sec, 1416376 itr]: obj = (0.0963554), mov = 1416376, inf = 99.1%, acc = 0.5%, imp = 702

worst case efficiency: 0.657813
[58 sec, 1453488 itr]: obj = (0.096397), mov = 1453488, inf = 99.1%, acc = 0.5%, imp = 706

worst case efficiency: 0.657838
[59 sec, 1490320 itr]: obj = (0.0964052), mov = 1490320, inf = 99.1%, acc = 0.5%, imp = 708

worst case efficiency: 0.657843
[60 sec, 1526385 itr]: obj = (0.0964548), mov = 1526385, inf = 99.1%, acc = 0.5%, imp = 712

worst case efficiency: 0.657873
[61 sec, 1563085 itr]: obj = (0.0964548), mov = 1563085, inf = 99.1%, acc = 0.5%, imp = 712

worst case efficiency: 0.657873
[62 sec, 1599784 itr]: obj = (0.0964738), mov = 1599784, inf = 99.1%, acc = 0.5%, imp = 714

worst case efficiency: 0.657884
[63 sec, 1636771 itr]: obj = (0.0965435), mov = 1636771, inf = 99.1%, acc = 0.5%, imp = 716

worst case efficiency: 0.657926
[64 sec, 1673617 itr]: obj = (0.0967142), mov = 1673617, inf = 99.1%, acc = 0.5%, imp = 719

worst case efficiency: 0.658029
[65 sec, 1710262 itr]: obj = (0.0967616), mov = 1710262, inf = 99.1%, acc = 0.5%, imp = 723

worst case efficiency: 0.658057
[66 sec, 1745999 itr]: obj = (0.0968017), mov = 1745999, inf = 99.1%, acc = 0.5%, imp = 727

worst case efficiency: 0.658081
[67 sec, 1782223 itr]: obj = (0.0968283), mov = 1782223, inf = 99.1%, acc = 0.5%, imp = 728

worst case efficiency: 0.658097
[68 sec, 1818623 itr]: obj = (0.0969937), mov = 1818623, inf = 99.1%, acc = 0.5%, imp = 732

worst case efficiency: 0.658196
[69 sec, 1854865 itr]: obj = (0.0972536), mov = 1854865, inf = 99.1%, acc = 0.5%, imp = 736

worst case efficiency: 0.658352
[70 sec, 1891798 itr]: obj = (0.0973791), mov = 1891798, inf = 99.1%, acc = 0.5%, imp = 739

worst case efficiency: 0.658427
[71 sec, 1928507 itr]: obj = (0.0976765), mov = 1928507, inf = 99.1%, acc = 0.5%, imp = 749

worst case efficiency: 0.658606
[72 sec, 1965225 itr]: obj = (0.0977964), mov = 1965225, inf = 99.1%, acc = 0.5%, imp = 754

worst case efficiency: 0.658678
[73 sec, 2001547 itr]: obj = (0.0979518), mov = 2001547, inf = 99.1%, acc = 0.5%, imp = 761

worst case efficiency: 0.658771
[74 sec, 2038361 itr]: obj = (0.0980029), mov = 2038361, inf = 99.1%, acc = 0.5%, imp = 765

worst case efficiency: 0.658802
[75 sec, 2075342 itr]: obj = (0.0980056), mov = 2075342, inf = 99.1%, acc = 0.5%, imp = 766

worst case efficiency: 0.658803
[76 sec, 2112138 itr]: obj = (0.0980541), mov = 2112138, inf = 99.1%, acc = 0.5%, imp = 771

worst case efficiency: 0.658832
[77 sec, 2149103 itr]: obj = (0.0981135), mov = 2149103, inf = 99.1%, acc = 0.5%, imp = 777

worst case efficiency: 0.658868
[78 sec, 2185712 itr]: obj = (0.0981161), mov = 2185712, inf = 99.1%, acc = 0.5%, imp = 778

worst case efficiency: 0.65887
[79 sec, 2222528 itr]: obj = (0.0981161), mov = 2222528, inf = 99.1%, acc = 0.5%, imp = 778

worst case efficiency: 0.65887
[80 sec, 2258443 itr]: obj = (0.098358), mov = 2258443, inf = 99.1%, acc = 0.5%, imp = 789

worst case efficiency: 0.659015
[81 sec, 2294729 itr]: obj = (0.0983686), mov = 2294729, inf = 99.1%, acc = 0.5%, imp = 790

worst case efficiency: 0.659021
[82 sec, 2331697 itr]: obj = (0.0984326), mov = 2331697, inf = 99.1%, acc = 0.5%, imp = 795

worst case efficiency: 0.65906
[83 sec, 2368499 itr]: obj = (0.0989596), mov = 2368499, inf = 99.1%, acc = 0.5%, imp = 802

worst case efficiency: 0.659376
[84 sec, 2404972 itr]: obj = (0.0990876), mov = 2404972, inf = 99.1%, acc = 0.5%, imp = 805

worst case efficiency: 0.659453
[85 sec, 2441912 itr]: obj = (0.0991499), mov = 2441912, inf = 99.1%, acc = 0.5%, imp = 807

worst case efficiency: 0.65949
[86 sec, 2479338 itr]: obj = (0.0993279), mov = 2479338, inf = 99.1%, acc = 0.5%, imp = 811

worst case efficiency: 0.659597
[87 sec, 2516337 itr]: obj = (0.0993907), mov = 2516337, inf = 99.1%, acc = 0.5%, imp = 812

worst case efficiency: 0.659634
[88 sec, 2551689 itr]: obj = (0.0993907), mov = 2551689, inf = 99.1%, acc = 0.5%, imp = 812

worst case efficiency: 0.659634
[89 sec, 2587596 itr]: obj = (0.0996315), mov = 2587596, inf = 99.1%, acc = 0.5%, imp = 816

worst case efficiency: 0.659779
[90 sec, 2624654 itr]: obj = (0.099674), mov = 2624654, inf = 99.1%, acc = 0.5%, imp = 817

worst case efficiency: 0.659804
[90 sec, 2624654 itr]: obj = (0.099674), mov = 2624654, inf = 99.1%, acc = 0.5%, imp = 817

worst case efficiency: 0.659804
2624654 iterations, 2624654 moves performed in 90 seconds
Feasible solution: obj = (0.099674)

Run output...
FINAL SOLUTION
Worst case efficiency: 0.659804
Mapping: 0->22, 1->1, 2->45, 3->25, 4->0, 5->40, 6->7, 7->19, 8->35, 9->3, 10->42, 11->44, 12->4, 13->31, 14->9, 15->46, 16->20, 17->46, 18->2, 19->18, 20->28, 21->34, 22->41, 23->39, 24->12, 25->13, 26->6, 27->6, 28->20, 29->22, 30->1, 31->8, 32->28, 33->44, 34->12, 35->10, 36->39, 37->43, 38->25, 39->11, 40->9, 41->43, 42->26, 43->28, 44->38, 45->47, 46->38, 47->9, 48->0, 49->7, 50->35, 51->27, 52->5, 53->3, 54->7, 55->28, 56->28, 57->45, 58->23, 59->11, 60->8, 61->43, 62->10, 63->21, 64->45, 65->4, 66->32, 67->31, 68->13, 69->14, 70->26, 71->1, 72->3, 73->13, 74->32, 75->7, 76->0, 77->30, 78->27, 79->4, 80->17, 81->40, 82->31, 83->18, 84->22, 85->41, 86->20, 87->33, 88->0, 89->19, 90->39, 91->5, 92->47, 93->16, 94->14, 95->24, 96->26, 97->29, 98->12, 99->0, 100->25, 101->41, 102->42, 103->5, 104->20, 105->43, 106->40, 107->36, 108->36, 109->30, 110->37, 111->14, 112->45, 113->46, 114->33, 115->34, 116->23, 117->47, 118->34, 119->20, 120->31, 121->24, 122->18, 123->15, 124->1, 125->35, 126->5, 127->27, 128->41, 129->27, 130->30, 131->23, 132->18, 133->34, 134->37, 135->43, 136->44, 137->29, 138->29, 139->2, 140->3, 141->33, 142->34, 143->1, 144->17, 145->32, 146->40, 147->26, 148->11, 149->25, 150->12, 151->42, 152->29, 153->37, 154->29, 155->27, 156->24, 157->16, 158->28, 159->6, 160->42, 161->38, 162->19, 163->18, 164->36, 165->10, 166->39, 167->42, 168->30, 169->5, 170->44, 171->36, 172->4, 173->20, 174->16, 175->35, 176->38, 177->43, 178->1, 179->16, 180->21, 181->45, 182->13, 183->12, 184->24, 185->37, 186->10, 187->17, 188->10, 189->6, 190->22, 191->37, 192->14, 193->35, 194->8, 195->36, 196->19, 197->27, 198->32, 199->8, 200->19, 201->10, 202->14, 203->26, 204->11, 205->11, 206->4, 207->18, 208->21, 209->37, 210->15, 211->47, 212->8, 213->23, 214->41, 215->9, 216->13, 217->11, 218->32, 219->30, 220->47, 221->0, 222->3, 223->21, 224->6, 225->15, 226->40, 227->42, 228->36, 229->34, 230->16, 231->24, 232->15, 233->2, 234->46, 235->40, 236->39, 237->15, 238->7, 239->33, 240->25, 241->4, 242->17, 243->38, 244->44, 245->46, 246->12, 247->44, 248->29, 249->21, 250->2, 251->14, 252->39, 253->6, 254->16, 255->8, 256->17, 257->17, 258->41, 259->31, 260->24, 261->25, 262->5, 263->13, 264->15, 265->45, 266->33, 267->26, 268->9, 269->23, 270->38, 271->22, 272->35, 273->19, 274->32, 275->3, 276->7, 277->2, 278->22, 279->9, 280->23, 281->31, 282->46, 283->30, 284->21, 285->33, 286->2, 287->47
Number of tasks per core:
	6	6	6	6	6	6
	6	6	6	6	6	6
	6	6	6	6	6	6
	6	6	6	6	6	6
	6	6	6	6	6	6
	6	6	6	6	6	6
	6	6	6	6	6	6
	6	6	6	6	6	6
Average CPI map:
	0.616832	1.31845	1.34313	1.8763	1.90276	0.831942
	1.05534	2.10556	5.34152	1.94209	6.41211	1.42074
	1.85976	3.1651	6.26278	2.32055	2.97189	1.27811
	1.41594	5.70969	2.73128	2.71859	2.34214	1.33973
	1.31508	2.63765	5.08822	3.46067	3.09731	1.79908
	1.0317	2.9272	4.79676	3.08002	2.39623	1.28254
	1.49002	2.51793	2.72795	2.86548	2.43983	1.72813
	1.03085	1.80787	1.83763	2.00701	1.37663	0.975853
Efficiency map:
	0.996736	0.928888	0.888784	0.928869	0.938138	0.995955
	0.783978	0.663656	0.817152	0.659857	0.844506	0.826902
	0.824662	0.659804	0.781038	0.662246	0.662568	0.804049
	0.808201	0.749735	0.659928	0.666082	0.665381	0.803377
	0.797255	0.674338	0.713079	0.66035	0.667034	0.803193
	0.748238	0.660194	0.660262	0.661491	0.661029	0.794971
	0.871815	0.668495	0.663607	0.698051	0.668752	0.801957
	0.805771	0.670989	0.66004	0.670525	0.663708	0.795079
==============================================================================
Local Solver optimizer for EML demonstration
==============================================================================

Option values: --wld-idx 16 --global-tlim 90 --seed 601

Starting the Optimization Process
