LocalSolver 4.0 (MacOS64, build 20131224)
Copyright (C) 2013 Bouygues SA, Aix-Marseille University, CNRS.
All rights reserved (see Terms and Conditions for details).

Load localsolver_res/tawd_ls.lsp...
Run input...
ANNs For the Platform:
3,2,1,0.413586,-0.0266769,-0.0683771,-5.1002,70.5254,-0.257939,-72.3361,-14.3957,-55.9961,0.000416225,-55.1984
3,2,1,7.29748,1.94844,3.18138,9.63196,-4.67735,-4.13678,1.22405,-8.03403,0.0803394,-0.125838,0.598848
3,2,1,6.43996,0.383984,0.598454,7.79024,-4.25175,0.123161,-0.278344,-5.71253,1.47885,1.00258,0.327892
3,2,1,3.45395,0.140329,0.51254,4.25255,4.08469,0.00326531,0.722664,3.88666,1.2829,-0.290289,-0.187123
3,2,1,1.76581,-0.7465,16.0398,1.01103,2.42771,0.96084,1.00318,4.14242,-0.00284347,0.244904,0.56299
3,2,1,1.87058,0.359859,-0.0851999,0.818043,3.18969,0.847611,-7.29654,-2.24823,0.00245596,0.000486788,0.794563
3,2,1,3.28113,0.579268,0.142679,3.72653,-0.240895,-0.149383,25.0414,7.13641,0.488705,-0.00083541,0.320468
3,2,1,-4.78997,-2.53518,1.7971,11.1628,-3.08773,-0.470276,-0.0894822,-2.63871,1.46314,-0.463195,-1.12076
3,2,1,-0.392198,-0.00544948,0.0100489,-0.634573,-1.21109,-0.0856362,-0.013156,-1.60668,1.54201,-2.33195,-0.462253
3,2,1,3.15031,0.401017,0.160161,2.51156,5.71314,0.59291,-11.6364,2.59774,0.430465,0.00737346,0.36306
3,2,1,2.64111,0.312028,0.0803827,2.35273,-4.25958,3.48188,-1.59773,-1.57632,0.565527,0.0271972,0.266241
3,2,1,2.2658,0.0425076,0.0191991,-0.583848,2.82415,0.533705,0.0754136,3.33659,-0.0169351,0.54785,0.257008
3,2,1,6.01014,0.654767,0.24854,5.54419,5.68574,0.00137666,0.00103835,-1.46229,0.258518,0.00962319,0.54621
3,2,1,-0.828282,0.684875,0.223674,-1.44779,5.0064,0.272371,0.00344824,2.89438,0.397142,0.379767,0.797684
3,2,1,-0.166745,-1.25514,-0.967701,-3.82155,3.34568,0.34907,0.176897,2.37943,0.567319,0.42026,0.93611
3,2,1,-10.035,3.55243,8.66202,-21.5626,10.92,0.228744,0.12852,5.40188,0.871264,0.345634,1.3209
3,2,1,4.50278,0.709934,0.227356,3.41616,1.455,0.115548,0.0125181,-1.15221,0.345467,0.222127,0.602264
3,2,1,3.51765,0.552987,0.202187,3.41883,0.53704,0.0709757,-0.0346297,-0.38017,0.320095,-0.0397752,0.474568
3,2,1,3.62936,0.506661,0.201819,3.49179,3.4019,-3.09955,1.3332,0.961184,0.32649,-0.0126443,0.488413
3,2,1,3.50925,0.448618,0.127508,2.4823,1.78455,1.6893,1.46456,-0.207671,0.400287,0.00684206,0.402337
3,2,1,-0.52883,0.00691432,0.00617163,-0.194006,1.73284,0.0488672,0.0179273,1.25978,0.716787,0.92667,0.162242
3,2,1,2.48239,0.190378,0.120167,1.91689,1.21532,1.48543,0.644574,2.68198,0.547395,-0.0744913,0.328097
3,2,1,2.55861,2.02297,0.650126,2.19109,2.44652,0.0836318,0.0133745,2.4369,0.0418722,0.798841,-0.0334834
3,2,1,5.07371,0.556895,0.217981,4.66725,-0.00829845,-0.00544544,0.00934569,-0.672651,0.280461,-0.520981,0.217266
3,2,1,1.56588,0.201966,0.0665967,1.82578,1.97654,0.236717,0.0903453,1.08195,1.02748,-0.229836,0.011785
3,2,1,2.41728,0.208205,-0.0012583,2.05484,1.41976,-1.30194,1.45365,1.79277,0.56727,0.031184,0.207229
3,2,1,3.71833,0.202336,0.172606,2.43155,5.03284,0.375118,-0.790998,-3.83455,0.400925,0.372075,0.754779
3,2,1,-1.25583,1.47411,0.819895,-2.78448,4.36107,0.113478,0.107247,2.55416,0.385214,0.384141,0.797017
3,2,1,1.71562,-0.478906,-0.61026,-1.17859,3.1361,0.360865,0.0914124,2.2536,-0.0127033,0.431384,0.365879
3,2,1,-1.75501,-0.0880109,-0.026461,-2.68365,2.88327,0.072433,0.0245574,1.95701,-5.87306,-0.563325,-4.48698
3,2,1,1.87886,0.47325,-0.0511434,1.79719,1.94184,0.328234,0.0220624,2.54301,-0.401251,1.77114,-0.565042
3,2,1,-1.60981,1.67946,0.217969,-1.01084,4.35765,0.130722,0.127348,2.65259,0.0709006,0.384957,0.481341
3,2,1,6.90393,1.27603,0.349979,4.84299,12.4465,-4.65212,-2.15462,0.408255,0.295914,0.0666312,0.4354
3,2,1,3.04491,0.18183,0.111428,2.10543,3.32281,-0.49945,-3.78487,-7.88748,0.444834,-4.36795,-4.01116
3,2,1,2.91407,0.251062,0.0435786,2.27032,0.308764,1.59867,0.766589,0.134898,0.475285,0.00569166,0.326702
3,2,1,1.44846,0.205113,0.0448314,1.45909,1.93039,0.286882,0.0586866,1.17886,1.39166,-0.600981,0.0448012
3,2,1,-0.702729,1.84783,-0.00894741,-12.1377,-140.908,-69.0514,-27.175,-146.219,-4.51728,-0.14351,-3.88527
3,2,1,4.2004,0.255152,0.0750175,2.63627,-1.17866,1.67307,0.209535,-1.03514,0.371915,0.0747402,0.498851
3,2,1,3.28015,0.190841,0.175032,2.31848,-0.821253,-1.83022,1.5009,-1.6155,0.417221,-0.0239081,0.360136
3,2,1,2.0525,0.0719707,0.0148549,2.1486,2.00198,1.73479,2.09334,1.44082,0.954066,0.00952719,-0.152697
3,2,1,3.31406,0.407717,0.0380361,2.47187,-0.266021,-1.73458,0.970613,-1.79463,0.415264,-0.0144649,0.374956
3,2,1,6.25099,-3.17047,1.46865,-0.279767,-2.91952,-0.395169,-0.0444215,-3.76202,-0.00491872,-1.23429,-0.425145
3,2,1,1.59636,0.096013,0.0630313,0.826005,1.46151,0.077228,0.0482484,1.68899,-0.289647,1.15304,-0.0688712
3,2,1,33.0172,0.520442,0.135338,28.5555,-3.97298,-0.0574545,-0.0193135,3.34452,0.297691,-5.9863,6.38072
3,2,1,2.32742,0.056139,0.0279748,2.30198,0.254535,0.117712,2.12797,1.7883,0.827797,-0.00209653,-0.0205758
3,2,1,-1.76524,-0.0296866,-0.00748622,-2.47523,4.4267,-0.377196,-4.83785,1.3517,-2.37434,-0.00716866,-1.55224
3,2,1,1.2047,-1.47491,1.03821,1.50617,3.23679,0.3845,-0.018138,2.47251,0.0419137,0.407618,0.357451
3,2,1,3.93828,-0.00820725,-0.00812648,-1.1651,2.06372,0.114124,0.0339398,2.70327,-0.0635318,1.17159,-0.373077
Workload Information:
3.12567, 0.752061, 3.77408, 1.62275, 1.54955, 1.17589, 1.72939, 3.02359, 2.35293, 0.5, 3.11872, 1.27538, 17.84, 24.8309, 22.3046, 23.9911, 15.5276, 27.5057, 0.5, 1.8254, 3.13266, 3.48523, 1.94102, 1.1157, 2.11213, 2.06647, 1.99774, 1.74421, 2.0075, 2.07194, 0.522909, 1.49971, 1.5007, 3.20029, 3.94412, 1.33228, 2.47984, 1.60996, 1.63519, 2.5718, 1.81176, 1.89145, 3.25335, 0.5, 0.507717, 3.35651, 3.32506, 1.05735, 1.59151, 2.60202, 0.868737, 2.60868, 1.45236, 2.8767, 12.5817, 35, 12.3399, 20.615, 17.7576, 33.7058, 0.5, 2.2086, 4.49219, 0.521533, 0.703125, 3.57454, 1.32375, 0.5, 3.53538, 4.27056, 1.22948, 1.14083, 2.1446, 2.20424, 1.96104, 2.3198, 1.54687, 1.82346, 3.22698, 0.778605, 1.7414, 3.17747, 1.91045, 1.16509, 2.33292, 2.04677, 0.599128, 0.63446, 5.14332, 1.24341, 0.954258, 4.07886, 1.13576, 2.37027, 2.04029, 1.42056, 2.83431, 1.10327, 2.71016, 2.72216, 2.1301, 0.5, 1.53209, 2.281, 2.40503, 2.18578, 1.86167, 1.73443, 1.37888, 0.5, 3.68517, 2.2678, 3.31085, 0.85731, 1.65819, 3.48785, 2.43323, 0.5, 1.0792, 2.84153, 0.604221, 1.83231, 0.5, 1.61493, 4.32856, 3.11998, 2.26413, 1.06299, 1.88884, 2.27832, 2.21424, 2.29148, 3.33042, 0.786218, 1.01043, 3.19589, 0.5, 3.17704, 2.29831, 2.17468, 2.40911, 2.53069, 1.17653, 1.41068, 1.39781, 1.5314, 2.1906, 1.35996, 2.01672, 3.50351, 1.17117, 1.34719, 3.3889, 1.49879, 2.75224, 1.8417, 2.56654, 2.58568, 1.96223, 0.5, 2.58026, 1.8053, 0.5, 2.44487, 2.88778, 2.77599, 2.85053, 0.540841, 0.5, 4.13547, 4.13324, 0.602114, 1.27328, 1.3559, 2.10053, 2.27077, 1.69581, 2.41086, 2.27242, 1.24961, 1.70121, 3.12426, 2.78517, 0.96334, 1.21139, 2.21463, 2.55195, 2.33888, 1.12488, 1.28664, 2.49165, 2.206, 1.2706, 2.2993, 2.38943, 1.68816, 2.55896, 1.79355, 3.41952, 2.01037, 2.19211, 1.06076, 2.53684, 0.780401, 3.0517, 0.966597, 2.17906, 0.5, 3.13944, 2.16321, 4.00701, 1.14437, 1.66825, 1.46278, 0.5, 3.21759, 0.5, 2.20956, 3.44682, 1.98752, 2.67762, 1.17849, 1.89847, 1.28251, 2.3825, 2.37247, 1.96994, 2.09411, 2.33515, 1.65527, 1.94325, 1.54898, 1.9655, 2.55185, 2.18274, 0.5, 4.98818, 0.755168, 2.90778, 0.666132, 1.5655, 1.11219, 0.864467, 3.32768, 2.80025, 2.32992, 4.80928, 0.5, 0.877944, 0.527548, 0.644329, 4.6409, 2.55565, 2.59951, 2.2867, 1.42287, 0.851681, 2.28359, 4.41532, 0.5, 1.83263, 1.2317, 1.53574, 2.48461, 2.30571, 1.85041, 2.23376, 2.05481, 1.74023, 1.81507, 1.67615, 3.04315, 3.28507, 0.5, 2.93744, 0.558177, 2.41297, 2.36075, 2.18932, 1.05135, 1.98417, 2.00144, 1.52199, 2.30636, 1.96989, 1.97137, 1.243, 2.98739
cpi min/max: 0.5/35
neighbors of 0: 1 6, number of others: 45
neighbors of 1: 0 2 6 7, number of others: 43
neighbors of 2: 1 3 7 8, number of others: 43
neighbors of 3: 2 4 8 9, number of others: 43
neighbors of 4: 3 5 9 10, number of others: 43
neighbors of 5: 4 10 11, number of others: 44
neighbors of 6: 0 1 7 12, number of others: 43
neighbors of 7: 1 2 6 8 12 13, number of others: 41
neighbors of 8: 2 3 7 9 13 14, number of others: 41
neighbors of 9: 3 4 8 10 14 15, number of others: 41
neighbors of 10: 4 5 9 11 15 16, number of others: 41
neighbors of 11: 5 10 16 17, number of others: 43
neighbors of 12: 6 7 13 18, number of others: 43
neighbors of 13: 7 8 12 14 18 19, number of others: 41
neighbors of 14: 8 9 13 15 19 20, number of others: 41
neighbors of 15: 9 10 14 16 20 21, number of others: 41
neighbors of 16: 10 11 15 17 21 22, number of others: 41
neighbors of 17: 11 16 22 23, number of others: 43
neighbors of 18: 12 13 19 24, number of others: 43
neighbors of 19: 13 14 18 20 24 25, number of others: 41
neighbors of 20: 14 15 19 21 25 26, number of others: 41
neighbors of 21: 15 16 20 22 26 27, number of others: 41
neighbors of 22: 16 17 21 23 27 28, number of others: 41
neighbors of 23: 17 22 28 29, number of others: 43
neighbors of 24: 18 19 25 30, number of others: 43
neighbors of 25: 19 20 24 26 30 31, number of others: 41
neighbors of 26: 20 21 25 27 31 32, number of others: 41
neighbors of 27: 21 22 26 28 32 33, number of others: 41
neighbors of 28: 22 23 27 29 33 34, number of others: 41
neighbors of 29: 23 28 34 35, number of others: 43
neighbors of 30: 24 25 31 36, number of others: 43
neighbors of 31: 25 26 30 32 36 37, number of others: 41
neighbors of 32: 26 27 31 33 37 38, number of others: 41
neighbors of 33: 27 28 32 34 38 39, number of others: 41
neighbors of 34: 28 29 33 35 39 40, number of others: 41
neighbors of 35: 29 34 40 41, number of others: 43
neighbors of 36: 30 31 37 42, number of others: 43
neighbors of 37: 31 32 36 38 42 43, number of others: 41
neighbors of 38: 32 33 37 39 43 44, number of others: 41
neighbors of 39: 33 34 38 40 44 45, number of others: 41
neighbors of 40: 34 35 39 41 45 46, number of others: 41
neighbors of 41: 35 40 46 47, number of others: 43
neighbors of 42: 36 37 43, number of others: 44
neighbors of 43: 37 38 42 44, number of others: 43
neighbors of 44: 38 39 43 45, number of others: 43
neighbors of 45: 39 40 44 46, number of others: 43
neighbors of 46: 40 41 45 47, number of others: 43
neighbors of 47: 41 46, number of others: 45
Run model...
Preprocess model 0% ...Preprocess model 16% ...Preprocess model 32% ...Preprocess model 48% ...Preprocess model 66% ...Preprocess model 84% ...Preprocess model 100% ...
Close model 0% ...Close model 9% ...Close model 18% ...Close model 27% ...Close model 36% ...Close model 45% ...Close model 54% ...Close model 63% ...Close model 72% ...Close model 81% ...Close model 91% ...Close model 100% ...
Run param...
Run solver...
Initialize threads 0% ...Initialize threads 100% ...
Push initial solutions 0% ...Push initial solutions 100% ...

Model: 
  expressions = 30666, operands = 74976
  decisions = 13824, constraints = 336, objectives = 1

Param: 
  time limit = 90 sec, no iteration limit
  seed = 601, nb threads = 1, annealing level = 1

Objectives:
  Obj 0: maximize, no bound

Phases:
  Phase 0: time limit = 90 sec, no iteration limit, optimized objective = 0


Computed bounds:
  Obj 0: upper bound = 0.650128


Phase 0:
[0 sec, 0 itr]: infeas = (336, 336, 576), mov = 0, inf < 0.1%, acc < 0.1%, imp = 0

worst case efficiency: 0.965273
[1 sec, 12835 itr]: obj = (0.0467614), mov = 12835, inf = 87.4%, acc = 9.7%, imp = 174

worst case efficiency: 0.628057
[2 sec, 42339 itr]: obj = (0.0691008), mov = 42339, inf = 96.1%, acc = 3.1%, imp = 207

worst case efficiency: 0.641461
[3 sec, 60449 itr]: obj = (0.072586), mov = 60449, inf = 97.2%, acc = 2.2%, imp = 234

worst case efficiency: 0.643552
[4 sec, 72978 itr]: obj = (0.0825428), mov = 72978, inf = 97.6%, acc = 1.9%, imp = 268

worst case efficiency: 0.649526
[5 sec, 83204 itr]: obj = (0.0929197), mov = 83204, inf = 97.9%, acc = 1.7%, imp = 307

worst case efficiency: 0.655752
[6 sec, 90933 itr]: obj = (0.0932198), mov = 90933, inf = 98.1%, acc = 1.6%, imp = 322

worst case efficiency: 0.655932
[7 sec, 98055 itr]: obj = (0.0932198), mov = 98055, inf = 98.2%, acc = 1.5%, imp = 322

worst case efficiency: 0.655932
[8 sec, 104703 itr]: obj = (0.0932198), mov = 104703, inf = 98.3%, acc = 1.4%, imp = 322

worst case efficiency: 0.655932
[9 sec, 111846 itr]: obj = (0.0932198), mov = 111846, inf = 98.4%, acc = 1.3%, imp = 322

worst case efficiency: 0.655932
[10 sec, 119019 itr]: obj = (0.0932198), mov = 119019, inf = 98.5%, acc = 1.2%, imp = 322

worst case efficiency: 0.655932
[11 sec, 127586 itr]: obj = (0.0932198), mov = 127586, inf = 98.6%, acc = 1.2%, imp = 322

worst case efficiency: 0.655932
[12 sec, 137981 itr]: obj = (0.0932198), mov = 137981, inf = 98.7%, acc = 1.1%, imp = 322

worst case efficiency: 0.655932
[13 sec, 155780 itr]: obj = (0.0932198), mov = 155780, inf = 98.9%, acc = 1%, imp = 322

worst case efficiency: 0.655932
[14 sec, 187342 itr]: obj = (0.0932198), mov = 187342, inf = 99.1%, acc = 0.8%, imp = 322

worst case efficiency: 0.655932
[15 sec, 214795 itr]: obj = (0.0932198), mov = 214795, inf = 99.2%, acc = 0.7%, imp = 322

worst case efficiency: 0.655932
[16 sec, 231117 itr]: obj = (0.0932198), mov = 231117, inf = 99.3%, acc = 0.7%, imp = 322

worst case efficiency: 0.655932
[17 sec, 243751 itr]: obj = (0.0932198), mov = 243751, inf = 99.3%, acc = 0.6%, imp = 322

worst case efficiency: 0.655932
[18 sec, 257051 itr]: obj = (0.0932198), mov = 257051, inf = 99.3%, acc = 0.6%, imp = 322

worst case efficiency: 0.655932
[19 sec, 270502 itr]: obj = (0.0932198), mov = 270502, inf = 99.4%, acc = 0.6%, imp = 322

worst case efficiency: 0.655932
[20 sec, 283793 itr]: obj = (0.0932198), mov = 283793, inf = 99.4%, acc = 0.6%, imp = 322

worst case efficiency: 0.655932
[21 sec, 297326 itr]: obj = (0.0932198), mov = 297326, inf = 99.4%, acc = 0.5%, imp = 322

worst case efficiency: 0.655932
[22 sec, 310910 itr]: obj = (0.0932198), mov = 310910, inf = 99.5%, acc = 0.5%, imp = 322

worst case efficiency: 0.655932
[23 sec, 323346 itr]: obj = (0.0932198), mov = 323346, inf = 99.5%, acc = 0.5%, imp = 322

worst case efficiency: 0.655932
[24 sec, 336231 itr]: obj = (0.0932198), mov = 336231, inf = 99.5%, acc = 0.5%, imp = 322

worst case efficiency: 0.655932
[25 sec, 349832 itr]: obj = (0.0932198), mov = 349832, inf = 99.5%, acc = 0.5%, imp = 322

worst case efficiency: 0.655932
[26 sec, 363358 itr]: obj = (0.0932198), mov = 363358, inf = 99.5%, acc = 0.4%, imp = 322

worst case efficiency: 0.655932
[27 sec, 376605 itr]: obj = (0.0932198), mov = 376605, inf = 99.6%, acc = 0.4%, imp = 322

worst case efficiency: 0.655932
[28 sec, 390086 itr]: obj = (0.0932198), mov = 390086, inf = 99.6%, acc = 0.4%, imp = 322

worst case efficiency: 0.655932
[29 sec, 403356 itr]: obj = (0.0932198), mov = 403356, inf = 99.6%, acc = 0.4%, imp = 322

worst case efficiency: 0.655932
[30 sec, 416743 itr]: obj = (0.0932198), mov = 416743, inf = 99.6%, acc = 0.4%, imp = 322

worst case efficiency: 0.655932
[31 sec, 430041 itr]: obj = (0.0932198), mov = 430041, inf = 99.6%, acc = 0.4%, imp = 322

worst case efficiency: 0.655932
[32 sec, 443421 itr]: obj = (0.0932198), mov = 443421, inf = 99.6%, acc = 0.4%, imp = 322

worst case efficiency: 0.655932
[33 sec, 457096 itr]: obj = (0.0932198), mov = 457096, inf = 99.6%, acc = 0.4%, imp = 322

worst case efficiency: 0.655932
[34 sec, 470570 itr]: obj = (0.0932198), mov = 470570, inf = 99.7%, acc = 0.4%, imp = 322

worst case efficiency: 0.655932
[35 sec, 483808 itr]: obj = (0.0932198), mov = 483808, inf = 99.7%, acc = 0.3%, imp = 322

worst case efficiency: 0.655932
[36 sec, 496754 itr]: obj = (0.0932198), mov = 496754, inf = 99.7%, acc = 0.3%, imp = 322

worst case efficiency: 0.655932
[37 sec, 509951 itr]: obj = (0.0932198), mov = 509951, inf = 99.7%, acc = 0.3%, imp = 322

worst case efficiency: 0.655932
[38 sec, 523157 itr]: obj = (0.0932198), mov = 523157, inf = 99.7%, acc = 0.3%, imp = 322

worst case efficiency: 0.655932
[39 sec, 536112 itr]: obj = (0.0932198), mov = 536112, inf = 99.7%, acc = 0.3%, imp = 322

worst case efficiency: 0.655932
[40 sec, 549366 itr]: obj = (0.0932198), mov = 549366, inf = 99.7%, acc = 0.3%, imp = 322

worst case efficiency: 0.655932
[41 sec, 562322 itr]: obj = (0.0932198), mov = 562322, inf = 99.7%, acc = 0.3%, imp = 322

worst case efficiency: 0.655932
[42 sec, 575222 itr]: obj = (0.0932198), mov = 575222, inf = 99.7%, acc = 0.3%, imp = 322

worst case efficiency: 0.655932
[43 sec, 588222 itr]: obj = (0.0932198), mov = 588222, inf = 99.7%, acc = 0.3%, imp = 322

worst case efficiency: 0.655932
[44 sec, 601033 itr]: obj = (0.0932198), mov = 601033, inf = 99.7%, acc = 0.3%, imp = 322

worst case efficiency: 0.655932
[45 sec, 614324 itr]: obj = (0.0932198), mov = 614324, inf = 99.8%, acc = 0.3%, imp = 322

worst case efficiency: 0.655932
[46 sec, 627593 itr]: obj = (0.0932198), mov = 627593, inf = 99.8%, acc = 0.3%, imp = 322

worst case efficiency: 0.655932
[47 sec, 640701 itr]: obj = (0.0932198), mov = 640701, inf = 99.8%, acc = 0.3%, imp = 322

worst case efficiency: 0.655932
[48 sec, 653936 itr]: obj = (0.0932198), mov = 653936, inf = 99.8%, acc = 0.3%, imp = 322

worst case efficiency: 0.655932
[49 sec, 666995 itr]: obj = (0.0932198), mov = 666995, inf = 99.8%, acc = 0.3%, imp = 322

worst case efficiency: 0.655932
[50 sec, 680161 itr]: obj = (0.0932198), mov = 680161, inf = 99.8%, acc = 0.3%, imp = 322

worst case efficiency: 0.655932
[51 sec, 693244 itr]: obj = (0.0932198), mov = 693244, inf = 99.8%, acc = 0.3%, imp = 322

worst case efficiency: 0.655932
[52 sec, 706543 itr]: obj = (0.0932198), mov = 706543, inf = 99.8%, acc = 0.3%, imp = 322

worst case efficiency: 0.655932
[53 sec, 719753 itr]: obj = (0.0932198), mov = 719753, inf = 99.8%, acc = 0.2%, imp = 322

worst case efficiency: 0.655932
[54 sec, 733347 itr]: obj = (0.0932198), mov = 733347, inf = 99.8%, acc = 0.2%, imp = 322

worst case efficiency: 0.655932
[55 sec, 746588 itr]: obj = (0.0932198), mov = 746588, inf = 99.8%, acc = 0.2%, imp = 322

worst case efficiency: 0.655932
[56 sec, 759764 itr]: obj = (0.0932198), mov = 759764, inf = 99.8%, acc = 0.2%, imp = 322

worst case efficiency: 0.655932
[57 sec, 773283 itr]: obj = (0.0932198), mov = 773283, inf = 99.8%, acc = 0.2%, imp = 322

worst case efficiency: 0.655932
[58 sec, 786558 itr]: obj = (0.0932198), mov = 786558, inf = 99.8%, acc = 0.2%, imp = 322

worst case efficiency: 0.655932
[59 sec, 799466 itr]: obj = (0.0932198), mov = 799466, inf = 99.8%, acc = 0.2%, imp = 322

worst case efficiency: 0.655932
[60 sec, 812561 itr]: obj = (0.0932198), mov = 812561, inf = 99.8%, acc = 0.2%, imp = 322

worst case efficiency: 0.655932
[61 sec, 826037 itr]: obj = (0.0932198), mov = 826037, inf = 99.8%, acc = 0.2%, imp = 322

worst case efficiency: 0.655932
[62 sec, 839005 itr]: obj = (0.0932198), mov = 839005, inf = 99.8%, acc = 0.2%, imp = 322

worst case efficiency: 0.655932
[63 sec, 852104 itr]: obj = (0.0932198), mov = 852104, inf = 99.8%, acc = 0.2%, imp = 322

worst case efficiency: 0.655932
[64 sec, 864961 itr]: obj = (0.0932198), mov = 864961, inf = 99.8%, acc = 0.2%, imp = 322

worst case efficiency: 0.655932
[65 sec, 878007 itr]: obj = (0.0932198), mov = 878007, inf = 99.8%, acc = 0.2%, imp = 322

worst case efficiency: 0.655932
[66 sec, 890925 itr]: obj = (0.0932198), mov = 890925, inf = 99.8%, acc = 0.2%, imp = 322

worst case efficiency: 0.655932
[67 sec, 904055 itr]: obj = (0.0932198), mov = 904055, inf = 99.8%, acc = 0.2%, imp = 322

worst case efficiency: 0.655932
[68 sec, 917041 itr]: obj = (0.0932198), mov = 917041, inf = 99.8%, acc = 0.2%, imp = 322

worst case efficiency: 0.655932
[69 sec, 930430 itr]: obj = (0.0932198), mov = 930430, inf = 99.9%, acc = 0.2%, imp = 322

worst case efficiency: 0.655932
[70 sec, 942898 itr]: obj = (0.0932198), mov = 942898, inf = 99.9%, acc = 0.2%, imp = 322

worst case efficiency: 0.655932
[71 sec, 955846 itr]: obj = (0.0932198), mov = 955846, inf = 99.9%, acc = 0.2%, imp = 322

worst case efficiency: 0.655932
[72 sec, 969139 itr]: obj = (0.0932198), mov = 969139, inf = 99.9%, acc = 0.2%, imp = 322

worst case efficiency: 0.655932
[73 sec, 982219 itr]: obj = (0.0932198), mov = 982219, inf = 99.9%, acc = 0.2%, imp = 322

worst case efficiency: 0.655932
[74 sec, 995330 itr]: obj = (0.0932198), mov = 995330, inf = 99.9%, acc = 0.2%, imp = 322

worst case efficiency: 0.655932
[75 sec, 1008701 itr]: obj = (0.0932198), mov = 1008701, inf = 99.9%, acc = 0.2%, imp = 322

worst case efficiency: 0.655932
[76 sec, 1021823 itr]: obj = (0.0932198), mov = 1021823, inf = 99.9%, acc = 0.2%, imp = 322

worst case efficiency: 0.655932
[77 sec, 1034828 itr]: obj = (0.0932198), mov = 1034828, inf = 99.9%, acc = 0.2%, imp = 322

worst case efficiency: 0.655932
[78 sec, 1047872 itr]: obj = (0.0932198), mov = 1047872, inf = 99.9%, acc = 0.2%, imp = 322

worst case efficiency: 0.655932
[79 sec, 1060962 itr]: obj = (0.0932198), mov = 1060962, inf = 99.9%, acc = 0.2%, imp = 322

worst case efficiency: 0.655932
[80 sec, 1074378 itr]: obj = (0.0932198), mov = 1074378, inf = 99.9%, acc = 0.2%, imp = 322

worst case efficiency: 0.655932
[81 sec, 1087669 itr]: obj = (0.0932198), mov = 1087669, inf = 99.9%, acc = 0.2%, imp = 322

worst case efficiency: 0.655932
[82 sec, 1101128 itr]: obj = (0.0932198), mov = 1101128, inf = 99.9%, acc = 0.2%, imp = 322

worst case efficiency: 0.655932
[83 sec, 1114652 itr]: obj = (0.0932198), mov = 1114652, inf = 99.9%, acc = 0.2%, imp = 322

worst case efficiency: 0.655932
[84 sec, 1127878 itr]: obj = (0.0932198), mov = 1127878, inf = 99.9%, acc = 0.2%, imp = 322

worst case efficiency: 0.655932
[85 sec, 1141226 itr]: obj = (0.0932198), mov = 1141226, inf = 99.9%, acc = 0.2%, imp = 322

worst case efficiency: 0.655932
[86 sec, 1154557 itr]: obj = (0.0932198), mov = 1154557, inf = 99.9%, acc = 0.2%, imp = 322

worst case efficiency: 0.655932
[87 sec, 1167848 itr]: obj = (0.0932198), mov = 1167848, inf = 99.9%, acc = 0.2%, imp = 322

worst case efficiency: 0.655932
[88 sec, 1181033 itr]: obj = (0.0932198), mov = 1181033, inf = 99.9%, acc = 0.2%, imp = 322

worst case efficiency: 0.655932
[89 sec, 1194378 itr]: obj = (0.0932198), mov = 1194378, inf = 99.9%, acc = 0.2%, imp = 322

worst case efficiency: 0.655932
[90 sec, 1207952 itr]: obj = (0.0932198), mov = 1207952, inf = 99.9%, acc = 0.2%, imp = 322

worst case efficiency: 0.655932
[90 sec, 1207952 itr]: obj = (0.0932198), mov = 1207952, inf = 99.9%, acc = 0.2%, imp = 322

worst case efficiency: 0.655932
1207952 iterations, 1207952 moves performed in 90 seconds
Feasible solution: obj = (0.0932198)

Run output...
FINAL SOLUTION
Worst case efficiency: 0.655932
Mapping: 0->34, 1->36, 2->26, 3->36, 4->31, 5->45, 6->14, 7->38, 8->12, 9->16, 10->33, 11->9, 12->16, 13->32, 14->27, 15->22, 16->20, 17->26, 18->3, 19->30, 20->1, 21->40, 22->1, 23->15, 24->28, 25->31, 26->18, 27->29, 28->18, 29->9, 30->46, 31->31, 32->0, 33->46, 34->26, 35->40, 36->5, 37->37, 38->41, 39->27, 40->2, 41->42, 42->33, 43->38, 44->41, 45->45, 46->21, 47->46, 48->19, 49->34, 50->2, 51->29, 52->46, 53->1, 54->33, 55->19, 56->31, 57->34, 58->39, 59->14, 60->4, 61->12, 62->44, 63->47, 64->28, 65->10, 66->4, 67->10, 68->43, 69->40, 70->0, 71->5, 72->13, 73->19, 74->40, 75->32, 76->25, 77->1, 78->19, 79->44, 80->27, 81->13, 82->23, 83->8, 84->27, 85->36, 86->43, 87->45, 88->28, 89->17, 90->30, 91->6, 92->3, 93->24, 94->2, 95->5, 96->15, 97->19, 98->29, 99->8, 100->6, 101->4, 102->30, 103->33, 104->27, 105->26, 106->11, 107->36, 108->20, 109->41, 110->23, 111->17, 112->28, 113->37, 114->22, 115->9, 116->5, 117->21, 118->45, 119->11, 120->36, 121->42, 122->25, 123->39, 124->33, 125->25, 126->42, 127->35, 128->29, 129->37, 130->7, 131->25, 132->25, 133->35, 134->11, 135->24, 136->3, 137->38, 138->4, 139->0, 140->10, 141->14, 142->11, 143->18, 144->20, 145->30, 146->18, 147->35, 148->10, 149->38, 150->0, 151->17, 152->22, 153->41, 154->13, 155->7, 156->23, 157->32, 158->40, 159->4, 160->7, 161->47, 162->11, 163->35, 164->6, 165->7, 166->39, 167->42, 168->15, 169->41, 170->43, 171->43, 172->9, 173->35, 174->39, 175->36, 176->2, 177->45, 178->27, 179->32, 180->13, 181->38, 182->13, 183->5, 184->4, 185->34, 186->28, 187->24, 188->47, 189->2, 190->16, 191->26, 192->22, 193->34, 194->5, 195->19, 196->31, 197->29, 198->46, 199->14, 200->43, 201->1, 202->33, 203->15, 204->34, 205->11, 206->23, 207->37, 208->14, 209->15, 210->3, 211->12, 212->17, 213->44, 214->42, 215->7, 216->41, 217->18, 218->13, 219->8, 220->12, 221->22, 222->6, 223->21, 224->23, 225->6, 226->14, 227->45, 228->39, 229->17, 230->44, 231->16, 232->38, 233->21, 234->18, 235->31, 236->32, 237->40, 238->44, 239->8, 240->20, 241->1, 242->37, 243->12, 244->10, 245->26, 246->12, 247->24, 248->0, 249->46, 250->16, 251->21, 252->30, 253->24, 254->47, 255->0, 256->3, 257->32, 258->8, 259->9, 260->47, 261->16, 262->47, 263->42, 264->22, 265->24, 266->23, 267->37, 268->17, 269->2, 270->43, 271->9, 272->7, 273->6, 274->15, 275->10, 276->29, 277->39, 278->25, 279->28, 280->20, 281->44, 282->3, 283->20, 284->30, 285->8, 286->35, 287->21
Number of tasks per core:
	6	6	6	6	6	6
	6	6	6	6	6	6
	6	6	6	6	6	6
	6	6	6	6	6	6
	6	6	6	6	6	6
	6	6	6	6	6	6
	6	6	6	6	6	6
	6	6	6	6	6	6
Average CPI map:
	1.39614	1.99113	1.58638	1.41941	1.05557	1.80454
	2.31128	2.65248	2.1546	1.94193	1.97647	1.39279
	2.75341	2.66792	7.51428	1.72184	4.04278	1.65369
	1.9998	7.46902	4.02672	2.54795	5.63217	2.49291
	2.14249	2.16301	6.99094	5.6047	2.47879	2.19307
	1.72812	3.41909	6.37629	4.68336	5.65139	1.37549
	1.50516	1.36081	2.54898	4.83658	2.29442	1.46286
	1.58556	2.12302	2.26434	1.79184	1.69666	1.5178
Efficiency map:
	0.996712	0.938131	0.908986	0.904428	0.924787	0.995951
	0.849423	0.684101	0.66217	0.655996	0.657278	0.822144
	0.859518	0.655932	0.833057	0.662211	0.686949	0.820898
	0.830061	0.82597	0.712719	0.658929	0.832459	0.844569
	0.834641	0.655966	0.796985	0.724285	0.656628	0.844629
	0.797823	0.670252	0.701484	0.721609	0.799688	0.804476
	0.871815	0.655932	0.660943	0.79903	0.668069	0.785984
	0.827931	0.697444	0.687912	0.655967	0.672122	0.82196
==============================================================================
Local Solver optimizer for EML demonstration
==============================================================================

Option values: --wld-idx 2 --global-tlim 90 --seed 601

Starting the Optimization Process
