==============================================================================
LNS optimizer for EML demonstration
==============================================================================

Option values: --wld-idx 12 --prec 10000 --step 0 --global-tlim 90 --global-iter 1000 --local-tlim 3 --local-nsol 1 --restart-base 100 --restart-strat luby --seed 701

Starting the Optimization Process
reserved_tasks None
Finding a first solution
LNS iteration #0 ========================================
- worst case average CPI: 2.102
- worst case efficiency: 0.636
- efficiency to beat: 0.636
- normalized lower bound 676
--- checking solution
--- solution ok! Maximum rounding error: 0.000106
- solution found, obj var is: 769
- de-normalized obj var: 0.646140
- time (local/global): 0.000/0.000
- branches (local/global): 24/24
- fails (local/global): 1/1
- lns time: 0.005000
- lns branches: 24
- lns fails: 1
LNS iteration #1 ========================================
- worst case average CPI: 2.102
- worst case efficiency: 0.636
- efficiency to beat: 0.636
- normalized lower bound 690
--- checking solution
--- solution ok! Maximum rounding error: 0.000039
- solution found, obj var is: 723
- de-normalized obj var: 0.643380
- time (local/global): 0.001/0.006
- branches (local/global): 22/46
- fails (local/global): 0/1
- lns time: 0.005000
- lns branches: 22
- lns fails: 0
LNS iteration #2 ========================================
- worst case average CPI: 1.478
- worst case efficiency: 0.642
- efficiency to beat: 0.642
- normalized lower bound 790
--- checking solution
--- solution ok! Maximum rounding error: 0.000052
- solution found, obj var is: 809
- de-normalized obj var: 0.648540
- time (local/global): 0.010/0.020
- branches (local/global): 458/504
- fails (local/global): 203/204
- lns time: 0.014000
- lns branches: 458
- lns fails: 203
LNS iteration #3 ========================================
- worst case average CPI: 1.478
- worst case efficiency: 0.643
- efficiency to beat: 0.643
- normalized lower bound 807
--- checking solution
--- solution ok! Maximum rounding error: 0.000058
- solution found, obj var is: 815
- de-normalized obj var: 0.648900
- time (local/global): 0.012/0.036
- branches (local/global): 870/1374
- fails (local/global): 402/606
- lns time: 0.016000
- lns branches: 870
- lns fails: 402
LNS iteration #4 ========================================
- worst case average CPI: 1.478
- worst case efficiency: 0.646
- efficiency to beat: 0.646
- normalized lower bound 857
--- checking solution
--- solution ok! Maximum rounding error: 0.000063
- solution found, obj var is: 1099
- de-normalized obj var: 0.665940
- time (local/global): 0.001/0.041
- branches (local/global): 22/1396
- fails (local/global): 1/607
- lns time: 0.005000
- lns branches: 22
- lns fails: 1
LNS iteration #5 ========================================
- worst case average CPI: 1.478
- worst case efficiency: 0.648
- efficiency to beat: 0.648
- normalized lower bound 877
--- checking solution
--- solution ok! Maximum rounding error: 0.000090
- solution found, obj var is: 3736
- de-normalized obj var: 0.824160
- time (local/global): 0.000/0.045
- branches (local/global): 22/1418
- fails (local/global): 0/607
- lns time: 0.004000
- lns branches: 22
- lns fails: 0
LNS iteration #6 ========================================
- worst case average CPI: 1.478
- worst case efficiency: 0.649
- efficiency to beat: 0.649
- normalized lower bound 902
--- checking solution
--- solution ok! Maximum rounding error: 0.000070
- solution found, obj var is: 3516
- de-normalized obj var: 0.810960
- time (local/global): 0.000/0.049
- branches (local/global): 21/1439
- fails (local/global): 4/611
- lns time: 0.004000
- lns branches: 21
- lns fails: 4
LNS iteration #7 ========================================
- worst case average CPI: 1.478
- worst case efficiency: 0.650
- efficiency to beat: 0.650
- normalized lower bound 910
--- checking solution
--- solution ok! Maximum rounding error: 0.000096
- solution found, obj var is: 915
- de-normalized obj var: 0.654900
- time (local/global): 0.001/0.054
- branches (local/global): 38/1477
- fails (local/global): 8/619
- lns time: 0.005000
- lns branches: 38
- lns fails: 8
LNS iteration #8 ========================================
- worst case average CPI: 1.478
- worst case efficiency: 0.650
- efficiency to beat: 0.650
- normalized lower bound 924
--- checking solution
--- solution ok! Maximum rounding error: 0.000021
- solution found, obj var is: 935
- de-normalized obj var: 0.656100
- time (local/global): 0.001/0.059
- branches (local/global): 84/1561
- fails (local/global): 40/659
- lns time: 0.004000
- lns branches: 84
- lns fails: 40
LNS iteration #9 ========================================
- worst case average CPI: 1.478
- worst case efficiency: 0.655
- efficiency to beat: 0.655
- normalized lower bound 999
--- checking solution
--- solution ok! Maximum rounding error: 0.000045
- solution found, obj var is: 1011
- de-normalized obj var: 0.660660
- time (local/global): 0.001/0.063
- branches (local/global): 34/1595
- fails (local/global): 7/666
- lns time: 0.006000
- lns branches: 34
- lns fails: 7
LNS iteration #10 ========================================
- worst case average CPI: 1.478
- worst case efficiency: 0.655
- efficiency to beat: 0.655
- normalized lower bound 1009
--- checking solution
--- solution ok! Maximum rounding error: 0.000000
- solution found, obj var is: 3697
- de-normalized obj var: 0.821820
- time (local/global): 0.001/0.069
- branches (local/global): 22/1617
- fails (local/global): 0/666
- lns time: 0.005000
- lns branches: 22
- lns fails: 0
LNS iteration #11 ========================================
- worst case average CPI: 1.478
- worst case efficiency: 0.656
- efficiency to beat: 0.656
- normalized lower bound 1015
--- checking solution
--- solution ok! Maximum rounding error: 0.000120
- solution found, obj var is: 1033
- de-normalized obj var: 0.661980
- time (local/global): 0.006/0.079
- branches (local/global): 457/2074
- fails (local/global): 200/866
- lns time: 0.011000
- lns branches: 457
- lns fails: 200
LNS iteration #12 ========================================
- worst case average CPI: 1.478
- worst case efficiency: 0.656
- efficiency to beat: 0.656
- normalized lower bound 1018
--- checking solution
--- solution ok! Maximum rounding error: 0.000014
- solution found, obj var is: 1257
- de-normalized obj var: 0.675420
- time (local/global): 0.001/0.085
- branches (local/global): 27/2101
- fails (local/global): 3/869
- lns time: 0.006000
- lns branches: 27
- lns fails: 3
LNS iteration #13 ========================================
- worst case average CPI: 1.478
- worst case efficiency: 0.659
- efficiency to beat: 0.659
- normalized lower bound 1064
--- checking solution
--- solution ok! Maximum rounding error: 0.000105
- solution found, obj var is: 1085
- de-normalized obj var: 0.665100
- time (local/global): 0.002/0.092
- branches (local/global): 100/2201
- fails (local/global): 40/909
- lns time: 0.006000
- lns branches: 100
- lns fails: 40
LNS iteration #14 ========================================
- worst case average CPI: 1.478
- worst case efficiency: 0.659
- efficiency to beat: 0.659
- normalized lower bound 1075
--- checking solution
--- solution ok! Maximum rounding error: 0.000087
- solution found, obj var is: 1117
- de-normalized obj var: 0.667020
- time (local/global): 0.001/0.097
- branches (local/global): 26/2227
- fails (local/global): 3/912
- lns time: 0.006000
- lns branches: 26
- lns fails: 3
LNS iteration #15 ========================================
- worst case average CPI: 1.478
- worst case efficiency: 0.661
- efficiency to beat: 0.661
- normalized lower bound 1093
--- checking solution
--- solution ok! Maximum rounding error: 0.000058
- solution found, obj var is: 1129
- de-normalized obj var: 0.667740
- time (local/global): 0.001/0.103
- branches (local/global): 29/2256
- fails (local/global): 4/916
- lns time: 0.006000
- lns branches: 29
- lns fails: 4
LNS iteration #16 ========================================
- worst case average CPI: 1.461
- worst case efficiency: 0.661
- efficiency to beat: 0.661
- normalized lower bound 1098
--- checking solution
--- solution ok! Maximum rounding error: 0.000043
- solution found, obj var is: 1187
- de-normalized obj var: 0.671220
- time (local/global): 0.001/0.109
- branches (local/global): 22/2278
- fails (local/global): 0/916
- lns time: 0.005000
- lns branches: 22
- lns fails: 0
LNS iteration #17 ========================================
- worst case average CPI: 1.461
- worst case efficiency: 0.662
- efficiency to beat: 0.662
- normalized lower bound 1115
--- checking solution
--- solution ok! Maximum rounding error: 0.000025
- solution found, obj var is: 1129
- de-normalized obj var: 0.667740
- time (local/global): 0.009/0.122
- branches (local/global): 873/3151
- fails (local/global): 403/1319
- lns time: 0.013000
- lns branches: 873
- lns fails: 403
LNS iteration #18 ========================================
- worst case average CPI: 1.461
- worst case efficiency: 0.663
- efficiency to beat: 0.663
- normalized lower bound 1133
--- checking solution
--- solution ok! Maximum rounding error: 0.000172
- solution found, obj var is: 1391
- de-normalized obj var: 0.683460
- time (local/global): 0.001/0.127
- branches (local/global): 30/3181
- fails (local/global): 4/1323
- lns time: 0.006000
- lns branches: 30
- lns fails: 4
LNS iteration #19 ========================================
- worst case average CPI: 1.461
- worst case efficiency: 0.663
- efficiency to beat: 0.663
- normalized lower bound 1138
--- checking solution
--- solution ok! Maximum rounding error: 0.000001
- solution found, obj var is: 1361
- de-normalized obj var: 0.681660
- time (local/global): 0.001/0.133
- branches (local/global): 21/3202
- fails (local/global): 0/1323
- lns time: 0.005000
- lns branches: 21
- lns fails: 0
LNS iteration #20 ========================================
- worst case average CPI: 1.461
- worst case efficiency: 0.665
- efficiency to beat: 0.665
- normalized lower bound 1164
--- checking solution
--- solution ok! Maximum rounding error: 0.000091
- solution found, obj var is: 1229
- de-normalized obj var: 0.673740
- time (local/global): 0.006/0.143
- branches (local/global): 354/3556
- fails (local/global): 159/1482
- lns time: 0.010000
- lns branches: 354
- lns fails: 159
LNS iteration #21 ========================================
- worst case average CPI: 1.514
- worst case efficiency: 0.666
- efficiency to beat: 0.666
- normalized lower bound 1180
--- checking solution
--- solution ok! Maximum rounding error: 0.000166
- solution found, obj var is: 1371
- de-normalized obj var: 0.682260
- time (local/global): 0.001/0.148
- branches (local/global): 21/3577
- fails (local/global): 1/1483
- lns time: 0.006000
- lns branches: 21
- lns fails: 1
LNS iteration #22 ========================================
- worst case average CPI: 1.514
- worst case efficiency: 0.666
- efficiency to beat: 0.666
- normalized lower bound 1180
--- checking solution
--- solution ok! Maximum rounding error: 0.000078
- solution found, obj var is: 1199
- de-normalized obj var: 0.671940
- time (local/global): 0.001/0.154
- branches (local/global): 20/3597
- fails (local/global): 0/1483
- lns time: 0.005000
- lns branches: 20
- lns fails: 0
LNS iteration #23 ========================================
- worst case average CPI: 1.514
- worst case efficiency: 0.667
- efficiency to beat: 0.667
- normalized lower bound 1196
--- checking solution
--- solution ok! Maximum rounding error: 0.000000
- solution found, obj var is: 1255
- de-normalized obj var: 0.675300
- time (local/global): 0.001/0.159
- branches (local/global): 26/3623
- fails (local/global): 2/1485
- lns time: 0.005000
- lns branches: 26
- lns fails: 2
LNS iteration #24 ========================================
- worst case average CPI: 1.275
- worst case efficiency: 0.668
- efficiency to beat: 0.668
- normalized lower bound 1224
--- checking solution
--- solution ok! Maximum rounding error: 0.000092
- solution found, obj var is: 1517
- de-normalized obj var: 0.691020
- time (local/global): 0.001/0.164
- branches (local/global): 25/3648
- fails (local/global): 2/1487
- lns time: 0.005000
- lns branches: 25
- lns fails: 2
LNS iteration #25 ========================================
- worst case average CPI: 1.275
- worst case efficiency: 0.669
- efficiency to beat: 0.669
- normalized lower bound 1226
--- checking solution
--- solution ok! Maximum rounding error: 0.000049
- solution found, obj var is: 1249
- de-normalized obj var: 0.674940
- time (local/global): 0.001/0.169
- branches (local/global): 25/3673
- fails (local/global): 2/1489
- lns time: 0.005000
- lns branches: 25
- lns fails: 2
LNS iteration #26 ========================================
- worst case average CPI: 1.275
- worst case efficiency: 0.671
- efficiency to beat: 0.671
- normalized lower bound 1273
--- checking solution
--- solution ok! Maximum rounding error: 0.000179
- solution found, obj var is: 1276
- de-normalized obj var: 0.676560
- time (local/global): 0.003/0.176
- branches (local/global): 99/3772
- fails (local/global): 40/1529
- lns time: 0.007000
- lns branches: 99
- lns fails: 40
LNS iteration #27 ========================================
- worst case average CPI: 1.275
- worst case efficiency: 0.671
- efficiency to beat: 0.671
- normalized lower bound 1263
--- checking solution
--- solution ok! Maximum rounding error: 0.000056
- solution found, obj var is: 1267
- de-normalized obj var: 0.676020
- time (local/global): 0.002/0.182
- branches (local/global): 226/3998
- fails (local/global): 100/1629
- lns time: 0.006000
- lns branches: 226
- lns fails: 100
LNS iteration #28 ========================================
- worst case average CPI: 1.275
- worst case efficiency: 0.671
- efficiency to beat: 0.671
- normalized lower bound 1274
--- checking solution
--- solution ok! Maximum rounding error: 0.000069
- solution found, obj var is: 1292
- de-normalized obj var: 0.677520
- time (local/global): 0.022/0.208
- branches (local/global): 1727/5725
- fails (local/global): 806/2435
- lns time: 0.026000
- lns branches: 1727
- lns fails: 806
LNS iteration #29 ========================================
- worst case average CPI: 1.275
- worst case efficiency: 0.672
- efficiency to beat: 0.672
- normalized lower bound 1286
--- checking solution
--- solution ok! Maximum rounding error: 0.000074
- solution found, obj var is: 1294
- de-normalized obj var: 0.677640
- time (local/global): 0.003/0.215
- branches (local/global): 275/6000
- fails (local/global): 120/2555
- lns time: 0.007000
- lns branches: 275
- lns fails: 120
LNS iteration #30 ========================================
- worst case average CPI: 1.275
- worst case efficiency: 0.675
- efficiency to beat: 0.675
- normalized lower bound 1340
--- checking solution
--- solution ok! Maximum rounding error: 0.000070
- solution found, obj var is: 1350
- de-normalized obj var: 0.681000
- time (local/global): 0.003/0.222
- branches (local/global): 156/6156
- fails (local/global): 69/2624
- lns time: 0.007000
- lns branches: 156
- lns fails: 69
LNS iteration #31 ========================================
- worst case average CPI: 1.275
- worst case efficiency: 0.676
- efficiency to beat: 0.676
- normalized lower bound 1353
--- checking solution
--- solution ok! Maximum rounding error: 0.000126
- solution found, obj var is: 1363
- de-normalized obj var: 0.681780
- time (local/global): 0.017/0.243
- branches (local/global): 1412/7568
- fails (local/global): 657/3281
- lns time: 0.021000
- lns branches: 1412
- lns fails: 657
LNS iteration #32 ========================================
- worst case average CPI: 1.275
- worst case efficiency: 0.677
- efficiency to beat: 0.677
- normalized lower bound 1364
--- checking solution
--- solution ok! Maximum rounding error: 0.000049
- solution found, obj var is: 4121
- de-normalized obj var: 0.847260
- time (local/global): 0.001/0.248
- branches (local/global): 22/7590
- fails (local/global): 0/3281
- lns time: 0.005000
- lns branches: 22
- lns fails: 0
LNS iteration #33 ========================================
- worst case average CPI: 1.275
- worst case efficiency: 0.676
- efficiency to beat: 0.676
- normalized lower bound 1358
--- checking solution
--- solution ok! Maximum rounding error: 0.000167
- solution found, obj var is: 1396
- de-normalized obj var: 0.683760
- time (local/global): 0.001/0.253
- branches (local/global): 22/7612
- fails (local/global): 1/3282
- lns time: 0.005000
- lns branches: 22
- lns fails: 1
LNS iteration #34 ========================================
- worst case average CPI: 1.275
- worst case efficiency: 0.677
- efficiency to beat: 0.677
- normalized lower bound 1362
- lns time: 3.004000
- lns branches: 284935
- lns fails: 140569
LNS iteration #35 ========================================
- worst case average CPI: 1.275
- worst case efficiency: 0.677
- efficiency to beat: 0.677
- normalized lower bound 1362
--- checking solution
--- solution ok! Maximum rounding error: 0.000052
- solution found, obj var is: 1385
- de-normalized obj var: 0.683100
- time (local/global): 0.001/3.262
- branches (local/global): 20/292567
- fails (local/global): 0/143851
- lns time: 0.005000
- lns branches: 20
- lns fails: 0
LNS iteration #36 ========================================
- worst case average CPI: 1.275
- worst case efficiency: 0.677
- efficiency to beat: 0.677
- normalized lower bound 1369
--- checking solution
--- solution ok! Maximum rounding error: 0.000159
- solution found, obj var is: 1375
- de-normalized obj var: 0.682500
- time (local/global): 0.003/3.269
- branches (local/global): 257/292824
- fails (local/global): 111/143962
- lns time: 0.007000
- lns branches: 257
- lns fails: 111
LNS iteration #37 ========================================
- worst case average CPI: 1.275
- worst case efficiency: 0.678
- efficiency to beat: 0.678
- normalized lower bound 1378
--- checking solution
--- solution ok! Maximum rounding error: 0.000080
- solution found, obj var is: 1378
- de-normalized obj var: 0.682680
- time (local/global): 0.055/3.328
- branches (local/global): 5169/297993
- fails (local/global): 2462/146424
- lns time: 0.059000
- lns branches: 5169
- lns fails: 2462
LNS iteration #38 ========================================
- worst case average CPI: 1.275
- worst case efficiency: 0.682
- efficiency to beat: 0.682
- normalized lower bound 1442
--- checking solution
--- solution ok! Maximum rounding error: 0.000026
- solution found, obj var is: 1478
- de-normalized obj var: 0.688680
- time (local/global): 0.026/3.358
- branches (local/global): 1729/299722
- fails (local/global): 809/147233
- lns time: 0.030000
- lns branches: 1729
- lns fails: 809
LNS iteration #39 ========================================
- worst case average CPI: 1.275
- worst case efficiency: 0.682
- efficiency to beat: 0.682
- normalized lower bound 1448
- lns time: 3.004000
- lns branches: 235883
- lns fails: 115546
LNS iteration #40 ========================================
- worst case average CPI: 1.275
- worst case efficiency: 0.682
- efficiency to beat: 0.682
- normalized lower bound 1448
--- checking solution
--- solution ok! Maximum rounding error: 0.000005
- solution found, obj var is: 1491
- de-normalized obj var: 0.689460
- time (local/global): 0.001/6.367
- branches (local/global): 38/535643
- fails (local/global): 9/262788
- lns time: 0.006000
- lns branches: 38
- lns fails: 9
LNS iteration #41 ========================================
- worst case average CPI: 1.275
- worst case efficiency: 0.682
- efficiency to beat: 0.682
- normalized lower bound 1449
--- checking solution
--- solution ok! Maximum rounding error: 0.000064
- solution found, obj var is: 1529
- de-normalized obj var: 0.691740
- time (local/global): 0.003/6.375
- branches (local/global): 391/536034
- fails (local/global): 183/262971
- lns time: 0.007000
- lns branches: 391
- lns fails: 183
LNS iteration #42 ========================================
- worst case average CPI: 1.275
- worst case efficiency: 0.683
- efficiency to beat: 0.683
- normalized lower bound 1460
--- checking solution
--- solution ok! Maximum rounding error: 0.000102
- solution found, obj var is: 1539
- de-normalized obj var: 0.692340
- time (local/global): 0.001/6.380
- branches (local/global): 27/536061
- fails (local/global): 3/262974
- lns time: 0.005000
- lns branches: 27
- lns fails: 3
LNS iteration #43 ========================================
- worst case average CPI: 1.275
- worst case efficiency: 0.683
- efficiency to beat: 0.683
- normalized lower bound 1462
--- checking solution
--- solution ok! Maximum rounding error: 0.000025
- solution found, obj var is: 1479
- de-normalized obj var: 0.688740
- time (local/global): 0.002/6.386
- branches (local/global): 167/536228
- fails (local/global): 73/263047
- lns time: 0.006000
- lns branches: 167
- lns fails: 73
LNS iteration #44 ========================================
- worst case average CPI: 1.275
- worst case efficiency: 0.683
- efficiency to beat: 0.683
- normalized lower bound 1468
--- checking solution
--- solution ok! Maximum rounding error: 0.000091
- solution found, obj var is: 1901
- de-normalized obj var: 0.714060
- time (local/global): 0.001/6.391
- branches (local/global): 23/536251
- fails (local/global): 1/263048
- lns time: 0.006000
- lns branches: 23
- lns fails: 1
LNS iteration #45 ========================================
- worst case average CPI: 1.275
- worst case efficiency: 0.684
- efficiency to beat: 0.684
- normalized lower bound 1485
--- checking solution
--- solution ok! Maximum rounding error: 0.000034
- solution found, obj var is: 1515
- de-normalized obj var: 0.690900
- time (local/global): 0.016/6.412
- branches (local/global): 1107/537358
- fails (local/global): 511/263559
- lns time: 0.020000
- lns branches: 1107
- lns fails: 511
LNS iteration #46 ========================================
- worst case average CPI: 1.275
- worst case efficiency: 0.684
- efficiency to beat: 0.684
- normalized lower bound 1486
--- checking solution
--- solution ok! Maximum rounding error: 0.000080
- solution found, obj var is: 1567
- de-normalized obj var: 0.694020
- time (local/global): 0.001/6.417
- branches (local/global): 21/537379
- fails (local/global): 0/263559
- lns time: 0.006000
- lns branches: 21
- lns fails: 0
LNS iteration #47 ========================================
- worst case average CPI: 1.275
- worst case efficiency: 0.685
- efficiency to beat: 0.685
- normalized lower bound 1499
--- checking solution
--- solution ok! Maximum rounding error: 0.000066
- solution found, obj var is: 1600
- de-normalized obj var: 0.696000
- time (local/global): 0.013/6.435
- branches (local/global): 1097/538476
- fails (local/global): 507/264066
- lns time: 0.017000
- lns branches: 1097
- lns fails: 507
LNS iteration #48 ========================================
- worst case average CPI: 1.275
- worst case efficiency: 0.688
- efficiency to beat: 0.688
- normalized lower bound 1552
--- checking solution
--- solution ok! Maximum rounding error: 0.000108
- solution found, obj var is: 2120
- de-normalized obj var: 0.727200
- time (local/global): 0.001/6.440
- branches (local/global): 23/538499
- fails (local/global): 1/264067
- lns time: 0.005000
- lns branches: 23
- lns fails: 1
LNS iteration #49 ========================================
- worst case average CPI: 1.275
- worst case efficiency: 0.689
- efficiency to beat: 0.689
- normalized lower bound 1564
--- checking solution
--- solution ok! Maximum rounding error: 0.000102
- solution found, obj var is: 1684
- de-normalized obj var: 0.701040
- time (local/global): 0.001/6.445
- branches (local/global): 20/538519
- fails (local/global): 0/264067
- lns time: 0.005000
- lns branches: 20
- lns fails: 0
LNS iteration #50 ========================================
- worst case average CPI: 1.269
- worst case efficiency: 0.689
- efficiency to beat: 0.689
- normalized lower bound 1568
- lns time: 3.004000
- lns branches: 308337
- lns fails: 150901
LNS iteration #51 ========================================
- worst case average CPI: 1.269
- worst case efficiency: 0.689
- efficiency to beat: 0.689
- normalized lower bound 1568
--- checking solution
--- solution ok! Maximum rounding error: 0.000010
- solution found, obj var is: 1568
- de-normalized obj var: 0.694080
- time (local/global): 0.722/10.175
- branches (local/global): 81175/928031
- fails (local/global): 39570/454538
- lns time: 0.726000
- lns branches: 81175
- lns fails: 39570
LNS iteration #52 ========================================
- worst case average CPI: 1.269
- worst case efficiency: 0.689
- efficiency to beat: 0.689
- normalized lower bound 1570
--- checking solution
--- solution ok! Maximum rounding error: 0.000256
- solution found, obj var is: 1760
- de-normalized obj var: 0.705600
- time (local/global): 0.001/10.180
- branches (local/global): 53/928084
- fails (local/global): 16/454554
- lns time: 0.005000
- lns branches: 53
- lns fails: 16
LNS iteration #53 ========================================
- worst case average CPI: 1.269
- worst case efficiency: 0.692
- efficiency to beat: 0.692
- normalized lower bound 1623
--- checking solution
--- solution ok! Maximum rounding error: 0.000049
- solution found, obj var is: 1667
- de-normalized obj var: 0.700020
- time (local/global): 0.005/10.189
- branches (local/global): 455/928539
- fails (local/global): 200/454754
- lns time: 0.009000
- lns branches: 455
- lns fails: 200
LNS iteration #54 ========================================
- worst case average CPI: 1.269
- worst case efficiency: 0.693
- efficiency to beat: 0.693
- normalized lower bound 1635
--- checking solution
--- solution ok! Maximum rounding error: 0.000017
- solution found, obj var is: 1719
- de-normalized obj var: 0.703140
- time (local/global): 0.018/10.211
- branches (local/global): 899/929438
- fails (local/global): 419/455173
- lns time: 0.022000
- lns branches: 899
- lns fails: 419
LNS iteration #55 ========================================
- worst case average CPI: 1.269
- worst case efficiency: 0.694
- efficiency to beat: 0.694
- normalized lower bound 1645
--- checking solution
--- solution ok! Maximum rounding error: 0.000057
- solution found, obj var is: 1663
- de-normalized obj var: 0.699780
- time (local/global): 0.146/10.361
- branches (local/global): 10006/939444
- fails (local/global): 4799/459972
- lns time: 0.150000
- lns branches: 10006
- lns fails: 4799
LNS iteration #56 ========================================
- worst case average CPI: 1.269
- worst case efficiency: 0.694
- efficiency to beat: 0.694
- normalized lower bound 1647
- lns time: 3.004000
- lns branches: 334351
- lns fails: 165162
LNS iteration #57 ========================================
- worst case average CPI: 1.269
- worst case efficiency: 0.694
- efficiency to beat: 0.694
- normalized lower bound 1647
--- checking solution
--- solution ok! Maximum rounding error: 0.000100
- solution found, obj var is: 1647
- de-normalized obj var: 0.698820
- time (local/global): 0.001/13.370
- branches (local/global): 20/1273815
- fails (local/global): 0/625134
- lns time: 0.005000
- lns branches: 20
- lns fails: 0
LNS iteration #58 ========================================
- worst case average CPI: 1.269
- worst case efficiency: 0.694
- efficiency to beat: 0.694
- normalized lower bound 1654
--- checking solution
--- solution ok! Maximum rounding error: 0.000103
- solution found, obj var is: 1655
- de-normalized obj var: 0.699300
- time (local/global): 0.012/13.386
- branches (local/global): 1073/1274888
- fails (local/global): 498/625632
- lns time: 0.017000
- lns branches: 1073
- lns fails: 498
LNS iteration #59 ========================================
- worst case average CPI: 1.269
- worst case efficiency: 0.695
- efficiency to beat: 0.695
- normalized lower bound 1670
- lns time: 3.004000
- lns branches: 321460
- lns fails: 157331
LNS iteration #60 ========================================
- worst case average CPI: 1.269
- worst case efficiency: 0.695
- efficiency to beat: 0.695
- normalized lower bound 1670
- lns time: 3.004000
- lns branches: 359835
- lns fails: 176065
LNS iteration #61 ========================================
- worst case average CPI: 1.269
- worst case efficiency: 0.695
- efficiency to beat: 0.695
- normalized lower bound 1670
- lns time: 3.004000
- lns branches: 264157
- lns fails: 129191
LNS iteration #62 ========================================
- worst case average CPI: 1.269
- worst case efficiency: 0.695
- efficiency to beat: 0.695
- normalized lower bound 1670
--- checking solution
--- solution ok! Maximum rounding error: 0.000082
- solution found, obj var is: 1747
- de-normalized obj var: 0.704820
- time (local/global): 0.005/22.408
- branches (local/global): 497/2220837
- fails (local/global): 223/1088442
- lns time: 0.009000
- lns branches: 497
- lns fails: 223
LNS iteration #63 ========================================
- worst case average CPI: 1.269
- worst case efficiency: 0.699
- efficiency to beat: 0.699
- normalized lower bound 1730
--- checking solution
--- solution ok! Maximum rounding error: 0.000162
- solution found, obj var is: 1749
- de-normalized obj var: 0.704940
- time (local/global): 0.062/22.474
- branches (local/global): 5241/2226078
- fails (local/global): 2497/1090939
- lns time: 0.066000
- lns branches: 5241
- lns fails: 2497
LNS iteration #64 ========================================
- worst case average CPI: 1.269
- worst case efficiency: 0.699
- efficiency to beat: 0.699
- normalized lower bound 1737
--- checking solution
--- solution ok! Maximum rounding error: 0.000058
- solution found, obj var is: 1891
- de-normalized obj var: 0.713460
- time (local/global): 0.001/22.479
- branches (local/global): 21/2226099
- fails (local/global): 0/1090939
- lns time: 0.005000
- lns branches: 21
- lns fails: 0
LNS iteration #65 ========================================
- worst case average CPI: 1.275
- worst case efficiency: 0.699
- efficiency to beat: 0.699
- normalized lower bound 1732
--- checking solution
--- solution ok! Maximum rounding error: 0.000094
- solution found, obj var is: 1782
- de-normalized obj var: 0.706920
- time (local/global): 0.016/22.499
- branches (local/global): 994/2227093
- fails (local/global): 463/1091402
- lns time: 0.020000
- lns branches: 994
- lns fails: 463
LNS iteration #66 ========================================
- worst case average CPI: 1.275
- worst case efficiency: 0.699
- efficiency to beat: 0.699
- normalized lower bound 1740
--- checking solution
--- solution ok! Maximum rounding error: 0.000065
- solution found, obj var is: 1767
- de-normalized obj var: 0.706020
- time (local/global): 0.001/22.504
- branches (local/global): 44/2227137
- fails (local/global): 14/1091416
- lns time: 0.005000
- lns branches: 44
- lns fails: 14
LNS iteration #67 ========================================
- worst case average CPI: 1.275
- worst case efficiency: 0.700
- efficiency to beat: 0.700
- normalized lower bound 1755
--- checking solution
--- solution ok! Maximum rounding error: 0.000060
- solution found, obj var is: 1771
- de-normalized obj var: 0.706260
- time (local/global): 0.017/22.525
- branches (local/global): 1301/2228438
- fails (local/global): 600/1092016
- lns time: 0.021000
- lns branches: 1301
- lns fails: 600
LNS iteration #68 ========================================
- worst case average CPI: 1.275
- worst case efficiency: 0.700
- efficiency to beat: 0.700
- normalized lower bound 1756
--- checking solution
--- solution ok! Maximum rounding error: 0.000056
- solution found, obj var is: 1765
- de-normalized obj var: 0.705900
- time (local/global): 0.031/22.560
- branches (local/global): 1904/2230342
- fails (local/global): 900/1092916
- lns time: 0.035000
- lns branches: 1904
- lns fails: 900
LNS iteration #69 ========================================
- worst case average CPI: 1.275
- worst case efficiency: 0.702
- efficiency to beat: 0.702
- normalized lower bound 1778
--- checking solution
--- solution ok! Maximum rounding error: 0.000114
- solution found, obj var is: 1824
- de-normalized obj var: 0.709440
- time (local/global): 0.023/22.587
- branches (local/global): 1713/2232055
- fails (local/global): 800/1093716
- lns time: 0.027000
- lns branches: 1713
- lns fails: 800
LNS iteration #70 ========================================
- worst case average CPI: 1.275
- worst case efficiency: 0.705
- efficiency to beat: 0.705
- normalized lower bound 1830
--- checking solution
--- solution ok! Maximum rounding error: 0.000087
- solution found, obj var is: 1844
- de-normalized obj var: 0.710640
- time (local/global): 0.038/22.629
- branches (local/global): 3769/2235824
- fails (local/global): 1782/1095498
- lns time: 0.042000
- lns branches: 3769
- lns fails: 1782
LNS iteration #71 ========================================
- worst case average CPI: 1.275
- worst case efficiency: 0.705
- efficiency to beat: 0.705
- normalized lower bound 1836
--- checking solution
--- solution ok! Maximum rounding error: 0.000023
- solution found, obj var is: 1884
- de-normalized obj var: 0.713040
- time (local/global): 0.016/22.649
- branches (local/global): 1049/2236873
- fails (local/global): 488/1095986
- lns time: 0.020000
- lns branches: 1049
- lns fails: 488
LNS iteration #72 ========================================
- worst case average CPI: 1.223
- worst case efficiency: 0.706
- efficiency to beat: 0.706
- normalized lower bound 1850
--- checking solution
--- solution ok! Maximum rounding error: 0.000030
- solution found, obj var is: 1850
- de-normalized obj var: 0.711000
- time (local/global): 0.009/22.662
- branches (local/global): 702/2237575
- fails (local/global): 326/1096312
- lns time: 0.013000
- lns branches: 702
- lns fails: 326
LNS iteration #73 ========================================
- worst case average CPI: 1.223
- worst case efficiency: 0.706
- efficiency to beat: 0.706
- normalized lower bound 1850
--- checking solution
--- solution ok! Maximum rounding error: 0.000065
- solution found, obj var is: 1862
- de-normalized obj var: 0.711720
- time (local/global): 0.185/22.851
- branches (local/global): 16722/2254297
- fails (local/global): 8103/1104415
- lns time: 0.189000
- lns branches: 16722
- lns fails: 8103
LNS iteration #74 ========================================
- worst case average CPI: 1.223
- worst case efficiency: 0.707
- efficiency to beat: 0.707
- normalized lower bound 1861
--- checking solution
--- solution ok! Maximum rounding error: 0.000071
- solution found, obj var is: 1946
- de-normalized obj var: 0.716760
- time (local/global): 0.042/22.897
- branches (local/global): 3815/2258112
- fails (local/global): 1801/1106216
- lns time: 0.046000
- lns branches: 3815
- lns fails: 1801
LNS iteration #75 ========================================
- worst case average CPI: 0.904
- worst case efficiency: 0.709
- efficiency to beat: 0.709
- normalized lower bound 1908
--- checking solution
--- solution ok! Maximum rounding error: 0.000172
- solution found, obj var is: 2059
- de-normalized obj var: 0.723540
- time (local/global): 0.003/22.904
- branches (local/global): 240/2258352
- fails (local/global): 101/1106317
- lns time: 0.007000
- lns branches: 240
- lns fails: 101
LNS iteration #76 ========================================
- worst case average CPI: 1.223
- worst case efficiency: 0.710
- efficiency to beat: 0.710
- normalized lower bound 1912
--- checking solution
--- solution ok! Maximum rounding error: 0.000007
- solution found, obj var is: 1961
- de-normalized obj var: 0.717660
- time (local/global): 0.008/22.916
- branches (local/global): 913/2259265
- fails (local/global): 437/1106754
- lns time: 0.012000
- lns branches: 913
- lns fails: 437
LNS iteration #77 ========================================
- worst case average CPI: 1.223
- worst case efficiency: 0.711
- efficiency to beat: 0.711
- normalized lower bound 1928
--- checking solution
--- solution ok! Maximum rounding error: 0.000108
- solution found, obj var is: 1969
- de-normalized obj var: 0.718140
- time (local/global): 0.856/23.776
- branches (local/global): 66672/2325937
- fails (local/global): 32410/1139164
- lns time: 0.860000
- lns branches: 66672
- lns fails: 32410
LNS iteration #78 ========================================
- worst case average CPI: 1.255
- worst case efficiency: 0.711
- efficiency to beat: 0.711
- normalized lower bound 1936
- lns time: 3.004000
- lns branches: 242274
- lns fails: 118488
LNS iteration #79 ========================================
- worst case average CPI: 1.255
- worst case efficiency: 0.711
- efficiency to beat: 0.711
- normalized lower bound 1936
- lns time: 3.004000
- lns branches: 211242
- lns fails: 103558
LNS iteration #80 ========================================
- worst case average CPI: 1.255
- worst case efficiency: 0.711
- efficiency to beat: 0.711
- normalized lower bound 1936
--- checking solution
--- solution ok! Maximum rounding error: 0.000048
- solution found, obj var is: 1938
- de-normalized obj var: 0.716280
- time (local/global): 1.635/31.423
- branches (local/global): 150857/2930310
- fails (local/global): 73585/1434795
- lns time: 1.639000
- lns branches: 150857
- lns fails: 73585
LNS iteration #81 ========================================
- worst case average CPI: 1.067
- worst case efficiency: 0.711
- efficiency to beat: 0.711
- normalized lower bound 1938
--- checking solution
--- solution ok! Maximum rounding error: 0.000069
- solution found, obj var is: 1939
- de-normalized obj var: 0.716340
- time (local/global): 0.006/31.433
- branches (local/global): 457/2930767
- fails (local/global): 201/1434996
- lns time: 0.010000
- lns branches: 457
- lns fails: 201
LNS iteration #82 ========================================
- worst case average CPI: 1.067
- worst case efficiency: 0.712
- efficiency to beat: 0.712
- normalized lower bound 1947
--- checking solution
--- solution ok! Maximum rounding error: 0.000035
- solution found, obj var is: 2037
- de-normalized obj var: 0.722220
- time (local/global): 0.004/31.441
- branches (local/global): 469/2931236
- fails (local/global): 208/1435204
- lns time: 0.008000
- lns branches: 469
- lns fails: 208
LNS iteration #83 ========================================
- worst case average CPI: 1.067
- worst case efficiency: 0.712
- efficiency to beat: 0.712
- normalized lower bound 1957
--- checking solution
--- solution ok! Maximum rounding error: 0.000057
- solution found, obj var is: 2017
- de-normalized obj var: 0.721020
- time (local/global): 0.003/31.448
- branches (local/global): 271/2931507
- fails (local/global): 118/1435322
- lns time: 0.007000
- lns branches: 271
- lns fails: 118
LNS iteration #84 ========================================
- worst case average CPI: 1.067
- worst case efficiency: 0.714
- efficiency to beat: 0.714
- normalized lower bound 1983
--- checking solution
--- solution ok! Maximum rounding error: 0.000094
- solution found, obj var is: 1995
- de-normalized obj var: 0.719700
- time (local/global): 1.027/32.479
- branches (local/global): 108460/3039967
- fails (local/global): 52966/1488288
- lns time: 1.031000
- lns branches: 108460
- lns fails: 52966
LNS iteration #85 ========================================
- worst case average CPI: 1.067
- worst case efficiency: 0.715
- efficiency to beat: 0.715
- normalized lower bound 1999
- lns time: 3.004000
- lns branches: 223813
- lns fails: 109600
LNS iteration #86 ========================================
- worst case average CPI: 1.067
- worst case efficiency: 0.715
- efficiency to beat: 0.715
- normalized lower bound 1999
--- checking solution
--- solution ok! Maximum rounding error: 0.000057
- solution found, obj var is: 2042
- de-normalized obj var: 0.722520
- time (local/global): 0.001/35.488
- branches (local/global): 78/3263858
- fails (local/global): 29/1597917
- lns time: 0.005000
- lns branches: 78
- lns fails: 29
LNS iteration #87 ========================================
- worst case average CPI: 1.067
- worst case efficiency: 0.716
- efficiency to beat: 0.716
- normalized lower bound 2010
--- checking solution
--- solution ok! Maximum rounding error: 0.000034
- solution found, obj var is: 2066
- de-normalized obj var: 0.723960
- time (local/global): 0.213/35.705
- branches (local/global): 20408/3284266
- fails (local/global): 9819/1607736
- lns time: 0.217000
- lns branches: 20408
- lns fails: 9819
LNS iteration #88 ========================================
- worst case average CPI: 1.333
- worst case efficiency: 0.716
- efficiency to beat: 0.716
- normalized lower bound 2014
- lns time: 3.004000
- lns branches: 253236
- lns fails: 123795
LNS iteration #89 ========================================
- worst case average CPI: 1.333
- worst case efficiency: 0.716
- efficiency to beat: 0.716
- normalized lower bound 2014
- lns time: 3.004000
- lns branches: 211453
- lns fails: 103664
LNS iteration #90 ========================================
- worst case average CPI: 1.333
- worst case efficiency: 0.716
- efficiency to beat: 0.716
- normalized lower bound 2014
- lns time: 3.004000
- lns branches: 327246
- lns fails: 161232
LNS iteration #91 ========================================
- worst case average CPI: 1.333
- worst case efficiency: 0.716
- efficiency to beat: 0.716
- normalized lower bound 2014
--- checking solution
--- solution ok! Maximum rounding error: 0.000079
- solution found, obj var is: 2028
- de-normalized obj var: 0.721680
- time (local/global): 2.914/47.635
- branches (local/global): 184261/4260462
- fails (local/global): 90156/2086583
- lns time: 2.918000
- lns branches: 184261
- lns fails: 90156
LNS iteration #92 ========================================
- worst case average CPI: 1.333
- worst case efficiency: 0.717
- efficiency to beat: 0.717
- normalized lower bound 2033
--- checking solution
--- solution ok! Maximum rounding error: 0.000078
- solution found, obj var is: 2059
- de-normalized obj var: 0.723540
- time (local/global): 0.003/47.642
- branches (local/global): 251/4260713
- fails (local/global): 106/2086689
- lns time: 0.008000
- lns branches: 251
- lns fails: 106
LNS iteration #93 ========================================
- worst case average CPI: 1.333
- worst case efficiency: 0.718
- efficiency to beat: 0.718
- normalized lower bound 2046
--- checking solution
--- solution ok! Maximum rounding error: 0.000145
- solution found, obj var is: 2121
- de-normalized obj var: 0.727260
- time (local/global): 0.116/47.763
- branches (local/global): 10257/4270970
- fails (local/global): 4901/2091590
- lns time: 0.120000
- lns branches: 10257
- lns fails: 4901
LNS iteration #94 ========================================
- worst case average CPI: 1.333
- worst case efficiency: 0.719
- efficiency to beat: 0.719
- normalized lower bound 2069
--- checking solution
--- solution ok! Maximum rounding error: 0.000069
- solution found, obj var is: 2148
- de-normalized obj var: 0.728880
- time (local/global): 0.001/47.768
- branches (local/global): 21/4270991
- fails (local/global): 0/2091590
- lns time: 0.005000
- lns branches: 21
- lns fails: 0
LNS iteration #95 ========================================
- worst case average CPI: 1.333
- worst case efficiency: 0.719
- efficiency to beat: 0.719
- normalized lower bound 2072
- lns time: 3.004000
- lns branches: 392701
- lns fails: 193629
LNS iteration #96 ========================================
- worst case average CPI: 1.333
- worst case efficiency: 0.719
- efficiency to beat: 0.719
- normalized lower bound 2072
- lns time: 3.004000
- lns branches: 292029
- lns fails: 142918
LNS iteration #97 ========================================
- worst case average CPI: 1.333
- worst case efficiency: 0.719
- efficiency to beat: 0.719
- normalized lower bound 2072
- lns time: 3.004000
- lns branches: 204997
- lns fails: 100674
LNS iteration #98 ========================================
- worst case average CPI: 1.333
- worst case efficiency: 0.719
- efficiency to beat: 0.719
- normalized lower bound 2072
--- checking solution
--- solution ok! Maximum rounding error: 0.000084
- solution found, obj var is: 2074
- de-normalized obj var: 0.724440
- time (local/global): 0.206/56.990
- branches (local/global): 12206/5172924
- fails (local/global): 5877/2534688
- lns time: 0.210000
- lns branches: 12206
- lns fails: 5877
LNS iteration #99 ========================================
- worst case average CPI: 1.333
- worst case efficiency: 0.721
- efficiency to beat: 0.721
- normalized lower bound 2101
- lns time: 3.004000
- lns branches: 261487
- lns fails: 127947
LNS iteration #100 ========================================
- worst case average CPI: 1.333
- worst case efficiency: 0.721
- efficiency to beat: 0.721
- normalized lower bound 2101
--- checking solution
--- solution ok! Maximum rounding error: 0.000139
- solution found, obj var is: 2102
- de-normalized obj var: 0.726120
- time (local/global): 0.201/60.199
- branches (local/global): 14792/5449203
- fails (local/global): 7154/2669789
- lns time: 0.205000
- lns branches: 14792
- lns fails: 7154
LNS iteration #101 ========================================
- worst case average CPI: 1.333
- worst case efficiency: 0.721
- efficiency to beat: 0.721
- normalized lower bound 2107
- lns time: 3.004000
- lns branches: 275205
- lns fails: 134798
LNS iteration #102 ========================================
- worst case average CPI: 1.333
- worst case efficiency: 0.721
- efficiency to beat: 0.721
- normalized lower bound 2107
--- checking solution
--- solution ok! Maximum rounding error: 0.000106
- solution found, obj var is: 2388
- de-normalized obj var: 0.743280
- time (local/global): 0.008/63.215
- branches (local/global): 538/5724946
- fails (local/global): 243/2804830
- lns time: 0.012000
- lns branches: 538
- lns fails: 243
LNS iteration #103 ========================================
- worst case average CPI: 1.333
- worst case efficiency: 0.722
- efficiency to beat: 0.722
- normalized lower bound 2112
--- checking solution
--- solution ok! Maximum rounding error: 0.000021
- solution found, obj var is: 2167
- de-normalized obj var: 0.730020
- time (local/global): 0.018/63.237
- branches (local/global): 1295/5726241
- fails (local/global): 600/2805430
- lns time: 0.022000
- lns branches: 1295
- lns fails: 600
LNS iteration #104 ========================================
- worst case average CPI: 1.333
- worst case efficiency: 0.722
- efficiency to beat: 0.722
- normalized lower bound 2121
--- checking solution
--- solution ok! Maximum rounding error: 0.000026
- solution found, obj var is: 2148
- de-normalized obj var: 0.728880
- time (local/global): 0.141/63.382
- branches (local/global): 11757/5737998
- fails (local/global): 5637/2811067
- lns time: 0.146000
- lns branches: 11757
- lns fails: 5637
LNS iteration #105 ========================================
- worst case average CPI: 1.289
- worst case efficiency: 0.722
- efficiency to beat: 0.722
- normalized lower bound 2125
--- checking solution
--- solution ok! Maximum rounding error: 0.000087
- solution found, obj var is: 2128
- de-normalized obj var: 0.727680
- time (local/global): 0.035/63.422
- branches (local/global): 2553/5740551
- fails (local/global): 1216/2812283
- lns time: 0.039000
- lns branches: 2553
- lns fails: 1216
LNS iteration #106 ========================================
- worst case average CPI: 1.289
- worst case efficiency: 0.724
- efficiency to beat: 0.724
- normalized lower bound 2144
--- checking solution
--- solution ok! Maximum rounding error: 0.000030
- solution found, obj var is: 2236
- de-normalized obj var: 0.734160
- time (local/global): 0.007/63.433
- branches (local/global): 448/5740999
- fails (local/global): 200/2812483
- lns time: 0.011000
- lns branches: 448
- lns fails: 200
LNS iteration #107 ========================================
- worst case average CPI: 1.333
- worst case efficiency: 0.724
- efficiency to beat: 0.724
- normalized lower bound 2148
--- checking solution
--- solution ok! Maximum rounding error: 0.000047
- solution found, obj var is: 2163
- de-normalized obj var: 0.729780
- time (local/global): 0.078/63.515
- branches (local/global): 5824/5746823
- fails (local/global): 2795/2815278
- lns time: 0.082000
- lns branches: 5824
- lns fails: 2795
LNS iteration #108 ========================================
- worst case average CPI: 1.333
- worst case efficiency: 0.724
- efficiency to beat: 0.724
- normalized lower bound 2155
--- checking solution
--- solution ok! Maximum rounding error: 0.000036
- solution found, obj var is: 2187
- de-normalized obj var: 0.731220
- time (local/global): 1.329/64.848
- branches (local/global): 116503/5863326
- fails (local/global): 56800/2872078
- lns time: 1.333000
- lns branches: 116503
- lns fails: 56800
LNS iteration #109 ========================================
- worst case average CPI: 1.333
- worst case efficiency: 0.725
- efficiency to beat: 0.725
- normalized lower bound 2166
--- checking solution
--- solution ok! Maximum rounding error: 0.000077
- solution found, obj var is: 2220
- de-normalized obj var: 0.733200
- time (local/global): 0.080/64.932
- branches (local/global): 7461/5870787
- fails (local/global): 3641/2875719
- lns time: 0.084000
- lns branches: 7461
- lns fails: 3641
LNS iteration #110 ========================================
- worst case average CPI: 1.333
- worst case efficiency: 0.727
- efficiency to beat: 0.727
- normalized lower bound 2194
- lns time: 3.004000
- lns branches: 503411
- lns fails: 248606
LNS iteration #111 ========================================
- worst case average CPI: 1.333
- worst case efficiency: 0.727
- efficiency to beat: 0.727
- normalized lower bound 2194
--- checking solution
--- solution ok! Maximum rounding error: 0.000025
- solution found, obj var is: 2215
- de-normalized obj var: 0.732900
- time (local/global): 1.995/69.935
- branches (local/global): 229501/6603699
- fails (local/global): 112200/3236525
- lns time: 1.999000
- lns branches: 229501
- lns fails: 112200
LNS iteration #112 ========================================
- worst case average CPI: 1.172
- worst case efficiency: 0.727
- efficiency to beat: 0.727
- normalized lower bound 2208
- lns time: 3.004000
- lns branches: 211628
- lns fails: 103803
LNS iteration #113 ========================================
- worst case average CPI: 1.172
- worst case efficiency: 0.727
- efficiency to beat: 0.727
- normalized lower bound 2208
--- checking solution
--- solution ok! Maximum rounding error: 0.000008
- solution found, obj var is: 2235
- de-normalized obj var: 0.734100
- time (local/global): 0.025/72.968
- branches (local/global): 2349/6817676
- fails (local/global): 1135/3341463
- lns time: 0.029000
- lns branches: 2349
- lns fails: 1135
LNS iteration #114 ========================================
- worst case average CPI: 1.172
- worst case efficiency: 0.728
- efficiency to beat: 0.728
- normalized lower bound 2211
- lns time: 3.004000
- lns branches: 255893
- lns fails: 125227
LNS iteration #115 ========================================
- worst case average CPI: 1.172
- worst case efficiency: 0.728
- efficiency to beat: 0.728
- normalized lower bound 2211
--- checking solution
--- solution ok! Maximum rounding error: 0.000042
- solution found, obj var is: 2300
- de-normalized obj var: 0.738000
- time (local/global): 0.005/75.981
- branches (local/global): 501/7074070
- fails (local/global): 222/3466912
- lns time: 0.009000
- lns branches: 501
- lns fails: 222
LNS iteration #116 ========================================
- worst case average CPI: 1.172
- worst case efficiency: 0.729
- efficiency to beat: 0.729
- normalized lower bound 2230
- lns time: 3.004000
- lns branches: 212911
- lns fails: 104401
LNS iteration #117 ========================================
- worst case average CPI: 1.172
- worst case efficiency: 0.729
- efficiency to beat: 0.729
- normalized lower bound 2230
--- checking solution
--- solution ok! Maximum rounding error: 0.000127
- solution found, obj var is: 2253
- de-normalized obj var: 0.735180
- time (local/global): 0.031/79.020
- branches (local/global): 1736/7288717
- fails (local/global): 813/3572126
- lns time: 0.035000
- lns branches: 1736
- lns fails: 813
LNS iteration #118 ========================================
- worst case average CPI: 1.172
- worst case efficiency: 0.729
- efficiency to beat: 0.729
- normalized lower bound 2232
--- checking solution
--- solution ok! Maximum rounding error: 0.000025
- solution found, obj var is: 2299
- de-normalized obj var: 0.737940
- time (local/global): 0.090/79.114
- branches (local/global): 9412/7298129
- fails (local/global): 4505/3576631
- lns time: 0.094000
- lns branches: 9412
- lns fails: 4505
LNS iteration #119 ========================================
- worst case average CPI: 0.979
- worst case efficiency: 0.730
- efficiency to beat: 0.730
- normalized lower bound 2244
--- checking solution
--- solution ok! Maximum rounding error: 0.000016
- solution found, obj var is: 2255
- de-normalized obj var: 0.735300
- time (local/global): 0.038/79.156
- branches (local/global): 3609/7301738
- fails (local/global): 1701/3578332
- lns time: 0.042000
- lns branches: 3609
- lns fails: 1701
LNS iteration #120 ========================================
- worst case average CPI: 0.979
- worst case efficiency: 0.731
- efficiency to beat: 0.731
- normalized lower bound 2266
- lns time: 3.004000
- lns branches: 319204
- lns fails: 157492
LNS iteration #121 ========================================
- worst case average CPI: 0.979
- worst case efficiency: 0.731
- efficiency to beat: 0.731
- normalized lower bound 2266
- lns time: 3.004000
- lns branches: 203927
- lns fails: 99879
LNS iteration #122 ========================================
- worst case average CPI: 0.979
- worst case efficiency: 0.731
- efficiency to beat: 0.731
- normalized lower bound 2266
--- checking solution
--- solution ok! Maximum rounding error: 0.000069
- solution found, obj var is: 2273
- de-normalized obj var: 0.736380
- time (local/global): 2.295/87.463
- branches (local/global): 141548/7966417
- fails (local/global): 69054/3904757
- lns time: 2.299000
- lns branches: 141548
- lns fails: 69054
LNS iteration #123 ========================================
- worst case average CPI: 0.979
- worst case efficiency: 0.731
- efficiency to beat: 0.731
- normalized lower bound 2267
- lns time: 2.537000
- lns branches: 267550
- lns fails: 130734

LNS optimization is over========================================
initial worst case average CPI: 2.102
final worst case average CPI: 0.979
initial worst case efficiency: 0.636
final worst case efficiency: 0.731
number of iterations: 124
total time: 90004.000000
total branches: 8233967
total fails: 4035491

Final Solution: 0->11, 1->5, 2->15, 3->23, 4->47, 5->41, 6->0, 7->43, 8->31, 9->5, 10->21, 11->25, 12->29, 13->11, 14->13, 15->42, 16->23, 17->13, 18->28, 19->27, 20->6, 21->33, 22->14, 23->11, 24->13, 25->44, 26->30, 27->31, 28->12, 29->20, 30->28, 31->46, 32->24, 33->9, 34->13, 35->33, 36->13, 37->38, 38->7, 39->43, 40->38, 41->25, 42->8, 43->22, 44->25, 45->30, 46->19, 47->0, 48->6, 49->35, 50->45, 51->9, 52->11, 53->41, 54->33, 55->30, 56->14, 57->16, 58->43, 59->18, 60->16, 61->39, 62->0, 63->19, 64->27, 65->23, 66->35, 67->22, 68->7, 69->12, 70->4, 71->22, 72->29, 73->25, 74->19, 75->11, 76->35, 77->0, 78->36, 79->24, 80->11, 81->29, 82->0, 83->29, 84->23, 85->28, 86->47, 87->39, 88->30, 89->10, 90->21, 91->1, 92->40, 93->47, 94->16, 95->33, 96->17, 97->44, 98->12, 99->15, 100->35, 101->45, 102->36, 103->38, 104->17, 105->8, 106->46, 107->6, 108->33, 109->40, 110->37, 111->31, 112->18, 113->42, 114->30, 115->31, 116->43, 117->32, 118->3, 119->45, 120->7, 121->17, 122->23, 123->35, 124->28, 125->12, 126->18, 127->34, 128->8, 129->1, 130->22, 131->26, 132->22, 133->16, 134->17, 135->44, 136->17, 137->42, 138->16, 139->7, 140->42, 141->41, 142->40, 143->47, 144->26, 145->31, 146->6, 147->42, 148->46, 149->39, 150->1, 151->20, 152->26, 153->21, 154->41, 155->34, 156->39, 157->1, 158->36, 159->1, 160->30, 161->29, 162->26, 163->19, 164->6, 165->42, 166->15, 167->5, 168->35, 169->43, 170->32, 171->41, 172->20, 173->5, 174->32, 175->14, 176->5, 177->40, 178->14, 179->26, 180->40, 181->12, 182->10, 183->10, 184->10, 185->9, 186->45, 187->43, 188->27, 189->24, 190->18, 191->3, 192->13, 193->16, 194->25, 195->40, 196->7, 197->26, 198->44, 199->18, 200->27, 201->32, 202->36, 203->3, 204->15, 205->21, 206->38, 207->34, 208->10, 209->33, 210->15, 211->46, 212->37, 213->1, 214->29, 215->45, 216->9, 217->41, 218->17, 219->34, 220->28, 221->2, 222->10, 223->47, 224->46, 225->2, 226->18, 227->21, 228->39, 229->44, 230->34, 231->4, 232->12, 233->38, 234->4, 235->37, 236->8, 237->46, 238->4, 239->27, 240->37, 241->4, 242->34, 243->45, 244->4, 245->3, 246->23, 247->24, 248->2, 249->36, 250->38, 251->2, 252->19, 253->20, 254->9, 255->3, 256->2, 257->8, 258->47, 259->32, 260->21, 261->5, 262->36, 263->7, 264->31, 265->37, 266->15, 267->27, 268->19, 269->22, 270->37, 271->25, 272->6, 273->3, 274->24, 275->44, 276->32, 277->28, 278->20, 279->0, 280->14, 281->39, 282->8, 283->24, 284->20, 285->14, 286->9, 287->2

Average CPI map:
	7.31,	1.67,	1.50,	1.28,	1.39,	1.82
	1.37,	3.68,	3.28,	4.01,	5.46,	1.84
	1.66,	7.46,	5.05,	8.18,	6.05,	1.33
	1.33,	6.71,	4.47,	4.51,	3.39,	1.86
	1.17,	3.91,	6.02,	5.77,	4.93,	2.13
	1.61,	6.30,	6.91,	4.86,	5.95,	1.52
	1.64,	6.81,	4.66,	3.52,	5.43,	1.47
	1.85,	2.44,	3.00,	2.91,	3.59,	0.98

Efficiency map:
	0.997,	0.943,	0.913,	0.907,	0.940,	0.996
	0.826,	0.737,	0.731,	0.733,	0.818,	0.849
	0.827,	0.803,	0.737,	0.743,	0.773,	0.815
	0.813,	0.798,	0.733,	0.734,	0.732,	0.826
	0.800,	0.738,	0.758,	0.732,	0.736,	0.843
	0.806,	0.771,	0.736,	0.732,	0.815,	0.818
	0.872,	0.806,	0.735,	0.739,	0.781,	0.804
	0.842,	0.767,	0.734,	0.732,	0.736,	0.802
