LocalSolver 4.0 (MacOS64, build 20131224)
Copyright (C) 2013 Bouygues SA, Aix-Marseille University, CNRS.
All rights reserved (see Terms and Conditions for details).

Load localsolver_res/tawd_ls.lsp...
Run input...
ANNs For the Platform:
3,2,1,0.413586,-0.0266769,-0.0683771,-5.1002,70.5254,-0.257939,-72.3361,-14.3957,-55.9961,0.000416225,-55.1984
3,2,1,7.29748,1.94844,3.18138,9.63196,-4.67735,-4.13678,1.22405,-8.03403,0.0803394,-0.125838,0.598848
3,2,1,6.43996,0.383984,0.598454,7.79024,-4.25175,0.123161,-0.278344,-5.71253,1.47885,1.00258,0.327892
3,2,1,3.45395,0.140329,0.51254,4.25255,4.08469,0.00326531,0.722664,3.88666,1.2829,-0.290289,-0.187123
3,2,1,1.76581,-0.7465,16.0398,1.01103,2.42771,0.96084,1.00318,4.14242,-0.00284347,0.244904,0.56299
3,2,1,1.87058,0.359859,-0.0851999,0.818043,3.18969,0.847611,-7.29654,-2.24823,0.00245596,0.000486788,0.794563
3,2,1,3.28113,0.579268,0.142679,3.72653,-0.240895,-0.149383,25.0414,7.13641,0.488705,-0.00083541,0.320468
3,2,1,-4.78997,-2.53518,1.7971,11.1628,-3.08773,-0.470276,-0.0894822,-2.63871,1.46314,-0.463195,-1.12076
3,2,1,-0.392198,-0.00544948,0.0100489,-0.634573,-1.21109,-0.0856362,-0.013156,-1.60668,1.54201,-2.33195,-0.462253
3,2,1,3.15031,0.401017,0.160161,2.51156,5.71314,0.59291,-11.6364,2.59774,0.430465,0.00737346,0.36306
3,2,1,2.64111,0.312028,0.0803827,2.35273,-4.25958,3.48188,-1.59773,-1.57632,0.565527,0.0271972,0.266241
3,2,1,2.2658,0.0425076,0.0191991,-0.583848,2.82415,0.533705,0.0754136,3.33659,-0.0169351,0.54785,0.257008
3,2,1,6.01014,0.654767,0.24854,5.54419,5.68574,0.00137666,0.00103835,-1.46229,0.258518,0.00962319,0.54621
3,2,1,-0.828282,0.684875,0.223674,-1.44779,5.0064,0.272371,0.00344824,2.89438,0.397142,0.379767,0.797684
3,2,1,-0.166745,-1.25514,-0.967701,-3.82155,3.34568,0.34907,0.176897,2.37943,0.567319,0.42026,0.93611
3,2,1,-10.035,3.55243,8.66202,-21.5626,10.92,0.228744,0.12852,5.40188,0.871264,0.345634,1.3209
3,2,1,4.50278,0.709934,0.227356,3.41616,1.455,0.115548,0.0125181,-1.15221,0.345467,0.222127,0.602264
3,2,1,3.51765,0.552987,0.202187,3.41883,0.53704,0.0709757,-0.0346297,-0.38017,0.320095,-0.0397752,0.474568
3,2,1,3.62936,0.506661,0.201819,3.49179,3.4019,-3.09955,1.3332,0.961184,0.32649,-0.0126443,0.488413
3,2,1,3.50925,0.448618,0.127508,2.4823,1.78455,1.6893,1.46456,-0.207671,0.400287,0.00684206,0.402337
3,2,1,-0.52883,0.00691432,0.00617163,-0.194006,1.73284,0.0488672,0.0179273,1.25978,0.716787,0.92667,0.162242
3,2,1,2.48239,0.190378,0.120167,1.91689,1.21532,1.48543,0.644574,2.68198,0.547395,-0.0744913,0.328097
3,2,1,2.55861,2.02297,0.650126,2.19109,2.44652,0.0836318,0.0133745,2.4369,0.0418722,0.798841,-0.0334834
3,2,1,5.07371,0.556895,0.217981,4.66725,-0.00829845,-0.00544544,0.00934569,-0.672651,0.280461,-0.520981,0.217266
3,2,1,1.56588,0.201966,0.0665967,1.82578,1.97654,0.236717,0.0903453,1.08195,1.02748,-0.229836,0.011785
3,2,1,2.41728,0.208205,-0.0012583,2.05484,1.41976,-1.30194,1.45365,1.79277,0.56727,0.031184,0.207229
3,2,1,3.71833,0.202336,0.172606,2.43155,5.03284,0.375118,-0.790998,-3.83455,0.400925,0.372075,0.754779
3,2,1,-1.25583,1.47411,0.819895,-2.78448,4.36107,0.113478,0.107247,2.55416,0.385214,0.384141,0.797017
3,2,1,1.71562,-0.478906,-0.61026,-1.17859,3.1361,0.360865,0.0914124,2.2536,-0.0127033,0.431384,0.365879
3,2,1,-1.75501,-0.0880109,-0.026461,-2.68365,2.88327,0.072433,0.0245574,1.95701,-5.87306,-0.563325,-4.48698
3,2,1,1.87886,0.47325,-0.0511434,1.79719,1.94184,0.328234,0.0220624,2.54301,-0.401251,1.77114,-0.565042
3,2,1,-1.60981,1.67946,0.217969,-1.01084,4.35765,0.130722,0.127348,2.65259,0.0709006,0.384957,0.481341
3,2,1,6.90393,1.27603,0.349979,4.84299,12.4465,-4.65212,-2.15462,0.408255,0.295914,0.0666312,0.4354
3,2,1,3.04491,0.18183,0.111428,2.10543,3.32281,-0.49945,-3.78487,-7.88748,0.444834,-4.36795,-4.01116
3,2,1,2.91407,0.251062,0.0435786,2.27032,0.308764,1.59867,0.766589,0.134898,0.475285,0.00569166,0.326702
3,2,1,1.44846,0.205113,0.0448314,1.45909,1.93039,0.286882,0.0586866,1.17886,1.39166,-0.600981,0.0448012
3,2,1,-0.702729,1.84783,-0.00894741,-12.1377,-140.908,-69.0514,-27.175,-146.219,-4.51728,-0.14351,-3.88527
3,2,1,4.2004,0.255152,0.0750175,2.63627,-1.17866,1.67307,0.209535,-1.03514,0.371915,0.0747402,0.498851
3,2,1,3.28015,0.190841,0.175032,2.31848,-0.821253,-1.83022,1.5009,-1.6155,0.417221,-0.0239081,0.360136
3,2,1,2.0525,0.0719707,0.0148549,2.1486,2.00198,1.73479,2.09334,1.44082,0.954066,0.00952719,-0.152697
3,2,1,3.31406,0.407717,0.0380361,2.47187,-0.266021,-1.73458,0.970613,-1.79463,0.415264,-0.0144649,0.374956
3,2,1,6.25099,-3.17047,1.46865,-0.279767,-2.91952,-0.395169,-0.0444215,-3.76202,-0.00491872,-1.23429,-0.425145
3,2,1,1.59636,0.096013,0.0630313,0.826005,1.46151,0.077228,0.0482484,1.68899,-0.289647,1.15304,-0.0688712
3,2,1,33.0172,0.520442,0.135338,28.5555,-3.97298,-0.0574545,-0.0193135,3.34452,0.297691,-5.9863,6.38072
3,2,1,2.32742,0.056139,0.0279748,2.30198,0.254535,0.117712,2.12797,1.7883,0.827797,-0.00209653,-0.0205758
3,2,1,-1.76524,-0.0296866,-0.00748622,-2.47523,4.4267,-0.377196,-4.83785,1.3517,-2.37434,-0.00716866,-1.55224
3,2,1,1.2047,-1.47491,1.03821,1.50617,3.23679,0.3845,-0.018138,2.47251,0.0419137,0.407618,0.357451
3,2,1,3.93828,-0.00820725,-0.00812648,-1.1651,2.06372,0.114124,0.0339398,2.70327,-0.0635318,1.17159,-0.373077
Workload Information:
1.79827, 3.38388, 2.06404, 0.925761, 3.04041, 0.787649, 3.73242, 1.98804, 2.26302, 2.83135, 0.5, 0.685164, 2.38601, 0.5, 2.04038, 2.01844, 3.02709, 2.02808, 3.55013, 2.0331, 0.5, 2.83315, 0.68203, 2.40159, 0.758626, 1.30365, 5.93031, 2.69139, 0.816033, 0.5, 2.54118, 2.36211, 1.92343, 1.36219, 1.95654, 1.85456, 1.99448, 2.3919, 0.740012, 1.99675, 3.13742, 1.73944, 1.36578, 2.23547, 1.794, 2.19199, 2.24655, 2.1662, 1.59569, 3.24898, 3.08409, 0.723882, 0.5, 2.84736, 2.86812, 1.91621, 0.701705, 4.5257, 1.25824, 0.730029, 0.803474, 3.58109, 1.77912, 3.4913, 1.31797, 1.02705, 2.09073, 3.39759, 0.5, 2.63341, 1.4025, 1.97577, 1.54215, 2.48634, 2.52895, 2.51272, 0.783052, 2.1468, 0.5, 2.22001, 2.85936, 1.82824, 2.84551, 1.74688, 1.6097, 2.19664, 1.81826, 2.33707, 2.07177, 1.96656, 0.995223, 0.5, 1.00578, 5.58658, 1.81578, 2.09663, 2.01169, 2.13169, 2.37357, 1.75016, 1.91302, 1.81988, 3.35059, 1.70696, 1.67233, 0.5, 3.37688, 1.39325, 1.80807, 2.59425, 0.772653, 2.81311, 1.71527, 2.29664, 1.44553, 2.93142, 3.69395, 1.63482, 0.554051, 1.74024, 1.52234, 1.20947, 0.85358, 1.47006, 3.52833, 3.41622, 1.28832, 2.33007, 0.5, 4.06419, 1.2947, 2.52271, 2.06658, 2.07657, 1.55984, 2.20663, 2.09104, 1.99933, 0.548044, 1.69226, 3.32882, 0.5, 3.88611, 2.04476, 3.17993, 0.520903, 2.62744, 1.66691, 1.22828, 2.77653, 35, 23.8645, 16.8543, 15.3668, 29.4499, 11.4645, 3.08911, 1.48743, 2.13811, 1.22505, 1.88971, 2.17059, 19.5893, 9.34323, 25.5234, 32.6741, 11.603, 33.2669, 1.73516, 0.5, 2.57912, 3.05142, 1.91023, 2.22407, 2.30399, 2.39891, 1.61042, 2.40894, 1.32414, 1.9536, 3.40631, 0.680307, 2.17999, 0.5, 0.986661, 4.24673, 3.28396, 2.14556, 1.34892, 1.43826, 2.56412, 1.21917, 2.01196, 1.05033, 3.23291, 1.89738, 0.5, 3.30742, 2.18244, 1.86563, 2.528, 1.78079, 2.3482, 1.29494, 2.05037, 0.983139, 2.09249, 2.22604, 2.412, 2.23596, 4.03113, 0.547598, 3.11287, 2.00216, 1.11751, 1.18873, 1.88921, 1.58387, 2.26324, 1.83598, 2.21371, 2.21399, 12.7861, 21.5928, 19.6128, 32.3467, 33.9258, 11.7357, 1.25239, 2.21992, 3.2668, 0.919756, 0.622349, 3.71879, 18.7638, 18.3174, 35, 27.0423, 10.339, 22.5375, 1.29858, 2.44351, 0.5, 2.90915, 2.3489, 2.49986, 2.0626, 2.78178, 2.21862, 2.55267, 0.5, 1.88433, 3.90546, 2.35791, 3.56684, 0.974858, 0.500323, 0.694616, 1.8077, 1.84206, 2.11447, 2.01975, 2.03188, 2.18414, 2.47308, 0.5, 2.62717, 2.00053, 2.51917, 1.88006, 2.23387, 2.18088, 2.27239, 1.40072, 2.06008, 1.85206, 2.33608, 0.5, 2.1886, 0.703212, 3.17395, 3.09816, 1.45941, 1.2965, 2.02354, 2.6319, 3.55411, 1.03454
cpi min/max: 0.5/35
neighbors of 0: 1 6, number of others: 45
neighbors of 1: 0 2 6 7, number of others: 43
neighbors of 2: 1 3 7 8, number of others: 43
neighbors of 3: 2 4 8 9, number of others: 43
neighbors of 4: 3 5 9 10, number of others: 43
neighbors of 5: 4 10 11, number of others: 44
neighbors of 6: 0 1 7 12, number of others: 43
neighbors of 7: 1 2 6 8 12 13, number of others: 41
neighbors of 8: 2 3 7 9 13 14, number of others: 41
neighbors of 9: 3 4 8 10 14 15, number of others: 41
neighbors of 10: 4 5 9 11 15 16, number of others: 41
neighbors of 11: 5 10 16 17, number of others: 43
neighbors of 12: 6 7 13 18, number of others: 43
neighbors of 13: 7 8 12 14 18 19, number of others: 41
neighbors of 14: 8 9 13 15 19 20, number of others: 41
neighbors of 15: 9 10 14 16 20 21, number of others: 41
neighbors of 16: 10 11 15 17 21 22, number of others: 41
neighbors of 17: 11 16 22 23, number of others: 43
neighbors of 18: 12 13 19 24, number of others: 43
neighbors of 19: 13 14 18 20 24 25, number of others: 41
neighbors of 20: 14 15 19 21 25 26, number of others: 41
neighbors of 21: 15 16 20 22 26 27, number of others: 41
neighbors of 22: 16 17 21 23 27 28, number of others: 41
neighbors of 23: 17 22 28 29, number of others: 43
neighbors of 24: 18 19 25 30, number of others: 43
neighbors of 25: 19 20 24 26 30 31, number of others: 41
neighbors of 26: 20 21 25 27 31 32, number of others: 41
neighbors of 27: 21 22 26 28 32 33, number of others: 41
neighbors of 28: 22 23 27 29 33 34, number of others: 41
neighbors of 29: 23 28 34 35, number of others: 43
neighbors of 30: 24 25 31 36, number of others: 43
neighbors of 31: 25 26 30 32 36 37, number of others: 41
neighbors of 32: 26 27 31 33 37 38, number of others: 41
neighbors of 33: 27 28 32 34 38 39, number of others: 41
neighbors of 34: 28 29 33 35 39 40, number of others: 41
neighbors of 35: 29 34 40 41, number of others: 43
neighbors of 36: 30 31 37 42, number of others: 43
neighbors of 37: 31 32 36 38 42 43, number of others: 41
neighbors of 38: 32 33 37 39 43 44, number of others: 41
neighbors of 39: 33 34 38 40 44 45, number of others: 41
neighbors of 40: 34 35 39 41 45 46, number of others: 41
neighbors of 41: 35 40 46 47, number of others: 43
neighbors of 42: 36 37 43, number of others: 44
neighbors of 43: 37 38 42 44, number of others: 43
neighbors of 44: 38 39 43 45, number of others: 43
neighbors of 45: 39 40 44 46, number of others: 43
neighbors of 46: 40 41 45 47, number of others: 43
neighbors of 47: 41 46, number of others: 45
Run model...
Preprocess model 0% ...Preprocess model 16% ...Preprocess model 32% ...Preprocess model 48% ...Preprocess model 66% ...Preprocess model 84% ...Preprocess model 100% ...
Close model 0% ...Close model 9% ...Close model 18% ...Close model 27% ...Close model 36% ...Close model 45% ...Close model 54% ...Close model 63% ...Close model 72% ...Close model 81% ...Close model 91% ...Close model 100% ...
Run param...
Run solver...
Initialize threads 0% ...Initialize threads 100% ...
Push initial solutions 0% ...Push initial solutions 100% ...

Model: 
  expressions = 30667, operands = 74976
  decisions = 13824, constraints = 336, objectives = 1

Param: 
  time limit = 90 sec, no iteration limit
  seed = 801, nb threads = 1, annealing level = 1

Objectives:
  Obj 0: maximize, no bound

Phases:
  Phase 0: time limit = 90 sec, no iteration limit, optimized objective = 0


Computed bounds:
  Obj 0: upper bound = 0.650128


Phase 0:
[0 sec, 0 itr]: infeas = (336, 336, 576), mov = 0, inf < 0.1%, acc < 0.1%, imp = 0

worst case efficiency: 0.965273
[1 sec, 2518 itr]: infeas = (38, 38, 54), mov = 2518, inf = 65.5%, acc = 28%, imp = 140

worst case efficiency: 0.475534
[2 sec, 28951 itr]: obj = (0.0603732), mov = 28951, inf = 92%, acc = 5.6%, imp = 181

worst case efficiency: 0.636224
[3 sec, 62817 itr]: obj = (0.0647442), mov = 62817, inf = 96.3%, acc = 2.7%, imp = 196

worst case efficiency: 0.638847
[4 sec, 89313 itr]: obj = (0.0682999), mov = 89313, inf = 97.4%, acc = 1.9%, imp = 234

worst case efficiency: 0.64098
[5 sec, 105190 itr]: obj = (0.0767137), mov = 105190, inf = 97.8%, acc = 1.7%, imp = 259

worst case efficiency: 0.646028
[6 sec, 116384 itr]: obj = (0.0876428), mov = 116384, inf = 98%, acc = 1.5%, imp = 288

worst case efficiency: 0.652586
[7 sec, 124872 itr]: obj = (0.0903366), mov = 124872, inf = 98.1%, acc = 1.4%, imp = 302

worst case efficiency: 0.654202
[8 sec, 133403 itr]: obj = (0.0915754), mov = 133403, inf = 98.2%, acc = 1.4%, imp = 327

worst case efficiency: 0.654945
[9 sec, 142115 itr]: obj = (0.0928015), mov = 142115, inf = 98.3%, acc = 1.3%, imp = 341

worst case efficiency: 0.655681
[10 sec, 150743 itr]: obj = (0.099915), mov = 150743, inf = 98.4%, acc = 1.2%, imp = 356

worst case efficiency: 0.659949
[11 sec, 159314 itr]: obj = (0.099915), mov = 159314, inf = 98.5%, acc = 1.2%, imp = 356

worst case efficiency: 0.659949
[12 sec, 168457 itr]: obj = (0.099915), mov = 168457, inf = 98.6%, acc = 1.1%, imp = 356

worst case efficiency: 0.659949
[13 sec, 179982 itr]: obj = (0.099915), mov = 179982, inf = 98.7%, acc = 1.1%, imp = 356

worst case efficiency: 0.659949
[14 sec, 201102 itr]: obj = (0.0999372), mov = 201102, inf = 98.8%, acc = 0.9%, imp = 357

worst case efficiency: 0.659962
[15 sec, 224918 itr]: obj = (0.100032), mov = 224918, inf = 98.9%, acc = 0.9%, imp = 361

worst case efficiency: 0.660019
[16 sec, 253041 itr]: obj = (0.100165), mov = 253041, inf = 99%, acc = 0.8%, imp = 363

worst case efficiency: 0.660099
[17 sec, 281275 itr]: obj = (0.100165), mov = 281275, inf = 99.1%, acc = 0.7%, imp = 363

worst case efficiency: 0.660099
[18 sec, 305934 itr]: obj = (0.101771), mov = 305934, inf = 99.2%, acc = 0.7%, imp = 369

worst case efficiency: 0.661062
[19 sec, 327799 itr]: obj = (0.102502), mov = 327799, inf = 99.3%, acc = 0.6%, imp = 371

worst case efficiency: 0.661501
[20 sec, 353438 itr]: obj = (0.103663), mov = 353438, inf = 99.3%, acc = 0.6%, imp = 373

worst case efficiency: 0.662198
[21 sec, 379687 itr]: obj = (0.103666), mov = 379687, inf = 99.4%, acc = 0.5%, imp = 374

worst case efficiency: 0.6622
[22 sec, 406408 itr]: obj = (0.104942), mov = 406408, inf = 99.4%, acc = 0.5%, imp = 375

worst case efficiency: 0.662965
[23 sec, 433156 itr]: obj = (0.105038), mov = 433156, inf = 99.5%, acc = 0.5%, imp = 377

worst case efficiency: 0.663023
[24 sec, 460132 itr]: obj = (0.105152), mov = 460132, inf = 99.5%, acc = 0.5%, imp = 379

worst case efficiency: 0.663091
[25 sec, 486378 itr]: obj = (0.105152), mov = 486378, inf = 99.5%, acc = 0.4%, imp = 379

worst case efficiency: 0.663091
[26 sec, 512945 itr]: obj = (0.105241), mov = 512945, inf = 99.5%, acc = 0.4%, imp = 383

worst case efficiency: 0.663144
[27 sec, 539382 itr]: obj = (0.105241), mov = 539382, inf = 99.6%, acc = 0.4%, imp = 383

worst case efficiency: 0.663144
[28 sec, 566157 itr]: obj = (0.105241), mov = 566157, inf = 99.6%, acc = 0.4%, imp = 383

worst case efficiency: 0.663144
[29 sec, 593160 itr]: obj = (0.105286), mov = 593160, inf = 99.6%, acc = 0.4%, imp = 384

worst case efficiency: 0.663172
[30 sec, 618857 itr]: obj = (0.105494), mov = 618857, inf = 99.6%, acc = 0.4%, imp = 386

worst case efficiency: 0.663297
[31 sec, 645089 itr]: obj = (0.106361), mov = 645089, inf = 99.6%, acc = 0.3%, imp = 389

worst case efficiency: 0.663817
[32 sec, 667678 itr]: obj = (0.10665), mov = 667678, inf = 99.7%, acc = 0.3%, imp = 390

worst case efficiency: 0.66399
[33 sec, 693095 itr]: obj = (0.107225), mov = 693095, inf = 99.7%, acc = 0.3%, imp = 392

worst case efficiency: 0.664335
[34 sec, 718456 itr]: obj = (0.107233), mov = 718456, inf = 99.7%, acc = 0.3%, imp = 394

worst case efficiency: 0.66434
[35 sec, 745359 itr]: obj = (0.107256), mov = 745359, inf = 99.7%, acc = 0.3%, imp = 395

worst case efficiency: 0.664354
[36 sec, 772003 itr]: obj = (0.108178), mov = 772003, inf = 99.7%, acc = 0.3%, imp = 400

worst case efficiency: 0.664907
[37 sec, 798188 itr]: obj = (0.108178), mov = 798188, inf = 99.7%, acc = 0.3%, imp = 400

worst case efficiency: 0.664907
[38 sec, 824247 itr]: obj = (0.108259), mov = 824247, inf = 99.7%, acc = 0.3%, imp = 402

worst case efficiency: 0.664955
[39 sec, 850783 itr]: obj = (0.108262), mov = 850783, inf = 99.7%, acc = 0.3%, imp = 404

worst case efficiency: 0.664957
[40 sec, 875847 itr]: obj = (0.108358), mov = 875847, inf = 99.7%, acc = 0.3%, imp = 407

worst case efficiency: 0.665015
[41 sec, 902099 itr]: obj = (0.108586), mov = 902099, inf = 99.8%, acc = 0.3%, imp = 410

worst case efficiency: 0.665151
[42 sec, 928167 itr]: obj = (0.108725), mov = 928167, inf = 99.8%, acc = 0.3%, imp = 413

worst case efficiency: 0.665235
[43 sec, 954276 itr]: obj = (0.108813), mov = 954276, inf = 99.8%, acc = 0.3%, imp = 414

worst case efficiency: 0.665288
[44 sec, 979974 itr]: obj = (0.109795), mov = 979974, inf = 99.8%, acc = 0.2%, imp = 417

worst case efficiency: 0.665877
[45 sec, 1006168 itr]: obj = (0.109795), mov = 1006168, inf = 99.8%, acc = 0.2%, imp = 417

worst case efficiency: 0.665877
[46 sec, 1031919 itr]: obj = (0.109807), mov = 1031919, inf = 99.8%, acc = 0.2%, imp = 418

worst case efficiency: 0.665884
[47 sec, 1056456 itr]: obj = (0.110335), mov = 1056456, inf = 99.8%, acc = 0.2%, imp = 419

worst case efficiency: 0.666201
[48 sec, 1077026 itr]: obj = (0.110341), mov = 1077026, inf = 99.8%, acc = 0.2%, imp = 420

worst case efficiency: 0.666205
[49 sec, 1095740 itr]: obj = (0.110341), mov = 1095740, inf = 99.8%, acc = 0.2%, imp = 420

worst case efficiency: 0.666205
[50 sec, 1118505 itr]: obj = (0.110341), mov = 1118505, inf = 99.8%, acc = 0.2%, imp = 420

worst case efficiency: 0.666205
[51 sec, 1139515 itr]: obj = (0.110343), mov = 1139515, inf = 99.8%, acc = 0.2%, imp = 421

worst case efficiency: 0.666206
[52 sec, 1159721 itr]: obj = (0.110434), mov = 1159721, inf = 99.8%, acc = 0.2%, imp = 423

worst case efficiency: 0.66626
[53 sec, 1181738 itr]: obj = (0.110434), mov = 1181738, inf = 99.8%, acc = 0.2%, imp = 423

worst case efficiency: 0.66626
[54 sec, 1203242 itr]: obj = (0.110504), mov = 1203242, inf = 99.8%, acc = 0.2%, imp = 424

worst case efficiency: 0.666302
[55 sec, 1228039 itr]: obj = (0.110504), mov = 1228039, inf = 99.8%, acc = 0.2%, imp = 424

worst case efficiency: 0.666302
[56 sec, 1253898 itr]: obj = (0.1106), mov = 1253898, inf = 99.8%, acc = 0.2%, imp = 425

worst case efficiency: 0.66636
[57 sec, 1278789 itr]: obj = (0.111811), mov = 1278789, inf = 99.8%, acc = 0.2%, imp = 426

worst case efficiency: 0.667087
[58 sec, 1301872 itr]: obj = (0.111979), mov = 1301872, inf = 99.8%, acc = 0.2%, imp = 429

worst case efficiency: 0.667187
[59 sec, 1321444 itr]: obj = (0.111979), mov = 1321444, inf = 99.8%, acc = 0.2%, imp = 429

worst case efficiency: 0.667187
[60 sec, 1338660 itr]: obj = (0.111983), mov = 1338660, inf = 99.9%, acc = 0.2%, imp = 430

worst case efficiency: 0.66719
[61 sec, 1357306 itr]: obj = (0.112222), mov = 1357306, inf = 99.9%, acc = 0.2%, imp = 431

worst case efficiency: 0.667333
[62 sec, 1376334 itr]: obj = (0.112235), mov = 1376334, inf = 99.9%, acc = 0.2%, imp = 432

worst case efficiency: 0.667341
[63 sec, 1396494 itr]: obj = (0.11224), mov = 1396494, inf = 99.9%, acc = 0.2%, imp = 433

worst case efficiency: 0.667344
[64 sec, 1414891 itr]: obj = (0.112589), mov = 1414891, inf = 99.9%, acc = 0.2%, imp = 435

worst case efficiency: 0.667554
[65 sec, 1438205 itr]: obj = (0.112605), mov = 1438205, inf = 99.9%, acc = 0.2%, imp = 436

worst case efficiency: 0.667563
[66 sec, 1463321 itr]: obj = (0.112607), mov = 1463321, inf = 99.9%, acc = 0.2%, imp = 437

worst case efficiency: 0.667564
[67 sec, 1489198 itr]: obj = (0.112614), mov = 1489198, inf = 99.9%, acc = 0.2%, imp = 438

worst case efficiency: 0.667568
[68 sec, 1513685 itr]: obj = (0.112614), mov = 1513685, inf = 99.9%, acc = 0.2%, imp = 438

worst case efficiency: 0.667568
[69 sec, 1537908 itr]: obj = (0.112614), mov = 1537908, inf = 99.9%, acc = 0.2%, imp = 438

worst case efficiency: 0.667568
[70 sec, 1563457 itr]: obj = (0.112627), mov = 1563457, inf = 99.9%, acc = 0.2%, imp = 439

worst case efficiency: 0.667576
[71 sec, 1589429 itr]: obj = (0.112673), mov = 1589429, inf = 99.9%, acc = 0.2%, imp = 441

worst case efficiency: 0.667604
[72 sec, 1616461 itr]: obj = (0.112673), mov = 1616461, inf = 99.9%, acc = 0.2%, imp = 441

worst case efficiency: 0.667604
[73 sec, 1642502 itr]: obj = (0.112673), mov = 1642502, inf = 99.9%, acc = 0.2%, imp = 441

worst case efficiency: 0.667604
[74 sec, 1668337 itr]: obj = (0.112863), mov = 1668337, inf = 99.9%, acc = 0.2%, imp = 445

worst case efficiency: 0.667718
[75 sec, 1693457 itr]: obj = (0.113637), mov = 1693457, inf = 99.9%, acc = 0.2%, imp = 447

worst case efficiency: 0.668182
[76 sec, 1718695 itr]: obj = (0.113641), mov = 1718695, inf = 99.9%, acc = 0.2%, imp = 448

worst case efficiency: 0.668184
[77 sec, 1743960 itr]: obj = (0.113654), mov = 1743960, inf = 99.9%, acc = 0.2%, imp = 450

worst case efficiency: 0.668192
[78 sec, 1768932 itr]: obj = (0.113657), mov = 1768932, inf = 99.9%, acc = 0.2%, imp = 451

worst case efficiency: 0.668194
[79 sec, 1792639 itr]: obj = (0.113768), mov = 1792639, inf = 99.9%, acc = 0.2%, imp = 453

worst case efficiency: 0.668261
[80 sec, 1814967 itr]: obj = (0.113768), mov = 1814967, inf = 99.9%, acc = 0.2%, imp = 453

worst case efficiency: 0.668261
[81 sec, 1838290 itr]: obj = (0.113893), mov = 1838290, inf = 99.9%, acc = 0.2%, imp = 454

worst case efficiency: 0.668336
[82 sec, 1861724 itr]: obj = (0.114333), mov = 1861724, inf = 99.9%, acc = 0.2%, imp = 457

worst case efficiency: 0.6686
[83 sec, 1885329 itr]: obj = (0.11436), mov = 1885329, inf = 99.9%, acc = 0.2%, imp = 459

worst case efficiency: 0.668616
[84 sec, 1908649 itr]: obj = (0.114527), mov = 1908649, inf = 99.9%, acc = 0.2%, imp = 460

worst case efficiency: 0.668716
[85 sec, 1930528 itr]: obj = (0.114672), mov = 1930528, inf = 99.9%, acc = 0.2%, imp = 462

worst case efficiency: 0.668803
[86 sec, 1950140 itr]: obj = (0.11483), mov = 1950140, inf = 99.9%, acc = 0.2%, imp = 464

worst case efficiency: 0.668898
[87 sec, 1972655 itr]: obj = (0.115904), mov = 1972655, inf = 99.9%, acc = 0.2%, imp = 467

worst case efficiency: 0.669542
[88 sec, 1997565 itr]: obj = (0.116012), mov = 1997565, inf = 99.9%, acc < 0.1%, imp = 468

worst case efficiency: 0.669607
[89 sec, 2023643 itr]: obj = (0.116113), mov = 2023643, inf = 99.9%, acc < 0.1%, imp = 471

worst case efficiency: 0.669668
[90 sec, 2051224 itr]: obj = (0.116225), mov = 2051224, inf = 99.9%, acc < 0.1%, imp = 473

worst case efficiency: 0.669735
[90 sec, 2051224 itr]: obj = (0.116225), mov = 2051224, inf = 99.9%, acc < 0.1%, imp = 473

worst case efficiency: 0.669735
2051224 iterations, 2051224 moves performed in 90 seconds
Feasible solution: obj = (0.116225)

Run output...
FINAL SOLUTION
Worst case efficiency: 0.669735
Mapping: 0->36, 1->10, 2->14, 3->5, 4->13, 5->29, 6->37, 7->30, 8->9, 9->31, 10->44, 11->14, 12->33, 13->18, 14->5, 15->2, 16->13, 17->1, 18->37, 19->40, 20->23, 21->23, 22->3, 23->47, 24->3, 25->0, 26->8, 27->31, 28->46, 29->23, 30->31, 31->20, 32->21, 33->45, 34->1, 35->11, 36->7, 37->40, 38->25, 39->18, 40->19, 41->16, 42->3, 43->5, 44->46, 45->20, 46->27, 47->7, 48->10, 49->9, 50->34, 51->37, 52->19, 53->45, 54->21, 55->45, 56->17, 57->15, 58->47, 59->4, 60->0, 61->9, 62->42, 63->40, 64->0, 65->19, 66->16, 67->32, 68->6, 69->32, 70->39, 71->24, 72->24, 73->13, 74->26, 75->43, 76->24, 77->16, 78->22, 79->8, 80->33, 81->16, 82->34, 83->11, 84->3, 85->12, 86->6, 87->28, 88->42, 89->6, 90->30, 91->4, 92->35, 93->2, 94->46, 95->13, 96->8, 97->43, 98->18, 99->22, 100->24, 101->40, 102->36, 103->13, 104->17, 105->19, 106->10, 107->29, 108->10, 109->28, 110->47, 111->26, 112->43, 113->35, 114->42, 115->9, 116->33, 117->11, 118->26, 119->44, 120->36, 121->15, 122->29, 123->20, 124->15, 125->2, 126->24, 127->26, 128->4, 129->6, 130->28, 131->2, 132->38, 133->4, 134->30, 135->38, 136->44, 137->36, 138->23, 139->26, 140->31, 141->29, 142->25, 143->28, 144->1, 145->46, 146->40, 147->24, 148->41, 149->8, 150->20, 151->22, 152->26, 153->12, 154->9, 155->31, 156->10, 157->22, 158->43, 159->17, 160->19, 161->0, 162->32, 163->34, 164->25, 165->21, 166->27, 167->8, 168->41, 169->36, 170->46, 171->41, 172->42, 173->44, 174->2, 175->32, 176->38, 177->34, 178->28, 179->25, 180->41, 181->7, 182->4, 183->14, 184->47, 185->33, 186->14, 187->17, 188->35, 189->30, 190->21, 191->25, 192->20, 193->22, 194->42, 195->23, 196->30, 197->33, 198->25, 199->40, 200->38, 201->11, 202->11, 203->5, 204->6, 205->45, 206->39, 207->44, 208->7, 209->39, 210->18, 211->47, 212->41, 213->7, 214->12, 215->0, 216->3, 217->3, 218->36, 219->30, 220->35, 221->20, 222->41, 223->34, 224->32, 225->14, 226->13, 227->38, 228->6, 229->15, 230->27, 231->1, 232->22, 233->2, 234->46, 235->28, 236->16, 237->38, 238->19, 239->15, 240->16, 241->27, 242->43, 243->44, 244->45, 245->15, 246->14, 247->5, 248->27, 249->37, 250->32, 251->5, 252->18, 253->11, 254->39, 255->47, 256->23, 257->29, 258->18, 259->17, 260->39, 261->34, 262->21, 263->7, 264->33, 265->9, 266->45, 267->8, 268->31, 269->1, 270->37, 271->29, 272->12, 273->10, 274->42, 275->17, 276->27, 277->4, 278->37, 279->35, 280->12, 281->1, 282->12, 283->0, 284->43, 285->21, 286->39, 287->35
Number of tasks per core:
	6	6	6	6	6	6
	6	6	6	6	6	6
	6	6	6	6	6	6
	6	6	6	6	6	6
	6	6	6	6	6	6
	6	6	6	6	6	6
	6	6	6	6	6	6
	6	6	6	6	6	6
Average CPI map:
	1.34682	2.17709	3.26112	1.31487	1.0811	1.86044
	1.94196	1.90655	8.03433	6.99573	2.44239	1.95386
	4.26445	7.71388	6.82374	6.08679	7.35063	1.57313
	2.43577	2.89886	7.54168	7.44893	4.87914	1.12982
	1.5282	5.91746	4.46212	4.01909	4.65206	1.06833
	1.38622	4.2294	8.02201	3.16109	6.88239	1.4338
	1.90563	2.49693	7.86495	2.49439	2.37154	4.22003
	2.08327	1.83689	1.94842	2.01416	4.3816	1.15693
Efficiency map:
	0.996719	0.941498	0.980461	0.914193	0.936879	0.995898
	0.836776	0.66992	0.905892	0.85373	0.695373	0.853646
	0.925097	0.820232	0.814337	0.670002	0.834946	0.82207
	0.846938	0.669744	0.846983	0.847173	0.804937	0.80183
	0.811025	0.821483	0.697904	0.674559	0.724299	0.733441
	0.787215	0.691861	0.797688	0.669962	0.847732	0.812491
	0.871815	0.671656	0.86141	0.680167	0.673133	0.92089
	0.848232	0.674095	0.669735	0.672423	0.765237	0.81265
==============================================================================
Local Solver optimizer for EML demonstration
==============================================================================

Option values: --wld-idx 8 --global-tlim 90 --seed 801

Starting the Optimization Process
