LocalSolver 4.0 (MacOS64, build 20131224)
Copyright (C) 2013 Bouygues SA, Aix-Marseille University, CNRS.
All rights reserved (see Terms and Conditions for details).

Load localsolver_res/tawd_ls.lsp...
Run input...
ANNs For the Platform:
3,2,1,0.413586,-0.0266769,-0.0683771,-5.1002,70.5254,-0.257939,-72.3361,-14.3957,-55.9961,0.000416225,-55.1984
3,2,1,7.29748,1.94844,3.18138,9.63196,-4.67735,-4.13678,1.22405,-8.03403,0.0803394,-0.125838,0.598848
3,2,1,6.43996,0.383984,0.598454,7.79024,-4.25175,0.123161,-0.278344,-5.71253,1.47885,1.00258,0.327892
3,2,1,3.45395,0.140329,0.51254,4.25255,4.08469,0.00326531,0.722664,3.88666,1.2829,-0.290289,-0.187123
3,2,1,1.76581,-0.7465,16.0398,1.01103,2.42771,0.96084,1.00318,4.14242,-0.00284347,0.244904,0.56299
3,2,1,1.87058,0.359859,-0.0851999,0.818043,3.18969,0.847611,-7.29654,-2.24823,0.00245596,0.000486788,0.794563
3,2,1,3.28113,0.579268,0.142679,3.72653,-0.240895,-0.149383,25.0414,7.13641,0.488705,-0.00083541,0.320468
3,2,1,-4.78997,-2.53518,1.7971,11.1628,-3.08773,-0.470276,-0.0894822,-2.63871,1.46314,-0.463195,-1.12076
3,2,1,-0.392198,-0.00544948,0.0100489,-0.634573,-1.21109,-0.0856362,-0.013156,-1.60668,1.54201,-2.33195,-0.462253
3,2,1,3.15031,0.401017,0.160161,2.51156,5.71314,0.59291,-11.6364,2.59774,0.430465,0.00737346,0.36306
3,2,1,2.64111,0.312028,0.0803827,2.35273,-4.25958,3.48188,-1.59773,-1.57632,0.565527,0.0271972,0.266241
3,2,1,2.2658,0.0425076,0.0191991,-0.583848,2.82415,0.533705,0.0754136,3.33659,-0.0169351,0.54785,0.257008
3,2,1,6.01014,0.654767,0.24854,5.54419,5.68574,0.00137666,0.00103835,-1.46229,0.258518,0.00962319,0.54621
3,2,1,-0.828282,0.684875,0.223674,-1.44779,5.0064,0.272371,0.00344824,2.89438,0.397142,0.379767,0.797684
3,2,1,-0.166745,-1.25514,-0.967701,-3.82155,3.34568,0.34907,0.176897,2.37943,0.567319,0.42026,0.93611
3,2,1,-10.035,3.55243,8.66202,-21.5626,10.92,0.228744,0.12852,5.40188,0.871264,0.345634,1.3209
3,2,1,4.50278,0.709934,0.227356,3.41616,1.455,0.115548,0.0125181,-1.15221,0.345467,0.222127,0.602264
3,2,1,3.51765,0.552987,0.202187,3.41883,0.53704,0.0709757,-0.0346297,-0.38017,0.320095,-0.0397752,0.474568
3,2,1,3.62936,0.506661,0.201819,3.49179,3.4019,-3.09955,1.3332,0.961184,0.32649,-0.0126443,0.488413
3,2,1,3.50925,0.448618,0.127508,2.4823,1.78455,1.6893,1.46456,-0.207671,0.400287,0.00684206,0.402337
3,2,1,-0.52883,0.00691432,0.00617163,-0.194006,1.73284,0.0488672,0.0179273,1.25978,0.716787,0.92667,0.162242
3,2,1,2.48239,0.190378,0.120167,1.91689,1.21532,1.48543,0.644574,2.68198,0.547395,-0.0744913,0.328097
3,2,1,2.55861,2.02297,0.650126,2.19109,2.44652,0.0836318,0.0133745,2.4369,0.0418722,0.798841,-0.0334834
3,2,1,5.07371,0.556895,0.217981,4.66725,-0.00829845,-0.00544544,0.00934569,-0.672651,0.280461,-0.520981,0.217266
3,2,1,1.56588,0.201966,0.0665967,1.82578,1.97654,0.236717,0.0903453,1.08195,1.02748,-0.229836,0.011785
3,2,1,2.41728,0.208205,-0.0012583,2.05484,1.41976,-1.30194,1.45365,1.79277,0.56727,0.031184,0.207229
3,2,1,3.71833,0.202336,0.172606,2.43155,5.03284,0.375118,-0.790998,-3.83455,0.400925,0.372075,0.754779
3,2,1,-1.25583,1.47411,0.819895,-2.78448,4.36107,0.113478,0.107247,2.55416,0.385214,0.384141,0.797017
3,2,1,1.71562,-0.478906,-0.61026,-1.17859,3.1361,0.360865,0.0914124,2.2536,-0.0127033,0.431384,0.365879
3,2,1,-1.75501,-0.0880109,-0.026461,-2.68365,2.88327,0.072433,0.0245574,1.95701,-5.87306,-0.563325,-4.48698
3,2,1,1.87886,0.47325,-0.0511434,1.79719,1.94184,0.328234,0.0220624,2.54301,-0.401251,1.77114,-0.565042
3,2,1,-1.60981,1.67946,0.217969,-1.01084,4.35765,0.130722,0.127348,2.65259,0.0709006,0.384957,0.481341
3,2,1,6.90393,1.27603,0.349979,4.84299,12.4465,-4.65212,-2.15462,0.408255,0.295914,0.0666312,0.4354
3,2,1,3.04491,0.18183,0.111428,2.10543,3.32281,-0.49945,-3.78487,-7.88748,0.444834,-4.36795,-4.01116
3,2,1,2.91407,0.251062,0.0435786,2.27032,0.308764,1.59867,0.766589,0.134898,0.475285,0.00569166,0.326702
3,2,1,1.44846,0.205113,0.0448314,1.45909,1.93039,0.286882,0.0586866,1.17886,1.39166,-0.600981,0.0448012
3,2,1,-0.702729,1.84783,-0.00894741,-12.1377,-140.908,-69.0514,-27.175,-146.219,-4.51728,-0.14351,-3.88527
3,2,1,4.2004,0.255152,0.0750175,2.63627,-1.17866,1.67307,0.209535,-1.03514,0.371915,0.0747402,0.498851
3,2,1,3.28015,0.190841,0.175032,2.31848,-0.821253,-1.83022,1.5009,-1.6155,0.417221,-0.0239081,0.360136
3,2,1,2.0525,0.0719707,0.0148549,2.1486,2.00198,1.73479,2.09334,1.44082,0.954066,0.00952719,-0.152697
3,2,1,3.31406,0.407717,0.0380361,2.47187,-0.266021,-1.73458,0.970613,-1.79463,0.415264,-0.0144649,0.374956
3,2,1,6.25099,-3.17047,1.46865,-0.279767,-2.91952,-0.395169,-0.0444215,-3.76202,-0.00491872,-1.23429,-0.425145
3,2,1,1.59636,0.096013,0.0630313,0.826005,1.46151,0.077228,0.0482484,1.68899,-0.289647,1.15304,-0.0688712
3,2,1,33.0172,0.520442,0.135338,28.5555,-3.97298,-0.0574545,-0.0193135,3.34452,0.297691,-5.9863,6.38072
3,2,1,2.32742,0.056139,0.0279748,2.30198,0.254535,0.117712,2.12797,1.7883,0.827797,-0.00209653,-0.0205758
3,2,1,-1.76524,-0.0296866,-0.00748622,-2.47523,4.4267,-0.377196,-4.83785,1.3517,-2.37434,-0.00716866,-1.55224
3,2,1,1.2047,-1.47491,1.03821,1.50617,3.23679,0.3845,-0.018138,2.47251,0.0419137,0.407618,0.357451
3,2,1,3.93828,-0.00820725,-0.00812648,-1.1651,2.06372,0.114124,0.0339398,2.70327,-0.0635318,1.17159,-0.373077
Workload Information:
1.94365, 1.72274, 3.0003, 2.67473, 0.708817, 1.94976, 2.19814, 1.98059, 1.65253, 2.4329, 1.55026, 2.18558, 1.48288, 2.34618, 2.63831, 0.569931, 2.33748, 2.62522, 0.804851, 1.52861, 1.80011, 2.60212, 2.33104, 2.93327, 1.94532, 4.65093, 0.878058, 0.5, 1.06048, 2.96521, 2.23336, 2.27321, 1.83764, 2.40798, 2.09804, 1.14978, 2.18893, 1.90383, 1.76951, 2.21741, 1.98643, 1.93389, 1.55668, 2.88121, 2.46075, 0.911159, 3.03305, 1.15715, 0.591041, 1.89129, 1.07596, 6.14979, 0.665151, 1.62677, 0.767756, 4.62481, 4.39743, 1.19803, 0.511976, 0.5, 1.96853, 2.16397, 1.90805, 2.06591, 1.81344, 2.0801, 3.14364, 2.68947, 3.07273, 0.992259, 1.12898, 0.972916, 1.28574, 3.11346, 2.32277, 3.49911, 0.5, 1.27892, 2.49159, 1.16019, 1.80184, 1.58221, 2.66877, 2.29539, 3.32212, 0.892106, 1.63738, 3.35417, 0.746758, 2.04747, 3.13617, 0.50463, 0.5, 2.24314, 3.80159, 1.81447, 3.23507, 1.39096, 1.87515, 0.5, 4.3616, 0.637222, 1.13916, 0.822893, 4.33047, 0.600166, 4.60731, 0.5, 1.53706, 1.61894, 2.89586, 3.09672, 1.62184, 1.22957, 2.25583, 2.5967, 1.38999, 1.90329, 1.28025, 2.57393, 5.29231, 1.79515, 1.08895, 2.52152, 0.5, 0.802071, 1.39208, 4.15828, 1.19659, 3.60276, 0.832847, 0.817443, 1.42375, 3.38068, 3.5672, 1.98301, 0.5, 1.14536, 2.08175, 1.67462, 1.4119, 2.48904, 2.36101, 1.98167, 0.831055, 2.3706, 2.51188, 1.69479, 2.39317, 2.1985, 2.14689, 1.49416, 2.03144, 2.24304, 1.86527, 2.21921, 0.5, 3.26911, 3.04269, 1.6405, 0.513251, 3.03445, 2.40604, 1.29186, 1.22159, 4.02385, 2.55665, 0.5, 0.5, 1.05656, 1.97776, 3.13619, 0.881539, 4.44794, 3.45001, 1.15696, 1.77274, 2.26232, 0.5, 2.85797, 2.69944, 2.17428, 2.35897, 0.949505, 1.29318, 2.52463, 2.31628, 1.77659, 2.19046, 1.3835, 2.0286, 2.30457, 2.11015, 1.89318, 1.85647, 1.92611, 2.07169, 2.1424, 13.0536, 21.2619, 23.5566, 26.8842, 25.3488, 21.8948, 1.7748, 0.834071, 3.4189, 0.867087, 3.53284, 1.57231, 3.08433, 0.5, 0.925509, 1.9174, 3.21161, 2.36115, 3.31126, 0.804972, 5.2321, 0.809171, 1.18812, 0.654377, 3.01691, 2.54381, 1.23675, 1.63031, 2.58394, 0.988287, 0.619142, 2.15659, 3.61914, 1.34939, 3.50477, 0.750974, 1.35392, 1.40387, 2.36883, 1.9597, 2.43715, 2.47654, 1.52286, 2.39294, 2.11697, 2.54111, 2.11235, 1.31377, 2.14366, 1.8421, 2.27972, 2.50482, 1.00258, 2.22712, 4.00905, 0.693261, 2.39196, 3.76351, 0.5, 0.642218, 2.10021, 2.42915, 1.13832, 3.29873, 0.550335, 2.48325, 1.22267, 2.23415, 4.01466, 1.01903, 3.00948, 0.5, 3.52561, 1.02266, 1.11455, 2.19579, 2.65783, 1.48356, 1.83991, 1.85062, 2.77056, 0.5, 2.90158, 2.13732, 1.16738, 1.15033, 2.96474, 3.88986, 1.97515, 0.852553
cpi min/max: 0.5/26.8842
neighbors of 0: 1 6, number of others: 45
neighbors of 1: 0 2 6 7, number of others: 43
neighbors of 2: 1 3 7 8, number of others: 43
neighbors of 3: 2 4 8 9, number of others: 43
neighbors of 4: 3 5 9 10, number of others: 43
neighbors of 5: 4 10 11, number of others: 44
neighbors of 6: 0 1 7 12, number of others: 43
neighbors of 7: 1 2 6 8 12 13, number of others: 41
neighbors of 8: 2 3 7 9 13 14, number of others: 41
neighbors of 9: 3 4 8 10 14 15, number of others: 41
neighbors of 10: 4 5 9 11 15 16, number of others: 41
neighbors of 11: 5 10 16 17, number of others: 43
neighbors of 12: 6 7 13 18, number of others: 43
neighbors of 13: 7 8 12 14 18 19, number of others: 41
neighbors of 14: 8 9 13 15 19 20, number of others: 41
neighbors of 15: 9 10 14 16 20 21, number of others: 41
neighbors of 16: 10 11 15 17 21 22, number of others: 41
neighbors of 17: 11 16 22 23, number of others: 43
neighbors of 18: 12 13 19 24, number of others: 43
neighbors of 19: 13 14 18 20 24 25, number of others: 41
neighbors of 20: 14 15 19 21 25 26, number of others: 41
neighbors of 21: 15 16 20 22 26 27, number of others: 41
neighbors of 22: 16 17 21 23 27 28, number of others: 41
neighbors of 23: 17 22 28 29, number of others: 43
neighbors of 24: 18 19 25 30, number of others: 43
neighbors of 25: 19 20 24 26 30 31, number of others: 41
neighbors of 26: 20 21 25 27 31 32, number of others: 41
neighbors of 27: 21 22 26 28 32 33, number of others: 41
neighbors of 28: 22 23 27 29 33 34, number of others: 41
neighbors of 29: 23 28 34 35, number of others: 43
neighbors of 30: 24 25 31 36, number of others: 43
neighbors of 31: 25 26 30 32 36 37, number of others: 41
neighbors of 32: 26 27 31 33 37 38, number of others: 41
neighbors of 33: 27 28 32 34 38 39, number of others: 41
neighbors of 34: 28 29 33 35 39 40, number of others: 41
neighbors of 35: 29 34 40 41, number of others: 43
neighbors of 36: 30 31 37 42, number of others: 43
neighbors of 37: 31 32 36 38 42 43, number of others: 41
neighbors of 38: 32 33 37 39 43 44, number of others: 41
neighbors of 39: 33 34 38 40 44 45, number of others: 41
neighbors of 40: 34 35 39 41 45 46, number of others: 41
neighbors of 41: 35 40 46 47, number of others: 43
neighbors of 42: 36 37 43, number of others: 44
neighbors of 43: 37 38 42 44, number of others: 43
neighbors of 44: 38 39 43 45, number of others: 43
neighbors of 45: 39 40 44 46, number of others: 43
neighbors of 46: 40 41 45 47, number of others: 43
neighbors of 47: 41 46, number of others: 45
Run model...
Preprocess model 0% ...Preprocess model 16% ...Preprocess model 32% ...Preprocess model 48% ...Preprocess model 66% ...Preprocess model 84% ...Preprocess model 100% ...
Close model 0% ...Close model 9% ...Close model 18% ...Close model 27% ...Close model 36% ...Close model 45% ...Close model 54% ...Close model 63% ...Close model 72% ...Close model 81% ...Close model 91% ...Close model 100% ...
Run param...
Run solver...
Initialize threads 0% ...Initialize threads 100% ...
Push initial solutions 0% ...Push initial solutions 100% ...

Model: 
  expressions = 30670, operands = 74976
  decisions = 13824, constraints = 336, objectives = 1

Param: 
  time limit = 90 sec, no iteration limit
  seed = 801, nb threads = 1, annealing level = 1

Objectives:
  Obj 0: maximize, no bound

Phases:
  Phase 0: time limit = 90 sec, no iteration limit, optimized objective = 0


Computed bounds:
  Obj 0: upper bound = 0.650128


Phase 0:
[0 sec, 0 itr]: infeas = (336, 336, 576), mov = 0, inf < 0.1%, acc < 0.1%, imp = 0

worst case efficiency: 0.965273
[1 sec, 15134 itr]: obj = (0.0446442), mov = 15134, inf = 89.3%, acc = 7.9%, imp = 167

worst case efficiency: 0.626787
[2 sec, 42323 itr]: obj = (0.0599475), mov = 42323, inf = 96.1%, acc = 2.9%, imp = 193

worst case efficiency: 0.635968
[3 sec, 61563 itr]: obj = (0.0719688), mov = 61563, inf = 97.3%, acc = 2.1%, imp = 230

worst case efficiency: 0.643181
[4 sec, 75496 itr]: obj = (0.075059), mov = 75496, inf = 97.8%, acc = 1.7%, imp = 256

worst case efficiency: 0.645035
[5 sec, 84512 itr]: obj = (0.0796496), mov = 84512, inf = 98%, acc = 1.6%, imp = 286

worst case efficiency: 0.64779
[6 sec, 91871 itr]: obj = (0.0796496), mov = 91871, inf = 98.1%, acc = 1.5%, imp = 306

worst case efficiency: 0.64779
[7 sec, 99121 itr]: obj = (0.0796496), mov = 99121, inf = 98.2%, acc = 1.4%, imp = 314

worst case efficiency: 0.64779
[8 sec, 106344 itr]: obj = (0.0796496), mov = 106344, inf = 98.3%, acc = 1.4%, imp = 353

worst case efficiency: 0.64779
[9 sec, 114264 itr]: obj = (0.0796496), mov = 114264, inf = 98.4%, acc = 1.3%, imp = 386

worst case efficiency: 0.64779
[10 sec, 122420 itr]: obj = (0.0818544), mov = 122420, inf = 98.5%, acc = 1.2%, imp = 410

worst case efficiency: 0.649113
[11 sec, 130653 itr]: obj = (0.0827548), mov = 130653, inf = 98.6%, acc = 1.2%, imp = 429

worst case efficiency: 0.649653
[12 sec, 138174 itr]: obj = (0.0834499), mov = 138174, inf = 98.7%, acc = 1.1%, imp = 446

worst case efficiency: 0.65007
[13 sec, 145400 itr]: obj = (0.083697), mov = 145400, inf = 98.7%, acc = 1.1%, imp = 453

worst case efficiency: 0.650218
[14 sec, 154291 itr]: obj = (0.0854634), mov = 154291, inf = 98.8%, acc = 1%, imp = 477

worst case efficiency: 0.651278
[15 sec, 166553 itr]: obj = (0.0855484), mov = 166553, inf = 98.9%, acc = 1%, imp = 480

worst case efficiency: 0.651329
[16 sec, 185919 itr]: obj = (0.0855484), mov = 185919, inf = 99%, acc = 0.9%, imp = 480

worst case efficiency: 0.651329
[17 sec, 216187 itr]: obj = (0.0855484), mov = 216187, inf = 99.1%, acc = 0.8%, imp = 480

worst case efficiency: 0.651329
[18 sec, 240623 itr]: obj = (0.0855484), mov = 240623, inf = 99.2%, acc = 0.7%, imp = 480

worst case efficiency: 0.651329
[19 sec, 257914 itr]: obj = (0.0855484), mov = 257914, inf = 99.3%, acc = 0.6%, imp = 480

worst case efficiency: 0.651329
[20 sec, 276642 itr]: obj = (0.0855484), mov = 276642, inf = 99.3%, acc = 0.6%, imp = 480

worst case efficiency: 0.651329
[21 sec, 295585 itr]: obj = (0.0855484), mov = 295585, inf = 99.4%, acc = 0.6%, imp = 480

worst case efficiency: 0.651329
[22 sec, 314316 itr]: obj = (0.0855484), mov = 314316, inf = 99.4%, acc = 0.5%, imp = 480

worst case efficiency: 0.651329
[23 sec, 332953 itr]: obj = (0.0855484), mov = 332953, inf = 99.5%, acc = 0.5%, imp = 480

worst case efficiency: 0.651329
[24 sec, 351964 itr]: obj = (0.0855484), mov = 351964, inf = 99.5%, acc = 0.5%, imp = 480

worst case efficiency: 0.651329
[25 sec, 370817 itr]: obj = (0.0855484), mov = 370817, inf = 99.5%, acc = 0.5%, imp = 480

worst case efficiency: 0.651329
[26 sec, 389696 itr]: obj = (0.0855484), mov = 389696, inf = 99.5%, acc = 0.4%, imp = 480

worst case efficiency: 0.651329
[27 sec, 408527 itr]: obj = (0.0855484), mov = 408527, inf = 99.6%, acc = 0.4%, imp = 480

worst case efficiency: 0.651329
[28 sec, 427282 itr]: obj = (0.0855484), mov = 427282, inf = 99.6%, acc = 0.4%, imp = 480

worst case efficiency: 0.651329
[29 sec, 446067 itr]: obj = (0.0855484), mov = 446067, inf = 99.6%, acc = 0.4%, imp = 480

worst case efficiency: 0.651329
[30 sec, 465353 itr]: obj = (0.0855484), mov = 465353, inf = 99.6%, acc = 0.4%, imp = 480

worst case efficiency: 0.651329
[31 sec, 484161 itr]: obj = (0.0855484), mov = 484161, inf = 99.6%, acc = 0.4%, imp = 480

worst case efficiency: 0.651329
[32 sec, 503073 itr]: obj = (0.0855484), mov = 503073, inf = 99.7%, acc = 0.4%, imp = 480

worst case efficiency: 0.651329
[33 sec, 521821 itr]: obj = (0.0855484), mov = 521821, inf = 99.7%, acc = 0.3%, imp = 480

worst case efficiency: 0.651329
[34 sec, 540598 itr]: obj = (0.0855484), mov = 540598, inf = 99.7%, acc = 0.3%, imp = 480

worst case efficiency: 0.651329
[35 sec, 559681 itr]: obj = (0.0855484), mov = 559681, inf = 99.7%, acc = 0.3%, imp = 480

worst case efficiency: 0.651329
[36 sec, 578623 itr]: obj = (0.0855484), mov = 578623, inf = 99.7%, acc = 0.3%, imp = 480

worst case efficiency: 0.651329
[37 sec, 597262 itr]: obj = (0.0855484), mov = 597262, inf = 99.7%, acc = 0.3%, imp = 480

worst case efficiency: 0.651329
[38 sec, 616054 itr]: obj = (0.0855484), mov = 616054, inf = 99.7%, acc = 0.3%, imp = 480

worst case efficiency: 0.651329
[39 sec, 634459 itr]: obj = (0.0855484), mov = 634459, inf = 99.7%, acc = 0.3%, imp = 480

worst case efficiency: 0.651329
[40 sec, 653604 itr]: obj = (0.0855484), mov = 653604, inf = 99.7%, acc = 0.3%, imp = 480

worst case efficiency: 0.651329
[41 sec, 671894 itr]: obj = (0.0855484), mov = 671894, inf = 99.8%, acc = 0.3%, imp = 480

worst case efficiency: 0.651329
[42 sec, 690876 itr]: obj = (0.0855484), mov = 690876, inf = 99.8%, acc = 0.3%, imp = 480

worst case efficiency: 0.651329
[43 sec, 709919 itr]: obj = (0.0855484), mov = 709919, inf = 99.8%, acc = 0.3%, imp = 480

worst case efficiency: 0.651329
[44 sec, 728625 itr]: obj = (0.0855484), mov = 728625, inf = 99.8%, acc = 0.3%, imp = 480

worst case efficiency: 0.651329
[45 sec, 747366 itr]: obj = (0.0855484), mov = 747366, inf = 99.8%, acc = 0.3%, imp = 480

worst case efficiency: 0.651329
[46 sec, 765960 itr]: obj = (0.0855484), mov = 765960, inf = 99.8%, acc = 0.3%, imp = 480

worst case efficiency: 0.651329
[47 sec, 784969 itr]: obj = (0.0855484), mov = 784969, inf = 99.8%, acc = 0.2%, imp = 480

worst case efficiency: 0.651329
[48 sec, 804099 itr]: obj = (0.0855484), mov = 804099, inf = 99.8%, acc = 0.2%, imp = 480

worst case efficiency: 0.651329
[49 sec, 823104 itr]: obj = (0.0855484), mov = 823104, inf = 99.8%, acc = 0.2%, imp = 480

worst case efficiency: 0.651329
[50 sec, 841938 itr]: obj = (0.0855484), mov = 841938, inf = 99.8%, acc = 0.2%, imp = 480

worst case efficiency: 0.651329
[51 sec, 860400 itr]: obj = (0.0855484), mov = 860400, inf = 99.8%, acc = 0.2%, imp = 480

worst case efficiency: 0.651329
[52 sec, 879217 itr]: obj = (0.0855484), mov = 879217, inf = 99.8%, acc = 0.2%, imp = 480

worst case efficiency: 0.651329
[53 sec, 898081 itr]: obj = (0.0855484), mov = 898081, inf = 99.8%, acc = 0.2%, imp = 480

worst case efficiency: 0.651329
[54 sec, 917144 itr]: obj = (0.0855484), mov = 917144, inf = 99.8%, acc = 0.2%, imp = 480

worst case efficiency: 0.651329
[55 sec, 936186 itr]: obj = (0.0855484), mov = 936186, inf = 99.8%, acc = 0.2%, imp = 480

worst case efficiency: 0.651329
[56 sec, 955183 itr]: obj = (0.0855484), mov = 955183, inf = 99.8%, acc = 0.2%, imp = 480

worst case efficiency: 0.651329
[57 sec, 974117 itr]: obj = (0.0855484), mov = 974117, inf = 99.8%, acc = 0.2%, imp = 480

worst case efficiency: 0.651329
[58 sec, 993186 itr]: obj = (0.0855484), mov = 993186, inf = 99.8%, acc = 0.2%, imp = 480

worst case efficiency: 0.651329
[59 sec, 1011904 itr]: obj = (0.0855484), mov = 1011904, inf = 99.9%, acc = 0.2%, imp = 480

worst case efficiency: 0.651329
[60 sec, 1030788 itr]: obj = (0.0855484), mov = 1030788, inf = 99.9%, acc = 0.2%, imp = 480

worst case efficiency: 0.651329
[61 sec, 1049861 itr]: obj = (0.0855484), mov = 1049861, inf = 99.9%, acc = 0.2%, imp = 480

worst case efficiency: 0.651329
[62 sec, 1068607 itr]: obj = (0.0855484), mov = 1068607, inf = 99.9%, acc = 0.2%, imp = 480

worst case efficiency: 0.651329
[63 sec, 1087537 itr]: obj = (0.0855484), mov = 1087537, inf = 99.9%, acc = 0.2%, imp = 480

worst case efficiency: 0.651329
[64 sec, 1106280 itr]: obj = (0.0855484), mov = 1106280, inf = 99.9%, acc = 0.2%, imp = 480

worst case efficiency: 0.651329
[65 sec, 1124664 itr]: obj = (0.0855484), mov = 1124664, inf = 99.9%, acc = 0.2%, imp = 480

worst case efficiency: 0.651329
[66 sec, 1143143 itr]: obj = (0.0855484), mov = 1143143, inf = 99.9%, acc = 0.2%, imp = 480

worst case efficiency: 0.651329
[67 sec, 1162037 itr]: obj = (0.0855484), mov = 1162037, inf = 99.9%, acc = 0.2%, imp = 480

worst case efficiency: 0.651329
[68 sec, 1180741 itr]: obj = (0.0855484), mov = 1180741, inf = 99.9%, acc = 0.2%, imp = 480

worst case efficiency: 0.651329
[69 sec, 1199366 itr]: obj = (0.0855484), mov = 1199366, inf = 99.9%, acc = 0.2%, imp = 480

worst case efficiency: 0.651329
[70 sec, 1217920 itr]: obj = (0.0855484), mov = 1217920, inf = 99.9%, acc = 0.2%, imp = 480

worst case efficiency: 0.651329
[71 sec, 1236589 itr]: obj = (0.0855484), mov = 1236589, inf = 99.9%, acc = 0.2%, imp = 480

worst case efficiency: 0.651329
[72 sec, 1255332 itr]: obj = (0.0855484), mov = 1255332, inf = 99.9%, acc = 0.2%, imp = 480

worst case efficiency: 0.651329
[73 sec, 1273900 itr]: obj = (0.0855484), mov = 1273900, inf = 99.9%, acc = 0.2%, imp = 480

worst case efficiency: 0.651329
[74 sec, 1292562 itr]: obj = (0.0855484), mov = 1292562, inf = 99.9%, acc = 0.2%, imp = 480

worst case efficiency: 0.651329
[75 sec, 1311729 itr]: obj = (0.0855484), mov = 1311729, inf = 99.9%, acc = 0.2%, imp = 480

worst case efficiency: 0.651329
[76 sec, 1330782 itr]: obj = (0.0855484), mov = 1330782, inf = 99.9%, acc = 0.2%, imp = 480

worst case efficiency: 0.651329
[77 sec, 1349544 itr]: obj = (0.0855484), mov = 1349544, inf = 99.9%, acc = 0.2%, imp = 480

worst case efficiency: 0.651329
[78 sec, 1368385 itr]: obj = (0.0855484), mov = 1368385, inf = 99.9%, acc = 0.2%, imp = 480

worst case efficiency: 0.651329
[79 sec, 1387395 itr]: obj = (0.0855484), mov = 1387395, inf = 99.9%, acc = 0.2%, imp = 480

worst case efficiency: 0.651329
[80 sec, 1406244 itr]: obj = (0.0855484), mov = 1406244, inf = 99.9%, acc = 0.2%, imp = 480

worst case efficiency: 0.651329
[81 sec, 1424981 itr]: obj = (0.0855484), mov = 1424981, inf = 99.9%, acc = 0.2%, imp = 480

worst case efficiency: 0.651329
[82 sec, 1444012 itr]: obj = (0.0855484), mov = 1444012, inf = 99.9%, acc = 0.2%, imp = 480

worst case efficiency: 0.651329
[83 sec, 1462580 itr]: obj = (0.0855484), mov = 1462580, inf = 99.9%, acc = 0.2%, imp = 480

worst case efficiency: 0.651329
[84 sec, 1481309 itr]: obj = (0.0855484), mov = 1481309, inf = 99.9%, acc = 0.2%, imp = 480

worst case efficiency: 0.651329
[85 sec, 1500290 itr]: obj = (0.0855484), mov = 1500290, inf = 99.9%, acc = 0.2%, imp = 480

worst case efficiency: 0.651329
[86 sec, 1519715 itr]: obj = (0.0855484), mov = 1519715, inf = 99.9%, acc = 0.2%, imp = 480

worst case efficiency: 0.651329
[87 sec, 1538468 itr]: obj = (0.0855484), mov = 1538468, inf = 99.9%, acc < 0.1%, imp = 480

worst case efficiency: 0.651329
[88 sec, 1556999 itr]: obj = (0.0855484), mov = 1556999, inf = 99.9%, acc < 0.1%, imp = 480

worst case efficiency: 0.651329
[89 sec, 1575173 itr]: obj = (0.0855484), mov = 1575173, inf = 99.9%, acc < 0.1%, imp = 480

worst case efficiency: 0.651329
[90 sec, 1592232 itr]: obj = (0.0855484), mov = 1592232, inf = 99.9%, acc < 0.1%, imp = 480

worst case efficiency: 0.651329
[90 sec, 1592232 itr]: obj = (0.0855484), mov = 1592232, inf = 99.9%, acc < 0.1%, imp = 480

worst case efficiency: 0.651329
1592232 iterations, 1592232 moves performed in 90 seconds
Feasible solution: obj = (0.0855484)

Run output...
FINAL SOLUTION
Worst case efficiency: 0.651329
Mapping: 0->13, 1->13, 2->28, 3->36, 4->41, 5->40, 6->10, 7->44, 8->28, 9->22, 10->40, 11->31, 12->20, 13->21, 14->1, 15->24, 16->6, 17->17, 18->34, 19->22, 20->14, 21->13, 22->12, 23->33, 24->35, 25->32, 26->37, 27->42, 28->42, 29->26, 30->28, 31->24, 32->45, 33->31, 34->38, 35->39, 36->26, 37->46, 38->9, 39->11, 40->12, 41->23, 42->1, 43->25, 44->10, 45->41, 46->7, 47->2, 48->18, 49->25, 50->6, 51->32, 52->44, 53->41, 54->43, 55->1, 56->39, 57->37, 58->4, 59->18, 60->35, 61->3, 62->8, 63->47, 64->16, 65->3, 66->19, 67->9, 68->9, 69->47, 70->47, 71->35, 72->46, 73->7, 74->37, 75->7, 76->46, 77->22, 78->28, 79->36, 80->43, 81->0, 82->33, 83->19, 84->21, 85->30, 86->42, 87->27, 88->41, 89->13, 90->38, 91->2, 92->0, 93->34, 94->32, 95->17, 96->37, 97->23, 98->35, 99->5, 100->26, 101->30, 102->36, 103->5, 104->34, 105->46, 106->14, 107->47, 108->46, 109->6, 110->23, 111->13, 112->29, 113->45, 114->43, 115->8, 116->15, 117->39, 118->3, 119->7, 120->4, 121->11, 122->18, 123->23, 124->20, 125->5, 126->41, 127->27, 128->16, 129->33, 130->24, 131->40, 132->25, 133->26, 134->35, 135->4, 136->0, 137->8, 138->45, 139->29, 140->30, 141->45, 142->30, 143->1, 144->1, 145->1, 146->17, 147->20, 148->40, 149->35, 150->44, 151->17, 152->16, 153->34, 154->43, 155->28, 156->11, 157->21, 158->15, 159->30, 160->7, 161->37, 162->31, 163->14, 164->42, 165->28, 166->12, 167->4, 168->0, 169->25, 170->44, 171->33, 172->10, 173->19, 174->32, 175->18, 176->3, 177->20, 178->20, 179->38, 180->15, 181->18, 182->30, 183->34, 184->3, 185->25, 186->39, 187->14, 188->21, 189->10, 190->19, 191->29, 192->9, 193->11, 194->6, 195->15, 196->12, 197->44, 198->38, 199->20, 200->8, 201->0, 202->7, 203->21, 204->44, 205->41, 206->10, 207->2, 208->31, 209->40, 210->14, 211->2, 212->36, 213->15, 214->31, 215->40, 216->8, 217->47, 218->27, 219->36, 220->23, 221->12, 222->33, 223->21, 224->17, 225->3, 226->17, 227->22, 228->29, 229->18, 230->16, 231->33, 232->26, 233->0, 234->36, 235->10, 236->27, 237->27, 238->16, 239->32, 240->46, 241->12, 242->2, 243->22, 244->2, 245->11, 246->13, 247->9, 248->45, 249->39, 250->23, 251->27, 252->6, 253->5, 254->26, 255->8, 256->47, 257->42, 258->38, 259->32, 260->9, 261->31, 262->24, 263->34, 264->42, 265->14, 266->22, 267->6, 268->24, 269->29, 270->15, 271->5, 272->4, 273->43, 274->16, 275->29, 276->4, 277->19, 278->11, 279->5, 280->37, 281->24, 282->39, 283->43, 284->38, 285->25, 286->19, 287->45
Number of tasks per core:
	6	6	6	6	6	6
	6	6	6	6	6	6
	6	6	6	6	6	6
	6	6	6	6	6	6
	6	6	6	6	6	6
	6	6	6	6	6	6
	6	6	6	6	6	6
	6	6	6	6	6	6
Average CPI map:
	5.11957	2.33386	1.2097	1.70343	1.87363	0.723481
	1.98615	6.34694	6.04691	2.10371	1.95778	1.74835
	1.99885	2.25939	2.46573	2.41687	2.2926	2.0444
	1.27797	2.62356	4.61698	5.92775	2.13075	1.82215
	1.56219	2.27788	3.13219	3.2167	2.60347	1.36729
	1.55029	2.84046	3.82633	2.78455	2.17571	2.08793
	1.34378	2.26166	4.36846	2.23983	1.77402	1.03661
	1.04739	1.6728	1.78127	1.79505	1.22494	0.998687
Efficiency map:
	0.996573	0.945659	0.88539	0.920218	0.932444	0.995925
	0.847586	0.843697	0.842633	0.660096	0.655342	0.831974
	0.832844	0.651329	0.654147	0.662254	0.651388	0.825263
	0.800041	0.654475	0.733677	0.790459	0.653114	0.817384
	0.803581	0.656775	0.653645	0.655778	0.65333	0.757711
	0.783132	0.658005	0.651329	0.65236	0.65214	0.826341
	0.871815	0.66503	0.716081	0.660846	0.651597	0.750964
	0.806088	0.666029	0.656675	0.654773	0.659452	0.795069
==============================================================================
Local Solver optimizer for EML demonstration
==============================================================================

Option values: --wld-idx 16 --global-tlim 90 --seed 801

Starting the Optimization Process
