LocalSolver 4.0 (MacOS64, build 20131224)
Copyright (C) 2013 Bouygues SA, Aix-Marseille University, CNRS.
All rights reserved (see Terms and Conditions for details).

Load localsolver_res/tawd_ls.lsp...
Run input...
ANNs For the Platform:
3,2,1,0.413586,-0.0266769,-0.0683771,-5.1002,70.5254,-0.257939,-72.3361,-14.3957,-55.9961,0.000416225,-55.1984
3,2,1,7.29748,1.94844,3.18138,9.63196,-4.67735,-4.13678,1.22405,-8.03403,0.0803394,-0.125838,0.598848
3,2,1,6.43996,0.383984,0.598454,7.79024,-4.25175,0.123161,-0.278344,-5.71253,1.47885,1.00258,0.327892
3,2,1,3.45395,0.140329,0.51254,4.25255,4.08469,0.00326531,0.722664,3.88666,1.2829,-0.290289,-0.187123
3,2,1,1.76581,-0.7465,16.0398,1.01103,2.42771,0.96084,1.00318,4.14242,-0.00284347,0.244904,0.56299
3,2,1,1.87058,0.359859,-0.0851999,0.818043,3.18969,0.847611,-7.29654,-2.24823,0.00245596,0.000486788,0.794563
3,2,1,3.28113,0.579268,0.142679,3.72653,-0.240895,-0.149383,25.0414,7.13641,0.488705,-0.00083541,0.320468
3,2,1,-4.78997,-2.53518,1.7971,11.1628,-3.08773,-0.470276,-0.0894822,-2.63871,1.46314,-0.463195,-1.12076
3,2,1,-0.392198,-0.00544948,0.0100489,-0.634573,-1.21109,-0.0856362,-0.013156,-1.60668,1.54201,-2.33195,-0.462253
3,2,1,3.15031,0.401017,0.160161,2.51156,5.71314,0.59291,-11.6364,2.59774,0.430465,0.00737346,0.36306
3,2,1,2.64111,0.312028,0.0803827,2.35273,-4.25958,3.48188,-1.59773,-1.57632,0.565527,0.0271972,0.266241
3,2,1,2.2658,0.0425076,0.0191991,-0.583848,2.82415,0.533705,0.0754136,3.33659,-0.0169351,0.54785,0.257008
3,2,1,6.01014,0.654767,0.24854,5.54419,5.68574,0.00137666,0.00103835,-1.46229,0.258518,0.00962319,0.54621
3,2,1,-0.828282,0.684875,0.223674,-1.44779,5.0064,0.272371,0.00344824,2.89438,0.397142,0.379767,0.797684
3,2,1,-0.166745,-1.25514,-0.967701,-3.82155,3.34568,0.34907,0.176897,2.37943,0.567319,0.42026,0.93611
3,2,1,-10.035,3.55243,8.66202,-21.5626,10.92,0.228744,0.12852,5.40188,0.871264,0.345634,1.3209
3,2,1,4.50278,0.709934,0.227356,3.41616,1.455,0.115548,0.0125181,-1.15221,0.345467,0.222127,0.602264
3,2,1,3.51765,0.552987,0.202187,3.41883,0.53704,0.0709757,-0.0346297,-0.38017,0.320095,-0.0397752,0.474568
3,2,1,3.62936,0.506661,0.201819,3.49179,3.4019,-3.09955,1.3332,0.961184,0.32649,-0.0126443,0.488413
3,2,1,3.50925,0.448618,0.127508,2.4823,1.78455,1.6893,1.46456,-0.207671,0.400287,0.00684206,0.402337
3,2,1,-0.52883,0.00691432,0.00617163,-0.194006,1.73284,0.0488672,0.0179273,1.25978,0.716787,0.92667,0.162242
3,2,1,2.48239,0.190378,0.120167,1.91689,1.21532,1.48543,0.644574,2.68198,0.547395,-0.0744913,0.328097
3,2,1,2.55861,2.02297,0.650126,2.19109,2.44652,0.0836318,0.0133745,2.4369,0.0418722,0.798841,-0.0334834
3,2,1,5.07371,0.556895,0.217981,4.66725,-0.00829845,-0.00544544,0.00934569,-0.672651,0.280461,-0.520981,0.217266
3,2,1,1.56588,0.201966,0.0665967,1.82578,1.97654,0.236717,0.0903453,1.08195,1.02748,-0.229836,0.011785
3,2,1,2.41728,0.208205,-0.0012583,2.05484,1.41976,-1.30194,1.45365,1.79277,0.56727,0.031184,0.207229
3,2,1,3.71833,0.202336,0.172606,2.43155,5.03284,0.375118,-0.790998,-3.83455,0.400925,0.372075,0.754779
3,2,1,-1.25583,1.47411,0.819895,-2.78448,4.36107,0.113478,0.107247,2.55416,0.385214,0.384141,0.797017
3,2,1,1.71562,-0.478906,-0.61026,-1.17859,3.1361,0.360865,0.0914124,2.2536,-0.0127033,0.431384,0.365879
3,2,1,-1.75501,-0.0880109,-0.026461,-2.68365,2.88327,0.072433,0.0245574,1.95701,-5.87306,-0.563325,-4.48698
3,2,1,1.87886,0.47325,-0.0511434,1.79719,1.94184,0.328234,0.0220624,2.54301,-0.401251,1.77114,-0.565042
3,2,1,-1.60981,1.67946,0.217969,-1.01084,4.35765,0.130722,0.127348,2.65259,0.0709006,0.384957,0.481341
3,2,1,6.90393,1.27603,0.349979,4.84299,12.4465,-4.65212,-2.15462,0.408255,0.295914,0.0666312,0.4354
3,2,1,3.04491,0.18183,0.111428,2.10543,3.32281,-0.49945,-3.78487,-7.88748,0.444834,-4.36795,-4.01116
3,2,1,2.91407,0.251062,0.0435786,2.27032,0.308764,1.59867,0.766589,0.134898,0.475285,0.00569166,0.326702
3,2,1,1.44846,0.205113,0.0448314,1.45909,1.93039,0.286882,0.0586866,1.17886,1.39166,-0.600981,0.0448012
3,2,1,-0.702729,1.84783,-0.00894741,-12.1377,-140.908,-69.0514,-27.175,-146.219,-4.51728,-0.14351,-3.88527
3,2,1,4.2004,0.255152,0.0750175,2.63627,-1.17866,1.67307,0.209535,-1.03514,0.371915,0.0747402,0.498851
3,2,1,3.28015,0.190841,0.175032,2.31848,-0.821253,-1.83022,1.5009,-1.6155,0.417221,-0.0239081,0.360136
3,2,1,2.0525,0.0719707,0.0148549,2.1486,2.00198,1.73479,2.09334,1.44082,0.954066,0.00952719,-0.152697
3,2,1,3.31406,0.407717,0.0380361,2.47187,-0.266021,-1.73458,0.970613,-1.79463,0.415264,-0.0144649,0.374956
3,2,1,6.25099,-3.17047,1.46865,-0.279767,-2.91952,-0.395169,-0.0444215,-3.76202,-0.00491872,-1.23429,-0.425145
3,2,1,1.59636,0.096013,0.0630313,0.826005,1.46151,0.077228,0.0482484,1.68899,-0.289647,1.15304,-0.0688712
3,2,1,33.0172,0.520442,0.135338,28.5555,-3.97298,-0.0574545,-0.0193135,3.34452,0.297691,-5.9863,6.38072
3,2,1,2.32742,0.056139,0.0279748,2.30198,0.254535,0.117712,2.12797,1.7883,0.827797,-0.00209653,-0.0205758
3,2,1,-1.76524,-0.0296866,-0.00748622,-2.47523,4.4267,-0.377196,-4.83785,1.3517,-2.37434,-0.00716866,-1.55224
3,2,1,1.2047,-1.47491,1.03821,1.50617,3.23679,0.3845,-0.018138,2.47251,0.0419137,0.407618,0.357451
3,2,1,3.93828,-0.00820725,-0.00812648,-1.1651,2.06372,0.114124,0.0339398,2.70327,-0.0635318,1.17159,-0.373077
Workload Information:
2.31175, 1.37184, 2.41307, 1.15856, 2.55313, 2.19165, 0.5, 2.05517, 3.42353, 1.13168, 3.54969, 1.33993, 1.38119, 1.80837, 2.22453, 1.94199, 2.32894, 2.31499, 5.66648, 1.00765, 1.21117, 1.05672, 2.10252, 0.95547, 1.94385, 2.11562, 2.18495, 1.80059, 1.8675, 2.08748, 1.50826, 2.28223, 2.24843, 1.95065, 2.29962, 1.71081, 1.39133, 2.40643, 1.56112, 3.93425, 1.94092, 0.765954, 2.26656, 2.41805, 1.14064, 2.80729, 0.637047, 2.73042, 0.5, 1.01747, 1.46873, 4.28933, 1.44271, 3.28176, 1.70157, 2.99433, 1.29136, 2.50182, 2.3104, 1.20053, 1.23122, 0.94158, 2.64441, 1.56812, 2.79262, 2.82205, 2.68847, 3.88963, 0.528426, 0.5, 2.67765, 1.71583, 1.50665, 1.0182, 2.14749, 0.69034, 4.73465, 1.90268, 27.8168, 24.5849, 16.1837, 26.6125, 28.465, 8.33716, 5.20659, 1.79859, 2.0805, 1.42983, 0.984496, 0.5, 25.268, 25.1444, 28.0103, 2.22117, 21.4769, 29.8793, 0.5, 2.71198, 0.828365, 5.77501, 1.49987, 0.684779, 4.29593, 0.734192, 0.5, 2.12582, 2.813, 1.53105, 1.62897, 1.59212, 0.5, 2.87519, 2.67654, 2.72718, 3.48676, 0.686478, 2.86237, 1.11078, 2.96502, 0.888589, 16.0031, 12.0803, 12.8691, 16.1099, 1.02919, 1.90833, 2.26664, 2.86654, 2.71529, 1.67449, 1.36935, 1.10768, 1.71171, 2.73867, 2.08461, 1.72223, 0.511567, 3.23122, 3.48898, 1.16604, 1.59072, 2.599, 1.15039, 2.00487, 2.29037, 1.93603, 1.96634, 2.30668, 1.73657, 1.764, 32.1386, 35, 22.9026, 10.896, 21.0504, 10.0124, 1.26063, 1.50439, 2.2186, 2.35501, 2.37931, 2.28206, 14.5346, 23.3653, 19.403, 35, 21.0195, 18.6777, 1.14664, 1.81459, 3.26657, 3.00232, 2.26988, 0.5, 0.5, 1.29796, 4.19167, 4.18936, 1.19392, 0.627082, 0.841766, 0.999302, 2.75769, 3.06947, 1.53763, 2.79414, 2.09886, 1.64964, 2.39161, 1.81778, 1.9182, 2.12391, 1.04834, 2.43666, 3.46899, 0.5, 2.94619, 1.59981, 2.01754, 0.656968, 3.0162, 0.5, 2.75959, 3.04969, 1.4863, 1.92086, 2.31153, 2.25781, 2.1757, 1.8478, 1.38641, 1.86047, 2.31637, 1.66141, 1.62141, 3.15393, 1.82077, 1.01626, 1.23258, 2.46283, 4.96755, 0.5, 1.92074, 2.16435, 1.85718, 1.89323, 2.11135, 2.05315, 2.3115, 2.71584, 0.573049, 0.725278, 2.82377, 2.85057, 1.61887, 2.13144, 1.06486, 3.33895, 2.63645, 1.20944, 3.72788, 0.5, 0.635625, 4.09722, 2.28162, 0.757648, 0.68112, 2.6904, 1.82425, 3.45178, 0.5, 2.85245, 2.27088, 2.14295, 2.15572, 0.983623, 2.21281, 2.23402, 0.858203, 2.83838, 2.70271, 2.22476, 0.5, 2.87595, 1.23563, 1.58872, 4.78335, 1.02245, 1.32514, 2.04471, 2.11163, 2.38943, 1.49928, 2.13232, 2.33861, 1.52873, 2.19361, 2.08643, 2.16504, 1.98199, 1.72196, 1.85098, 2.15173, 1.92528, 2.24461, 1.82093, 2.18771, 1.66974
cpi min/max: 0.5/35
neighbors of 0: 1 6, number of others: 45
neighbors of 1: 0 2 6 7, number of others: 43
neighbors of 2: 1 3 7 8, number of others: 43
neighbors of 3: 2 4 8 9, number of others: 43
neighbors of 4: 3 5 9 10, number of others: 43
neighbors of 5: 4 10 11, number of others: 44
neighbors of 6: 0 1 7 12, number of others: 43
neighbors of 7: 1 2 6 8 12 13, number of others: 41
neighbors of 8: 2 3 7 9 13 14, number of others: 41
neighbors of 9: 3 4 8 10 14 15, number of others: 41
neighbors of 10: 4 5 9 11 15 16, number of others: 41
neighbors of 11: 5 10 16 17, number of others: 43
neighbors of 12: 6 7 13 18, number of others: 43
neighbors of 13: 7 8 12 14 18 19, number of others: 41
neighbors of 14: 8 9 13 15 19 20, number of others: 41
neighbors of 15: 9 10 14 16 20 21, number of others: 41
neighbors of 16: 10 11 15 17 21 22, number of others: 41
neighbors of 17: 11 16 22 23, number of others: 43
neighbors of 18: 12 13 19 24, number of others: 43
neighbors of 19: 13 14 18 20 24 25, number of others: 41
neighbors of 20: 14 15 19 21 25 26, number of others: 41
neighbors of 21: 15 16 20 22 26 27, number of others: 41
neighbors of 22: 16 17 21 23 27 28, number of others: 41
neighbors of 23: 17 22 28 29, number of others: 43
neighbors of 24: 18 19 25 30, number of others: 43
neighbors of 25: 19 20 24 26 30 31, number of others: 41
neighbors of 26: 20 21 25 27 31 32, number of others: 41
neighbors of 27: 21 22 26 28 32 33, number of others: 41
neighbors of 28: 22 23 27 29 33 34, number of others: 41
neighbors of 29: 23 28 34 35, number of others: 43
neighbors of 30: 24 25 31 36, number of others: 43
neighbors of 31: 25 26 30 32 36 37, number of others: 41
neighbors of 32: 26 27 31 33 37 38, number of others: 41
neighbors of 33: 27 28 32 34 38 39, number of others: 41
neighbors of 34: 28 29 33 35 39 40, number of others: 41
neighbors of 35: 29 34 40 41, number of others: 43
neighbors of 36: 30 31 37 42, number of others: 43
neighbors of 37: 31 32 36 38 42 43, number of others: 41
neighbors of 38: 32 33 37 39 43 44, number of others: 41
neighbors of 39: 33 34 38 40 44 45, number of others: 41
neighbors of 40: 34 35 39 41 45 46, number of others: 41
neighbors of 41: 35 40 46 47, number of others: 43
neighbors of 42: 36 37 43, number of others: 44
neighbors of 43: 37 38 42 44, number of others: 43
neighbors of 44: 38 39 43 45, number of others: 43
neighbors of 45: 39 40 44 46, number of others: 43
neighbors of 46: 40 41 45 47, number of others: 43
neighbors of 47: 41 46, number of others: 45
Run model...
Preprocess model 0% ...Preprocess model 16% ...Preprocess model 32% ...Preprocess model 48% ...Preprocess model 66% ...Preprocess model 84% ...Preprocess model 100% ...
Close model 0% ...Close model 9% ...Close model 18% ...Close model 27% ...Close model 36% ...Close model 45% ...Close model 54% ...Close model 63% ...Close model 72% ...Close model 81% ...Close model 91% ...Close model 100% ...
Run param...
Run solver...
Initialize threads 0% ...Initialize threads 100% ...
Push initial solutions 0% ...Push initial solutions 100% ...

Model: 
  expressions = 30670, operands = 74976
  decisions = 13824, constraints = 336, objectives = 1

Param: 
  time limit = 90 sec, no iteration limit
  seed = 701, nb threads = 1, annealing level = 1

Objectives:
  Obj 0: maximize, no bound

Phases:
  Phase 0: time limit = 90 sec, no iteration limit, optimized objective = 0


Computed bounds:
  Obj 0: upper bound = 0.650128


Phase 0:
[0 sec, 0 itr]: infeas = (336, 336, 576), mov = 0, inf < 0.1%, acc < 0.1%, imp = 0

worst case efficiency: 0.965273
[1 sec, 9355 itr]: obj = (0.0454087), mov = 9355, inf = 86.3%, acc = 10.9%, imp = 183

worst case efficiency: 0.627245
[2 sec, 43216 itr]: obj = (0.0707522), mov = 43216, inf = 97%, acc = 2.5%, imp = 211

worst case efficiency: 0.642451
[3 sec, 65235 itr]: obj = (0.0956336), mov = 65235, inf = 98%, acc = 1.7%, imp = 248

worst case efficiency: 0.65738
[4 sec, 80702 itr]: obj = (0.102987), mov = 80702, inf = 98.3%, acc = 1.4%, imp = 275

worst case efficiency: 0.661792
[5 sec, 89996 itr]: obj = (0.103697), mov = 89996, inf = 98.5%, acc = 1.3%, imp = 286

worst case efficiency: 0.662218
[6 sec, 97619 itr]: obj = (0.103697), mov = 97619, inf = 98.6%, acc = 1.2%, imp = 286

worst case efficiency: 0.662218
[7 sec, 104682 itr]: obj = (0.103697), mov = 104682, inf = 98.7%, acc = 1.1%, imp = 286

worst case efficiency: 0.662218
[8 sec, 112460 itr]: obj = (0.103697), mov = 112460, inf = 98.8%, acc = 1%, imp = 286

worst case efficiency: 0.662218
[9 sec, 121755 itr]: obj = (0.103697), mov = 121755, inf = 98.9%, acc = 1%, imp = 286

worst case efficiency: 0.662218
[10 sec, 133362 itr]: obj = (0.103697), mov = 133362, inf = 99%, acc = 0.9%, imp = 286

worst case efficiency: 0.662218
[11 sec, 153408 itr]: obj = (0.103697), mov = 153408, inf = 99.1%, acc = 0.8%, imp = 286

worst case efficiency: 0.662218
[12 sec, 179799 itr]: obj = (0.103697), mov = 179799, inf = 99.3%, acc = 0.7%, imp = 286

worst case efficiency: 0.662218
[13 sec, 195269 itr]: obj = (0.103697), mov = 195269, inf = 99.3%, acc = 0.6%, imp = 286

worst case efficiency: 0.662218
[14 sec, 211242 itr]: obj = (0.103697), mov = 211242, inf = 99.4%, acc = 0.6%, imp = 286

worst case efficiency: 0.662218
[15 sec, 227390 itr]: obj = (0.103697), mov = 227390, inf = 99.4%, acc = 0.5%, imp = 286

worst case efficiency: 0.662218
[16 sec, 243448 itr]: obj = (0.103697), mov = 243448, inf = 99.5%, acc = 0.5%, imp = 286

worst case efficiency: 0.662218
[17 sec, 259447 itr]: obj = (0.103697), mov = 259447, inf = 99.5%, acc = 0.5%, imp = 286

worst case efficiency: 0.662218
[18 sec, 275492 itr]: obj = (0.103697), mov = 275492, inf = 99.5%, acc = 0.5%, imp = 286

worst case efficiency: 0.662218
[19 sec, 291518 itr]: obj = (0.103697), mov = 291518, inf = 99.6%, acc = 0.4%, imp = 286

worst case efficiency: 0.662218
[20 sec, 307430 itr]: obj = (0.103697), mov = 307430, inf = 99.6%, acc = 0.4%, imp = 286

worst case efficiency: 0.662218
[21 sec, 323612 itr]: obj = (0.103697), mov = 323612, inf = 99.6%, acc = 0.4%, imp = 286

worst case efficiency: 0.662218
[22 sec, 339753 itr]: obj = (0.103697), mov = 339753, inf = 99.6%, acc = 0.4%, imp = 286

worst case efficiency: 0.662218
[23 sec, 356569 itr]: obj = (0.103697), mov = 356569, inf = 99.7%, acc = 0.4%, imp = 286

worst case efficiency: 0.662218
[24 sec, 373523 itr]: obj = (0.103697), mov = 373523, inf = 99.7%, acc = 0.4%, imp = 286

worst case efficiency: 0.662218
[25 sec, 389895 itr]: obj = (0.103697), mov = 389895, inf = 99.7%, acc = 0.3%, imp = 286

worst case efficiency: 0.662218
[26 sec, 406498 itr]: obj = (0.103697), mov = 406498, inf = 99.7%, acc = 0.3%, imp = 286

worst case efficiency: 0.662218
[27 sec, 423250 itr]: obj = (0.103697), mov = 423250, inf = 99.7%, acc = 0.3%, imp = 286

worst case efficiency: 0.662218
[28 sec, 439354 itr]: obj = (0.103697), mov = 439354, inf = 99.7%, acc = 0.3%, imp = 286

worst case efficiency: 0.662218
[29 sec, 455728 itr]: obj = (0.103697), mov = 455728, inf = 99.7%, acc = 0.3%, imp = 286

worst case efficiency: 0.662218
[30 sec, 471899 itr]: obj = (0.103697), mov = 471899, inf = 99.7%, acc = 0.3%, imp = 286

worst case efficiency: 0.662218
[31 sec, 488203 itr]: obj = (0.103697), mov = 488203, inf = 99.8%, acc = 0.3%, imp = 286

worst case efficiency: 0.662218
[32 sec, 504643 itr]: obj = (0.103697), mov = 504643, inf = 99.8%, acc = 0.3%, imp = 286

worst case efficiency: 0.662218
[33 sec, 521444 itr]: obj = (0.103697), mov = 521444, inf = 99.8%, acc = 0.3%, imp = 286

worst case efficiency: 0.662218
[34 sec, 538073 itr]: obj = (0.103697), mov = 538073, inf = 99.8%, acc = 0.3%, imp = 286

worst case efficiency: 0.662218
[35 sec, 554925 itr]: obj = (0.103697), mov = 554925, inf = 99.8%, acc = 0.3%, imp = 286

worst case efficiency: 0.662218
[36 sec, 571337 itr]: obj = (0.103697), mov = 571337, inf = 99.8%, acc = 0.3%, imp = 286

worst case efficiency: 0.662218
[37 sec, 587268 itr]: obj = (0.103697), mov = 587268, inf = 99.8%, acc = 0.2%, imp = 286

worst case efficiency: 0.662218
[38 sec, 603722 itr]: obj = (0.103697), mov = 603722, inf = 99.8%, acc = 0.2%, imp = 286

worst case efficiency: 0.662218
[39 sec, 619508 itr]: obj = (0.103697), mov = 619508, inf = 99.8%, acc = 0.2%, imp = 286

worst case efficiency: 0.662218
[40 sec, 635448 itr]: obj = (0.103697), mov = 635448, inf = 99.8%, acc = 0.2%, imp = 286

worst case efficiency: 0.662218
[41 sec, 651327 itr]: obj = (0.103697), mov = 651327, inf = 99.8%, acc = 0.2%, imp = 286

worst case efficiency: 0.662218
[42 sec, 667108 itr]: obj = (0.103697), mov = 667108, inf = 99.8%, acc = 0.2%, imp = 286

worst case efficiency: 0.662218
[43 sec, 683168 itr]: obj = (0.103697), mov = 683168, inf = 99.8%, acc = 0.2%, imp = 286

worst case efficiency: 0.662218
[44 sec, 699815 itr]: obj = (0.103697), mov = 699815, inf = 99.8%, acc = 0.2%, imp = 286

worst case efficiency: 0.662218
[45 sec, 716412 itr]: obj = (0.103697), mov = 716412, inf = 99.8%, acc = 0.2%, imp = 286

worst case efficiency: 0.662218
[46 sec, 733108 itr]: obj = (0.103697), mov = 733108, inf = 99.9%, acc = 0.2%, imp = 286

worst case efficiency: 0.662218
[47 sec, 749715 itr]: obj = (0.103697), mov = 749715, inf = 99.9%, acc = 0.2%, imp = 286

worst case efficiency: 0.662218
[48 sec, 766405 itr]: obj = (0.103697), mov = 766405, inf = 99.9%, acc = 0.2%, imp = 286

worst case efficiency: 0.662218
[49 sec, 782867 itr]: obj = (0.103697), mov = 782867, inf = 99.9%, acc = 0.2%, imp = 286

worst case efficiency: 0.662218
[50 sec, 799480 itr]: obj = (0.103697), mov = 799480, inf = 99.9%, acc = 0.2%, imp = 286

worst case efficiency: 0.662218
[51 sec, 815889 itr]: obj = (0.103697), mov = 815889, inf = 99.9%, acc = 0.2%, imp = 286

worst case efficiency: 0.662218
[52 sec, 832279 itr]: obj = (0.103697), mov = 832279, inf = 99.9%, acc = 0.2%, imp = 286

worst case efficiency: 0.662218
[53 sec, 849135 itr]: obj = (0.103697), mov = 849135, inf = 99.9%, acc = 0.2%, imp = 286

worst case efficiency: 0.662218
[54 sec, 865579 itr]: obj = (0.103697), mov = 865579, inf = 99.9%, acc = 0.2%, imp = 286

worst case efficiency: 0.662218
[55 sec, 881634 itr]: obj = (0.103697), mov = 881634, inf = 99.9%, acc = 0.2%, imp = 286

worst case efficiency: 0.662218
[56 sec, 895376 itr]: obj = (0.103697), mov = 895376, inf = 99.9%, acc = 0.2%, imp = 286

worst case efficiency: 0.662218
[57 sec, 910985 itr]: obj = (0.103697), mov = 910985, inf = 99.9%, acc = 0.2%, imp = 286

worst case efficiency: 0.662218
[58 sec, 923452 itr]: obj = (0.103697), mov = 923452, inf = 99.9%, acc = 0.2%, imp = 286

worst case efficiency: 0.662218
[59 sec, 939897 itr]: obj = (0.103697), mov = 939897, inf = 99.9%, acc = 0.2%, imp = 286

worst case efficiency: 0.662218
[60 sec, 956836 itr]: obj = (0.103697), mov = 956836, inf = 99.9%, acc = 0.2%, imp = 286

worst case efficiency: 0.662218
[61 sec, 973031 itr]: obj = (0.103697), mov = 973031, inf = 99.9%, acc = 0.2%, imp = 286

worst case efficiency: 0.662218
[62 sec, 988969 itr]: obj = (0.103697), mov = 988969, inf = 99.9%, acc = 0.2%, imp = 286

worst case efficiency: 0.662218
[63 sec, 1005438 itr]: obj = (0.103697), mov = 1005438, inf = 99.9%, acc = 0.2%, imp = 286

worst case efficiency: 0.662218
[64 sec, 1022127 itr]: obj = (0.103697), mov = 1022127, inf = 99.9%, acc = 0.2%, imp = 286

worst case efficiency: 0.662218
[65 sec, 1037921 itr]: obj = (0.103698), mov = 1037921, inf = 99.9%, acc = 0.2%, imp = 287

worst case efficiency: 0.662219
[66 sec, 1054052 itr]: obj = (0.103698), mov = 1054052, inf = 99.9%, acc = 0.2%, imp = 287

worst case efficiency: 0.662219
[67 sec, 1069967 itr]: obj = (0.103702), mov = 1069967, inf = 99.9%, acc = 0.2%, imp = 288

worst case efficiency: 0.662221
[68 sec, 1086184 itr]: obj = (0.103702), mov = 1086184, inf = 99.9%, acc = 0.2%, imp = 288

worst case efficiency: 0.662221
[69 sec, 1102727 itr]: obj = (0.103702), mov = 1102727, inf = 99.9%, acc = 0.2%, imp = 288

worst case efficiency: 0.662221
[70 sec, 1119311 itr]: obj = (0.10376), mov = 1119311, inf = 99.9%, acc = 0.2%, imp = 291

worst case efficiency: 0.662256
[71 sec, 1135903 itr]: obj = (0.103788), mov = 1135903, inf = 99.9%, acc = 0.2%, imp = 292

worst case efficiency: 0.662273
[72 sec, 1152401 itr]: obj = (0.103788), mov = 1152401, inf = 99.9%, acc = 0.2%, imp = 292

worst case efficiency: 0.662273
[73 sec, 1169310 itr]: obj = (0.103811), mov = 1169310, inf = 99.9%, acc = 0.2%, imp = 293

worst case efficiency: 0.662287
[74 sec, 1186059 itr]: obj = (0.103811), mov = 1186059, inf = 99.9%, acc = 0.2%, imp = 293

worst case efficiency: 0.662287
[75 sec, 1202685 itr]: obj = (0.103811), mov = 1202685, inf = 99.9%, acc = 0.2%, imp = 293

worst case efficiency: 0.662287
[76 sec, 1219256 itr]: obj = (0.103811), mov = 1219256, inf = 99.9%, acc < 0.1%, imp = 293

worst case efficiency: 0.662287
[77 sec, 1235623 itr]: obj = (0.103811), mov = 1235623, inf = 99.9%, acc < 0.1%, imp = 293

worst case efficiency: 0.662287
[78 sec, 1253022 itr]: obj = (0.103814), mov = 1253022, inf = 99.9%, acc < 0.1%, imp = 295

worst case efficiency: 0.662288
[79 sec, 1270197 itr]: obj = (0.103814), mov = 1270197, inf = 99.9%, acc < 0.1%, imp = 295

worst case efficiency: 0.662288
[80 sec, 1287114 itr]: obj = (0.103814), mov = 1287114, inf = 99.9%, acc < 0.1%, imp = 295

worst case efficiency: 0.662288
[81 sec, 1303734 itr]: obj = (0.105497), mov = 1303734, inf = 99.9%, acc < 0.1%, imp = 298

worst case efficiency: 0.663298
[82 sec, 1320350 itr]: obj = (0.105649), mov = 1320350, inf = 99.9%, acc < 0.1%, imp = 299

worst case efficiency: 0.663389
[83 sec, 1337974 itr]: obj = (0.105667), mov = 1337974, inf = 99.9%, acc < 0.1%, imp = 300

worst case efficiency: 0.6634
[84 sec, 1355386 itr]: obj = (0.106589), mov = 1355386, inf = 99.9%, acc < 0.1%, imp = 302

worst case efficiency: 0.663954
[85 sec, 1372847 itr]: obj = (0.107482), mov = 1372847, inf = 99.9%, acc < 0.1%, imp = 304

worst case efficiency: 0.664489
[86 sec, 1390132 itr]: obj = (0.108653), mov = 1390132, inf = 99.9%, acc < 0.1%, imp = 305

worst case efficiency: 0.665192
[87 sec, 1407174 itr]: obj = (0.108658), mov = 1407174, inf = 99.9%, acc < 0.1%, imp = 306

worst case efficiency: 0.665195
[88 sec, 1424220 itr]: obj = (0.108658), mov = 1424220, inf = 99.9%, acc < 0.1%, imp = 306

worst case efficiency: 0.665195
[89 sec, 1441056 itr]: obj = (0.10907), mov = 1441056, inf = 99.9%, acc < 0.1%, imp = 308

worst case efficiency: 0.665442
[90 sec, 1458090 itr]: obj = (0.109371), mov = 1458090, inf = 99.9%, acc < 0.1%, imp = 310

worst case efficiency: 0.665623
[90 sec, 1458090 itr]: obj = (0.109371), mov = 1458090, inf = 99.9%, acc < 0.1%, imp = 310

worst case efficiency: 0.665623
1458090 iterations, 1458090 moves performed in 90 seconds
Feasible solution: obj = (0.109371)

Run output...
FINAL SOLUTION
Worst case efficiency: 0.665623
Mapping: 0->36, 1->17, 2->7, 3->43, 4->8, 5->3, 6->5, 7->18, 8->6, 9->25, 10->29, 11->3, 12->19, 13->32, 14->5, 15->37, 16->33, 17->37, 18->38, 19->35, 20->29, 21->24, 22->4, 23->26, 24->17, 25->31, 26->10, 27->41, 28->45, 29->1, 30->3, 31->38, 32->6, 33->25, 34->43, 35->11, 36->2, 37->32, 38->0, 39->47, 40->5, 41->44, 42->30, 43->5, 44->4, 45->26, 46->41, 47->23, 48->30, 49->26, 50->41, 51->40, 52->5, 53->8, 54->45, 55->45, 56->12, 57->18, 58->33, 59->25, 60->36, 61->23, 62->11, 63->30, 64->28, 65->46, 66->10, 67->30, 68->29, 69->19, 70->1, 71->35, 72->14, 73->13, 74->7, 75->16, 76->16, 77->17, 78->20, 79->19, 80->25, 81->33, 82->44, 83->36, 84->29, 85->28, 86->2, 87->34, 88->23, 89->18, 90->13, 91->27, 92->34, 93->32, 94->26, 95->26, 96->2, 97->0, 98->0, 99->21, 100->39, 101->16, 102->37, 103->8, 104->46, 105->37, 106->15, 107->22, 108->20, 109->38, 110->20, 111->0, 112->21, 113->12, 114->21, 115->6, 116->43, 117->1, 118->38, 119->9, 120->28, 121->16, 122->21, 123->11, 124->43, 125->6, 126->11, 127->3, 128->36, 129->33, 130->35, 131->42, 132->41, 133->9, 134->40, 135->38, 136->24, 137->8, 138->41, 139->34, 140->13, 141->9, 142->12, 143->26, 144->3, 145->22, 146->17, 147->39, 148->24, 149->20, 150->31, 151->14, 152->15, 153->13, 154->10, 155->4, 156->25, 157->35, 158->15, 159->27, 160->9, 161->7, 162->20, 163->39, 164->40, 165->9, 166->22, 167->32, 168->5, 169->47, 170->23, 171->24, 172->29, 173->43, 174->40, 175->35, 176->12, 177->14, 178->18, 179->24, 180->4, 181->10, 182->18, 183->9, 184->2, 185->13, 186->33, 187->30, 188->42, 189->4, 190->38, 191->35, 192->10, 193->11, 194->27, 195->46, 196->23, 197->2, 198->21, 199->18, 200->19, 201->42, 202->33, 203->19, 204->47, 205->45, 206->16, 207->45, 208->44, 209->1, 210->6, 211->14, 212->7, 213->13, 214->36, 215->22, 216->40, 217->44, 218->16, 219->28, 220->14, 221->6, 222->44, 223->40, 224->36, 225->46, 226->31, 227->31, 228->7, 229->22, 230->32, 231->2, 232->15, 233->43, 234->47, 235->12, 236->46, 237->17, 238->31, 239->0, 240->28, 241->42, 242->41, 243->17, 244->32, 245->20, 246->3, 247->47, 248->47, 249->15, 250->39, 251->31, 252->0, 253->22, 254->37, 255->12, 256->42, 257->15, 258->24, 259->37, 260->34, 261->10, 262->44, 263->27, 264->11, 265->27, 266->21, 267->8, 268->27, 269->25, 270->45, 271->34, 272->39, 273->8, 274->4, 275->30, 276->7, 277->29, 278->42, 279->1, 280->19, 281->46, 282->1, 283->34, 284->28, 285->23, 286->39, 287->14
Number of tasks per core:
	6	6	6	6	6	6
	6	6	6	6	6	6
	6	6	6	6	6	6
	6	6	6	6	6	6
	6	6	6	6	6	6
	6	6	6	6	6	6
	6	6	6	6	6	6
	6	6	6	6	6	6
Average CPI map:
	1.90949	1.97624	1.30576	1.81298	3.04229	1.61214
	1.6922	2.27735	2.15918	7.77917	5.0327	4.40068
	2.07928	7.20474	8.19896	6.07397	3.62237	2.43681
	1.61093	5.70899	7.83366	5.26806	5.41655	2.11503
	1.29874	3.96198	9.69021	6.12636	4.83827	2.47536
	1.90045	7.31793	4.66139	6.29746	6.2706	1.50318
	3.01234	2.61214	2.69105	5.22647	5.04367	1.62378
	1.47952	1.78338	5.80727	2.14228	1.43852	2.22811
Efficiency map:
	0.996699	0.938078	0.895508	0.938147	0.962616	0.995913
	0.822924	0.673842	0.673019	0.881622	0.810886	0.92816
	0.838808	0.789852	0.867779	0.669875	0.686385	0.848346
	0.821289	0.762461	0.857587	0.76492	0.826186	0.835679
	0.802559	0.74406	0.908113	0.748801	0.737034	0.870941
	0.822365	0.820498	0.665623	0.7906	0.82999	0.816906
	0.871815	0.672094	0.667605	0.817551	0.765064	0.805824
	0.826705	0.670952	0.862211	0.683235	0.667939	0.852985
==============================================================================
Local Solver optimizer for EML demonstration
==============================================================================

Option values: --wld-idx 19 --global-tlim 90 --seed 701

Starting the Optimization Process
