LocalSolver 4.0 (MacOS64, build 20131224)
Copyright (C) 2013 Bouygues SA, Aix-Marseille University, CNRS.
All rights reserved (see Terms and Conditions for details).

Load localsolver_res/tawd_ls.lsp...
Run input...
ANNs For the Platform:
3,2,1,0.413586,-0.0266769,-0.0683771,-5.1002,70.5254,-0.257939,-72.3361,-14.3957,-55.9961,0.000416225,-55.1984
3,2,1,7.29748,1.94844,3.18138,9.63196,-4.67735,-4.13678,1.22405,-8.03403,0.0803394,-0.125838,0.598848
3,2,1,6.43996,0.383984,0.598454,7.79024,-4.25175,0.123161,-0.278344,-5.71253,1.47885,1.00258,0.327892
3,2,1,3.45395,0.140329,0.51254,4.25255,4.08469,0.00326531,0.722664,3.88666,1.2829,-0.290289,-0.187123
3,2,1,1.76581,-0.7465,16.0398,1.01103,2.42771,0.96084,1.00318,4.14242,-0.00284347,0.244904,0.56299
3,2,1,1.87058,0.359859,-0.0851999,0.818043,3.18969,0.847611,-7.29654,-2.24823,0.00245596,0.000486788,0.794563
3,2,1,3.28113,0.579268,0.142679,3.72653,-0.240895,-0.149383,25.0414,7.13641,0.488705,-0.00083541,0.320468
3,2,1,-4.78997,-2.53518,1.7971,11.1628,-3.08773,-0.470276,-0.0894822,-2.63871,1.46314,-0.463195,-1.12076
3,2,1,-0.392198,-0.00544948,0.0100489,-0.634573,-1.21109,-0.0856362,-0.013156,-1.60668,1.54201,-2.33195,-0.462253
3,2,1,3.15031,0.401017,0.160161,2.51156,5.71314,0.59291,-11.6364,2.59774,0.430465,0.00737346,0.36306
3,2,1,2.64111,0.312028,0.0803827,2.35273,-4.25958,3.48188,-1.59773,-1.57632,0.565527,0.0271972,0.266241
3,2,1,2.2658,0.0425076,0.0191991,-0.583848,2.82415,0.533705,0.0754136,3.33659,-0.0169351,0.54785,0.257008
3,2,1,6.01014,0.654767,0.24854,5.54419,5.68574,0.00137666,0.00103835,-1.46229,0.258518,0.00962319,0.54621
3,2,1,-0.828282,0.684875,0.223674,-1.44779,5.0064,0.272371,0.00344824,2.89438,0.397142,0.379767,0.797684
3,2,1,-0.166745,-1.25514,-0.967701,-3.82155,3.34568,0.34907,0.176897,2.37943,0.567319,0.42026,0.93611
3,2,1,-10.035,3.55243,8.66202,-21.5626,10.92,0.228744,0.12852,5.40188,0.871264,0.345634,1.3209
3,2,1,4.50278,0.709934,0.227356,3.41616,1.455,0.115548,0.0125181,-1.15221,0.345467,0.222127,0.602264
3,2,1,3.51765,0.552987,0.202187,3.41883,0.53704,0.0709757,-0.0346297,-0.38017,0.320095,-0.0397752,0.474568
3,2,1,3.62936,0.506661,0.201819,3.49179,3.4019,-3.09955,1.3332,0.961184,0.32649,-0.0126443,0.488413
3,2,1,3.50925,0.448618,0.127508,2.4823,1.78455,1.6893,1.46456,-0.207671,0.400287,0.00684206,0.402337
3,2,1,-0.52883,0.00691432,0.00617163,-0.194006,1.73284,0.0488672,0.0179273,1.25978,0.716787,0.92667,0.162242
3,2,1,2.48239,0.190378,0.120167,1.91689,1.21532,1.48543,0.644574,2.68198,0.547395,-0.0744913,0.328097
3,2,1,2.55861,2.02297,0.650126,2.19109,2.44652,0.0836318,0.0133745,2.4369,0.0418722,0.798841,-0.0334834
3,2,1,5.07371,0.556895,0.217981,4.66725,-0.00829845,-0.00544544,0.00934569,-0.672651,0.280461,-0.520981,0.217266
3,2,1,1.56588,0.201966,0.0665967,1.82578,1.97654,0.236717,0.0903453,1.08195,1.02748,-0.229836,0.011785
3,2,1,2.41728,0.208205,-0.0012583,2.05484,1.41976,-1.30194,1.45365,1.79277,0.56727,0.031184,0.207229
3,2,1,3.71833,0.202336,0.172606,2.43155,5.03284,0.375118,-0.790998,-3.83455,0.400925,0.372075,0.754779
3,2,1,-1.25583,1.47411,0.819895,-2.78448,4.36107,0.113478,0.107247,2.55416,0.385214,0.384141,0.797017
3,2,1,1.71562,-0.478906,-0.61026,-1.17859,3.1361,0.360865,0.0914124,2.2536,-0.0127033,0.431384,0.365879
3,2,1,-1.75501,-0.0880109,-0.026461,-2.68365,2.88327,0.072433,0.0245574,1.95701,-5.87306,-0.563325,-4.48698
3,2,1,1.87886,0.47325,-0.0511434,1.79719,1.94184,0.328234,0.0220624,2.54301,-0.401251,1.77114,-0.565042
3,2,1,-1.60981,1.67946,0.217969,-1.01084,4.35765,0.130722,0.127348,2.65259,0.0709006,0.384957,0.481341
3,2,1,6.90393,1.27603,0.349979,4.84299,12.4465,-4.65212,-2.15462,0.408255,0.295914,0.0666312,0.4354
3,2,1,3.04491,0.18183,0.111428,2.10543,3.32281,-0.49945,-3.78487,-7.88748,0.444834,-4.36795,-4.01116
3,2,1,2.91407,0.251062,0.0435786,2.27032,0.308764,1.59867,0.766589,0.134898,0.475285,0.00569166,0.326702
3,2,1,1.44846,0.205113,0.0448314,1.45909,1.93039,0.286882,0.0586866,1.17886,1.39166,-0.600981,0.0448012
3,2,1,-0.702729,1.84783,-0.00894741,-12.1377,-140.908,-69.0514,-27.175,-146.219,-4.51728,-0.14351,-3.88527
3,2,1,4.2004,0.255152,0.0750175,2.63627,-1.17866,1.67307,0.209535,-1.03514,0.371915,0.0747402,0.498851
3,2,1,3.28015,0.190841,0.175032,2.31848,-0.821253,-1.83022,1.5009,-1.6155,0.417221,-0.0239081,0.360136
3,2,1,2.0525,0.0719707,0.0148549,2.1486,2.00198,1.73479,2.09334,1.44082,0.954066,0.00952719,-0.152697
3,2,1,3.31406,0.407717,0.0380361,2.47187,-0.266021,-1.73458,0.970613,-1.79463,0.415264,-0.0144649,0.374956
3,2,1,6.25099,-3.17047,1.46865,-0.279767,-2.91952,-0.395169,-0.0444215,-3.76202,-0.00491872,-1.23429,-0.425145
3,2,1,1.59636,0.096013,0.0630313,0.826005,1.46151,0.077228,0.0482484,1.68899,-0.289647,1.15304,-0.0688712
3,2,1,33.0172,0.520442,0.135338,28.5555,-3.97298,-0.0574545,-0.0193135,3.34452,0.297691,-5.9863,6.38072
3,2,1,2.32742,0.056139,0.0279748,2.30198,0.254535,0.117712,2.12797,1.7883,0.827797,-0.00209653,-0.0205758
3,2,1,-1.76524,-0.0296866,-0.00748622,-2.47523,4.4267,-0.377196,-4.83785,1.3517,-2.37434,-0.00716866,-1.55224
3,2,1,1.2047,-1.47491,1.03821,1.50617,3.23679,0.3845,-0.018138,2.47251,0.0419137,0.407618,0.357451
3,2,1,3.93828,-0.00820725,-0.00812648,-1.1651,2.06372,0.114124,0.0339398,2.70327,-0.0635318,1.17159,-0.373077
Workload Information:
0.5, 0.793797, 3.01448, 2.89409, 2.97166, 1.82598, 1.46422, 1.02987, 4.33222, 3.15438, 0.5, 1.51931, 2.09408, 1.95425, 1.74965, 2.13165, 2.02029, 2.05007, 2.40715, 0.751014, 2.93856, 1.5686, 1.81978, 2.51489, 0.810358, 3.37159, 2.01811, 0.5, 3.8527, 1.44724, 1.43318, 2.33024, 1.63724, 1.9352, 2.17271, 2.49144, 2.62915, 2.43595, 1.70695, 1.6611, 2.1134, 1.45345, 2.13604, 2.94479, 1.10006, 2.21292, 2.90612, 0.700066, 2.24627, 2.07499, 0.712951, 3.80092, 1.44741, 1.71746, 1.98396, 2.25489, 2.0251, 1.72142, 1.96386, 2.05077, 0.724777, 5.76477, 1.8992, 2.38764, 0.513167, 0.710449, 31.2107, 27.2561, 18.7677, 35, 11.0826, 8.68286, 1.51957, 3.17254, 0.5, 1.02075, 1.81243, 3.9747, 1.72133, 0.667203, 2.55119, 2.14292, 2.30777, 2.60958, 0.631906, 2.19898, 4.19696, 1.52562, 0.851563, 2.59497, 3.36286, 3.496, 0.975857, 1.57842, 2.08687, 0.5, 28.3048, 15.5874, 35, 25.0792, 12.9663, 15.0623, 1.94871, 2.30428, 2.28502, 1.8023, 1.39475, 2.26493, 3.11261, 1.48502, 2.7242, 1.50319, 2.67498, 0.5, 0.94498, 1.14016, 2.84732, 3.11272, 2.697, 1.25782, 1.49547, 2.60328, 2.37214, 1.91276, 1.0462, 2.57016, 0.556693, 2.96248, 3.93222, 0.5, 1.54412, 2.50448, 20.8662, 35, 16.4223, 16.63, 24.1447, 18.937, 35, 18.8404, 13.9087, 21.4826, 32.0696, 10.6987, 2.03447, 3.84498, 3.47505, 0.840083, 1.07748, 0.727933, 3.5496, 3.73055, 1.03076, 0.5, 2.33398, 0.855113, 1.93585, 0.915647, 0.553338, 1.61452, 1.35227, 5.62837, 3.13578, 3.41479, 0.603717, 1.40872, 0.5, 2.93699, 1.64791, 2.04324, 0.971774, 0.682902, 1.77925, 4.87493, 0.679022, 1.01475, 0.78205, 2.11252, 0.933492, 6.47816, 1.34254, 1.35093, 0.5, 3.04181, 3.12938, 2.63533, 0.5, 1.80789, 4.25635, 2.83402, 0.859458, 1.74228, 2.29634, 1.85749, 1.87562, 2.42096, 1.42836, 2.12123, 3.7915, 2.21285, 0.575129, 0.780089, 4.14043, 0.5, 0.5, 0.855756, 1.6246, 2.73087, 3.7941, 2.49466, 3.98145, 0.5, 1.82333, 1.23156, 2.84167, 1.62198, 4.5138, 2.24199, 1.19583, 2.07482, 0.739494, 1.23407, 1.85496, 0.557577, 2.51568, 1.41475, 4.12757, 1.52947, 1.92157, 2.25752, 1.90951, 2.10541, 1.70878, 2.09721, 0.957288, 0.997952, 2.95043, 3.22083, 3.20122, 0.672285, 3.6616, 3.14231, 2.4321, 1.26004, 0.5, 1.00395, 0.996237, 3.61131, 0.889852, 2.02482, 2.91463, 1.56314, 0.5, 2.30284, 5.09568, 1.76483, 0.697285, 1.63936, 2.35738, 1.92499, 1.23851, 2.49156, 2.46238, 1.52517, 2.20721, 2.20715, 1.75975, 2.13094, 1.83949, 1.85546, 2.53771, 1.97268, 2.60817, 0.5, 2.55362, 1.82783, 0.623567, 3.18571, 0.742433, 2.03774, 0.739147, 4.6714, 1.30779, 2.98554, 3.00575, 2.50208, 1.69884, 0.5
cpi min/max: 0.5/35
neighbors of 0: 1 6, number of others: 45
neighbors of 1: 0 2 6 7, number of others: 43
neighbors of 2: 1 3 7 8, number of others: 43
neighbors of 3: 2 4 8 9, number of others: 43
neighbors of 4: 3 5 9 10, number of others: 43
neighbors of 5: 4 10 11, number of others: 44
neighbors of 6: 0 1 7 12, number of others: 43
neighbors of 7: 1 2 6 8 12 13, number of others: 41
neighbors of 8: 2 3 7 9 13 14, number of others: 41
neighbors of 9: 3 4 8 10 14 15, number of others: 41
neighbors of 10: 4 5 9 11 15 16, number of others: 41
neighbors of 11: 5 10 16 17, number of others: 43
neighbors of 12: 6 7 13 18, number of others: 43
neighbors of 13: 7 8 12 14 18 19, number of others: 41
neighbors of 14: 8 9 13 15 19 20, number of others: 41
neighbors of 15: 9 10 14 16 20 21, number of others: 41
neighbors of 16: 10 11 15 17 21 22, number of others: 41
neighbors of 17: 11 16 22 23, number of others: 43
neighbors of 18: 12 13 19 24, number of others: 43
neighbors of 19: 13 14 18 20 24 25, number of others: 41
neighbors of 20: 14 15 19 21 25 26, number of others: 41
neighbors of 21: 15 16 20 22 26 27, number of others: 41
neighbors of 22: 16 17 21 23 27 28, number of others: 41
neighbors of 23: 17 22 28 29, number of others: 43
neighbors of 24: 18 19 25 30, number of others: 43
neighbors of 25: 19 20 24 26 30 31, number of others: 41
neighbors of 26: 20 21 25 27 31 32, number of others: 41
neighbors of 27: 21 22 26 28 32 33, number of others: 41
neighbors of 28: 22 23 27 29 33 34, number of others: 41
neighbors of 29: 23 28 34 35, number of others: 43
neighbors of 30: 24 25 31 36, number of others: 43
neighbors of 31: 25 26 30 32 36 37, number of others: 41
neighbors of 32: 26 27 31 33 37 38, number of others: 41
neighbors of 33: 27 28 32 34 38 39, number of others: 41
neighbors of 34: 28 29 33 35 39 40, number of others: 41
neighbors of 35: 29 34 40 41, number of others: 43
neighbors of 36: 30 31 37 42, number of others: 43
neighbors of 37: 31 32 36 38 42 43, number of others: 41
neighbors of 38: 32 33 37 39 43 44, number of others: 41
neighbors of 39: 33 34 38 40 44 45, number of others: 41
neighbors of 40: 34 35 39 41 45 46, number of others: 41
neighbors of 41: 35 40 46 47, number of others: 43
neighbors of 42: 36 37 43, number of others: 44
neighbors of 43: 37 38 42 44, number of others: 43
neighbors of 44: 38 39 43 45, number of others: 43
neighbors of 45: 39 40 44 46, number of others: 43
neighbors of 46: 40 41 45 47, number of others: 43
neighbors of 47: 41 46, number of others: 45
Run model...
Preprocess model 0% ...Preprocess model 16% ...Preprocess model 32% ...Preprocess model 48% ...Preprocess model 66% ...Preprocess model 84% ...Preprocess model 100% ...
Close model 0% ...Close model 9% ...Close model 18% ...Close model 27% ...Close model 36% ...Close model 45% ...Close model 54% ...Close model 63% ...Close model 72% ...Close model 81% ...Close model 91% ...Close model 100% ...
Run param...
Run solver...
Initialize threads 0% ...Initialize threads 100% ...
Push initial solutions 0% ...Push initial solutions 100% ...

Model: 
  expressions = 30665, operands = 74976
  decisions = 13824, constraints = 336, objectives = 1

Param: 
  time limit = 90 sec, no iteration limit
  seed = 101, nb threads = 1, annealing level = 1

Objectives:
  Obj 0: maximize, no bound

Phases:
  Phase 0: time limit = 90 sec, no iteration limit, optimized objective = 0


Computed bounds:
  Obj 0: upper bound = 0.650128


Phase 0:
[0 sec, 0 itr]: infeas = (336, 336, 576), mov = 0, inf < 0.1%, acc < 0.1%, imp = 0

worst case efficiency: 0.965273
[1 sec, 1958 itr]: infeas = (60, 60, 82), mov = 1958, inf = 74.9%, acc = 21.7%, imp = 126

worst case efficiency: 0.618318
[2 sec, 30946 itr]: obj = (0.0585044), mov = 30946, inf = 94.5%, acc = 4.2%, imp = 183

worst case efficiency: 0.635103
[3 sec, 53767 itr]: obj = (0.0763105), mov = 53767, inf = 96.8%, acc = 2.5%, imp = 214

worst case efficiency: 0.645786
[4 sec, 68514 itr]: obj = (0.0849451), mov = 68514, inf = 97.5%, acc = 2%, imp = 242

worst case efficiency: 0.650967
[5 sec, 80189 itr]: obj = (0.0991506), mov = 80189, inf = 97.8%, acc = 1.8%, imp = 283

worst case efficiency: 0.65949
[6 sec, 90434 itr]: obj = (0.102944), mov = 90434, inf = 98%, acc = 1.6%, imp = 316

worst case efficiency: 0.661766
[7 sec, 98824 itr]: obj = (0.103804), mov = 98824, inf = 98.2%, acc = 1.5%, imp = 337

worst case efficiency: 0.662282
[8 sec, 105216 itr]: obj = (0.103967), mov = 105216, inf = 98.3%, acc = 1.4%, imp = 341

worst case efficiency: 0.66238
[9 sec, 110780 itr]: obj = (0.104181), mov = 110780, inf = 98.4%, acc = 1.4%, imp = 346

worst case efficiency: 0.662508
[10 sec, 116200 itr]: obj = (0.104181), mov = 116200, inf = 98.4%, acc = 1.3%, imp = 356

worst case efficiency: 0.662508
[11 sec, 122153 itr]: obj = (0.105162), mov = 122153, inf = 98.5%, acc = 1.2%, imp = 366

worst case efficiency: 0.663097
[12 sec, 128957 itr]: obj = (0.10624), mov = 128957, inf = 98.6%, acc = 1.2%, imp = 386

worst case efficiency: 0.663744
[13 sec, 136876 itr]: obj = (0.106323), mov = 136876, inf = 98.6%, acc = 1.1%, imp = 396

worst case efficiency: 0.663794
[14 sec, 147028 itr]: obj = (0.10669), mov = 147028, inf = 98.7%, acc = 1.1%, imp = 406

worst case efficiency: 0.664014
[15 sec, 161815 itr]: obj = (0.106936), mov = 161815, inf = 98.8%, acc = 1%, imp = 414

worst case efficiency: 0.664161
[16 sec, 189585 itr]: obj = (0.10706), mov = 189585, inf = 99%, acc = 0.9%, imp = 416

worst case efficiency: 0.664236
[17 sec, 219804 itr]: obj = (0.10706), mov = 219804, inf = 99.2%, acc = 0.7%, imp = 416

worst case efficiency: 0.664236
[18 sec, 245150 itr]: obj = (0.10706), mov = 245150, inf = 99.2%, acc = 0.7%, imp = 416

worst case efficiency: 0.664236
[19 sec, 262439 itr]: obj = (0.10706), mov = 262439, inf = 99.3%, acc = 0.6%, imp = 416

worst case efficiency: 0.664236
[20 sec, 280253 itr]: obj = (0.10706), mov = 280253, inf = 99.3%, acc = 0.6%, imp = 416

worst case efficiency: 0.664236
[21 sec, 298349 itr]: obj = (0.107102), mov = 298349, inf = 99.4%, acc = 0.6%, imp = 419

worst case efficiency: 0.664261
[22 sec, 315877 itr]: obj = (0.107102), mov = 315877, inf = 99.4%, acc = 0.5%, imp = 419

worst case efficiency: 0.664261
[23 sec, 333679 itr]: obj = (0.107102), mov = 333679, inf = 99.5%, acc = 0.5%, imp = 419

worst case efficiency: 0.664261
[24 sec, 351721 itr]: obj = (0.107102), mov = 351721, inf = 99.5%, acc = 0.5%, imp = 419

worst case efficiency: 0.664261
[25 sec, 369809 itr]: obj = (0.107102), mov = 369809, inf = 99.5%, acc = 0.5%, imp = 419

worst case efficiency: 0.664261
[26 sec, 387831 itr]: obj = (0.107102), mov = 387831, inf = 99.5%, acc = 0.5%, imp = 419

worst case efficiency: 0.664261
[27 sec, 406373 itr]: obj = (0.107102), mov = 406373, inf = 99.6%, acc = 0.4%, imp = 419

worst case efficiency: 0.664261
[28 sec, 425011 itr]: obj = (0.107102), mov = 425011, inf = 99.6%, acc = 0.4%, imp = 419

worst case efficiency: 0.664261
[29 sec, 443312 itr]: obj = (0.107102), mov = 443312, inf = 99.6%, acc = 0.4%, imp = 419

worst case efficiency: 0.664261
[30 sec, 461247 itr]: obj = (0.107102), mov = 461247, inf = 99.6%, acc = 0.4%, imp = 419

worst case efficiency: 0.664261
[31 sec, 478902 itr]: obj = (0.107102), mov = 478902, inf = 99.6%, acc = 0.4%, imp = 419

worst case efficiency: 0.664261
[32 sec, 496867 itr]: obj = (0.107102), mov = 496867, inf = 99.6%, acc = 0.4%, imp = 419

worst case efficiency: 0.664261
[33 sec, 514601 itr]: obj = (0.107102), mov = 514601, inf = 99.7%, acc = 0.4%, imp = 419

worst case efficiency: 0.664261
[34 sec, 532447 itr]: obj = (0.107102), mov = 532447, inf = 99.7%, acc = 0.3%, imp = 419

worst case efficiency: 0.664261
[35 sec, 550363 itr]: obj = (0.107102), mov = 550363, inf = 99.7%, acc = 0.3%, imp = 419

worst case efficiency: 0.664261
[36 sec, 567792 itr]: obj = (0.107102), mov = 567792, inf = 99.7%, acc = 0.3%, imp = 419

worst case efficiency: 0.664261
[37 sec, 585481 itr]: obj = (0.107102), mov = 585481, inf = 99.7%, acc = 0.3%, imp = 419

worst case efficiency: 0.664261
[38 sec, 603724 itr]: obj = (0.107102), mov = 603724, inf = 99.7%, acc = 0.3%, imp = 419

worst case efficiency: 0.664261
[39 sec, 621503 itr]: obj = (0.107102), mov = 621503, inf = 99.7%, acc = 0.3%, imp = 419

worst case efficiency: 0.664261
[40 sec, 639809 itr]: obj = (0.107102), mov = 639809, inf = 99.7%, acc = 0.3%, imp = 419

worst case efficiency: 0.664261
[41 sec, 658576 itr]: obj = (0.107102), mov = 658576, inf = 99.7%, acc = 0.3%, imp = 419

worst case efficiency: 0.664261
[42 sec, 676927 itr]: obj = (0.107102), mov = 676927, inf = 99.7%, acc = 0.3%, imp = 419

worst case efficiency: 0.664261
[43 sec, 694755 itr]: obj = (0.107102), mov = 694755, inf = 99.8%, acc = 0.3%, imp = 419

worst case efficiency: 0.664261
[44 sec, 712417 itr]: obj = (0.107102), mov = 712417, inf = 99.8%, acc = 0.3%, imp = 419

worst case efficiency: 0.664261
[45 sec, 730707 itr]: obj = (0.107102), mov = 730707, inf = 99.8%, acc = 0.3%, imp = 419

worst case efficiency: 0.664261
[46 sec, 748880 itr]: obj = (0.107102), mov = 748880, inf = 99.8%, acc = 0.3%, imp = 419

worst case efficiency: 0.664261
[47 sec, 767243 itr]: obj = (0.107102), mov = 767243, inf = 99.8%, acc = 0.3%, imp = 419

worst case efficiency: 0.664261
[48 sec, 785024 itr]: obj = (0.107102), mov = 785024, inf = 99.8%, acc = 0.3%, imp = 419

worst case efficiency: 0.664261
[49 sec, 803456 itr]: obj = (0.107102), mov = 803456, inf = 99.8%, acc = 0.3%, imp = 419

worst case efficiency: 0.664261
[50 sec, 821652 itr]: obj = (0.107102), mov = 821652, inf = 99.8%, acc = 0.3%, imp = 419

worst case efficiency: 0.664261
[51 sec, 840190 itr]: obj = (0.107102), mov = 840190, inf = 99.8%, acc = 0.2%, imp = 419

worst case efficiency: 0.664261
[52 sec, 858535 itr]: obj = (0.107102), mov = 858535, inf = 99.8%, acc = 0.2%, imp = 421

worst case efficiency: 0.664261
[53 sec, 877166 itr]: obj = (0.107102), mov = 877166, inf = 99.8%, acc = 0.2%, imp = 421

worst case efficiency: 0.664261
[54 sec, 895661 itr]: obj = (0.107102), mov = 895661, inf = 99.8%, acc = 0.2%, imp = 421

worst case efficiency: 0.664261
[55 sec, 914456 itr]: obj = (0.107102), mov = 914456, inf = 99.8%, acc = 0.2%, imp = 421

worst case efficiency: 0.664261
[56 sec, 933562 itr]: obj = (0.107102), mov = 933562, inf = 99.8%, acc = 0.2%, imp = 421

worst case efficiency: 0.664261
[57 sec, 952701 itr]: obj = (0.107102), mov = 952701, inf = 99.8%, acc = 0.2%, imp = 421

worst case efficiency: 0.664261
[58 sec, 971679 itr]: obj = (0.107102), mov = 971679, inf = 99.8%, acc = 0.2%, imp = 421

worst case efficiency: 0.664261
[59 sec, 990251 itr]: obj = (0.107102), mov = 990251, inf = 99.8%, acc = 0.2%, imp = 421

worst case efficiency: 0.664261
[60 sec, 1008381 itr]: obj = (0.107102), mov = 1008381, inf = 99.8%, acc = 0.2%, imp = 421

worst case efficiency: 0.664261
[61 sec, 1026944 itr]: obj = (0.107102), mov = 1026944, inf = 99.8%, acc = 0.2%, imp = 421

worst case efficiency: 0.664261
[62 sec, 1045060 itr]: obj = (0.107102), mov = 1045060, inf = 99.8%, acc = 0.2%, imp = 421

worst case efficiency: 0.664261
[63 sec, 1063666 itr]: obj = (0.107102), mov = 1063666, inf = 99.8%, acc = 0.2%, imp = 421

worst case efficiency: 0.664261
[64 sec, 1081496 itr]: obj = (0.107102), mov = 1081496, inf = 99.9%, acc = 0.2%, imp = 421

worst case efficiency: 0.664261
[65 sec, 1099347 itr]: obj = (0.107102), mov = 1099347, inf = 99.9%, acc = 0.2%, imp = 421

worst case efficiency: 0.664261
[66 sec, 1117841 itr]: obj = (0.107102), mov = 1117841, inf = 99.9%, acc = 0.2%, imp = 421

worst case efficiency: 0.664261
[67 sec, 1136783 itr]: obj = (0.107102), mov = 1136783, inf = 99.9%, acc = 0.2%, imp = 421

worst case efficiency: 0.664261
[68 sec, 1156107 itr]: obj = (0.107102), mov = 1156107, inf = 99.9%, acc = 0.2%, imp = 421

worst case efficiency: 0.664261
[69 sec, 1174777 itr]: obj = (0.107102), mov = 1174777, inf = 99.9%, acc = 0.2%, imp = 421

worst case efficiency: 0.664261
[70 sec, 1191122 itr]: obj = (0.107102), mov = 1191122, inf = 99.9%, acc = 0.2%, imp = 421

worst case efficiency: 0.664261
[71 sec, 1208252 itr]: obj = (0.107102), mov = 1208252, inf = 99.9%, acc = 0.2%, imp = 421

worst case efficiency: 0.664261
[72 sec, 1226151 itr]: obj = (0.107102), mov = 1226151, inf = 99.9%, acc = 0.2%, imp = 421

worst case efficiency: 0.664261
[73 sec, 1242374 itr]: obj = (0.107102), mov = 1242374, inf = 99.9%, acc = 0.2%, imp = 421

worst case efficiency: 0.664261
[74 sec, 1252799 itr]: obj = (0.107102), mov = 1252799, inf = 99.9%, acc = 0.2%, imp = 421

worst case efficiency: 0.664261
[75 sec, 1268481 itr]: obj = (0.107102), mov = 1268481, inf = 99.9%, acc = 0.2%, imp = 421

worst case efficiency: 0.664261
[76 sec, 1284266 itr]: obj = (0.107102), mov = 1284266, inf = 99.9%, acc = 0.2%, imp = 421

worst case efficiency: 0.664261
[77 sec, 1301763 itr]: obj = (0.107102), mov = 1301763, inf = 99.9%, acc = 0.2%, imp = 421

worst case efficiency: 0.664261
[78 sec, 1320190 itr]: obj = (0.107102), mov = 1320190, inf = 99.9%, acc = 0.2%, imp = 421

worst case efficiency: 0.664261
[79 sec, 1337424 itr]: obj = (0.107102), mov = 1337424, inf = 99.9%, acc = 0.2%, imp = 422

worst case efficiency: 0.664261
[80 sec, 1352529 itr]: obj = (0.107102), mov = 1352529, inf = 99.9%, acc = 0.2%, imp = 423

worst case efficiency: 0.664261
[81 sec, 1365675 itr]: obj = (0.107102), mov = 1365675, inf = 99.9%, acc = 0.2%, imp = 425

worst case efficiency: 0.664261
[82 sec, 1380496 itr]: obj = (0.107102), mov = 1380496, inf = 99.9%, acc = 0.2%, imp = 425

worst case efficiency: 0.664261
[83 sec, 1397427 itr]: obj = (0.107102), mov = 1397427, inf = 99.9%, acc = 0.2%, imp = 426

worst case efficiency: 0.664261
[84 sec, 1412568 itr]: obj = (0.1073), mov = 1412568, inf = 99.9%, acc = 0.2%, imp = 429

worst case efficiency: 0.66438
[85 sec, 1429687 itr]: obj = (0.107381), mov = 1429687, inf = 99.9%, acc = 0.2%, imp = 430

worst case efficiency: 0.664429
[86 sec, 1446569 itr]: obj = (0.107608), mov = 1446569, inf = 99.9%, acc = 0.2%, imp = 433

worst case efficiency: 0.664565
[87 sec, 1464456 itr]: obj = (0.107608), mov = 1464456, inf = 99.9%, acc = 0.2%, imp = 433

worst case efficiency: 0.664565
[88 sec, 1482217 itr]: obj = (0.107608), mov = 1482217, inf = 99.9%, acc = 0.2%, imp = 433

worst case efficiency: 0.664565
[89 sec, 1498271 itr]: obj = (0.107608), mov = 1498271, inf = 99.9%, acc = 0.2%, imp = 433

worst case efficiency: 0.664565
[90 sec, 1515975 itr]: obj = (0.107642), mov = 1515975, inf = 99.9%, acc = 0.2%, imp = 434

worst case efficiency: 0.664585
[90 sec, 1515975 itr]: obj = (0.107642), mov = 1515975, inf = 99.9%, acc = 0.2%, imp = 434

worst case efficiency: 0.664585
1515975 iterations, 1515975 moves performed in 90 seconds
Feasible solution: obj = (0.107642)

Run output...
FINAL SOLUTION
Worst case efficiency: 0.664585
Mapping: 0->22, 1->23, 2->15, 3->42, 4->18, 5->39, 6->24, 7->11, 8->10, 9->30, 10->28, 11->30, 12->4, 13->23, 14->4, 15->7, 16->27, 17->41, 18->12, 19->46, 20->8, 21->0, 22->12, 23->28, 24->41, 25->37, 26->34, 27->28, 28->24, 29->27, 30->2, 31->36, 32->42, 33->17, 34->40, 35->10, 36->25, 37->0, 38->6, 39->0, 40->4, 41->22, 42->6, 43->8, 44->14, 45->11, 46->26, 47->2, 48->44, 49->23, 50->7, 51->26, 52->40, 53->18, 54->36, 55->13, 56->46, 57->28, 58->5, 59->45, 60->33, 61->16, 62->3, 63->0, 64->29, 65->38, 66->5, 67->26, 68->27, 69->32, 70->9, 71->38, 72->46, 73->8, 74->35, 75->1, 76->21, 77->20, 78->40, 79->11, 80->25, 81->7, 82->26, 83->35, 84->2, 85->10, 86->37, 87->16, 88->3, 89->31, 90->44, 91->16, 92->12, 93->17, 94->34, 95->22, 96->44, 97->41, 98->33, 99->21, 100->25, 101->15, 102->35, 103->17, 104->30, 105->32, 106->13, 107->29, 108->40, 109->46, 110->35, 111->47, 112->9, 113->29, 114->23, 115->27, 116->46, 117->25, 118->47, 119->5, 120->0, 121->26, 122->36, 123->42, 124->32, 125->38, 126->19, 127->15, 128->19, 129->11, 130->43, 131->24, 132->22, 133->41, 134->28, 135->9, 136->14, 137->32, 138->13, 139->41, 140->9, 141->37, 142->20, 143->42, 144->13, 145->35, 146->20, 147->47, 148->22, 149->43, 150->20, 151->19, 152->4, 153->17, 154->30, 155->35, 156->1, 157->42, 158->24, 159->1, 160->47, 161->45, 162->30, 163->19, 164->23, 165->38, 166->3, 167->26, 168->27, 169->44, 170->34, 171->1, 172->21, 173->7, 174->41, 175->31, 176->3, 177->8, 178->7, 179->10, 180->36, 181->47, 182->42, 183->29, 184->10, 185->18, 186->44, 187->5, 188->36, 189->37, 190->3, 191->45, 192->34, 193->14, 194->21, 195->16, 196->37, 197->18, 198->10, 199->18, 200->33, 201->43, 202->15, 203->5, 204->13, 205->13, 206->11, 207->17, 208->20, 209->11, 210->16, 211->9, 212->22, 213->45, 214->6, 215->29, 216->33, 217->6, 218->1, 219->14, 220->8, 221->6, 222->36, 223->4, 224->39, 225->2, 226->39, 227->4, 228->33, 229->18, 230->40, 231->12, 232->44, 233->2, 234->23, 235->8, 236->30, 237->43, 238->14, 239->38, 240->15, 241->39, 242->32, 243->45, 244->28, 245->2, 246->47, 247->31, 248->24, 249->3, 250->20, 251->24, 252->29, 253->37, 254->31, 255->19, 256->33, 257->45, 258->14, 259->21, 260->17, 261->21, 262->34, 263->39, 264->7, 265->38, 266->0, 267->16, 268->31, 269->6, 270->15, 271->46, 272->39, 273->12, 274->43, 275->32, 276->1, 277->19, 278->27, 279->9, 280->43, 281->34, 282->5, 283->25, 284->31, 285->25, 286->40, 287->12
Number of tasks per core:
	6	6	6	6	6	6
	6	6	6	6	6	6
	6	6	6	6	6	6
	6	6	6	6	6	6
	6	6	6	6	6	6
	6	6	6	6	6	6
	6	6	6	6	6	6
	6	6	6	6	6	6
Average CPI map:
	1.88475	1.1789	1.21351	1.15285	1.51249	6.34134
	2.0027	2.16719	2.15098	7.80566	3.73695	1.42154
	1.3847	7.00664	5.78927	5.22983	3.21996	1.71455
	2.31934	2.76413	8.29628	5.82718	4.37007	1.2215
	1.80462	4.45783	6.96853	4.2943	3.6931	1.40698
	2.56315	2.86032	10.1742	7.23876	2.41781	2.08043
	2.3567	5.93607	2.7086	2.62415	2.0104	12.1612
	3.09308	1.59429	6.361	2.25873	1.76678	1.45662
Efficiency map:
	0.996699	0.930238	0.883426	0.899739	0.948971	0.996236
	0.833541	0.668194	0.669415	0.87774	0.754227	0.835496
	0.816597	0.775747	0.76773	0.664859	0.672143	0.820584
	0.838748	0.665415	0.87009	0.787069	0.780281	0.803617
	0.821488	0.762419	0.802229	0.682367	0.690338	0.766075
	0.849586	0.66464	0.939806	0.82714	0.665017	0.843473
	0.871815	0.768029	0.670886	0.687428	0.664585	0.996518
	0.883463	0.66492	0.879808	0.689743	0.679912	0.833086
==============================================================================
Local Solver optimizer for EML demonstration
==============================================================================

Option values: --wld-idx 15 --global-tlim 90 --seed 101

Starting the Optimization Process
