LocalSolver 4.0 (MacOS64, build 20131224)
Copyright (C) 2013 Bouygues SA, Aix-Marseille University, CNRS.
All rights reserved (see Terms and Conditions for details).

Load localsolver_res/tawd_ls.lsp...
Run input...
ANNs For the Platform:
3,2,1,0.413586,-0.0266769,-0.0683771,-5.1002,70.5254,-0.257939,-72.3361,-14.3957,-55.9961,0.000416225,-55.1984
3,2,1,7.29748,1.94844,3.18138,9.63196,-4.67735,-4.13678,1.22405,-8.03403,0.0803394,-0.125838,0.598848
3,2,1,6.43996,0.383984,0.598454,7.79024,-4.25175,0.123161,-0.278344,-5.71253,1.47885,1.00258,0.327892
3,2,1,3.45395,0.140329,0.51254,4.25255,4.08469,0.00326531,0.722664,3.88666,1.2829,-0.290289,-0.187123
3,2,1,1.76581,-0.7465,16.0398,1.01103,2.42771,0.96084,1.00318,4.14242,-0.00284347,0.244904,0.56299
3,2,1,1.87058,0.359859,-0.0851999,0.818043,3.18969,0.847611,-7.29654,-2.24823,0.00245596,0.000486788,0.794563
3,2,1,3.28113,0.579268,0.142679,3.72653,-0.240895,-0.149383,25.0414,7.13641,0.488705,-0.00083541,0.320468
3,2,1,-4.78997,-2.53518,1.7971,11.1628,-3.08773,-0.470276,-0.0894822,-2.63871,1.46314,-0.463195,-1.12076
3,2,1,-0.392198,-0.00544948,0.0100489,-0.634573,-1.21109,-0.0856362,-0.013156,-1.60668,1.54201,-2.33195,-0.462253
3,2,1,3.15031,0.401017,0.160161,2.51156,5.71314,0.59291,-11.6364,2.59774,0.430465,0.00737346,0.36306
3,2,1,2.64111,0.312028,0.0803827,2.35273,-4.25958,3.48188,-1.59773,-1.57632,0.565527,0.0271972,0.266241
3,2,1,2.2658,0.0425076,0.0191991,-0.583848,2.82415,0.533705,0.0754136,3.33659,-0.0169351,0.54785,0.257008
3,2,1,6.01014,0.654767,0.24854,5.54419,5.68574,0.00137666,0.00103835,-1.46229,0.258518,0.00962319,0.54621
3,2,1,-0.828282,0.684875,0.223674,-1.44779,5.0064,0.272371,0.00344824,2.89438,0.397142,0.379767,0.797684
3,2,1,-0.166745,-1.25514,-0.967701,-3.82155,3.34568,0.34907,0.176897,2.37943,0.567319,0.42026,0.93611
3,2,1,-10.035,3.55243,8.66202,-21.5626,10.92,0.228744,0.12852,5.40188,0.871264,0.345634,1.3209
3,2,1,4.50278,0.709934,0.227356,3.41616,1.455,0.115548,0.0125181,-1.15221,0.345467,0.222127,0.602264
3,2,1,3.51765,0.552987,0.202187,3.41883,0.53704,0.0709757,-0.0346297,-0.38017,0.320095,-0.0397752,0.474568
3,2,1,3.62936,0.506661,0.201819,3.49179,3.4019,-3.09955,1.3332,0.961184,0.32649,-0.0126443,0.488413
3,2,1,3.50925,0.448618,0.127508,2.4823,1.78455,1.6893,1.46456,-0.207671,0.400287,0.00684206,0.402337
3,2,1,-0.52883,0.00691432,0.00617163,-0.194006,1.73284,0.0488672,0.0179273,1.25978,0.716787,0.92667,0.162242
3,2,1,2.48239,0.190378,0.120167,1.91689,1.21532,1.48543,0.644574,2.68198,0.547395,-0.0744913,0.328097
3,2,1,2.55861,2.02297,0.650126,2.19109,2.44652,0.0836318,0.0133745,2.4369,0.0418722,0.798841,-0.0334834
3,2,1,5.07371,0.556895,0.217981,4.66725,-0.00829845,-0.00544544,0.00934569,-0.672651,0.280461,-0.520981,0.217266
3,2,1,1.56588,0.201966,0.0665967,1.82578,1.97654,0.236717,0.0903453,1.08195,1.02748,-0.229836,0.011785
3,2,1,2.41728,0.208205,-0.0012583,2.05484,1.41976,-1.30194,1.45365,1.79277,0.56727,0.031184,0.207229
3,2,1,3.71833,0.202336,0.172606,2.43155,5.03284,0.375118,-0.790998,-3.83455,0.400925,0.372075,0.754779
3,2,1,-1.25583,1.47411,0.819895,-2.78448,4.36107,0.113478,0.107247,2.55416,0.385214,0.384141,0.797017
3,2,1,1.71562,-0.478906,-0.61026,-1.17859,3.1361,0.360865,0.0914124,2.2536,-0.0127033,0.431384,0.365879
3,2,1,-1.75501,-0.0880109,-0.026461,-2.68365,2.88327,0.072433,0.0245574,1.95701,-5.87306,-0.563325,-4.48698
3,2,1,1.87886,0.47325,-0.0511434,1.79719,1.94184,0.328234,0.0220624,2.54301,-0.401251,1.77114,-0.565042
3,2,1,-1.60981,1.67946,0.217969,-1.01084,4.35765,0.130722,0.127348,2.65259,0.0709006,0.384957,0.481341
3,2,1,6.90393,1.27603,0.349979,4.84299,12.4465,-4.65212,-2.15462,0.408255,0.295914,0.0666312,0.4354
3,2,1,3.04491,0.18183,0.111428,2.10543,3.32281,-0.49945,-3.78487,-7.88748,0.444834,-4.36795,-4.01116
3,2,1,2.91407,0.251062,0.0435786,2.27032,0.308764,1.59867,0.766589,0.134898,0.475285,0.00569166,0.326702
3,2,1,1.44846,0.205113,0.0448314,1.45909,1.93039,0.286882,0.0586866,1.17886,1.39166,-0.600981,0.0448012
3,2,1,-0.702729,1.84783,-0.00894741,-12.1377,-140.908,-69.0514,-27.175,-146.219,-4.51728,-0.14351,-3.88527
3,2,1,4.2004,0.255152,0.0750175,2.63627,-1.17866,1.67307,0.209535,-1.03514,0.371915,0.0747402,0.498851
3,2,1,3.28015,0.190841,0.175032,2.31848,-0.821253,-1.83022,1.5009,-1.6155,0.417221,-0.0239081,0.360136
3,2,1,2.0525,0.0719707,0.0148549,2.1486,2.00198,1.73479,2.09334,1.44082,0.954066,0.00952719,-0.152697
3,2,1,3.31406,0.407717,0.0380361,2.47187,-0.266021,-1.73458,0.970613,-1.79463,0.415264,-0.0144649,0.374956
3,2,1,6.25099,-3.17047,1.46865,-0.279767,-2.91952,-0.395169,-0.0444215,-3.76202,-0.00491872,-1.23429,-0.425145
3,2,1,1.59636,0.096013,0.0630313,0.826005,1.46151,0.077228,0.0482484,1.68899,-0.289647,1.15304,-0.0688712
3,2,1,33.0172,0.520442,0.135338,28.5555,-3.97298,-0.0574545,-0.0193135,3.34452,0.297691,-5.9863,6.38072
3,2,1,2.32742,0.056139,0.0279748,2.30198,0.254535,0.117712,2.12797,1.7883,0.827797,-0.00209653,-0.0205758
3,2,1,-1.76524,-0.0296866,-0.00748622,-2.47523,4.4267,-0.377196,-4.83785,1.3517,-2.37434,-0.00716866,-1.55224
3,2,1,1.2047,-1.47491,1.03821,1.50617,3.23679,0.3845,-0.018138,2.47251,0.0419137,0.407618,0.357451
3,2,1,3.93828,-0.00820725,-0.00812648,-1.1651,2.06372,0.114124,0.0339398,2.70327,-0.0635318,1.17159,-0.373077
Workload Information:
0.972575, 2.39708, 1.10988, 0.590115, 2.58177, 4.34858, 0.5, 1.03667, 2.36382, 0.612766, 3.57534, 3.91141, 1.53204, 1.85105, 4.67066, 0.5, 0.6393, 2.80695, 13.572, 11.5707, 5.78405, 1.9676, 3.78843, 23.3172, 3.32744, 18.1633, 17.1306, 7.28002, 12.9949, 1.10378, 1.90526, 2.45448, 1.46299, 2.49448, 1.50742, 2.17537, 2.51368, 2.46304, 2.01304, 1.88034, 1.14183, 1.98806, 2.41115, 2.15852, 1.81141, 1.37689, 2.11544, 2.12659, 14.241, 15.1094, 5.59434, 15.7059, 5.7725, 3.57682, 10.6036, 11.2391, 10.6929, 7.39745, 9.05378, 11.0131, 9.26518, 8.19654, 3.98137, 6.80209, 11.9629, 19.7919, 2.29059, 1.7813, 1.95388, 1.60408, 2.19396, 2.17619, 3.01605, 1.42464, 2.53107, 0.629612, 3.18414, 1.21449, 0.858703, 2.41671, 2.0058, 1.96992, 2.39201, 2.35686, 0.906531, 2.81277, 0.641091, 4.01414, 0.512801, 3.11266, 1.29375, 3.07795, 1.05474, 3.58323, 0.5, 2.49033, 0.813519, 2.64727, 2.57569, 0.5, 2.6701, 2.79341, 0.838942, 0.639214, 4.65179, 3.15641, 0.5, 2.21365, 0.822736, 1.76103, 3.18847, 1.62129, 3.12014, 1.48633, 0.856542, 3.11118, 0.734933, 1.39642, 2.67217, 3.22875, 2.33159, 2.2639, 2.43214, 0.610603, 2.72188, 1.63988, 0.838625, 2.88699, 0.5, 4.7624, 1.22551, 1.78647, 2.69998, 0.968234, 2.62558, 2.53529, 2.67092, 0.5, 1.83021, 0.705851, 2.55879, 2.46593, 1.96498, 2.47424, 0.757559, 4.31369, 0.5, 1.76552, 4.10794, 0.555287, 0.948601, 2.08102, 2.35583, 2.07851, 2.32456, 2.21146, 3.39997, 0.5, 2.10716, 1.45376, 2.94558, 1.59353, 1.84764, 1.28335, 6.56344, 0.5, 1.24181, 0.563758, 0.5, 3.44047, 1.82506, 1.52724, 3.49939, 1.20783, 0.5, 2.74182, 2.42425, 2.52648, 1.167, 2.64046, 1.58248, 4.07144, 0.672312, 0.5, 4.6308, 0.542965, 3.10362, 2.06947, 0.5, 0.636549, 2.62714, 3.06321, 1.7173, 2.11514, 0.653563, 3.4178, 1.74094, 2.35526, 2.27769, 1.52815, 1.97292, 2.64313, 1.15193, 2.42618, 2.36577, 1.7214, 0.530125, 2.67858, 2.26666, 2.43746, 2.29013, 2.83215, 1.9097, 2.04107, 1.27906, 1.64788, 1.13966, 4.91036, 2.18005, 1.36552, 1.85803, 0.546382, 1.86867, 2.12365, 1.72341, 1.64876, 2.39067, 2.24484, 2.67214, 2.48739, 2.3493, 1.05876, 2.06872, 1.36369, 2.23285, 2.10667, 1.6163, 2.10851, 1.89827, 2.0374, 1.19725, 3.74648, 1.12694, 1.76902, 0.5, 3.6603, 2.25271, 1.96708, 1.64466, 1.87493, 1.98718, 2.27345, 1.27521, 0.5, 2.63387, 2.36776, 2.66633, 2.55683, 1.63328, 1.66022, 0.770267, 3.53181, 0.677605, 3.72681, 2.49276, 2.95295, 2.51765, 1.08754, 0.5, 2.4491, 1.9564, 0.5, 3.14584, 2.26871, 0.660473, 3.46857, 0.975609, 1.64126, 2.93782, 2.28308, 1.04524, 3.117, 1.79099, 0.5, 2.6142, 1.96334, 2.28364, 2.84784
cpi min/max: 0.5/23.3172
neighbors of 0: 1 6, number of others: 45
neighbors of 1: 0 2 6 7, number of others: 43
neighbors of 2: 1 3 7 8, number of others: 43
neighbors of 3: 2 4 8 9, number of others: 43
neighbors of 4: 3 5 9 10, number of others: 43
neighbors of 5: 4 10 11, number of others: 44
neighbors of 6: 0 1 7 12, number of others: 43
neighbors of 7: 1 2 6 8 12 13, number of others: 41
neighbors of 8: 2 3 7 9 13 14, number of others: 41
neighbors of 9: 3 4 8 10 14 15, number of others: 41
neighbors of 10: 4 5 9 11 15 16, number of others: 41
neighbors of 11: 5 10 16 17, number of others: 43
neighbors of 12: 6 7 13 18, number of others: 43
neighbors of 13: 7 8 12 14 18 19, number of others: 41
neighbors of 14: 8 9 13 15 19 20, number of others: 41
neighbors of 15: 9 10 14 16 20 21, number of others: 41
neighbors of 16: 10 11 15 17 21 22, number of others: 41
neighbors of 17: 11 16 22 23, number of others: 43
neighbors of 18: 12 13 19 24, number of others: 43
neighbors of 19: 13 14 18 20 24 25, number of others: 41
neighbors of 20: 14 15 19 21 25 26, number of others: 41
neighbors of 21: 15 16 20 22 26 27, number of others: 41
neighbors of 22: 16 17 21 23 27 28, number of others: 41
neighbors of 23: 17 22 28 29, number of others: 43
neighbors of 24: 18 19 25 30, number of others: 43
neighbors of 25: 19 20 24 26 30 31, number of others: 41
neighbors of 26: 20 21 25 27 31 32, number of others: 41
neighbors of 27: 21 22 26 28 32 33, number of others: 41
neighbors of 28: 22 23 27 29 33 34, number of others: 41
neighbors of 29: 23 28 34 35, number of others: 43
neighbors of 30: 24 25 31 36, number of others: 43
neighbors of 31: 25 26 30 32 36 37, number of others: 41
neighbors of 32: 26 27 31 33 37 38, number of others: 41
neighbors of 33: 27 28 32 34 38 39, number of others: 41
neighbors of 34: 28 29 33 35 39 40, number of others: 41
neighbors of 35: 29 34 40 41, number of others: 43
neighbors of 36: 30 31 37 42, number of others: 43
neighbors of 37: 31 32 36 38 42 43, number of others: 41
neighbors of 38: 32 33 37 39 43 44, number of others: 41
neighbors of 39: 33 34 38 40 44 45, number of others: 41
neighbors of 40: 34 35 39 41 45 46, number of others: 41
neighbors of 41: 35 40 46 47, number of others: 43
neighbors of 42: 36 37 43, number of others: 44
neighbors of 43: 37 38 42 44, number of others: 43
neighbors of 44: 38 39 43 45, number of others: 43
neighbors of 45: 39 40 44 46, number of others: 43
neighbors of 46: 40 41 45 47, number of others: 43
neighbors of 47: 41 46, number of others: 45
Run model...
Preprocess model 0% ...Preprocess model 16% ...Preprocess model 32% ...Preprocess model 48% ...Preprocess model 66% ...Preprocess model 84% ...Preprocess model 100% ...
Close model 0% ...Close model 9% ...Close model 18% ...Close model 27% ...Close model 36% ...Close model 45% ...Close model 54% ...Close model 63% ...Close model 72% ...Close model 81% ...Close model 91% ...Close model 100% ...
Run param...
Run solver...
Initialize threads 0% ...Initialize threads 100% ...
Push initial solutions 0% ...Push initial solutions 100% ...

Model: 
  expressions = 30667, operands = 74976
  decisions = 13824, constraints = 336, objectives = 1

Param: 
  time limit = 90 sec, no iteration limit
  seed = 701, nb threads = 1, annealing level = 1

Objectives:
  Obj 0: maximize, no bound

Phases:
  Phase 0: time limit = 90 sec, no iteration limit, optimized objective = 0


Computed bounds:
  Obj 0: upper bound = 0.617747


Phase 0:
[0 sec, 0 itr]: infeas = (336, 336, 576), mov = 0, inf < 0.1%, acc < 0.1%, imp = 0

worst case efficiency: 0.965273
[1 sec, 12791 itr]: obj = (0.050511), mov = 12791, inf = 93%, acc = 5.6%, imp = 166

worst case efficiency: 0.630307
[2 sec, 39109 itr]: obj = (0.0613344), mov = 39109, inf = 97.6%, acc = 2%, imp = 200

worst case efficiency: 0.636801
[3 sec, 55766 itr]: obj = (0.079884), mov = 55766, inf = 98.3%, acc = 1.5%, imp = 237

worst case efficiency: 0.64793
[4 sec, 65123 itr]: obj = (0.0919382), mov = 65123, inf = 98.5%, acc = 1.3%, imp = 277

worst case efficiency: 0.655163
[5 sec, 71714 itr]: obj = (0.0938442), mov = 71714, inf = 98.6%, acc = 1.3%, imp = 308

worst case efficiency: 0.656306
[6 sec, 77259 itr]: obj = (0.0952488), mov = 77259, inf = 98.7%, acc = 1.2%, imp = 322

worst case efficiency: 0.657149
[7 sec, 82301 itr]: obj = (0.0983054), mov = 82301, inf = 98.7%, acc = 1.2%, imp = 352

worst case efficiency: 0.658983
[8 sec, 87084 itr]: obj = (0.100511), mov = 87084, inf = 98.8%, acc = 1.1%, imp = 377

worst case efficiency: 0.660307
[9 sec, 91731 itr]: obj = (0.102827), mov = 91731, inf = 98.8%, acc = 1.1%, imp = 392

worst case efficiency: 0.661696
[10 sec, 96358 itr]: obj = (0.104129), mov = 96358, inf = 98.8%, acc = 1.1%, imp = 407

worst case efficiency: 0.662477
[11 sec, 100838 itr]: obj = (0.104279), mov = 100838, inf = 98.9%, acc = 1%, imp = 412

worst case efficiency: 0.662568
[12 sec, 105891 itr]: obj = (0.104296), mov = 105891, inf = 98.9%, acc = 1%, imp = 417

worst case efficiency: 0.662578
[13 sec, 111328 itr]: obj = (0.104296), mov = 111328, inf = 99%, acc = 0.9%, imp = 417

worst case efficiency: 0.662578
[14 sec, 117426 itr]: obj = (0.104296), mov = 117426, inf = 99%, acc = 0.9%, imp = 417

worst case efficiency: 0.662578
[15 sec, 124208 itr]: obj = (0.104296), mov = 124208, inf = 99.1%, acc = 0.8%, imp = 417

worst case efficiency: 0.662578
[16 sec, 132074 itr]: obj = (0.104296), mov = 132074, inf = 99.1%, acc = 0.8%, imp = 417

worst case efficiency: 0.662578
[17 sec, 140880 itr]: obj = (0.104296), mov = 140880, inf = 99.2%, acc = 0.8%, imp = 417

worst case efficiency: 0.662578
[18 sec, 151976 itr]: obj = (0.104296), mov = 151976, inf = 99.3%, acc = 0.7%, imp = 417

worst case efficiency: 0.662578
[19 sec, 168353 itr]: obj = (0.104296), mov = 168353, inf = 99.3%, acc = 0.7%, imp = 417

worst case efficiency: 0.662578
[20 sec, 200256 itr]: obj = (0.104296), mov = 200256, inf = 99.4%, acc = 0.6%, imp = 417

worst case efficiency: 0.662578
[21 sec, 249466 itr]: obj = (0.104298), mov = 249466, inf = 99.5%, acc = 0.5%, imp = 418

worst case efficiency: 0.662579
[22 sec, 300203 itr]: obj = (0.104298), mov = 300203, inf = 99.5%, acc = 0.5%, imp = 418

worst case efficiency: 0.662579
[23 sec, 348960 itr]: obj = (0.104298), mov = 348960, inf = 99.6%, acc = 0.4%, imp = 418

worst case efficiency: 0.662579
[24 sec, 398925 itr]: obj = (0.104354), mov = 398925, inf = 99.6%, acc = 0.4%, imp = 419

worst case efficiency: 0.662612
[25 sec, 447287 itr]: obj = (0.104839), mov = 447287, inf = 99.7%, acc = 0.4%, imp = 422

worst case efficiency: 0.662903
[26 sec, 497586 itr]: obj = (0.107236), mov = 497586, inf = 99.7%, acc = 0.3%, imp = 424

worst case efficiency: 0.664342
[27 sec, 546615 itr]: obj = (0.107242), mov = 546615, inf = 99.7%, acc = 0.3%, imp = 426

worst case efficiency: 0.664345
[28 sec, 596236 itr]: obj = (0.107268), mov = 596236, inf = 99.8%, acc = 0.3%, imp = 428

worst case efficiency: 0.664361
[29 sec, 644794 itr]: obj = (0.107274), mov = 644794, inf = 99.8%, acc = 0.3%, imp = 431

worst case efficiency: 0.664364
[30 sec, 694622 itr]: obj = (0.107278), mov = 694622, inf = 99.8%, acc = 0.3%, imp = 433

worst case efficiency: 0.664367
[31 sec, 746447 itr]: obj = (0.107624), mov = 746447, inf = 99.8%, acc = 0.3%, imp = 435

worst case efficiency: 0.664574
[32 sec, 796420 itr]: obj = (0.107636), mov = 796420, inf = 99.8%, acc = 0.3%, imp = 439

worst case efficiency: 0.664582
[33 sec, 846229 itr]: obj = (0.107849), mov = 846229, inf = 99.8%, acc = 0.3%, imp = 443

worst case efficiency: 0.664709
[34 sec, 896827 itr]: obj = (0.107851), mov = 896827, inf = 99.8%, acc = 0.2%, imp = 444

worst case efficiency: 0.66471
[35 sec, 947087 itr]: obj = (0.107851), mov = 947087, inf = 99.8%, acc = 0.2%, imp = 444

worst case efficiency: 0.66471
[36 sec, 998360 itr]: obj = (0.107859), mov = 998360, inf = 99.8%, acc = 0.2%, imp = 447

worst case efficiency: 0.664715
[37 sec, 1048366 itr]: obj = (0.107859), mov = 1048366, inf = 99.9%, acc = 0.2%, imp = 447

worst case efficiency: 0.664715
[38 sec, 1098377 itr]: obj = (0.107861), mov = 1098377, inf = 99.9%, acc = 0.2%, imp = 448

worst case efficiency: 0.664716
[39 sec, 1148898 itr]: obj = (0.108114), mov = 1148898, inf = 99.9%, acc = 0.2%, imp = 453

worst case efficiency: 0.664868
[40 sec, 1195582 itr]: obj = (0.108195), mov = 1195582, inf = 99.9%, acc = 0.2%, imp = 454

worst case efficiency: 0.664917
[41 sec, 1245837 itr]: obj = (0.108244), mov = 1245837, inf = 99.9%, acc = 0.2%, imp = 455

worst case efficiency: 0.664946
[42 sec, 1294742 itr]: obj = (0.108411), mov = 1294742, inf = 99.9%, acc = 0.2%, imp = 457

worst case efficiency: 0.665047
[43 sec, 1344282 itr]: obj = (0.108411), mov = 1344282, inf = 99.9%, acc = 0.2%, imp = 459

worst case efficiency: 0.665047
[44 sec, 1394206 itr]: obj = (0.108728), mov = 1394206, inf = 99.9%, acc = 0.2%, imp = 464

worst case efficiency: 0.665237
[45 sec, 1443072 itr]: obj = (0.108738), mov = 1443072, inf = 99.9%, acc = 0.2%, imp = 465

worst case efficiency: 0.665243
[46 sec, 1494063 itr]: obj = (0.108738), mov = 1494063, inf = 99.9%, acc = 0.2%, imp = 465

worst case efficiency: 0.665243
[47 sec, 1544254 itr]: obj = (0.108935), mov = 1544254, inf = 99.8%, acc = 0.2%, imp = 471

worst case efficiency: 0.665361
[48 sec, 1594768 itr]: obj = (0.109097), mov = 1594768, inf = 99.8%, acc = 0.2%, imp = 475

worst case efficiency: 0.665458
[49 sec, 1644613 itr]: obj = (0.109109), mov = 1644613, inf = 99.8%, acc = 0.2%, imp = 476

worst case efficiency: 0.665466
[50 sec, 1695373 itr]: obj = (0.109211), mov = 1695373, inf = 99.8%, acc = 0.2%, imp = 480

worst case efficiency: 0.665526
[51 sec, 1745759 itr]: obj = (0.10951), mov = 1745759, inf = 99.8%, acc = 0.2%, imp = 488

worst case efficiency: 0.665706
[52 sec, 1793369 itr]: obj = (0.10951), mov = 1793369, inf = 99.8%, acc = 0.2%, imp = 488

worst case efficiency: 0.665706
[53 sec, 1843214 itr]: obj = (0.109523), mov = 1843214, inf = 99.8%, acc = 0.2%, imp = 492

worst case efficiency: 0.665714
[54 sec, 1893840 itr]: obj = (0.109525), mov = 1893840, inf = 99.8%, acc = 0.2%, imp = 493

worst case efficiency: 0.665715
[55 sec, 1944875 itr]: obj = (0.109531), mov = 1944875, inf = 99.8%, acc = 0.2%, imp = 495

worst case efficiency: 0.665718
[56 sec, 1984845 itr]: obj = (0.109532), mov = 1984845, inf = 99.8%, acc = 0.2%, imp = 496

worst case efficiency: 0.665719
[57 sec, 2022294 itr]: obj = (0.109534), mov = 2022294, inf = 99.8%, acc = 0.2%, imp = 497

worst case efficiency: 0.665721
[58 sec, 2065737 itr]: obj = (0.109539), mov = 2065737, inf = 99.8%, acc = 0.2%, imp = 499

worst case efficiency: 0.665723
[59 sec, 2110899 itr]: obj = (0.109539), mov = 2110899, inf = 99.8%, acc = 0.2%, imp = 499

worst case efficiency: 0.665723
[60 sec, 2154805 itr]: obj = (0.109541), mov = 2154805, inf = 99.8%, acc = 0.2%, imp = 500

worst case efficiency: 0.665725
[61 sec, 2197539 itr]: obj = (0.109545), mov = 2197539, inf = 99.8%, acc = 0.2%, imp = 501

worst case efficiency: 0.665727
[62 sec, 2241873 itr]: obj = (0.109547), mov = 2241873, inf = 99.8%, acc = 0.2%, imp = 502

worst case efficiency: 0.665728
[63 sec, 2278616 itr]: obj = (0.109555), mov = 2278616, inf = 99.8%, acc = 0.2%, imp = 504

worst case efficiency: 0.665733
[64 sec, 2325247 itr]: obj = (0.109558), mov = 2325247, inf = 99.8%, acc = 0.2%, imp = 505

worst case efficiency: 0.665735
[65 sec, 2365893 itr]: obj = (0.109558), mov = 2365893, inf = 99.8%, acc = 0.2%, imp = 505

worst case efficiency: 0.665735
[66 sec, 2408497 itr]: obj = (0.109562), mov = 2408497, inf = 99.8%, acc = 0.2%, imp = 507

worst case efficiency: 0.665737
[67 sec, 2455531 itr]: obj = (0.109562), mov = 2455531, inf = 99.8%, acc = 0.2%, imp = 507

worst case efficiency: 0.665737
[68 sec, 2504538 itr]: obj = (0.109822), mov = 2504538, inf = 99.8%, acc = 0.2%, imp = 511

worst case efficiency: 0.665893
[69 sec, 2555400 itr]: obj = (0.110049), mov = 2555400, inf = 99.8%, acc = 0.2%, imp = 517

worst case efficiency: 0.666029
[70 sec, 2607984 itr]: obj = (0.110655), mov = 2607984, inf = 99.8%, acc = 0.2%, imp = 521

worst case efficiency: 0.666393
[71 sec, 2652399 itr]: obj = (0.110661), mov = 2652399, inf = 99.8%, acc = 0.2%, imp = 523

worst case efficiency: 0.666397
[72 sec, 2704175 itr]: obj = (0.110666), mov = 2704175, inf = 99.8%, acc = 0.2%, imp = 524

worst case efficiency: 0.6664
[73 sec, 2755505 itr]: obj = (0.110667), mov = 2755505, inf = 99.8%, acc = 0.2%, imp = 525

worst case efficiency: 0.6664
[74 sec, 2804688 itr]: obj = (0.110667), mov = 2804688, inf = 99.8%, acc = 0.2%, imp = 525

worst case efficiency: 0.6664
[75 sec, 2851593 itr]: obj = (0.111584), mov = 2851593, inf = 99.8%, acc = 0.2%, imp = 529

worst case efficiency: 0.666951
[76 sec, 2888614 itr]: obj = (0.111584), mov = 2888614, inf = 99.8%, acc = 0.2%, imp = 529

worst case efficiency: 0.666951
[77 sec, 2924971 itr]: obj = (0.111586), mov = 2924971, inf = 99.8%, acc = 0.2%, imp = 530

worst case efficiency: 0.666952
[78 sec, 2958052 itr]: obj = (0.111587), mov = 2958052, inf = 99.8%, acc = 0.2%, imp = 531

worst case efficiency: 0.666952
[79 sec, 2994052 itr]: obj = (0.111587), mov = 2994052, inf = 99.8%, acc = 0.2%, imp = 531

worst case efficiency: 0.666952
[80 sec, 3031960 itr]: obj = (0.111587), mov = 3031960, inf = 99.8%, acc = 0.2%, imp = 531

worst case efficiency: 0.666952
[81 sec, 3075328 itr]: obj = (0.113596), mov = 3075328, inf = 99.8%, acc = 0.2%, imp = 535

worst case efficiency: 0.668157
[82 sec, 3122126 itr]: obj = (0.113709), mov = 3122126, inf = 99.7%, acc = 0.2%, imp = 538

worst case efficiency: 0.668225
[83 sec, 3172747 itr]: obj = (0.113728), mov = 3172747, inf = 99.7%, acc = 0.2%, imp = 542

worst case efficiency: 0.668237
[84 sec, 3222532 itr]: obj = (0.113743), mov = 3222532, inf = 99.7%, acc = 0.2%, imp = 543

worst case efficiency: 0.668246
[85 sec, 3272897 itr]: obj = (0.113743), mov = 3272897, inf = 99.7%, acc = 0.2%, imp = 543

worst case efficiency: 0.668246
[86 sec, 3320542 itr]: obj = (0.113743), mov = 3320542, inf = 99.7%, acc = 0.2%, imp = 543

worst case efficiency: 0.668246
[87 sec, 3369373 itr]: obj = (0.113745), mov = 3369373, inf = 99.7%, acc = 0.2%, imp = 544

worst case efficiency: 0.668247
[88 sec, 3411608 itr]: obj = (0.116733), mov = 3411608, inf = 99.7%, acc = 0.2%, imp = 551

worst case efficiency: 0.67004
[89 sec, 3462603 itr]: obj = (0.117019), mov = 3462603, inf = 99.7%, acc = 0.2%, imp = 561

worst case efficiency: 0.670212
[90 sec, 3512772 itr]: obj = (0.11716), mov = 3512772, inf = 99.7%, acc = 0.2%, imp = 564

worst case efficiency: 0.670296
[90 sec, 3512772 itr]: obj = (0.11716), mov = 3512772, inf = 99.7%, acc = 0.2%, imp = 564

worst case efficiency: 0.670296
3512772 iterations, 3512772 moves performed in 90 seconds
Feasible solution: obj = (0.11716)

Run output...
FINAL SOLUTION
Worst case efficiency: 0.670296
Mapping: 0->17, 1->18, 2->17, 3->47, 4->38, 5->16, 6->29, 7->47, 8->8, 9->33, 10->22, 11->20, 12->26, 13->23, 14->44, 15->2, 16->42, 17->38, 18->21, 19->13, 20->15, 21->19, 22->21, 23->28, 24->14, 25->19, 26->14, 27->15, 28->26, 29->45, 30->40, 31->7, 32->35, 33->7, 34->35, 35->39, 36->19, 37->9, 38->34, 39->45, 40->22, 41->11, 42->26, 43->47, 44->30, 45->11, 46->32, 47->18, 48->14, 49->45, 50->15, 51->14, 52->27, 53->21, 54->22, 55->15, 56->25, 57->20, 58->20, 59->27, 60->16, 61->31, 62->13, 63->26, 64->33, 65->32, 66->5, 67->29, 68->7, 69->17, 70->8, 71->29, 72->14, 73->42, 74->21, 75->5, 76->10, 77->1, 78->23, 79->30, 80->34, 81->36, 82->18, 83->34, 84->0, 85->20, 86->11, 87->40, 88->2, 89->36, 90->46, 91->12, 92->41, 93->38, 94->41, 95->43, 96->30, 97->7, 98->12, 99->2, 100->12, 101->22, 102->31, 103->24, 104->13, 105->37, 106->23, 107->32, 108->45, 109->11, 110->19, 111->4, 112->41, 113->18, 114->33, 115->27, 116->3, 117->36, 118->39, 119->39, 120->9, 121->40, 122->5, 123->6, 124->8, 125->30, 126->36, 127->25, 128->4, 129->31, 130->17, 131->41, 132->25, 133->37, 134->16, 135->34, 136->38, 137->6, 138->1, 139->24, 140->46, 141->3, 142->28, 143->31, 144->25, 145->39, 146->22, 147->2, 148->15, 149->28, 150->0, 151->4, 152->2, 153->6, 154->40, 155->7, 156->10, 157->23, 158->45, 159->1, 160->33, 161->1, 162->42, 163->46, 164->37, 165->0, 166->23, 167->5, 168->24, 169->44, 170->3, 171->28, 172->27, 173->28, 174->11, 175->44, 176->37, 177->35, 178->30, 179->12, 180->1, 181->9, 182->36, 183->3, 184->34, 185->6, 186->44, 187->24, 188->27, 189->2, 190->10, 191->9, 192->12, 193->47, 194->5, 195->16, 196->46, 197->7, 198->13, 199->16, 200->10, 201->33, 202->4, 203->43, 204->9, 205->13, 206->0, 207->8, 208->20, 209->0, 210->29, 211->38, 212->29, 213->22, 214->8, 215->17, 216->44, 217->9, 218->40, 219->46, 220->19, 221->21, 222->18, 223->45, 224->37, 225->44, 226->30, 227->36, 228->26, 229->40, 230->17, 231->19, 232->25, 233->35, 234->31, 235->26, 236->35, 237->43, 238->23, 239->12, 240->6, 241->14, 242->1, 243->41, 244->27, 245->43, 246->6, 247->25, 248->29, 249->42, 250->47, 251->34, 252->46, 253->24, 254->31, 255->16, 256->37, 257->32, 258->39, 259->24, 260->5, 261->10, 262->20, 263->15, 264->39, 265->38, 266->3, 267->18, 268->41, 269->43, 270->0, 271->11, 272->33, 273->32, 274->42, 275->32, 276->35, 277->4, 278->10, 279->43, 280->42, 281->21, 282->3, 283->4, 284->8, 285->47, 286->13, 287->28
Number of tasks per core:
	6	6	6	6	6	6
	6	6	6	6	6	6
	6	6	6	6	6	6
	6	6	6	6	6	6
	6	6	6	6	6	6
	6	6	6	6	6	6
	6	6	6	6	6	6
	6	6	6	6	6	6
Average CPI map:
	1.21319	1.4669	1.04512	1.63909	1.24925	1.22332
	1.19701	2.35281	2.30858	3.2009	2.9423	1.12785
	2.45315	4.41443	9.52792	6.28871	3.92551	1.48487
	1.89304	4.79164	4.35328	4.52194	3.44255	1.14164
	1.01246	3.51221	4.75316	4.06603	5.23674	1.717
	1.70653	3.52314	5.40251	3.69447	2.63587	1.57541
	1.70579	2.91701	2.90466	2.75267	2.52922	1.45506
	1.2487	2.56958	2.79083	3.85785	1.58626	1.64182
Efficiency map:
	0.996717	0.930956	0.858775	0.917999	0.929735	0.995921
	0.795361	0.672133	0.67484	0.700351	0.70647	0.810575
	0.848067	0.680967	0.906613	0.671663	0.687071	0.811968
	0.823805	0.721302	0.727125	0.734222	0.732612	0.800949
	0.786591	0.716128	0.703306	0.674521	0.742466	0.799266
	0.797606	0.672385	0.67134	0.683345	0.671911	0.808304
	0.871815	0.675681	0.670296	0.693011	0.672629	0.7865
	0.816127	0.798189	0.720005	0.781763	0.670348	0.827465
==============================================================================
Local Solver optimizer for EML demonstration
==============================================================================

Option values: --wld-idx 7 --global-tlim 90 --seed 701

Starting the Optimization Process
