LocalSolver 4.0 (MacOS64, build 20131224)
Copyright (C) 2013 Bouygues SA, Aix-Marseille University, CNRS.
All rights reserved (see Terms and Conditions for details).

Load localsolver_res/tawd_ls.lsp...
Run input...
ANNs For the Platform:
3,2,1,0.413586,-0.0266769,-0.0683771,-5.1002,70.5254,-0.257939,-72.3361,-14.3957,-55.9961,0.000416225,-55.1984
3,2,1,7.29748,1.94844,3.18138,9.63196,-4.67735,-4.13678,1.22405,-8.03403,0.0803394,-0.125838,0.598848
3,2,1,6.43996,0.383984,0.598454,7.79024,-4.25175,0.123161,-0.278344,-5.71253,1.47885,1.00258,0.327892
3,2,1,3.45395,0.140329,0.51254,4.25255,4.08469,0.00326531,0.722664,3.88666,1.2829,-0.290289,-0.187123
3,2,1,1.76581,-0.7465,16.0398,1.01103,2.42771,0.96084,1.00318,4.14242,-0.00284347,0.244904,0.56299
3,2,1,1.87058,0.359859,-0.0851999,0.818043,3.18969,0.847611,-7.29654,-2.24823,0.00245596,0.000486788,0.794563
3,2,1,3.28113,0.579268,0.142679,3.72653,-0.240895,-0.149383,25.0414,7.13641,0.488705,-0.00083541,0.320468
3,2,1,-4.78997,-2.53518,1.7971,11.1628,-3.08773,-0.470276,-0.0894822,-2.63871,1.46314,-0.463195,-1.12076
3,2,1,-0.392198,-0.00544948,0.0100489,-0.634573,-1.21109,-0.0856362,-0.013156,-1.60668,1.54201,-2.33195,-0.462253
3,2,1,3.15031,0.401017,0.160161,2.51156,5.71314,0.59291,-11.6364,2.59774,0.430465,0.00737346,0.36306
3,2,1,2.64111,0.312028,0.0803827,2.35273,-4.25958,3.48188,-1.59773,-1.57632,0.565527,0.0271972,0.266241
3,2,1,2.2658,0.0425076,0.0191991,-0.583848,2.82415,0.533705,0.0754136,3.33659,-0.0169351,0.54785,0.257008
3,2,1,6.01014,0.654767,0.24854,5.54419,5.68574,0.00137666,0.00103835,-1.46229,0.258518,0.00962319,0.54621
3,2,1,-0.828282,0.684875,0.223674,-1.44779,5.0064,0.272371,0.00344824,2.89438,0.397142,0.379767,0.797684
3,2,1,-0.166745,-1.25514,-0.967701,-3.82155,3.34568,0.34907,0.176897,2.37943,0.567319,0.42026,0.93611
3,2,1,-10.035,3.55243,8.66202,-21.5626,10.92,0.228744,0.12852,5.40188,0.871264,0.345634,1.3209
3,2,1,4.50278,0.709934,0.227356,3.41616,1.455,0.115548,0.0125181,-1.15221,0.345467,0.222127,0.602264
3,2,1,3.51765,0.552987,0.202187,3.41883,0.53704,0.0709757,-0.0346297,-0.38017,0.320095,-0.0397752,0.474568
3,2,1,3.62936,0.506661,0.201819,3.49179,3.4019,-3.09955,1.3332,0.961184,0.32649,-0.0126443,0.488413
3,2,1,3.50925,0.448618,0.127508,2.4823,1.78455,1.6893,1.46456,-0.207671,0.400287,0.00684206,0.402337
3,2,1,-0.52883,0.00691432,0.00617163,-0.194006,1.73284,0.0488672,0.0179273,1.25978,0.716787,0.92667,0.162242
3,2,1,2.48239,0.190378,0.120167,1.91689,1.21532,1.48543,0.644574,2.68198,0.547395,-0.0744913,0.328097
3,2,1,2.55861,2.02297,0.650126,2.19109,2.44652,0.0836318,0.0133745,2.4369,0.0418722,0.798841,-0.0334834
3,2,1,5.07371,0.556895,0.217981,4.66725,-0.00829845,-0.00544544,0.00934569,-0.672651,0.280461,-0.520981,0.217266
3,2,1,1.56588,0.201966,0.0665967,1.82578,1.97654,0.236717,0.0903453,1.08195,1.02748,-0.229836,0.011785
3,2,1,2.41728,0.208205,-0.0012583,2.05484,1.41976,-1.30194,1.45365,1.79277,0.56727,0.031184,0.207229
3,2,1,3.71833,0.202336,0.172606,2.43155,5.03284,0.375118,-0.790998,-3.83455,0.400925,0.372075,0.754779
3,2,1,-1.25583,1.47411,0.819895,-2.78448,4.36107,0.113478,0.107247,2.55416,0.385214,0.384141,0.797017
3,2,1,1.71562,-0.478906,-0.61026,-1.17859,3.1361,0.360865,0.0914124,2.2536,-0.0127033,0.431384,0.365879
3,2,1,-1.75501,-0.0880109,-0.026461,-2.68365,2.88327,0.072433,0.0245574,1.95701,-5.87306,-0.563325,-4.48698
3,2,1,1.87886,0.47325,-0.0511434,1.79719,1.94184,0.328234,0.0220624,2.54301,-0.401251,1.77114,-0.565042
3,2,1,-1.60981,1.67946,0.217969,-1.01084,4.35765,0.130722,0.127348,2.65259,0.0709006,0.384957,0.481341
3,2,1,6.90393,1.27603,0.349979,4.84299,12.4465,-4.65212,-2.15462,0.408255,0.295914,0.0666312,0.4354
3,2,1,3.04491,0.18183,0.111428,2.10543,3.32281,-0.49945,-3.78487,-7.88748,0.444834,-4.36795,-4.01116
3,2,1,2.91407,0.251062,0.0435786,2.27032,0.308764,1.59867,0.766589,0.134898,0.475285,0.00569166,0.326702
3,2,1,1.44846,0.205113,0.0448314,1.45909,1.93039,0.286882,0.0586866,1.17886,1.39166,-0.600981,0.0448012
3,2,1,-0.702729,1.84783,-0.00894741,-12.1377,-140.908,-69.0514,-27.175,-146.219,-4.51728,-0.14351,-3.88527
3,2,1,4.2004,0.255152,0.0750175,2.63627,-1.17866,1.67307,0.209535,-1.03514,0.371915,0.0747402,0.498851
3,2,1,3.28015,0.190841,0.175032,2.31848,-0.821253,-1.83022,1.5009,-1.6155,0.417221,-0.0239081,0.360136
3,2,1,2.0525,0.0719707,0.0148549,2.1486,2.00198,1.73479,2.09334,1.44082,0.954066,0.00952719,-0.152697
3,2,1,3.31406,0.407717,0.0380361,2.47187,-0.266021,-1.73458,0.970613,-1.79463,0.415264,-0.0144649,0.374956
3,2,1,6.25099,-3.17047,1.46865,-0.279767,-2.91952,-0.395169,-0.0444215,-3.76202,-0.00491872,-1.23429,-0.425145
3,2,1,1.59636,0.096013,0.0630313,0.826005,1.46151,0.077228,0.0482484,1.68899,-0.289647,1.15304,-0.0688712
3,2,1,33.0172,0.520442,0.135338,28.5555,-3.97298,-0.0574545,-0.0193135,3.34452,0.297691,-5.9863,6.38072
3,2,1,2.32742,0.056139,0.0279748,2.30198,0.254535,0.117712,2.12797,1.7883,0.827797,-0.00209653,-0.0205758
3,2,1,-1.76524,-0.0296866,-0.00748622,-2.47523,4.4267,-0.377196,-4.83785,1.3517,-2.37434,-0.00716866,-1.55224
3,2,1,1.2047,-1.47491,1.03821,1.50617,3.23679,0.3845,-0.018138,2.47251,0.0419137,0.407618,0.357451
3,2,1,3.93828,-0.00820725,-0.00812648,-1.1651,2.06372,0.114124,0.0339398,2.70327,-0.0635318,1.17159,-0.373077
Workload Information:
3.12567, 0.752061, 3.77408, 1.62275, 1.54955, 1.17589, 1.72939, 3.02359, 2.35293, 0.5, 3.11872, 1.27538, 17.84, 24.8309, 22.3046, 23.9911, 15.5276, 27.5057, 0.5, 1.8254, 3.13266, 3.48523, 1.94102, 1.1157, 2.11213, 2.06647, 1.99774, 1.74421, 2.0075, 2.07194, 0.522909, 1.49971, 1.5007, 3.20029, 3.94412, 1.33228, 2.47984, 1.60996, 1.63519, 2.5718, 1.81176, 1.89145, 3.25335, 0.5, 0.507717, 3.35651, 3.32506, 1.05735, 1.59151, 2.60202, 0.868737, 2.60868, 1.45236, 2.8767, 12.5817, 35, 12.3399, 20.615, 17.7576, 33.7058, 0.5, 2.2086, 4.49219, 0.521533, 0.703125, 3.57454, 1.32375, 0.5, 3.53538, 4.27056, 1.22948, 1.14083, 2.1446, 2.20424, 1.96104, 2.3198, 1.54687, 1.82346, 3.22698, 0.778605, 1.7414, 3.17747, 1.91045, 1.16509, 2.33292, 2.04677, 0.599128, 0.63446, 5.14332, 1.24341, 0.954258, 4.07886, 1.13576, 2.37027, 2.04029, 1.42056, 2.83431, 1.10327, 2.71016, 2.72216, 2.1301, 0.5, 1.53209, 2.281, 2.40503, 2.18578, 1.86167, 1.73443, 1.37888, 0.5, 3.68517, 2.2678, 3.31085, 0.85731, 1.65819, 3.48785, 2.43323, 0.5, 1.0792, 2.84153, 0.604221, 1.83231, 0.5, 1.61493, 4.32856, 3.11998, 2.26413, 1.06299, 1.88884, 2.27832, 2.21424, 2.29148, 3.33042, 0.786218, 1.01043, 3.19589, 0.5, 3.17704, 2.29831, 2.17468, 2.40911, 2.53069, 1.17653, 1.41068, 1.39781, 1.5314, 2.1906, 1.35996, 2.01672, 3.50351, 1.17117, 1.34719, 3.3889, 1.49879, 2.75224, 1.8417, 2.56654, 2.58568, 1.96223, 0.5, 2.58026, 1.8053, 0.5, 2.44487, 2.88778, 2.77599, 2.85053, 0.540841, 0.5, 4.13547, 4.13324, 0.602114, 1.27328, 1.3559, 2.10053, 2.27077, 1.69581, 2.41086, 2.27242, 1.24961, 1.70121, 3.12426, 2.78517, 0.96334, 1.21139, 2.21463, 2.55195, 2.33888, 1.12488, 1.28664, 2.49165, 2.206, 1.2706, 2.2993, 2.38943, 1.68816, 2.55896, 1.79355, 3.41952, 2.01037, 2.19211, 1.06076, 2.53684, 0.780401, 3.0517, 0.966597, 2.17906, 0.5, 3.13944, 2.16321, 4.00701, 1.14437, 1.66825, 1.46278, 0.5, 3.21759, 0.5, 2.20956, 3.44682, 1.98752, 2.67762, 1.17849, 1.89847, 1.28251, 2.3825, 2.37247, 1.96994, 2.09411, 2.33515, 1.65527, 1.94325, 1.54898, 1.9655, 2.55185, 2.18274, 0.5, 4.98818, 0.755168, 2.90778, 0.666132, 1.5655, 1.11219, 0.864467, 3.32768, 2.80025, 2.32992, 4.80928, 0.5, 0.877944, 0.527548, 0.644329, 4.6409, 2.55565, 2.59951, 2.2867, 1.42287, 0.851681, 2.28359, 4.41532, 0.5, 1.83263, 1.2317, 1.53574, 2.48461, 2.30571, 1.85041, 2.23376, 2.05481, 1.74023, 1.81507, 1.67615, 3.04315, 3.28507, 0.5, 2.93744, 0.558177, 2.41297, 2.36075, 2.18932, 1.05135, 1.98417, 2.00144, 1.52199, 2.30636, 1.96989, 1.97137, 1.243, 2.98739
cpi min/max: 0.5/35
neighbors of 0: 1 6, number of others: 45
neighbors of 1: 0 2 6 7, number of others: 43
neighbors of 2: 1 3 7 8, number of others: 43
neighbors of 3: 2 4 8 9, number of others: 43
neighbors of 4: 3 5 9 10, number of others: 43
neighbors of 5: 4 10 11, number of others: 44
neighbors of 6: 0 1 7 12, number of others: 43
neighbors of 7: 1 2 6 8 12 13, number of others: 41
neighbors of 8: 2 3 7 9 13 14, number of others: 41
neighbors of 9: 3 4 8 10 14 15, number of others: 41
neighbors of 10: 4 5 9 11 15 16, number of others: 41
neighbors of 11: 5 10 16 17, number of others: 43
neighbors of 12: 6 7 13 18, number of others: 43
neighbors of 13: 7 8 12 14 18 19, number of others: 41
neighbors of 14: 8 9 13 15 19 20, number of others: 41
neighbors of 15: 9 10 14 16 20 21, number of others: 41
neighbors of 16: 10 11 15 17 21 22, number of others: 41
neighbors of 17: 11 16 22 23, number of others: 43
neighbors of 18: 12 13 19 24, number of others: 43
neighbors of 19: 13 14 18 20 24 25, number of others: 41
neighbors of 20: 14 15 19 21 25 26, number of others: 41
neighbors of 21: 15 16 20 22 26 27, number of others: 41
neighbors of 22: 16 17 21 23 27 28, number of others: 41
neighbors of 23: 17 22 28 29, number of others: 43
neighbors of 24: 18 19 25 30, number of others: 43
neighbors of 25: 19 20 24 26 30 31, number of others: 41
neighbors of 26: 20 21 25 27 31 32, number of others: 41
neighbors of 27: 21 22 26 28 32 33, number of others: 41
neighbors of 28: 22 23 27 29 33 34, number of others: 41
neighbors of 29: 23 28 34 35, number of others: 43
neighbors of 30: 24 25 31 36, number of others: 43
neighbors of 31: 25 26 30 32 36 37, number of others: 41
neighbors of 32: 26 27 31 33 37 38, number of others: 41
neighbors of 33: 27 28 32 34 38 39, number of others: 41
neighbors of 34: 28 29 33 35 39 40, number of others: 41
neighbors of 35: 29 34 40 41, number of others: 43
neighbors of 36: 30 31 37 42, number of others: 43
neighbors of 37: 31 32 36 38 42 43, number of others: 41
neighbors of 38: 32 33 37 39 43 44, number of others: 41
neighbors of 39: 33 34 38 40 44 45, number of others: 41
neighbors of 40: 34 35 39 41 45 46, number of others: 41
neighbors of 41: 35 40 46 47, number of others: 43
neighbors of 42: 36 37 43, number of others: 44
neighbors of 43: 37 38 42 44, number of others: 43
neighbors of 44: 38 39 43 45, number of others: 43
neighbors of 45: 39 40 44 46, number of others: 43
neighbors of 46: 40 41 45 47, number of others: 43
neighbors of 47: 41 46, number of others: 45
Run model...
Preprocess model 0% ...Preprocess model 16% ...Preprocess model 32% ...Preprocess model 48% ...Preprocess model 66% ...Preprocess model 84% ...Preprocess model 100% ...
Close model 0% ...Close model 9% ...Close model 18% ...Close model 27% ...Close model 36% ...Close model 45% ...Close model 54% ...Close model 63% ...Close model 72% ...Close model 81% ...Close model 91% ...Close model 100% ...
Run param...
Run solver...
Initialize threads 0% ...Initialize threads 100% ...
Push initial solutions 0% ...Push initial solutions 100% ...

Model: 
  expressions = 30666, operands = 74976
  decisions = 13824, constraints = 336, objectives = 1

Param: 
  time limit = 90 sec, no iteration limit
  seed = 201, nb threads = 1, annealing level = 1

Objectives:
  Obj 0: maximize, no bound

Phases:
  Phase 0: time limit = 90 sec, no iteration limit, optimized objective = 0


Computed bounds:
  Obj 0: upper bound = 0.650128


Phase 0:
[0 sec, 0 itr]: infeas = (336, 336, 576), mov = 0, inf < 0.1%, acc < 0.1%, imp = 0

worst case efficiency: 0.965273
[1 sec, 22678 itr]: obj = (0.0537409), mov = 22678, inf = 95%, acc = 4.1%, imp = 212

worst case efficiency: 0.632245
[2 sec, 43914 itr]: obj = (0.0716299), mov = 43914, inf = 97.4%, acc = 2.2%, imp = 240

worst case efficiency: 0.642978
[3 sec, 58286 itr]: obj = (0.076628), mov = 58286, inf = 98%, acc = 1.7%, imp = 263

worst case efficiency: 0.645977
[4 sec, 69435 itr]: obj = (0.0778359), mov = 69435, inf = 98.3%, acc = 1.5%, imp = 281

worst case efficiency: 0.646702
[5 sec, 77857 itr]: obj = (0.08112), mov = 77857, inf = 98.4%, acc = 1.4%, imp = 299

worst case efficiency: 0.648672
[6 sec, 85445 itr]: obj = (0.0815401), mov = 85445, inf = 98.5%, acc = 1.3%, imp = 313

worst case efficiency: 0.648924
[7 sec, 91875 itr]: obj = (0.0815401), mov = 91875, inf = 98.6%, acc = 1.2%, imp = 313

worst case efficiency: 0.648924
[8 sec, 97455 itr]: obj = (0.0815401), mov = 97455, inf = 98.7%, acc = 1.1%, imp = 313

worst case efficiency: 0.648924
[9 sec, 102808 itr]: obj = (0.0815401), mov = 102808, inf = 98.8%, acc = 1.1%, imp = 313

worst case efficiency: 0.648924
[10 sec, 108169 itr]: obj = (0.0815401), mov = 108169, inf = 98.8%, acc = 1%, imp = 313

worst case efficiency: 0.648924
[11 sec, 114030 itr]: obj = (0.0815401), mov = 114030, inf = 98.9%, acc = 1%, imp = 313

worst case efficiency: 0.648924
[12 sec, 119550 itr]: obj = (0.0815401), mov = 119550, inf = 98.9%, acc = 0.9%, imp = 313

worst case efficiency: 0.648924
[13 sec, 125949 itr]: obj = (0.0815401), mov = 125949, inf = 99%, acc = 0.9%, imp = 313

worst case efficiency: 0.648924
[14 sec, 134023 itr]: obj = (0.0815401), mov = 134023, inf = 99.1%, acc = 0.9%, imp = 313

worst case efficiency: 0.648924
[15 sec, 145489 itr]: obj = (0.0815401), mov = 145489, inf = 99.1%, acc = 0.8%, imp = 313

worst case efficiency: 0.648924
[16 sec, 168512 itr]: obj = (0.0815401), mov = 168512, inf = 99.3%, acc = 0.7%, imp = 313

worst case efficiency: 0.648924
[17 sec, 188643 itr]: obj = (0.0815401), mov = 188643, inf = 99.3%, acc = 0.6%, imp = 313

worst case efficiency: 0.648924
[18 sec, 205200 itr]: obj = (0.0815401), mov = 205200, inf = 99.4%, acc = 0.6%, imp = 313

worst case efficiency: 0.648924
[19 sec, 221484 itr]: obj = (0.0815401), mov = 221484, inf = 99.4%, acc = 0.5%, imp = 313

worst case efficiency: 0.648924
[20 sec, 237908 itr]: obj = (0.0815401), mov = 237908, inf = 99.5%, acc = 0.5%, imp = 313

worst case efficiency: 0.648924
[21 sec, 254279 itr]: obj = (0.0815401), mov = 254279, inf = 99.5%, acc = 0.5%, imp = 313

worst case efficiency: 0.648924
[22 sec, 271312 itr]: obj = (0.0815401), mov = 271312, inf = 99.5%, acc = 0.5%, imp = 313

worst case efficiency: 0.648924
[23 sec, 288157 itr]: obj = (0.0815401), mov = 288157, inf = 99.6%, acc = 0.4%, imp = 313

worst case efficiency: 0.648924
[24 sec, 304369 itr]: obj = (0.0815401), mov = 304369, inf = 99.6%, acc = 0.4%, imp = 313

worst case efficiency: 0.648924
[25 sec, 321133 itr]: obj = (0.0815401), mov = 321133, inf = 99.6%, acc = 0.4%, imp = 313

worst case efficiency: 0.648924
[26 sec, 339054 itr]: obj = (0.0815401), mov = 339054, inf = 99.6%, acc = 0.4%, imp = 313

worst case efficiency: 0.648924
[27 sec, 356930 itr]: obj = (0.0815401), mov = 356930, inf = 99.6%, acc = 0.4%, imp = 313

worst case efficiency: 0.648924
[28 sec, 374464 itr]: obj = (0.0815401), mov = 374464, inf = 99.7%, acc = 0.4%, imp = 313

worst case efficiency: 0.648924
[29 sec, 391931 itr]: obj = (0.0815401), mov = 391931, inf = 99.7%, acc = 0.3%, imp = 313

worst case efficiency: 0.648924
[30 sec, 409675 itr]: obj = (0.0815401), mov = 409675, inf = 99.7%, acc = 0.3%, imp = 313

worst case efficiency: 0.648924
[31 sec, 427846 itr]: obj = (0.0815401), mov = 427846, inf = 99.7%, acc = 0.3%, imp = 313

worst case efficiency: 0.648924
[32 sec, 442140 itr]: obj = (0.0815401), mov = 442140, inf = 99.7%, acc = 0.3%, imp = 313

worst case efficiency: 0.648924
[33 sec, 449997 itr]: obj = (0.0815401), mov = 449997, inf = 99.7%, acc = 0.3%, imp = 313

worst case efficiency: 0.648924
[34 sec, 462234 itr]: obj = (0.0815401), mov = 462234, inf = 99.7%, acc = 0.3%, imp = 313

worst case efficiency: 0.648924
[35 sec, 476428 itr]: obj = (0.0815401), mov = 476428, inf = 99.7%, acc = 0.3%, imp = 313

worst case efficiency: 0.648924
[36 sec, 491771 itr]: obj = (0.0815401), mov = 491771, inf = 99.7%, acc = 0.3%, imp = 313

worst case efficiency: 0.648924
[37 sec, 505787 itr]: obj = (0.0815401), mov = 505787, inf = 99.8%, acc = 0.3%, imp = 314

worst case efficiency: 0.648924
[38 sec, 518641 itr]: obj = (0.0815401), mov = 518641, inf = 99.8%, acc = 0.3%, imp = 314

worst case efficiency: 0.648924
[39 sec, 531064 itr]: obj = (0.0815599), mov = 531064, inf = 99.8%, acc = 0.3%, imp = 315

worst case efficiency: 0.648936
[40 sec, 545603 itr]: obj = (0.0815627), mov = 545603, inf = 99.8%, acc = 0.3%, imp = 316

worst case efficiency: 0.648938
[41 sec, 561282 itr]: obj = (0.0815627), mov = 561282, inf = 99.8%, acc = 0.3%, imp = 316

worst case efficiency: 0.648938
[42 sec, 569283 itr]: obj = (0.0815627), mov = 569283, inf = 99.8%, acc = 0.3%, imp = 316

worst case efficiency: 0.648938
[43 sec, 580684 itr]: obj = (0.0816966), mov = 580684, inf = 99.8%, acc = 0.3%, imp = 318

worst case efficiency: 0.649018
[44 sec, 596265 itr]: obj = (0.0817506), mov = 596265, inf = 99.8%, acc = 0.3%, imp = 319

worst case efficiency: 0.64905
[45 sec, 608721 itr]: obj = (0.0817506), mov = 608721, inf = 99.8%, acc = 0.3%, imp = 319

worst case efficiency: 0.64905
[46 sec, 623019 itr]: obj = (0.081848), mov = 623019, inf = 99.8%, acc = 0.3%, imp = 320

worst case efficiency: 0.649109
[47 sec, 639251 itr]: obj = (0.081903), mov = 639251, inf = 99.8%, acc = 0.3%, imp = 322

worst case efficiency: 0.649142
[48 sec, 656292 itr]: obj = (0.0819083), mov = 656292, inf = 99.8%, acc = 0.3%, imp = 323

worst case efficiency: 0.649145
[49 sec, 673080 itr]: obj = (0.0820161), mov = 673080, inf = 99.8%, acc = 0.3%, imp = 324

worst case efficiency: 0.64921
[50 sec, 686703 itr]: obj = (0.0820161), mov = 686703, inf = 99.8%, acc = 0.2%, imp = 324

worst case efficiency: 0.64921
[51 sec, 702602 itr]: obj = (0.0820161), mov = 702602, inf = 99.8%, acc = 0.2%, imp = 324

worst case efficiency: 0.64921
[52 sec, 718569 itr]: obj = (0.0821206), mov = 718569, inf = 99.8%, acc = 0.2%, imp = 327

worst case efficiency: 0.649272
[53 sec, 734647 itr]: obj = (0.0821206), mov = 734647, inf = 99.8%, acc = 0.2%, imp = 327

worst case efficiency: 0.649272
[54 sec, 750166 itr]: obj = (0.0821206), mov = 750166, inf = 99.8%, acc = 0.2%, imp = 327

worst case efficiency: 0.649272
[55 sec, 766002 itr]: obj = (0.082127), mov = 766002, inf = 99.8%, acc = 0.2%, imp = 328

worst case efficiency: 0.649276
[56 sec, 780402 itr]: obj = (0.082127), mov = 780402, inf = 99.8%, acc = 0.2%, imp = 329

worst case efficiency: 0.649276
[57 sec, 795229 itr]: obj = (0.0821481), mov = 795229, inf = 99.8%, acc = 0.2%, imp = 330

worst case efficiency: 0.649289
[58 sec, 809176 itr]: obj = (0.0821481), mov = 809176, inf = 99.8%, acc = 0.2%, imp = 331

worst case efficiency: 0.649289
[59 sec, 823672 itr]: obj = (0.0821481), mov = 823672, inf = 99.8%, acc = 0.2%, imp = 331

worst case efficiency: 0.649289
[60 sec, 835539 itr]: obj = (0.0821672), mov = 835539, inf = 99.8%, acc = 0.2%, imp = 332

worst case efficiency: 0.6493
[61 sec, 847745 itr]: obj = (0.0821672), mov = 847745, inf = 99.8%, acc = 0.2%, imp = 332

worst case efficiency: 0.6493
[62 sec, 859942 itr]: obj = (0.0822379), mov = 859942, inf = 99.8%, acc = 0.2%, imp = 336

worst case efficiency: 0.649343
[63 sec, 873294 itr]: obj = (0.0822552), mov = 873294, inf = 99.8%, acc = 0.2%, imp = 338

worst case efficiency: 0.649353
[64 sec, 889135 itr]: obj = (0.0823613), mov = 889135, inf = 99.8%, acc = 0.2%, imp = 341

worst case efficiency: 0.649417
[65 sec, 904945 itr]: obj = (0.0823845), mov = 904945, inf = 99.8%, acc = 0.2%, imp = 343

worst case efficiency: 0.649431
[66 sec, 921799 itr]: obj = (0.0824009), mov = 921799, inf = 99.8%, acc = 0.2%, imp = 346

worst case efficiency: 0.649441
[67 sec, 938391 itr]: obj = (0.0824177), mov = 938391, inf = 99.8%, acc = 0.2%, imp = 347

worst case efficiency: 0.649451
[68 sec, 952697 itr]: obj = (0.0824277), mov = 952697, inf = 99.8%, acc = 0.2%, imp = 349

worst case efficiency: 0.649457
[69 sec, 967949 itr]: obj = (0.0824588), mov = 967949, inf = 99.8%, acc = 0.2%, imp = 350

worst case efficiency: 0.649475
[70 sec, 985276 itr]: obj = (0.0824588), mov = 985276, inf = 99.8%, acc = 0.2%, imp = 350

worst case efficiency: 0.649475
[71 sec, 1001220 itr]: obj = (0.0825925), mov = 1001220, inf = 99.8%, acc = 0.2%, imp = 352

worst case efficiency: 0.649556
[72 sec, 1013564 itr]: obj = (0.0827195), mov = 1013564, inf = 99.8%, acc = 0.2%, imp = 353

worst case efficiency: 0.649632
[73 sec, 1028551 itr]: obj = (0.0828398), mov = 1028551, inf = 99.8%, acc = 0.2%, imp = 355

worst case efficiency: 0.649704
[74 sec, 1045437 itr]: obj = (0.0829117), mov = 1045437, inf = 99.8%, acc = 0.2%, imp = 356

worst case efficiency: 0.649747
[75 sec, 1062454 itr]: obj = (0.0831839), mov = 1062454, inf = 99.8%, acc = 0.2%, imp = 360

worst case efficiency: 0.64991
[76 sec, 1079447 itr]: obj = (0.0832289), mov = 1079447, inf = 99.8%, acc = 0.2%, imp = 361

worst case efficiency: 0.649937
[77 sec, 1095978 itr]: obj = (0.0832289), mov = 1095978, inf = 99.8%, acc = 0.2%, imp = 361

worst case efficiency: 0.649937
[78 sec, 1112832 itr]: obj = (0.0833471), mov = 1112832, inf = 99.8%, acc = 0.2%, imp = 363

worst case efficiency: 0.650008
[79 sec, 1129017 itr]: obj = (0.083764), mov = 1129017, inf = 99.9%, acc = 0.2%, imp = 367

worst case efficiency: 0.650258
[80 sec, 1145647 itr]: obj = (0.0837931), mov = 1145647, inf = 99.9%, acc = 0.2%, imp = 369

worst case efficiency: 0.650276
[81 sec, 1162023 itr]: obj = (0.0837931), mov = 1162023, inf = 99.9%, acc = 0.2%, imp = 369

worst case efficiency: 0.650276
[82 sec, 1178595 itr]: obj = (0.0839425), mov = 1178595, inf = 99.9%, acc = 0.2%, imp = 370

worst case efficiency: 0.650365
[83 sec, 1194728 itr]: obj = (0.0844087), mov = 1194728, inf = 99.9%, acc = 0.2%, imp = 373

worst case efficiency: 0.650645
[84 sec, 1210702 itr]: obj = (0.0844207), mov = 1210702, inf = 99.9%, acc = 0.2%, imp = 375

worst case efficiency: 0.650652
[85 sec, 1226936 itr]: obj = (0.0845431), mov = 1226936, inf = 99.9%, acc = 0.2%, imp = 378

worst case efficiency: 0.650726
[86 sec, 1242698 itr]: obj = (0.0845565), mov = 1242698, inf = 99.9%, acc = 0.2%, imp = 379

worst case efficiency: 0.650734
[87 sec, 1258004 itr]: obj = (0.0845565), mov = 1258004, inf = 99.9%, acc = 0.2%, imp = 379

worst case efficiency: 0.650734
[88 sec, 1273278 itr]: obj = (0.0845742), mov = 1273278, inf = 99.9%, acc = 0.2%, imp = 380

worst case efficiency: 0.650745
[89 sec, 1288731 itr]: obj = (0.0845742), mov = 1288731, inf = 99.9%, acc = 0.2%, imp = 380

worst case efficiency: 0.650745
[90 sec, 1304442 itr]: obj = (0.0845742), mov = 1304442, inf = 99.9%, acc = 0.2%, imp = 380

worst case efficiency: 0.650745
[90 sec, 1304442 itr]: obj = (0.0845742), mov = 1304442, inf = 99.9%, acc = 0.2%, imp = 380

worst case efficiency: 0.650745
1304442 iterations, 1304442 moves performed in 90 seconds
Feasible solution: obj = (0.0845742)

Run output...
FINAL SOLUTION
Worst case efficiency: 0.650745
Mapping: 0->26, 1->47, 2->31, 3->1, 4->44, 5->24, 6->1, 7->7, 8->28, 9->36, 10->10, 11->9, 12->0, 13->25, 14->37, 15->38, 16->43, 17->27, 18->19, 19->47, 20->45, 21->38, 22->42, 23->9, 24->34, 25->35, 26->21, 27->23, 28->14, 29->24, 30->30, 31->5, 32->20, 33->14, 34->28, 35->12, 36->18, 37->31, 38->6, 39->18, 40->5, 41->31, 42->8, 43->4, 44->23, 45->21, 46->4, 47->46, 48->11, 49->22, 50->36, 51->40, 52->25, 53->13, 54->4, 55->10, 56->18, 57->20, 58->30, 59->38, 60->23, 61->10, 62->16, 63->46, 64->11, 65->42, 66->2, 67->5, 68->25, 69->12, 70->1, 71->46, 72->6, 73->12, 74->40, 75->45, 76->15, 77->35, 78->28, 79->29, 80->39, 81->34, 82->3, 83->3, 84->45, 85->43, 86->1, 87->39, 88->32, 89->29, 90->3, 91->27, 92->0, 93->43, 94->44, 95->5, 96->38, 97->2, 98->47, 99->16, 100->38, 101->22, 102->17, 103->3, 104->14, 105->14, 106->25, 107->36, 108->4, 109->20, 110->32, 111->26, 112->7, 113->15, 114->8, 115->40, 116->39, 117->2, 118->0, 119->13, 120->29, 121->14, 122->7, 123->41, 124->33, 125->43, 126->34, 127->0, 128->19, 129->37, 130->18, 131->39, 132->21, 133->6, 134->30, 135->14, 136->1, 137->44, 138->12, 139->4, 140->11, 141->40, 142->11, 143->18, 144->16, 145->43, 146->19, 147->2, 148->17, 149->16, 150->41, 151->37, 152->26, 153->28, 154->13, 155->31, 156->10, 157->32, 158->8, 159->3, 160->36, 161->0, 162->30, 163->45, 164->39, 165->31, 166->26, 167->6, 168->42, 169->13, 170->37, 171->15, 172->43, 173->27, 174->33, 175->34, 176->34, 177->22, 178->46, 179->15, 180->42, 181->7, 182->32, 183->37, 184->8, 185->35, 186->20, 187->27, 188->41, 189->31, 190->23, 191->17, 192->5, 193->38, 194->2, 195->46, 196->5, 197->41, 198->34, 199->9, 200->45, 201->20, 202->24, 203->20, 204->47, 205->17, 206->9, 207->11, 208->33, 209->19, 210->26, 211->16, 212->0, 213->6, 214->29, 215->32, 216->13, 217->25, 218->22, 219->42, 220->28, 221->16, 222->44, 223->12, 224->33, 225->42, 226->46, 227->40, 228->33, 229->29, 230->21, 231->8, 232->25, 233->19, 234->22, 235->29, 236->19, 237->35, 238->18, 239->41, 240->23, 241->24, 242->35, 243->21, 244->9, 245->39, 246->30, 247->3, 248->30, 249->7, 250->36, 251->40, 252->27, 253->22, 254->36, 255->13, 256->24, 257->23, 258->8, 259->47, 260->45, 261->28, 262->21, 263->32, 264->24, 265->6, 266->37, 267->11, 268->17, 269->33, 270->15, 271->47, 272->26, 273->35, 274->2, 275->17, 276->10, 277->44, 278->44, 279->9, 280->10, 281->4, 282->15, 283->12, 284->41, 285->1, 286->7, 287->27
Number of tasks per core:
	6	6	6	6	6	6
	6	6	6	6	6	6
	6	6	6	6	6	6
	6	6	6	6	6	6
	6	6	6	6	6	6
	6	6	6	6	6	6
	6	6	6	6	6	6
	6	6	6	6	6	6
Average CPI map:
	4.09858	1.27535	1.60231	1.21847	3.6603	1.51026
	1.40334	1.95487	2.34158	1.73868	7.88183	1.40585
	2.28238	2.42147	2.47113	1.24234	2.40642	1.5033
	3.98736	2.38045	4.50147	2.58189	2.29032	1.51544
	1.67571	5.9759	3.15416	6.80373	2.48869	0.88025
	4.24636	2.19664	3.31692	2.68354	2.48997	1.3707
	1.43574	5.54341	11.4076	2.05305	2.88721	1.39009
	2.01279	4.31156	2.20257	2.37583	1.44171	1.98041
Efficiency map:
	0.996605	0.933947	0.908424	0.89322	0.960804	0.995984
	0.809805	0.65644	0.667808	0.652177	0.892094	0.830411
	0.841615	0.650789	0.653962	0.662197	0.653639	0.810367
	0.884061	0.652669	0.729109	0.661215	0.6632	0.807842
	0.82045	0.821392	0.655214	0.775385	0.652304	0.695957
	0.914187	0.651995	0.650745	0.652616	0.663638	0.798415
	0.871815	0.752194	0.95207	0.65282	0.681129	0.782669
	0.84764	0.959231	0.687249	0.696045	0.666253	0.841929
==============================================================================
Local Solver optimizer for EML demonstration
==============================================================================

Option values: --wld-idx 2 --global-tlim 90 --seed 201

Starting the Optimization Process
