==============================================================================
LNS optimizer for EML demonstration
==============================================================================

Option values: --wld-idx 12 --prec 10000 --step 0 --global-tlim 90 --global-iter 1000 --local-tlim 3 --local-nsol 1 --restart-base 100 --restart-strat luby --seed 801

Starting the Optimization Process
reserved_tasks None
Finding a first solution
LNS iteration #0 ========================================
- worst case average CPI: 2.102
- worst case efficiency: 0.636
- efficiency to beat: 0.636
- normalized lower bound 676
--- checking solution
--- solution ok! Maximum rounding error: 0.000069
- solution found, obj var is: 717
- de-normalized obj var: 0.643020
- time (local/global): 0.000/0.000
- branches (local/global): 21/21
- fails (local/global): 0/0
- lns time: 0.005000
- lns branches: 21
- lns fails: 0
LNS iteration #1 ========================================
- worst case average CPI: 1.886
- worst case efficiency: 0.636
- efficiency to beat: 0.636
- normalized lower bound 691
--- checking solution
--- solution ok! Maximum rounding error: 0.000059
- solution found, obj var is: 1288
- de-normalized obj var: 0.677280
- time (local/global): 0.001/0.006
- branches (local/global): 20/41
- fails (local/global): 0/0
- lns time: 0.005000
- lns branches: 20
- lns fails: 0
LNS iteration #2 ========================================
- worst case average CPI: 1.886
- worst case efficiency: 0.642
- efficiency to beat: 0.642
- normalized lower bound 791
--- checking solution
--- solution ok! Maximum rounding error: 0.000009
- solution found, obj var is: 808
- de-normalized obj var: 0.648480
- time (local/global): 0.001/0.011
- branches (local/global): 26/67
- fails (local/global): 2/2
- lns time: 0.005000
- lns branches: 26
- lns fails: 2
LNS iteration #3 ========================================
- worst case average CPI: 1.559
- worst case efficiency: 0.643
- efficiency to beat: 0.643
- normalized lower bound 804
--- checking solution
--- solution ok! Maximum rounding error: 0.000087
- solution found, obj var is: 826
- de-normalized obj var: 0.649560
- time (local/global): 0.001/0.016
- branches (local/global): 27/94
- fails (local/global): 2/4
- lns time: 0.005000
- lns branches: 27
- lns fails: 2
LNS iteration #4 ========================================
- worst case average CPI: 1.559
- worst case efficiency: 0.646
- efficiency to beat: 0.646
- normalized lower bound 842
--- checking solution
--- solution ok! Maximum rounding error: 0.000026
- solution found, obj var is: 1248
- de-normalized obj var: 0.674880
- time (local/global): 0.001/0.021
- branches (local/global): 24/118
- fails (local/global): 1/5
- lns time: 0.005000
- lns branches: 24
- lns fails: 1
LNS iteration #5 ========================================
- worst case average CPI: 1.499
- worst case efficiency: 0.646
- efficiency to beat: 0.646
- normalized lower bound 846
- lns time: 3.004000
- lns branches: 301134
- lns fails: 148563
LNS iteration #6 ========================================
- worst case average CPI: 1.499
- worst case efficiency: 0.646
- efficiency to beat: 0.646
- normalized lower bound 846
--- checking solution
--- solution ok! Maximum rounding error: 0.000097
- solution found, obj var is: 848
- de-normalized obj var: 0.650880
- time (local/global): 0.002/3.031
- branches (local/global): 108/301360
- fails (local/global): 45/148613
- lns time: 0.006000
- lns branches: 108
- lns fails: 45
LNS iteration #7 ========================================
- worst case average CPI: 1.338
- worst case efficiency: 0.647
- efficiency to beat: 0.647
- normalized lower bound 860
--- checking solution
--- solution ok! Maximum rounding error: 0.000062
- solution found, obj var is: 890
- de-normalized obj var: 0.653400
- time (local/global): 0.002/3.037
- branches (local/global): 131/301491
- fails (local/global): 56/148669
- lns time: 0.006000
- lns branches: 131
- lns fails: 56
LNS iteration #8 ========================================
- worst case average CPI: 1.338
- worst case efficiency: 0.649
- efficiency to beat: 0.649
- normalized lower bound 898
--- checking solution
--- solution ok! Maximum rounding error: 0.000078
- solution found, obj var is: 902
- de-normalized obj var: 0.654120
- time (local/global): 0.021/3.062
- branches (local/global): 1545/303036
- fails (local/global): 720/149389
- lns time: 0.025000
- lns branches: 1545
- lns fails: 720
LNS iteration #9 ========================================
- worst case average CPI: 1.338
- worst case efficiency: 0.650
- efficiency to beat: 0.650
- normalized lower bound 920
--- checking solution
--- solution ok! Maximum rounding error: 0.000093
- solution found, obj var is: 1113
- de-normalized obj var: 0.666780
- time (local/global): 0.001/3.067
- branches (local/global): 22/303058
- fails (local/global): 0/149389
- lns time: 0.005000
- lns branches: 22
- lns fails: 0
LNS iteration #10 ========================================
- worst case average CPI: 1.338
- worst case efficiency: 0.653
- efficiency to beat: 0.653
- normalized lower bound 973
--- checking solution
--- solution ok! Maximum rounding error: 0.000168
- solution found, obj var is: 994
- de-normalized obj var: 0.659640
- time (local/global): 0.001/3.072
- branches (local/global): 30/303088
- fails (local/global): 4/149393
- lns time: 0.005000
- lns branches: 30
- lns fails: 4
LNS iteration #11 ========================================
- worst case average CPI: 1.338
- worst case efficiency: 0.654
- efficiency to beat: 0.654
- normalized lower bound 990
--- checking solution
--- solution ok! Maximum rounding error: 0.000065
- solution found, obj var is: 1200
- de-normalized obj var: 0.672000
- time (local/global): 0.001/3.077
- branches (local/global): 24/303112
- fails (local/global): 1/149394
- lns time: 0.005000
- lns branches: 24
- lns fails: 1
LNS iteration #12 ========================================
- worst case average CPI: 1.338
- worst case efficiency: 0.657
- efficiency to beat: 0.657
- normalized lower bound 1033
--- checking solution
--- solution ok! Maximum rounding error: 0.000038
- solution found, obj var is: 1036
- de-normalized obj var: 0.662160
- time (local/global): 0.027/3.108
- branches (local/global): 1870/304982
- fails (local/global): 884/150278
- lns time: 0.031000
- lns branches: 1870
- lns fails: 884
LNS iteration #13 ========================================
- worst case average CPI: 1.338
- worst case efficiency: 0.658
- efficiency to beat: 0.658
- normalized lower bound 1043
--- checking solution
--- solution ok! Maximum rounding error: 0.000038
- solution found, obj var is: 1282
- de-normalized obj var: 0.676920
- time (local/global): 0.001/3.113
- branches (local/global): 25/305007
- fails (local/global): 1/150279
- lns time: 0.005000
- lns branches: 25
- lns fails: 1
LNS iteration #14 ========================================
- worst case average CPI: 1.338
- worst case efficiency: 0.660
- efficiency to beat: 0.660
- normalized lower bound 1081
--- checking solution
--- solution ok! Maximum rounding error: 0.000232
- solution found, obj var is: 1400
- de-normalized obj var: 0.684000
- time (local/global): 0.001/3.118
- branches (local/global): 25/305032
- fails (local/global): 2/150281
- lns time: 0.006000
- lns branches: 25
- lns fails: 2
LNS iteration #15 ========================================
- worst case average CPI: 1.338
- worst case efficiency: 0.663
- efficiency to beat: 0.663
- normalized lower bound 1128
- lns time: 3.004000
- lns branches: 181598
- lns fails: 88829
LNS iteration #16 ========================================
- worst case average CPI: 1.338
- worst case efficiency: 0.663
- efficiency to beat: 0.663
- normalized lower bound 1128
--- checking solution
--- solution ok! Maximum rounding error: 0.000010
- solution found, obj var is: 1129
- de-normalized obj var: 0.667740
- time (local/global): 0.007/6.134
- branches (local/global): 502/487132
- fails (local/global): 223/239333
- lns time: 0.011000
- lns branches: 502
- lns fails: 223
LNS iteration #17 ========================================
- worst case average CPI: 1.338
- worst case efficiency: 0.663
- efficiency to beat: 0.663
- normalized lower bound 1131
--- checking solution
--- solution ok! Maximum rounding error: 0.000100
- solution found, obj var is: 1146
- de-normalized obj var: 0.668760
- time (local/global): 0.167/6.305
- branches (local/global): 10136/497268
- fails (local/global): 4859/244192
- lns time: 0.171000
- lns branches: 10136
- lns fails: 4859
LNS iteration #18 ========================================
- worst case average CPI: 1.338
- worst case efficiency: 0.663
- efficiency to beat: 0.663
- normalized lower bound 1138
- lns time: 3.004000
- lns branches: 226664
- lns fails: 111178
LNS iteration #19 ========================================
- worst case average CPI: 1.338
- worst case efficiency: 0.663
- efficiency to beat: 0.663
- normalized lower bound 1138
--- checking solution
--- solution ok! Maximum rounding error: 0.000071
- solution found, obj var is: 1711
- de-normalized obj var: 0.702660
- time (local/global): 0.001/9.314
- branches (local/global): 27/723959
- fails (local/global): 2/355372
- lns time: 0.005000
- lns branches: 27
- lns fails: 2
LNS iteration #20 ========================================
- worst case average CPI: 1.338
- worst case efficiency: 0.668
- efficiency to beat: 0.668
- normalized lower bound 1214
--- checking solution
--- solution ok! Maximum rounding error: 0.000057
- solution found, obj var is: 1273
- de-normalized obj var: 0.676380
- time (local/global): 0.001/9.319
- branches (local/global): 37/723996
- fails (local/global): 8/355380
- lns time: 0.005000
- lns branches: 37
- lns fails: 8
LNS iteration #21 ========================================
- worst case average CPI: 1.338
- worst case efficiency: 0.668
- efficiency to beat: 0.668
- normalized lower bound 1217
--- checking solution
--- solution ok! Maximum rounding error: 0.000054
- solution found, obj var is: 2702
- de-normalized obj var: 0.762120
- time (local/global): 0.000/9.323
- branches (local/global): 22/724018
- fails (local/global): 0/355380
- lns time: 0.004000
- lns branches: 22
- lns fails: 0
LNS iteration #22 ========================================
- worst case average CPI: 1.560
- worst case efficiency: 0.668
- efficiency to beat: 0.668
- normalized lower bound 1222
--- checking solution
--- solution ok! Maximum rounding error: 0.000025
- solution found, obj var is: 1232
- de-normalized obj var: 0.673920
- time (local/global): 0.001/9.328
- branches (local/global): 23/724041
- fails (local/global): 2/355382
- lns time: 0.005000
- lns branches: 23
- lns fails: 2
LNS iteration #23 ========================================
- worst case average CPI: 1.220
- worst case efficiency: 0.669
- efficiency to beat: 0.669
- normalized lower bound 1238
--- checking solution
--- solution ok! Maximum rounding error: 0.000056
- solution found, obj var is: 1242
- de-normalized obj var: 0.674520
- time (local/global): 0.001/9.333
- branches (local/global): 21/724062
- fails (local/global): 0/355382
- lns time: 0.005000
- lns branches: 21
- lns fails: 0
LNS iteration #24 ========================================
- worst case average CPI: 1.548
- worst case efficiency: 0.671
- efficiency to beat: 0.671
- normalized lower bound 1270
--- checking solution
--- solution ok! Maximum rounding error: 0.000036
- solution found, obj var is: 1297
- de-normalized obj var: 0.677820
- time (local/global): 0.003/9.340
- branches (local/global): 261/724323
- fails (local/global): 112/355494
- lns time: 0.008000
- lns branches: 261
- lns fails: 112
LNS iteration #25 ========================================
- worst case average CPI: 1.548
- worst case efficiency: 0.674
- efficiency to beat: 0.674
- normalized lower bound 1309
--- checking solution
--- solution ok! Maximum rounding error: 0.000065
- solution found, obj var is: 1317
- de-normalized obj var: 0.679020
- time (local/global): 0.087/9.432
- branches (local/global): 7095/731418
- fails (local/global): 3400/358894
- lns time: 0.091000
- lns branches: 7095
- lns fails: 3400
LNS iteration #26 ========================================
- worst case average CPI: 1.365
- worst case efficiency: 0.674
- efficiency to beat: 0.674
- normalized lower bound 1312
--- checking solution
--- solution ok! Maximum rounding error: 0.000058
- solution found, obj var is: 1337
- de-normalized obj var: 0.680220
- time (local/global): 0.001/9.437
- branches (local/global): 22/731440
- fails (local/global): 1/358895
- lns time: 0.005000
- lns branches: 22
- lns fails: 1
LNS iteration #27 ========================================
- worst case average CPI: 1.365
- worst case efficiency: 0.674
- efficiency to beat: 0.674
- normalized lower bound 1320
--- checking solution
--- solution ok! Maximum rounding error: 0.000040
- solution found, obj var is: 1837
- de-normalized obj var: 0.710220
- time (local/global): 0.001/9.442
- branches (local/global): 22/731462
- fails (local/global): 0/358895
- lns time: 0.005000
- lns branches: 22
- lns fails: 0
LNS iteration #28 ========================================
- worst case average CPI: 1.365
- worst case efficiency: 0.670
- efficiency to beat: 0.670
- normalized lower bound 1254
--- checking solution
--- solution ok! Maximum rounding error: 0.000030
- solution found, obj var is: 1725
- de-normalized obj var: 0.703500
- time (local/global): 0.001/9.447
- branches (local/global): 78/731540
- fails (local/global): 29/358924
- lns time: 0.005000
- lns branches: 78
- lns fails: 29
LNS iteration #29 ========================================
- worst case average CPI: 1.365
- worst case efficiency: 0.674
- efficiency to beat: 0.674
- normalized lower bound 1310
--- checking solution
--- solution ok! Maximum rounding error: 0.000094
- solution found, obj var is: 1321
- de-normalized obj var: 0.679260
- time (local/global): 0.003/9.454
- branches (local/global): 238/731778
- fails (local/global): 101/359025
- lns time: 0.007000
- lns branches: 238
- lns fails: 101
LNS iteration #30 ========================================
- worst case average CPI: 1.497
- worst case efficiency: 0.674
- efficiency to beat: 0.674
- normalized lower bound 1323
--- checking solution
--- solution ok! Maximum rounding error: 0.000065
- solution found, obj var is: 1431
- de-normalized obj var: 0.685860
- time (local/global): 0.003/9.461
- branches (local/global): 250/732028
- fails (local/global): 107/359132
- lns time: 0.007000
- lns branches: 250
- lns fails: 107
LNS iteration #31 ========================================
- worst case average CPI: 1.196
- worst case efficiency: 0.677
- efficiency to beat: 0.677
- normalized lower bound 1375
--- checking solution
--- solution ok! Maximum rounding error: 0.000105
- solution found, obj var is: 1422
- de-normalized obj var: 0.685320
- time (local/global): 0.001/9.466
- branches (local/global): 21/732049
- fails (local/global): 0/359132
- lns time: 0.005000
- lns branches: 21
- lns fails: 0
LNS iteration #32 ========================================
- worst case average CPI: 1.196
- worst case efficiency: 0.678
- efficiency to beat: 0.678
- normalized lower bound 1381
--- checking solution
--- solution ok! Maximum rounding error: 0.000063
- solution found, obj var is: 1423
- de-normalized obj var: 0.685380
- time (local/global): 0.001/9.471
- branches (local/global): 24/732073
- fails (local/global): 1/359133
- lns time: 0.005000
- lns branches: 24
- lns fails: 1
LNS iteration #33 ========================================
- worst case average CPI: 1.196
- worst case efficiency: 0.678
- efficiency to beat: 0.678
- normalized lower bound 1390
--- checking solution
--- solution ok! Maximum rounding error: 0.000004
- solution found, obj var is: 1427
- de-normalized obj var: 0.685620
- time (local/global): 0.001/9.476
- branches (local/global): 75/732148
- fails (local/global): 28/359161
- lns time: 0.005000
- lns branches: 75
- lns fails: 28
LNS iteration #34 ========================================
- worst case average CPI: 1.196
- worst case efficiency: 0.679
- efficiency to beat: 0.679
- normalized lower bound 1397
--- checking solution
--- solution ok! Maximum rounding error: 0.000049
- solution found, obj var is: 1425
- de-normalized obj var: 0.685500
- time (local/global): 0.001/9.481
- branches (local/global): 22/732170
- fails (local/global): 1/359162
- lns time: 0.005000
- lns branches: 22
- lns fails: 1
LNS iteration #35 ========================================
- worst case average CPI: 0.958
- worst case efficiency: 0.680
- efficiency to beat: 0.680
- normalized lower bound 1416
--- checking solution
--- solution ok! Maximum rounding error: 0.000031
- solution found, obj var is: 1530
- de-normalized obj var: 0.691800
- time (local/global): 0.001/9.486
- branches (local/global): 24/732194
- fails (local/global): 1/359163
- lns time: 0.005000
- lns branches: 24
- lns fails: 1
LNS iteration #36 ========================================
- worst case average CPI: 0.958
- worst case efficiency: 0.681
- efficiency to beat: 0.681
- normalized lower bound 1430
--- checking solution
--- solution ok! Maximum rounding error: 0.000054
- solution found, obj var is: 3437
- de-normalized obj var: 0.806220
- time (local/global): 0.001/9.491
- branches (local/global): 25/732219
- fails (local/global): 2/359165
- lns time: 0.005000
- lns branches: 25
- lns fails: 2
LNS iteration #37 ========================================
- worst case average CPI: 0.958
- worst case efficiency: 0.684
- efficiency to beat: 0.684
- normalized lower bound 1487
--- checking solution
--- solution ok! Maximum rounding error: 0.000163
- solution found, obj var is: 1548
- de-normalized obj var: 0.692880
- time (local/global): 0.001/9.496
- branches (local/global): 21/732240
- fails (local/global): 1/359166
- lns time: 0.005000
- lns branches: 21
- lns fails: 1
LNS iteration #38 ========================================
- worst case average CPI: 0.958
- worst case efficiency: 0.684
- efficiency to beat: 0.684
- normalized lower bound 1488
--- checking solution
--- solution ok! Maximum rounding error: 0.000147
- solution found, obj var is: 1490
- de-normalized obj var: 0.689400
- time (local/global): 0.047/9.547
- branches (local/global): 3845/736085
- fails (local/global): 1813/360979
- lns time: 0.051000
- lns branches: 3845
- lns fails: 1813
LNS iteration #39 ========================================
- worst case average CPI: 0.958
- worst case efficiency: 0.684
- efficiency to beat: 0.684
- normalized lower bound 1489
--- checking solution
--- solution ok! Maximum rounding error: 0.000086
- solution found, obj var is: 1505
- de-normalized obj var: 0.690300
- time (local/global): 0.001/9.552
- branches (local/global): 22/736107
- fails (local/global): 0/360979
- lns time: 0.005000
- lns branches: 22
- lns fails: 0
LNS iteration #40 ========================================
- worst case average CPI: 0.958
- worst case efficiency: 0.685
- efficiency to beat: 0.685
- normalized lower bound 1494
--- checking solution
--- solution ok! Maximum rounding error: 0.000065
- solution found, obj var is: 1606
- de-normalized obj var: 0.696360
- time (local/global): 0.001/9.557
- branches (local/global): 26/736133
- fails (local/global): 3/360982
- lns time: 0.005000
- lns branches: 26
- lns fails: 3
LNS iteration #41 ========================================
- worst case average CPI: 0.958
- worst case efficiency: 0.686
- efficiency to beat: 0.686
- normalized lower bound 1512
--- checking solution
--- solution ok! Maximum rounding error: 0.000025
- solution found, obj var is: 2971
- de-normalized obj var: 0.778260
- time (local/global): 0.002/9.563
- branches (local/global): 174/736307
- fails (local/global): 76/361058
- lns time: 0.006000
- lns branches: 174
- lns fails: 76
LNS iteration #42 ========================================
- worst case average CPI: 1.231
- worst case efficiency: 0.687
- efficiency to beat: 0.687
- normalized lower bound 1534
--- checking solution
--- solution ok! Maximum rounding error: 0.000113
- solution found, obj var is: 1535
- de-normalized obj var: 0.692100
- time (local/global): 0.000/9.567
- branches (local/global): 16/736323
- fails (local/global): 1/361059
- lns time: 0.004000
- lns branches: 16
- lns fails: 1
LNS iteration #43 ========================================
- worst case average CPI: 1.231
- worst case efficiency: 0.687
- efficiency to beat: 0.687
- normalized lower bound 1541
--- checking solution
--- solution ok! Maximum rounding error: 0.000027
- solution found, obj var is: 1881
- de-normalized obj var: 0.712860
- time (local/global): 0.001/9.572
- branches (local/global): 22/736345
- fails (local/global): 0/361059
- lns time: 0.005000
- lns branches: 22
- lns fails: 0
LNS iteration #44 ========================================
- worst case average CPI: 1.231
- worst case efficiency: 0.683
- efficiency to beat: 0.683
- normalized lower bound 1460
--- checking solution
--- solution ok! Maximum rounding error: 0.000048
- solution found, obj var is: 1507
- de-normalized obj var: 0.690420
- time (local/global): 0.001/9.577
- branches (local/global): 19/736364
- fails (local/global): 0/361059
- lns time: 0.005000
- lns branches: 19
- lns fails: 0
LNS iteration #45 ========================================
- worst case average CPI: 1.231
- worst case efficiency: 0.689
- efficiency to beat: 0.689
- normalized lower bound 1567
--- checking solution
--- solution ok! Maximum rounding error: 0.000175
- solution found, obj var is: 1663
- de-normalized obj var: 0.699780
- time (local/global): 0.001/9.582
- branches (local/global): 24/736388
- fails (local/global): 1/361060
- lns time: 0.005000
- lns branches: 24
- lns fails: 1
LNS iteration #46 ========================================
- worst case average CPI: 1.231
- worst case efficiency: 0.690
- efficiency to beat: 0.690
- normalized lower bound 1581
--- checking solution
--- solution ok! Maximum rounding error: 0.000064
- solution found, obj var is: 3520
- de-normalized obj var: 0.811200
- time (local/global): 0.001/9.587
- branches (local/global): 22/736410
- fails (local/global): 0/361060
- lns time: 0.005000
- lns branches: 22
- lns fails: 0
LNS iteration #47 ========================================
- worst case average CPI: 1.231
- worst case efficiency: 0.690
- efficiency to beat: 0.690
- normalized lower bound 1590
--- checking solution
--- solution ok! Maximum rounding error: 0.000025
- solution found, obj var is: 1680
- de-normalized obj var: 0.700800
- time (local/global): 0.001/9.592
- branches (local/global): 25/736435
- fails (local/global): 2/361062
- lns time: 0.005000
- lns branches: 25
- lns fails: 2
LNS iteration #48 ========================================
- worst case average CPI: 1.231
- worst case efficiency: 0.692
- efficiency to beat: 0.692
- normalized lower bound 1620
--- checking solution
--- solution ok! Maximum rounding error: 0.000102
- solution found, obj var is: 1636
- de-normalized obj var: 0.698160
- time (local/global): 0.006/9.602
- branches (local/global): 460/736895
- fails (local/global): 202/361264
- lns time: 0.010000
- lns branches: 460
- lns fails: 202
LNS iteration #49 ========================================
- worst case average CPI: 1.231
- worst case efficiency: 0.693
- efficiency to beat: 0.693
- normalized lower bound 1628
--- checking solution
--- solution ok! Maximum rounding error: 0.000040
- solution found, obj var is: 1651
- de-normalized obj var: 0.699060
- time (local/global): 0.001/9.607
- branches (local/global): 32/736927
- fails (local/global): 5/361269
- lns time: 0.005000
- lns branches: 32
- lns fails: 5
LNS iteration #50 ========================================
- worst case average CPI: 1.231
- worst case efficiency: 0.693
- efficiency to beat: 0.693
- normalized lower bound 1633
--- checking solution
--- solution ok! Maximum rounding error: 0.000032
- solution found, obj var is: 1762
- de-normalized obj var: 0.705720
- time (local/global): 0.001/9.612
- branches (local/global): 25/736952
- fails (local/global): 2/361271
- lns time: 0.005000
- lns branches: 25
- lns fails: 2
LNS iteration #51 ========================================
- worst case average CPI: 1.231
- worst case efficiency: 0.694
- efficiency to beat: 0.694
- normalized lower bound 1652
--- checking solution
--- solution ok! Maximum rounding error: 0.000066
- solution found, obj var is: 1716
- de-normalized obj var: 0.702960
- time (local/global): 0.007/9.623
- branches (local/global): 496/737448
- fails (local/global): 224/361495
- lns time: 0.011000
- lns branches: 496
- lns fails: 224
LNS iteration #52 ========================================
- worst case average CPI: 1.231
- worst case efficiency: 0.694
- efficiency to beat: 0.694
- normalized lower bound 1652
--- checking solution
--- solution ok! Maximum rounding error: 0.000086
- solution found, obj var is: 1690
- de-normalized obj var: 0.701400
- time (local/global): 0.001/9.628
- branches (local/global): 97/737545
- fails (local/global): 38/361533
- lns time: 0.005000
- lns branches: 97
- lns fails: 38
LNS iteration #53 ========================================
- worst case average CPI: 1.231
- worst case efficiency: 0.697
- efficiency to beat: 0.697
- normalized lower bound 1703
--- checking solution
--- solution ok! Maximum rounding error: 0.000022
- solution found, obj var is: 1738
- de-normalized obj var: 0.704280
- time (local/global): 0.876/10.508
- branches (local/global): 75493/813038
- fails (local/global): 36735/398268
- lns time: 0.880000
- lns branches: 75493
- lns fails: 36735
LNS iteration #54 ========================================
- worst case average CPI: 1.231
- worst case efficiency: 0.698
- efficiency to beat: 0.698
- normalized lower bound 1714
--- checking solution
--- solution ok! Maximum rounding error: 0.000057
- solution found, obj var is: 1743
- de-normalized obj var: 0.704580
- time (local/global): 0.003/10.515
- branches (local/global): 258/813296
- fails (local/global): 110/398378
- lns time: 0.007000
- lns branches: 258
- lns fails: 110
LNS iteration #55 ========================================
- worst case average CPI: 1.231
- worst case efficiency: 0.700
- efficiency to beat: 0.700
- normalized lower bound 1750
--- checking solution
--- solution ok! Maximum rounding error: 0.000070
- solution found, obj var is: 1757
- de-normalized obj var: 0.705420
- time (local/global): 0.011/10.530
- branches (local/global): 1094/814390
- fails (local/global): 501/398879
- lns time: 0.015000
- lns branches: 1094
- lns fails: 501
LNS iteration #56 ========================================
- worst case average CPI: 1.231
- worst case efficiency: 0.700
- efficiency to beat: 0.700
- normalized lower bound 1755
--- checking solution
--- solution ok! Maximum rounding error: 0.000227
- solution found, obj var is: 1763
- de-normalized obj var: 0.705780
- time (local/global): 0.039/10.573
- branches (local/global): 2151/816541
- fails (local/global): 1023/399902
- lns time: 0.043000
- lns branches: 2151
- lns fails: 1023
LNS iteration #57 ========================================
- worst case average CPI: 1.231
- worst case efficiency: 0.701
- efficiency to beat: 0.701
- normalized lower bound 1769
--- checking solution
--- solution ok! Maximum rounding error: 0.000139
- solution found, obj var is: 1769
- de-normalized obj var: 0.706140
- time (local/global): 0.004/10.581
- branches (local/global): 278/816819
- fails (local/global): 122/400024
- lns time: 0.008000
- lns branches: 278
- lns fails: 122
LNS iteration #58 ========================================
- worst case average CPI: 1.231
- worst case efficiency: 0.703
- efficiency to beat: 0.703
- normalized lower bound 1797
--- checking solution
--- solution ok! Maximum rounding error: 0.000000
- solution found, obj var is: 1842
- de-normalized obj var: 0.710520
- time (local/global): 0.001/10.586
- branches (local/global): 71/816890
- fails (local/global): 26/400050
- lns time: 0.005000
- lns branches: 71
- lns fails: 26
LNS iteration #59 ========================================
- worst case average CPI: 1.231
- worst case efficiency: 0.704
- efficiency to beat: 0.704
- normalized lower bound 1822
--- checking solution
--- solution ok! Maximum rounding error: 0.000047
- solution found, obj var is: 1893
- de-normalized obj var: 0.713580
- time (local/global): 0.003/10.593
- branches (local/global): 248/817138
- fails (local/global): 104/400154
- lns time: 0.007000
- lns branches: 248
- lns fails: 104
LNS iteration #60 ========================================
- worst case average CPI: 1.231
- worst case efficiency: 0.704
- efficiency to beat: 0.704
- normalized lower bound 1823
--- checking solution
--- solution ok! Maximum rounding error: 0.000051
- solution found, obj var is: 1832
- de-normalized obj var: 0.709920
- time (local/global): 0.000/10.597
- branches (local/global): 22/817160
- fails (local/global): 0/400154
- lns time: 0.004000
- lns branches: 22
- lns fails: 0
LNS iteration #61 ========================================
- worst case average CPI: 1.231
- worst case efficiency: 0.705
- efficiency to beat: 0.705
- normalized lower bound 1838
--- checking solution
--- solution ok! Maximum rounding error: 0.000044
- solution found, obj var is: 1853
- de-normalized obj var: 0.711180
- time (local/global): 0.297/10.898
- branches (local/global): 26000/843160
- fails (local/global): 12576/412730
- lns time: 0.302000
- lns branches: 26000
- lns fails: 12576
LNS iteration #62 ========================================
- worst case average CPI: 1.155
- worst case efficiency: 0.705
- efficiency to beat: 0.705
- normalized lower bound 1837
--- checking solution
--- solution ok! Maximum rounding error: 0.000020
- solution found, obj var is: 1898
- de-normalized obj var: 0.713880
- time (local/global): 0.000/10.903
- branches (local/global): 36/843196
- fails (local/global): 11/412741
- lns time: 0.004000
- lns branches: 36
- lns fails: 11
LNS iteration #63 ========================================
- worst case average CPI: 1.203
- worst case efficiency: 0.706
- efficiency to beat: 0.706
- normalized lower bound 1846
--- checking solution
--- solution ok! Maximum rounding error: 0.000046
- solution found, obj var is: 1852
- de-normalized obj var: 0.711120
- time (local/global): 0.015/10.922
- branches (local/global): 1092/844288
- fails (local/global): 502/413243
- lns time: 0.019000
- lns branches: 1092
- lns fails: 502
LNS iteration #64 ========================================
- worst case average CPI: 1.203
- worst case efficiency: 0.704
- efficiency to beat: 0.704
- normalized lower bound 1814
--- checking solution
--- solution ok! Maximum rounding error: 0.000092
- solution found, obj var is: 1832
- de-normalized obj var: 0.709920
- time (local/global): 0.067/10.993
- branches (local/global): 5746/850034
- fails (local/global): 2756/415999
- lns time: 0.071000
- lns branches: 5746
- lns fails: 2756
LNS iteration #65 ========================================
- worst case average CPI: 1.203
- worst case efficiency: 0.710
- efficiency to beat: 0.710
- normalized lower bound 1916
--- checking solution
--- solution ok! Maximum rounding error: 0.000090
- solution found, obj var is: 1961
- de-normalized obj var: 0.717660
- time (local/global): 0.006/11.003
- branches (local/global): 290/850324
- fails (local/global): 128/416127
- lns time: 0.010000
- lns branches: 290
- lns fails: 128
LNS iteration #66 ========================================
- worst case average CPI: 1.203
- worst case efficiency: 0.711
- efficiency to beat: 0.711
- normalized lower bound 1931
--- checking solution
--- solution ok! Maximum rounding error: 0.000084
- solution found, obj var is: 1968
- de-normalized obj var: 0.718080
- time (local/global): 0.013/11.020
- branches (local/global): 948/851272
- fails (local/global): 444/416571
- lns time: 0.017000
- lns branches: 948
- lns fails: 444
LNS iteration #67 ========================================
- worst case average CPI: 1.203
- worst case efficiency: 0.711
- efficiency to beat: 0.711
- normalized lower bound 1938
--- checking solution
--- solution ok! Maximum rounding error: 0.000000
- solution found, obj var is: 1945
- de-normalized obj var: 0.716700
- time (local/global): 1.252/12.276
- branches (local/global): 98294/949566
- fails (local/global): 48037/464608
- lns time: 1.256000
- lns branches: 98294
- lns fails: 48037
LNS iteration #68 ========================================
- worst case average CPI: 1.118
- worst case efficiency: 0.711
- efficiency to beat: 0.711
- normalized lower bound 1939
- lns time: 3.004000
- lns branches: 206083
- lns fails: 101137
LNS iteration #69 ========================================
- worst case average CPI: 1.118
- worst case efficiency: 0.711
- efficiency to beat: 0.711
- normalized lower bound 1939
--- checking solution
--- solution ok! Maximum rounding error: 0.000109
- solution found, obj var is: 1950
- de-normalized obj var: 0.717000
- time (local/global): 0.222/15.506
- branches (local/global): 17866/1173515
- fails (local/global): 8635/574380
- lns time: 0.226000
- lns branches: 17866
- lns fails: 8635
LNS iteration #70 ========================================
- worst case average CPI: 1.118
- worst case efficiency: 0.712
- efficiency to beat: 0.712
- normalized lower bound 1946
--- checking solution
--- solution ok! Maximum rounding error: 0.000015
- solution found, obj var is: 1947
- de-normalized obj var: 0.716820
- time (local/global): 1.383/16.893
- branches (local/global): 168362/1341877
- fails (local/global): 82053/656433
- lns time: 1.387000
- lns branches: 168362
- lns fails: 82053
LNS iteration #71 ========================================
- worst case average CPI: 1.118
- worst case efficiency: 0.712
- efficiency to beat: 0.712
- normalized lower bound 1958
--- checking solution
--- solution ok! Maximum rounding error: 0.000041
- solution found, obj var is: 1973
- de-normalized obj var: 0.718380
- time (local/global): 0.483/17.380
- branches (local/global): 41995/1383872
- fails (local/global): 20406/676839
- lns time: 0.487000
- lns branches: 41995
- lns fails: 20406
LNS iteration #72 ========================================
- worst case average CPI: 1.118
- worst case efficiency: 0.713
- efficiency to beat: 0.713
- normalized lower bound 1975
--- checking solution
--- solution ok! Maximum rounding error: 0.000060
- solution found, obj var is: 2064
- de-normalized obj var: 0.723840
- time (local/global): 0.001/17.385
- branches (local/global): 22/1383894
- fails (local/global): 1/676840
- lns time: 0.005000
- lns branches: 22
- lns fails: 1
LNS iteration #73 ========================================
- worst case average CPI: 1.118
- worst case efficiency: 0.714
- efficiency to beat: 0.714
- normalized lower bound 1989
--- checking solution
--- solution ok! Maximum rounding error: 0.000056
- solution found, obj var is: 2008
- de-normalized obj var: 0.720480
- time (local/global): 0.005/17.394
- branches (local/global): 511/1384405
- fails (local/global): 227/677067
- lns time: 0.009000
- lns branches: 511
- lns fails: 227
LNS iteration #74 ========================================
- worst case average CPI: 1.118
- worst case efficiency: 0.717
- efficiency to beat: 0.717
- normalized lower bound 2026
- lns time: 3.004000
- lns branches: 269220
- lns fails: 131770
LNS iteration #75 ========================================
- worst case average CPI: 1.118
- worst case efficiency: 0.717
- efficiency to beat: 0.717
- normalized lower bound 2026
--- checking solution
--- solution ok! Maximum rounding error: 0.000075
- solution found, obj var is: 2026
- de-normalized obj var: 0.721560
- time (local/global): 0.061/20.463
- branches (local/global): 5155/1658780
- fails (local/global): 2455/811292
- lns time: 0.065000
- lns branches: 5155
- lns fails: 2455
LNS iteration #76 ========================================
- worst case average CPI: 1.118
- worst case efficiency: 0.717
- efficiency to beat: 0.717
- normalized lower bound 2037
- lns time: 3.004000
- lns branches: 252924
- lns fails: 123986
LNS iteration #77 ========================================
- worst case average CPI: 1.118
- worst case efficiency: 0.717
- efficiency to beat: 0.717
- normalized lower bound 2037
- lns time: 3.004000
- lns branches: 231115
- lns fails: 113304
LNS iteration #78 ========================================
- worst case average CPI: 1.118
- worst case efficiency: 0.717
- efficiency to beat: 0.717
- normalized lower bound 2037
--- checking solution
--- solution ok! Maximum rounding error: 0.000081
- solution found, obj var is: 2067
- de-normalized obj var: 0.724020
- time (local/global): 0.308/26.783
- branches (local/global): 21288/2164107
- fails (local/global): 10301/1058883
- lns time: 0.312000
- lns branches: 21288
- lns fails: 10301
LNS iteration #79 ========================================
- worst case average CPI: 1.118
- worst case efficiency: 0.718
- efficiency to beat: 0.718
- normalized lower bound 2047
--- checking solution
--- solution ok! Maximum rounding error: 0.000103
- solution found, obj var is: 2101
- de-normalized obj var: 0.726060
- time (local/global): 0.021/26.808
- branches (local/global): 1543/2165650
- fails (local/global): 723/1059606
- lns time: 0.025000
- lns branches: 1543
- lns fails: 723
LNS iteration #80 ========================================
- worst case average CPI: 1.118
- worst case efficiency: 0.717
- efficiency to beat: 0.717
- normalized lower bound 2037
--- checking solution
--- solution ok! Maximum rounding error: 0.000208
- solution found, obj var is: 2169
- de-normalized obj var: 0.730140
- time (local/global): 0.008/26.820
- branches (local/global): 880/2166530
- fails (local/global): 416/1060022
- lns time: 0.012000
- lns branches: 880
- lns fails: 416
LNS iteration #81 ========================================
- worst case average CPI: 1.118
- worst case efficiency: 0.718
- efficiency to beat: 0.718
- normalized lower bound 2044
--- checking solution
--- solution ok! Maximum rounding error: 0.000087
- solution found, obj var is: 2045
- de-normalized obj var: 0.722700
- time (local/global): 0.343/27.167
- branches (local/global): 36525/2203055
- fails (local/global): 17768/1077790
- lns time: 0.347000
- lns branches: 36525
- lns fails: 17768
LNS iteration #82 ========================================
- worst case average CPI: 1.155
- worst case efficiency: 0.719
- efficiency to beat: 0.719
- normalized lower bound 2059
--- checking solution
--- solution ok! Maximum rounding error: 0.000017
- solution found, obj var is: 2144
- de-normalized obj var: 0.728640
- time (local/global): 0.001/27.172
- branches (local/global): 18/2203073
- fails (local/global): 0/1077790
- lns time: 0.005000
- lns branches: 18
- lns fails: 0
LNS iteration #83 ========================================
- worst case average CPI: 1.155
- worst case efficiency: 0.719
- efficiency to beat: 0.719
- normalized lower bound 2062
--- checking solution
--- solution ok! Maximum rounding error: 0.000005
- solution found, obj var is: 2075
- de-normalized obj var: 0.724500
- time (local/global): 0.083/27.259
- branches (local/global): 9515/2212588
- fails (local/global): 4620/1082410
- lns time: 0.087000
- lns branches: 9515
- lns fails: 4620
LNS iteration #84 ========================================
- worst case average CPI: 1.155
- worst case efficiency: 0.719
- efficiency to beat: 0.719
- normalized lower bound 2071
--- checking solution
--- solution ok! Maximum rounding error: 0.000103
- solution found, obj var is: 2116
- de-normalized obj var: 0.726960
- time (local/global): 0.027/27.290
- branches (local/global): 3237/2215825
- fails (local/global): 1527/1083937
- lns time: 0.031000
- lns branches: 3237
- lns fails: 1527
LNS iteration #85 ========================================
- worst case average CPI: 1.155
- worst case efficiency: 0.720
- efficiency to beat: 0.720
- normalized lower bound 2082
- lns time: 3.004000
- lns branches: 232351
- lns fails: 113872
LNS iteration #86 ========================================
- worst case average CPI: 1.155
- worst case efficiency: 0.720
- efficiency to beat: 0.720
- normalized lower bound 2082
- lns time: 3.004000
- lns branches: 275414
- lns fails: 134721
LNS iteration #87 ========================================
- worst case average CPI: 1.155
- worst case efficiency: 0.720
- efficiency to beat: 0.720
- normalized lower bound 2082
--- checking solution
--- solution ok! Maximum rounding error: 0.000036
- solution found, obj var is: 2096
- de-normalized obj var: 0.725760
- time (local/global): 0.929/34.231
- branches (local/global): 58520/2782110
- fails (local/global): 28496/1361026
- lns time: 0.933000
- lns branches: 58520
- lns fails: 28496
LNS iteration #88 ========================================
- worst case average CPI: 1.155
- worst case efficiency: 0.722
- efficiency to beat: 0.722
- normalized lower bound 2112
--- checking solution
--- solution ok! Maximum rounding error: 0.000068
- solution found, obj var is: 2145
- de-normalized obj var: 0.728700
- time (local/global): 0.265/34.500
- branches (local/global): 26808/2808918
- fails (local/global): 12902/1373928
- lns time: 0.269000
- lns branches: 26808
- lns fails: 12902
LNS iteration #89 ========================================
- worst case average CPI: 1.167
- worst case efficiency: 0.723
- efficiency to beat: 0.723
- normalized lower bound 2126
--- checking solution
--- solution ok! Maximum rounding error: 0.000046
- solution found, obj var is: 2134
- de-normalized obj var: 0.728040
- time (local/global): 0.059/34.563
- branches (local/global): 3780/2812698
- fails (local/global): 1794/1375722
- lns time: 0.063000
- lns branches: 3780
- lns fails: 1794
LNS iteration #90 ========================================
- worst case average CPI: 1.167
- worst case efficiency: 0.723
- efficiency to beat: 0.723
- normalized lower bound 2129
--- checking solution
--- solution ok! Maximum rounding error: 0.000059
- solution found, obj var is: 2133
- de-normalized obj var: 0.727980
- time (local/global): 1.089/35.656
- branches (local/global): 99151/2911849
- fails (local/global): 48418/1424140
- lns time: 1.093000
- lns branches: 99151
- lns fails: 48418
LNS iteration #91 ========================================
- worst case average CPI: 1.167
- worst case efficiency: 0.723
- efficiency to beat: 0.723
- normalized lower bound 2133
- lns time: 3.004000
- lns branches: 326658
- lns fails: 161175
LNS iteration #92 ========================================
- worst case average CPI: 1.167
- worst case efficiency: 0.723
- efficiency to beat: 0.723
- normalized lower bound 2133
--- checking solution
XXX Rounding error: 6
--- solution ok! Maximum rounding error: 0.000291
- solution found, obj var is: 2214
- de-normalized obj var: 0.732840
- time (local/global): 0.104/38.768
- branches (local/global): 8020/3246527
- fails (local/global): 3840/1589155
- lns time: 0.108000
- lns branches: 8020
- lns fails: 3840
LNS iteration #93 ========================================
- worst case average CPI: 1.167
- worst case efficiency: 0.724
- efficiency to beat: 0.724
- normalized lower bound 2155
- lns time: 3.004000
- lns branches: 299553
- lns fails: 146779
LNS iteration #94 ========================================
- worst case average CPI: 1.167
- worst case efficiency: 0.724
- efficiency to beat: 0.724
- normalized lower bound 2155
--- checking solution
--- solution ok! Maximum rounding error: 0.000085
- solution found, obj var is: 2159
- de-normalized obj var: 0.729540
- time (local/global): 2.846/44.622
- branches (local/global): 251494/3797574
- fails (local/global): 123014/1858948
- lns time: 2.850000
- lns branches: 251494
- lns fails: 123014
LNS iteration #95 ========================================
- worst case average CPI: 1.167
- worst case efficiency: 0.724
- efficiency to beat: 0.724
- normalized lower bound 2154
- lns time: 3.004000
- lns branches: 179416
- lns fails: 87832
LNS iteration #96 ========================================
- worst case average CPI: 1.167
- worst case efficiency: 0.724
- efficiency to beat: 0.724
- normalized lower bound 2154
- lns time: 3.004000
- lns branches: 187360
- lns fails: 91763
LNS iteration #97 ========================================
- worst case average CPI: 1.167
- worst case efficiency: 0.724
- efficiency to beat: 0.724
- normalized lower bound 2154
- lns time: 3.004000
- lns branches: 196666
- lns fails: 96435
LNS iteration #98 ========================================
- worst case average CPI: 1.167
- worst case efficiency: 0.724
- efficiency to beat: 0.724
- normalized lower bound 2154
- lns time: 3.004000
- lns branches: 275865
- lns fails: 135192
LNS iteration #99 ========================================
- worst case average CPI: 1.167
- worst case efficiency: 0.724
- efficiency to beat: 0.724
- normalized lower bound 2154
--- checking solution
--- solution ok! Maximum rounding error: 0.000066
- solution found, obj var is: 2154
- de-normalized obj var: 0.729240
- time (local/global): 0.921/57.563
- branches (local/global): 132491/4769372
- fails (local/global): 64554/2334724
- lns time: 0.925000
- lns branches: 132491
- lns fails: 64554
LNS iteration #100 ========================================
- worst case average CPI: 1.167
- worst case efficiency: 0.724
- efficiency to beat: 0.724
- normalized lower bound 2155
- lns time: 3.004000
- lns branches: 211466
- lns fails: 103759
LNS iteration #101 ========================================
- worst case average CPI: 1.167
- worst case efficiency: 0.724
- efficiency to beat: 0.724
- normalized lower bound 2155
--- checking solution
--- solution ok! Maximum rounding error: 0.000109
- solution found, obj var is: 2155
- de-normalized obj var: 0.729300
- time (local/global): 2.177/62.748
- branches (local/global): 187213/5168051
- fails (local/global): 91577/2530060
- lns time: 2.181000
- lns branches: 187213
- lns fails: 91577
LNS iteration #102 ========================================
- worst case average CPI: 1.182
- worst case efficiency: 0.725
- efficiency to beat: 0.725
- normalized lower bound 2161
--- checking solution
--- solution ok! Maximum rounding error: 0.000038
- solution found, obj var is: 3610
- de-normalized obj var: 0.816600
- time (local/global): 0.001/62.753
- branches (local/global): 26/5168077
- fails (local/global): 2/2530062
- lns time: 0.005000
- lns branches: 26
- lns fails: 2
LNS iteration #103 ========================================
- worst case average CPI: 1.182
- worst case efficiency: 0.726
- efficiency to beat: 0.726
- normalized lower bound 2181
--- checking solution
--- solution ok! Maximum rounding error: 0.000070
- solution found, obj var is: 2186
- de-normalized obj var: 0.731160
- time (local/global): 0.289/63.046
- branches (local/global): 19617/5187694
- fails (local/global): 9497/2539559
- lns time: 0.293000
- lns branches: 19617
- lns fails: 9497
LNS iteration #104 ========================================
- worst case average CPI: 1.182
- worst case efficiency: 0.726
- efficiency to beat: 0.726
- normalized lower bound 2182
--- checking solution
--- solution ok! Maximum rounding error: 0.000025
- solution found, obj var is: 2196
- de-normalized obj var: 0.731760
- time (local/global): 1.185/64.235
- branches (local/global): 134637/5322331
- fails (local/global): 65615/2605174
- lns time: 1.189000
- lns branches: 134637
- lns fails: 65615
LNS iteration #105 ========================================
- worst case average CPI: 1.182
- worst case efficiency: 0.726
- efficiency to beat: 0.726
- normalized lower bound 2189
- lns time: 3.004000
- lns branches: 225751
- lns fails: 110509
LNS iteration #106 ========================================
- worst case average CPI: 1.182
- worst case efficiency: 0.726
- efficiency to beat: 0.726
- normalized lower bound 2189
--- checking solution
--- solution ok! Maximum rounding error: 0.000054
- solution found, obj var is: 2213
- de-normalized obj var: 0.732780
- time (local/global): 0.001/67.244
- branches (local/global): 20/5548102
- fails (local/global): 0/2715683
- lns time: 0.005000
- lns branches: 20
- lns fails: 0
LNS iteration #107 ========================================
- worst case average CPI: 1.182
- worst case efficiency: 0.727
- efficiency to beat: 0.727
- normalized lower bound 2202
- lns time: 3.004000
- lns branches: 315673
- lns fails: 154518
LNS iteration #108 ========================================
- worst case average CPI: 1.182
- worst case efficiency: 0.727
- efficiency to beat: 0.727
- normalized lower bound 2202
- lns time: 3.004000
- lns branches: 188337
- lns fails: 92283
LNS iteration #109 ========================================
- worst case average CPI: 1.182
- worst case efficiency: 0.727
- efficiency to beat: 0.727
- normalized lower bound 2202
- lns time: 3.004000
- lns branches: 227608
- lns fails: 111601
LNS iteration #110 ========================================
- worst case average CPI: 1.182
- worst case efficiency: 0.727
- efficiency to beat: 0.727
- normalized lower bound 2202
- lns time: 3.004000
- lns branches: 279822
- lns fails: 136802
LNS iteration #111 ========================================
- worst case average CPI: 1.182
- worst case efficiency: 0.727
- efficiency to beat: 0.727
- normalized lower bound 2202
--- checking solution
--- solution ok! Maximum rounding error: 0.000079
- solution found, obj var is: 2218
- de-normalized obj var: 0.733080
- time (local/global): 0.105/79.369
- branches (local/global): 9576/6569118
- fails (local/global): 4590/3215477
- lns time: 0.109000
- lns branches: 9576
- lns fails: 4590
LNS iteration #112 ========================================
- worst case average CPI: 1.182
- worst case efficiency: 0.728
- efficiency to beat: 0.728
- normalized lower bound 2221
--- checking solution
--- solution ok! Maximum rounding error: 0.000066
- solution found, obj var is: 2222
- de-normalized obj var: 0.733320
- time (local/global): 0.167/79.540
- branches (local/global): 17879/6586997
- fails (local/global): 8637/3224114
- lns time: 0.171000
- lns branches: 17879
- lns fails: 8637
LNS iteration #113 ========================================
- worst case average CPI: 1.113
- worst case efficiency: 0.729
- efficiency to beat: 0.729
- normalized lower bound 2231
--- checking solution
--- solution ok! Maximum rounding error: 0.000041
- solution found, obj var is: 2514
- de-normalized obj var: 0.750840
- time (local/global): 0.001/79.545
- branches (local/global): 20/6587017
- fails (local/global): 0/3224114
- lns time: 0.005000
- lns branches: 20
- lns fails: 0
LNS iteration #114 ========================================
- worst case average CPI: 1.113
- worst case efficiency: 0.729
- efficiency to beat: 0.729
- normalized lower bound 2240
- lns time: 3.004000
- lns branches: 283612
- lns fails: 138761
LNS iteration #115 ========================================
- worst case average CPI: 1.113
- worst case efficiency: 0.729
- efficiency to beat: 0.729
- normalized lower bound 2240
- lns time: 3.004000
- lns branches: 247959
- lns fails: 121505
LNS iteration #116 ========================================
- worst case average CPI: 1.113
- worst case efficiency: 0.729
- efficiency to beat: 0.729
- normalized lower bound 2240
- lns time: 3.004000
- lns branches: 242708
- lns fails: 118870
LNS iteration #117 ========================================
- worst case average CPI: 1.113
- worst case efficiency: 0.729
- efficiency to beat: 0.729
- normalized lower bound 2240
- lns time: 1.443000
- lns branches: 176059
- lns fails: 86758

LNS optimization is over========================================
initial worst case average CPI: 2.102
final worst case average CPI: 1.113
initial worst case efficiency: 0.636
final worst case efficiency: 0.729
number of iterations: 118
total time: 90004.000000
total branches: 7537355
total fails: 3690008

Final Solution: 0->46, 1->10, 2->13, 3->3, 4->1, 5->11, 6->0, 7->22, 8->25, 9->11, 10->23, 11->44, 12->31, 13->41, 14->31, 15->23, 16->41, 17->7, 18->33, 19->42, 20->20, 21->47, 22->3, 23->1, 24->13, 25->22, 26->33, 27->21, 28->21, 29->18, 30->35, 31->46, 32->12, 33->32, 34->25, 35->5, 36->19, 37->13, 38->14, 39->43, 40->12, 41->14, 42->15, 43->38, 44->15, 45->3, 46->23, 47->0, 48->6, 49->19, 50->26, 51->9, 52->35, 53->23, 54->20, 55->28, 56->3, 57->22, 58->26, 59->14, 60->37, 61->5, 62->0, 63->10, 64->27, 65->29, 66->27, 67->43, 68->31, 69->32, 70->4, 71->32, 72->30, 73->21, 74->44, 75->43, 76->8, 77->0, 78->16, 79->33, 80->42, 81->40, 82->0, 83->8, 84->37, 85->12, 86->30, 87->34, 88->38, 89->33, 90->7, 91->30, 92->7, 93->24, 94->26, 95->47, 96->34, 97->23, 98->24, 99->7, 100->37, 101->32, 102->26, 103->41, 104->33, 105->9, 106->29, 107->35, 108->16, 109->21, 110->29, 111->15, 112->28, 113->36, 114->27, 115->17, 116->46, 117->38, 118->34, 119->39, 120->27, 121->2, 122->18, 123->27, 124->43, 125->24, 126->4, 127->39, 128->19, 129->17, 130->19, 131->8, 132->4, 133->30, 134->30, 135->19, 136->35, 137->45, 138->21, 139->2, 140->47, 141->31, 142->14, 143->8, 144->2, 145->15, 146->29, 147->5, 148->39, 149->2, 150->7, 151->17, 152->38, 153->16, 154->3, 155->37, 156->10, 157->47, 158->14, 159->16, 160->37, 161->43, 162->28, 163->24, 164->13, 165->47, 166->5, 167->28, 168->12, 169->41, 170->20, 171->30, 172->10, 173->24, 174->45, 175->4, 176->36, 177->8, 178->11, 179->2, 180->24, 181->11, 182->2, 183->18, 184->47, 185->9, 186->43, 187->13, 188->9, 189->42, 190->23, 191->31, 192->13, 193->32, 194->10, 195->14, 196->34, 197->40, 198->46, 199->35, 200->29, 201->25, 202->42, 203->42, 204->15, 205->20, 206->8, 207->28, 208->16, 209->26, 210->9, 211->32, 212->40, 213->3, 214->17, 215->45, 216->44, 217->35, 218->11, 219->6, 220->38, 221->45, 222->18, 223->40, 224->9, 225->41, 226->1, 227->44, 228->11, 229->40, 230->6, 231->16, 232->22, 233->20, 234->4, 235->6, 236->39, 237->20, 238->29, 239->12, 240->25, 241->1, 242->45, 243->45, 244->44, 245->12, 246->5, 247->1, 248->17, 249->40, 250->10, 251->6, 252->18, 253->28, 254->34, 255->41, 256->42, 257->46, 258->17, 259->18, 260->39, 261->1, 262->4, 263->39, 264->27, 265->37, 266->26, 267->31, 268->19, 269->22, 270->5, 271->44, 272->6, 273->36, 274->36, 275->46, 276->33, 277->21, 278->38, 279->0, 280->25, 281->7, 282->34, 283->25, 284->22, 285->15, 286->36, 287->36

Average CPI map:
	7.31,	1.37,	1.49,	1.41,	1.20,	1.48
	1.19,	3.79,	4.57,	3.97,	3.40,	1.59
	1.39,	7.48,	5.38,	8.02,	5.69,	1.44
	1.45,	7.16,	4.42,	4.98,	3.41,	1.95
	1.38,	4.51,	5.40,	6.94,	5.58,	2.09
	1.34,	5.38,	6.93,	6.01,	3.91,	1.18
	1.11,	7.34,	4.61,	3.41,	6.10,	1.86
	1.48,	2.32,	3.18,	2.93,	3.37,	2.08

Efficiency map:
	0.997,	0.941,	0.914,	0.915,	0.935,	0.996
	0.817,	0.742,	0.792,	0.730,	0.730,	0.834
	0.819,	0.805,	0.751,	0.731,	0.755,	0.816
	0.818,	0.817,	0.731,	0.753,	0.733,	0.829
	0.809,	0.765,	0.733,	0.786,	0.762,	0.839
	0.789,	0.731,	0.739,	0.779,	0.729,	0.803
	0.872,	0.829,	0.734,	0.733,	0.809,	0.827
	0.829,	0.738,	0.744,	0.734,	0.729,	0.852
