==============================================================================
LNS optimizer for EML demonstration
==============================================================================

Option values: --wld-idx 8 --prec 10000 --step 0 --global-tlim 90 --global-iter 1000 --local-tlim 3 --local-nsol 1 --restart-base 100 --restart-strat luby --seed 601

Starting the Optimization Process
reserved_tasks None
Finding a first solution
LNS iteration #0 ========================================
- worst case average CPI: 2.109
- worst case efficiency: 0.635
- efficiency to beat: 0.635
- normalized lower bound 666
--- checking solution
--- solution ok! Maximum rounding error: 0.000076
- solution found, obj var is: 912
- de-normalized obj var: 0.654720
- time (local/global): 0.001/0.001
- branches (local/global): 16/16
- fails (local/global): 0/0
- lns time: 0.005000
- lns branches: 16
- lns fails: 0
LNS iteration #1 ========================================
- worst case average CPI: 1.591
- worst case efficiency: 0.636
- efficiency to beat: 0.636
- normalized lower bound 688
--- checking solution
--- solution ok! Maximum rounding error: 0.000038
- solution found, obj var is: 693
- de-normalized obj var: 0.641580
- time (local/global): 0.000/0.005
- branches (local/global): 18/34
- fails (local/global): 2/2
- lns time: 0.004000
- lns branches: 18
- lns fails: 2
LNS iteration #2 ========================================
- worst case average CPI: 1.591
- worst case efficiency: 0.642
- efficiency to beat: 0.642
- normalized lower bound 777
--- checking solution
--- solution ok! Maximum rounding error: 0.000069
- solution found, obj var is: 783
- de-normalized obj var: 0.646980
- time (local/global): 0.020/0.029
- branches (local/global): 1784/1818
- fails (local/global): 834/836
- lns time: 0.024000
- lns branches: 1784
- lns fails: 834
LNS iteration #3 ========================================
- worst case average CPI: 1.526
- worst case efficiency: 0.646
- efficiency to beat: 0.646
- normalized lower bound 847
--- checking solution
--- solution ok! Maximum rounding error: 0.000120
- solution found, obj var is: 1446
- de-normalized obj var: 0.686760
- time (local/global): 0.001/0.034
- branches (local/global): 38/1856
- fails (local/global): 9/845
- lns time: 0.008000
- lns branches: 38
- lns fails: 9
LNS iteration #4 ========================================
- worst case average CPI: 1.448
- worst case efficiency: 0.646
- efficiency to beat: 0.646
- normalized lower bound 853
--- checking solution
--- solution ok! Maximum rounding error: 0.000037
- solution found, obj var is: 857
- de-normalized obj var: 0.651420
- time (local/global): 0.022/0.063
- branches (local/global): 1304/3160
- fails (local/global): 600/1445
- lns time: 0.029000
- lns branches: 1304
- lns fails: 600
LNS iteration #5 ========================================
- worst case average CPI: 1.457
- worst case efficiency: 0.648
- efficiency to beat: 0.648
- normalized lower bound 877
--- checking solution
--- solution ok! Maximum rounding error: 0.000105
- solution found, obj var is: 3366
- de-normalized obj var: 0.801960
- time (local/global): 0.001/0.071
- branches (local/global): 22/3182
- fails (local/global): 1/1446
- lns time: 0.007000
- lns branches: 22
- lns fails: 1
LNS iteration #6 ========================================
- worst case average CPI: 1.457
- worst case efficiency: 0.649
- efficiency to beat: 0.649
- normalized lower bound 901
--- checking solution
--- solution ok! Maximum rounding error: 0.000037
- solution found, obj var is: 1499
- de-normalized obj var: 0.689940
- time (local/global): 0.001/0.078
- branches (local/global): 22/3204
- fails (local/global): 0/1446
- lns time: 0.008000
- lns branches: 22
- lns fails: 0
LNS iteration #7 ========================================
- worst case average CPI: 1.457
- worst case efficiency: 0.649
- efficiency to beat: 0.649
- normalized lower bound 905
--- checking solution
--- solution ok! Maximum rounding error: 0.000005
- solution found, obj var is: 968
- de-normalized obj var: 0.658080
- time (local/global): 0.008/0.093
- branches (local/global): 311/3515
- fails (local/global): 136/1582
- lns time: 0.014000
- lns branches: 311
- lns fails: 136
LNS iteration #8 ========================================
- worst case average CPI: 1.457
- worst case efficiency: 0.651
- efficiency to beat: 0.651
- normalized lower bound 939
--- checking solution
--- solution ok! Maximum rounding error: 0.000103
- solution found, obj var is: 1001
- de-normalized obj var: 0.660060
- time (local/global): 0.001/0.100
- branches (local/global): 19/3534
- fails (local/global): 0/1582
- lns time: 0.006000
- lns branches: 19
- lns fails: 0
LNS iteration #9 ========================================
- worst case average CPI: 1.457
- worst case efficiency: 0.655
- efficiency to beat: 0.655
- normalized lower bound 999
--- checking solution
--- solution ok! Maximum rounding error: 0.000048
- solution found, obj var is: 1063
- de-normalized obj var: 0.663780
- time (local/global): 0.004/0.109
- branches (local/global): 238/3772
- fails (local/global): 100/1682
- lns time: 0.009000
- lns branches: 238
- lns fails: 100
LNS iteration #10 ========================================
- worst case average CPI: 1.457
- worst case efficiency: 0.655
- efficiency to beat: 0.655
- normalized lower bound 1003
--- checking solution
--- solution ok! Maximum rounding error: 0.000075
- solution found, obj var is: 2294
- de-normalized obj var: 0.737640
- time (local/global): 0.001/0.115
- branches (local/global): 33/3805
- fails (local/global): 6/1688
- lns time: 0.006000
- lns branches: 33
- lns fails: 6
LNS iteration #11 ========================================
- worst case average CPI: 1.457
- worst case efficiency: 0.655
- efficiency to beat: 0.655
- normalized lower bound 1008
--- checking solution
--- solution ok! Maximum rounding error: 0.000082
- solution found, obj var is: 1314
- de-normalized obj var: 0.678840
- time (local/global): 0.001/0.121
- branches (local/global): 28/3833
- fails (local/global): 4/1692
- lns time: 0.007000
- lns branches: 28
- lns fails: 4
LNS iteration #12 ========================================
- worst case average CPI: 1.457
- worst case efficiency: 0.658
- efficiency to beat: 0.658
- normalized lower bound 1057
--- checking solution
--- solution ok! Maximum rounding error: 0.000005
- solution found, obj var is: 1057
- de-normalized obj var: 0.663420
- time (local/global): 0.002/0.129
- branches (local/global): 142/3975
- fails (local/global): 64/1756
- lns time: 0.007000
- lns branches: 142
- lns fails: 64
LNS iteration #13 ========================================
- worst case average CPI: 1.457
- worst case efficiency: 0.660
- efficiency to beat: 0.660
- normalized lower bound 1081
--- checking solution
--- solution ok! Maximum rounding error: 0.000080
- solution found, obj var is: 1083
- de-normalized obj var: 0.664980
- time (local/global): 0.004/0.138
- branches (local/global): 187/4162
- fails (local/global): 84/1840
- lns time: 0.010000
- lns branches: 187
- lns fails: 84
LNS iteration #14 ========================================
- worst case average CPI: 1.457
- worst case efficiency: 0.662
- efficiency to beat: 0.662
- normalized lower bound 1121
- lns time: 3.005000
- lns branches: 270250
- lns fails: 132251
LNS iteration #15 ========================================
- worst case average CPI: 1.457
- worst case efficiency: 0.662
- efficiency to beat: 0.662
- normalized lower bound 1121
--- checking solution
--- solution ok! Maximum rounding error: 0.000038
- solution found, obj var is: 1157
- de-normalized obj var: 0.669420
- time (local/global): 0.002/3.151
- branches (local/global): 173/274585
- fails (local/global): 78/134169
- lns time: 0.006000
- lns branches: 173
- lns fails: 78
LNS iteration #16 ========================================
- worst case average CPI: 1.319
- worst case efficiency: 0.663
- efficiency to beat: 0.663
- normalized lower bound 1138
--- checking solution
--- solution ok! Maximum rounding error: 0.000137
- solution found, obj var is: 1487
- de-normalized obj var: 0.689220
- time (local/global): 0.003/3.158
- branches (local/global): 237/274822
- fails (local/global): 100/134269
- lns time: 0.007000
- lns branches: 237
- lns fails: 100
LNS iteration #17 ========================================
- worst case average CPI: 1.319
- worst case efficiency: 0.663
- efficiency to beat: 0.663
- normalized lower bound 1140
--- checking solution
--- solution ok! Maximum rounding error: 0.000082
- solution found, obj var is: 1299
- de-normalized obj var: 0.677940
- time (local/global): 0.036/3.198
- branches (local/global): 2972/277794
- fails (local/global): 1400/135669
- lns time: 0.040000
- lns branches: 2972
- lns fails: 1400
LNS iteration #18 ========================================
- worst case average CPI: 1.319
- worst case efficiency: 0.664
- efficiency to beat: 0.664
- normalized lower bound 1147
--- checking solution
--- solution ok! Maximum rounding error: 0.000052
- solution found, obj var is: 1285
- de-normalized obj var: 0.677100
- time (local/global): 0.001/3.203
- branches (local/global): 22/277816
- fails (local/global): 0/135669
- lns time: 0.005000
- lns branches: 22
- lns fails: 0
LNS iteration #19 ========================================
- worst case average CPI: 1.319
- worst case efficiency: 0.664
- efficiency to beat: 0.664
- normalized lower bound 1147
--- checking solution
--- solution ok! Maximum rounding error: 0.000151
- solution found, obj var is: 1217
- de-normalized obj var: 0.673020
- time (local/global): 0.001/3.208
- branches (local/global): 76/277892
- fails (local/global): 28/135697
- lns time: 0.005000
- lns branches: 76
- lns fails: 28
LNS iteration #20 ========================================
- worst case average CPI: 1.319
- worst case efficiency: 0.667
- efficiency to beat: 0.667
- normalized lower bound 1195
--- checking solution
--- solution ok! Maximum rounding error: 0.000102
- solution found, obj var is: 1348
- de-normalized obj var: 0.680880
- time (local/global): 0.001/3.213
- branches (local/global): 20/277912
- fails (local/global): 0/135697
- lns time: 0.005000
- lns branches: 20
- lns fails: 0
LNS iteration #21 ========================================
- worst case average CPI: 1.319
- worst case efficiency: 0.669
- efficiency to beat: 0.669
- normalized lower bound 1241
--- checking solution
--- solution ok! Maximum rounding error: 0.000092
- solution found, obj var is: 1308
- de-normalized obj var: 0.678480
- time (local/global): 0.131/3.348
- branches (local/global): 10135/288047
- fails (local/global): 4850/140547
- lns time: 0.137000
- lns branches: 10135
- lns fails: 4850
LNS iteration #22 ========================================
- worst case average CPI: 1.319
- worst case efficiency: 0.670
- efficiency to beat: 0.670
- normalized lower bound 1243
--- checking solution
--- solution ok! Maximum rounding error: 0.000370
- solution found, obj var is: 1276
- de-normalized obj var: 0.676560
- time (local/global): 0.001/3.355
- branches (local/global): 20/288067
- fails (local/global): 0/140547
- lns time: 0.005000
- lns branches: 20
- lns fails: 0
LNS iteration #23 ========================================
- worst case average CPI: 1.319
- worst case efficiency: 0.673
- efficiency to beat: 0.673
- normalized lower bound 1304
--- checking solution
--- solution ok! Maximum rounding error: 0.000141
- solution found, obj var is: 1329
- de-normalized obj var: 0.679740
- time (local/global): 0.001/3.360
- branches (local/global): 22/288089
- fails (local/global): 0/140547
- lns time: 0.005000
- lns branches: 22
- lns fails: 0
LNS iteration #24 ========================================
- worst case average CPI: 1.319
- worst case efficiency: 0.674
- efficiency to beat: 0.674
- normalized lower bound 1309
--- checking solution
--- solution ok! Maximum rounding error: 0.000141
- solution found, obj var is: 1354
- de-normalized obj var: 0.681240
- time (local/global): 0.081/3.445
- branches (local/global): 6926/295015
- fails (local/global): 3329/143876
- lns time: 0.085000
- lns branches: 6926
- lns fails: 3329
LNS iteration #25 ========================================
- worst case average CPI: 0.900
- worst case efficiency: 0.677
- efficiency to beat: 0.677
- normalized lower bound 1362
--- checking solution
--- solution ok! Maximum rounding error: 0.000013
- solution found, obj var is: 1383
- de-normalized obj var: 0.682980
- time (local/global): 0.015/3.464
- branches (local/global): 1321/296336
- fails (local/global): 606/144482
- lns time: 0.019000
- lns branches: 1321
- lns fails: 606
LNS iteration #26 ========================================
- worst case average CPI: 0.900
- worst case efficiency: 0.678
- efficiency to beat: 0.678
- normalized lower bound 1384
--- checking solution
--- solution ok! Maximum rounding error: 0.000118
- solution found, obj var is: 1410
- de-normalized obj var: 0.684600
- time (local/global): 0.004/3.472
- branches (local/global): 286/296622
- fails (local/global): 124/144606
- lns time: 0.008000
- lns branches: 286
- lns fails: 124
LNS iteration #27 ========================================
- worst case average CPI: 0.900
- worst case efficiency: 0.679
- efficiency to beat: 0.679
- normalized lower bound 1396
--- checking solution
--- solution ok! Maximum rounding error: 0.000071
- solution found, obj var is: 1426
- de-normalized obj var: 0.685560
- time (local/global): 0.128/3.604
- branches (local/global): 14436/311058
- fails (local/global): 7057/151663
- lns time: 0.132000
- lns branches: 14436
- lns fails: 7057
LNS iteration #28 ========================================
- worst case average CPI: 1.246
- worst case efficiency: 0.679
- efficiency to beat: 0.679
- normalized lower bound 1406
--- checking solution
--- solution ok! Maximum rounding error: 0.000121
- solution found, obj var is: 1415
- de-normalized obj var: 0.684900
- time (local/global): 0.028/3.636
- branches (local/global): 3637/314695
- fails (local/global): 1707/153370
- lns time: 0.032000
- lns branches: 3637
- lns fails: 1707
LNS iteration #29 ========================================
- worst case average CPI: 1.246
- worst case efficiency: 0.681
- efficiency to beat: 0.681
- normalized lower bound 1438
--- checking solution
--- solution ok! Maximum rounding error: 0.000026
- solution found, obj var is: 1481
- de-normalized obj var: 0.688860
- time (local/global): 0.037/3.677
- branches (local/global): 2539/317234
- fails (local/global): 1203/154573
- lns time: 0.042000
- lns branches: 2539
- lns fails: 1203
LNS iteration #30 ========================================
- worst case average CPI: 1.246
- worst case efficiency: 0.683
- efficiency to beat: 0.683
- normalized lower bound 1466
--- checking solution
--- solution ok! Maximum rounding error: 0.000036
- solution found, obj var is: 1530
- de-normalized obj var: 0.691800
- time (local/global): 0.000/3.682
- branches (local/global): 20/317254
- fails (local/global): 0/154573
- lns time: 0.005000
- lns branches: 20
- lns fails: 0
LNS iteration #31 ========================================
- worst case average CPI: 1.246
- worst case efficiency: 0.684
- efficiency to beat: 0.684
- normalized lower bound 1481
--- checking solution
--- solution ok! Maximum rounding error: 0.000022
- solution found, obj var is: 2483
- de-normalized obj var: 0.748980
- time (local/global): 0.001/3.688
- branches (local/global): 84/317338
- fails (local/global): 31/154604
- lns time: 0.006000
- lns branches: 84
- lns fails: 31
LNS iteration #32 ========================================
- worst case average CPI: 1.246
- worst case efficiency: 0.685
- efficiency to beat: 0.685
- normalized lower bound 1494
--- checking solution
--- solution ok! Maximum rounding error: 0.000039
- solution found, obj var is: 1512
- de-normalized obj var: 0.690720
- time (local/global): 0.005/3.698
- branches (local/global): 358/317696
- fails (local/global): 160/154764
- lns time: 0.009000
- lns branches: 358
- lns fails: 160
LNS iteration #33 ========================================
- worst case average CPI: 1.246
- worst case efficiency: 0.685
- efficiency to beat: 0.685
- normalized lower bound 1498
--- checking solution
--- solution ok! Maximum rounding error: 0.000106
- solution found, obj var is: 1499
- de-normalized obj var: 0.689940
- time (local/global): 0.014/3.716
- branches (local/global): 835/318531
- fails (local/global): 393/155157
- lns time: 0.018000
- lns branches: 835
- lns fails: 393
LNS iteration #34 ========================================
- worst case average CPI: 1.246
- worst case efficiency: 0.687
- efficiency to beat: 0.687
- normalized lower bound 1538
--- checking solution
--- solution ok! Maximum rounding error: 0.000045
- solution found, obj var is: 1544
- de-normalized obj var: 0.692640
- time (local/global): 0.025/3.745
- branches (local/global): 2223/320754
- fails (local/global): 1055/156212
- lns time: 0.030000
- lns branches: 2223
- lns fails: 1055
LNS iteration #35 ========================================
- worst case average CPI: 1.246
- worst case efficiency: 0.689
- efficiency to beat: 0.689
- normalized lower bound 1561
--- checking solution
--- solution ok! Maximum rounding error: 0.000001
- solution found, obj var is: 1679
- de-normalized obj var: 0.700740
- time (local/global): 0.003/3.753
- branches (local/global): 238/320992
- fails (local/global): 100/156312
- lns time: 0.007000
- lns branches: 238
- lns fails: 100
LNS iteration #36 ========================================
- worst case average CPI: 1.246
- worst case efficiency: 0.689
- efficiency to beat: 0.689
- normalized lower bound 1564
--- checking solution
--- solution ok! Maximum rounding error: 0.000074
- solution found, obj var is: 1741
- de-normalized obj var: 0.704460
- time (local/global): 0.006/3.763
- branches (local/global): 482/321474
- fails (local/global): 214/156526
- lns time: 0.010000
- lns branches: 482
- lns fails: 214
LNS iteration #37 ========================================
- worst case average CPI: 1.311
- worst case efficiency: 0.689
- efficiency to beat: 0.689
- normalized lower bound 1567
--- checking solution
--- solution ok! Maximum rounding error: 0.000064
- solution found, obj var is: 1594
- de-normalized obj var: 0.695640
- time (local/global): 0.264/4.031
- branches (local/global): 22411/343885
- fails (local/global): 10829/167355
- lns time: 0.269000
- lns branches: 22411
- lns fails: 10829
LNS iteration #38 ========================================
- worst case average CPI: 1.099
- worst case efficiency: 0.690
- efficiency to beat: 0.690
- normalized lower bound 1592
--- checking solution
--- solution ok! Maximum rounding error: 0.000031
- solution found, obj var is: 3271
- de-normalized obj var: 0.796260
- time (local/global): 0.012/4.048
- branches (local/global): 983/344868
- fails (local/global): 455/167810
- lns time: 0.017000
- lns branches: 983
- lns fails: 455
LNS iteration #39 ========================================
- worst case average CPI: 1.099
- worst case efficiency: 0.690
- efficiency to beat: 0.690
- normalized lower bound 1585
--- checking solution
--- solution ok! Maximum rounding error: 0.000084
- solution found, obj var is: 1600
- de-normalized obj var: 0.696000
- time (local/global): 0.008/4.061
- branches (local/global): 511/345379
- fails (local/global): 229/168039
- lns time: 0.013000
- lns branches: 511
- lns fails: 229
LNS iteration #40 ========================================
- worst case average CPI: 1.099
- worst case efficiency: 0.691
- efficiency to beat: 0.691
- normalized lower bound 1598
--- checking solution
--- solution ok! Maximum rounding error: 0.000054
- solution found, obj var is: 1607
- de-normalized obj var: 0.696420
- time (local/global): 0.000/4.066
- branches (local/global): 22/345401
- fails (local/global): 0/168039
- lns time: 0.006000
- lns branches: 22
- lns fails: 0
LNS iteration #41 ========================================
- worst case average CPI: 1.099
- worst case efficiency: 0.694
- efficiency to beat: 0.694
- normalized lower bound 1648
--- checking solution
--- solution ok! Maximum rounding error: 0.000144
- solution found, obj var is: 1651
- de-normalized obj var: 0.699060
- time (local/global): 0.140/4.212
- branches (local/global): 11293/356694
- fails (local/global): 5416/173455
- lns time: 0.145000
- lns branches: 11293
- lns fails: 5416
LNS iteration #42 ========================================
- worst case average CPI: 1.099
- worst case efficiency: 0.695
- efficiency to beat: 0.695
- normalized lower bound 1662
--- checking solution
--- solution ok! Maximum rounding error: 0.000028
- solution found, obj var is: 1708
- de-normalized obj var: 0.702480
- time (local/global): 0.000/4.217
- branches (local/global): 16/356710
- fails (local/global): 0/173455
- lns time: 0.004000
- lns branches: 16
- lns fails: 0
LNS iteration #43 ========================================
- worst case average CPI: 1.099
- worst case efficiency: 0.695
- efficiency to beat: 0.695
- normalized lower bound 1669
--- checking solution
--- solution ok! Maximum rounding error: 0.000058
- solution found, obj var is: 1676
- de-normalized obj var: 0.700560
- time (local/global): 0.001/4.222
- branches (local/global): 27/356737
- fails (local/global): 4/173459
- lns time: 0.005000
- lns branches: 27
- lns fails: 4
LNS iteration #44 ========================================
- worst case average CPI: 1.099
- worst case efficiency: 0.696
- efficiency to beat: 0.696
- normalized lower bound 1681
--- checking solution
--- solution ok! Maximum rounding error: 0.000132
- solution found, obj var is: 1713
- de-normalized obj var: 0.702780
- time (local/global): 0.003/4.229
- branches (local/global): 193/356930
- fails (local/global): 87/173546
- lns time: 0.007000
- lns branches: 193
- lns fails: 87
LNS iteration #45 ========================================
- worst case average CPI: 1.099
- worst case efficiency: 0.696
- efficiency to beat: 0.696
- normalized lower bound 1684
--- checking solution
--- solution ok! Maximum rounding error: 0.000128
- solution found, obj var is: 1711
- de-normalized obj var: 0.702660
- time (local/global): 0.004/4.237
- branches (local/global): 237/357167
- fails (local/global): 100/173646
- lns time: 0.008000
- lns branches: 237
- lns fails: 100
LNS iteration #46 ========================================
- worst case average CPI: 1.099
- worst case efficiency: 0.697
- efficiency to beat: 0.697
- normalized lower bound 1699
--- checking solution
--- solution ok! Maximum rounding error: 0.000034
- solution found, obj var is: 1708
- de-normalized obj var: 0.702480
- time (local/global): 0.001/4.242
- branches (local/global): 20/357187
- fails (local/global): 0/173646
- lns time: 0.005000
- lns branches: 20
- lns fails: 0
LNS iteration #47 ========================================
- worst case average CPI: 1.099
- worst case efficiency: 0.699
- efficiency to beat: 0.699
- normalized lower bound 1736
--- checking solution
--- solution ok! Maximum rounding error: 0.000062
- solution found, obj var is: 1853
- de-normalized obj var: 0.711180
- time (local/global): 0.001/4.247
- branches (local/global): 28/357215
- fails (local/global): 4/173650
- lns time: 0.005000
- lns branches: 28
- lns fails: 4
LNS iteration #48 ========================================
- worst case average CPI: 1.099
- worst case efficiency: 0.701
- efficiency to beat: 0.701
- normalized lower bound 1762
--- checking solution
--- solution ok! Maximum rounding error: 0.000059
- solution found, obj var is: 2223
- de-normalized obj var: 0.733380
- time (local/global): 0.003/4.254
- branches (local/global): 241/357456
- fails (local/global): 101/173751
- lns time: 0.007000
- lns branches: 241
- lns fails: 101
LNS iteration #49 ========================================
- worst case average CPI: 1.123
- worst case efficiency: 0.702
- efficiency to beat: 0.702
- normalized lower bound 1783
--- checking solution
--- solution ok! Maximum rounding error: 0.000039
- solution found, obj var is: 1795
- de-normalized obj var: 0.707700
- time (local/global): 0.300/4.558
- branches (local/global): 18729/376185
- fails (local/global): 9066/182817
- lns time: 0.304000
- lns branches: 18729
- lns fails: 9066
LNS iteration #50 ========================================
- worst case average CPI: 1.123
- worst case efficiency: 0.702
- efficiency to beat: 0.702
- normalized lower bound 1789
--- checking solution
--- solution ok! Maximum rounding error: 0.000084
- solution found, obj var is: 1794
- de-normalized obj var: 0.707640
- time (local/global): 0.075/4.637
- branches (local/global): 5042/381227
- fails (local/global): 2401/185218
- lns time: 0.079000
- lns branches: 5042
- lns fails: 2401
LNS iteration #51 ========================================
- worst case average CPI: 1.123
- worst case efficiency: 0.702
- efficiency to beat: 0.702
- normalized lower bound 1792
--- checking solution
--- solution ok! Maximum rounding error: 0.000019
- solution found, obj var is: 1800
- de-normalized obj var: 0.708000
- time (local/global): 0.001/4.642
- branches (local/global): 22/381249
- fails (local/global): 0/185218
- lns time: 0.005000
- lns branches: 22
- lns fails: 0
LNS iteration #52 ========================================
- worst case average CPI: 1.123
- worst case efficiency: 0.702
- efficiency to beat: 0.702
- normalized lower bound 1784
--- checking solution
--- solution ok! Maximum rounding error: 0.000087
- solution found, obj var is: 1801
- de-normalized obj var: 0.708060
- time (local/global): 1.491/6.137
- branches (local/global): 99045/480294
- fails (local/global): 48359/233577
- lns time: 1.495000
- lns branches: 99045
- lns fails: 48359
LNS iteration #53 ========================================
- worst case average CPI: 1.123
- worst case efficiency: 0.703
- efficiency to beat: 0.703
- normalized lower bound 1796
--- checking solution
--- solution ok! Maximum rounding error: 0.000088
- solution found, obj var is: 1811
- de-normalized obj var: 0.708660
- time (local/global): 1.564/7.705
- branches (local/global): 109552/589846
- fails (local/global): 53471/287048
- lns time: 1.572000
- lns branches: 109552
- lns fails: 53471
LNS iteration #54 ========================================
- worst case average CPI: 1.123
- worst case efficiency: 0.704
- efficiency to beat: 0.704
- normalized lower bound 1822
--- checking solution
--- solution ok! Maximum rounding error: 0.000038
- solution found, obj var is: 1834
- de-normalized obj var: 0.710040
- time (local/global): 0.011/7.724
- branches (local/global): 473/590319
- fails (local/global): 215/287263
- lns time: 0.015000
- lns branches: 473
- lns fails: 215
LNS iteration #55 ========================================
- worst case average CPI: 1.123
- worst case efficiency: 0.705
- efficiency to beat: 0.705
- normalized lower bound 1840
--- checking solution
--- solution ok! Maximum rounding error: 0.000036
- solution found, obj var is: 1869
- de-normalized obj var: 0.712140
- time (local/global): 0.095/7.823
- branches (local/global): 7740/598059
- fails (local/global): 3701/290964
- lns time: 0.099000
- lns branches: 7740
- lns fails: 3701
LNS iteration #56 ========================================
- worst case average CPI: 1.123
- worst case efficiency: 0.706
- efficiency to beat: 0.706
- normalized lower bound 1854
- lns time: 3.004000
- lns branches: 230312
- lns fails: 112778
LNS iteration #57 ========================================
- worst case average CPI: 1.123
- worst case efficiency: 0.706
- efficiency to beat: 0.706
- normalized lower bound 1854
--- checking solution
--- solution ok! Maximum rounding error: 0.000067
- solution found, obj var is: 1865
- de-normalized obj var: 0.711900
- time (local/global): 0.012/10.843
- branches (local/global): 901/829272
- fails (local/global): 417/404159
- lns time: 0.016000
- lns branches: 901
- lns fails: 417
LNS iteration #58 ========================================
- worst case average CPI: 1.123
- worst case efficiency: 0.708
- efficiency to beat: 0.708
- normalized lower bound 1882
--- checking solution
--- solution ok! Maximum rounding error: 0.000076
- solution found, obj var is: 1882
- de-normalized obj var: 0.712920
- time (local/global): 1.534/12.381
- branches (local/global): 103251/932523
- fails (local/global): 50400/454559
- lns time: 1.538000
- lns branches: 103251
- lns fails: 50400
LNS iteration #59 ========================================
- worst case average CPI: 1.123
- worst case efficiency: 0.708
- efficiency to beat: 0.708
- normalized lower bound 1883
--- checking solution
--- solution ok! Maximum rounding error: 0.000052
- solution found, obj var is: 1885
- de-normalized obj var: 0.713100
- time (local/global): 0.025/12.410
- branches (local/global): 1300/933823
- fails (local/global): 600/455159
- lns time: 0.030000
- lns branches: 1300
- lns fails: 600
LNS iteration #60 ========================================
- worst case average CPI: 1.123
- worst case efficiency: 0.709
- efficiency to beat: 0.709
- normalized lower bound 1895
--- checking solution
--- solution ok! Maximum rounding error: 0.000027
- solution found, obj var is: 2041
- de-normalized obj var: 0.722460
- time (local/global): 0.000/12.415
- branches (local/global): 21/933844
- fails (local/global): 0/455159
- lns time: 0.005000
- lns branches: 21
- lns fails: 0
LNS iteration #61 ========================================
- worst case average CPI: 1.123
- worst case efficiency: 0.710
- efficiency to beat: 0.710
- normalized lower bound 1915
- lns time: 3.005000
- lns branches: 152204
- lns fails: 74371
LNS iteration #62 ========================================
- worst case average CPI: 1.123
- worst case efficiency: 0.710
- efficiency to beat: 0.710
- normalized lower bound 1915
- lns time: 3.004000
- lns branches: 231416
- lns fails: 113448
LNS iteration #63 ========================================
- worst case average CPI: 1.123
- worst case efficiency: 0.710
- efficiency to beat: 0.710
- normalized lower bound 1915
--- checking solution
--- solution ok! Maximum rounding error: 0.000029
- solution found, obj var is: 1982
- de-normalized obj var: 0.718920
- time (local/global): 0.001/18.430
- branches (local/global): 50/1317514
- fails (local/global): 19/642997
- lns time: 0.005000
- lns branches: 50
- lns fails: 19
LNS iteration #64 ========================================
- worst case average CPI: 1.123
- worst case efficiency: 0.711
- efficiency to beat: 0.711
- normalized lower bound 1937
--- checking solution
--- solution ok! Maximum rounding error: 0.000316
- solution found, obj var is: 2037
- de-normalized obj var: 0.722220
- time (local/global): 0.000/18.434
- branches (local/global): 20/1317534
- fails (local/global): 3/643000
- lns time: 0.004000
- lns branches: 20
- lns fails: 3
LNS iteration #65 ========================================
- worst case average CPI: 1.123
- worst case efficiency: 0.711
- efficiency to beat: 0.711
- normalized lower bound 1939
--- checking solution
--- solution ok! Maximum rounding error: 0.000139
- solution found, obj var is: 1975
- de-normalized obj var: 0.718500
- time (local/global): 0.095/18.533
- branches (local/global): 6678/1324212
- fails (local/global): 3208/646208
- lns time: 0.099000
- lns branches: 6678
- lns fails: 3208
LNS iteration #66 ========================================
- worst case average CPI: 1.123
- worst case efficiency: 0.711
- efficiency to beat: 0.711
- normalized lower bound 1940
- lns time: 3.004000
- lns branches: 193822
- lns fails: 94902
LNS iteration #67 ========================================
- worst case average CPI: 1.123
- worst case efficiency: 0.711
- efficiency to beat: 0.711
- normalized lower bound 1940
- lns time: 3.005000
- lns branches: 224130
- lns fails: 109768
LNS iteration #68 ========================================
- worst case average CPI: 1.123
- worst case efficiency: 0.711
- efficiency to beat: 0.711
- normalized lower bound 1940
--- checking solution
--- solution ok! Maximum rounding error: 0.000097
- solution found, obj var is: 1948
- de-normalized obj var: 0.716880
- time (local/global): 1.107/25.653
- branches (local/global): 98461/1840625
- fails (local/global): 48043/898921
- lns time: 1.113000
- lns branches: 98461
- lns fails: 48043
LNS iteration #69 ========================================
- worst case average CPI: 1.123
- worst case efficiency: 0.712
- efficiency to beat: 0.712
- normalized lower bound 1950
--- checking solution
--- solution ok! Maximum rounding error: 0.000030
- solution found, obj var is: 2058
- de-normalized obj var: 0.723480
- time (local/global): 0.001/25.660
- branches (local/global): 20/1840645
- fails (local/global): 0/898921
- lns time: 0.006000
- lns branches: 20
- lns fails: 0
LNS iteration #70 ========================================
- worst case average CPI: 1.123
- worst case efficiency: 0.713
- efficiency to beat: 0.713
- normalized lower bound 1965
- lns time: 3.005000
- lns branches: 259685
- lns fails: 126958
LNS iteration #71 ========================================
- worst case average CPI: 1.123
- worst case efficiency: 0.713
- efficiency to beat: 0.713
- normalized lower bound 1965
--- checking solution
--- solution ok! Maximum rounding error: 0.000081
- solution found, obj var is: 2056
- de-normalized obj var: 0.723360
- time (local/global): 0.622/29.292
- branches (local/global): 50349/2150679
- fails (local/global): 24400/1050279
- lns time: 0.627000
- lns branches: 50349
- lns fails: 24400
LNS iteration #72 ========================================
- worst case average CPI: 1.331
- worst case efficiency: 0.713
- efficiency to beat: 0.713
- normalized lower bound 1965
--- checking solution
--- solution ok! Maximum rounding error: 0.000025
- solution found, obj var is: 1989
- de-normalized obj var: 0.719340
- time (local/global): 0.069/29.366
- branches (local/global): 7536/2158215
- fails (local/global): 3603/1053882
- lns time: 0.073000
- lns branches: 7536
- lns fails: 3603
LNS iteration #73 ========================================
- worst case average CPI: 1.331
- worst case efficiency: 0.713
- efficiency to beat: 0.713
- normalized lower bound 1970
--- checking solution
--- solution ok! Maximum rounding error: 0.000011
- solution found, obj var is: 1979
- de-normalized obj var: 0.718740
- time (local/global): 0.024/29.394
- branches (local/global): 1731/2159946
- fails (local/global): 807/1054689
- lns time: 0.028000
- lns branches: 1731
- lns fails: 807
LNS iteration #74 ========================================
- worst case average CPI: 1.331
- worst case efficiency: 0.713
- efficiency to beat: 0.713
- normalized lower bound 1968
--- checking solution
--- solution ok! Maximum rounding error: 0.000075
- solution found, obj var is: 2000
- de-normalized obj var: 0.720000
- time (local/global): 0.006/29.404
- branches (local/global): 653/2160599
- fails (local/global): 299/1054988
- lns time: 0.010000
- lns branches: 653
- lns fails: 299
LNS iteration #75 ========================================
- worst case average CPI: 1.331
- worst case efficiency: 0.713
- efficiency to beat: 0.713
- normalized lower bound 1971
--- checking solution
--- solution ok! Maximum rounding error: 0.000006
- solution found, obj var is: 1988
- de-normalized obj var: 0.719280
- time (local/global): 0.050/29.458
- branches (local/global): 4241/2164840
- fails (local/global): 2005/1056993
- lns time: 0.054000
- lns branches: 4241
- lns fails: 2005
LNS iteration #76 ========================================
- worst case average CPI: 1.331
- worst case efficiency: 0.717
- efficiency to beat: 0.717
- normalized lower bound 2029
- lns time: 3.004000
- lns branches: 201465
- lns fails: 98728
LNS iteration #77 ========================================
- worst case average CPI: 1.331
- worst case efficiency: 0.717
- efficiency to beat: 0.717
- normalized lower bound 2029
- lns time: 3.004000
- lns branches: 256391
- lns fails: 125500
LNS iteration #78 ========================================
- worst case average CPI: 1.331
- worst case efficiency: 0.717
- efficiency to beat: 0.717
- normalized lower bound 2029
--- checking solution
--- solution ok! Maximum rounding error: 0.000090
- solution found, obj var is: 2098
- de-normalized obj var: 0.725880
- time (local/global): 0.132/35.602
- branches (local/global): 7882/2630578
- fails (local/global): 3777/1284998
- lns time: 0.138000
- lns branches: 7882
- lns fails: 3777
LNS iteration #79 ========================================
- worst case average CPI: 1.185
- worst case efficiency: 0.717
- efficiency to beat: 0.717
- normalized lower bound 2041
--- checking solution
--- solution ok! Maximum rounding error: 0.000041
- solution found, obj var is: 2054
- de-normalized obj var: 0.723240
- time (local/global): 1.442/37.050
- branches (local/global): 99558/2730136
- fails (local/global): 48501/1333499
- lns time: 1.447000
- lns branches: 99558
- lns fails: 48501
LNS iteration #80 ========================================
- worst case average CPI: 1.185
- worst case efficiency: 0.718
- efficiency to beat: 0.718
- normalized lower bound 2058
- lns time: 3.006000
- lns branches: 186264
- lns fails: 91068
LNS iteration #81 ========================================
- worst case average CPI: 1.185
- worst case efficiency: 0.718
- efficiency to beat: 0.718
- normalized lower bound 2058
--- checking solution
--- solution ok! Maximum rounding error: 0.000060
- solution found, obj var is: 2071
- de-normalized obj var: 0.724260
- time (local/global): 0.004/40.065
- branches (local/global): 253/2916653
- fails (local/global): 110/1424677
- lns time: 0.009000
- lns branches: 253
- lns fails: 110
LNS iteration #82 ========================================
- worst case average CPI: 1.185
- worst case efficiency: 0.719
- efficiency to beat: 0.719
- normalized lower bound 2071
--- checking solution
--- solution ok! Maximum rounding error: 0.000081
- solution found, obj var is: 2125
- de-normalized obj var: 0.727500
- time (local/global): 0.005/40.075
- branches (local/global): 234/2916887
- fails (local/global): 101/1424778
- lns time: 0.010000
- lns branches: 234
- lns fails: 101
LNS iteration #83 ========================================
- worst case average CPI: 1.185
- worst case efficiency: 0.721
- efficiency to beat: 0.721
- normalized lower bound 2107
--- checking solution
--- solution ok! Maximum rounding error: 0.000076
- solution found, obj var is: 2205
- de-normalized obj var: 0.732300
- time (local/global): 0.173/40.253
- branches (local/global): 11663/2928550
- fails (local/global): 5600/1430378
- lns time: 0.179000
- lns branches: 11663
- lns fails: 5600
LNS iteration #84 ========================================
- worst case average CPI: 1.218
- worst case efficiency: 0.722
- efficiency to beat: 0.722
- normalized lower bound 2125
- lns time: 3.025000
- lns branches: 145078
- lns fails: 70864
LNS iteration #85 ========================================
- worst case average CPI: 1.218
- worst case efficiency: 0.722
- efficiency to beat: 0.722
- normalized lower bound 2125
--- checking solution
--- solution ok! Maximum rounding error: 0.000007
- solution found, obj var is: 2129
- de-normalized obj var: 0.727740
- time (local/global): 0.006/43.290
- branches (local/global): 248/3073876
- fails (local/global): 113/1501355
- lns time: 0.015000
- lns branches: 248
- lns fails: 113
LNS iteration #86 ========================================
- worst case average CPI: 1.218
- worst case efficiency: 0.723
- efficiency to beat: 0.723
- normalized lower bound 2127
--- checking solution
--- solution ok! Maximum rounding error: 0.000033
- solution found, obj var is: 2131
- de-normalized obj var: 0.727860
- time (local/global): 0.242/43.541
- branches (local/global): 8380/3082256
- fails (local/global): 4018/1505373
- lns time: 0.249000
- lns branches: 8380
- lns fails: 4018
LNS iteration #87 ========================================
- worst case average CPI: 0.818
- worst case efficiency: 0.723
- efficiency to beat: 0.723
- normalized lower bound 2139
--- checking solution
--- solution ok! Maximum rounding error: 0.000000
- solution found, obj var is: 3092
- de-normalized obj var: 0.785520
- time (local/global): 0.033/43.581
- branches (local/global): 2759/3085015
- fails (local/global): 1300/1506673
- lns time: 0.041000
- lns branches: 2759
- lns fails: 1300
LNS iteration #88 ========================================
- worst case average CPI: 0.818
- worst case efficiency: 0.724
- efficiency to beat: 0.724
- normalized lower bound 2155
- lns time: 3.008000
- lns branches: 234779
- lns fails: 114977
LNS iteration #89 ========================================
- worst case average CPI: 0.818
- worst case efficiency: 0.724
- efficiency to beat: 0.724
- normalized lower bound 2155
- lns time: 3.004000
- lns branches: 195193
- lns fails: 95656
LNS iteration #90 ========================================
- worst case average CPI: 0.818
- worst case efficiency: 0.724
- efficiency to beat: 0.724
- normalized lower bound 2155
- lns time: 3.008000
- lns branches: 264725
- lns fails: 129382
LNS iteration #91 ========================================
- worst case average CPI: 0.818
- worst case efficiency: 0.724
- efficiency to beat: 0.724
- normalized lower bound 2155
--- checking solution
--- solution ok! Maximum rounding error: 0.000017
- solution found, obj var is: 2209
- de-normalized obj var: 0.732540
- time (local/global): 0.217/52.826
- branches (local/global): 14314/3794026
- fails (local/global): 6926/1853614
- lns time: 0.221000
- lns branches: 14314
- lns fails: 6926
LNS iteration #92 ========================================
- worst case average CPI: 0.818
- worst case efficiency: 0.724
- efficiency to beat: 0.724
- normalized lower bound 2155
--- checking solution
--- solution ok! Maximum rounding error: 0.000094
- solution found, obj var is: 2212
- de-normalized obj var: 0.732720
- time (local/global): 0.044/52.874
- branches (local/global): 2530/3796556
- fails (local/global): 1200/1854814
- lns time: 0.048000
- lns branches: 2530
- lns fails: 1200
LNS iteration #93 ========================================
- worst case average CPI: 0.818
- worst case efficiency: 0.725
- efficiency to beat: 0.725
- normalized lower bound 2171
- lns time: 3.004000
- lns branches: 241932
- lns fails: 118401
LNS iteration #94 ========================================
- worst case average CPI: 0.818
- worst case efficiency: 0.725
- efficiency to beat: 0.725
- normalized lower bound 2171
--- checking solution
--- solution ok! Maximum rounding error: 0.000044
- solution found, obj var is: 2194
- de-normalized obj var: 0.731640
- time (local/global): 0.139/56.021
- branches (local/global): 9174/4047662
- fails (local/global): 4400/1977615
- lns time: 0.143000
- lns branches: 9174
- lns fails: 4400
LNS iteration #95 ========================================
- worst case average CPI: 0.818
- worst case efficiency: 0.725
- efficiency to beat: 0.725
- normalized lower bound 2171
--- checking solution
--- solution ok! Maximum rounding error: 0.000073
- solution found, obj var is: 2247
- de-normalized obj var: 0.734820
- time (local/global): 0.047/56.072
- branches (local/global): 1922/4049584
- fails (local/global): 909/1978524
- lns time: 0.051000
- lns branches: 1922
- lns fails: 909
LNS iteration #96 ========================================
- worst case average CPI: 1.218
- worst case efficiency: 0.726
- efficiency to beat: 0.726
- normalized lower bound 2181
- lns time: 3.006000
- lns branches: 286882
- lns fails: 141517
LNS iteration #97 ========================================
- worst case average CPI: 1.218
- worst case efficiency: 0.726
- efficiency to beat: 0.726
- normalized lower bound 2181
- lns time: 3.005000
- lns branches: 213372
- lns fails: 104485
LNS iteration #98 ========================================
- worst case average CPI: 1.218
- worst case efficiency: 0.726
- efficiency to beat: 0.726
- normalized lower bound 2181
--- checking solution
--- solution ok! Maximum rounding error: 0.000228
- solution found, obj var is: 2199
- de-normalized obj var: 0.731940
- time (local/global): 0.228/62.315
- branches (local/global): 16957/4566795
- fails (local/global): 8207/2232733
- lns time: 0.232000
- lns branches: 16957
- lns fails: 8207
LNS iteration #99 ========================================
- worst case average CPI: 1.218
- worst case efficiency: 0.726
- efficiency to beat: 0.726
- normalized lower bound 2187
--- checking solution
--- solution ok! Maximum rounding error: 0.000030
- solution found, obj var is: 2237
- de-normalized obj var: 0.734220
- time (local/global): 0.030/62.349
- branches (local/global): 2970/4569765
- fails (local/global): 1401/2234134
- lns time: 0.034000
- lns branches: 2970
- lns fails: 1401
LNS iteration #100 ========================================
- worst case average CPI: 1.218
- worst case efficiency: 0.726
- efficiency to beat: 0.726
- normalized lower bound 2189
- lns time: 3.004000
- lns branches: 208387
- lns fails: 102300
LNS iteration #101 ========================================
- worst case average CPI: 1.218
- worst case efficiency: 0.726
- efficiency to beat: 0.726
- normalized lower bound 2189
--- checking solution
--- solution ok! Maximum rounding error: 0.000109
- solution found, obj var is: 2223
- de-normalized obj var: 0.733380
- time (local/global): 0.001/65.358
- branches (local/global): 90/4778242
- fails (local/global): 36/2336470
- lns time: 0.006000
- lns branches: 90
- lns fails: 36
LNS iteration #102 ========================================
- worst case average CPI: 1.218
- worst case efficiency: 0.727
- efficiency to beat: 0.727
- normalized lower bound 2197
--- checking solution
--- solution ok! Maximum rounding error: 0.000114
- solution found, obj var is: 2198
- de-normalized obj var: 0.731880
- time (local/global): 0.006/65.369
- branches (local/global): 348/4778590
- fails (local/global): 162/2336632
- lns time: 0.010000
- lns branches: 348
- lns fails: 162
LNS iteration #103 ========================================
- worst case average CPI: 1.218
- worst case efficiency: 0.727
- efficiency to beat: 0.727
- normalized lower bound 2206
- lns time: 3.005000
- lns branches: 166134
- lns fails: 81107
LNS iteration #104 ========================================
- worst case average CPI: 1.218
- worst case efficiency: 0.727
- efficiency to beat: 0.727
- normalized lower bound 2206
- lns time: 3.005000
- lns branches: 247703
- lns fails: 121296
LNS iteration #105 ========================================
- worst case average CPI: 1.218
- worst case efficiency: 0.727
- efficiency to beat: 0.727
- normalized lower bound 2206
--- checking solution
--- solution ok! Maximum rounding error: 0.000000
- solution found, obj var is: 2350
- de-normalized obj var: 0.741000
- time (local/global): 0.000/71.383
- branches (local/global): 12/5192439
- fails (local/global): 0/2539035
- lns time: 0.004000
- lns branches: 12
- lns fails: 0
LNS iteration #106 ========================================
- worst case average CPI: 1.218
- worst case efficiency: 0.728
- efficiency to beat: 0.728
- normalized lower bound 2217
--- checking solution
--- solution ok! Maximum rounding error: 0.000082
- solution found, obj var is: 2219
- de-normalized obj var: 0.733140
- time (local/global): 0.001/71.388
- branches (local/global): 22/5192461
- fails (local/global): 0/2539035
- lns time: 0.005000
- lns branches: 22
- lns fails: 0
LNS iteration #107 ========================================
- worst case average CPI: 1.218
- worst case efficiency: 0.732
- efficiency to beat: 0.732
- normalized lower bound 2282
- lns time: 3.004000
- lns branches: 244578
- lns fails: 119713
LNS iteration #108 ========================================
- worst case average CPI: 1.218
- worst case efficiency: 0.732
- efficiency to beat: 0.732
- normalized lower bound 2282
- lns time: 3.004000
- lns branches: 221637
- lns fails: 108674
LNS iteration #109 ========================================
- worst case average CPI: 1.218
- worst case efficiency: 0.732
- efficiency to beat: 0.732
- normalized lower bound 2282
- lns time: 3.004000
- lns branches: 211290
- lns fails: 103621
LNS iteration #110 ========================================
- worst case average CPI: 1.218
- worst case efficiency: 0.732
- efficiency to beat: 0.732
- normalized lower bound 2282
- lns time: 3.004000
- lns branches: 282977
- lns fails: 138394
LNS iteration #111 ========================================
- worst case average CPI: 1.218
- worst case efficiency: 0.732
- efficiency to beat: 0.732
- normalized lower bound 2282
- lns time: 3.005000
- lns branches: 221207
- lns fails: 108376
LNS iteration #112 ========================================
- worst case average CPI: 1.218
- worst case efficiency: 0.732
- efficiency to beat: 0.732
- normalized lower bound 2282
- lns time: 3.004000
- lns branches: 312197
- lns fails: 154137
LNS iteration #113 ========================================
- worst case average CPI: 1.218
- worst case efficiency: 0.732
- efficiency to beat: 0.732
- normalized lower bound 2282
- lns time: 0.588000
- lns branches: 47466
- lns fails: 23070

LNS optimization is over========================================
initial worst case average CPI: 2.109
final worst case average CPI: 1.218
initial worst case efficiency: 0.635
final worst case efficiency: 0.732
number of iterations: 114
total time: 90005.000000
total branches: 6733813
total fails: 3295020

Final Solution: 0->1, 1->8, 2->5, 3->41, 4->15, 5->42, 6->8, 7->26, 8->19, 9->3, 10->0, 11->2, 12->46, 13->9, 14->40, 15->1, 16->16, 17->37, 18->20, 19->5, 20->25, 21->39, 22->40, 23->26, 24->21, 25->20, 26->20, 27->15, 28->3, 29->33, 30->12, 31->28, 32->45, 33->31, 34->25, 35->19, 36->34, 37->20, 38->23, 39->18, 40->25, 41->38, 42->33, 43->38, 44->36, 45->29, 46->22, 47->28, 48->36, 49->8, 50->37, 51->21, 52->42, 53->11, 54->45, 55->41, 56->28, 57->44, 58->9, 59->10, 60->34, 61->10, 62->30, 63->45, 64->11, 65->23, 66->25, 67->38, 68->26, 69->38, 70->29, 71->27, 72->11, 73->19, 74->38, 75->39, 76->26, 77->15, 78->40, 79->36, 80->45, 81->36, 82->44, 83->30, 84->16, 85->13, 86->24, 87->22, 88->35, 89->11, 90->24, 91->41, 92->19, 93->46, 94->24, 95->11, 96->5, 97->28, 98->29, 99->19, 100->35, 101->2, 102->14, 103->4, 104->13, 105->29, 106->33, 107->5, 108->5, 109->45, 110->29, 111->16, 112->20, 113->12, 114->36, 115->46, 116->25, 117->17, 118->35, 119->24, 120->26, 121->18, 122->30, 123->37, 124->14, 125->40, 126->10, 127->10, 128->9, 129->16, 130->30, 131->32, 132->37, 133->47, 134->31, 135->23, 136->18, 137->10, 138->28, 139->2, 140->46, 141->47, 142->45, 143->33, 144->39, 145->34, 146->11, 147->36, 148->27, 149->41, 150->27, 151->9, 152->14, 153->20, 154->13, 155->25, 156->8, 157->31, 158->2, 159->4, 160->17, 161->41, 162->33, 163->7, 164->21, 165->26, 166->37, 167->28, 168->16, 169->24, 170->8, 171->46, 172->21, 173->21, 174->23, 175->0, 176->17, 177->33, 178->17, 179->32, 180->41, 181->13, 182->22, 183->18, 184->24, 185->39, 186->42, 187->2, 188->29, 189->43, 190->15, 191->5, 192->43, 193->13, 194->7, 195->2, 196->27, 197->0, 198->7, 199->47, 200->3, 201->0, 202->43, 203->12, 204->3, 205->17, 206->30, 207->1, 208->7, 209->21, 210->39, 211->4, 212->13, 213->34, 214->17, 215->34, 216->1, 217->32, 218->43, 219->9, 220->42, 221->23, 222->22, 223->40, 224->34, 225->32, 226->15, 227->10, 228->1, 229->44, 230->44, 231->18, 232->35, 233->8, 234->38, 235->16, 236->0, 237->31, 238->37, 239->19, 240->31, 241->9, 242->22, 243->6, 244->6, 245->40, 246->27, 247->35, 248->6, 249->43, 250->4, 251->14, 252->15, 253->42, 254->39, 255->6, 256->22, 257->18, 258->14, 259->30, 260->44, 261->47, 262->4, 263->27, 264->6, 265->32, 266->23, 267->7, 268->12, 269->47, 270->14, 271->1, 272->6, 273->3, 274->32, 275->12, 276->42, 277->12, 278->7, 279->35, 280->43, 281->44, 282->3, 283->4, 284->47, 285->31, 286->46, 287->0

Average CPI map:
	7.34,	1.89,	1.73,	1.85,	1.22,	1.75
	2.20,	3.56,	3.29,	5.07,	3.61,	2.07
	1.83,	6.36,	4.94,	8.05,	5.26,	1.43
	1.24,	5.32,	5.04,	5.56,	3.43,	1.85
	1.31,	3.81,	6.64,	7.16,	6.86,	1.43
	1.60,	5.90,	6.83,	4.88,	4.35,	1.44
	1.76,	5.10,	5.22,	3.40,	5.12,	1.95
	1.91,	2.30,	3.01,	2.94,	3.47,	1.73

Efficiency map:
	0.997,	0.945,	0.929,	0.937,	0.937,	0.996
	0.861,	0.732,	0.732,	0.774,	0.741,	0.853
	0.832,	0.746,	0.733,	0.733,	0.738,	0.815
	0.808,	0.741,	0.756,	0.776,	0.735,	0.826
	0.804,	0.733,	0.786,	0.797,	0.814,	0.776
	0.802,	0.752,	0.732,	0.733,	0.748,	0.815
	0.872,	0.735,	0.757,	0.732,	0.768,	0.831
	0.844,	0.732,	0.734,	0.734,	0.733,	0.837
