LocalSolver 4.0 (MacOS64, build 20131224)
Copyright (C) 2013 Bouygues SA, Aix-Marseille University, CNRS.
All rights reserved (see Terms and Conditions for details).

Load localsolver_res/tawd_ls.lsp...
Run input...
ANNs For the Platform:
3,2,1,0.413586,-0.0266769,-0.0683771,-5.1002,70.5254,-0.257939,-72.3361,-14.3957,-55.9961,0.000416225,-55.1984
3,2,1,7.29748,1.94844,3.18138,9.63196,-4.67735,-4.13678,1.22405,-8.03403,0.0803394,-0.125838,0.598848
3,2,1,6.43996,0.383984,0.598454,7.79024,-4.25175,0.123161,-0.278344,-5.71253,1.47885,1.00258,0.327892
3,2,1,3.45395,0.140329,0.51254,4.25255,4.08469,0.00326531,0.722664,3.88666,1.2829,-0.290289,-0.187123
3,2,1,1.76581,-0.7465,16.0398,1.01103,2.42771,0.96084,1.00318,4.14242,-0.00284347,0.244904,0.56299
3,2,1,1.87058,0.359859,-0.0851999,0.818043,3.18969,0.847611,-7.29654,-2.24823,0.00245596,0.000486788,0.794563
3,2,1,3.28113,0.579268,0.142679,3.72653,-0.240895,-0.149383,25.0414,7.13641,0.488705,-0.00083541,0.320468
3,2,1,-4.78997,-2.53518,1.7971,11.1628,-3.08773,-0.470276,-0.0894822,-2.63871,1.46314,-0.463195,-1.12076
3,2,1,-0.392198,-0.00544948,0.0100489,-0.634573,-1.21109,-0.0856362,-0.013156,-1.60668,1.54201,-2.33195,-0.462253
3,2,1,3.15031,0.401017,0.160161,2.51156,5.71314,0.59291,-11.6364,2.59774,0.430465,0.00737346,0.36306
3,2,1,2.64111,0.312028,0.0803827,2.35273,-4.25958,3.48188,-1.59773,-1.57632,0.565527,0.0271972,0.266241
3,2,1,2.2658,0.0425076,0.0191991,-0.583848,2.82415,0.533705,0.0754136,3.33659,-0.0169351,0.54785,0.257008
3,2,1,6.01014,0.654767,0.24854,5.54419,5.68574,0.00137666,0.00103835,-1.46229,0.258518,0.00962319,0.54621
3,2,1,-0.828282,0.684875,0.223674,-1.44779,5.0064,0.272371,0.00344824,2.89438,0.397142,0.379767,0.797684
3,2,1,-0.166745,-1.25514,-0.967701,-3.82155,3.34568,0.34907,0.176897,2.37943,0.567319,0.42026,0.93611
3,2,1,-10.035,3.55243,8.66202,-21.5626,10.92,0.228744,0.12852,5.40188,0.871264,0.345634,1.3209
3,2,1,4.50278,0.709934,0.227356,3.41616,1.455,0.115548,0.0125181,-1.15221,0.345467,0.222127,0.602264
3,2,1,3.51765,0.552987,0.202187,3.41883,0.53704,0.0709757,-0.0346297,-0.38017,0.320095,-0.0397752,0.474568
3,2,1,3.62936,0.506661,0.201819,3.49179,3.4019,-3.09955,1.3332,0.961184,0.32649,-0.0126443,0.488413
3,2,1,3.50925,0.448618,0.127508,2.4823,1.78455,1.6893,1.46456,-0.207671,0.400287,0.00684206,0.402337
3,2,1,-0.52883,0.00691432,0.00617163,-0.194006,1.73284,0.0488672,0.0179273,1.25978,0.716787,0.92667,0.162242
3,2,1,2.48239,0.190378,0.120167,1.91689,1.21532,1.48543,0.644574,2.68198,0.547395,-0.0744913,0.328097
3,2,1,2.55861,2.02297,0.650126,2.19109,2.44652,0.0836318,0.0133745,2.4369,0.0418722,0.798841,-0.0334834
3,2,1,5.07371,0.556895,0.217981,4.66725,-0.00829845,-0.00544544,0.00934569,-0.672651,0.280461,-0.520981,0.217266
3,2,1,1.56588,0.201966,0.0665967,1.82578,1.97654,0.236717,0.0903453,1.08195,1.02748,-0.229836,0.011785
3,2,1,2.41728,0.208205,-0.0012583,2.05484,1.41976,-1.30194,1.45365,1.79277,0.56727,0.031184,0.207229
3,2,1,3.71833,0.202336,0.172606,2.43155,5.03284,0.375118,-0.790998,-3.83455,0.400925,0.372075,0.754779
3,2,1,-1.25583,1.47411,0.819895,-2.78448,4.36107,0.113478,0.107247,2.55416,0.385214,0.384141,0.797017
3,2,1,1.71562,-0.478906,-0.61026,-1.17859,3.1361,0.360865,0.0914124,2.2536,-0.0127033,0.431384,0.365879
3,2,1,-1.75501,-0.0880109,-0.026461,-2.68365,2.88327,0.072433,0.0245574,1.95701,-5.87306,-0.563325,-4.48698
3,2,1,1.87886,0.47325,-0.0511434,1.79719,1.94184,0.328234,0.0220624,2.54301,-0.401251,1.77114,-0.565042
3,2,1,-1.60981,1.67946,0.217969,-1.01084,4.35765,0.130722,0.127348,2.65259,0.0709006,0.384957,0.481341
3,2,1,6.90393,1.27603,0.349979,4.84299,12.4465,-4.65212,-2.15462,0.408255,0.295914,0.0666312,0.4354
3,2,1,3.04491,0.18183,0.111428,2.10543,3.32281,-0.49945,-3.78487,-7.88748,0.444834,-4.36795,-4.01116
3,2,1,2.91407,0.251062,0.0435786,2.27032,0.308764,1.59867,0.766589,0.134898,0.475285,0.00569166,0.326702
3,2,1,1.44846,0.205113,0.0448314,1.45909,1.93039,0.286882,0.0586866,1.17886,1.39166,-0.600981,0.0448012
3,2,1,-0.702729,1.84783,-0.00894741,-12.1377,-140.908,-69.0514,-27.175,-146.219,-4.51728,-0.14351,-3.88527
3,2,1,4.2004,0.255152,0.0750175,2.63627,-1.17866,1.67307,0.209535,-1.03514,0.371915,0.0747402,0.498851
3,2,1,3.28015,0.190841,0.175032,2.31848,-0.821253,-1.83022,1.5009,-1.6155,0.417221,-0.0239081,0.360136
3,2,1,2.0525,0.0719707,0.0148549,2.1486,2.00198,1.73479,2.09334,1.44082,0.954066,0.00952719,-0.152697
3,2,1,3.31406,0.407717,0.0380361,2.47187,-0.266021,-1.73458,0.970613,-1.79463,0.415264,-0.0144649,0.374956
3,2,1,6.25099,-3.17047,1.46865,-0.279767,-2.91952,-0.395169,-0.0444215,-3.76202,-0.00491872,-1.23429,-0.425145
3,2,1,1.59636,0.096013,0.0630313,0.826005,1.46151,0.077228,0.0482484,1.68899,-0.289647,1.15304,-0.0688712
3,2,1,33.0172,0.520442,0.135338,28.5555,-3.97298,-0.0574545,-0.0193135,3.34452,0.297691,-5.9863,6.38072
3,2,1,2.32742,0.056139,0.0279748,2.30198,0.254535,0.117712,2.12797,1.7883,0.827797,-0.00209653,-0.0205758
3,2,1,-1.76524,-0.0296866,-0.00748622,-2.47523,4.4267,-0.377196,-4.83785,1.3517,-2.37434,-0.00716866,-1.55224
3,2,1,1.2047,-1.47491,1.03821,1.50617,3.23679,0.3845,-0.018138,2.47251,0.0419137,0.407618,0.357451
3,2,1,3.93828,-0.00820725,-0.00812648,-1.1651,2.06372,0.114124,0.0339398,2.70327,-0.0635318,1.17159,-0.373077
Workload Information:
3.16677, 0.552865, 1.32298, 3.12211, 0.731569, 3.10371, 1.2612, 0.5, 1.46763, 5.97021, 1.38502, 1.41594, 1.50121, 2.0939, 2.53628, 2.04798, 2.16037, 1.66026, 0.807233, 2.79768, 0.743508, 0.5, 3.57748, 3.57409, 1.7275, 1.71631, 2.40276, 2.18868, 1.87854, 2.08621, 2.08286, 2.98595, 2.43447, 3.4015, 0.5, 0.595212, 0.667261, 1.24142, 4.04406, 1.88579, 0.882948, 3.27852, 2.27525, 1.69474, 1.76537, 1.65922, 2.29413, 2.31128, 1.11371, 0.787628, 2.89236, 3.54444, 0.5, 3.16187, 2.00172, 2.11386, 2.1298, 1.90754, 1.92052, 1.92656, 1.97965, 2.6878, 1.11997, 2.65222, 0.5, 3.06036, 2.85316, 2.12014, 2.93418, 1.65542, 0.5, 1.9371, 11.7512, 11.9685, 8.63206, 9.59966, 10.0474, 8.00112, 2.16075, 1.94883, 1.92622, 2.28592, 1.25839, 2.41989, 2.0228, 4.79308, 0.951753, 1.1168, 2.42198, 0.693589, 0.588691, 3.16218, 3.69829, 0.75144, 0.5, 3.2994, 1.06102, 0.934424, 3.79943, 1.03297, 2.03273, 3.13943, 2.77266, 2.66219, 1.96432, 3.0942, 1.00663, 0.5, 1.66585, 2.54982, 2.63626, 1.83538, 2.36083, 0.951861, 17.8815, 12.1507, 6.89925, 10.3983, 6.05457, 6.61562, 3.76776, 1.84813, 2.14991, 0.94212, 0.5, 2.79209, 1.46509, 2.82923, 2.87292, 3.49018, 0.738201, 0.604373, 2.32148, 1.91172, 2.44474, 1.52231, 1.79154, 2.0082, 1.82272, 1.35783, 2.42845, 2.71231, 2.09494, 1.58374, 11.9625, 15.0758, 11.5414, 1.46537, 15.4325, 4.52245, 8.58849, 16.4922, 17.5132, 3.58395, 5.02879, 8.79342, 1.9893, 2.23152, 1.61701, 1.97846, 2.18059, 2.00313, 2.16208, 2.00138, 2.23112, 2.2001, 2.22482, 1.18049, 2.2247, 2.4661, 2.95476, 0.879442, 2.42377, 1.05124, 3.9735, 2.64003, 1.79781, 0.5, 1.64795, 1.44072, 2.092, 0.842462, 1.42652, 0.603459, 2.35185, 4.6837, 0.5, 4.74097, 1.55172, 1.10802, 1.84743, 2.25187, 2.46553, 1.04171, 2.9721, 2.18323, 0.5, 2.83742, 0.5, 4.53402, 1.12206, 0.562305, 1.3333, 3.94831, 2.77443, 1.30841, 2.38395, 1.58606, 2.39146, 1.55568, 2.45593, 1.43254, 1.45231, 1.51227, 2.53621, 2.61074, 3.46184, 2.39246, 2.86093, 0.5, 1.67423, 1.11054, 5.82139, 1.44459, 2.9009, 0.583379, 0.5, 0.749746, 2.29182, 1.98772, 1.88796, 2.34933, 2.38518, 1.09798, 0.5, 1.14938, 3.04879, 3.2407, 2.41068, 1.65045, 2.87753, 3.62579, 0.719462, 0.5, 0.990044, 3.28717, 2.46692, 0.736493, 2.16848, 4.80788, 0.752042, 1.06818, 2.36438, 2.33041, 1.48881, 1.88913, 2.31491, 1.61235, 2.53878, 3.06425, 3.05494, 1.07348, 1.49652, 0.772033, 1.24126, 1.55978, 2.39673, 3.00719, 3.29503, 0.5, 4.29793, 1.37301, 1.61013, 3.50633, 0.5, 0.712598, 2.03801, 1.26336, 0.5, 3.60041, 0.87444, 3.72378, 1.72439, 1.3915, 3.27714, 1.21099, 1.20117, 3.19481
cpi min/max: 0.5/17.8815
neighbors of 0: 1 6, number of others: 45
neighbors of 1: 0 2 6 7, number of others: 43
neighbors of 2: 1 3 7 8, number of others: 43
neighbors of 3: 2 4 8 9, number of others: 43
neighbors of 4: 3 5 9 10, number of others: 43
neighbors of 5: 4 10 11, number of others: 44
neighbors of 6: 0 1 7 12, number of others: 43
neighbors of 7: 1 2 6 8 12 13, number of others: 41
neighbors of 8: 2 3 7 9 13 14, number of others: 41
neighbors of 9: 3 4 8 10 14 15, number of others: 41
neighbors of 10: 4 5 9 11 15 16, number of others: 41
neighbors of 11: 5 10 16 17, number of others: 43
neighbors of 12: 6 7 13 18, number of others: 43
neighbors of 13: 7 8 12 14 18 19, number of others: 41
neighbors of 14: 8 9 13 15 19 20, number of others: 41
neighbors of 15: 9 10 14 16 20 21, number of others: 41
neighbors of 16: 10 11 15 17 21 22, number of others: 41
neighbors of 17: 11 16 22 23, number of others: 43
neighbors of 18: 12 13 19 24, number of others: 43
neighbors of 19: 13 14 18 20 24 25, number of others: 41
neighbors of 20: 14 15 19 21 25 26, number of others: 41
neighbors of 21: 15 16 20 22 26 27, number of others: 41
neighbors of 22: 16 17 21 23 27 28, number of others: 41
neighbors of 23: 17 22 28 29, number of others: 43
neighbors of 24: 18 19 25 30, number of others: 43
neighbors of 25: 19 20 24 26 30 31, number of others: 41
neighbors of 26: 20 21 25 27 31 32, number of others: 41
neighbors of 27: 21 22 26 28 32 33, number of others: 41
neighbors of 28: 22 23 27 29 33 34, number of others: 41
neighbors of 29: 23 28 34 35, number of others: 43
neighbors of 30: 24 25 31 36, number of others: 43
neighbors of 31: 25 26 30 32 36 37, number of others: 41
neighbors of 32: 26 27 31 33 37 38, number of others: 41
neighbors of 33: 27 28 32 34 38 39, number of others: 41
neighbors of 34: 28 29 33 35 39 40, number of others: 41
neighbors of 35: 29 34 40 41, number of others: 43
neighbors of 36: 30 31 37 42, number of others: 43
neighbors of 37: 31 32 36 38 42 43, number of others: 41
neighbors of 38: 32 33 37 39 43 44, number of others: 41
neighbors of 39: 33 34 38 40 44 45, number of others: 41
neighbors of 40: 34 35 39 41 45 46, number of others: 41
neighbors of 41: 35 40 46 47, number of others: 43
neighbors of 42: 36 37 43, number of others: 44
neighbors of 43: 37 38 42 44, number of others: 43
neighbors of 44: 38 39 43 45, number of others: 43
neighbors of 45: 39 40 44 46, number of others: 43
neighbors of 46: 40 41 45 47, number of others: 43
neighbors of 47: 41 46, number of others: 45
Run model...
Preprocess model 0% ...Preprocess model 16% ...Preprocess model 32% ...Preprocess model 48% ...Preprocess model 66% ...Preprocess model 84% ...Preprocess model 100% ...
Close model 0% ...Close model 9% ...Close model 18% ...Close model 27% ...Close model 36% ...Close model 45% ...Close model 54% ...Close model 63% ...Close model 72% ...Close model 81% ...Close model 91% ...Close model 100% ...
Run param...
Run solver...
Initialize threads 0% ...Initialize threads 100% ...
Push initial solutions 0% ...Push initial solutions 100% ...

Model: 
  expressions = 30666, operands = 74976
  decisions = 13824, constraints = 336, objectives = 1

Param: 
  time limit = 90 sec, no iteration limit
  seed = 201, nb threads = 1, annealing level = 1

Objectives:
  Obj 0: maximize, no bound

Phases:
  Phase 0: time limit = 90 sec, no iteration limit, optimized objective = 0


Computed bounds:
  Obj 0: upper bound = 0.609077


Phase 0:
[0 sec, 0 itr]: infeas = (336, 336, 576), mov = 0, inf < 0.1%, acc < 0.1%, imp = 0

worst case efficiency: 0.965273
[1 sec, 2865 itr]: infeas = (4, 4, 4), mov = 2865, inf = 61.4%, acc = 30.1%, imp = 166

worst case efficiency: 0.622412
[2 sec, 41526 itr]: obj = (0.0545483), mov = 41526, inf = 97.2%, acc = 2.2%, imp = 187

worst case efficiency: 0.632729
[3 sec, 63595 itr]: obj = (0.0695804), mov = 63595, inf = 98.2%, acc = 1.5%, imp = 211

worst case efficiency: 0.641748
[4 sec, 75143 itr]: obj = (0.0798177), mov = 75143, inf = 98.4%, acc = 1.3%, imp = 231

worst case efficiency: 0.647891
[5 sec, 82454 itr]: obj = (0.0865485), mov = 82454, inf = 98.5%, acc = 1.3%, imp = 264

worst case efficiency: 0.651929
[6 sec, 88405 itr]: obj = (0.0895357), mov = 88405, inf = 98.6%, acc = 1.2%, imp = 283

worst case efficiency: 0.653721
[7 sec, 93554 itr]: obj = (0.0937565), mov = 93554, inf = 98.7%, acc = 1.2%, imp = 305

worst case efficiency: 0.656254
[8 sec, 98153 itr]: obj = (0.0945781), mov = 98153, inf = 98.7%, acc = 1.1%, imp = 317

worst case efficiency: 0.656747
[9 sec, 102361 itr]: obj = (0.100574), mov = 102361, inf = 98.8%, acc = 1.1%, imp = 344

worst case efficiency: 0.660344
[10 sec, 106116 itr]: obj = (0.103668), mov = 106116, inf = 98.8%, acc = 1.1%, imp = 364

worst case efficiency: 0.662201
[11 sec, 109507 itr]: obj = (0.103786), mov = 109507, inf = 98.8%, acc = 1.1%, imp = 372

worst case efficiency: 0.662271
[12 sec, 112814 itr]: obj = (0.103867), mov = 112814, inf = 98.8%, acc = 1%, imp = 375

worst case efficiency: 0.66232
[13 sec, 116197 itr]: obj = (0.104051), mov = 116197, inf = 98.9%, acc = 1%, imp = 376

worst case efficiency: 0.662431
[14 sec, 119745 itr]: obj = (0.104126), mov = 119745, inf = 98.9%, acc = 1%, imp = 380

worst case efficiency: 0.662475
[15 sec, 123412 itr]: obj = (0.104126), mov = 123412, inf = 98.9%, acc = 1%, imp = 380

worst case efficiency: 0.662475
[16 sec, 127066 itr]: obj = (0.104272), mov = 127066, inf = 99%, acc = 0.9%, imp = 383

worst case efficiency: 0.662563
[17 sec, 130917 itr]: obj = (0.104272), mov = 130917, inf = 99%, acc = 0.9%, imp = 383

worst case efficiency: 0.662563
[18 sec, 135140 itr]: obj = (0.104278), mov = 135140, inf = 99%, acc = 0.9%, imp = 386

worst case efficiency: 0.662567
[19 sec, 139612 itr]: obj = (0.1044), mov = 139612, inf = 99.1%, acc = 0.9%, imp = 390

worst case efficiency: 0.66264
[20 sec, 144457 itr]: obj = (0.104407), mov = 144457, inf = 99.1%, acc = 0.8%, imp = 392

worst case efficiency: 0.662644
[21 sec, 149624 itr]: obj = (0.104412), mov = 149624, inf = 99.1%, acc = 0.8%, imp = 394

worst case efficiency: 0.662647
[22 sec, 154991 itr]: obj = (0.104414), mov = 154991, inf = 99.2%, acc = 0.8%, imp = 395

worst case efficiency: 0.662648
[23 sec, 160438 itr]: obj = (0.104414), mov = 160438, inf = 99.2%, acc = 0.8%, imp = 395

worst case efficiency: 0.662648
[24 sec, 167284 itr]: obj = (0.104462), mov = 167284, inf = 99.2%, acc = 0.7%, imp = 396

worst case efficiency: 0.662677
[25 sec, 176329 itr]: obj = (0.10462), mov = 176329, inf = 99.3%, acc = 0.7%, imp = 399

worst case efficiency: 0.662772
[26 sec, 191190 itr]: obj = (0.10462), mov = 191190, inf = 99.3%, acc = 0.6%, imp = 399

worst case efficiency: 0.662772
[27 sec, 221354 itr]: obj = (0.104622), mov = 221354, inf = 99.4%, acc = 0.6%, imp = 400

worst case efficiency: 0.662773
[28 sec, 240718 itr]: obj = (0.104622), mov = 240718, inf = 99.4%, acc = 0.5%, imp = 400

worst case efficiency: 0.662773
[29 sec, 260670 itr]: obj = (0.104622), mov = 260670, inf = 99.5%, acc = 0.5%, imp = 400

worst case efficiency: 0.662773
[30 sec, 280862 itr]: obj = (0.104622), mov = 280862, inf = 99.5%, acc = 0.5%, imp = 400

worst case efficiency: 0.662773
[31 sec, 301569 itr]: obj = (0.104622), mov = 301569, inf = 99.5%, acc = 0.5%, imp = 400

worst case efficiency: 0.662773
[32 sec, 320996 itr]: obj = (0.104622), mov = 320996, inf = 99.5%, acc = 0.5%, imp = 400

worst case efficiency: 0.662773
[33 sec, 341114 itr]: obj = (0.104622), mov = 341114, inf = 99.6%, acc = 0.5%, imp = 400

worst case efficiency: 0.662773
[34 sec, 361159 itr]: obj = (0.104622), mov = 361159, inf = 99.6%, acc = 0.4%, imp = 400

worst case efficiency: 0.662773
[35 sec, 381996 itr]: obj = (0.104622), mov = 381996, inf = 99.6%, acc = 0.4%, imp = 400

worst case efficiency: 0.662773
[36 sec, 402004 itr]: obj = (0.104622), mov = 402004, inf = 99.6%, acc = 0.4%, imp = 400

worst case efficiency: 0.662773
[37 sec, 423557 itr]: obj = (0.104622), mov = 423557, inf = 99.6%, acc = 0.4%, imp = 400

worst case efficiency: 0.662773
[38 sec, 444047 itr]: obj = (0.104622), mov = 444047, inf = 99.6%, acc = 0.4%, imp = 400

worst case efficiency: 0.662773
[39 sec, 464393 itr]: obj = (0.104622), mov = 464393, inf = 99.7%, acc = 0.4%, imp = 400

worst case efficiency: 0.662773
[40 sec, 483746 itr]: obj = (0.104622), mov = 483746, inf = 99.7%, acc = 0.4%, imp = 401

worst case efficiency: 0.662773
[41 sec, 502874 itr]: obj = (0.104622), mov = 502874, inf = 99.7%, acc = 0.3%, imp = 401

worst case efficiency: 0.662773
[42 sec, 522268 itr]: obj = (0.104622), mov = 522268, inf = 99.7%, acc = 0.3%, imp = 401

worst case efficiency: 0.662773
[43 sec, 541410 itr]: obj = (0.104622), mov = 541410, inf = 99.7%, acc = 0.3%, imp = 401

worst case efficiency: 0.662773
[44 sec, 561564 itr]: obj = (0.104622), mov = 561564, inf = 99.7%, acc = 0.3%, imp = 401

worst case efficiency: 0.662773
[45 sec, 581082 itr]: obj = (0.104622), mov = 581082, inf = 99.7%, acc = 0.3%, imp = 401

worst case efficiency: 0.662773
[46 sec, 600164 itr]: obj = (0.104622), mov = 600164, inf = 99.7%, acc = 0.3%, imp = 401

worst case efficiency: 0.662773
[47 sec, 619540 itr]: obj = (0.104622), mov = 619540, inf = 99.7%, acc = 0.3%, imp = 401

worst case efficiency: 0.662773
[48 sec, 639005 itr]: obj = (0.104623), mov = 639005, inf = 99.7%, acc = 0.3%, imp = 403

worst case efficiency: 0.662774
[49 sec, 658420 itr]: obj = (0.104623), mov = 658420, inf = 99.7%, acc = 0.3%, imp = 403

worst case efficiency: 0.662774
[50 sec, 678115 itr]: obj = (0.104623), mov = 678115, inf = 99.7%, acc = 0.3%, imp = 403

worst case efficiency: 0.662774
[51 sec, 697569 itr]: obj = (0.104623), mov = 697569, inf = 99.7%, acc = 0.3%, imp = 403

worst case efficiency: 0.662774
[52 sec, 716388 itr]: obj = (0.104623), mov = 716388, inf = 99.7%, acc = 0.3%, imp = 403

worst case efficiency: 0.662774
[53 sec, 735441 itr]: obj = (0.104623), mov = 735441, inf = 99.7%, acc = 0.3%, imp = 403

worst case efficiency: 0.662774
[54 sec, 755378 itr]: obj = (0.104623), mov = 755378, inf = 99.7%, acc = 0.3%, imp = 404

worst case efficiency: 0.662774
[55 sec, 775238 itr]: obj = (0.104623), mov = 775238, inf = 99.8%, acc = 0.3%, imp = 404

worst case efficiency: 0.662774
[56 sec, 795415 itr]: obj = (0.104623), mov = 795415, inf = 99.8%, acc = 0.3%, imp = 404

worst case efficiency: 0.662774
[57 sec, 815693 itr]: obj = (0.104623), mov = 815693, inf = 99.8%, acc = 0.3%, imp = 404

worst case efficiency: 0.662774
[58 sec, 835895 itr]: obj = (0.104623), mov = 835895, inf = 99.8%, acc = 0.3%, imp = 404

worst case efficiency: 0.662774
[59 sec, 856453 itr]: obj = (0.104623), mov = 856453, inf = 99.8%, acc = 0.3%, imp = 404

worst case efficiency: 0.662774
[60 sec, 876883 itr]: obj = (0.104623), mov = 876883, inf = 99.8%, acc = 0.3%, imp = 404

worst case efficiency: 0.662774
[61 sec, 897040 itr]: obj = (0.104623), mov = 897040, inf = 99.8%, acc = 0.3%, imp = 404

worst case efficiency: 0.662774
[62 sec, 917208 itr]: obj = (0.104623), mov = 917208, inf = 99.8%, acc = 0.2%, imp = 404

worst case efficiency: 0.662774
[63 sec, 937134 itr]: obj = (0.104623), mov = 937134, inf = 99.8%, acc = 0.2%, imp = 404

worst case efficiency: 0.662774
[64 sec, 958315 itr]: obj = (0.104623), mov = 958315, inf = 99.8%, acc = 0.2%, imp = 404

worst case efficiency: 0.662774
[65 sec, 978715 itr]: obj = (0.104623), mov = 978715, inf = 99.8%, acc = 0.2%, imp = 404

worst case efficiency: 0.662774
[66 sec, 995896 itr]: obj = (0.104623), mov = 995896, inf = 99.8%, acc = 0.2%, imp = 404

worst case efficiency: 0.662774
[67 sec, 1014730 itr]: obj = (0.104623), mov = 1014730, inf = 99.8%, acc = 0.2%, imp = 404

worst case efficiency: 0.662774
[68 sec, 1034449 itr]: obj = (0.104623), mov = 1034449, inf = 99.8%, acc = 0.2%, imp = 404

worst case efficiency: 0.662774
[69 sec, 1053851 itr]: obj = (0.104628), mov = 1053851, inf = 99.8%, acc = 0.2%, imp = 405

worst case efficiency: 0.662777
[70 sec, 1073521 itr]: obj = (0.104628), mov = 1073521, inf = 99.8%, acc = 0.2%, imp = 405

worst case efficiency: 0.662777
[71 sec, 1093157 itr]: obj = (0.104629), mov = 1093157, inf = 99.8%, acc = 0.2%, imp = 406

worst case efficiency: 0.662778
[72 sec, 1112380 itr]: obj = (0.104629), mov = 1112380, inf = 99.8%, acc = 0.2%, imp = 406

worst case efficiency: 0.662778
[73 sec, 1131797 itr]: obj = (0.104631), mov = 1131797, inf = 99.8%, acc = 0.2%, imp = 407

worst case efficiency: 0.662778
[74 sec, 1151423 itr]: obj = (0.104631), mov = 1151423, inf = 99.8%, acc = 0.2%, imp = 407

worst case efficiency: 0.662778
[75 sec, 1170883 itr]: obj = (0.104631), mov = 1170883, inf = 99.8%, acc = 0.2%, imp = 407

worst case efficiency: 0.662778
[76 sec, 1189626 itr]: obj = (0.104631), mov = 1189626, inf = 99.8%, acc = 0.2%, imp = 407

worst case efficiency: 0.662778
[77 sec, 1205897 itr]: obj = (0.104631), mov = 1205897, inf = 99.8%, acc = 0.2%, imp = 407

worst case efficiency: 0.662778
[78 sec, 1222091 itr]: obj = (0.104631), mov = 1222091, inf = 99.8%, acc = 0.2%, imp = 407

worst case efficiency: 0.662778
[79 sec, 1240830 itr]: obj = (0.104631), mov = 1240830, inf = 99.8%, acc = 0.2%, imp = 407

worst case efficiency: 0.662778
[80 sec, 1258612 itr]: obj = (0.104631), mov = 1258612, inf = 99.8%, acc = 0.2%, imp = 407

worst case efficiency: 0.662778
[81 sec, 1277877 itr]: obj = (0.104631), mov = 1277877, inf = 99.8%, acc = 0.2%, imp = 407

worst case efficiency: 0.662778
[82 sec, 1297534 itr]: obj = (0.104632), mov = 1297534, inf = 99.8%, acc = 0.2%, imp = 409

worst case efficiency: 0.662779
[83 sec, 1316628 itr]: obj = (0.104632), mov = 1316628, inf = 99.8%, acc = 0.2%, imp = 409

worst case efficiency: 0.662779
[84 sec, 1334995 itr]: obj = (0.104632), mov = 1334995, inf = 99.8%, acc = 0.2%, imp = 409

worst case efficiency: 0.662779
[85 sec, 1353817 itr]: obj = (0.104634), mov = 1353817, inf = 99.8%, acc = 0.2%, imp = 410

worst case efficiency: 0.66278
[86 sec, 1372824 itr]: obj = (0.104634), mov = 1372824, inf = 99.8%, acc = 0.2%, imp = 410

worst case efficiency: 0.66278
[87 sec, 1392203 itr]: obj = (0.104634), mov = 1392203, inf = 99.8%, acc = 0.2%, imp = 410

worst case efficiency: 0.66278
[88 sec, 1411362 itr]: obj = (0.104634), mov = 1411362, inf = 99.8%, acc = 0.2%, imp = 411

worst case efficiency: 0.66278
[89 sec, 1430433 itr]: obj = (0.104712), mov = 1430433, inf = 99.9%, acc = 0.2%, imp = 414

worst case efficiency: 0.662827
[90 sec, 1449935 itr]: obj = (0.104712), mov = 1449935, inf = 99.9%, acc = 0.2%, imp = 414

worst case efficiency: 0.662827
[90 sec, 1449935 itr]: obj = (0.104712), mov = 1449935, inf = 99.9%, acc = 0.2%, imp = 414

worst case efficiency: 0.662827
1449935 iterations, 1449935 moves performed in 90 seconds
Feasible solution: obj = (0.104712)

Run output...
FINAL SOLUTION
Worst case efficiency: 0.662827
Mapping: 0->33, 1->0, 2->41, 3->33, 4->12, 5->32, 6->40, 7->44, 8->12, 9->19, 10->4, 11->4, 12->21, 13->43, 14->21, 15->3, 16->34, 17->18, 18->1, 19->9, 20->41, 21->23, 22->15, 23->32, 24->34, 25->8, 26->22, 27->47, 28->37, 29->38, 30->45, 31->38, 32->31, 33->10, 34->29, 35->6, 36->6, 37->24, 38->14, 39->21, 40->46, 41->15, 42->29, 43->45, 44->47, 45->17, 46->13, 47->42, 48->3, 49->42, 50->4, 51->27, 52->3, 53->28, 54->26, 55->42, 56->0, 57->10, 58->26, 59->28, 60->42, 61->39, 62->31, 63->22, 64->24, 65->45, 66->19, 67->40, 68->29, 69->5, 70->36, 71->8, 72->26, 73->34, 74->16, 75->13, 76->27, 77->44, 78->19, 79->41, 80->35, 81->37, 82->0, 83->21, 84->2, 85->27, 86->41, 87->24, 88->23, 89->24, 90->27, 91->16, 92->20, 93->11, 94->41, 95->33, 96->2, 97->13, 98->27, 99->5, 100->39, 101->12, 102->18, 103->33, 104->0, 105->34, 106->36, 107->11, 108->4, 109->31, 110->25, 111->21, 112->28, 113->42, 114->38, 115->9, 116->21, 117->14, 118->38, 119->7, 120->18, 121->25, 122->44, 123->35, 124->5, 125->39, 126->44, 127->33, 128->14, 129->8, 130->30, 131->37, 132->22, 133->3, 134->26, 135->35, 136->24, 137->23, 138->17, 139->46, 140->19, 141->1, 142->20, 143->44, 144->31, 145->14, 146->28, 147->4, 148->32, 149->15, 150->15, 151->20, 152->38, 153->13, 154->15, 155->38, 156->34, 157->32, 158->35, 159->23, 160->2, 161->6, 162->7, 163->17, 164->43, 165->43, 166->45, 167->45, 168->25, 169->8, 170->14, 171->47, 172->46, 173->41, 174->12, 175->32, 176->46, 177->11, 178->22, 179->26, 180->40, 181->2, 182->8, 183->7, 184->39, 185->34, 186->11, 187->18, 188->26, 189->31, 190->16, 191->19, 192->47, 193->36, 194->17, 195->17, 196->29, 197->28, 198->46, 199->20, 200->42, 201->3, 202->6, 203->16, 204->9, 205->22, 206->37, 207->18, 208->39, 209->40, 210->27, 211->23, 212->13, 213->30, 214->35, 215->46, 216->37, 217->10, 218->25, 219->47, 220->1, 221->31, 222->18, 223->17, 224->32, 225->29, 226->11, 227->24, 228->12, 229->1, 230->43, 231->6, 232->9, 233->30, 234->5, 235->20, 236->33, 237->10, 238->11, 239->16, 240->28, 241->22, 242->0, 243->35, 244->43, 245->40, 246->10, 247->44, 248->7, 249->25, 250->1, 251->0, 252->1, 253->23, 254->36, 255->16, 256->37, 257->30, 258->8, 259->14, 260->7, 261->30, 262->45, 263->36, 264->4, 265->3, 266->36, 267->13, 268->39, 269->25, 270->9, 271->20, 272->6, 273->9, 274->12, 275->47, 276->2, 277->5, 278->29, 279->40, 280->30, 281->7, 282->19, 283->2, 284->15, 285->43, 286->5, 287->10
Number of tasks per core:
	6	6	6	6	6	6
	6	6	6	6	6	6
	6	6	6	6	6	6
	6	6	6	6	6	6
	6	6	6	6	6	6
	6	6	6	6	6	6
	6	6	6	6	6	6
	6	6	6	6	6	6
Average CPI map:
	1.28217	1.71632	1.5894	1.28258	1.67763	1.02549
	1.42639	3.05473	2.2625	4.65204	2.76732	0.860354
	2.01733	3.47861	6.40169	4.71214	3.52159	2.01388
	3.39151	2.89814	4.8903	2.8463	2.32644	1.7786
	1.01552	2.47965	3.51844	4.20483	4.11761	1.21547
	1.15145	3.38089	4.98045	3.02142	4.2706	1.50731
	1.20098	2.15492	9.21915	2.59183	2.31944	1.08638
	1.54439	1.76902	2.40606	1.95663	1.59552	1.4186
Efficiency map:
	0.996714	0.935186	0.907982	0.896377	0.935219	0.995922
	0.807334	0.698966	0.670481	0.751712	0.697813	0.797555
	0.833406	0.662827	0.787726	0.663513	0.67384	0.825399
	0.8663	0.663746	0.745818	0.670121	0.665834	0.817658
	0.783647	0.666607	0.663675	0.677267	0.700824	0.745155
	0.756542	0.668114	0.665366	0.662833	0.737942	0.805939
	0.871815	0.665439	0.903108	0.685086	0.666393	0.757312
	0.826205	0.670523	0.698022	0.667168	0.669237	0.816583
==============================================================================
Local Solver optimizer for EML demonstration
==============================================================================

Option values: --wld-idx 18 --global-tlim 90 --seed 201

Starting the Optimization Process
