LocalSolver 4.0 (MacOS64, build 20131224)
Copyright (C) 2013 Bouygues SA, Aix-Marseille University, CNRS.
All rights reserved (see Terms and Conditions for details).

Load localsolver_res/tawd_ls.lsp...
Run input...
ANNs For the Platform:
3,2,1,0.413586,-0.0266769,-0.0683771,-5.1002,70.5254,-0.257939,-72.3361,-14.3957,-55.9961,0.000416225,-55.1984
3,2,1,7.29748,1.94844,3.18138,9.63196,-4.67735,-4.13678,1.22405,-8.03403,0.0803394,-0.125838,0.598848
3,2,1,6.43996,0.383984,0.598454,7.79024,-4.25175,0.123161,-0.278344,-5.71253,1.47885,1.00258,0.327892
3,2,1,3.45395,0.140329,0.51254,4.25255,4.08469,0.00326531,0.722664,3.88666,1.2829,-0.290289,-0.187123
3,2,1,1.76581,-0.7465,16.0398,1.01103,2.42771,0.96084,1.00318,4.14242,-0.00284347,0.244904,0.56299
3,2,1,1.87058,0.359859,-0.0851999,0.818043,3.18969,0.847611,-7.29654,-2.24823,0.00245596,0.000486788,0.794563
3,2,1,3.28113,0.579268,0.142679,3.72653,-0.240895,-0.149383,25.0414,7.13641,0.488705,-0.00083541,0.320468
3,2,1,-4.78997,-2.53518,1.7971,11.1628,-3.08773,-0.470276,-0.0894822,-2.63871,1.46314,-0.463195,-1.12076
3,2,1,-0.392198,-0.00544948,0.0100489,-0.634573,-1.21109,-0.0856362,-0.013156,-1.60668,1.54201,-2.33195,-0.462253
3,2,1,3.15031,0.401017,0.160161,2.51156,5.71314,0.59291,-11.6364,2.59774,0.430465,0.00737346,0.36306
3,2,1,2.64111,0.312028,0.0803827,2.35273,-4.25958,3.48188,-1.59773,-1.57632,0.565527,0.0271972,0.266241
3,2,1,2.2658,0.0425076,0.0191991,-0.583848,2.82415,0.533705,0.0754136,3.33659,-0.0169351,0.54785,0.257008
3,2,1,6.01014,0.654767,0.24854,5.54419,5.68574,0.00137666,0.00103835,-1.46229,0.258518,0.00962319,0.54621
3,2,1,-0.828282,0.684875,0.223674,-1.44779,5.0064,0.272371,0.00344824,2.89438,0.397142,0.379767,0.797684
3,2,1,-0.166745,-1.25514,-0.967701,-3.82155,3.34568,0.34907,0.176897,2.37943,0.567319,0.42026,0.93611
3,2,1,-10.035,3.55243,8.66202,-21.5626,10.92,0.228744,0.12852,5.40188,0.871264,0.345634,1.3209
3,2,1,4.50278,0.709934,0.227356,3.41616,1.455,0.115548,0.0125181,-1.15221,0.345467,0.222127,0.602264
3,2,1,3.51765,0.552987,0.202187,3.41883,0.53704,0.0709757,-0.0346297,-0.38017,0.320095,-0.0397752,0.474568
3,2,1,3.62936,0.506661,0.201819,3.49179,3.4019,-3.09955,1.3332,0.961184,0.32649,-0.0126443,0.488413
3,2,1,3.50925,0.448618,0.127508,2.4823,1.78455,1.6893,1.46456,-0.207671,0.400287,0.00684206,0.402337
3,2,1,-0.52883,0.00691432,0.00617163,-0.194006,1.73284,0.0488672,0.0179273,1.25978,0.716787,0.92667,0.162242
3,2,1,2.48239,0.190378,0.120167,1.91689,1.21532,1.48543,0.644574,2.68198,0.547395,-0.0744913,0.328097
3,2,1,2.55861,2.02297,0.650126,2.19109,2.44652,0.0836318,0.0133745,2.4369,0.0418722,0.798841,-0.0334834
3,2,1,5.07371,0.556895,0.217981,4.66725,-0.00829845,-0.00544544,0.00934569,-0.672651,0.280461,-0.520981,0.217266
3,2,1,1.56588,0.201966,0.0665967,1.82578,1.97654,0.236717,0.0903453,1.08195,1.02748,-0.229836,0.011785
3,2,1,2.41728,0.208205,-0.0012583,2.05484,1.41976,-1.30194,1.45365,1.79277,0.56727,0.031184,0.207229
3,2,1,3.71833,0.202336,0.172606,2.43155,5.03284,0.375118,-0.790998,-3.83455,0.400925,0.372075,0.754779
3,2,1,-1.25583,1.47411,0.819895,-2.78448,4.36107,0.113478,0.107247,2.55416,0.385214,0.384141,0.797017
3,2,1,1.71562,-0.478906,-0.61026,-1.17859,3.1361,0.360865,0.0914124,2.2536,-0.0127033,0.431384,0.365879
3,2,1,-1.75501,-0.0880109,-0.026461,-2.68365,2.88327,0.072433,0.0245574,1.95701,-5.87306,-0.563325,-4.48698
3,2,1,1.87886,0.47325,-0.0511434,1.79719,1.94184,0.328234,0.0220624,2.54301,-0.401251,1.77114,-0.565042
3,2,1,-1.60981,1.67946,0.217969,-1.01084,4.35765,0.130722,0.127348,2.65259,0.0709006,0.384957,0.481341
3,2,1,6.90393,1.27603,0.349979,4.84299,12.4465,-4.65212,-2.15462,0.408255,0.295914,0.0666312,0.4354
3,2,1,3.04491,0.18183,0.111428,2.10543,3.32281,-0.49945,-3.78487,-7.88748,0.444834,-4.36795,-4.01116
3,2,1,2.91407,0.251062,0.0435786,2.27032,0.308764,1.59867,0.766589,0.134898,0.475285,0.00569166,0.326702
3,2,1,1.44846,0.205113,0.0448314,1.45909,1.93039,0.286882,0.0586866,1.17886,1.39166,-0.600981,0.0448012
3,2,1,-0.702729,1.84783,-0.00894741,-12.1377,-140.908,-69.0514,-27.175,-146.219,-4.51728,-0.14351,-3.88527
3,2,1,4.2004,0.255152,0.0750175,2.63627,-1.17866,1.67307,0.209535,-1.03514,0.371915,0.0747402,0.498851
3,2,1,3.28015,0.190841,0.175032,2.31848,-0.821253,-1.83022,1.5009,-1.6155,0.417221,-0.0239081,0.360136
3,2,1,2.0525,0.0719707,0.0148549,2.1486,2.00198,1.73479,2.09334,1.44082,0.954066,0.00952719,-0.152697
3,2,1,3.31406,0.407717,0.0380361,2.47187,-0.266021,-1.73458,0.970613,-1.79463,0.415264,-0.0144649,0.374956
3,2,1,6.25099,-3.17047,1.46865,-0.279767,-2.91952,-0.395169,-0.0444215,-3.76202,-0.00491872,-1.23429,-0.425145
3,2,1,1.59636,0.096013,0.0630313,0.826005,1.46151,0.077228,0.0482484,1.68899,-0.289647,1.15304,-0.0688712
3,2,1,33.0172,0.520442,0.135338,28.5555,-3.97298,-0.0574545,-0.0193135,3.34452,0.297691,-5.9863,6.38072
3,2,1,2.32742,0.056139,0.0279748,2.30198,0.254535,0.117712,2.12797,1.7883,0.827797,-0.00209653,-0.0205758
3,2,1,-1.76524,-0.0296866,-0.00748622,-2.47523,4.4267,-0.377196,-4.83785,1.3517,-2.37434,-0.00716866,-1.55224
3,2,1,1.2047,-1.47491,1.03821,1.50617,3.23679,0.3845,-0.018138,2.47251,0.0419137,0.407618,0.357451
3,2,1,3.93828,-0.00820725,-0.00812648,-1.1651,2.06372,0.114124,0.0339398,2.70327,-0.0635318,1.17159,-0.373077
Workload Information:
1.94365, 1.72274, 3.0003, 2.67473, 0.708817, 1.94976, 2.19814, 1.98059, 1.65253, 2.4329, 1.55026, 2.18558, 1.48288, 2.34618, 2.63831, 0.569931, 2.33748, 2.62522, 0.804851, 1.52861, 1.80011, 2.60212, 2.33104, 2.93327, 1.94532, 4.65093, 0.878058, 0.5, 1.06048, 2.96521, 2.23336, 2.27321, 1.83764, 2.40798, 2.09804, 1.14978, 2.18893, 1.90383, 1.76951, 2.21741, 1.98643, 1.93389, 1.55668, 2.88121, 2.46075, 0.911159, 3.03305, 1.15715, 0.591041, 1.89129, 1.07596, 6.14979, 0.665151, 1.62677, 0.767756, 4.62481, 4.39743, 1.19803, 0.511976, 0.5, 1.96853, 2.16397, 1.90805, 2.06591, 1.81344, 2.0801, 3.14364, 2.68947, 3.07273, 0.992259, 1.12898, 0.972916, 1.28574, 3.11346, 2.32277, 3.49911, 0.5, 1.27892, 2.49159, 1.16019, 1.80184, 1.58221, 2.66877, 2.29539, 3.32212, 0.892106, 1.63738, 3.35417, 0.746758, 2.04747, 3.13617, 0.50463, 0.5, 2.24314, 3.80159, 1.81447, 3.23507, 1.39096, 1.87515, 0.5, 4.3616, 0.637222, 1.13916, 0.822893, 4.33047, 0.600166, 4.60731, 0.5, 1.53706, 1.61894, 2.89586, 3.09672, 1.62184, 1.22957, 2.25583, 2.5967, 1.38999, 1.90329, 1.28025, 2.57393, 5.29231, 1.79515, 1.08895, 2.52152, 0.5, 0.802071, 1.39208, 4.15828, 1.19659, 3.60276, 0.832847, 0.817443, 1.42375, 3.38068, 3.5672, 1.98301, 0.5, 1.14536, 2.08175, 1.67462, 1.4119, 2.48904, 2.36101, 1.98167, 0.831055, 2.3706, 2.51188, 1.69479, 2.39317, 2.1985, 2.14689, 1.49416, 2.03144, 2.24304, 1.86527, 2.21921, 0.5, 3.26911, 3.04269, 1.6405, 0.513251, 3.03445, 2.40604, 1.29186, 1.22159, 4.02385, 2.55665, 0.5, 0.5, 1.05656, 1.97776, 3.13619, 0.881539, 4.44794, 3.45001, 1.15696, 1.77274, 2.26232, 0.5, 2.85797, 2.69944, 2.17428, 2.35897, 0.949505, 1.29318, 2.52463, 2.31628, 1.77659, 2.19046, 1.3835, 2.0286, 2.30457, 2.11015, 1.89318, 1.85647, 1.92611, 2.07169, 2.1424, 13.0536, 21.2619, 23.5566, 26.8842, 25.3488, 21.8948, 1.7748, 0.834071, 3.4189, 0.867087, 3.53284, 1.57231, 3.08433, 0.5, 0.925509, 1.9174, 3.21161, 2.36115, 3.31126, 0.804972, 5.2321, 0.809171, 1.18812, 0.654377, 3.01691, 2.54381, 1.23675, 1.63031, 2.58394, 0.988287, 0.619142, 2.15659, 3.61914, 1.34939, 3.50477, 0.750974, 1.35392, 1.40387, 2.36883, 1.9597, 2.43715, 2.47654, 1.52286, 2.39294, 2.11697, 2.54111, 2.11235, 1.31377, 2.14366, 1.8421, 2.27972, 2.50482, 1.00258, 2.22712, 4.00905, 0.693261, 2.39196, 3.76351, 0.5, 0.642218, 2.10021, 2.42915, 1.13832, 3.29873, 0.550335, 2.48325, 1.22267, 2.23415, 4.01466, 1.01903, 3.00948, 0.5, 3.52561, 1.02266, 1.11455, 2.19579, 2.65783, 1.48356, 1.83991, 1.85062, 2.77056, 0.5, 2.90158, 2.13732, 1.16738, 1.15033, 2.96474, 3.88986, 1.97515, 0.852553
cpi min/max: 0.5/26.8842
neighbors of 0: 1 6, number of others: 45
neighbors of 1: 0 2 6 7, number of others: 43
neighbors of 2: 1 3 7 8, number of others: 43
neighbors of 3: 2 4 8 9, number of others: 43
neighbors of 4: 3 5 9 10, number of others: 43
neighbors of 5: 4 10 11, number of others: 44
neighbors of 6: 0 1 7 12, number of others: 43
neighbors of 7: 1 2 6 8 12 13, number of others: 41
neighbors of 8: 2 3 7 9 13 14, number of others: 41
neighbors of 9: 3 4 8 10 14 15, number of others: 41
neighbors of 10: 4 5 9 11 15 16, number of others: 41
neighbors of 11: 5 10 16 17, number of others: 43
neighbors of 12: 6 7 13 18, number of others: 43
neighbors of 13: 7 8 12 14 18 19, number of others: 41
neighbors of 14: 8 9 13 15 19 20, number of others: 41
neighbors of 15: 9 10 14 16 20 21, number of others: 41
neighbors of 16: 10 11 15 17 21 22, number of others: 41
neighbors of 17: 11 16 22 23, number of others: 43
neighbors of 18: 12 13 19 24, number of others: 43
neighbors of 19: 13 14 18 20 24 25, number of others: 41
neighbors of 20: 14 15 19 21 25 26, number of others: 41
neighbors of 21: 15 16 20 22 26 27, number of others: 41
neighbors of 22: 16 17 21 23 27 28, number of others: 41
neighbors of 23: 17 22 28 29, number of others: 43
neighbors of 24: 18 19 25 30, number of others: 43
neighbors of 25: 19 20 24 26 30 31, number of others: 41
neighbors of 26: 20 21 25 27 31 32, number of others: 41
neighbors of 27: 21 22 26 28 32 33, number of others: 41
neighbors of 28: 22 23 27 29 33 34, number of others: 41
neighbors of 29: 23 28 34 35, number of others: 43
neighbors of 30: 24 25 31 36, number of others: 43
neighbors of 31: 25 26 30 32 36 37, number of others: 41
neighbors of 32: 26 27 31 33 37 38, number of others: 41
neighbors of 33: 27 28 32 34 38 39, number of others: 41
neighbors of 34: 28 29 33 35 39 40, number of others: 41
neighbors of 35: 29 34 40 41, number of others: 43
neighbors of 36: 30 31 37 42, number of others: 43
neighbors of 37: 31 32 36 38 42 43, number of others: 41
neighbors of 38: 32 33 37 39 43 44, number of others: 41
neighbors of 39: 33 34 38 40 44 45, number of others: 41
neighbors of 40: 34 35 39 41 45 46, number of others: 41
neighbors of 41: 35 40 46 47, number of others: 43
neighbors of 42: 36 37 43, number of others: 44
neighbors of 43: 37 38 42 44, number of others: 43
neighbors of 44: 38 39 43 45, number of others: 43
neighbors of 45: 39 40 44 46, number of others: 43
neighbors of 46: 40 41 45 47, number of others: 43
neighbors of 47: 41 46, number of others: 45
Run model...
Preprocess model 0% ...Preprocess model 16% ...Preprocess model 32% ...Preprocess model 48% ...Preprocess model 66% ...Preprocess model 84% ...Preprocess model 100% ...
Close model 0% ...Close model 9% ...Close model 18% ...Close model 27% ...Close model 36% ...Close model 45% ...Close model 54% ...Close model 63% ...Close model 72% ...Close model 81% ...Close model 91% ...Close model 100% ...
Run param...
Run solver...
Initialize threads 0% ...Initialize threads 100% ...
Push initial solutions 0% ...Push initial solutions 100% ...

Model: 
  expressions = 30670, operands = 74976
  decisions = 13824, constraints = 336, objectives = 1

Param: 
  time limit = 90 sec, no iteration limit
  seed = 0, nb threads = 1, annealing level = 1

Objectives:
  Obj 0: maximize, no bound

Phases:
  Phase 0: time limit = 90 sec, no iteration limit, optimized objective = 0


Computed bounds:
  Obj 0: upper bound = 0.650128


Phase 0:
[0 sec, 0 itr]: infeas = (336, 336, 576), mov = 0, inf < 0.1%, acc < 0.1%, imp = 0

worst case efficiency: 0.965273
[1 sec, 2435 itr]: infeas = (2, 2, 2), mov = 2435, inf = 60.6%, acc = 31.9%, imp = 146

worst case efficiency: 0.612942
[2 sec, 31809 itr]: obj = (0.0509633), mov = 31809, inf = 96.9%, acc = 2.6%, imp = 169

worst case efficiency: 0.630578
[3 sec, 49266 itr]: obj = (0.0621157), mov = 49266, inf = 98%, acc = 1.8%, imp = 193

worst case efficiency: 0.637269
[4 sec, 58720 itr]: obj = (0.0651829), mov = 58720, inf = 98.3%, acc = 1.5%, imp = 213

worst case efficiency: 0.63911
[5 sec, 64913 itr]: obj = (0.0707744), mov = 64913, inf = 98.4%, acc = 1.4%, imp = 245

worst case efficiency: 0.642465
[6 sec, 70243 itr]: obj = (0.0720295), mov = 70243, inf = 98.5%, acc = 1.3%, imp = 261

worst case efficiency: 0.643218
[7 sec, 75036 itr]: obj = (0.0747782), mov = 75036, inf = 98.5%, acc = 1.3%, imp = 287

worst case efficiency: 0.644867
[8 sec, 79196 itr]: obj = (0.0777328), mov = 79196, inf = 98.6%, acc = 1.3%, imp = 303

worst case efficiency: 0.64664
[9 sec, 83174 itr]: obj = (0.080651), mov = 83174, inf = 98.7%, acc = 1.2%, imp = 317

worst case efficiency: 0.648391
[10 sec, 87091 itr]: obj = (0.080651), mov = 87091, inf = 98.7%, acc = 1.2%, imp = 317

worst case efficiency: 0.648391
[11 sec, 91675 itr]: obj = (0.080651), mov = 91675, inf = 98.8%, acc = 1.1%, imp = 317

worst case efficiency: 0.648391
[12 sec, 96391 itr]: obj = (0.080651), mov = 96391, inf = 98.8%, acc = 1.1%, imp = 317

worst case efficiency: 0.648391
[13 sec, 101428 itr]: obj = (0.080651), mov = 101428, inf = 98.9%, acc = 1%, imp = 317

worst case efficiency: 0.648391
[14 sec, 107307 itr]: obj = (0.080651), mov = 107307, inf = 99%, acc = 1%, imp = 317

worst case efficiency: 0.648391
[15 sec, 114367 itr]: obj = (0.080651), mov = 114367, inf = 99%, acc = 0.9%, imp = 317

worst case efficiency: 0.648391
[16 sec, 122435 itr]: obj = (0.080651), mov = 122435, inf = 99.1%, acc = 0.8%, imp = 317

worst case efficiency: 0.648391
[17 sec, 132265 itr]: obj = (0.080651), mov = 132265, inf = 99.2%, acc = 0.8%, imp = 317

worst case efficiency: 0.648391
[18 sec, 146115 itr]: obj = (0.0806562), mov = 146115, inf = 99.3%, acc = 0.7%, imp = 318

worst case efficiency: 0.648394
[19 sec, 168171 itr]: obj = (0.0806981), mov = 168171, inf = 99.4%, acc = 0.6%, imp = 322

worst case efficiency: 0.648419
[20 sec, 184139 itr]: obj = (0.0806981), mov = 184139, inf = 99.4%, acc = 0.6%, imp = 322

worst case efficiency: 0.648419
[21 sec, 202651 itr]: obj = (0.080773), mov = 202651, inf = 99.5%, acc = 0.5%, imp = 323

worst case efficiency: 0.648464
[22 sec, 221081 itr]: obj = (0.0808817), mov = 221081, inf = 99.5%, acc = 0.5%, imp = 324

worst case efficiency: 0.648529
[23 sec, 238898 itr]: obj = (0.0808885), mov = 238898, inf = 99.6%, acc = 0.5%, imp = 325

worst case efficiency: 0.648533
[24 sec, 255241 itr]: obj = (0.0810186), mov = 255241, inf = 99.6%, acc = 0.4%, imp = 327

worst case efficiency: 0.648611
[25 sec, 272871 itr]: obj = (0.0810324), mov = 272871, inf = 99.6%, acc = 0.4%, imp = 328

worst case efficiency: 0.648619
[26 sec, 287512 itr]: obj = (0.0810497), mov = 287512, inf = 99.6%, acc = 0.4%, imp = 329

worst case efficiency: 0.64863
[27 sec, 303304 itr]: obj = (0.0811345), mov = 303304, inf = 99.7%, acc = 0.4%, imp = 331

worst case efficiency: 0.648681
[28 sec, 320112 itr]: obj = (0.0811382), mov = 320112, inf = 99.7%, acc = 0.4%, imp = 332

worst case efficiency: 0.648683
[29 sec, 336160 itr]: obj = (0.0811382), mov = 336160, inf = 99.7%, acc = 0.3%, imp = 332

worst case efficiency: 0.648683
[30 sec, 350990 itr]: obj = (0.0811382), mov = 350990, inf = 99.7%, acc = 0.3%, imp = 332

worst case efficiency: 0.648683
[31 sec, 368073 itr]: obj = (0.0811902), mov = 368073, inf = 99.7%, acc = 0.3%, imp = 333

worst case efficiency: 0.648714
[32 sec, 385801 itr]: obj = (0.0815332), mov = 385801, inf = 99.7%, acc = 0.3%, imp = 337

worst case efficiency: 0.64892
[33 sec, 402481 itr]: obj = (0.0816487), mov = 402481, inf = 99.7%, acc = 0.3%, imp = 338

worst case efficiency: 0.648989
[34 sec, 419386 itr]: obj = (0.0817668), mov = 419386, inf = 99.8%, acc = 0.3%, imp = 339

worst case efficiency: 0.64906
[35 sec, 436455 itr]: obj = (0.0818375), mov = 436455, inf = 99.8%, acc = 0.3%, imp = 340

worst case efficiency: 0.649102
[36 sec, 453738 itr]: obj = (0.0818375), mov = 453738, inf = 99.8%, acc = 0.3%, imp = 340

worst case efficiency: 0.649102
[37 sec, 471339 itr]: obj = (0.0821884), mov = 471339, inf = 99.8%, acc = 0.3%, imp = 342

worst case efficiency: 0.649313
[38 sec, 489228 itr]: obj = (0.0822498), mov = 489228, inf = 99.8%, acc = 0.3%, imp = 344

worst case efficiency: 0.64935
[39 sec, 506524 itr]: obj = (0.0822498), mov = 506524, inf = 99.8%, acc = 0.3%, imp = 344

worst case efficiency: 0.64935
[40 sec, 524002 itr]: obj = (0.0825451), mov = 524002, inf = 99.8%, acc = 0.3%, imp = 346

worst case efficiency: 0.649527
[41 sec, 542351 itr]: obj = (0.0826918), mov = 542351, inf = 99.8%, acc = 0.3%, imp = 348

worst case efficiency: 0.649615
[42 sec, 561691 itr]: obj = (0.0826918), mov = 561691, inf = 99.8%, acc = 0.3%, imp = 348

worst case efficiency: 0.649615
[43 sec, 580608 itr]: obj = (0.0826918), mov = 580608, inf = 99.8%, acc = 0.2%, imp = 348

worst case efficiency: 0.649615
[44 sec, 598670 itr]: obj = (0.0826918), mov = 598670, inf = 99.8%, acc = 0.2%, imp = 348

worst case efficiency: 0.649615
[45 sec, 615912 itr]: obj = (0.0828228), mov = 615912, inf = 99.8%, acc = 0.2%, imp = 350

worst case efficiency: 0.649694
[46 sec, 633126 itr]: obj = (0.0830618), mov = 633126, inf = 99.8%, acc = 0.2%, imp = 352

worst case efficiency: 0.649837
[47 sec, 647680 itr]: obj = (0.0830618), mov = 647680, inf = 99.8%, acc = 0.2%, imp = 352

worst case efficiency: 0.649837
[48 sec, 664052 itr]: obj = (0.0830618), mov = 664052, inf = 99.8%, acc = 0.2%, imp = 352

worst case efficiency: 0.649837
[49 sec, 681250 itr]: obj = (0.0833235), mov = 681250, inf = 99.8%, acc = 0.2%, imp = 354

worst case efficiency: 0.649994
[50 sec, 698128 itr]: obj = (0.0833235), mov = 698128, inf = 99.8%, acc = 0.2%, imp = 354

worst case efficiency: 0.649994
[51 sec, 715645 itr]: obj = (0.0835362), mov = 715645, inf = 99.8%, acc = 0.2%, imp = 356

worst case efficiency: 0.650122
[52 sec, 732883 itr]: obj = (0.0835753), mov = 732883, inf = 99.8%, acc = 0.2%, imp = 357

worst case efficiency: 0.650145
[53 sec, 748926 itr]: obj = (0.0835753), mov = 748926, inf = 99.9%, acc = 0.2%, imp = 357

worst case efficiency: 0.650145
[54 sec, 765478 itr]: obj = (0.0838778), mov = 765478, inf = 99.9%, acc = 0.2%, imp = 361

worst case efficiency: 0.650327
[55 sec, 782384 itr]: obj = (0.0841605), mov = 782384, inf = 99.9%, acc = 0.2%, imp = 366

worst case efficiency: 0.650496
[56 sec, 794453 itr]: obj = (0.0841605), mov = 794453, inf = 99.9%, acc = 0.2%, imp = 366

worst case efficiency: 0.650496
[57 sec, 805087 itr]: obj = (0.0841605), mov = 805087, inf = 99.9%, acc = 0.2%, imp = 366

worst case efficiency: 0.650496
[58 sec, 819089 itr]: obj = (0.0842546), mov = 819089, inf = 99.9%, acc = 0.2%, imp = 367

worst case efficiency: 0.650553
[59 sec, 834103 itr]: obj = (0.0844613), mov = 834103, inf = 99.9%, acc = 0.2%, imp = 369

worst case efficiency: 0.650677
[60 sec, 849909 itr]: obj = (0.0845368), mov = 849909, inf = 99.9%, acc = 0.2%, imp = 370

worst case efficiency: 0.650722
[61 sec, 867021 itr]: obj = (0.0846145), mov = 867021, inf = 99.9%, acc = 0.2%, imp = 371

worst case efficiency: 0.650769
[62 sec, 883811 itr]: obj = (0.0847284), mov = 883811, inf = 99.9%, acc = 0.2%, imp = 372

worst case efficiency: 0.650837
[63 sec, 900962 itr]: obj = (0.0847705), mov = 900962, inf = 99.9%, acc = 0.2%, imp = 373

worst case efficiency: 0.650862
[64 sec, 918191 itr]: obj = (0.0847705), mov = 918191, inf = 99.9%, acc = 0.2%, imp = 373

worst case efficiency: 0.650862
[65 sec, 935211 itr]: obj = (0.0847705), mov = 935211, inf = 99.9%, acc = 0.2%, imp = 373

worst case efficiency: 0.650862
[66 sec, 953451 itr]: obj = (0.0847705), mov = 953451, inf = 99.9%, acc = 0.2%, imp = 373

worst case efficiency: 0.650862
[67 sec, 971233 itr]: obj = (0.0847995), mov = 971233, inf = 99.9%, acc = 0.2%, imp = 375

worst case efficiency: 0.65088
[68 sec, 987487 itr]: obj = (0.084919), mov = 987487, inf = 99.9%, acc = 0.2%, imp = 378

worst case efficiency: 0.650951
[69 sec, 1003738 itr]: obj = (0.0858711), mov = 1003738, inf = 99.9%, acc = 0.2%, imp = 381

worst case efficiency: 0.651523
[70 sec, 1020522 itr]: obj = (0.0858733), mov = 1020522, inf = 99.9%, acc = 0.2%, imp = 382

worst case efficiency: 0.651524
[71 sec, 1036223 itr]: obj = (0.0858733), mov = 1036223, inf = 99.9%, acc = 0.2%, imp = 382

worst case efficiency: 0.651524
[72 sec, 1050334 itr]: obj = (0.0858733), mov = 1050334, inf = 99.9%, acc = 0.2%, imp = 382

worst case efficiency: 0.651524
[73 sec, 1066982 itr]: obj = (0.0863009), mov = 1066982, inf = 99.9%, acc = 0.2%, imp = 384

worst case efficiency: 0.651781
[74 sec, 1082921 itr]: obj = (0.086376), mov = 1082921, inf = 99.9%, acc = 0.2%, imp = 385

worst case efficiency: 0.651826
[75 sec, 1099905 itr]: obj = (0.086376), mov = 1099905, inf = 99.9%, acc = 0.2%, imp = 385

worst case efficiency: 0.651826
[76 sec, 1117324 itr]: obj = (0.086376), mov = 1117324, inf = 99.9%, acc = 0.2%, imp = 385

worst case efficiency: 0.651826
[77 sec, 1133620 itr]: obj = (0.0863797), mov = 1133620, inf = 99.9%, acc = 0.2%, imp = 386

worst case efficiency: 0.651828
[78 sec, 1150669 itr]: obj = (0.0863918), mov = 1150669, inf = 99.9%, acc = 0.2%, imp = 387

worst case efficiency: 0.651835
[79 sec, 1167724 itr]: obj = (0.0863918), mov = 1167724, inf = 99.9%, acc = 0.2%, imp = 387

worst case efficiency: 0.651835
[80 sec, 1185810 itr]: obj = (0.0863918), mov = 1185810, inf = 99.9%, acc = 0.2%, imp = 387

worst case efficiency: 0.651835
[81 sec, 1202940 itr]: obj = (0.0864279), mov = 1202940, inf = 99.9%, acc = 0.2%, imp = 389

worst case efficiency: 0.651857
[82 sec, 1220199 itr]: obj = (0.0864812), mov = 1220199, inf = 99.9%, acc = 0.2%, imp = 391

worst case efficiency: 0.651889
[83 sec, 1237315 itr]: obj = (0.0864943), mov = 1237315, inf = 99.9%, acc = 0.2%, imp = 392

worst case efficiency: 0.651897
[84 sec, 1253868 itr]: obj = (0.0864943), mov = 1253868, inf = 99.9%, acc = 0.2%, imp = 392

worst case efficiency: 0.651897
[85 sec, 1271071 itr]: obj = (0.0864943), mov = 1271071, inf = 99.9%, acc = 0.2%, imp = 392

worst case efficiency: 0.651897
[86 sec, 1289102 itr]: obj = (0.0865074), mov = 1289102, inf = 99.9%, acc = 0.2%, imp = 393

worst case efficiency: 0.651904
[87 sec, 1306865 itr]: obj = (0.086588), mov = 1306865, inf = 99.9%, acc = 0.2%, imp = 394

worst case efficiency: 0.651953
[88 sec, 1324370 itr]: obj = (0.0865967), mov = 1324370, inf = 99.9%, acc = 0.2%, imp = 395

worst case efficiency: 0.651958
[89 sec, 1341458 itr]: obj = (0.0866254), mov = 1341458, inf = 99.9%, acc = 0.2%, imp = 396

worst case efficiency: 0.651975
[90 sec, 1358900 itr]: obj = (0.0866503), mov = 1358900, inf = 99.9%, acc = 0.2%, imp = 398

worst case efficiency: 0.65199
[90 sec, 1358900 itr]: obj = (0.0866503), mov = 1358900, inf = 99.9%, acc = 0.2%, imp = 398

worst case efficiency: 0.65199
1358900 iterations, 1358900 moves performed in 90 seconds
Feasible solution: obj = (0.0866503)

Run output...
FINAL SOLUTION
Worst case efficiency: 0.65199
Mapping: 0->34, 1->38, 2->7, 3->22, 4->28, 5->41, 6->7, 7->37, 8->11, 9->8, 10->3, 11->25, 12->14, 13->30, 14->7, 15->46, 16->26, 17->39, 18->9, 19->22, 20->24, 21->25, 22->26, 23->38, 24->15, 25->26, 26->2, 27->0, 28->42, 29->28, 30->34, 31->44, 32->1, 33->18, 34->38, 35->0, 36->31, 37->7, 38->47, 39->14, 40->18, 41->45, 42->19, 43->32, 44->33, 45->7, 46->8, 47->37, 48->21, 49->3, 50->43, 51->31, 52->6, 53->35, 54->36, 55->27, 56->37, 57->10, 58->11, 59->42, 60->9, 61->21, 62->29, 63->22, 64->4, 65->32, 66->10, 67->18, 68->26, 69->33, 70->30, 71->40, 72->12, 73->13, 74->21, 75->18, 76->8, 77->3, 78->22, 79->5, 80->3, 81->36, 82->19, 83->9, 84->31, 85->14, 86->16, 87->34, 88->44, 89->9, 90->29, 91->15, 92->46, 93->37, 94->26, 95->16, 96->16, 97->42, 98->27, 99->29, 100->19, 101->0, 102->47, 103->15, 104->14, 105->5, 106->21, 107->37, 108->23, 109->44, 110->3, 111->34, 112->42, 113->34, 114->32, 115->13, 116->46, 117->41, 118->30, 119->31, 120->20, 121->1, 122->27, 123->12, 124->6, 125->5, 126->36, 127->20, 128->24, 129->19, 130->42, 131->41, 132->12, 133->14, 134->28, 135->43, 136->4, 137->28, 138->26, 139->2, 140->46, 141->25, 142->27, 143->25, 144->35, 145->2, 146->38, 147->35, 148->39, 149->15, 150->39, 151->36, 152->10, 153->30, 154->1, 155->17, 156->23, 157->43, 158->24, 159->43, 160->5, 161->44, 162->45, 163->45, 164->5, 165->21, 166->45, 167->4, 168->36, 169->1, 170->17, 171->9, 172->41, 173->19, 174->43, 175->40, 176->32, 177->17, 178->32, 179->0, 180->33, 181->45, 182->17, 183->47, 184->23, 185->33, 186->5, 187->9, 188->37, 189->16, 190->4, 191->13, 192->44, 193->44, 194->40, 195->10, 196->11, 197->47, 198->40, 199->16, 200->27, 201->32, 202->12, 203->28, 204->1, 205->4, 206->25, 207->23, 208->8, 209->6, 210->38, 211->46, 212->46, 213->3, 214->31, 215->19, 216->27, 217->16, 218->33, 219->0, 220->24, 221->45, 222->11, 223->25, 224->15, 225->22, 226->17, 227->42, 228->15, 229->47, 230->23, 231->29, 232->39, 233->39, 234->41, 235->10, 236->23, 237->17, 238->8, 239->2, 240->12, 241->24, 242->13, 243->31, 244->22, 245->10, 246->18, 247->11, 248->40, 249->35, 250->1, 251->18, 252->11, 253->8, 254->33, 255->20, 256->7, 257->0, 258->30, 259->13, 260->34, 261->20, 262->35, 263->13, 264->41, 265->24, 266->30, 267->2, 268->38, 269->29, 270->20, 271->6, 272->47, 273->43, 274->12, 275->4, 276->28, 277->2, 278->21, 279->35, 280->20, 281->39, 282->29, 283->6, 284->36, 285->14, 286->6, 287->40
Number of tasks per core:
	6	6	6	6	6	6
	6	6	6	6	6	6
	6	6	6	6	6	6
	6	6	6	6	6	6
	6	6	6	6	6	6
	6	6	6	6	6	6
	6	6	6	6	6	6
	6	6	6	6	6	6
Average CPI map:
	1.09939	1.55533	1.71158	1.88926	1.19328	1.10226
	1.1476	1.85863	2.10487	2.00484	1.83614	2.18404
	5.79342	2.50735	2.6989	1.2212	5.02288	2.22698
	2.4923	3.16648	3.82334	2.74659	2.08392	1.69755
	1.97577	2.53685	3.04592	6.13629	5.35355	1.42683
	2.18555	3.33125	6.06235	2.71686	2.16597	1.28463
	1.45016	2.07813	2.55996	2.25972	3.36204	1.35477
	1.06574	2.26906	1.94612	1.83618	0.882889	1.54529
Efficiency map:
	0.996719	0.931923	0.913736	0.927409	0.923612	0.995944
	0.797912	0.655607	0.654242	0.65439	0.652274	0.855626
	0.961671	0.652059	0.659414	0.662196	0.715448	0.833983
	0.84282	0.667067	0.700889	0.666742	0.652098	0.815961
	0.823777	0.66915	0.65199	0.744952	0.746139	0.767363
	0.824106	0.667394	0.685965	0.652002	0.653577	0.794982
	0.871815	0.663094	0.659217	0.662033	0.694923	0.778094
	0.807194	0.720446	0.666781	0.658216	0.652532	0.82173
==============================================================================
Local Solver optimizer for EML demonstration
==============================================================================

Option values: --wld-idx 16 --global-tlim 90 --seed 0

Starting the Optimization Process
