LocalSolver 4.0 (MacOS64, build 20131224)
Copyright (C) 2013 Bouygues SA, Aix-Marseille University, CNRS.
All rights reserved (see Terms and Conditions for details).

Load localsolver_res/tawd_ls.lsp...
Run input...
ANNs For the Platform:
3,2,1,0.413586,-0.0266769,-0.0683771,-5.1002,70.5254,-0.257939,-72.3361,-14.3957,-55.9961,0.000416225,-55.1984
3,2,1,7.29748,1.94844,3.18138,9.63196,-4.67735,-4.13678,1.22405,-8.03403,0.0803394,-0.125838,0.598848
3,2,1,6.43996,0.383984,0.598454,7.79024,-4.25175,0.123161,-0.278344,-5.71253,1.47885,1.00258,0.327892
3,2,1,3.45395,0.140329,0.51254,4.25255,4.08469,0.00326531,0.722664,3.88666,1.2829,-0.290289,-0.187123
3,2,1,1.76581,-0.7465,16.0398,1.01103,2.42771,0.96084,1.00318,4.14242,-0.00284347,0.244904,0.56299
3,2,1,1.87058,0.359859,-0.0851999,0.818043,3.18969,0.847611,-7.29654,-2.24823,0.00245596,0.000486788,0.794563
3,2,1,3.28113,0.579268,0.142679,3.72653,-0.240895,-0.149383,25.0414,7.13641,0.488705,-0.00083541,0.320468
3,2,1,-4.78997,-2.53518,1.7971,11.1628,-3.08773,-0.470276,-0.0894822,-2.63871,1.46314,-0.463195,-1.12076
3,2,1,-0.392198,-0.00544948,0.0100489,-0.634573,-1.21109,-0.0856362,-0.013156,-1.60668,1.54201,-2.33195,-0.462253
3,2,1,3.15031,0.401017,0.160161,2.51156,5.71314,0.59291,-11.6364,2.59774,0.430465,0.00737346,0.36306
3,2,1,2.64111,0.312028,0.0803827,2.35273,-4.25958,3.48188,-1.59773,-1.57632,0.565527,0.0271972,0.266241
3,2,1,2.2658,0.0425076,0.0191991,-0.583848,2.82415,0.533705,0.0754136,3.33659,-0.0169351,0.54785,0.257008
3,2,1,6.01014,0.654767,0.24854,5.54419,5.68574,0.00137666,0.00103835,-1.46229,0.258518,0.00962319,0.54621
3,2,1,-0.828282,0.684875,0.223674,-1.44779,5.0064,0.272371,0.00344824,2.89438,0.397142,0.379767,0.797684
3,2,1,-0.166745,-1.25514,-0.967701,-3.82155,3.34568,0.34907,0.176897,2.37943,0.567319,0.42026,0.93611
3,2,1,-10.035,3.55243,8.66202,-21.5626,10.92,0.228744,0.12852,5.40188,0.871264,0.345634,1.3209
3,2,1,4.50278,0.709934,0.227356,3.41616,1.455,0.115548,0.0125181,-1.15221,0.345467,0.222127,0.602264
3,2,1,3.51765,0.552987,0.202187,3.41883,0.53704,0.0709757,-0.0346297,-0.38017,0.320095,-0.0397752,0.474568
3,2,1,3.62936,0.506661,0.201819,3.49179,3.4019,-3.09955,1.3332,0.961184,0.32649,-0.0126443,0.488413
3,2,1,3.50925,0.448618,0.127508,2.4823,1.78455,1.6893,1.46456,-0.207671,0.400287,0.00684206,0.402337
3,2,1,-0.52883,0.00691432,0.00617163,-0.194006,1.73284,0.0488672,0.0179273,1.25978,0.716787,0.92667,0.162242
3,2,1,2.48239,0.190378,0.120167,1.91689,1.21532,1.48543,0.644574,2.68198,0.547395,-0.0744913,0.328097
3,2,1,2.55861,2.02297,0.650126,2.19109,2.44652,0.0836318,0.0133745,2.4369,0.0418722,0.798841,-0.0334834
3,2,1,5.07371,0.556895,0.217981,4.66725,-0.00829845,-0.00544544,0.00934569,-0.672651,0.280461,-0.520981,0.217266
3,2,1,1.56588,0.201966,0.0665967,1.82578,1.97654,0.236717,0.0903453,1.08195,1.02748,-0.229836,0.011785
3,2,1,2.41728,0.208205,-0.0012583,2.05484,1.41976,-1.30194,1.45365,1.79277,0.56727,0.031184,0.207229
3,2,1,3.71833,0.202336,0.172606,2.43155,5.03284,0.375118,-0.790998,-3.83455,0.400925,0.372075,0.754779
3,2,1,-1.25583,1.47411,0.819895,-2.78448,4.36107,0.113478,0.107247,2.55416,0.385214,0.384141,0.797017
3,2,1,1.71562,-0.478906,-0.61026,-1.17859,3.1361,0.360865,0.0914124,2.2536,-0.0127033,0.431384,0.365879
3,2,1,-1.75501,-0.0880109,-0.026461,-2.68365,2.88327,0.072433,0.0245574,1.95701,-5.87306,-0.563325,-4.48698
3,2,1,1.87886,0.47325,-0.0511434,1.79719,1.94184,0.328234,0.0220624,2.54301,-0.401251,1.77114,-0.565042
3,2,1,-1.60981,1.67946,0.217969,-1.01084,4.35765,0.130722,0.127348,2.65259,0.0709006,0.384957,0.481341
3,2,1,6.90393,1.27603,0.349979,4.84299,12.4465,-4.65212,-2.15462,0.408255,0.295914,0.0666312,0.4354
3,2,1,3.04491,0.18183,0.111428,2.10543,3.32281,-0.49945,-3.78487,-7.88748,0.444834,-4.36795,-4.01116
3,2,1,2.91407,0.251062,0.0435786,2.27032,0.308764,1.59867,0.766589,0.134898,0.475285,0.00569166,0.326702
3,2,1,1.44846,0.205113,0.0448314,1.45909,1.93039,0.286882,0.0586866,1.17886,1.39166,-0.600981,0.0448012
3,2,1,-0.702729,1.84783,-0.00894741,-12.1377,-140.908,-69.0514,-27.175,-146.219,-4.51728,-0.14351,-3.88527
3,2,1,4.2004,0.255152,0.0750175,2.63627,-1.17866,1.67307,0.209535,-1.03514,0.371915,0.0747402,0.498851
3,2,1,3.28015,0.190841,0.175032,2.31848,-0.821253,-1.83022,1.5009,-1.6155,0.417221,-0.0239081,0.360136
3,2,1,2.0525,0.0719707,0.0148549,2.1486,2.00198,1.73479,2.09334,1.44082,0.954066,0.00952719,-0.152697
3,2,1,3.31406,0.407717,0.0380361,2.47187,-0.266021,-1.73458,0.970613,-1.79463,0.415264,-0.0144649,0.374956
3,2,1,6.25099,-3.17047,1.46865,-0.279767,-2.91952,-0.395169,-0.0444215,-3.76202,-0.00491872,-1.23429,-0.425145
3,2,1,1.59636,0.096013,0.0630313,0.826005,1.46151,0.077228,0.0482484,1.68899,-0.289647,1.15304,-0.0688712
3,2,1,33.0172,0.520442,0.135338,28.5555,-3.97298,-0.0574545,-0.0193135,3.34452,0.297691,-5.9863,6.38072
3,2,1,2.32742,0.056139,0.0279748,2.30198,0.254535,0.117712,2.12797,1.7883,0.827797,-0.00209653,-0.0205758
3,2,1,-1.76524,-0.0296866,-0.00748622,-2.47523,4.4267,-0.377196,-4.83785,1.3517,-2.37434,-0.00716866,-1.55224
3,2,1,1.2047,-1.47491,1.03821,1.50617,3.23679,0.3845,-0.018138,2.47251,0.0419137,0.407618,0.357451
3,2,1,3.93828,-0.00820725,-0.00812648,-1.1651,2.06372,0.114124,0.0339398,2.70327,-0.0635318,1.17159,-0.373077
Workload Information:
3.16677, 0.552865, 1.32298, 3.12211, 0.731569, 3.10371, 1.2612, 0.5, 1.46763, 5.97021, 1.38502, 1.41594, 1.50121, 2.0939, 2.53628, 2.04798, 2.16037, 1.66026, 0.807233, 2.79768, 0.743508, 0.5, 3.57748, 3.57409, 1.7275, 1.71631, 2.40276, 2.18868, 1.87854, 2.08621, 2.08286, 2.98595, 2.43447, 3.4015, 0.5, 0.595212, 0.667261, 1.24142, 4.04406, 1.88579, 0.882948, 3.27852, 2.27525, 1.69474, 1.76537, 1.65922, 2.29413, 2.31128, 1.11371, 0.787628, 2.89236, 3.54444, 0.5, 3.16187, 2.00172, 2.11386, 2.1298, 1.90754, 1.92052, 1.92656, 1.97965, 2.6878, 1.11997, 2.65222, 0.5, 3.06036, 2.85316, 2.12014, 2.93418, 1.65542, 0.5, 1.9371, 11.7512, 11.9685, 8.63206, 9.59966, 10.0474, 8.00112, 2.16075, 1.94883, 1.92622, 2.28592, 1.25839, 2.41989, 2.0228, 4.79308, 0.951753, 1.1168, 2.42198, 0.693589, 0.588691, 3.16218, 3.69829, 0.75144, 0.5, 3.2994, 1.06102, 0.934424, 3.79943, 1.03297, 2.03273, 3.13943, 2.77266, 2.66219, 1.96432, 3.0942, 1.00663, 0.5, 1.66585, 2.54982, 2.63626, 1.83538, 2.36083, 0.951861, 17.8815, 12.1507, 6.89925, 10.3983, 6.05457, 6.61562, 3.76776, 1.84813, 2.14991, 0.94212, 0.5, 2.79209, 1.46509, 2.82923, 2.87292, 3.49018, 0.738201, 0.604373, 2.32148, 1.91172, 2.44474, 1.52231, 1.79154, 2.0082, 1.82272, 1.35783, 2.42845, 2.71231, 2.09494, 1.58374, 11.9625, 15.0758, 11.5414, 1.46537, 15.4325, 4.52245, 8.58849, 16.4922, 17.5132, 3.58395, 5.02879, 8.79342, 1.9893, 2.23152, 1.61701, 1.97846, 2.18059, 2.00313, 2.16208, 2.00138, 2.23112, 2.2001, 2.22482, 1.18049, 2.2247, 2.4661, 2.95476, 0.879442, 2.42377, 1.05124, 3.9735, 2.64003, 1.79781, 0.5, 1.64795, 1.44072, 2.092, 0.842462, 1.42652, 0.603459, 2.35185, 4.6837, 0.5, 4.74097, 1.55172, 1.10802, 1.84743, 2.25187, 2.46553, 1.04171, 2.9721, 2.18323, 0.5, 2.83742, 0.5, 4.53402, 1.12206, 0.562305, 1.3333, 3.94831, 2.77443, 1.30841, 2.38395, 1.58606, 2.39146, 1.55568, 2.45593, 1.43254, 1.45231, 1.51227, 2.53621, 2.61074, 3.46184, 2.39246, 2.86093, 0.5, 1.67423, 1.11054, 5.82139, 1.44459, 2.9009, 0.583379, 0.5, 0.749746, 2.29182, 1.98772, 1.88796, 2.34933, 2.38518, 1.09798, 0.5, 1.14938, 3.04879, 3.2407, 2.41068, 1.65045, 2.87753, 3.62579, 0.719462, 0.5, 0.990044, 3.28717, 2.46692, 0.736493, 2.16848, 4.80788, 0.752042, 1.06818, 2.36438, 2.33041, 1.48881, 1.88913, 2.31491, 1.61235, 2.53878, 3.06425, 3.05494, 1.07348, 1.49652, 0.772033, 1.24126, 1.55978, 2.39673, 3.00719, 3.29503, 0.5, 4.29793, 1.37301, 1.61013, 3.50633, 0.5, 0.712598, 2.03801, 1.26336, 0.5, 3.60041, 0.87444, 3.72378, 1.72439, 1.3915, 3.27714, 1.21099, 1.20117, 3.19481
cpi min/max: 0.5/17.8815
neighbors of 0: 1 6, number of others: 45
neighbors of 1: 0 2 6 7, number of others: 43
neighbors of 2: 1 3 7 8, number of others: 43
neighbors of 3: 2 4 8 9, number of others: 43
neighbors of 4: 3 5 9 10, number of others: 43
neighbors of 5: 4 10 11, number of others: 44
neighbors of 6: 0 1 7 12, number of others: 43
neighbors of 7: 1 2 6 8 12 13, number of others: 41
neighbors of 8: 2 3 7 9 13 14, number of others: 41
neighbors of 9: 3 4 8 10 14 15, number of others: 41
neighbors of 10: 4 5 9 11 15 16, number of others: 41
neighbors of 11: 5 10 16 17, number of others: 43
neighbors of 12: 6 7 13 18, number of others: 43
neighbors of 13: 7 8 12 14 18 19, number of others: 41
neighbors of 14: 8 9 13 15 19 20, number of others: 41
neighbors of 15: 9 10 14 16 20 21, number of others: 41
neighbors of 16: 10 11 15 17 21 22, number of others: 41
neighbors of 17: 11 16 22 23, number of others: 43
neighbors of 18: 12 13 19 24, number of others: 43
neighbors of 19: 13 14 18 20 24 25, number of others: 41
neighbors of 20: 14 15 19 21 25 26, number of others: 41
neighbors of 21: 15 16 20 22 26 27, number of others: 41
neighbors of 22: 16 17 21 23 27 28, number of others: 41
neighbors of 23: 17 22 28 29, number of others: 43
neighbors of 24: 18 19 25 30, number of others: 43
neighbors of 25: 19 20 24 26 30 31, number of others: 41
neighbors of 26: 20 21 25 27 31 32, number of others: 41
neighbors of 27: 21 22 26 28 32 33, number of others: 41
neighbors of 28: 22 23 27 29 33 34, number of others: 41
neighbors of 29: 23 28 34 35, number of others: 43
neighbors of 30: 24 25 31 36, number of others: 43
neighbors of 31: 25 26 30 32 36 37, number of others: 41
neighbors of 32: 26 27 31 33 37 38, number of others: 41
neighbors of 33: 27 28 32 34 38 39, number of others: 41
neighbors of 34: 28 29 33 35 39 40, number of others: 41
neighbors of 35: 29 34 40 41, number of others: 43
neighbors of 36: 30 31 37 42, number of others: 43
neighbors of 37: 31 32 36 38 42 43, number of others: 41
neighbors of 38: 32 33 37 39 43 44, number of others: 41
neighbors of 39: 33 34 38 40 44 45, number of others: 41
neighbors of 40: 34 35 39 41 45 46, number of others: 41
neighbors of 41: 35 40 46 47, number of others: 43
neighbors of 42: 36 37 43, number of others: 44
neighbors of 43: 37 38 42 44, number of others: 43
neighbors of 44: 38 39 43 45, number of others: 43
neighbors of 45: 39 40 44 46, number of others: 43
neighbors of 46: 40 41 45 47, number of others: 43
neighbors of 47: 41 46, number of others: 45
Run model...
Preprocess model 0% ...Preprocess model 16% ...Preprocess model 32% ...Preprocess model 48% ...Preprocess model 66% ...Preprocess model 84% ...Preprocess model 100% ...
Close model 0% ...Close model 9% ...Close model 18% ...Close model 27% ...Close model 36% ...Close model 45% ...Close model 54% ...Close model 63% ...Close model 72% ...Close model 81% ...Close model 91% ...Close model 100% ...
Run param...
Run solver...
Initialize threads 0% ...Initialize threads 100% ...
Push initial solutions 0% ...Push initial solutions 100% ...

Model: 
  expressions = 30666, operands = 74976
  decisions = 13824, constraints = 336, objectives = 1

Param: 
  time limit = 90 sec, no iteration limit
  seed = 501, nb threads = 1, annealing level = 1

Objectives:
  Obj 0: maximize, no bound

Phases:
  Phase 0: time limit = 90 sec, no iteration limit, optimized objective = 0


Computed bounds:
  Obj 0: upper bound = 0.609077


Phase 0:
[0 sec, 0 itr]: infeas = (336, 336, 576), mov = 0, inf < 0.1%, acc < 0.1%, imp = 0

worst case efficiency: 0.965273
[1 sec, 18382 itr]: obj = (0.0480491), mov = 18382, inf = 94.9%, acc = 4.2%, imp = 166

worst case efficiency: 0.628829
[2 sec, 43445 itr]: obj = (0.0733468), mov = 43445, inf = 97.8%, acc = 1.9%, imp = 197

worst case efficiency: 0.644008
[3 sec, 56445 itr]: obj = (0.0737211), mov = 56445, inf = 98.3%, acc = 1.5%, imp = 209

worst case efficiency: 0.644233
[4 sec, 65758 itr]: obj = (0.0737211), mov = 65758, inf = 98.5%, acc = 1.3%, imp = 223

worst case efficiency: 0.644233
[5 sec, 73081 itr]: obj = (0.0737211), mov = 73081, inf = 98.6%, acc = 1.2%, imp = 224

worst case efficiency: 0.644233
[6 sec, 80150 itr]: obj = (0.0737211), mov = 80150, inf = 98.8%, acc = 1.1%, imp = 229

worst case efficiency: 0.644233
[7 sec, 88016 itr]: obj = (0.0737211), mov = 88016, inf = 98.9%, acc = 1%, imp = 234

worst case efficiency: 0.644233
[8 sec, 98966 itr]: obj = (0.0737211), mov = 98966, inf = 99%, acc = 0.9%, imp = 236

worst case efficiency: 0.644233
[9 sec, 120913 itr]: obj = (0.0737211), mov = 120913, inf = 99.2%, acc = 0.8%, imp = 237

worst case efficiency: 0.644233
[10 sec, 148907 itr]: obj = (0.0737211), mov = 148907, inf = 99.3%, acc = 0.6%, imp = 237

worst case efficiency: 0.644233
[11 sec, 178052 itr]: obj = (0.0737211), mov = 178052, inf = 99.5%, acc = 0.5%, imp = 237

worst case efficiency: 0.644233
[12 sec, 206453 itr]: obj = (0.0737211), mov = 206453, inf = 99.5%, acc = 0.5%, imp = 237

worst case efficiency: 0.644233
[13 sec, 235571 itr]: obj = (0.0737211), mov = 235571, inf = 99.6%, acc = 0.4%, imp = 237

worst case efficiency: 0.644233
[14 sec, 263928 itr]: obj = (0.0737211), mov = 263928, inf = 99.7%, acc = 0.4%, imp = 237

worst case efficiency: 0.644233
[15 sec, 292163 itr]: obj = (0.0737211), mov = 292163, inf = 99.7%, acc = 0.3%, imp = 237

worst case efficiency: 0.644233
[16 sec, 320293 itr]: obj = (0.0737211), mov = 320293, inf = 99.7%, acc = 0.3%, imp = 237

worst case efficiency: 0.644233
[17 sec, 348658 itr]: obj = (0.0737211), mov = 348658, inf = 99.7%, acc = 0.3%, imp = 237

worst case efficiency: 0.644233
[18 sec, 376611 itr]: obj = (0.0737211), mov = 376611, inf = 99.8%, acc = 0.3%, imp = 237

worst case efficiency: 0.644233
[19 sec, 405246 itr]: obj = (0.0737211), mov = 405246, inf = 99.8%, acc = 0.3%, imp = 237

worst case efficiency: 0.644233
[20 sec, 432827 itr]: obj = (0.0737211), mov = 432827, inf = 99.8%, acc = 0.2%, imp = 237

worst case efficiency: 0.644233
[21 sec, 460400 itr]: obj = (0.0737211), mov = 460400, inf = 99.8%, acc = 0.2%, imp = 237

worst case efficiency: 0.644233
[22 sec, 488359 itr]: obj = (0.0737211), mov = 488359, inf = 99.8%, acc = 0.2%, imp = 237

worst case efficiency: 0.644233
[23 sec, 516427 itr]: obj = (0.0737211), mov = 516427, inf = 99.8%, acc = 0.2%, imp = 237

worst case efficiency: 0.644233
[24 sec, 544428 itr]: obj = (0.0737211), mov = 544428, inf = 99.9%, acc = 0.2%, imp = 237

worst case efficiency: 0.644233
[25 sec, 573122 itr]: obj = (0.0737211), mov = 573122, inf = 99.9%, acc = 0.2%, imp = 237

worst case efficiency: 0.644233
[26 sec, 600621 itr]: obj = (0.0737211), mov = 600621, inf = 99.9%, acc = 0.2%, imp = 238

worst case efficiency: 0.644233
[27 sec, 628109 itr]: obj = (0.0737211), mov = 628109, inf = 99.9%, acc = 0.2%, imp = 238

worst case efficiency: 0.644233
[28 sec, 655676 itr]: obj = (0.0737211), mov = 655676, inf = 99.9%, acc = 0.2%, imp = 238

worst case efficiency: 0.644233
[29 sec, 683261 itr]: obj = (0.0737211), mov = 683261, inf = 99.9%, acc = 0.2%, imp = 238

worst case efficiency: 0.644233
[30 sec, 710956 itr]: obj = (0.0737211), mov = 710956, inf = 99.9%, acc = 0.2%, imp = 238

worst case efficiency: 0.644233
[31 sec, 739303 itr]: obj = (0.0737211), mov = 739303, inf = 99.9%, acc = 0.2%, imp = 238

worst case efficiency: 0.644233
[32 sec, 767029 itr]: obj = (0.0737211), mov = 767029, inf = 99.9%, acc = 0.2%, imp = 238

worst case efficiency: 0.644233
[33 sec, 794983 itr]: obj = (0.0737211), mov = 794983, inf = 99.9%, acc = 0.2%, imp = 238

worst case efficiency: 0.644233
[34 sec, 821566 itr]: obj = (0.0737211), mov = 821566, inf = 99.9%, acc = 0.2%, imp = 238

worst case efficiency: 0.644233
[35 sec, 849243 itr]: obj = (0.0737211), mov = 849243, inf = 99.9%, acc = 0.2%, imp = 238

worst case efficiency: 0.644233
[36 sec, 877506 itr]: obj = (0.0737211), mov = 877506, inf = 99.9%, acc < 0.1%, imp = 238

worst case efficiency: 0.644233
[37 sec, 904941 itr]: obj = (0.0737211), mov = 904941, inf = 99.9%, acc < 0.1%, imp = 238

worst case efficiency: 0.644233
[38 sec, 931984 itr]: obj = (0.0737211), mov = 931984, inf = 99.9%, acc < 0.1%, imp = 238

worst case efficiency: 0.644233
[39 sec, 960158 itr]: obj = (0.0737211), mov = 960158, inf = 99.9%, acc < 0.1%, imp = 238

worst case efficiency: 0.644233
[40 sec, 987604 itr]: obj = (0.0737211), mov = 987604, inf = 99.9%, acc < 0.1%, imp = 238

worst case efficiency: 0.644233
[41 sec, 1014559 itr]: obj = (0.0737211), mov = 1014559, inf = 99.9%, acc < 0.1%, imp = 238

worst case efficiency: 0.644233
[42 sec, 1041478 itr]: obj = (0.0737211), mov = 1041478, inf = 99.9%, acc < 0.1%, imp = 238

worst case efficiency: 0.644233
[43 sec, 1068379 itr]: obj = (0.0737211), mov = 1068379, inf = 100%, acc < 0.1%, imp = 238

worst case efficiency: 0.644233
[44 sec, 1095539 itr]: obj = (0.0737211), mov = 1095539, inf = 100%, acc < 0.1%, imp = 238

worst case efficiency: 0.644233
[45 sec, 1122502 itr]: obj = (0.0737211), mov = 1122502, inf = 100%, acc < 0.1%, imp = 238

worst case efficiency: 0.644233
[46 sec, 1149883 itr]: obj = (0.0737211), mov = 1149883, inf = 100%, acc < 0.1%, imp = 238

worst case efficiency: 0.644233
[47 sec, 1177468 itr]: obj = (0.0737211), mov = 1177468, inf = 100%, acc < 0.1%, imp = 238

worst case efficiency: 0.644233
[48 sec, 1204437 itr]: obj = (0.0737211), mov = 1204437, inf = 100%, acc < 0.1%, imp = 238

worst case efficiency: 0.644233
[49 sec, 1232145 itr]: obj = (0.0737211), mov = 1232145, inf = 100%, acc < 0.1%, imp = 239

worst case efficiency: 0.644233
[50 sec, 1259373 itr]: obj = (0.0737211), mov = 1259373, inf = 100%, acc < 0.1%, imp = 239

worst case efficiency: 0.644233
[51 sec, 1286569 itr]: obj = (0.0737211), mov = 1286569, inf = 100%, acc < 0.1%, imp = 239

worst case efficiency: 0.644233
[52 sec, 1313176 itr]: obj = (0.0737211), mov = 1313176, inf = 100%, acc < 0.1%, imp = 239

worst case efficiency: 0.644233
[53 sec, 1340274 itr]: obj = (0.0737211), mov = 1340274, inf = 100%, acc < 0.1%, imp = 239

worst case efficiency: 0.644233
[54 sec, 1367364 itr]: obj = (0.0737211), mov = 1367364, inf = 100%, acc < 0.1%, imp = 239

worst case efficiency: 0.644233
[55 sec, 1394543 itr]: obj = (0.0737211), mov = 1394543, inf = 100%, acc < 0.1%, imp = 239

worst case efficiency: 0.644233
[56 sec, 1422150 itr]: obj = (0.0737211), mov = 1422150, inf = 100%, acc < 0.1%, imp = 239

worst case efficiency: 0.644233
[57 sec, 1449448 itr]: obj = (0.0737211), mov = 1449448, inf = 100%, acc < 0.1%, imp = 239

worst case efficiency: 0.644233
[58 sec, 1476308 itr]: obj = (0.0737211), mov = 1476308, inf = 100%, acc < 0.1%, imp = 239

worst case efficiency: 0.644233
[59 sec, 1503906 itr]: obj = (0.0737211), mov = 1503906, inf = 100%, acc < 0.1%, imp = 239

worst case efficiency: 0.644233
[60 sec, 1530975 itr]: obj = (0.0737211), mov = 1530975, inf = 100%, acc < 0.1%, imp = 239

worst case efficiency: 0.644233
[61 sec, 1558000 itr]: obj = (0.0737211), mov = 1558000, inf = 100%, acc < 0.1%, imp = 239

worst case efficiency: 0.644233
[62 sec, 1584819 itr]: obj = (0.0737211), mov = 1584819, inf = 100%, acc < 0.1%, imp = 239

worst case efficiency: 0.644233
[63 sec, 1611795 itr]: obj = (0.0737211), mov = 1611795, inf = 100%, acc < 0.1%, imp = 239

worst case efficiency: 0.644233
[64 sec, 1639080 itr]: obj = (0.0737211), mov = 1639080, inf = 100%, acc < 0.1%, imp = 239

worst case efficiency: 0.644233
[65 sec, 1666478 itr]: obj = (0.0737211), mov = 1666478, inf = 100%, acc < 0.1%, imp = 239

worst case efficiency: 0.644233
[66 sec, 1693771 itr]: obj = (0.0737211), mov = 1693771, inf = 100%, acc < 0.1%, imp = 239

worst case efficiency: 0.644233
[67 sec, 1721254 itr]: obj = (0.0737211), mov = 1721254, inf = 100%, acc < 0.1%, imp = 239

worst case efficiency: 0.644233
[68 sec, 1748198 itr]: obj = (0.0737211), mov = 1748198, inf = 100%, acc < 0.1%, imp = 239

worst case efficiency: 0.644233
[69 sec, 1775373 itr]: obj = (0.0737211), mov = 1775373, inf = 100%, acc < 0.1%, imp = 239

worst case efficiency: 0.644233
[70 sec, 1802406 itr]: obj = (0.0737211), mov = 1802406, inf = 100%, acc < 0.1%, imp = 239

worst case efficiency: 0.644233
[71 sec, 1830616 itr]: obj = (0.0737211), mov = 1830616, inf = 100%, acc < 0.1%, imp = 239

worst case efficiency: 0.644233
[72 sec, 1857682 itr]: obj = (0.0737211), mov = 1857682, inf = 100%, acc < 0.1%, imp = 239

worst case efficiency: 0.644233
[73 sec, 1885044 itr]: obj = (0.0737211), mov = 1885044, inf = 100%, acc < 0.1%, imp = 240

worst case efficiency: 0.644233
[74 sec, 1912995 itr]: obj = (0.0737211), mov = 1912995, inf = 100%, acc < 0.1%, imp = 240

worst case efficiency: 0.644233
[75 sec, 1940549 itr]: obj = (0.0737211), mov = 1940549, inf = 100%, acc < 0.1%, imp = 240

worst case efficiency: 0.644233
[76 sec, 1968922 itr]: obj = (0.0737211), mov = 1968922, inf = 100%, acc < 0.1%, imp = 240

worst case efficiency: 0.644233
[77 sec, 1997611 itr]: obj = (0.0737211), mov = 1997611, inf = 100%, acc < 0.1%, imp = 240

worst case efficiency: 0.644233
[78 sec, 2024986 itr]: obj = (0.0737211), mov = 2024986, inf = 100%, acc < 0.1%, imp = 240

worst case efficiency: 0.644233
[79 sec, 2052475 itr]: obj = (0.0737211), mov = 2052475, inf = 100%, acc < 0.1%, imp = 240

worst case efficiency: 0.644233
[80 sec, 2079940 itr]: obj = (0.0737211), mov = 2079940, inf = 100%, acc < 0.1%, imp = 240

worst case efficiency: 0.644233
[81 sec, 2107549 itr]: obj = (0.0737211), mov = 2107549, inf = 100%, acc < 0.1%, imp = 240

worst case efficiency: 0.644233
[82 sec, 2134878 itr]: obj = (0.0737211), mov = 2134878, inf = 100%, acc < 0.1%, imp = 240

worst case efficiency: 0.644233
[83 sec, 2162850 itr]: obj = (0.0737211), mov = 2162850, inf = 100%, acc < 0.1%, imp = 240

worst case efficiency: 0.644233
[84 sec, 2191650 itr]: obj = (0.0737211), mov = 2191650, inf = 100%, acc < 0.1%, imp = 240

worst case efficiency: 0.644233
[85 sec, 2220323 itr]: obj = (0.0737211), mov = 2220323, inf = 100%, acc < 0.1%, imp = 240

worst case efficiency: 0.644233
[86 sec, 2248405 itr]: obj = (0.0737211), mov = 2248405, inf = 100%, acc < 0.1%, imp = 240

worst case efficiency: 0.644233
[87 sec, 2277458 itr]: obj = (0.0737211), mov = 2277458, inf = 100%, acc < 0.1%, imp = 240

worst case efficiency: 0.644233
[88 sec, 2306435 itr]: obj = (0.0737211), mov = 2306435, inf = 100%, acc < 0.1%, imp = 240

worst case efficiency: 0.644233
[89 sec, 2335642 itr]: obj = (0.0737211), mov = 2335642, inf = 100%, acc < 0.1%, imp = 240

worst case efficiency: 0.644233
[90 sec, 2365150 itr]: obj = (0.0737211), mov = 2365150, inf = 100%, acc < 0.1%, imp = 240

worst case efficiency: 0.644233
[90 sec, 2365150 itr]: obj = (0.0737211), mov = 2365150, inf = 100%, acc < 0.1%, imp = 240

worst case efficiency: 0.644233
2365150 iterations, 2365150 moves performed in 90 seconds
Feasible solution: obj = (0.0737211)

Run output...
FINAL SOLUTION
Worst case efficiency: 0.644233
Mapping: 0->39, 1->43, 2->17, 3->20, 4->9, 5->16, 6->11, 7->21, 8->18, 9->24, 10->5, 11->27, 12->12, 13->28, 14->20, 15->45, 16->40, 17->8, 18->9, 19->0, 20->3, 21->37, 22->40, 23->36, 24->43, 25->35, 26->32, 27->3, 28->43, 29->44, 30->26, 31->28, 32->23, 33->7, 34->37, 35->16, 36->12, 37->12, 38->41, 39->19, 40->22, 41->18, 42->16, 43->40, 44->14, 45->11, 46->19, 47->39, 48->38, 49->15, 50->22, 51->34, 52->27, 53->6, 54->16, 55->0, 56->21, 57->29, 58->7, 59->38, 60->17, 61->1, 62->26, 63->46, 64->5, 65->2, 66->26, 67->12, 68->8, 69->13, 70->31, 71->19, 72->3, 73->31, 74->20, 75->26, 76->18, 77->10, 78->47, 79->39, 80->13, 81->2, 82->15, 83->44, 84->27, 85->0, 86->0, 87->28, 88->44, 89->8, 90->37, 91->38, 92->42, 93->19, 94->24, 95->41, 96->7, 97->43, 98->38, 99->24, 100->1, 101->22, 102->25, 103->47, 104->30, 105->31, 106->18, 107->3, 108->25, 109->23, 110->10, 111->37, 112->17, 113->40, 114->27, 115->32, 116->34, 117->31, 118->18, 119->9, 120->33, 121->21, 122->14, 123->43, 124->26, 125->32, 126->24, 127->32, 128->39, 129->21, 130->14, 131->36, 132->8, 133->12, 134->3, 135->36, 136->16, 137->37, 138->4, 139->25, 140->43, 141->0, 142->45, 143->36, 144->4, 145->2, 146->32, 147->2, 148->17, 149->42, 150->34, 151->6, 152->27, 153->2, 154->15, 155->2, 156->10, 157->15, 158->8, 159->45, 160->7, 161->28, 162->25, 163->47, 164->11, 165->23, 166->22, 167->5, 168->7, 169->22, 170->33, 171->38, 172->35, 173->17, 174->45, 175->47, 176->29, 177->36, 178->35, 179->1, 180->11, 181->30, 182->18, 183->13, 184->16, 185->25, 186->15, 187->29, 188->24, 189->35, 190->42, 191->33, 192->7, 193->35, 194->6, 195->45, 196->32, 197->33, 198->9, 199->41, 200->31, 201->10, 202->47, 203->26, 204->22, 205->1, 206->19, 207->27, 208->30, 209->6, 210->13, 211->25, 212->3, 213->34, 214->34, 215->35, 216->4, 217->14, 218->21, 219->40, 220->11, 221->42, 222->41, 223->37, 224->28, 225->6, 226->44, 227->4, 228->14, 229->46, 230->29, 231->23, 232->44, 233->29, 234->40, 235->46, 236->42, 237->10, 238->5, 239->23, 240->41, 241->23, 242->6, 243->42, 244->44, 245->46, 246->14, 247->13, 248->13, 249->46, 250->17, 251->4, 252->10, 253->21, 254->38, 255->33, 256->4, 257->30, 258->30, 259->24, 260->45, 261->5, 262->12, 263->1, 264->46, 265->29, 266->9, 267->11, 268->8, 269->9, 270->19, 271->36, 272->39, 273->47, 274->20, 275->31, 276->0, 277->20, 278->20, 279->33, 280->1, 281->39, 282->34, 283->28, 284->30, 285->15, 286->5, 287->41
Number of tasks per core:
	6	6	6	6	6	6
	6	6	6	6	6	6
	6	6	6	6	6	6
	6	6	6	6	6	6
	6	6	6	6	6	6
	6	6	6	6	6	6
	6	6	6	6	6	6
	6	6	6	6	6	6
Average CPI map:
	2.56778	1.51935	5.7108	3.18008	3.56332	1.29181
	4.24744	2.20898	2.08693	1.92519	3.13234	1.98749
	1.48971	1.591	1.96745	1.83622	2.01988	3.81653
	3.88021	2.25839	2.75897	2.19324	2.39668	2.46833
	2.26404	2.34578	3.35066	6.81992	2.08203	2.16534
	2.10442	4.63262	5.36937	2.88356	4.13418	1.75808
	1.52625	1.14614	2.06169	2.60562	1.56408	3.96187
	2.45458	1.41065	1.80055	2.55551	2.52094	2.384
Efficiency map:
	0.996669	0.940902	0.997381	0.976755	0.95667	0.995958
	0.916175	0.670033	0.656886	0.655238	0.708679	0.84834
	0.817105	0.646006	0.644233	0.662215	0.647691	0.880211
	0.879022	0.647841	0.658503	0.648206	0.67057	0.841933
	0.835625	0.660682	0.659598	0.776255	0.644256	0.840167
	0.822767	0.700322	0.669988	0.656857	0.730983	0.820761
	0.871815	0.654056	0.646002	0.683152	0.650583	0.911551
	0.858775	0.660873	0.657556	0.707687	0.697946	0.861801
==============================================================================
Local Solver optimizer for EML demonstration
==============================================================================

Option values: --wld-idx 18 --global-tlim 90 --seed 501

Starting the Optimization Process
