==============================================================================
LNS optimizer for EML demonstration
==============================================================================

Option values: --wld-idx 1 --prec 10000 --step 0 --global-tlim 90 --global-iter 1000 --local-tlim 3 --local-nsol 1 --restart-base 100 --restart-strat luby --seed 801

Starting the Optimization Process
reserved_tasks None
Finding a first solution
LNS iteration #0 ========================================
- worst case average CPI: 2.169
- worst case efficiency: 0.644
- efficiency to beat: 0.644
- normalized lower bound 810
--- checking solution
--- solution ok! Maximum rounding error: 0.000051
- solution found, obj var is: 812
- de-normalized obj var: 0.648720
- time (local/global): 0.000/0.000
- branches (local/global): 20/20
- fails (local/global): 0/0
- lns time: 0.005000
- lns branches: 20
- lns fails: 0
LNS iteration #1 ========================================
- worst case average CPI: 2.169
- worst case efficiency: 0.649
- efficiency to beat: 0.649
- normalized lower bound 896
--- checking solution
--- solution ok! Maximum rounding error: 0.000091
- solution found, obj var is: 923
- de-normalized obj var: 0.655380
- time (local/global): 0.001/0.006
- branches (local/global): 22/42
- fails (local/global): 0/0
- lns time: 0.006000
- lns branches: 22
- lns fails: 0
LNS iteration #2 ========================================
- worst case average CPI: 1.505
- worst case efficiency: 0.652
- efficiency to beat: 0.652
- normalized lower bound 950
--- checking solution
--- solution ok! Maximum rounding error: 0.000050
- solution found, obj var is: 952
- de-normalized obj var: 0.657120
- time (local/global): 0.003/0.014
- branches (local/global): 218/260
- fails (local/global): 99/99
- lns time: 0.007000
- lns branches: 218
- lns fails: 99
LNS iteration #3 ========================================
- worst case average CPI: 1.298
- worst case efficiency: 0.655
- efficiency to beat: 0.655
- normalized lower bound 996
--- checking solution
--- solution ok! Maximum rounding error: 0.000065
- solution found, obj var is: 1491
- de-normalized obj var: 0.689460
- time (local/global): 0.001/0.019
- branches (local/global): 20/280
- fails (local/global): 0/99
- lns time: 0.005000
- lns branches: 20
- lns fails: 0
LNS iteration #4 ========================================
- worst case average CPI: 1.298
- worst case efficiency: 0.656
- efficiency to beat: 0.656
- normalized lower bound 1010
--- checking solution
--- solution ok! Maximum rounding error: 0.000050
- solution found, obj var is: 1010
- de-normalized obj var: 0.660600
- time (local/global): 0.003/0.026
- branches (local/global): 238/518
- fails (local/global): 100/199
- lns time: 0.007000
- lns branches: 238
- lns fails: 100
LNS iteration #5 ========================================
- worst case average CPI: 1.374
- worst case efficiency: 0.658
- efficiency to beat: 0.658
- normalized lower bound 1051
--- checking solution
--- solution ok! Maximum rounding error: 0.000025
- solution found, obj var is: 1071
- de-normalized obj var: 0.664260
- time (local/global): 0.001/0.031
- branches (local/global): 50/568
- fails (local/global): 18/217
- lns time: 0.005000
- lns branches: 50
- lns fails: 18
LNS iteration #6 ========================================
- worst case average CPI: 1.374
- worst case efficiency: 0.660
- efficiency to beat: 0.660
- normalized lower bound 1087
--- checking solution
--- solution ok! Maximum rounding error: 0.000069
- solution found, obj var is: 1240
- de-normalized obj var: 0.674400
- time (local/global): 0.001/0.036
- branches (local/global): 33/601
- fails (local/global): 6/223
- lns time: 0.005000
- lns branches: 33
- lns fails: 6
LNS iteration #7 ========================================
- worst case average CPI: 1.374
- worst case efficiency: 0.661
- efficiency to beat: 0.661
- normalized lower bound 1094
--- checking solution
--- solution ok! Maximum rounding error: 0.000066
- solution found, obj var is: 1219
- de-normalized obj var: 0.673140
- time (local/global): 0.001/0.041
- branches (local/global): 19/620
- fails (local/global): 0/223
- lns time: 0.005000
- lns branches: 19
- lns fails: 0
LNS iteration #8 ========================================
- worst case average CPI: 1.374
- worst case efficiency: 0.663
- efficiency to beat: 0.663
- normalized lower bound 1129
--- checking solution
--- solution ok! Maximum rounding error: 0.000085
- solution found, obj var is: 1687
- de-normalized obj var: 0.701220
- time (local/global): 0.009/0.054
- branches (local/global): 766/1386
- fails (local/global): 355/578
- lns time: 0.013000
- lns branches: 766
- lns fails: 355
LNS iteration #9 ========================================
- worst case average CPI: 1.374
- worst case efficiency: 0.663
- efficiency to beat: 0.663
- normalized lower bound 1138
--- checking solution
--- solution ok! Maximum rounding error: 0.000117
- solution found, obj var is: 1139
- de-normalized obj var: 0.668340
- time (local/global): 0.006/0.064
- branches (local/global): 466/1852
- fails (local/global): 206/784
- lns time: 0.010000
- lns branches: 466
- lns fails: 206
LNS iteration #10 ========================================
- worst case average CPI: 1.374
- worst case efficiency: 0.664
- efficiency to beat: 0.664
- normalized lower bound 1150
--- checking solution
--- solution ok! Maximum rounding error: 0.000020
- solution found, obj var is: 1302
- de-normalized obj var: 0.678120
- time (local/global): 0.043/0.111
- branches (local/global): 2538/4390
- fails (local/global): 1201/1985
- lns time: 0.049000
- lns branches: 2538
- lns fails: 1201
LNS iteration #11 ========================================
- worst case average CPI: 1.374
- worst case efficiency: 0.665
- efficiency to beat: 0.665
- normalized lower bound 1171
--- checking solution
--- solution ok! Maximum rounding error: 0.000037
- solution found, obj var is: 1237
- de-normalized obj var: 0.674220
- time (local/global): 0.002/0.119
- branches (local/global): 90/4480
- fails (local/global): 35/2020
- lns time: 0.007000
- lns branches: 90
- lns fails: 35
LNS iteration #12 ========================================
- worst case average CPI: 1.374
- worst case efficiency: 0.666
- efficiency to beat: 0.666
- normalized lower bound 1177
--- checking solution
--- solution ok! Maximum rounding error: 0.000020
- solution found, obj var is: 1193
- de-normalized obj var: 0.671580
- time (local/global): 0.001/0.125
- branches (local/global): 20/4500
- fails (local/global): 0/2020
- lns time: 0.009000
- lns branches: 20
- lns fails: 0
LNS iteration #13 ========================================
- worst case average CPI: 1.374
- worst case efficiency: 0.667
- efficiency to beat: 0.667
- normalized lower bound 1201
--- checking solution
--- solution ok! Maximum rounding error: 0.000066
- solution found, obj var is: 1207
- de-normalized obj var: 0.672420
- time (local/global): 0.041/0.174
- branches (local/global): 3327/7827
- fails (local/global): 1605/3625
- lns time: 0.045000
- lns branches: 3327
- lns fails: 1605
LNS iteration #14 ========================================
- worst case average CPI: 1.301
- worst case efficiency: 0.669
- efficiency to beat: 0.669
- normalized lower bound 1232
--- checking solution
--- solution ok! Maximum rounding error: 0.000006
- solution found, obj var is: 1237
- de-normalized obj var: 0.674220
- time (local/global): 0.076/0.254
- branches (local/global): 4705/12532
- fails (local/global): 2243/5868
- lns time: 0.081000
- lns branches: 4705
- lns fails: 2243
LNS iteration #15 ========================================
- worst case average CPI: 1.374
- worst case efficiency: 0.672
- efficiency to beat: 0.672
- normalized lower bound 1276
--- checking solution
--- solution ok! Maximum rounding error: 0.000035
- solution found, obj var is: 1286
- de-normalized obj var: 0.677160
- time (local/global): 0.131/0.390
- branches (local/global): 7902/20434
- fails (local/global): 3790/9658
- lns time: 0.136000
- lns branches: 7902
- lns fails: 3790
LNS iteration #16 ========================================
- worst case average CPI: 1.374
- worst case efficiency: 0.673
- efficiency to beat: 0.673
- normalized lower bound 1293
--- checking solution
--- solution ok! Maximum rounding error: 0.000004
- solution found, obj var is: 1466
- de-normalized obj var: 0.687960
- time (local/global): 0.001/0.396
- branches (local/global): 22/20456
- fails (local/global): 0/9658
- lns time: 0.006000
- lns branches: 22
- lns fails: 0
LNS iteration #17 ========================================
- worst case average CPI: 1.374
- worst case efficiency: 0.673
- efficiency to beat: 0.673
- normalized lower bound 1294
--- checking solution
--- solution ok! Maximum rounding error: 0.000070
- solution found, obj var is: 2660
- de-normalized obj var: 0.759600
- time (local/global): 0.001/0.402
- branches (local/global): 22/20478
- fails (local/global): 0/9658
- lns time: 0.005000
- lns branches: 22
- lns fails: 0
LNS iteration #18 ========================================
- worst case average CPI: 1.374
- worst case efficiency: 0.673
- efficiency to beat: 0.673
- normalized lower bound 1306
--- checking solution
--- solution ok! Maximum rounding error: 0.000065
- solution found, obj var is: 1560
- de-normalized obj var: 0.693600
- time (local/global): 0.001/0.407
- branches (local/global): 21/20499
- fails (local/global): 0/9658
- lns time: 0.005000
- lns branches: 21
- lns fails: 0
LNS iteration #19 ========================================
- worst case average CPI: 1.374
- worst case efficiency: 0.674
- efficiency to beat: 0.674
- normalized lower bound 1321
--- checking solution
--- solution ok! Maximum rounding error: 0.000106
- solution found, obj var is: 1385
- de-normalized obj var: 0.683100
- time (local/global): 0.005/0.416
- branches (local/global): 457/20956
- fails (local/global): 200/9858
- lns time: 0.009000
- lns branches: 457
- lns fails: 200
LNS iteration #20 ========================================
- worst case average CPI: 1.374
- worst case efficiency: 0.672
- efficiency to beat: 0.672
- normalized lower bound 1278
--- checking solution
--- solution ok! Maximum rounding error: 0.000029
- solution found, obj var is: 1301
- de-normalized obj var: 0.678060
- time (local/global): 0.001/0.421
- branches (local/global): 21/20977
- fails (local/global): 0/9858
- lns time: 0.006000
- lns branches: 21
- lns fails: 0
LNS iteration #21 ========================================
- worst case average CPI: 1.374
- worst case efficiency: 0.675
- efficiency to beat: 0.675
- normalized lower bound 1326
--- checking solution
--- solution ok! Maximum rounding error: 0.000000
- solution found, obj var is: 1844
- de-normalized obj var: 0.710640
- time (local/global): 0.001/0.427
- branches (local/global): 20/20997
- fails (local/global): 0/9858
- lns time: 0.008000
- lns branches: 20
- lns fails: 0
LNS iteration #22 ========================================
- worst case average CPI: 1.374
- worst case efficiency: 0.675
- efficiency to beat: 0.675
- normalized lower bound 1331
--- checking solution
--- solution ok! Maximum rounding error: 0.000025
- solution found, obj var is: 1353
- de-normalized obj var: 0.681180
- time (local/global): 0.001/0.435
- branches (local/global): 38/21035
- fails (local/global): 8/9866
- lns time: 0.005000
- lns branches: 38
- lns fails: 8
LNS iteration #23 ========================================
- worst case average CPI: 1.374
- worst case efficiency: 0.675
- efficiency to beat: 0.675
- normalized lower bound 1333
--- checking solution
--- solution ok! Maximum rounding error: 0.000057
- solution found, obj var is: 1923
- de-normalized obj var: 0.715380
- time (local/global): 0.009/0.448
- branches (local/global): 872/21907
- fails (local/global): 400/10266
- lns time: 0.013000
- lns branches: 872
- lns fails: 400
LNS iteration #24 ========================================
- worst case average CPI: 1.374
- worst case efficiency: 0.675
- efficiency to beat: 0.675
- normalized lower bound 1337
--- checking solution
--- solution ok! Maximum rounding error: 0.000043
- solution found, obj var is: 1679
- de-normalized obj var: 0.700740
- time (local/global): 0.001/0.453
- branches (local/global): 20/21927
- fails (local/global): 0/10266
- lns time: 0.005000
- lns branches: 20
- lns fails: 0
LNS iteration #25 ========================================
- worst case average CPI: 1.374
- worst case efficiency: 0.676
- efficiency to beat: 0.676
- normalized lower bound 1350
--- checking solution
--- solution ok! Maximum rounding error: 0.000064
- solution found, obj var is: 1361
- de-normalized obj var: 0.681660
- time (local/global): 0.003/0.460
- branches (local/global): 260/22187
- fails (local/global): 112/10378
- lns time: 0.007000
- lns branches: 260
- lns fails: 112
LNS iteration #26 ========================================
- worst case average CPI: 1.055
- worst case efficiency: 0.678
- efficiency to beat: 0.678
- normalized lower bound 1388
--- checking solution
--- solution ok! Maximum rounding error: 0.000000
- solution found, obj var is: 1781
- de-normalized obj var: 0.706860
- time (local/global): 0.001/0.465
- branches (local/global): 22/22209
- fails (local/global): 0/10378
- lns time: 0.007000
- lns branches: 22
- lns fails: 0
LNS iteration #27 ========================================
- worst case average CPI: 1.055
- worst case efficiency: 0.679
- efficiency to beat: 0.679
- normalized lower bound 1405
--- checking solution
--- solution ok! Maximum rounding error: 0.000065
- solution found, obj var is: 1413
- de-normalized obj var: 0.684780
- time (local/global): 0.001/0.472
- branches (local/global): 20/22229
- fails (local/global): 0/10378
- lns time: 0.005000
- lns branches: 20
- lns fails: 0
LNS iteration #28 ========================================
- worst case average CPI: 1.055
- worst case efficiency: 0.679
- efficiency to beat: 0.679
- normalized lower bound 1404
--- checking solution
--- solution ok! Maximum rounding error: 0.000097
- solution found, obj var is: 1491
- de-normalized obj var: 0.689460
- time (local/global): 0.033/0.509
- branches (local/global): 2977/25206
- fails (local/global): 1402/11780
- lns time: 0.038000
- lns branches: 2977
- lns fails: 1402
LNS iteration #29 ========================================
- worst case average CPI: 1.055
- worst case efficiency: 0.681
- efficiency to beat: 0.681
- normalized lower bound 1426
--- checking solution
--- solution ok! Maximum rounding error: 0.000088
- solution found, obj var is: 3847
- de-normalized obj var: 0.830820
- time (local/global): 0.000/0.514
- branches (local/global): 16/25222
- fails (local/global): 0/11780
- lns time: 0.004000
- lns branches: 16
- lns fails: 0
LNS iteration #30 ========================================
- worst case average CPI: 1.055
- worst case efficiency: 0.685
- efficiency to beat: 0.685
- normalized lower bound 1497
--- checking solution
--- solution ok! Maximum rounding error: 0.000087
- solution found, obj var is: 1499
- de-normalized obj var: 0.689940
- time (local/global): 0.057/0.575
- branches (local/global): 4279/29501
- fails (local/global): 2025/13805
- lns time: 0.061000
- lns branches: 4279
- lns fails: 2025
LNS iteration #31 ========================================
- worst case average CPI: 1.055
- worst case efficiency: 0.689
- efficiency to beat: 0.689
- normalized lower bound 1573
--- checking solution
--- solution ok! Maximum rounding error: 0.000084
- solution found, obj var is: 2211
- de-normalized obj var: 0.732660
- time (local/global): 0.001/0.580
- branches (local/global): 22/29523
- fails (local/global): 0/13805
- lns time: 0.006000
- lns branches: 22
- lns fails: 0
LNS iteration #32 ========================================
- worst case average CPI: 1.055
- worst case efficiency: 0.690
- efficiency to beat: 0.690
- normalized lower bound 1583
--- checking solution
--- solution ok! Maximum rounding error: 0.000028
- solution found, obj var is: 1602
- de-normalized obj var: 0.696120
- time (local/global): 0.086/0.671
- branches (local/global): 6671/36194
- fails (local/global): 3212/17017
- lns time: 0.090000
- lns branches: 6671
- lns fails: 3212
LNS iteration #33 ========================================
- worst case average CPI: 1.055
- worst case efficiency: 0.696
- efficiency to beat: 0.696
- normalized lower bound 1686
--- checking solution
--- solution ok! Maximum rounding error: 0.000070
- solution found, obj var is: 1790
- de-normalized obj var: 0.707400
- time (local/global): 0.001/0.676
- branches (local/global): 21/36215
- fails (local/global): 0/17017
- lns time: 0.005000
- lns branches: 21
- lns fails: 0
LNS iteration #34 ========================================
- worst case average CPI: 1.055
- worst case efficiency: 0.697
- efficiency to beat: 0.697
- normalized lower bound 1703
--- checking solution
--- solution ok! Maximum rounding error: 0.000044
- solution found, obj var is: 1754
- de-normalized obj var: 0.705240
- time (local/global): 0.001/0.681
- branches (local/global): 32/36247
- fails (local/global): 6/17023
- lns time: 0.006000
- lns branches: 32
- lns fails: 6
LNS iteration #35 ========================================
- worst case average CPI: 1.055
- worst case efficiency: 0.703
- efficiency to beat: 0.703
- normalized lower bound 1804
--- checking solution
--- solution ok! Maximum rounding error: 0.000076
- solution found, obj var is: 3601
- de-normalized obj var: 0.816060
- time (local/global): 0.001/0.687
- branches (local/global): 22/36269
- fails (local/global): 0/17023
- lns time: 0.005000
- lns branches: 22
- lns fails: 0
LNS iteration #36 ========================================
- worst case average CPI: 1.070
- worst case efficiency: 0.705
- efficiency to beat: 0.705
- normalized lower bound 1834
--- checking solution
--- solution ok! Maximum rounding error: 0.000057
- solution found, obj var is: 2699
- de-normalized obj var: 0.761940
- time (local/global): 0.003/0.694
- branches (local/global): 237/36506
- fails (local/global): 100/17123
- lns time: 0.007000
- lns branches: 237
- lns fails: 100
LNS iteration #37 ========================================
- worst case average CPI: 1.070
- worst case efficiency: 0.705
- efficiency to beat: 0.705
- normalized lower bound 1838
--- checking solution
--- solution ok! Maximum rounding error: 0.000038
- solution found, obj var is: 1853
- de-normalized obj var: 0.711180
- time (local/global): 0.114/0.812
- branches (local/global): 9411/45917
- fails (local/global): 4504/21627
- lns time: 0.118000
- lns branches: 9411
- lns fails: 4504
LNS iteration #38 ========================================
- worst case average CPI: 1.070
- worst case efficiency: 0.707
- efficiency to beat: 0.707
- normalized lower bound 1866
--- checking solution
--- solution ok! Maximum rounding error: 0.000045
- solution found, obj var is: 2022
- de-normalized obj var: 0.721320
- time (local/global): 0.003/0.819
- branches (local/global): 238/46155
- fails (local/global): 101/21728
- lns time: 0.007000
- lns branches: 238
- lns fails: 101
LNS iteration #39 ========================================
- worst case average CPI: 1.070
- worst case efficiency: 0.707
- efficiency to beat: 0.707
- normalized lower bound 1873
--- checking solution
--- solution ok! Maximum rounding error: 0.000060
- solution found, obj var is: 1897
- de-normalized obj var: 0.713820
- time (local/global): 0.003/0.826
- branches (local/global): 239/46394
- fails (local/global): 101/21829
- lns time: 0.007000
- lns branches: 239
- lns fails: 101
LNS iteration #40 ========================================
- worst case average CPI: 1.070
- worst case efficiency: 0.707
- efficiency to beat: 0.707
- normalized lower bound 1874
--- checking solution
--- solution ok! Maximum rounding error: 0.000018
- solution found, obj var is: 1881
- de-normalized obj var: 0.712860
- time (local/global): 0.278/1.108
- branches (local/global): 18982/65376
- fails (local/global): 9203/31032
- lns time: 0.282000
- lns branches: 18982
- lns fails: 9203
LNS iteration #41 ========================================
- worst case average CPI: 1.055
- worst case efficiency: 0.712
- efficiency to beat: 0.712
- normalized lower bound 1947
--- checking solution
--- solution ok! Maximum rounding error: 0.000059
- solution found, obj var is: 2019
- de-normalized obj var: 0.721140
- time (local/global): 0.004/1.116
- branches (local/global): 239/65615
- fails (local/global): 101/31133
- lns time: 0.010000
- lns branches: 239
- lns fails: 101
LNS iteration #42 ========================================
- worst case average CPI: 1.055
- worst case efficiency: 0.713
- efficiency to beat: 0.713
- normalized lower bound 1964
--- checking solution
--- solution ok! Maximum rounding error: 0.000077
- solution found, obj var is: 2021
- de-normalized obj var: 0.721260
- time (local/global): 0.000/1.122
- branches (local/global): 39/65654
- fails (local/global): 12/31145
- lns time: 0.004000
- lns branches: 39
- lns fails: 12
LNS iteration #43 ========================================
- worst case average CPI: 1.055
- worst case efficiency: 0.714
- efficiency to beat: 0.714
- normalized lower bound 1984
--- checking solution
--- solution ok! Maximum rounding error: 0.000017
- solution found, obj var is: 2501
- de-normalized obj var: 0.750060
- time (local/global): 0.032/1.158
- branches (local/global): 2542/68196
- fails (local/global): 1200/32345
- lns time: 0.036000
- lns branches: 2542
- lns fails: 1200
LNS iteration #44 ========================================
- worst case average CPI: 1.055
- worst case efficiency: 0.716
- efficiency to beat: 0.716
- normalized lower bound 2021
--- checking solution
--- solution ok! Maximum rounding error: 0.000025
- solution found, obj var is: 2075
- de-normalized obj var: 0.724500
- time (local/global): 0.001/1.163
- branches (local/global): 35/68231
- fails (local/global): 7/32352
- lns time: 0.005000
- lns branches: 35
- lns fails: 7
LNS iteration #45 ========================================
- worst case average CPI: 1.055
- worst case efficiency: 0.718
- efficiency to beat: 0.718
- normalized lower bound 2056
--- checking solution
--- solution ok! Maximum rounding error: 0.000089
- solution found, obj var is: 2180
- de-normalized obj var: 0.730800
- time (local/global): 0.001/1.168
- branches (local/global): 21/68252
- fails (local/global): 0/32352
- lns time: 0.005000
- lns branches: 21
- lns fails: 0
LNS iteration #46 ========================================
- worst case average CPI: 1.055
- worst case efficiency: 0.720
- efficiency to beat: 0.720
- normalized lower bound 2087
--- checking solution
--- solution ok! Maximum rounding error: 0.000015
- solution found, obj var is: 2128
- de-normalized obj var: 0.727680
- time (local/global): 0.082/1.254
- branches (local/global): 7101/75353
- fails (local/global): 3401/35753
- lns time: 0.086000
- lns branches: 7101
- lns fails: 3401
LNS iteration #47 ========================================
- worst case average CPI: 1.055
- worst case efficiency: 0.721
- efficiency to beat: 0.721
- normalized lower bound 2103
--- checking solution
--- solution ok! Maximum rounding error: 0.000079
- solution found, obj var is: 3136
- de-normalized obj var: 0.788160
- time (local/global): 0.001/1.259
- branches (local/global): 21/75374
- fails (local/global): 0/35753
- lns time: 0.005000
- lns branches: 21
- lns fails: 0
LNS iteration #48 ========================================
- worst case average CPI: 1.055
- worst case efficiency: 0.721
- efficiency to beat: 0.721
- normalized lower bound 2095
--- checking solution
--- solution ok! Maximum rounding error: 0.000074
- solution found, obj var is: 2101
- de-normalized obj var: 0.726060
- time (local/global): 0.102/1.365
- branches (local/global): 7501/82875
- fails (local/global): 3600/39353
- lns time: 0.107000
- lns branches: 7501
- lns fails: 3600
LNS iteration #49 ========================================
- worst case average CPI: 1.070
- worst case efficiency: 0.725
- efficiency to beat: 0.725
- normalized lower bound 2164
--- checking solution
--- solution ok! Maximum rounding error: 0.000029
- solution found, obj var is: 2566
- de-normalized obj var: 0.753960
- time (local/global): 0.029/1.399
- branches (local/global): 2533/85408
- fails (local/global): 1200/40553
- lns time: 0.033000
- lns branches: 2533
- lns fails: 1200
LNS iteration #50 ========================================
- worst case average CPI: 1.070
- worst case efficiency: 0.725
- efficiency to beat: 0.725
- normalized lower bound 2173
--- checking solution
--- solution ok! Maximum rounding error: 0.000069
- solution found, obj var is: 2187
- de-normalized obj var: 0.731220
- time (local/global): 0.079/1.482
- branches (local/global): 6666/92074
- fails (local/global): 3200/43753
- lns time: 0.083000
- lns branches: 6666
- lns fails: 3200
LNS iteration #51 ========================================
- worst case average CPI: 1.070
- worst case efficiency: 0.726
- efficiency to beat: 0.726
- normalized lower bound 2183
--- checking solution
--- solution ok! Maximum rounding error: 0.000053
- solution found, obj var is: 2206
- de-normalized obj var: 0.732360
- time (local/global): 0.024/1.510
- branches (local/global): 1722/93796
- fails (local/global): 803/44556
- lns time: 0.028000
- lns branches: 1722
- lns fails: 803
LNS iteration #52 ========================================
- worst case average CPI: 1.070
- worst case efficiency: 0.726
- efficiency to beat: 0.726
- normalized lower bound 2192
--- checking solution
--- solution ok! Maximum rounding error: 0.000043
- solution found, obj var is: 2197
- de-normalized obj var: 0.731820
- time (local/global): 0.013/1.527
- branches (local/global): 820/94616
- fails (local/global): 382/44938
- lns time: 0.018000
- lns branches: 820
- lns fails: 382
LNS iteration #53 ========================================
- worst case average CPI: 1.070
- worst case efficiency: 0.728
- efficiency to beat: 0.728
- normalized lower bound 2209
--- checking solution
--- solution ok! Maximum rounding error: 0.000026
- solution found, obj var is: 3176
- de-normalized obj var: 0.790560
- time (local/global): 0.084/1.616
- branches (local/global): 8373/102989
- fails (local/global): 4000/48938
- lns time: 0.088000
- lns branches: 8373
- lns fails: 4000
LNS iteration #54 ========================================
- worst case average CPI: 1.070
- worst case efficiency: 0.728
- efficiency to beat: 0.728
- normalized lower bound 2211
--- checking solution
--- solution ok! Maximum rounding error: 0.000083
- solution found, obj var is: 2232
- de-normalized obj var: 0.733920
- time (local/global): 0.001/1.621
- branches (local/global): 44/103033
- fails (local/global): 12/48950
- lns time: 0.005000
- lns branches: 44
- lns fails: 12
LNS iteration #55 ========================================
- worst case average CPI: 1.070
- worst case efficiency: 0.731
- efficiency to beat: 0.731
- normalized lower bound 2271
--- checking solution
--- solution ok! Maximum rounding error: 0.000119
- solution found, obj var is: 2277
- de-normalized obj var: 0.736620
- time (local/global): 0.003/1.628
- branches (local/global): 250/103283
- fails (local/global): 109/49059
- lns time: 0.007000
- lns branches: 250
- lns fails: 109
LNS iteration #56 ========================================
- worst case average CPI: 1.070
- worst case efficiency: 0.732
- efficiency to beat: 0.732
- normalized lower bound 2276
--- checking solution
--- solution ok! Maximum rounding error: 0.000036
- solution found, obj var is: 2301
- de-normalized obj var: 0.738060
- time (local/global): 0.001/1.633
- branches (local/global): 27/103310
- fails (local/global): 4/49063
- lns time: 0.005000
- lns branches: 27
- lns fails: 4
LNS iteration #57 ========================================
- worst case average CPI: 1.070
- worst case efficiency: 0.732
- efficiency to beat: 0.732
- normalized lower bound 2291
--- checking solution
--- solution ok! Maximum rounding error: 0.000063
- solution found, obj var is: 2502
- de-normalized obj var: 0.750120
- time (local/global): 0.045/1.682
- branches (local/global): 4237/107547
- fails (local/global): 2001/51064
- lns time: 0.049000
- lns branches: 4237
- lns fails: 2001
LNS iteration #58 ========================================
- worst case average CPI: 1.070
- worst case efficiency: 0.733
- efficiency to beat: 0.733
- normalized lower bound 2302
--- checking solution
--- solution ok! Maximum rounding error: 0.000049
- solution found, obj var is: 2313
- de-normalized obj var: 0.738780
- time (local/global): 0.036/1.722
- branches (local/global): 3284/110831
- fails (local/global): 1562/52626
- lns time: 0.040000
- lns branches: 3284
- lns fails: 1562
LNS iteration #59 ========================================
- worst case average CPI: 1.070
- worst case efficiency: 0.735
- efficiency to beat: 0.735
- normalized lower bound 2335
--- checking solution
--- solution ok! Maximum rounding error: 0.000401
- solution found, obj var is: 2494
- de-normalized obj var: 0.749640
- time (local/global): 0.003/1.729
- branches (local/global): 260/111091
- fails (local/global): 114/52740
- lns time: 0.008000
- lns branches: 260
- lns fails: 114
LNS iteration #60 ========================================
- worst case average CPI: 1.070
- worst case efficiency: 0.736
- efficiency to beat: 0.736
- normalized lower bound 2358
--- checking solution
--- solution ok! Maximum rounding error: 0.000062
- solution found, obj var is: 2391
- de-normalized obj var: 0.743460
- time (local/global): 0.007/1.741
- branches (local/global): 914/112005
- fails (local/global): 435/53175
- lns time: 0.011000
- lns branches: 914
- lns fails: 435
LNS iteration #61 ========================================
- worst case average CPI: 1.070
- worst case efficiency: 0.738
- efficiency to beat: 0.738
- normalized lower bound 2385
--- checking solution
--- solution ok! Maximum rounding error: 0.000039
- solution found, obj var is: 2414
- de-normalized obj var: 0.744840
- time (local/global): 0.749/2.494
- branches (local/global): 54051/166056
- fails (local/global): 26280/79455
- lns time: 0.753000
- lns branches: 54051
- lns fails: 26280
LNS iteration #62 ========================================
- worst case average CPI: 1.070
- worst case efficiency: 0.739
- efficiency to beat: 0.739
- normalized lower bound 2394
--- checking solution
--- solution ok! Maximum rounding error: 0.000072
- solution found, obj var is: 2412
- de-normalized obj var: 0.744720
- time (local/global): 0.007/2.505
- branches (local/global): 810/166866
- fails (local/global): 388/79843
- lns time: 0.011000
- lns branches: 810
- lns fails: 388
LNS iteration #63 ========================================
- worst case average CPI: 1.070
- worst case efficiency: 0.739
- efficiency to beat: 0.739
- normalized lower bound 2397
--- checking solution
--- solution ok! Maximum rounding error: 0.000400
- solution found, obj var is: 2465
- de-normalized obj var: 0.747900
- time (local/global): 0.002/2.511
- branches (local/global): 118/166984
- fails (local/global): 49/79892
- lns time: 0.006000
- lns branches: 118
- lns fails: 49
LNS iteration #64 ========================================
- worst case average CPI: 1.070
- worst case efficiency: 0.739
- efficiency to beat: 0.739
- normalized lower bound 2403
--- checking solution
--- solution ok! Maximum rounding error: 0.000082
- solution found, obj var is: 2409
- de-normalized obj var: 0.744540
- time (local/global): 0.004/2.519
- branches (local/global): 293/167277
- fails (local/global): 128/80020
- lns time: 0.008000
- lns branches: 293
- lns fails: 128
LNS iteration #65 ========================================
- worst case average CPI: 1.070
- worst case efficiency: 0.740
- efficiency to beat: 0.740
- normalized lower bound 2415
--- checking solution
--- solution ok! Maximum rounding error: 0.000078
- solution found, obj var is: 2516
- de-normalized obj var: 0.750960
- time (local/global): 0.002/2.525
- branches (local/global): 69/167346
- fails (local/global): 25/80045
- lns time: 0.006000
- lns branches: 69
- lns fails: 25
LNS iteration #66 ========================================
- worst case average CPI: 1.070
- worst case efficiency: 0.743
- efficiency to beat: 0.743
- normalized lower bound 2462
--- checking solution
--- solution ok! Maximum rounding error: 0.000034
- solution found, obj var is: 2675
- de-normalized obj var: 0.760500
- time (local/global): 0.001/2.530
- branches (local/global): 21/167367
- fails (local/global): 0/80045
- lns time: 0.005000
- lns branches: 21
- lns fails: 0
LNS iteration #67 ========================================
- worst case average CPI: 1.070
- worst case efficiency: 0.745
- efficiency to beat: 0.745
- normalized lower bound 2492
--- checking solution
--- solution ok! Maximum rounding error: 0.000074
- solution found, obj var is: 2498
- de-normalized obj var: 0.749880
- time (local/global): 0.259/2.793
- branches (local/global): 18608/185975
- fails (local/global): 9026/89071
- lns time: 0.265000
- lns branches: 18608
- lns fails: 9026
LNS iteration #68 ========================================
- worst case average CPI: 0.994
- worst case efficiency: 0.745
- efficiency to beat: 0.745
- normalized lower bound 2499
--- checking solution
--- solution ok! Maximum rounding error: 0.000420
- solution found, obj var is: 2505
- de-normalized obj var: 0.750300
- time (local/global): 0.013/2.812
- branches (local/global): 1074/187049
- fails (local/global): 501/89572
- lns time: 0.017000
- lns branches: 1074
- lns fails: 501
LNS iteration #69 ========================================
- worst case average CPI: 0.994
- worst case efficiency: 0.746
- efficiency to beat: 0.746
- normalized lower bound 2516
--- checking solution
--- solution ok! Maximum rounding error: 0.000084
- solution found, obj var is: 2621
- de-normalized obj var: 0.757260
- time (local/global): 0.612/3.428
- branches (local/global): 61064/248113
- fails (local/global): 29592/119164
- lns time: 0.616000
- lns branches: 61064
- lns fails: 29592
LNS iteration #70 ========================================
- worst case average CPI: 1.070
- worst case efficiency: 0.748
- efficiency to beat: 0.748
- normalized lower bound 2556
--- checking solution
--- solution ok! Maximum rounding error: 0.000071
- solution found, obj var is: 2611
- de-normalized obj var: 0.756660
- time (local/global): 0.371/3.803
- branches (local/global): 26616/274729
- fails (local/global): 12865/132029
- lns time: 0.375000
- lns branches: 26616
- lns fails: 12865
LNS iteration #71 ========================================
- worst case average CPI: 1.070
- worst case efficiency: 0.750
- efficiency to beat: 0.750
- normalized lower bound 2582
--- checking solution
--- solution ok! Maximum rounding error: 0.000095
- solution found, obj var is: 2597
- de-normalized obj var: 0.755820
- time (local/global): 0.267/4.074
- branches (local/global): 19008/293737
- fails (local/global): 9206/141235
- lns time: 0.271000
- lns branches: 19008
- lns fails: 9206
LNS iteration #72 ========================================
- worst case average CPI: 1.070
- worst case efficiency: 0.750
- efficiency to beat: 0.750
- normalized lower bound 2580
- lns time: 3.004000
- lns branches: 199552
- lns fails: 97961
LNS iteration #73 ========================================
- worst case average CPI: 1.070
- worst case efficiency: 0.750
- efficiency to beat: 0.750
- normalized lower bound 2580
--- checking solution
--- solution ok! Maximum rounding error: 0.000047
- solution found, obj var is: 2627
- de-normalized obj var: 0.757620
- time (local/global): 0.006/7.088
- branches (local/global): 455/493744
- fails (local/global): 200/239396
- lns time: 0.011000
- lns branches: 455
- lns fails: 200
LNS iteration #74 ========================================
- worst case average CPI: 1.086
- worst case efficiency: 0.750
- efficiency to beat: 0.750
- normalized lower bound 2584
--- checking solution
--- solution ok! Maximum rounding error: 0.000025
- solution found, obj var is: 2593
- de-normalized obj var: 0.755580
- time (local/global): 0.207/7.300
- branches (local/global): 16534/510278
- fails (local/global): 8013/247409
- lns time: 0.212000
- lns branches: 16534
- lns fails: 8013
LNS iteration #75 ========================================
- worst case average CPI: 1.086
- worst case efficiency: 0.750
- efficiency to beat: 0.750
- normalized lower bound 2588
--- checking solution
--- solution ok! Maximum rounding error: 0.000005
- solution found, obj var is: 2713
- de-normalized obj var: 0.762780
- time (local/global): 0.003/7.308
- branches (local/global): 236/510514
- fails (local/global): 100/247509
- lns time: 0.007000
- lns branches: 236
- lns fails: 100
LNS iteration #76 ========================================
- worst case average CPI: 1.086
- worst case efficiency: 0.750
- efficiency to beat: 0.750
- normalized lower bound 2590
--- checking solution
--- solution ok! Maximum rounding error: 0.000060
- solution found, obj var is: 2598
- de-normalized obj var: 0.755880
- time (local/global): 0.017/7.329
- branches (local/global): 1192/511706
- fails (local/global): 555/248064
- lns time: 0.021000
- lns branches: 1192
- lns fails: 555
LNS iteration #77 ========================================
- worst case average CPI: 1.086
- worst case efficiency: 0.756
- efficiency to beat: 0.756
- normalized lower bound 2679
--- checking solution
--- solution ok! Maximum rounding error: 0.000133
- solution found, obj var is: 2763
- de-normalized obj var: 0.765780
- time (local/global): 0.028/7.361
- branches (local/global): 2533/514239
- fails (local/global): 1201/249265
- lns time: 0.032000
- lns branches: 2533
- lns fails: 1201
LNS iteration #78 ========================================
- worst case average CPI: 1.004
- worst case efficiency: 0.756
- efficiency to beat: 0.756
- normalized lower bound 2679
--- checking solution
--- solution ok! Maximum rounding error: 0.000118
- solution found, obj var is: 2700
- de-normalized obj var: 0.762000
- time (local/global): 0.012/7.377
- branches (local/global): 868/515107
- fails (local/global): 402/249667
- lns time: 0.016000
- lns branches: 868
- lns fails: 402
LNS iteration #79 ========================================
- worst case average CPI: 1.004
- worst case efficiency: 0.757
- efficiency to beat: 0.757
- normalized lower bound 2700
--- checking solution
--- solution ok! Maximum rounding error: 0.000072
- solution found, obj var is: 2763
- de-normalized obj var: 0.765780
- time (local/global): 0.121/7.502
- branches (local/global): 7769/522876
- fails (local/global): 3736/253403
- lns time: 0.125000
- lns branches: 7769
- lns fails: 3736
LNS iteration #80 ========================================
- worst case average CPI: 1.004
- worst case efficiency: 0.757
- efficiency to beat: 0.757
- normalized lower bound 2696
--- checking solution
--- solution ok! Maximum rounding error: 0.000155
- solution found, obj var is: 2700
- de-normalized obj var: 0.762000
- time (local/global): 0.090/7.596
- branches (local/global): 7320/530196
- fails (local/global): 3578/256981
- lns time: 0.095000
- lns branches: 7320
- lns fails: 3578
LNS iteration #81 ========================================
- worst case average CPI: 1.004
- worst case efficiency: 0.757
- efficiency to beat: 0.757
- normalized lower bound 2705
- lns time: 3.005000
- lns branches: 268615
- lns fails: 131356
LNS iteration #82 ========================================
- worst case average CPI: 1.004
- worst case efficiency: 0.757
- efficiency to beat: 0.757
- normalized lower bound 2705
- lns time: 3.004000
- lns branches: 205180
- lns fails: 100656
LNS iteration #83 ========================================
- worst case average CPI: 1.004
- worst case efficiency: 0.757
- efficiency to beat: 0.757
- normalized lower bound 2705
- lns time: 3.004000
- lns branches: 301353
- lns fails: 148783
LNS iteration #84 ========================================
- worst case average CPI: 1.004
- worst case efficiency: 0.757
- efficiency to beat: 0.757
- normalized lower bound 2705
- lns time: 3.004000
- lns branches: 222503
- lns fails: 109057
LNS iteration #85 ========================================
- worst case average CPI: 1.004
- worst case efficiency: 0.757
- efficiency to beat: 0.757
- normalized lower bound 2705
--- checking solution
--- solution ok! Maximum rounding error: 0.000127
- solution found, obj var is: 2718
- de-normalized obj var: 0.763080
- time (local/global): 0.105/19.723
- branches (local/global): 7834/1535681
- fails (local/global): 3761/750594
- lns time: 0.109000
- lns branches: 7834
- lns fails: 3761
LNS iteration #86 ========================================
- worst case average CPI: 1.004
- worst case efficiency: 0.760
- efficiency to beat: 0.760
- normalized lower bound 2756
--- checking solution
--- solution ok! Maximum rounding error: 0.000099
- solution found, obj var is: 2765
- de-normalized obj var: 0.765900
- time (local/global): 0.272/19.999
- branches (local/global): 17554/1553235
- fails (local/global): 8500/759094
- lns time: 0.276000
- lns branches: 17554
- lns fails: 8500
LNS iteration #87 ========================================
- worst case average CPI: 1.004
- worst case efficiency: 0.762
- efficiency to beat: 0.762
- normalized lower bound 2786
--- checking solution
--- solution ok! Maximum rounding error: 0.000002
- solution found, obj var is: 2898
- de-normalized obj var: 0.773880
- time (local/global): 0.023/20.026
- branches (local/global): 1350/1554585
- fails (local/global): 628/759722
- lns time: 0.028000
- lns branches: 1350
- lns fails: 628
LNS iteration #88 ========================================
- worst case average CPI: 1.004
- worst case efficiency: 0.762
- efficiency to beat: 0.762
- normalized lower bound 2790
- lns time: 3.007000
- lns branches: 224758
- lns fails: 110161
LNS iteration #89 ========================================
- worst case average CPI: 1.004
- worst case efficiency: 0.762
- efficiency to beat: 0.762
- normalized lower bound 2790
--- checking solution
--- solution ok! Maximum rounding error: 0.000046
- solution found, obj var is: 2906
- de-normalized obj var: 0.774360
- time (local/global): 0.300/23.338
- branches (local/global): 20760/1800103
- fails (local/global): 10001/879884
- lns time: 0.308000
- lns branches: 20760
- lns fails: 10001
LNS iteration #90 ========================================
- worst case average CPI: 1.004
- worst case efficiency: 0.763
- efficiency to beat: 0.763
- normalized lower bound 2796
- lns time: 3.005000
- lns branches: 224567
- lns fails: 110223
LNS iteration #91 ========================================
- worst case average CPI: 1.004
- worst case efficiency: 0.763
- efficiency to beat: 0.763
- normalized lower bound 2796
--- checking solution
--- solution ok! Maximum rounding error: 0.000022
- solution found, obj var is: 2839
- de-normalized obj var: 0.770340
- time (local/global): 0.445/26.796
- branches (local/global): 50509/2075179
- fails (local/global): 24801/1014908
- lns time: 0.449000
- lns branches: 50509
- lns fails: 24801
LNS iteration #92 ========================================
- worst case average CPI: 0.724
- worst case efficiency: 0.763
- efficiency to beat: 0.763
- normalized lower bound 2797
- lns time: 3.004000
- lns branches: 218866
- lns fails: 107229
LNS iteration #93 ========================================
- worst case average CPI: 0.724
- worst case efficiency: 0.763
- efficiency to beat: 0.763
- normalized lower bound 2797
--- checking solution
--- solution ok! Maximum rounding error: 0.000021
- solution found, obj var is: 2833
- de-normalized obj var: 0.769980
- time (local/global): 0.076/29.880
- branches (local/global): 5289/2299334
- fails (local/global): 2516/1124653
- lns time: 0.081000
- lns branches: 5289
- lns fails: 2516
LNS iteration #94 ========================================
- worst case average CPI: 0.724
- worst case efficiency: 0.763
- efficiency to beat: 0.763
- normalized lower bound 2798
--- checking solution
--- solution ok! Maximum rounding error: 0.000138
- solution found, obj var is: 2830
- de-normalized obj var: 0.769800
- time (local/global): 0.276/30.161
- branches (local/global): 25970/2325304
- fails (local/global): 12503/1137156
- lns time: 0.280000
- lns branches: 25970
- lns fails: 12503
LNS iteration #95 ========================================
- worst case average CPI: 0.724
- worst case efficiency: 0.763
- efficiency to beat: 0.763
- normalized lower bound 2803
- lns time: 3.005000
- lns branches: 230816
- lns fails: 113093
LNS iteration #96 ========================================
- worst case average CPI: 0.724
- worst case efficiency: 0.763
- efficiency to beat: 0.763
- normalized lower bound 2803
- lns time: 3.004000
- lns branches: 263228
- lns fails: 128757
LNS iteration #97 ========================================
- worst case average CPI: 0.724
- worst case efficiency: 0.763
- efficiency to beat: 0.763
- normalized lower bound 2803
- lns time: 3.004000
- lns branches: 246780
- lns fails: 120860
LNS iteration #98 ========================================
- worst case average CPI: 0.724
- worst case efficiency: 0.763
- efficiency to beat: 0.763
- normalized lower bound 2803
- lns time: 3.006000
- lns branches: 275822
- lns fails: 134829
LNS iteration #99 ========================================
- worst case average CPI: 0.724
- worst case efficiency: 0.763
- efficiency to beat: 0.763
- normalized lower bound 2803
- lns time: 3.006000
- lns branches: 186157
- lns fails: 91017
LNS iteration #100 ========================================
- worst case average CPI: 0.724
- worst case efficiency: 0.763
- efficiency to beat: 0.763
- normalized lower bound 2803
- lns time: 3.005000
- lns branches: 243313
- lns fails: 119141
LNS iteration #101 ========================================
- worst case average CPI: 0.724
- worst case efficiency: 0.763
- efficiency to beat: 0.763
- normalized lower bound 2803
- lns time: 3.005000
- lns branches: 253695
- lns fails: 124271
LNS iteration #102 ========================================
- worst case average CPI: 0.724
- worst case efficiency: 0.763
- efficiency to beat: 0.763
- normalized lower bound 2803
- lns time: 3.004000
- lns branches: 292697
- lns fails: 143089
LNS iteration #103 ========================================
- worst case average CPI: 0.724
- worst case efficiency: 0.763
- efficiency to beat: 0.763
- normalized lower bound 2803
--- checking solution
--- solution ok! Maximum rounding error: 0.000111
- solution found, obj var is: 2805
- de-normalized obj var: 0.768300
- time (local/global): 1.373/55.577
- branches (local/global): 91977/4409789
- fails (local/global): 45020/2157233
- lns time: 1.381000
- lns branches: 91977
- lns fails: 45020
LNS iteration #104 ========================================
- worst case average CPI: 0.724
- worst case efficiency: 0.763
- efficiency to beat: 0.763
- normalized lower bound 2805
--- checking solution
--- solution ok! Maximum rounding error: 0.000043
- solution found, obj var is: 2825
- de-normalized obj var: 0.769500
- time (local/global): 0.017/55.602
- branches (local/global): 1296/4411085
- fails (local/global): 600/2157833
- lns time: 0.021000
- lns branches: 1296
- lns fails: 600
LNS iteration #105 ========================================
- worst case average CPI: 0.710
- worst case efficiency: 0.765
- efficiency to beat: 0.765
- normalized lower bound 2841
--- checking solution
--- solution ok! Maximum rounding error: 0.000079
- solution found, obj var is: 2867
- de-normalized obj var: 0.772020
- time (local/global): 0.003/55.609
- branches (local/global): 233/4411318
- fails (local/global): 100/2157933
- lns time: 0.007000
- lns branches: 233
- lns fails: 100
LNS iteration #106 ========================================
- worst case average CPI: 0.710
- worst case efficiency: 0.766
- efficiency to beat: 0.766
- normalized lower bound 2853
--- checking solution
--- solution ok! Maximum rounding error: 0.000000
- solution found, obj var is: 2873
- de-normalized obj var: 0.772380
- time (local/global): 1.263/56.876
- branches (local/global): 92188/4503506
- fails (local/global): 45044/2202977
- lns time: 1.267000
- lns branches: 92188
- lns fails: 45044
LNS iteration #107 ========================================
- worst case average CPI: 0.710
- worst case efficiency: 0.767
- efficiency to beat: 0.767
- normalized lower bound 2860
--- checking solution
--- solution ok! Maximum rounding error: 0.000025
- solution found, obj var is: 2889
- de-normalized obj var: 0.773340
- time (local/global): 0.002/56.882
- branches (local/global): 236/4503742
- fails (local/global): 100/2203077
- lns time: 0.006000
- lns branches: 236
- lns fails: 100
LNS iteration #108 ========================================
- worst case average CPI: 1.139
- worst case efficiency: 0.767
- efficiency to beat: 0.767
- normalized lower bound 2873
--- checking solution
--- solution ok! Maximum rounding error: 0.000034
- solution found, obj var is: 2920
- de-normalized obj var: 0.775200
- time (local/global): 0.001/56.887
- branches (local/global): 53/4503795
- fails (local/global): 17/2203094
- lns time: 0.005000
- lns branches: 53
- lns fails: 17
LNS iteration #109 ========================================
- worst case average CPI: 1.087
- worst case efficiency: 0.767
- efficiency to beat: 0.767
- normalized lower bound 2875
--- checking solution
--- solution ok! Maximum rounding error: 0.000023
- solution found, obj var is: 2891
- de-normalized obj var: 0.773460
- time (local/global): 0.286/57.177
- branches (local/global): 21902/4525697
- fails (local/global): 10596/2213690
- lns time: 0.290000
- lns branches: 21902
- lns fails: 10596
LNS iteration #110 ========================================
- worst case average CPI: 1.087
- worst case efficiency: 0.769
- efficiency to beat: 0.769
- normalized lower bound 2895
--- checking solution
--- solution ok! Maximum rounding error: 0.000093
- solution found, obj var is: 2923
- de-normalized obj var: 0.775380
- time (local/global): 0.205/57.386
- branches (local/global): 19048/4544745
- fails (local/global): 9201/2222891
- lns time: 0.209000
- lns branches: 19048
- lns fails: 9201
LNS iteration #111 ========================================
- worst case average CPI: 1.026
- worst case efficiency: 0.769
- efficiency to beat: 0.769
- normalized lower bound 2900
- lns time: 3.004000
- lns branches: 239247
- lns fails: 117213
LNS iteration #112 ========================================
- worst case average CPI: 1.026
- worst case efficiency: 0.769
- efficiency to beat: 0.769
- normalized lower bound 2900
--- checking solution
--- solution ok! Maximum rounding error: 0.000124
- solution found, obj var is: 2955
- de-normalized obj var: 0.777300
- time (local/global): 0.035/60.429
- branches (local/global): 2169/4786161
- fails (local/global): 1025/2341129
- lns time: 0.039000
- lns branches: 2169
- lns fails: 1025
LNS iteration #113 ========================================
- worst case average CPI: 1.026
- worst case efficiency: 0.770
- efficiency to beat: 0.770
- normalized lower bound 2913
--- checking solution
--- solution ok! Maximum rounding error: 0.000092
- solution found, obj var is: 2920
- de-normalized obj var: 0.775200
- time (local/global): 0.052/60.485
- branches (local/global): 3884/4790045
- fails (local/global): 1837/2342966
- lns time: 0.056000
- lns branches: 3884
- lns fails: 1837
LNS iteration #114 ========================================
- worst case average CPI: 0.934
- worst case efficiency: 0.771
- efficiency to beat: 0.771
- normalized lower bound 2928
--- checking solution
--- solution ok! Maximum rounding error: 0.000065
- solution found, obj var is: 3015
- de-normalized obj var: 0.780900
- time (local/global): 0.141/60.630
- branches (local/global): 11690/4801735
- fails (local/global): 5600/2348566
- lns time: 0.145000
- lns branches: 11690
- lns fails: 5600
LNS iteration #115 ========================================
- worst case average CPI: 0.934
- worst case efficiency: 0.771
- efficiency to beat: 0.771
- normalized lower bound 2940
--- checking solution
--- solution ok! Maximum rounding error: 0.000000
- solution found, obj var is: 2989
- de-normalized obj var: 0.779340
- time (local/global): 2.609/63.243
- branches (local/global): 219750/5021485
- fails (local/global): 107616/2456182
- lns time: 2.614000
- lns branches: 219750
- lns fails: 107616
LNS iteration #116 ========================================
- worst case average CPI: 0.934
- worst case efficiency: 0.772
- efficiency to beat: 0.772
- normalized lower bound 2944
--- checking solution
--- solution ok! Maximum rounding error: 0.000073
- solution found, obj var is: 2986
- de-normalized obj var: 0.779160
- time (local/global): 0.090/63.338
- branches (local/global): 7949/5029434
- fails (local/global): 3800/2459982
- lns time: 0.094000
- lns branches: 7949
- lns fails: 3800
LNS iteration #117 ========================================
- worst case average CPI: 0.934
- worst case efficiency: 0.772
- efficiency to beat: 0.772
- normalized lower bound 2945
--- checking solution
--- solution ok! Maximum rounding error: 0.000110
- solution found, obj var is: 2970
- de-normalized obj var: 0.778200
- time (local/global): 0.055/63.397
- branches (local/global): 5094/5034528
- fails (local/global): 2420/2462402
- lns time: 0.059000
- lns branches: 5094
- lns fails: 2420
LNS iteration #118 ========================================
- worst case average CPI: 0.934
- worst case efficiency: 0.772
- efficiency to beat: 0.772
- normalized lower bound 2958
--- checking solution
--- solution ok! Maximum rounding error: 0.000070
- solution found, obj var is: 2965
- de-normalized obj var: 0.777900
- time (local/global): 0.001/63.402
- branches (local/global): 24/5034552
- fails (local/global): 1/2462403
- lns time: 0.005000
- lns branches: 24
- lns fails: 1
LNS iteration #119 ========================================
- worst case average CPI: 0.934
- worst case efficiency: 0.773
- efficiency to beat: 0.773
- normalized lower bound 2965
--- checking solution
--- solution ok! Maximum rounding error: 0.000109
- solution found, obj var is: 2970
- de-normalized obj var: 0.778200
- time (local/global): 0.001/63.407
- branches (local/global): 77/5034629
- fails (local/global): 28/2462431
- lns time: 0.005000
- lns branches: 77
- lns fails: 28
LNS iteration #120 ========================================
- worst case average CPI: 0.934
- worst case efficiency: 0.773
- efficiency to beat: 0.773
- normalized lower bound 2966
- lns time: 3.004000
- lns branches: 161698
- lns fails: 79025
LNS iteration #121 ========================================
- worst case average CPI: 0.934
- worst case efficiency: 0.773
- efficiency to beat: 0.773
- normalized lower bound 2966
--- checking solution
--- solution ok! Maximum rounding error: 0.000092
- solution found, obj var is: 3238
- de-normalized obj var: 0.794280
- time (local/global): 0.127/66.542
- branches (local/global): 10231/5206558
- fails (local/global): 4900/2546356
- lns time: 0.131000
- lns branches: 10231
- lns fails: 4900
LNS iteration #122 ========================================
- worst case average CPI: 0.934
- worst case efficiency: 0.773
- efficiency to beat: 0.773
- normalized lower bound 2972
--- checking solution
--- solution ok! Maximum rounding error: 0.000009
- solution found, obj var is: 3032
- de-normalized obj var: 0.781920
- time (local/global): 0.020/66.566
- branches (local/global): 1722/5208280
- fails (local/global): 801/2547157
- lns time: 0.024000
- lns branches: 1722
- lns fails: 801
LNS iteration #123 ========================================
- worst case average CPI: 0.934
- worst case efficiency: 0.774
- efficiency to beat: 0.774
- normalized lower bound 2978
- lns time: 3.004000
- lns branches: 209236
- lns fails: 102739
LNS iteration #124 ========================================
- worst case average CPI: 0.934
- worst case efficiency: 0.774
- efficiency to beat: 0.774
- normalized lower bound 2978
--- checking solution
--- solution ok! Maximum rounding error: 0.000045
- solution found, obj var is: 3230
- de-normalized obj var: 0.793800
- time (local/global): 0.000/69.574
- branches (local/global): 22/5417538
- fails (local/global): 0/2649896
- lns time: 0.005000
- lns branches: 22
- lns fails: 0
LNS iteration #125 ========================================
- worst case average CPI: 1.026
- worst case efficiency: 0.774
- efficiency to beat: 0.774
- normalized lower bound 2980
--- checking solution
--- solution ok! Maximum rounding error: 0.000045
- solution found, obj var is: 3021
- de-normalized obj var: 0.781260
- time (local/global): 0.128/69.707
- branches (local/global): 10646/5428184
- fails (local/global): 5110/2655006
- lns time: 0.132000
- lns branches: 10646
- lns fails: 5110
LNS iteration #126 ========================================
- worst case average CPI: 1.026
- worst case efficiency: 0.774
- efficiency to beat: 0.774
- normalized lower bound 2991
--- checking solution
--- solution ok! Maximum rounding error: 0.000015
- solution found, obj var is: 2994
- de-normalized obj var: 0.779640
- time (local/global): 0.031/69.742
- branches (local/global): 1905/5430089
- fails (local/global): 896/2655902
- lns time: 0.035000
- lns branches: 1905
- lns fails: 896
LNS iteration #127 ========================================
- worst case average CPI: 1.026
- worst case efficiency: 0.775
- efficiency to beat: 0.775
- normalized lower bound 2998
--- checking solution
--- solution ok! Maximum rounding error: 0.000074
- solution found, obj var is: 3014
- de-normalized obj var: 0.780840
- time (local/global): 2.042/71.788
- branches (local/global): 92330/5522419
- fails (local/global): 45222/2701124
- lns time: 2.046000
- lns branches: 92330
- lns fails: 45222
LNS iteration #128 ========================================
- worst case average CPI: 1.026
- worst case efficiency: 0.775
- efficiency to beat: 0.775
- normalized lower bound 3000
--- checking solution
--- solution ok! Maximum rounding error: 0.000059
- solution found, obj var is: 3026
- de-normalized obj var: 0.781560
- time (local/global): 1.654/73.446
- branches (local/global): 101304/5623723
- fails (local/global): 49507/2750631
- lns time: 1.658000
- lns branches: 101304
- lns fails: 49507
LNS iteration #129 ========================================
- worst case average CPI: 1.026
- worst case efficiency: 0.775
- efficiency to beat: 0.775
- normalized lower bound 3003
--- checking solution
--- solution ok! Maximum rounding error: 0.000122
- solution found, obj var is: 3027
- de-normalized obj var: 0.781620
- time (local/global): 0.162/73.612
- branches (local/global): 10460/5634183
- fails (local/global): 5009/2755640
- lns time: 0.168000
- lns branches: 10460
- lns fails: 5009
LNS iteration #130 ========================================
- worst case average CPI: 1.026
- worst case efficiency: 0.775
- efficiency to beat: 0.775
- normalized lower bound 3006
- lns time: 3.004000
- lns branches: 220491
- lns fails: 108056
LNS iteration #131 ========================================
- worst case average CPI: 1.026
- worst case efficiency: 0.775
- efficiency to beat: 0.775
- normalized lower bound 3006
--- checking solution
--- solution ok! Maximum rounding error: 0.000000
- solution found, obj var is: 3026
- de-normalized obj var: 0.781560
- time (local/global): 0.633/77.255
- branches (local/global): 50468/5905142
- fails (local/global): 24521/2888217
- lns time: 0.638000
- lns branches: 50468
- lns fails: 24521
LNS iteration #132 ========================================
- worst case average CPI: 1.026
- worst case efficiency: 0.776
- efficiency to beat: 0.776
- normalized lower bound 3011
--- checking solution
--- solution ok! Maximum rounding error: 0.000025
- solution found, obj var is: 3032
- de-normalized obj var: 0.781920
- time (local/global): 1.431/78.691
- branches (local/global): 138023/6043165
- fails (local/global): 67400/2955617
- lns time: 1.435000
- lns branches: 138023
- lns fails: 67400
LNS iteration #133 ========================================
- worst case average CPI: 1.026
- worst case efficiency: 0.776
- efficiency to beat: 0.776
- normalized lower bound 3016
- lns time: 3.004000
- lns branches: 323949
- lns fails: 159743
LNS iteration #134 ========================================
- worst case average CPI: 1.026
- worst case efficiency: 0.776
- efficiency to beat: 0.776
- normalized lower bound 3016
- lns time: 3.004000
- lns branches: 212768
- lns fails: 104334
LNS iteration #135 ========================================
- worst case average CPI: 1.026
- worst case efficiency: 0.776
- efficiency to beat: 0.776
- normalized lower bound 3016
- lns time: 3.004000
- lns branches: 212144
- lns fails: 104047
LNS iteration #136 ========================================
- worst case average CPI: 1.026
- worst case efficiency: 0.776
- efficiency to beat: 0.776
- normalized lower bound 3016
- lns time: 2.297000
- lns branches: 132841
- lns fails: 65137

LNS optimization is over========================================
initial worst case average CPI: 2.169
final worst case average CPI: 1.026
initial worst case efficiency: 0.644
final worst case efficiency: 0.776
number of iterations: 137
total time: 90004.000000
total branches: 6924867
total fails: 3388878

Final Solution: 0->18, 1->12, 2->4, 3->15, 4->6, 5->32, 6->7, 7->14, 8->39, 9->41, 10->1, 11->10, 12->4, 13->44, 14->30, 15->24, 16->0, 17->14, 18->2, 19->19, 20->36, 21->40, 22->16, 23->26, 24->41, 25->23, 26->31, 27->13, 28->24, 29->21, 30->42, 31->0, 32->39, 33->1, 34->15, 35->40, 36->28, 37->23, 38->33, 39->20, 40->26, 41->29, 42->24, 43->10, 44->27, 45->31, 46->20, 47->15, 48->4, 49->15, 50->4, 51->14, 52->28, 53->38, 54->47, 55->37, 56->10, 57->37, 58->37, 59->19, 60->38, 61->44, 62->22, 63->3, 64->4, 65->10, 66->21, 67->37, 68->3, 69->19, 70->27, 71->6, 72->18, 73->18, 74->29, 75->10, 76->7, 77->47, 78->32, 79->45, 80->34, 81->45, 82->26, 83->12, 84->36, 85->15, 86->22, 87->14, 88->30, 89->4, 90->7, 91->8, 92->43, 93->32, 94->5, 95->31, 96->43, 97->8, 98->9, 99->46, 100->41, 101->37, 102->45, 103->39, 104->32, 105->23, 106->43, 107->2, 108->20, 109->40, 110->27, 111->9, 112->28, 113->14, 114->44, 115->32, 116->32, 117->27, 118->15, 119->21, 120->20, 121->3, 122->23, 123->13, 124->33, 125->0, 126->20, 127->11, 128->33, 129->46, 130->23, 131->30, 132->33, 133->29, 134->12, 135->11, 136->47, 137->9, 138->24, 139->7, 140->25, 141->29, 142->40, 143->17, 144->31, 145->46, 146->16, 147->34, 148->19, 149->37, 150->22, 151->26, 152->38, 153->10, 154->22, 155->2, 156->16, 157->46, 158->5, 159->30, 160->33, 161->5, 162->6, 163->2, 164->12, 165->29, 166->40, 167->2, 168->6, 169->21, 170->6, 171->34, 172->42, 173->25, 174->44, 175->19, 176->30, 177->30, 178->34, 179->6, 180->45, 181->2, 182->42, 183->25, 184->26, 185->26, 186->7, 187->13, 188->8, 189->39, 190->0, 191->33, 192->28, 193->34, 194->9, 195->41, 196->46, 197->35, 198->47, 199->21, 200->16, 201->42, 202->42, 203->34, 204->39, 205->41, 206->9, 207->12, 208->46, 209->14, 210->24, 211->12, 212->25, 213->8, 214->3, 215->28, 216->43, 217->35, 218->35, 219->47, 220->25, 221->47, 222->8, 223->19, 224->0, 225->23, 226->44, 227->5, 228->5, 229->40, 230->11, 231->1, 232->29, 233->38, 234->45, 235->27, 236->18, 237->11, 238->38, 239->1, 240->16, 241->21, 242->3, 243->18, 244->38, 245->7, 246->36, 247->22, 248->43, 249->39, 250->1, 251->3, 252->13, 253->9, 254->11, 255->13, 256->43, 257->1, 258->35, 259->16, 260->45, 261->31, 262->5, 263->22, 264->35, 265->13, 266->17, 267->25, 268->41, 269->42, 270->36, 271->18, 272->17, 273->17, 274->0, 275->17, 276->27, 277->28, 278->20, 279->8, 280->24, 281->36, 282->11, 283->35, 284->44, 285->17, 286->31, 287->36

Average CPI map:
	7.37,	1.11,	1.18,	1.03,	1.33,	1.28
	1.92,	4.67,	4.58,	5.47,	4.53,	1.42
	1.66,	6.99,	6.00,	8.73,	6.11,	1.60
	1.98,	6.11,	5.68,	6.77,	4.41,	1.09
	1.29,	4.76,	6.61,	6.90,	5.93,	1.48
	1.34,	6.51,	7.86,	6.01,	5.10,	1.43
	1.11,	6.23,	5.82,	4.49,	5.37,	1.14
	1.62,	2.49,	4.84,	3.81,	4.65,	2.17

Efficiency map:
	0.997,	0.941,	0.894,	0.896,	0.940,	0.996
	0.851,	0.782,	0.794,	0.794,	0.782,	0.830
	0.829,	0.780,	0.779,	0.796,	0.779,	0.822
	0.833,	0.776,	0.782,	0.824,	0.785,	0.804
	0.807,	0.777,	0.787,	0.785,	0.778,	0.783
	0.790,	0.782,	0.801,	0.781,	0.781,	0.814
	0.872,	0.782,	0.785,	0.788,	0.782,	0.784
	0.834,	0.784,	0.827,	0.782,	0.780,	0.856
