==============================================================================
LNS optimizer for EML demonstration
==============================================================================

Option values: --wld-idx 18 --prec 10000 --step 0 --global-tlim 90 --global-iter 1000 --local-tlim 3 --local-nsol 1 --restart-base 100 --restart-strat luby --seed 101

Starting the Optimization Process
reserved_tasks None
Finding a first solution
LNS iteration #0 ========================================
- worst case average CPI: 2.067
- worst case efficiency: 0.634
- efficiency to beat: 0.634
- normalized lower bound 649
--- checking solution
--- solution ok! Maximum rounding error: 0.000047
- solution found, obj var is: 663
- de-normalized obj var: 0.639780
- time (local/global): 0.000/0.000
- branches (local/global): 20/20
- fails (local/global): 0/0
- lns time: 0.005000
- lns branches: 20
- lns fails: 0
LNS iteration #1 ========================================
- worst case average CPI: 1.932
- worst case efficiency: 0.635
- efficiency to beat: 0.635
- normalized lower bound 666
--- checking solution
--- solution ok! Maximum rounding error: 0.000046
- solution found, obj var is: 985
- de-normalized obj var: 0.659100
- time (local/global): 0.004/0.009
- branches (local/global): 455/475
- fails (local/global): 200/200
- lns time: 0.008000
- lns branches: 455
- lns fails: 200
LNS iteration #2 ========================================
- worst case average CPI: 1.882
- worst case efficiency: 0.640
- efficiency to beat: 0.640
- normalized lower bound 750
--- checking solution
--- solution ok! Maximum rounding error: 0.000130
- solution found, obj var is: 864
- de-normalized obj var: 0.651840
- time (local/global): 0.001/0.014
- branches (local/global): 22/497
- fails (local/global): 0/200
- lns time: 0.005000
- lns branches: 22
- lns fails: 0
LNS iteration #3 ========================================
- worst case average CPI: 1.777
- worst case efficiency: 0.642
- efficiency to beat: 0.642
- normalized lower bound 779
--- checking solution
--- solution ok! Maximum rounding error: 0.000016
- solution found, obj var is: 833
- de-normalized obj var: 0.649980
- time (local/global): 0.001/0.019
- branches (local/global): 20/517
- fails (local/global): 0/200
- lns time: 0.006000
- lns branches: 20
- lns fails: 0
LNS iteration #4 ========================================
- worst case average CPI: 1.416
- worst case efficiency: 0.646
- efficiency to beat: 0.646
- normalized lower bound 844
- lns time: 3.004000
- lns branches: 236153
- lns fails: 115380
LNS iteration #5 ========================================
- worst case average CPI: 1.416
- worst case efficiency: 0.646
- efficiency to beat: 0.646
- normalized lower bound 844
--- checking solution
--- solution ok! Maximum rounding error: 0.000017
- solution found, obj var is: 885
- de-normalized obj var: 0.653100
- time (local/global): 0.015/3.043
- branches (local/global): 978/237648
- fails (local/global): 455/116035
- lns time: 0.019000
- lns branches: 978
- lns fails: 455
LNS iteration #6 ========================================
- worst case average CPI: 1.416
- worst case efficiency: 0.647
- efficiency to beat: 0.647
- normalized lower bound 869
--- checking solution
--- solution ok! Maximum rounding error: 0.000058
- solution found, obj var is: 877
- de-normalized obj var: 0.652620
- time (local/global): 0.012/3.059
- branches (local/global): 874/238522
- fails (local/global): 402/116437
- lns time: 0.016000
- lns branches: 874
- lns fails: 402
LNS iteration #7 ========================================
- worst case average CPI: 1.416
- worst case efficiency: 0.650
- efficiency to beat: 0.650
- normalized lower bound 915
--- checking solution
--- solution ok! Maximum rounding error: 0.000121
- solution found, obj var is: 995
- de-normalized obj var: 0.659700
- time (local/global): 0.003/3.066
- branches (local/global): 236/238758
- fails (local/global): 100/116537
- lns time: 0.007000
- lns branches: 236
- lns fails: 100
LNS iteration #8 ========================================
- worst case average CPI: 1.416
- worst case efficiency: 0.652
- efficiency to beat: 0.652
- normalized lower bound 956
--- checking solution
--- solution ok! Maximum rounding error: 0.000066
- solution found, obj var is: 1084
- de-normalized obj var: 0.665040
- time (local/global): 0.000/3.070
- branches (local/global): 16/238774
- fails (local/global): 0/116537
- lns time: 0.004000
- lns branches: 16
- lns fails: 0
LNS iteration #9 ========================================
- worst case average CPI: 1.416
- worst case efficiency: 0.653
- efficiency to beat: 0.653
- normalized lower bound 961
--- checking solution
--- solution ok! Maximum rounding error: 0.000066
- solution found, obj var is: 964
- de-normalized obj var: 0.657840
- time (local/global): 0.021/3.095
- branches (local/global): 1722/240496
- fails (local/global): 800/117337
- lns time: 0.025000
- lns branches: 1722
- lns fails: 800
LNS iteration #10 ========================================
- worst case average CPI: 1.416
- worst case efficiency: 0.653
- efficiency to beat: 0.653
- normalized lower bound 965
--- checking solution
--- solution ok! Maximum rounding error: 0.000015
- solution found, obj var is: 975
- de-normalized obj var: 0.658500
- time (local/global): 0.026/3.125
- branches (local/global): 1895/242391
- fails (local/global): 887/118224
- lns time: 0.030000
- lns branches: 1895
- lns fails: 887
LNS iteration #11 ========================================
- worst case average CPI: 1.416
- worst case efficiency: 0.653
- efficiency to beat: 0.653
- normalized lower bound 973
--- checking solution
--- solution ok! Maximum rounding error: 0.000053
- solution found, obj var is: 975
- de-normalized obj var: 0.658500
- time (local/global): 0.036/3.165
- branches (local/global): 2976/245367
- fails (local/global): 1402/119626
- lns time: 0.040000
- lns branches: 2976
- lns fails: 1402
LNS iteration #12 ========================================
- worst case average CPI: 1.226
- worst case efficiency: 0.654
- efficiency to beat: 0.654
- normalized lower bound 980
--- checking solution
--- solution ok! Maximum rounding error: 0.000025
- solution found, obj var is: 988
- de-normalized obj var: 0.659280
- time (local/global): 0.064/3.233
- branches (local/global): 5058/250425
- fails (local/global): 2401/122027
- lns time: 0.068000
- lns branches: 5058
- lns fails: 2401
LNS iteration #13 ========================================
- worst case average CPI: 1.226
- worst case efficiency: 0.654
- efficiency to beat: 0.654
- normalized lower bound 983
--- checking solution
--- solution ok! Maximum rounding error: 0.000110
- solution found, obj var is: 1051
- de-normalized obj var: 0.663060
- time (local/global): 0.001/3.238
- branches (local/global): 22/250447
- fails (local/global): 0/122027
- lns time: 0.005000
- lns branches: 22
- lns fails: 0
LNS iteration #14 ========================================
- worst case average CPI: 1.226
- worst case efficiency: 0.657
- efficiency to beat: 0.657
- normalized lower bound 1028
--- checking solution
--- solution ok! Maximum rounding error: 0.000081
- solution found, obj var is: 1048
- de-normalized obj var: 0.662880
- time (local/global): 0.002/3.244
- branches (local/global): 96/250543
- fails (local/global): 39/122066
- lns time: 0.006000
- lns branches: 96
- lns fails: 39
LNS iteration #15 ========================================
- worst case average CPI: 1.226
- worst case efficiency: 0.658
- efficiency to beat: 0.658
- normalized lower bound 1048
--- checking solution
--- solution ok! Maximum rounding error: 0.000018
- solution found, obj var is: 1048
- de-normalized obj var: 0.662880
- time (local/global): 0.049/3.297
- branches (local/global): 3056/253599
- fails (local/global): 1445/123511
- lns time: 0.053000
- lns branches: 3056
- lns fails: 1445
LNS iteration #16 ========================================
- worst case average CPI: 1.226
- worst case efficiency: 0.658
- efficiency to beat: 0.658
- normalized lower bound 1053
--- checking solution
--- solution ok! Maximum rounding error: 0.000056
- solution found, obj var is: 1089
- de-normalized obj var: 0.665340
- time (local/global): 0.088/3.389
- branches (local/global): 7970/261569
- fails (local/global): 3803/127314
- lns time: 0.092000
- lns branches: 7970
- lns fails: 3803
LNS iteration #17 ========================================
- worst case average CPI: 1.226
- worst case efficiency: 0.659
- efficiency to beat: 0.659
- normalized lower bound 1059
--- checking solution
--- solution ok! Maximum rounding error: 0.000052
- solution found, obj var is: 1061
- de-normalized obj var: 0.663660
- time (local/global): 0.003/3.396
- branches (local/global): 269/261838
- fails (local/global): 115/127429
- lns time: 0.007000
- lns branches: 269
- lns fails: 115
LNS iteration #18 ========================================
- worst case average CPI: 1.226
- worst case efficiency: 0.659
- efficiency to beat: 0.659
- normalized lower bound 1063
--- checking solution
--- solution ok! Maximum rounding error: 0.000063
- solution found, obj var is: 1078
- de-normalized obj var: 0.664680
- time (local/global): 0.017/3.417
- branches (local/global): 1429/263267
- fails (local/global): 663/128092
- lns time: 0.021000
- lns branches: 1429
- lns fails: 663
LNS iteration #19 ========================================
- worst case average CPI: 1.226
- worst case efficiency: 0.659
- efficiency to beat: 0.659
- normalized lower bound 1070
--- checking solution
--- solution ok! Maximum rounding error: 0.000014
- solution found, obj var is: 1103
- de-normalized obj var: 0.666180
- time (local/global): 0.003/3.424
- branches (local/global): 239/263506
- fails (local/global): 100/128192
- lns time: 0.007000
- lns branches: 239
- lns fails: 100
LNS iteration #20 ========================================
- worst case average CPI: 1.226
- worst case efficiency: 0.660
- efficiency to beat: 0.660
- normalized lower bound 1082
--- checking solution
--- solution ok! Maximum rounding error: 0.000072
- solution found, obj var is: 1085
- de-normalized obj var: 0.665100
- time (local/global): 0.041/3.469
- branches (local/global): 3605/267111
- fails (local/global): 1700/129892
- lns time: 0.045000
- lns branches: 3605
- lns fails: 1700
LNS iteration #21 ========================================
- worst case average CPI: 1.226
- worst case efficiency: 0.660
- efficiency to beat: 0.660
- normalized lower bound 1087
- lns time: 3.004000
- lns branches: 212470
- lns fails: 104139
LNS iteration #22 ========================================
- worst case average CPI: 1.226
- worst case efficiency: 0.660
- efficiency to beat: 0.660
- normalized lower bound 1087
- lns time: 3.004000
- lns branches: 256175
- lns fails: 125535
LNS iteration #23 ========================================
- worst case average CPI: 1.226
- worst case efficiency: 0.660
- efficiency to beat: 0.660
- normalized lower bound 1087
--- checking solution
--- solution ok! Maximum rounding error: 0.000014
- solution found, obj var is: 1158
- de-normalized obj var: 0.669480
- time (local/global): 0.005/9.486
- branches (local/global): 305/736061
- fails (local/global): 135/359701
- lns time: 0.010000
- lns branches: 305
- lns fails: 135
LNS iteration #24 ========================================
- worst case average CPI: 1.226
- worst case efficiency: 0.662
- efficiency to beat: 0.662
- normalized lower bound 1122
- lns time: 3.004000
- lns branches: 235698
- lns fails: 115542
LNS iteration #25 ========================================
- worst case average CPI: 1.226
- worst case efficiency: 0.662
- efficiency to beat: 0.662
- normalized lower bound 1122
- lns time: 3.004000
- lns branches: 239095
- lns fails: 117276
LNS iteration #26 ========================================
- worst case average CPI: 1.226
- worst case efficiency: 0.662
- efficiency to beat: 0.662
- normalized lower bound 1122
--- checking solution
--- solution ok! Maximum rounding error: 0.000061
- solution found, obj var is: 1123
- de-normalized obj var: 0.667380
- time (local/global): 2.558/18.057
- branches (local/global): 249114/1459968
- fails (local/global): 122081/714600
- lns time: 2.562000
- lns branches: 249114
- lns fails: 122081
LNS iteration #27 ========================================
- worst case average CPI: 1.044
- worst case efficiency: 0.663
- efficiency to beat: 0.663
- normalized lower bound 1136
--- checking solution
--- solution ok! Maximum rounding error: 0.000068
- solution found, obj var is: 1140
- de-normalized obj var: 0.668400
- time (local/global): 0.003/18.064
- branches (local/global): 164/1460132
- fails (local/global): 74/714674
- lns time: 0.008000
- lns branches: 164
- lns fails: 74
LNS iteration #28 ========================================
- worst case average CPI: 1.044
- worst case efficiency: 0.663
- efficiency to beat: 0.663
- normalized lower bound 1139
--- checking solution
--- solution ok! Maximum rounding error: 0.000000
- solution found, obj var is: 1254
- de-normalized obj var: 0.675240
- time (local/global): 0.012/18.081
- branches (local/global): 900/1461032
- fails (local/global): 414/715088
- lns time: 0.016000
- lns branches: 900
- lns fails: 414
LNS iteration #29 ========================================
- worst case average CPI: 1.044
- worst case efficiency: 0.664
- efficiency to beat: 0.664
- normalized lower bound 1144
--- checking solution
--- solution ok! Maximum rounding error: 0.000083
- solution found, obj var is: 1165
- de-normalized obj var: 0.669900
- time (local/global): 0.062/18.147
- branches (local/global): 5090/1466122
- fails (local/global): 2421/717509
- lns time: 0.066000
- lns branches: 5090
- lns fails: 2421
LNS iteration #30 ========================================
- worst case average CPI: 1.044
- worst case efficiency: 0.664
- efficiency to beat: 0.664
- normalized lower bound 1152
--- checking solution
--- solution ok! Maximum rounding error: 0.000019
- solution found, obj var is: 1166
- de-normalized obj var: 0.669960
- time (local/global): 0.399/18.550
- branches (local/global): 24684/1490806
- fails (local/global): 11926/729435
- lns time: 0.403000
- lns branches: 24684
- lns fails: 11926
LNS iteration #31 ========================================
- worst case average CPI: 1.226
- worst case efficiency: 0.664
- efficiency to beat: 0.664
- normalized lower bound 1156
--- checking solution
--- solution ok! Maximum rounding error: 0.000102
- solution found, obj var is: 1158
- de-normalized obj var: 0.669480
- time (local/global): 0.005/18.559
- branches (local/global): 469/1491275
- fails (local/global): 206/729641
- lns time: 0.009000
- lns branches: 469
- lns fails: 206
LNS iteration #32 ========================================
- worst case average CPI: 1.226
- worst case efficiency: 0.665
- efficiency to beat: 0.665
- normalized lower bound 1165
--- checking solution
--- solution ok! Maximum rounding error: 0.000050
- solution found, obj var is: 1196
- de-normalized obj var: 0.671760
- time (local/global): 0.001/18.564
- branches (local/global): 24/1491299
- fails (local/global): 2/729643
- lns time: 0.005000
- lns branches: 24
- lns fails: 2
LNS iteration #33 ========================================
- worst case average CPI: 1.226
- worst case efficiency: 0.665
- efficiency to beat: 0.665
- normalized lower bound 1171
--- checking solution
--- solution ok! Maximum rounding error: 0.000035
- solution found, obj var is: 1174
- de-normalized obj var: 0.670440
- time (local/global): 0.094/18.662
- branches (local/global): 7289/1498588
- fails (local/global): 3498/733141
- lns time: 0.098000
- lns branches: 7289
- lns fails: 3498
LNS iteration #34 ========================================
- worst case average CPI: 1.226
- worst case efficiency: 0.666
- efficiency to beat: 0.666
- normalized lower bound 1177
--- checking solution
--- solution ok! Maximum rounding error: 0.000002
- solution found, obj var is: 1204
- de-normalized obj var: 0.672240
- time (local/global): 0.058/18.724
- branches (local/global): 5094/1503682
- fails (local/global): 2429/735570
- lns time: 0.062000
- lns branches: 5094
- lns fails: 2429
LNS iteration #35 ========================================
- worst case average CPI: 0.823
- worst case efficiency: 0.667
- efficiency to beat: 0.667
- normalized lower bound 1206
--- checking solution
--- solution ok! Maximum rounding error: 0.000071
- solution found, obj var is: 1223
- de-normalized obj var: 0.673380
- time (local/global): 0.127/18.855
- branches (local/global): 9599/1513281
- fails (local/global): 4600/740170
- lns time: 0.131000
- lns branches: 9599
- lns fails: 4600
LNS iteration #36 ========================================
- worst case average CPI: 0.823
- worst case efficiency: 0.668
- efficiency to beat: 0.668
- normalized lower bound 1209
- lns time: 3.004000
- lns branches: 344825
- lns fails: 170167
LNS iteration #37 ========================================
- worst case average CPI: 0.823
- worst case efficiency: 0.668
- efficiency to beat: 0.668
- normalized lower bound 1209
- lns time: 3.004000
- lns branches: 329975
- lns fails: 161357
LNS iteration #38 ========================================
- worst case average CPI: 0.823
- worst case efficiency: 0.668
- efficiency to beat: 0.668
- normalized lower bound 1209
--- checking solution
--- solution ok! Maximum rounding error: 0.000035
- solution found, obj var is: 1217
- de-normalized obj var: 0.673020
- time (local/global): 0.007/24.874
- branches (local/global): 854/2188935
- fails (local/global): 406/1072100
- lns time: 0.011000
- lns branches: 854
- lns fails: 406
LNS iteration #39 ========================================
- worst case average CPI: 0.823
- worst case efficiency: 0.668
- efficiency to beat: 0.668
- normalized lower bound 1210
--- checking solution
--- solution ok! Maximum rounding error: 0.000069
- solution found, obj var is: 1211
- de-normalized obj var: 0.672660
- time (local/global): 0.227/25.105
- branches (local/global): 17154/2206089
- fails (local/global): 8291/1080391
- lns time: 0.232000
- lns branches: 17154
- lns fails: 8291
LNS iteration #40 ========================================
- worst case average CPI: 0.823
- worst case efficiency: 0.668
- efficiency to beat: 0.668
- normalized lower bound 1217
--- checking solution
--- solution ok! Maximum rounding error: 0.000025
- solution found, obj var is: 1217
- de-normalized obj var: 0.673020
- time (local/global): 0.025/25.135
- branches (local/global): 2558/2208647
- fails (local/global): 1213/1081604
- lns time: 0.029000
- lns branches: 2558
- lns fails: 1213
LNS iteration #41 ========================================
- worst case average CPI: 0.823
- worst case efficiency: 0.669
- efficiency to beat: 0.669
- normalized lower bound 1231
- lns time: 3.004000
- lns branches: 225588
- lns fails: 110601
LNS iteration #42 ========================================
- worst case average CPI: 0.823
- worst case efficiency: 0.669
- efficiency to beat: 0.669
- normalized lower bound 1231
--- checking solution
--- solution ok! Maximum rounding error: 0.000052
- solution found, obj var is: 1235
- de-normalized obj var: 0.674100
- time (local/global): 1.337/29.480
- branches (local/global): 109760/2543995
- fails (local/global): 53603/1245808
- lns time: 1.341000
- lns branches: 109760
- lns fails: 53603
LNS iteration #43 ========================================
- worst case average CPI: 0.823
- worst case efficiency: 0.670
- efficiency to beat: 0.670
- normalized lower bound 1242
- lns time: 3.004000
- lns branches: 254358
- lns fails: 124617
LNS iteration #44 ========================================
- worst case average CPI: 0.823
- worst case efficiency: 0.670
- efficiency to beat: 0.670
- normalized lower bound 1242
--- checking solution
--- solution ok! Maximum rounding error: 0.000124
- solution found, obj var is: 1256
- de-normalized obj var: 0.675360
- time (local/global): 0.005/32.493
- branches (local/global): 498/2798851
- fails (local/global): 233/1370658
- lns time: 0.009000
- lns branches: 498
- lns fails: 233
LNS iteration #45 ========================================
- worst case average CPI: 0.823
- worst case efficiency: 0.670
- efficiency to beat: 0.670
- normalized lower bound 1244
--- checking solution
--- solution ok! Maximum rounding error: 0.000087
- solution found, obj var is: 1307
- de-normalized obj var: 0.678420
- time (local/global): 0.012/32.509
- branches (local/global): 867/2799718
- fails (local/global): 400/1371058
- lns time: 0.016000
- lns branches: 867
- lns fails: 400
LNS iteration #46 ========================================
- worst case average CPI: 0.823
- worst case efficiency: 0.671
- efficiency to beat: 0.671
- normalized lower bound 1260
--- checking solution
--- solution ok! Maximum rounding error: 0.000063
- solution found, obj var is: 1264
- de-normalized obj var: 0.675840
- time (local/global): 0.145/32.658
- branches (local/global): 10151/2809869
- fails (local/global): 4867/1375925
- lns time: 0.149000
- lns branches: 10151
- lns fails: 4867
LNS iteration #47 ========================================
- worst case average CPI: 0.823
- worst case efficiency: 0.671
- efficiency to beat: 0.671
- normalized lower bound 1260
- lns time: 3.004000
- lns branches: 269638
- lns fails: 132001
LNS iteration #48 ========================================
- worst case average CPI: 0.823
- worst case efficiency: 0.671
- efficiency to beat: 0.671
- normalized lower bound 1260
--- checking solution
--- solution ok! Maximum rounding error: 0.000025
- solution found, obj var is: 1318
- de-normalized obj var: 0.679080
- time (local/global): 0.011/35.677
- branches (local/global): 1093/3080600
- fails (local/global): 500/1508426
- lns time: 0.015000
- lns branches: 1093
- lns fails: 500
LNS iteration #49 ========================================
- worst case average CPI: 0.823
- worst case efficiency: 0.671
- efficiency to beat: 0.671
- normalized lower bound 1265
--- checking solution
--- solution ok! Maximum rounding error: 0.000012
- solution found, obj var is: 1296
- de-normalized obj var: 0.677760
- time (local/global): 0.111/35.792
- branches (local/global): 9404/3090004
- fails (local/global): 4501/1512927
- lns time: 0.115000
- lns branches: 9404
- lns fails: 4501
LNS iteration #50 ========================================
- worst case average CPI: 0.823
- worst case efficiency: 0.671
- efficiency to beat: 0.671
- normalized lower bound 1275
--- checking solution
--- solution ok! Maximum rounding error: 0.000104
- solution found, obj var is: 1275
- de-normalized obj var: 0.676500
- time (local/global): 0.010/35.806
- branches (local/global): 883/3090887
- fails (local/global): 407/1513334
- lns time: 0.014000
- lns branches: 883
- lns fails: 407
LNS iteration #51 ========================================
- worst case average CPI: 0.823
- worst case efficiency: 0.672
- efficiency to beat: 0.672
- normalized lower bound 1279
--- checking solution
--- solution ok! Maximum rounding error: 0.000048
- solution found, obj var is: 1315
- de-normalized obj var: 0.678900
- time (local/global): 0.040/35.850
- branches (local/global): 3388/3094275
- fails (local/global): 1600/1514934
- lns time: 0.044000
- lns branches: 3388
- lns fails: 1600
LNS iteration #52 ========================================
- worst case average CPI: 0.823
- worst case efficiency: 0.673
- efficiency to beat: 0.673
- normalized lower bound 1296
--- checking solution
--- solution ok! Maximum rounding error: 0.000050
- solution found, obj var is: 1299
- de-normalized obj var: 0.677940
- time (local/global): 0.009/35.863
- branches (local/global): 1029/3095304
- fails (local/global): 492/1515426
- lns time: 0.013000
- lns branches: 1029
- lns fails: 492
LNS iteration #53 ========================================
- worst case average CPI: 0.823
- worst case efficiency: 0.673
- efficiency to beat: 0.673
- normalized lower bound 1300
--- checking solution
--- solution ok! Maximum rounding error: 0.000162
- solution found, obj var is: 1320
- de-normalized obj var: 0.679200
- time (local/global): 0.005/35.872
- branches (local/global): 455/3095759
- fails (local/global): 202/1515628
- lns time: 0.009000
- lns branches: 455
- lns fails: 202
LNS iteration #54 ========================================
- worst case average CPI: 1.113
- worst case efficiency: 0.673
- efficiency to beat: 0.673
- normalized lower bound 1306
--- checking solution
--- solution ok! Maximum rounding error: 0.000062
- solution found, obj var is: 1313
- de-normalized obj var: 0.678780
- time (local/global): 0.375/36.251
- branches (local/global): 27596/3123355
- fails (local/global): 13321/1528949
- lns time: 0.379000
- lns branches: 27596
- lns fails: 13321
LNS iteration #55 ========================================
- worst case average CPI: 1.113
- worst case efficiency: 0.674
- efficiency to beat: 0.674
- normalized lower bound 1311
- lns time: 3.004000
- lns branches: 263229
- lns fails: 128811
LNS iteration #56 ========================================
- worst case average CPI: 1.113
- worst case efficiency: 0.674
- efficiency to beat: 0.674
- normalized lower bound 1311
--- checking solution
--- solution ok! Maximum rounding error: 0.000072
- solution found, obj var is: 1313
- de-normalized obj var: 0.678780
- time (local/global): 0.110/39.369
- branches (local/global): 9664/3396248
- fails (local/global): 4632/1662392
- lns time: 0.114000
- lns branches: 9664
- lns fails: 4632
LNS iteration #57 ========================================
- worst case average CPI: 1.113
- worst case efficiency: 0.674
- efficiency to beat: 0.674
- normalized lower bound 1312
--- checking solution
--- solution ok! Maximum rounding error: 0.000124
- solution found, obj var is: 1316
- de-normalized obj var: 0.678960
- time (local/global): 0.715/40.088
- branches (local/global): 64562/3460810
- fails (local/global): 31375/1693767
- lns time: 0.719000
- lns branches: 64562
- lns fails: 31375
LNS iteration #58 ========================================
- worst case average CPI: 1.042
- worst case efficiency: 0.674
- efficiency to beat: 0.674
- normalized lower bound 1317
- lns time: 3.004000
- lns branches: 265844
- lns fails: 130201
LNS iteration #59 ========================================
- worst case average CPI: 1.042
- worst case efficiency: 0.674
- efficiency to beat: 0.674
- normalized lower bound 1317
- lns time: 3.004000
- lns branches: 270147
- lns fails: 132152
LNS iteration #60 ========================================
- worst case average CPI: 1.042
- worst case efficiency: 0.674
- efficiency to beat: 0.674
- normalized lower bound 1317
--- checking solution
--- solution ok! Maximum rounding error: 0.000070
- solution found, obj var is: 1339
- de-normalized obj var: 0.680340
- time (local/global): 0.234/46.334
- branches (local/global): 23577/4020378
- fails (local/global): 11392/1967512
- lns time: 0.238000
- lns branches: 23577
- lns fails: 11392
LNS iteration #61 ========================================
- worst case average CPI: 1.042
- worst case efficiency: 0.674
- efficiency to beat: 0.674
- normalized lower bound 1322
--- checking solution
--- solution ok! Maximum rounding error: 0.000075
- solution found, obj var is: 1380
- de-normalized obj var: 0.682800
- time (local/global): 0.002/46.340
- branches (local/global): 99/4020477
- fails (local/global): 40/1967552
- lns time: 0.006000
- lns branches: 99
- lns fails: 40
LNS iteration #62 ========================================
- worst case average CPI: 1.042
- worst case efficiency: 0.674
- efficiency to beat: 0.674
- normalized lower bound 1320
--- checking solution
--- solution ok! Maximum rounding error: 0.000151
- solution found, obj var is: 1329
- de-normalized obj var: 0.679740
- time (local/global): 0.010/46.354
- branches (local/global): 864/4021341
- fails (local/global): 400/1967952
- lns time: 0.014000
- lns branches: 864
- lns fails: 400
LNS iteration #63 ========================================
- worst case average CPI: 1.042
- worst case efficiency: 0.674
- efficiency to beat: 0.674
- normalized lower bound 1325
--- checking solution
--- solution ok! Maximum rounding error: 0.000061
- solution found, obj var is: 1335
- de-normalized obj var: 0.680100
- time (local/global): 0.118/46.476
- branches (local/global): 10417/4031758
- fails (local/global): 4983/1972935
- lns time: 0.123000
- lns branches: 10417
- lns fails: 4983
LNS iteration #64 ========================================
- worst case average CPI: 1.042
- worst case efficiency: 0.675
- efficiency to beat: 0.675
- normalized lower bound 1331
- lns time: 3.004000
- lns branches: 236387
- lns fails: 115692
LNS iteration #65 ========================================
- worst case average CPI: 1.042
- worst case efficiency: 0.675
- efficiency to beat: 0.675
- normalized lower bound 1331
- lns time: 3.004000
- lns branches: 251370
- lns fails: 123037
LNS iteration #66 ========================================
- worst case average CPI: 1.042
- worst case efficiency: 0.675
- efficiency to beat: 0.675
- normalized lower bound 1331
--- checking solution
--- solution ok! Maximum rounding error: 0.000058
- solution found, obj var is: 1394
- de-normalized obj var: 0.683640
- time (local/global): 0.015/52.504
- branches (local/global): 1304/4520819
- fails (local/global): 600/2212264
- lns time: 0.019000
- lns branches: 1304
- lns fails: 600
LNS iteration #67 ========================================
- worst case average CPI: 1.042
- worst case efficiency: 0.675
- efficiency to beat: 0.675
- normalized lower bound 1332
--- checking solution
--- solution ok! Maximum rounding error: 0.000060
- solution found, obj var is: 1337
- de-normalized obj var: 0.680220
- time (local/global): 0.447/52.955
- branches (local/global): 43525/4564344
- fails (local/global): 21168/2233432
- lns time: 0.451000
- lns branches: 43525
- lns fails: 21168
LNS iteration #68 ========================================
- worst case average CPI: 1.042
- worst case efficiency: 0.677
- efficiency to beat: 0.677
- normalized lower bound 1360
--- checking solution
--- solution ok! Maximum rounding error: 0.000046
- solution found, obj var is: 1363
- de-normalized obj var: 0.681780
- time (local/global): 1.784/54.743
- branches (local/global): 158602/4722946
- fails (local/global): 77256/2310688
- lns time: 1.788000
- lns branches: 158602
- lns fails: 77256
LNS iteration #69 ========================================
- worst case average CPI: 1.042
- worst case efficiency: 0.677
- efficiency to beat: 0.677
- normalized lower bound 1360
--- checking solution
--- solution ok! Maximum rounding error: 0.000040
- solution found, obj var is: 1370
- de-normalized obj var: 0.682200
- time (local/global): 1.285/56.032
- branches (local/global): 92000/4814946
- fails (local/global): 45000/2355688
- lns time: 1.289000
- lns branches: 92000
- lns fails: 45000
LNS iteration #70 ========================================
- worst case average CPI: 1.042
- worst case efficiency: 0.676
- efficiency to beat: 0.676
- normalized lower bound 1359
--- checking solution
--- solution ok! Maximum rounding error: 0.000032
- solution found, obj var is: 1359
- de-normalized obj var: 0.681540
- time (local/global): 0.538/56.574
- branches (local/global): 56312/4871258
- fails (local/global): 27653/2383341
- lns time: 0.542000
- lns branches: 56312
- lns fails: 27653
LNS iteration #71 ========================================
- worst case average CPI: 1.042
- worst case efficiency: 0.678
- efficiency to beat: 0.678
- normalized lower bound 1392
- lns time: 3.004000
- lns branches: 260637
- lns fails: 127479
LNS iteration #72 ========================================
- worst case average CPI: 1.042
- worst case efficiency: 0.678
- efficiency to beat: 0.678
- normalized lower bound 1392
- lns time: 3.004000
- lns branches: 249886
- lns fails: 122426
LNS iteration #73 ========================================
- worst case average CPI: 1.042
- worst case efficiency: 0.678
- efficiency to beat: 0.678
- normalized lower bound 1392
--- checking solution
--- solution ok! Maximum rounding error: 0.000086
- solution found, obj var is: 1399
- de-normalized obj var: 0.683940
- time (local/global): 0.198/62.784
- branches (local/global): 19581/5401362
- fails (local/global): 9436/2642682
- lns time: 0.202000
- lns branches: 19581
- lns fails: 9436
LNS iteration #74 ========================================
- worst case average CPI: 1.189
- worst case efficiency: 0.679
- efficiency to beat: 0.679
- normalized lower bound 1394
--- checking solution
--- solution ok! Maximum rounding error: 0.000038
- solution found, obj var is: 1398
- de-normalized obj var: 0.683880
- time (local/global): 0.030/62.818
- branches (local/global): 2753/5404115
- fails (local/global): 1300/2643982
- lns time: 0.034000
- lns branches: 2753
- lns fails: 1300
LNS iteration #75 ========================================
- worst case average CPI: 1.189
- worst case efficiency: 0.679
- efficiency to beat: 0.679
- normalized lower bound 1400
--- checking solution
--- solution ok! Maximum rounding error: 0.000107
- solution found, obj var is: 1400
- de-normalized obj var: 0.684000
- time (local/global): 0.107/62.929
- branches (local/global): 8368/5412483
- fails (local/global): 4002/2647984
- lns time: 0.111000
- lns branches: 8368
- lns fails: 4002
LNS iteration #76 ========================================
- worst case average CPI: 1.189
- worst case efficiency: 0.679
- efficiency to beat: 0.679
- normalized lower bound 1406
- lns time: 3.004000
- lns branches: 271899
- lns fails: 133147
LNS iteration #77 ========================================
- worst case average CPI: 1.189
- worst case efficiency: 0.679
- efficiency to beat: 0.679
- normalized lower bound 1406
--- checking solution
--- solution ok! Maximum rounding error: 0.000173
- solution found, obj var is: 1457
- de-normalized obj var: 0.687420
- time (local/global): 0.080/66.017
- branches (local/global): 7760/5692142
- fails (local/global): 3706/2784837
- lns time: 0.084000
- lns branches: 7760
- lns fails: 3706
LNS iteration #78 ========================================
- worst case average CPI: 0.820
- worst case efficiency: 0.679
- efficiency to beat: 0.679
- normalized lower bound 1406
--- checking solution
--- solution ok! Maximum rounding error: 0.000090
- solution found, obj var is: 1425
- de-normalized obj var: 0.685500
- time (local/global): 0.001/66.022
- branches (local/global): 20/5692162
- fails (local/global): 0/2784837
- lns time: 0.005000
- lns branches: 20
- lns fails: 0
LNS iteration #79 ========================================
- worst case average CPI: 0.820
- worst case efficiency: 0.680
- efficiency to beat: 0.680
- normalized lower bound 1411
- lns time: 3.004000
- lns branches: 258126
- lns fails: 126401
LNS iteration #80 ========================================
- worst case average CPI: 0.820
- worst case efficiency: 0.680
- efficiency to beat: 0.680
- normalized lower bound 1411
--- checking solution
--- solution ok! Maximum rounding error: 0.000008
- solution found, obj var is: 1443
- de-normalized obj var: 0.686580
- time (local/global): 2.779/71.809
- branches (local/global): 249571/6199859
- fails (local/global): 122153/3033391
- lns time: 2.783000
- lns branches: 249571
- lns fails: 122153
LNS iteration #81 ========================================
- worst case average CPI: 0.926
- worst case efficiency: 0.680
- efficiency to beat: 0.680
- normalized lower bound 1413
--- checking solution
--- solution ok! Maximum rounding error: 0.000035
- solution found, obj var is: 1414
- de-normalized obj var: 0.684840
- time (local/global): 0.122/71.935
- branches (local/global): 13336/6213195
- fails (local/global): 6402/3039793
- lns time: 0.126000
- lns branches: 13336
- lns fails: 6402
LNS iteration #82 ========================================
- worst case average CPI: 0.926
- worst case efficiency: 0.680
- efficiency to beat: 0.680
- normalized lower bound 1419
- lns time: 3.004000
- lns branches: 271706
- lns fails: 132958
LNS iteration #83 ========================================
- worst case average CPI: 0.926
- worst case efficiency: 0.680
- efficiency to beat: 0.680
- normalized lower bound 1419
--- checking solution
--- solution ok! Maximum rounding error: 0.000140
- solution found, obj var is: 1445
- de-normalized obj var: 0.686700
- time (local/global): 0.018/74.961
- branches (local/global): 1740/6486641
- fails (local/global): 810/3173561
- lns time: 0.022000
- lns branches: 1740
- lns fails: 810
LNS iteration #84 ========================================
- worst case average CPI: 0.774
- worst case efficiency: 0.680
- efficiency to beat: 0.680
- normalized lower bound 1421
- lns time: 3.004000
- lns branches: 263345
- lns fails: 129035
LNS iteration #85 ========================================
- worst case average CPI: 0.774
- worst case efficiency: 0.680
- efficiency to beat: 0.680
- normalized lower bound 1421
- lns time: 3.004000
- lns branches: 240517
- lns fails: 117906
LNS iteration #86 ========================================
- worst case average CPI: 0.774
- worst case efficiency: 0.680
- efficiency to beat: 0.680
- normalized lower bound 1421
- lns time: 3.004000
- lns branches: 273746
- lns fails: 134001
LNS iteration #87 ========================================
- worst case average CPI: 0.774
- worst case efficiency: 0.680
- efficiency to beat: 0.680
- normalized lower bound 1421
- lns time: 3.004000
- lns branches: 348147
- lns fails: 170333
LNS iteration #88 ========================================
- worst case average CPI: 0.774
- worst case efficiency: 0.680
- efficiency to beat: 0.680
- normalized lower bound 1421
- lns time: 3.004000
- lns branches: 247752
- lns fails: 121417
LNS iteration #89 ========================================
- worst case average CPI: 0.774
- worst case efficiency: 0.680
- efficiency to beat: 0.680
- normalized lower bound 1421
- lns time: 0.019000
- lns branches: 1413
- lns fails: 681

LNS optimization is over========================================
initial worst case average CPI: 2.067
final worst case average CPI: 0.774
initial worst case efficiency: 0.634
final worst case efficiency: 0.680
number of iterations: 90
total time: 90004.000000
total branches: 7861561
total fails: 3846934

Final Solution: 0->9, 1->23, 2->30, 3->47, 4->18, 5->33, 6->42, 7->0, 8->29, 9->21, 10->34, 11->5, 12->42, 13->15, 14->11, 15->14, 16->34, 17->30, 18->11, 19->1, 20->7, 21->8, 22->9, 23->26, 24->44, 25->47, 26->20, 27->31, 28->6, 29->39, 30->17, 31->40, 32->43, 33->25, 34->23, 35->24, 36->36, 37->19, 38->22, 39->10, 40->45, 41->20, 42->3, 43->32, 44->17, 45->9, 46->44, 47->22, 48->39, 49->3, 50->32, 51->37, 52->2, 53->39, 54->4, 55->28, 56->31, 57->9, 58->7, 59->5, 60->27, 61->36, 62->12, 63->10, 64->2, 65->33, 66->46, 67->7, 68->20, 69->30, 70->5, 71->39, 72->38, 73->32, 74->28, 75->13, 76->15, 77->14, 78->15, 79->44, 80->28, 81->43, 82->18, 83->45, 84->32, 85->13, 86->17, 87->16, 88->19, 89->1, 90->2, 91->15, 92->34, 93->8, 94->18, 95->27, 96->22, 97->30, 98->37, 99->10, 100->39, 101->42, 102->22, 103->25, 104->8, 105->10, 106->40, 107->24, 108->34, 109->30, 110->25, 111->2, 112->42, 113->0, 114->0, 115->19, 116->33, 117->27, 118->39, 119->40, 120->20, 121->13, 122->41, 123->18, 124->36, 125->40, 126->46, 127->25, 128->28, 129->34, 130->5, 131->23, 132->36, 133->33, 134->46, 135->28, 136->32, 137->16, 138->44, 139->26, 140->31, 141->10, 142->42, 143->36, 144->31, 145->15, 146->16, 147->30, 148->26, 149->28, 150->15, 151->32, 152->8, 153->7, 154->34, 155->13, 156->36, 157->12, 158->24, 159->31, 160->11, 161->16, 162->27, 163->43, 164->13, 165->24, 166->12, 167->24, 168->18, 169->26, 170->37, 171->4, 172->8, 173->5, 174->7, 175->16, 176->43, 177->29, 178->38, 179->41, 180->29, 181->2, 182->35, 183->42, 184->35, 185->27, 186->41, 187->27, 188->25, 189->41, 190->5, 191->47, 192->14, 193->38, 194->7, 195->4, 196->35, 197->20, 198->41, 199->21, 200->29, 201->23, 202->12, 203->31, 204->40, 205->21, 206->11, 207->46, 208->44, 209->17, 210->0, 211->13, 212->29, 213->18, 214->22, 215->11, 216->16, 217->46, 218->14, 219->17, 220->23, 221->8, 222->38, 223->26, 224->19, 225->12, 226->29, 227->23, 228->41, 229->3, 230->43, 231->14, 232->21, 233->3, 234->38, 235->24, 236->44, 237->9, 238->45, 239->19, 240->6, 241->9, 242->3, 243->3, 244->26, 245->21, 246->45, 247->38, 248->40, 249->20, 250->47, 251->6, 252->45, 253->45, 254->1, 255->47, 256->1, 257->12, 258->46, 259->10, 260->37, 261->6, 262->6, 263->11, 264->1, 265->0, 266->37, 267->21, 268->0, 269->17, 270->25, 271->6, 272->35, 273->14, 274->35, 275->47, 276->19, 277->4, 278->4, 279->33, 280->1, 281->37, 282->2, 283->43, 284->22, 285->4, 286->35, 287->33

Average CPI map:
	4.44,	1.57,	1.00,	1.23,	1.34,	1.25
	1.63,	2.55,	4.04,	2.86,	2.41,	1.88
	1.52,	4.78,	3.54,	6.85,	3.80,	1.23
	1.19,	3.73,	3.34,	3.42,	2.67,	0.77
	1.21,	2.90,	4.21,	4.54,	3.60,	1.19
	1.60,	4.11,	6.14,	3.63,	2.90,	1.26
	1.62,	3.25,	3.58,	2.73,	3.06,	1.33
	1.83,	1.97,	2.21,	2.15,	2.21,	1.74

Efficiency map:
	0.997,	0.938,	0.855,	0.892,	0.928,	0.996
	0.825,	0.683,	0.763,	0.685,	0.680,	0.840
	0.817,	0.687,	0.682,	0.680,	0.681,	0.804
	0.801,	0.682,	0.684,	0.691,	0.687,	0.790
	0.793,	0.687,	0.684,	0.687,	0.683,	0.737
	0.792,	0.686,	0.690,	0.681,	0.681,	0.797
	0.872,	0.682,	0.691,	0.692,	0.688,	0.781
	0.838,	0.682,	0.684,	0.681,	0.687,	0.833
