LocalSolver 4.0 (MacOS64, build 20131224)
Copyright (C) 2013 Bouygues SA, Aix-Marseille University, CNRS.
All rights reserved (see Terms and Conditions for details).

Load localsolver_res/tawd_ls.lsp...
Run input...
ANNs For the Platform:
3,2,1,0.413586,-0.0266769,-0.0683771,-5.1002,70.5254,-0.257939,-72.3361,-14.3957,-55.9961,0.000416225,-55.1984
3,2,1,7.29748,1.94844,3.18138,9.63196,-4.67735,-4.13678,1.22405,-8.03403,0.0803394,-0.125838,0.598848
3,2,1,6.43996,0.383984,0.598454,7.79024,-4.25175,0.123161,-0.278344,-5.71253,1.47885,1.00258,0.327892
3,2,1,3.45395,0.140329,0.51254,4.25255,4.08469,0.00326531,0.722664,3.88666,1.2829,-0.290289,-0.187123
3,2,1,1.76581,-0.7465,16.0398,1.01103,2.42771,0.96084,1.00318,4.14242,-0.00284347,0.244904,0.56299
3,2,1,1.87058,0.359859,-0.0851999,0.818043,3.18969,0.847611,-7.29654,-2.24823,0.00245596,0.000486788,0.794563
3,2,1,3.28113,0.579268,0.142679,3.72653,-0.240895,-0.149383,25.0414,7.13641,0.488705,-0.00083541,0.320468
3,2,1,-4.78997,-2.53518,1.7971,11.1628,-3.08773,-0.470276,-0.0894822,-2.63871,1.46314,-0.463195,-1.12076
3,2,1,-0.392198,-0.00544948,0.0100489,-0.634573,-1.21109,-0.0856362,-0.013156,-1.60668,1.54201,-2.33195,-0.462253
3,2,1,3.15031,0.401017,0.160161,2.51156,5.71314,0.59291,-11.6364,2.59774,0.430465,0.00737346,0.36306
3,2,1,2.64111,0.312028,0.0803827,2.35273,-4.25958,3.48188,-1.59773,-1.57632,0.565527,0.0271972,0.266241
3,2,1,2.2658,0.0425076,0.0191991,-0.583848,2.82415,0.533705,0.0754136,3.33659,-0.0169351,0.54785,0.257008
3,2,1,6.01014,0.654767,0.24854,5.54419,5.68574,0.00137666,0.00103835,-1.46229,0.258518,0.00962319,0.54621
3,2,1,-0.828282,0.684875,0.223674,-1.44779,5.0064,0.272371,0.00344824,2.89438,0.397142,0.379767,0.797684
3,2,1,-0.166745,-1.25514,-0.967701,-3.82155,3.34568,0.34907,0.176897,2.37943,0.567319,0.42026,0.93611
3,2,1,-10.035,3.55243,8.66202,-21.5626,10.92,0.228744,0.12852,5.40188,0.871264,0.345634,1.3209
3,2,1,4.50278,0.709934,0.227356,3.41616,1.455,0.115548,0.0125181,-1.15221,0.345467,0.222127,0.602264
3,2,1,3.51765,0.552987,0.202187,3.41883,0.53704,0.0709757,-0.0346297,-0.38017,0.320095,-0.0397752,0.474568
3,2,1,3.62936,0.506661,0.201819,3.49179,3.4019,-3.09955,1.3332,0.961184,0.32649,-0.0126443,0.488413
3,2,1,3.50925,0.448618,0.127508,2.4823,1.78455,1.6893,1.46456,-0.207671,0.400287,0.00684206,0.402337
3,2,1,-0.52883,0.00691432,0.00617163,-0.194006,1.73284,0.0488672,0.0179273,1.25978,0.716787,0.92667,0.162242
3,2,1,2.48239,0.190378,0.120167,1.91689,1.21532,1.48543,0.644574,2.68198,0.547395,-0.0744913,0.328097
3,2,1,2.55861,2.02297,0.650126,2.19109,2.44652,0.0836318,0.0133745,2.4369,0.0418722,0.798841,-0.0334834
3,2,1,5.07371,0.556895,0.217981,4.66725,-0.00829845,-0.00544544,0.00934569,-0.672651,0.280461,-0.520981,0.217266
3,2,1,1.56588,0.201966,0.0665967,1.82578,1.97654,0.236717,0.0903453,1.08195,1.02748,-0.229836,0.011785
3,2,1,2.41728,0.208205,-0.0012583,2.05484,1.41976,-1.30194,1.45365,1.79277,0.56727,0.031184,0.207229
3,2,1,3.71833,0.202336,0.172606,2.43155,5.03284,0.375118,-0.790998,-3.83455,0.400925,0.372075,0.754779
3,2,1,-1.25583,1.47411,0.819895,-2.78448,4.36107,0.113478,0.107247,2.55416,0.385214,0.384141,0.797017
3,2,1,1.71562,-0.478906,-0.61026,-1.17859,3.1361,0.360865,0.0914124,2.2536,-0.0127033,0.431384,0.365879
3,2,1,-1.75501,-0.0880109,-0.026461,-2.68365,2.88327,0.072433,0.0245574,1.95701,-5.87306,-0.563325,-4.48698
3,2,1,1.87886,0.47325,-0.0511434,1.79719,1.94184,0.328234,0.0220624,2.54301,-0.401251,1.77114,-0.565042
3,2,1,-1.60981,1.67946,0.217969,-1.01084,4.35765,0.130722,0.127348,2.65259,0.0709006,0.384957,0.481341
3,2,1,6.90393,1.27603,0.349979,4.84299,12.4465,-4.65212,-2.15462,0.408255,0.295914,0.0666312,0.4354
3,2,1,3.04491,0.18183,0.111428,2.10543,3.32281,-0.49945,-3.78487,-7.88748,0.444834,-4.36795,-4.01116
3,2,1,2.91407,0.251062,0.0435786,2.27032,0.308764,1.59867,0.766589,0.134898,0.475285,0.00569166,0.326702
3,2,1,1.44846,0.205113,0.0448314,1.45909,1.93039,0.286882,0.0586866,1.17886,1.39166,-0.600981,0.0448012
3,2,1,-0.702729,1.84783,-0.00894741,-12.1377,-140.908,-69.0514,-27.175,-146.219,-4.51728,-0.14351,-3.88527
3,2,1,4.2004,0.255152,0.0750175,2.63627,-1.17866,1.67307,0.209535,-1.03514,0.371915,0.0747402,0.498851
3,2,1,3.28015,0.190841,0.175032,2.31848,-0.821253,-1.83022,1.5009,-1.6155,0.417221,-0.0239081,0.360136
3,2,1,2.0525,0.0719707,0.0148549,2.1486,2.00198,1.73479,2.09334,1.44082,0.954066,0.00952719,-0.152697
3,2,1,3.31406,0.407717,0.0380361,2.47187,-0.266021,-1.73458,0.970613,-1.79463,0.415264,-0.0144649,0.374956
3,2,1,6.25099,-3.17047,1.46865,-0.279767,-2.91952,-0.395169,-0.0444215,-3.76202,-0.00491872,-1.23429,-0.425145
3,2,1,1.59636,0.096013,0.0630313,0.826005,1.46151,0.077228,0.0482484,1.68899,-0.289647,1.15304,-0.0688712
3,2,1,33.0172,0.520442,0.135338,28.5555,-3.97298,-0.0574545,-0.0193135,3.34452,0.297691,-5.9863,6.38072
3,2,1,2.32742,0.056139,0.0279748,2.30198,0.254535,0.117712,2.12797,1.7883,0.827797,-0.00209653,-0.0205758
3,2,1,-1.76524,-0.0296866,-0.00748622,-2.47523,4.4267,-0.377196,-4.83785,1.3517,-2.37434,-0.00716866,-1.55224
3,2,1,1.2047,-1.47491,1.03821,1.50617,3.23679,0.3845,-0.018138,2.47251,0.0419137,0.407618,0.357451
3,2,1,3.93828,-0.00820725,-0.00812648,-1.1651,2.06372,0.114124,0.0339398,2.70327,-0.0635318,1.17159,-0.373077
Workload Information:
4.72634, 0.80643, 0.600421, 1.23093, 2.15829, 2.47759, 3.25176, 2.58534, 1.64973, 2.0288, 1.88653, 0.597842, 1.91945, 1.94999, 2.05017, 1.85901, 2.36346, 1.85793, 2.62763, 2.40449, 2.67466, 0.5, 1.80273, 1.99049, 2.14438, 2.14645, 2.18921, 1.95719, 1.9618, 1.60097, 2.16001, 2.59673, 2.04742, 0.800318, 2.34858, 2.04694, 1.76921, 1.80511, 2.51634, 2.22796, 2.43494, 1.24643, 0.85042, 3.01765, 3.33737, 2.13918, 0.686134, 1.96925, 2.62422, 0.758929, 3.07115, 3.19422, 1.85148, 0.5, 3.25117, 0.5, 2.13828, 2.05464, 0.871231, 3.18467, 0.5, 4.79118, 2.3423, 1.0173, 0.921258, 2.42797, 2.31006, 0.5, 0.900488, 2.03999, 1.26812, 4.98134, 1.20626, 1.02555, 2.49961, 3.90973, 0.5, 2.85885, 3.30362, 1.02483, 4.52109, 1.30459, 1.34587, 0.5, 24.6396, 13.1308, 29.8871, 35, 11.4149, 17.9277, 35, 17.8207, 12.66, 17.2125, 20.6874, 28.6195, 1.5002, 2.785, 2.02919, 0.5, 2.24496, 2.94065, 0.5, 2.26738, 2.18001, 3.9793, 2.06294, 1.01036, 2.04474, 3.11418, 2.55831, 0.817484, 2.63524, 0.830046, 2.68802, 2.26018, 1.61054, 2.75781, 1.61053, 1.07294, 9.13066, 8.39748, 33.7156, 22.5257, 35, 23.2305, 3.46287, 1.9553, 0.992387, 0.5, 2.10496, 2.98448, 7.55319, 34.9071, 26.2854, 16.0863, 35, 12.168, 6.05281, 1.9006, 0.5, 1.33709, 0.978716, 1.23078, 1.41619, 2.43974, 0.5, 2.25508, 2.44977, 2.93921, 2.64417, 3.45957, 3.78676, 0.693863, 0.5, 0.915637, 26.8552, 16.3454, 35, 16.1199, 19.8227, 17.8569, 31.4681, 6.23997, 11.1457, 30.1129, 28.0174, 25.016, 23.7705, 22.3787, 15.8532, 24.7516, 24.2344, 21.0116, 1.42575, 3.09505, 2.82666, 0.5, 3.251, 0.901542, 3.97766, 0.5, 2.30717, 3.18453, 0.871821, 1.15882, 0.5, 2.72857, 3.21968, 1.24734, 2.21887, 2.08554, 1.81881, 2.13962, 2.25394, 1.93487, 1.76174, 2.09102, 2.15055, 5.67218, 0.985286, 1.26879, 1.05214, 0.871061, 1.16524, 3.72741, 4.03229, 0.946942, 0.72869, 1.39942, 2.26744, 2.29021, 1.91601, 1.80106, 1.47367, 2.2516, 1.92586, 2.21324, 1.73742, 1.86003, 2.05943, 2.20403, 2.09886, 1.98844, 1.88776, 1.71861, 2.16756, 2.13876, 2.69924, 1.5634, 2.49374, 1.96284, 2.78078, 0.5, 2.3516, 1.66845, 0.5, 1.39727, 2.45327, 3.62942, 2.14902, 1.80381, 1.75116, 2.42663, 0.5, 3.36939, 3.76519, 1.47279, 2.47116, 0.5, 2.89601, 0.894846, 1.82126, 2.34338, 3.42483, 0.888116, 1.28338, 2.23904, 3.35174, 0.527017, 0.989456, 1.61285, 2.28852, 3.23043, 2.36367, 2.37168, 1.78575, 1.28309, 2.05796, 2.13786, 2.33386, 2.13722, 1.05973, 2.2291, 2.35209, 1.888, 1.40055, 2.12991, 2.06404, 2.33329, 1.94813, 2.12407, 1.29112, 2.82369, 1.55113, 1.56719, 2.86181, 1.90506
cpi min/max: 0.5/35
neighbors of 0: 1 6, number of others: 45
neighbors of 1: 0 2 6 7, number of others: 43
neighbors of 2: 1 3 7 8, number of others: 43
neighbors of 3: 2 4 8 9, number of others: 43
neighbors of 4: 3 5 9 10, number of others: 43
neighbors of 5: 4 10 11, number of others: 44
neighbors of 6: 0 1 7 12, number of others: 43
neighbors of 7: 1 2 6 8 12 13, number of others: 41
neighbors of 8: 2 3 7 9 13 14, number of others: 41
neighbors of 9: 3 4 8 10 14 15, number of others: 41
neighbors of 10: 4 5 9 11 15 16, number of others: 41
neighbors of 11: 5 10 16 17, number of others: 43
neighbors of 12: 6 7 13 18, number of others: 43
neighbors of 13: 7 8 12 14 18 19, number of others: 41
neighbors of 14: 8 9 13 15 19 20, number of others: 41
neighbors of 15: 9 10 14 16 20 21, number of others: 41
neighbors of 16: 10 11 15 17 21 22, number of others: 41
neighbors of 17: 11 16 22 23, number of others: 43
neighbors of 18: 12 13 19 24, number of others: 43
neighbors of 19: 13 14 18 20 24 25, number of others: 41
neighbors of 20: 14 15 19 21 25 26, number of others: 41
neighbors of 21: 15 16 20 22 26 27, number of others: 41
neighbors of 22: 16 17 21 23 27 28, number of others: 41
neighbors of 23: 17 22 28 29, number of others: 43
neighbors of 24: 18 19 25 30, number of others: 43
neighbors of 25: 19 20 24 26 30 31, number of others: 41
neighbors of 26: 20 21 25 27 31 32, number of others: 41
neighbors of 27: 21 22 26 28 32 33, number of others: 41
neighbors of 28: 22 23 27 29 33 34, number of others: 41
neighbors of 29: 23 28 34 35, number of others: 43
neighbors of 30: 24 25 31 36, number of others: 43
neighbors of 31: 25 26 30 32 36 37, number of others: 41
neighbors of 32: 26 27 31 33 37 38, number of others: 41
neighbors of 33: 27 28 32 34 38 39, number of others: 41
neighbors of 34: 28 29 33 35 39 40, number of others: 41
neighbors of 35: 29 34 40 41, number of others: 43
neighbors of 36: 30 31 37 42, number of others: 43
neighbors of 37: 31 32 36 38 42 43, number of others: 41
neighbors of 38: 32 33 37 39 43 44, number of others: 41
neighbors of 39: 33 34 38 40 44 45, number of others: 41
neighbors of 40: 34 35 39 41 45 46, number of others: 41
neighbors of 41: 35 40 46 47, number of others: 43
neighbors of 42: 36 37 43, number of others: 44
neighbors of 43: 37 38 42 44, number of others: 43
neighbors of 44: 38 39 43 45, number of others: 43
neighbors of 45: 39 40 44 46, number of others: 43
neighbors of 46: 40 41 45 47, number of others: 43
neighbors of 47: 41 46, number of others: 45
Run model...
Preprocess model 0% ...Preprocess model 16% ...Preprocess model 32% ...Preprocess model 48% ...Preprocess model 66% ...Preprocess model 84% ...Preprocess model 100% ...
Close model 0% ...Close model 9% ...Close model 18% ...Close model 27% ...Close model 36% ...Close model 45% ...Close model 54% ...Close model 63% ...Close model 72% ...Close model 81% ...Close model 91% ...Close model 100% ...
Run param...
Run solver...
Initialize threads 0% ...Initialize threads 100% ...
Push initial solutions 0% ...Push initial solutions 100% ...

Model: 
  expressions = 30662, operands = 74976
  decisions = 13824, constraints = 336, objectives = 1

Param: 
  time limit = 90 sec, no iteration limit
  seed = 501, nb threads = 1, annealing level = 1

Objectives:
  Obj 0: maximize, no bound

Phases:
  Phase 0: time limit = 90 sec, no iteration limit, optimized objective = 0


Computed bounds:
  Obj 0: upper bound = 0.650128


Phase 0:
[0 sec, 0 itr]: infeas = (336, 336, 576), mov = 0, inf < 0.1%, acc < 0.1%, imp = 0

worst case efficiency: 0.965273
[1 sec, 1825 itr]: infeas = (69, 69, 98), mov = 1825, inf = 70.9%, acc = 26.2%, imp = 117

worst case efficiency: 0.635628
[2 sec, 19082 itr]: obj = (0.0831413), mov = 19082, inf = 92.3%, acc = 6.2%, imp = 184

worst case efficiency: 0.649885
[3 sec, 36334 itr]: obj = (0.0973506), mov = 36334, inf = 95.9%, acc = 3.4%, imp = 212

worst case efficiency: 0.65841
[4 sec, 49100 itr]: obj = (0.125777), mov = 49100, inf = 96.9%, acc = 2.5%, imp = 237

worst case efficiency: 0.675466
[5 sec, 59708 itr]: obj = (0.140259), mov = 59708, inf = 97.4%, acc = 2.1%, imp = 259

worst case efficiency: 0.684155
[6 sec, 67594 itr]: obj = (0.152081), mov = 67594, inf = 97.7%, acc = 1.9%, imp = 291

worst case efficiency: 0.691249
[7 sec, 73954 itr]: obj = (0.155318), mov = 73954, inf = 97.9%, acc = 1.8%, imp = 311

worst case efficiency: 0.693191
[8 sec, 79070 itr]: obj = (0.173548), mov = 79070, inf = 98%, acc = 1.7%, imp = 333

worst case efficiency: 0.704129
[9 sec, 83855 itr]: obj = (0.179912), mov = 83855, inf = 98.1%, acc = 1.7%, imp = 356

worst case efficiency: 0.707947
[10 sec, 88237 itr]: obj = (0.18347), mov = 88237, inf = 98.1%, acc = 1.6%, imp = 378

worst case efficiency: 0.710082
[11 sec, 92626 itr]: obj = (0.192133), mov = 92626, inf = 98.2%, acc = 1.5%, imp = 396

worst case efficiency: 0.71528
[12 sec, 96990 itr]: obj = (0.195954), mov = 96990, inf = 98.3%, acc = 1.5%, imp = 409

worst case efficiency: 0.717572
[13 sec, 101416 itr]: obj = (0.203193), mov = 101416, inf = 98.3%, acc = 1.5%, imp = 432

worst case efficiency: 0.721916
[14 sec, 105635 itr]: obj = (0.207674), mov = 105635, inf = 98.4%, acc = 1.4%, imp = 448

worst case efficiency: 0.724604
[15 sec, 109754 itr]: obj = (0.210121), mov = 109754, inf = 98.4%, acc = 1.4%, imp = 466

worst case efficiency: 0.726072
[16 sec, 113718 itr]: obj = (0.21559), mov = 113718, inf = 98.5%, acc = 1.4%, imp = 489

worst case efficiency: 0.729354
[17 sec, 117227 itr]: obj = (0.230133), mov = 117227, inf = 98.5%, acc = 1.3%, imp = 518

worst case efficiency: 0.73808
[18 sec, 120808 itr]: obj = (0.236096), mov = 120808, inf = 98.5%, acc = 1.3%, imp = 537

worst case efficiency: 0.741657
[19 sec, 124684 itr]: obj = (0.237522), mov = 124684, inf = 98.6%, acc = 1.3%, imp = 556

worst case efficiency: 0.742513
[20 sec, 128413 itr]: obj = (0.243717), mov = 128413, inf = 98.6%, acc = 1.3%, imp = 588

worst case efficiency: 0.74623
[21 sec, 132288 itr]: obj = (0.248101), mov = 132288, inf = 98.6%, acc = 1.3%, imp = 602

worst case efficiency: 0.748861
[22 sec, 136155 itr]: obj = (0.250905), mov = 136155, inf = 98.6%, acc = 1.2%, imp = 617

worst case efficiency: 0.750543
[23 sec, 139908 itr]: obj = (0.258418), mov = 139908, inf = 98.7%, acc = 1.2%, imp = 638

worst case efficiency: 0.755051
[24 sec, 143285 itr]: obj = (0.2601), mov = 143285, inf = 98.7%, acc = 1.2%, imp = 653

worst case efficiency: 0.75606
[25 sec, 147279 itr]: obj = (0.261073), mov = 147279, inf = 98.7%, acc = 1.2%, imp = 664

worst case efficiency: 0.756644
[26 sec, 151350 itr]: obj = (0.261154), mov = 151350, inf = 98.7%, acc = 1.1%, imp = 668

worst case efficiency: 0.756692
[27 sec, 155726 itr]: obj = (0.261154), mov = 155726, inf = 98.8%, acc = 1.1%, imp = 668

worst case efficiency: 0.756692
[28 sec, 160596 itr]: obj = (0.261154), mov = 160596, inf = 98.8%, acc = 1.1%, imp = 668

worst case efficiency: 0.756692
[29 sec, 165936 itr]: obj = (0.261154), mov = 165936, inf = 98.9%, acc = 1%, imp = 668

worst case efficiency: 0.756692
[30 sec, 172009 itr]: obj = (0.261154), mov = 172009, inf = 98.9%, acc = 1%, imp = 668

worst case efficiency: 0.756692
[31 sec, 178516 itr]: obj = (0.261154), mov = 178516, inf = 98.9%, acc = 1%, imp = 668

worst case efficiency: 0.756692
[32 sec, 186224 itr]: obj = (0.261154), mov = 186224, inf = 99%, acc = 0.9%, imp = 668

worst case efficiency: 0.756692
[33 sec, 194063 itr]: obj = (0.261154), mov = 194063, inf = 99%, acc = 0.9%, imp = 668

worst case efficiency: 0.756692
[34 sec, 209141 itr]: obj = (0.261154), mov = 209141, inf = 99.1%, acc = 0.8%, imp = 668

worst case efficiency: 0.756692
[35 sec, 235442 itr]: obj = (0.261154), mov = 235442, inf = 99.2%, acc = 0.8%, imp = 668

worst case efficiency: 0.756692
[36 sec, 259541 itr]: obj = (0.261154), mov = 259541, inf = 99.3%, acc = 0.7%, imp = 668

worst case efficiency: 0.756692
[37 sec, 274057 itr]: obj = (0.261154), mov = 274057, inf = 99.3%, acc = 0.7%, imp = 668

worst case efficiency: 0.756692
[38 sec, 286341 itr]: obj = (0.261154), mov = 286341, inf = 99.4%, acc = 0.6%, imp = 668

worst case efficiency: 0.756692
[39 sec, 300603 itr]: obj = (0.261154), mov = 300603, inf = 99.4%, acc = 0.6%, imp = 668

worst case efficiency: 0.756692
[40 sec, 313138 itr]: obj = (0.261154), mov = 313138, inf = 99.4%, acc = 0.6%, imp = 668

worst case efficiency: 0.756692
[41 sec, 326507 itr]: obj = (0.261154), mov = 326507, inf = 99.4%, acc = 0.6%, imp = 668

worst case efficiency: 0.756692
[42 sec, 339159 itr]: obj = (0.261154), mov = 339159, inf = 99.5%, acc = 0.5%, imp = 668

worst case efficiency: 0.756692
[43 sec, 352291 itr]: obj = (0.261154), mov = 352291, inf = 99.5%, acc = 0.5%, imp = 668

worst case efficiency: 0.756692
[44 sec, 365117 itr]: obj = (0.261154), mov = 365117, inf = 99.5%, acc = 0.5%, imp = 668

worst case efficiency: 0.756692
[45 sec, 379114 itr]: obj = (0.261154), mov = 379114, inf = 99.5%, acc = 0.5%, imp = 668

worst case efficiency: 0.756692
[46 sec, 393840 itr]: obj = (0.261154), mov = 393840, inf = 99.5%, acc = 0.5%, imp = 668

worst case efficiency: 0.756692
[47 sec, 407785 itr]: obj = (0.261154), mov = 407785, inf = 99.6%, acc = 0.5%, imp = 668

worst case efficiency: 0.756692
[48 sec, 422572 itr]: obj = (0.261154), mov = 422572, inf = 99.6%, acc = 0.4%, imp = 668

worst case efficiency: 0.756692
[49 sec, 436954 itr]: obj = (0.261154), mov = 436954, inf = 99.6%, acc = 0.4%, imp = 668

worst case efficiency: 0.756692
[50 sec, 451838 itr]: obj = (0.261154), mov = 451838, inf = 99.6%, acc = 0.4%, imp = 668

worst case efficiency: 0.756692
[51 sec, 465866 itr]: obj = (0.261154), mov = 465866, inf = 99.6%, acc = 0.4%, imp = 668

worst case efficiency: 0.756692
[52 sec, 479949 itr]: obj = (0.261154), mov = 479949, inf = 99.6%, acc = 0.4%, imp = 668

worst case efficiency: 0.756692
[53 sec, 494487 itr]: obj = (0.261154), mov = 494487, inf = 99.6%, acc = 0.4%, imp = 668

worst case efficiency: 0.756692
[54 sec, 508997 itr]: obj = (0.261154), mov = 508997, inf = 99.7%, acc = 0.4%, imp = 668

worst case efficiency: 0.756692
[55 sec, 522037 itr]: obj = (0.261154), mov = 522037, inf = 99.7%, acc = 0.4%, imp = 668

worst case efficiency: 0.756692
[56 sec, 534729 itr]: obj = (0.261154), mov = 534729, inf = 99.7%, acc = 0.4%, imp = 668

worst case efficiency: 0.756692
[57 sec, 548113 itr]: obj = (0.261154), mov = 548113, inf = 99.7%, acc = 0.4%, imp = 668

worst case efficiency: 0.756692
[58 sec, 562973 itr]: obj = (0.261154), mov = 562973, inf = 99.7%, acc = 0.4%, imp = 668

worst case efficiency: 0.756692
[59 sec, 577572 itr]: obj = (0.261154), mov = 577572, inf = 99.7%, acc = 0.3%, imp = 668

worst case efficiency: 0.756692
[60 sec, 592501 itr]: obj = (0.261154), mov = 592501, inf = 99.7%, acc = 0.3%, imp = 668

worst case efficiency: 0.756692
[61 sec, 607033 itr]: obj = (0.261154), mov = 607033, inf = 99.7%, acc = 0.3%, imp = 668

worst case efficiency: 0.756692
[62 sec, 621881 itr]: obj = (0.261154), mov = 621881, inf = 99.7%, acc = 0.3%, imp = 668

worst case efficiency: 0.756692
[63 sec, 636757 itr]: obj = (0.261154), mov = 636757, inf = 99.7%, acc = 0.3%, imp = 668

worst case efficiency: 0.756692
[64 sec, 651623 itr]: obj = (0.261154), mov = 651623, inf = 99.7%, acc = 0.3%, imp = 668

worst case efficiency: 0.756692
[65 sec, 666419 itr]: obj = (0.261154), mov = 666419, inf = 99.7%, acc = 0.3%, imp = 668

worst case efficiency: 0.756692
[66 sec, 681247 itr]: obj = (0.261154), mov = 681247, inf = 99.8%, acc = 0.3%, imp = 668

worst case efficiency: 0.756692
[67 sec, 695827 itr]: obj = (0.261154), mov = 695827, inf = 99.8%, acc = 0.3%, imp = 668

worst case efficiency: 0.756692
[68 sec, 711037 itr]: obj = (0.261154), mov = 711037, inf = 99.8%, acc = 0.3%, imp = 668

worst case efficiency: 0.756692
[69 sec, 725411 itr]: obj = (0.261154), mov = 725411, inf = 99.8%, acc = 0.3%, imp = 668

worst case efficiency: 0.756692
[70 sec, 740559 itr]: obj = (0.261154), mov = 740559, inf = 99.8%, acc = 0.3%, imp = 668

worst case efficiency: 0.756692
[71 sec, 755765 itr]: obj = (0.261154), mov = 755765, inf = 99.8%, acc = 0.3%, imp = 668

worst case efficiency: 0.756692
[72 sec, 770261 itr]: obj = (0.261154), mov = 770261, inf = 99.8%, acc = 0.3%, imp = 668

worst case efficiency: 0.756692
[73 sec, 785345 itr]: obj = (0.261154), mov = 785345, inf = 99.8%, acc = 0.3%, imp = 668

worst case efficiency: 0.756692
[74 sec, 800486 itr]: obj = (0.261154), mov = 800486, inf = 99.8%, acc = 0.3%, imp = 668

worst case efficiency: 0.756692
[75 sec, 815462 itr]: obj = (0.261154), mov = 815462, inf = 99.8%, acc = 0.3%, imp = 668

worst case efficiency: 0.756692
[76 sec, 830835 itr]: obj = (0.261154), mov = 830835, inf = 99.8%, acc = 0.3%, imp = 668

worst case efficiency: 0.756692
[77 sec, 845074 itr]: obj = (0.261154), mov = 845074, inf = 99.8%, acc = 0.3%, imp = 668

worst case efficiency: 0.756692
[78 sec, 860026 itr]: obj = (0.261154), mov = 860026, inf = 99.8%, acc = 0.3%, imp = 668

worst case efficiency: 0.756692
[79 sec, 874568 itr]: obj = (0.261154), mov = 874568, inf = 99.8%, acc = 0.2%, imp = 668

worst case efficiency: 0.756692
[80 sec, 888247 itr]: obj = (0.261154), mov = 888247, inf = 99.8%, acc = 0.2%, imp = 668

worst case efficiency: 0.756692
[81 sec, 901598 itr]: obj = (0.261154), mov = 901598, inf = 99.8%, acc = 0.2%, imp = 668

worst case efficiency: 0.756692
[82 sec, 914003 itr]: obj = (0.261154), mov = 914003, inf = 99.8%, acc = 0.2%, imp = 668

worst case efficiency: 0.756692
[83 sec, 927763 itr]: obj = (0.261154), mov = 927763, inf = 99.8%, acc = 0.2%, imp = 668

worst case efficiency: 0.756692
[84 sec, 942383 itr]: obj = (0.261154), mov = 942383, inf = 99.8%, acc = 0.2%, imp = 668

worst case efficiency: 0.756692
[85 sec, 956242 itr]: obj = (0.261154), mov = 956242, inf = 99.8%, acc = 0.2%, imp = 668

worst case efficiency: 0.756692
[86 sec, 968984 itr]: obj = (0.261154), mov = 968984, inf = 99.8%, acc = 0.2%, imp = 668

worst case efficiency: 0.756692
[87 sec, 982417 itr]: obj = (0.261154), mov = 982417, inf = 99.8%, acc = 0.2%, imp = 668

worst case efficiency: 0.756692
[88 sec, 996093 itr]: obj = (0.261154), mov = 996093, inf = 99.8%, acc = 0.2%, imp = 668

worst case efficiency: 0.756692
[89 sec, 1009856 itr]: obj = (0.261154), mov = 1009856, inf = 99.8%, acc = 0.2%, imp = 668

worst case efficiency: 0.756692
[90 sec, 1024524 itr]: obj = (0.261154), mov = 1024524, inf = 99.8%, acc = 0.2%, imp = 668

worst case efficiency: 0.756692
[90 sec, 1024524 itr]: obj = (0.261154), mov = 1024524, inf = 99.8%, acc = 0.2%, imp = 668

worst case efficiency: 0.756692
1024524 iterations, 1024524 moves performed in 90 seconds
Feasible solution: obj = (0.261154)

Run output...
FINAL SOLUTION
Worst case efficiency: 0.756692
Mapping: 0->46, 1->0, 2->1, 3->41, 4->10, 5->27, 6->33, 7->11, 8->37, 9->16, 10->19, 11->35, 12->17, 13->8, 14->18, 15->8, 16->10, 17->4, 18->18, 19->36, 20->44, 21->35, 22->44, 23->5, 24->34, 25->13, 26->44, 27->13, 28->1, 29->29, 30->23, 31->34, 32->0, 33->30, 34->34, 35->19, 36->0, 37->32, 38->13, 39->20, 40->25, 41->18, 42->2, 43->38, 44->42, 45->42, 46->4, 47->11, 48->36, 49->6, 50->33, 51->22, 52->29, 53->23, 54->15, 55->41, 56->41, 57->3, 58->43, 59->21, 60->30, 61->22, 62->22, 63->6, 64->0, 65->22, 66->18, 67->30, 68->8, 69->3, 70->43, 71->16, 72->35, 73->37, 74->39, 75->17, 76->19, 77->38, 78->34, 79->11, 80->39, 81->24, 82->19, 83->0, 84->11, 85->8, 86->21, 87->15, 88->43, 89->38, 90->27, 91->20, 92->45, 93->12, 94->14, 95->10, 96->42, 97->36, 98->23, 99->2, 100->9, 101->12, 102->1, 103->37, 104->10, 105->28, 106->9, 107->1, 108->29, 109->33, 110->47, 111->5, 112->22, 113->36, 114->21, 115->40, 116->36, 117->47, 118->3, 119->27, 120->14, 121->39, 122->15, 123->9, 124->38, 125->28, 126->39, 127->23, 128->12, 129->6, 130->47, 131->32, 132->16, 133->19, 134->26, 135->14, 136->15, 137->21, 138->16, 139->10, 140->23, 141->26, 142->42, 143->40, 144->28, 145->37, 146->6, 147->4, 148->26, 149->25, 150->9, 151->40, 152->25, 153->35, 154->5, 155->7, 156->7, 157->22, 158->32, 159->47, 160->40, 161->33, 162->14, 163->31, 164->46, 165->13, 166->34, 167->10, 168->44, 169->37, 170->21, 171->31, 172->25, 173->27, 174->28, 175->43, 176->13, 177->6, 178->46, 179->23, 180->33, 181->5, 182->45, 183->40, 184->46, 185->25, 186->24, 187->41, 188->45, 189->34, 190->26, 191->24, 192->26, 193->43, 194->32, 195->20, 196->17, 197->41, 198->46, 199->16, 200->31, 201->25, 202->6, 203->30, 204->31, 205->17, 206->45, 207->14, 208->2, 209->2, 210->3, 211->20, 212->43, 213->31, 214->7, 215->32, 216->1, 217->27, 218->7, 219->20, 220->27, 221->31, 222->45, 223->44, 224->5, 225->41, 226->47, 227->18, 228->38, 229->1, 230->32, 231->39, 232->15, 233->0, 234->44, 235->12, 236->24, 237->47, 238->2, 239->26, 240->8, 241->7, 242->2, 243->21, 244->13, 245->19, 246->7, 247->12, 248->40, 249->18, 250->17, 251->29, 252->17, 253->9, 254->20, 255->3, 256->24, 257->4, 258->37, 259->29, 260->9, 261->15, 262->30, 263->14, 264->12, 265->11, 266->8, 267->35, 268->4, 269->4, 270->24, 271->42, 272->35, 273->38, 274->11, 275->46, 276->29, 277->42, 278->28, 279->33, 280->3, 281->39, 282->36, 283->28, 284->45, 285->30, 286->16, 287->5
Number of tasks per core:
	6	6	6	6	6	6
	6	6	6	6	6	6
	6	6	6	6	6	6
	6	6	6	6	6	6
	6	6	6	6	6	6
	6	6	6	6	6	6
	6	6	6	6	6	6
	6	6	6	6	6	6
Average CPI map:
	1.09072	1.26031	1.28049	1.80147	1.87233	1.2668
	0.721395	6.09182	3.62917	5.46844	10.373	5.82379
	4.44174	6.67659	13.5916	18.5601	4.85835	2.6726
	1.81218	7.34264	4.92643	11.0346	5.28938	1.34101
	1.33456	5.97048	6.28989	10.6391	5.82324	1.3866
	1.08785	6.1912	7.79815	5.60082	6.60967	0.89013
	1.92424	5.51881	10.6221	3.82799	5.40482	1.73457
	2.0371	3.45083	5.79619	4.31152	4.00556	4.51763
Efficiency map:
	0.996734	0.934494	0.908879	0.943437	0.958664	0.99585
	0.788396	0.839068	0.757711	0.816031	0.955644	0.959987
	0.934116	0.773196	0.978045	0.99683	0.756692	0.859756
	0.833614	0.835978	0.759044	0.938419	0.825103	0.811793
	0.810131	0.826639	0.778545	0.940351	0.779796	0.774528
	0.77407	0.769188	0.816294	0.769348	0.842459	0.791655
	0.871815	0.756692	0.942607	0.758228	0.7832	0.823679
	0.850821	0.950677	0.864256	0.805394	0.756769	0.925458
==============================================================================
Local Solver optimizer for EML demonstration
==============================================================================

Option values: --wld-idx 9 --global-tlim 90 --seed 501

Starting the Optimization Process
