LocalSolver 4.0 (MacOS64, build 20131224)
Copyright (C) 2013 Bouygues SA, Aix-Marseille University, CNRS.
All rights reserved (see Terms and Conditions for details).

Load localsolver_res/tawd_ls.lsp...
Run input...
ANNs For the Platform:
3,2,1,0.413586,-0.0266769,-0.0683771,-5.1002,70.5254,-0.257939,-72.3361,-14.3957,-55.9961,0.000416225,-55.1984
3,2,1,7.29748,1.94844,3.18138,9.63196,-4.67735,-4.13678,1.22405,-8.03403,0.0803394,-0.125838,0.598848
3,2,1,6.43996,0.383984,0.598454,7.79024,-4.25175,0.123161,-0.278344,-5.71253,1.47885,1.00258,0.327892
3,2,1,3.45395,0.140329,0.51254,4.25255,4.08469,0.00326531,0.722664,3.88666,1.2829,-0.290289,-0.187123
3,2,1,1.76581,-0.7465,16.0398,1.01103,2.42771,0.96084,1.00318,4.14242,-0.00284347,0.244904,0.56299
3,2,1,1.87058,0.359859,-0.0851999,0.818043,3.18969,0.847611,-7.29654,-2.24823,0.00245596,0.000486788,0.794563
3,2,1,3.28113,0.579268,0.142679,3.72653,-0.240895,-0.149383,25.0414,7.13641,0.488705,-0.00083541,0.320468
3,2,1,-4.78997,-2.53518,1.7971,11.1628,-3.08773,-0.470276,-0.0894822,-2.63871,1.46314,-0.463195,-1.12076
3,2,1,-0.392198,-0.00544948,0.0100489,-0.634573,-1.21109,-0.0856362,-0.013156,-1.60668,1.54201,-2.33195,-0.462253
3,2,1,3.15031,0.401017,0.160161,2.51156,5.71314,0.59291,-11.6364,2.59774,0.430465,0.00737346,0.36306
3,2,1,2.64111,0.312028,0.0803827,2.35273,-4.25958,3.48188,-1.59773,-1.57632,0.565527,0.0271972,0.266241
3,2,1,2.2658,0.0425076,0.0191991,-0.583848,2.82415,0.533705,0.0754136,3.33659,-0.0169351,0.54785,0.257008
3,2,1,6.01014,0.654767,0.24854,5.54419,5.68574,0.00137666,0.00103835,-1.46229,0.258518,0.00962319,0.54621
3,2,1,-0.828282,0.684875,0.223674,-1.44779,5.0064,0.272371,0.00344824,2.89438,0.397142,0.379767,0.797684
3,2,1,-0.166745,-1.25514,-0.967701,-3.82155,3.34568,0.34907,0.176897,2.37943,0.567319,0.42026,0.93611
3,2,1,-10.035,3.55243,8.66202,-21.5626,10.92,0.228744,0.12852,5.40188,0.871264,0.345634,1.3209
3,2,1,4.50278,0.709934,0.227356,3.41616,1.455,0.115548,0.0125181,-1.15221,0.345467,0.222127,0.602264
3,2,1,3.51765,0.552987,0.202187,3.41883,0.53704,0.0709757,-0.0346297,-0.38017,0.320095,-0.0397752,0.474568
3,2,1,3.62936,0.506661,0.201819,3.49179,3.4019,-3.09955,1.3332,0.961184,0.32649,-0.0126443,0.488413
3,2,1,3.50925,0.448618,0.127508,2.4823,1.78455,1.6893,1.46456,-0.207671,0.400287,0.00684206,0.402337
3,2,1,-0.52883,0.00691432,0.00617163,-0.194006,1.73284,0.0488672,0.0179273,1.25978,0.716787,0.92667,0.162242
3,2,1,2.48239,0.190378,0.120167,1.91689,1.21532,1.48543,0.644574,2.68198,0.547395,-0.0744913,0.328097
3,2,1,2.55861,2.02297,0.650126,2.19109,2.44652,0.0836318,0.0133745,2.4369,0.0418722,0.798841,-0.0334834
3,2,1,5.07371,0.556895,0.217981,4.66725,-0.00829845,-0.00544544,0.00934569,-0.672651,0.280461,-0.520981,0.217266
3,2,1,1.56588,0.201966,0.0665967,1.82578,1.97654,0.236717,0.0903453,1.08195,1.02748,-0.229836,0.011785
3,2,1,2.41728,0.208205,-0.0012583,2.05484,1.41976,-1.30194,1.45365,1.79277,0.56727,0.031184,0.207229
3,2,1,3.71833,0.202336,0.172606,2.43155,5.03284,0.375118,-0.790998,-3.83455,0.400925,0.372075,0.754779
3,2,1,-1.25583,1.47411,0.819895,-2.78448,4.36107,0.113478,0.107247,2.55416,0.385214,0.384141,0.797017
3,2,1,1.71562,-0.478906,-0.61026,-1.17859,3.1361,0.360865,0.0914124,2.2536,-0.0127033,0.431384,0.365879
3,2,1,-1.75501,-0.0880109,-0.026461,-2.68365,2.88327,0.072433,0.0245574,1.95701,-5.87306,-0.563325,-4.48698
3,2,1,1.87886,0.47325,-0.0511434,1.79719,1.94184,0.328234,0.0220624,2.54301,-0.401251,1.77114,-0.565042
3,2,1,-1.60981,1.67946,0.217969,-1.01084,4.35765,0.130722,0.127348,2.65259,0.0709006,0.384957,0.481341
3,2,1,6.90393,1.27603,0.349979,4.84299,12.4465,-4.65212,-2.15462,0.408255,0.295914,0.0666312,0.4354
3,2,1,3.04491,0.18183,0.111428,2.10543,3.32281,-0.49945,-3.78487,-7.88748,0.444834,-4.36795,-4.01116
3,2,1,2.91407,0.251062,0.0435786,2.27032,0.308764,1.59867,0.766589,0.134898,0.475285,0.00569166,0.326702
3,2,1,1.44846,0.205113,0.0448314,1.45909,1.93039,0.286882,0.0586866,1.17886,1.39166,-0.600981,0.0448012
3,2,1,-0.702729,1.84783,-0.00894741,-12.1377,-140.908,-69.0514,-27.175,-146.219,-4.51728,-0.14351,-3.88527
3,2,1,4.2004,0.255152,0.0750175,2.63627,-1.17866,1.67307,0.209535,-1.03514,0.371915,0.0747402,0.498851
3,2,1,3.28015,0.190841,0.175032,2.31848,-0.821253,-1.83022,1.5009,-1.6155,0.417221,-0.0239081,0.360136
3,2,1,2.0525,0.0719707,0.0148549,2.1486,2.00198,1.73479,2.09334,1.44082,0.954066,0.00952719,-0.152697
3,2,1,3.31406,0.407717,0.0380361,2.47187,-0.266021,-1.73458,0.970613,-1.79463,0.415264,-0.0144649,0.374956
3,2,1,6.25099,-3.17047,1.46865,-0.279767,-2.91952,-0.395169,-0.0444215,-3.76202,-0.00491872,-1.23429,-0.425145
3,2,1,1.59636,0.096013,0.0630313,0.826005,1.46151,0.077228,0.0482484,1.68899,-0.289647,1.15304,-0.0688712
3,2,1,33.0172,0.520442,0.135338,28.5555,-3.97298,-0.0574545,-0.0193135,3.34452,0.297691,-5.9863,6.38072
3,2,1,2.32742,0.056139,0.0279748,2.30198,0.254535,0.117712,2.12797,1.7883,0.827797,-0.00209653,-0.0205758
3,2,1,-1.76524,-0.0296866,-0.00748622,-2.47523,4.4267,-0.377196,-4.83785,1.3517,-2.37434,-0.00716866,-1.55224
3,2,1,1.2047,-1.47491,1.03821,1.50617,3.23679,0.3845,-0.018138,2.47251,0.0419137,0.407618,0.357451
3,2,1,3.93828,-0.00820725,-0.00812648,-1.1651,2.06372,0.114124,0.0339398,2.70327,-0.0635318,1.17159,-0.373077
Workload Information:
3.1185, 0.5, 0.607702, 3.19726, 2.97682, 1.59972, 1.2667, 0.5, 1.84807, 2.67677, 4.31718, 1.39128, 1.38609, 0.740994, 2.87739, 1.35274, 0.5, 5.14279, 2.03451, 1.58177, 1.99084, 2.24611, 2.47489, 1.67187, 2.29591, 1.95594, 2.15617, 2.23197, 2.12958, 1.23042, 1.90417, 0.952039, 2.77433, 3.27355, 2.59592, 0.5, 2.30129, 2.03152, 1.79238, 2.58658, 2.56517, 0.723053, 1.15921, 2.5037, 3.06571, 0.5, 4.01994, 0.751436, 2.07061, 2.85755, 2.15705, 2.13, 0.5, 2.28479, 0.5, 1.89212, 1.03681, 4.97361, 1.26166, 2.3358, 2.69817, 2.25878, 2.13461, 1.27949, 2.41042, 1.21854, 0.5, 2.91184, 1.75848, 0.602156, 2.03868, 4.18885, 3.17262, 0.836678, 1.13818, 2.52222, 3.8303, 0.5, 2.28779, 1.48897, 1.85023, 2.37186, 2.18497, 1.81617, 3.47157, 0.5, 1.6529, 3.37429, 1.13977, 1.86148, 0.659983, 3.33868, 3.06632, 0.5, 1.68691, 2.7481, 3.04099, 1.37412, 0.5, 1.30755, 2.75621, 3.02113, 2.33381, 1.36575, 1.99757, 2.25412, 2.02993, 2.01883, 23.3234, 11.3647, 20.8728, 35, 31.9616, 9.47742, 17.4741, 30.6184, 1.65074, 35, 12.6022, 34.6546, 22.2602, 32.7888, 24.5756, 28.6538, 20.0375, 3.68398, 1.50353, 1.90833, 2.17959, 2.2546, 2.10717, 2.04678, 1.21772, 0.5, 3.54066, 2.46042, 0.735172, 3.54603, 0.553124, 0.5, 2.27941, 1.90978, 3.50422, 3.25347, 22.0891, 18.8224, 24.2305, 25.6473, 27.3808, 13.83, 3.17025, 3.30664, 2.79629, 0.593973, 1.61461, 0.51823, 18.4125, 26.3241, 23.8043, 11.2281, 24.5957, 27.6354, 1.65389, 0.636179, 3.22803, 3.47817, 2.50373, 0.5, 2.31526, 2.39553, 2.21396, 0.5, 2.08559, 2.48966, 3.2208, 0.708539, 1.15484, 2.55069, 2.18064, 2.18449, 5.55644, 18.2864, 34.1855, 29.3457, 16.0332, 28.5927, 35, 16.9505, 11.0546, 10.5481, 25.3906, 33.0562, 14.4612, 22.5954, 35, 19.9472, 21.931, 18.0652, 2.45174, 1.45843, 2.87827, 3.2761, 0.5, 1.43546, 3.29898, 2.95099, 1.35285, 1.76898, 1.68086, 0.947335, 0.73712, 4.07143, 3.22793, 2.51851, 0.813986, 0.631026, 3.64731, 2.31815, 2.46721, 1.19628, 0.5, 1.87105, 3.39384, 2.72169, 0.935464, 0.5, 2.88208, 1.56692, 3.40934, 1.73601, 2.65717, 2.75577, 0.5, 0.941706, 2.62079, 0.5, 2.58771, 2.08297, 1.81875, 2.38979, 2.53707, 2.16432, 2.21632, 1.37434, 1.3439, 2.36405, 3.73156, 1.77974, 0.728544, 0.5, 2.90481, 2.35535, 0.5, 1.41785, 6.76133, 0.581924, 2.05896, 0.679942, 1.02313, 0.99413, 2.11886, 3.93538, 3.4285, 0.5, 2.09843, 1.83453, 2.19878, 2.24731, 1.88714, 1.7338, 2.19896, 0.845662, 3.11492, 0.865433, 2.44446, 2.53056, 1.83412, 3.42751, 0.87598, 2.87187, 1.11936, 1.87116, 3.03655, 0.5, 2.99289, 1.82857, 2.1193, 1.5227
cpi min/max: 0.5/35
neighbors of 0: 1 6, number of others: 45
neighbors of 1: 0 2 6 7, number of others: 43
neighbors of 2: 1 3 7 8, number of others: 43
neighbors of 3: 2 4 8 9, number of others: 43
neighbors of 4: 3 5 9 10, number of others: 43
neighbors of 5: 4 10 11, number of others: 44
neighbors of 6: 0 1 7 12, number of others: 43
neighbors of 7: 1 2 6 8 12 13, number of others: 41
neighbors of 8: 2 3 7 9 13 14, number of others: 41
neighbors of 9: 3 4 8 10 14 15, number of others: 41
neighbors of 10: 4 5 9 11 15 16, number of others: 41
neighbors of 11: 5 10 16 17, number of others: 43
neighbors of 12: 6 7 13 18, number of others: 43
neighbors of 13: 7 8 12 14 18 19, number of others: 41
neighbors of 14: 8 9 13 15 19 20, number of others: 41
neighbors of 15: 9 10 14 16 20 21, number of others: 41
neighbors of 16: 10 11 15 17 21 22, number of others: 41
neighbors of 17: 11 16 22 23, number of others: 43
neighbors of 18: 12 13 19 24, number of others: 43
neighbors of 19: 13 14 18 20 24 25, number of others: 41
neighbors of 20: 14 15 19 21 25 26, number of others: 41
neighbors of 21: 15 16 20 22 26 27, number of others: 41
neighbors of 22: 16 17 21 23 27 28, number of others: 41
neighbors of 23: 17 22 28 29, number of others: 43
neighbors of 24: 18 19 25 30, number of others: 43
neighbors of 25: 19 20 24 26 30 31, number of others: 41
neighbors of 26: 20 21 25 27 31 32, number of others: 41
neighbors of 27: 21 22 26 28 32 33, number of others: 41
neighbors of 28: 22 23 27 29 33 34, number of others: 41
neighbors of 29: 23 28 34 35, number of others: 43
neighbors of 30: 24 25 31 36, number of others: 43
neighbors of 31: 25 26 30 32 36 37, number of others: 41
neighbors of 32: 26 27 31 33 37 38, number of others: 41
neighbors of 33: 27 28 32 34 38 39, number of others: 41
neighbors of 34: 28 29 33 35 39 40, number of others: 41
neighbors of 35: 29 34 40 41, number of others: 43
neighbors of 36: 30 31 37 42, number of others: 43
neighbors of 37: 31 32 36 38 42 43, number of others: 41
neighbors of 38: 32 33 37 39 43 44, number of others: 41
neighbors of 39: 33 34 38 40 44 45, number of others: 41
neighbors of 40: 34 35 39 41 45 46, number of others: 41
neighbors of 41: 35 40 46 47, number of others: 43
neighbors of 42: 36 37 43, number of others: 44
neighbors of 43: 37 38 42 44, number of others: 43
neighbors of 44: 38 39 43 45, number of others: 43
neighbors of 45: 39 40 44 46, number of others: 43
neighbors of 46: 40 41 45 47, number of others: 43
neighbors of 47: 41 46, number of others: 45
Run model...
Preprocess model 0% ...Preprocess model 16% ...Preprocess model 32% ...Preprocess model 48% ...Preprocess model 66% ...Preprocess model 84% ...Preprocess model 100% ...
Close model 0% ...Close model 9% ...Close model 18% ...Close model 27% ...Close model 36% ...Close model 45% ...Close model 54% ...Close model 63% ...Close model 72% ...Close model 81% ...Close model 91% ...Close model 100% ...
Run param...
Run solver...
Initialize threads 0% ...Initialize threads 100% ...
Push initial solutions 0% ...Push initial solutions 100% ...

Model: 
  expressions = 30658, operands = 74976
  decisions = 13824, constraints = 336, objectives = 1

Param: 
  time limit = 90 sec, no iteration limit
  seed = 801, nb threads = 1, annealing level = 1

Objectives:
  Obj 0: maximize, no bound

Phases:
  Phase 0: time limit = 90 sec, no iteration limit, optimized objective = 0


Computed bounds:
  Obj 0: upper bound = 0.650128


Phase 0:
[0 sec, 0 itr]: infeas = (336, 336, 576), mov = 0, inf < 0.1%, acc < 0.1%, imp = 0

worst case efficiency: 0.965273
[1 sec, 27974 itr]: obj = (0.0808535), mov = 27974, inf = 95.9%, acc = 3.4%, imp = 175

worst case efficiency: 0.648512
[2 sec, 54639 itr]: obj = (0.0822971), mov = 54639, inf = 97.9%, acc = 1.8%, imp = 194

worst case efficiency: 0.649378
[3 sec, 70727 itr]: obj = (0.0822971), mov = 70727, inf = 98.4%, acc = 1.4%, imp = 194

worst case efficiency: 0.649378
[4 sec, 84152 itr]: obj = (0.0822971), mov = 84152, inf = 98.6%, acc = 1.2%, imp = 194

worst case efficiency: 0.649378
[5 sec, 98225 itr]: obj = (0.0822971), mov = 98225, inf = 98.8%, acc = 1%, imp = 194

worst case efficiency: 0.649378
[6 sec, 118469 itr]: obj = (0.0822971), mov = 118469, inf = 99%, acc = 0.9%, imp = 194

worst case efficiency: 0.649378
[7 sec, 145672 itr]: obj = (0.0822971), mov = 145672, inf = 99.2%, acc = 0.7%, imp = 194

worst case efficiency: 0.649378
[8 sec, 160243 itr]: obj = (0.0822971), mov = 160243, inf = 99.3%, acc = 0.7%, imp = 194

worst case efficiency: 0.649378
[9 sec, 171389 itr]: obj = (0.0822971), mov = 171389, inf = 99.4%, acc = 0.6%, imp = 194

worst case efficiency: 0.649378
[10 sec, 184199 itr]: obj = (0.0822971), mov = 184199, inf = 99.4%, acc = 0.6%, imp = 194

worst case efficiency: 0.649378
[11 sec, 196919 itr]: obj = (0.0822971), mov = 196919, inf = 99.4%, acc = 0.5%, imp = 194

worst case efficiency: 0.649378
[12 sec, 209373 itr]: obj = (0.0822971), mov = 209373, inf = 99.5%, acc = 0.5%, imp = 194

worst case efficiency: 0.649378
[13 sec, 221824 itr]: obj = (0.0822971), mov = 221824, inf = 99.5%, acc = 0.5%, imp = 194

worst case efficiency: 0.649378
[14 sec, 232089 itr]: obj = (0.0822971), mov = 232089, inf = 99.5%, acc = 0.5%, imp = 194

worst case efficiency: 0.649378
[15 sec, 242721 itr]: obj = (0.0822971), mov = 242721, inf = 99.6%, acc = 0.4%, imp = 194

worst case efficiency: 0.649378
[16 sec, 255106 itr]: obj = (0.0822971), mov = 255106, inf = 99.6%, acc = 0.4%, imp = 194

worst case efficiency: 0.649378
[17 sec, 266945 itr]: obj = (0.0822971), mov = 266945, inf = 99.6%, acc = 0.4%, imp = 194

worst case efficiency: 0.649378
[18 sec, 278096 itr]: obj = (0.0822971), mov = 278096, inf = 99.6%, acc = 0.4%, imp = 194

worst case efficiency: 0.649378
[19 sec, 288662 itr]: obj = (0.0822971), mov = 288662, inf = 99.6%, acc = 0.4%, imp = 194

worst case efficiency: 0.649378
[20 sec, 299897 itr]: obj = (0.0822971), mov = 299897, inf = 99.6%, acc = 0.4%, imp = 194

worst case efficiency: 0.649378
[21 sec, 312125 itr]: obj = (0.0822971), mov = 312125, inf = 99.7%, acc = 0.4%, imp = 194

worst case efficiency: 0.649378
[22 sec, 324428 itr]: obj = (0.0822971), mov = 324428, inf = 99.7%, acc = 0.3%, imp = 194

worst case efficiency: 0.649378
[23 sec, 336763 itr]: obj = (0.0822971), mov = 336763, inf = 99.7%, acc = 0.3%, imp = 194

worst case efficiency: 0.649378
[24 sec, 348152 itr]: obj = (0.0822971), mov = 348152, inf = 99.7%, acc = 0.3%, imp = 194

worst case efficiency: 0.649378
[25 sec, 360401 itr]: obj = (0.0822971), mov = 360401, inf = 99.7%, acc = 0.3%, imp = 194

worst case efficiency: 0.649378
[26 sec, 371662 itr]: obj = (0.0822971), mov = 371662, inf = 99.7%, acc = 0.3%, imp = 194

worst case efficiency: 0.649378
[27 sec, 384148 itr]: obj = (0.0822971), mov = 384148, inf = 99.7%, acc = 0.3%, imp = 194

worst case efficiency: 0.649378
[28 sec, 396639 itr]: obj = (0.0822971), mov = 396639, inf = 99.7%, acc = 0.3%, imp = 194

worst case efficiency: 0.649378
[29 sec, 408513 itr]: obj = (0.0822971), mov = 408513, inf = 99.8%, acc = 0.3%, imp = 194

worst case efficiency: 0.649378
[30 sec, 419607 itr]: obj = (0.0822971), mov = 419607, inf = 99.8%, acc = 0.3%, imp = 194

worst case efficiency: 0.649378
[31 sec, 432200 itr]: obj = (0.0822971), mov = 432200, inf = 99.8%, acc = 0.3%, imp = 194

worst case efficiency: 0.649378
[32 sec, 443691 itr]: obj = (0.0822971), mov = 443691, inf = 99.8%, acc = 0.3%, imp = 194

worst case efficiency: 0.649378
[33 sec, 455273 itr]: obj = (0.0822971), mov = 455273, inf = 99.8%, acc = 0.3%, imp = 194

worst case efficiency: 0.649378
[34 sec, 465271 itr]: obj = (0.0822971), mov = 465271, inf = 99.8%, acc = 0.3%, imp = 194

worst case efficiency: 0.649378
[35 sec, 477227 itr]: obj = (0.0822971), mov = 477227, inf = 99.8%, acc = 0.3%, imp = 194

worst case efficiency: 0.649378
[36 sec, 489599 itr]: obj = (0.0822971), mov = 489599, inf = 99.8%, acc = 0.2%, imp = 194

worst case efficiency: 0.649378
[37 sec, 500289 itr]: obj = (0.0822971), mov = 500289, inf = 99.8%, acc = 0.2%, imp = 194

worst case efficiency: 0.649378
[38 sec, 512260 itr]: obj = (0.0822971), mov = 512260, inf = 99.8%, acc = 0.2%, imp = 194

worst case efficiency: 0.649378
[39 sec, 524081 itr]: obj = (0.0822971), mov = 524081, inf = 99.8%, acc = 0.2%, imp = 194

worst case efficiency: 0.649378
[40 sec, 535231 itr]: obj = (0.0822971), mov = 535231, inf = 99.8%, acc = 0.2%, imp = 194

worst case efficiency: 0.649378
[41 sec, 546285 itr]: obj = (0.0822971), mov = 546285, inf = 99.8%, acc = 0.2%, imp = 194

worst case efficiency: 0.649378
[42 sec, 553609 itr]: obj = (0.0822971), mov = 553609, inf = 99.8%, acc = 0.2%, imp = 194

worst case efficiency: 0.649378
[43 sec, 563847 itr]: obj = (0.0822971), mov = 563847, inf = 99.8%, acc = 0.2%, imp = 194

worst case efficiency: 0.649378
[44 sec, 573674 itr]: obj = (0.0822971), mov = 573674, inf = 99.8%, acc = 0.2%, imp = 194

worst case efficiency: 0.649378
[45 sec, 580927 itr]: obj = (0.0822971), mov = 580927, inf = 99.8%, acc = 0.2%, imp = 194

worst case efficiency: 0.649378
[46 sec, 589356 itr]: obj = (0.0822971), mov = 589356, inf = 99.8%, acc = 0.2%, imp = 194

worst case efficiency: 0.649378
[47 sec, 597745 itr]: obj = (0.0822971), mov = 597745, inf = 99.8%, acc = 0.2%, imp = 194

worst case efficiency: 0.649378
[48 sec, 609190 itr]: obj = (0.0822971), mov = 609190, inf = 99.9%, acc = 0.2%, imp = 194

worst case efficiency: 0.649378
[49 sec, 620316 itr]: obj = (0.0822971), mov = 620316, inf = 99.9%, acc = 0.2%, imp = 194

worst case efficiency: 0.649378
[50 sec, 631654 itr]: obj = (0.0822971), mov = 631654, inf = 99.9%, acc = 0.2%, imp = 194

worst case efficiency: 0.649378
[51 sec, 641741 itr]: obj = (0.0822971), mov = 641741, inf = 99.9%, acc = 0.2%, imp = 194

worst case efficiency: 0.649378
[52 sec, 651631 itr]: obj = (0.0822971), mov = 651631, inf = 99.9%, acc = 0.2%, imp = 194

worst case efficiency: 0.649378
[53 sec, 661918 itr]: obj = (0.0822971), mov = 661918, inf = 99.9%, acc = 0.2%, imp = 194

worst case efficiency: 0.649378
[54 sec, 673650 itr]: obj = (0.0822971), mov = 673650, inf = 99.9%, acc = 0.2%, imp = 194

worst case efficiency: 0.649378
[55 sec, 684935 itr]: obj = (0.0822971), mov = 684935, inf = 99.9%, acc = 0.2%, imp = 194

worst case efficiency: 0.649378
[56 sec, 696797 itr]: obj = (0.0822971), mov = 696797, inf = 99.9%, acc = 0.2%, imp = 194

worst case efficiency: 0.649378
[57 sec, 708383 itr]: obj = (0.0822971), mov = 708383, inf = 99.9%, acc = 0.2%, imp = 194

worst case efficiency: 0.649378
[58 sec, 719829 itr]: obj = (0.0822971), mov = 719829, inf = 99.9%, acc = 0.2%, imp = 194

worst case efficiency: 0.649378
[59 sec, 731645 itr]: obj = (0.0822971), mov = 731645, inf = 99.9%, acc = 0.2%, imp = 194

worst case efficiency: 0.649378
[60 sec, 742395 itr]: obj = (0.0822971), mov = 742395, inf = 99.9%, acc = 0.2%, imp = 194

worst case efficiency: 0.649378
[61 sec, 754152 itr]: obj = (0.0822971), mov = 754152, inf = 99.9%, acc = 0.2%, imp = 194

worst case efficiency: 0.649378
[62 sec, 764944 itr]: obj = (0.0822971), mov = 764944, inf = 99.9%, acc = 0.2%, imp = 194

worst case efficiency: 0.649378
[63 sec, 776299 itr]: obj = (0.0822971), mov = 776299, inf = 99.9%, acc = 0.2%, imp = 194

worst case efficiency: 0.649378
[64 sec, 787270 itr]: obj = (0.0822971), mov = 787270, inf = 99.9%, acc = 0.2%, imp = 194

worst case efficiency: 0.649378
[65 sec, 798960 itr]: obj = (0.0822971), mov = 798960, inf = 99.9%, acc = 0.2%, imp = 194

worst case efficiency: 0.649378
[66 sec, 810557 itr]: obj = (0.0822971), mov = 810557, inf = 99.9%, acc = 0.2%, imp = 194

worst case efficiency: 0.649378
[67 sec, 822818 itr]: obj = (0.0822971), mov = 822818, inf = 99.9%, acc = 0.2%, imp = 194

worst case efficiency: 0.649378
[68 sec, 835257 itr]: obj = (0.0822971), mov = 835257, inf = 99.9%, acc = 0.2%, imp = 194

worst case efficiency: 0.649378
[69 sec, 846817 itr]: obj = (0.0822971), mov = 846817, inf = 99.9%, acc = 0.2%, imp = 194

worst case efficiency: 0.649378
[70 sec, 857779 itr]: obj = (0.0822971), mov = 857779, inf = 99.9%, acc = 0.2%, imp = 194

worst case efficiency: 0.649378
[71 sec, 869397 itr]: obj = (0.0822971), mov = 869397, inf = 99.9%, acc = 0.2%, imp = 194

worst case efficiency: 0.649378
[72 sec, 880829 itr]: obj = (0.0822971), mov = 880829, inf = 99.9%, acc = 0.2%, imp = 194

worst case efficiency: 0.649378
[73 sec, 892624 itr]: obj = (0.0822971), mov = 892624, inf = 99.9%, acc = 0.2%, imp = 194

worst case efficiency: 0.649378
[74 sec, 904497 itr]: obj = (0.0822971), mov = 904497, inf = 99.9%, acc = 0.2%, imp = 194

worst case efficiency: 0.649378
[75 sec, 916246 itr]: obj = (0.0822971), mov = 916246, inf = 99.9%, acc = 0.2%, imp = 194

worst case efficiency: 0.649378
[76 sec, 927229 itr]: obj = (0.0822971), mov = 927229, inf = 99.9%, acc = 0.2%, imp = 194

worst case efficiency: 0.649378
[77 sec, 936769 itr]: obj = (0.0822971), mov = 936769, inf = 99.9%, acc = 0.2%, imp = 194

worst case efficiency: 0.649378
[78 sec, 948139 itr]: obj = (0.0822971), mov = 948139, inf = 99.9%, acc = 0.2%, imp = 194

worst case efficiency: 0.649378
[79 sec, 959733 itr]: obj = (0.0822971), mov = 959733, inf = 99.9%, acc = 0.2%, imp = 194

worst case efficiency: 0.649378
[80 sec, 970585 itr]: obj = (0.0822971), mov = 970585, inf = 99.9%, acc = 0.2%, imp = 194

worst case efficiency: 0.649378
[81 sec, 980618 itr]: obj = (0.0822971), mov = 980618, inf = 99.9%, acc < 0.1%, imp = 194

worst case efficiency: 0.649378
[82 sec, 991377 itr]: obj = (0.0822971), mov = 991377, inf = 99.9%, acc < 0.1%, imp = 194

worst case efficiency: 0.649378
[83 sec, 1004076 itr]: obj = (0.0822971), mov = 1004076, inf = 99.9%, acc < 0.1%, imp = 194

worst case efficiency: 0.649378
[84 sec, 1016321 itr]: obj = (0.0822971), mov = 1016321, inf = 99.9%, acc < 0.1%, imp = 194

worst case efficiency: 0.649378
[85 sec, 1028660 itr]: obj = (0.0822971), mov = 1028660, inf = 99.9%, acc < 0.1%, imp = 194

worst case efficiency: 0.649378
[86 sec, 1038646 itr]: obj = (0.0822971), mov = 1038646, inf = 99.9%, acc < 0.1%, imp = 194

worst case efficiency: 0.649378
[87 sec, 1049813 itr]: obj = (0.0822971), mov = 1049813, inf = 99.9%, acc < 0.1%, imp = 194

worst case efficiency: 0.649378
[88 sec, 1059754 itr]: obj = (0.0822971), mov = 1059754, inf = 99.9%, acc < 0.1%, imp = 194

worst case efficiency: 0.649378
[89 sec, 1070865 itr]: obj = (0.0822971), mov = 1070865, inf = 99.9%, acc < 0.1%, imp = 194

worst case efficiency: 0.649378
[90 sec, 1083466 itr]: obj = (0.0822971), mov = 1083466, inf = 99.9%, acc < 0.1%, imp = 194

worst case efficiency: 0.649378
[90 sec, 1083466 itr]: obj = (0.0822971), mov = 1083466, inf = 99.9%, acc < 0.1%, imp = 194

worst case efficiency: 0.649378
1083466 iterations, 1083466 moves performed in 90 seconds
Feasible solution: obj = (0.0822971)

Run output...
FINAL SOLUTION
Worst case efficiency: 0.649378
Mapping: 0->23, 1->23, 2->14, 3->22, 4->29, 5->16, 6->3, 7->5, 8->24, 9->0, 10->43, 11->46, 12->14, 13->32, 14->25, 15->38, 16->42, 17->19, 18->28, 19->30, 20->33, 21->44, 22->7, 23->30, 24->30, 25->38, 26->46, 27->22, 28->40, 29->13, 30->0, 31->7, 32->35, 33->47, 34->5, 35->18, 36->43, 37->0, 38->27, 39->7, 40->47, 41->31, 42->5, 43->39, 44->34, 45->45, 46->41, 47->45, 48->9, 49->3, 50->42, 51->15, 52->40, 53->28, 54->44, 55->11, 56->9, 57->29, 58->41, 59->4, 60->46, 61->2, 62->4, 63->1, 64->44, 65->19, 66->7, 67->14, 68->2, 69->36, 70->25, 71->39, 72->20, 73->28, 74->26, 75->33, 76->41, 77->39, 78->34, 79->31, 80->26, 81->35, 82->21, 83->45, 84->6, 85->3, 86->14, 87->27, 88->37, 89->26, 90->6, 91->32, 92->45, 93->43, 94->2, 95->10, 96->0, 97->31, 98->36, 99->1, 100->31, 101->8, 102->16, 103->34, 104->46, 105->36, 106->9, 107->27, 108->32, 109->25, 110->36, 111->35, 112->17, 113->18, 114->27, 115->5, 116->14, 117->28, 118->7, 119->16, 120->37, 121->33, 122->26, 123->34, 124->28, 125->16, 126->1, 127->25, 128->15, 129->26, 130->17, 131->24, 132->33, 133->2, 134->15, 135->47, 136->27, 137->11, 138->43, 139->28, 140->12, 141->10, 142->37, 143->17, 144->3, 145->12, 146->38, 147->10, 148->29, 149->19, 150->46, 151->24, 152->9, 153->29, 154->42, 155->43, 156->47, 157->13, 158->38, 159->13, 160->8, 161->2, 162->17, 163->23, 164->47, 165->10, 166->16, 167->22, 168->40, 169->25, 170->2, 171->21, 172->40, 173->39, 174->19, 175->11, 176->22, 177->5, 178->21, 179->10, 180->19, 181->8, 182->15, 183->20, 184->46, 185->23, 186->9, 187->23, 188->8, 189->33, 190->12, 191->39, 192->38, 193->47, 194->20, 195->27, 196->18, 197->21, 198->6, 199->24, 200->22, 201->44, 202->12, 203->35, 204->5, 205->4, 206->31, 207->43, 208->22, 209->30, 210->0, 211->14, 212->20, 213->31, 214->18, 215->42, 216->11, 217->1, 218->20, 219->42, 220->18, 221->36, 222->13, 223->12, 224->6, 225->7, 226->29, 227->44, 228->11, 229->24, 230->39, 231->9, 232->4, 233->38, 234->29, 235->17, 236->32, 237->37, 238->34, 239->15, 240->20, 241->8, 242->45, 243->16, 244->30, 245->11, 246->13, 247->33, 248->1, 249->4, 250->1, 251->24, 252->12, 253->37, 254->35, 255->23, 256->36, 257->41, 258->32, 259->40, 260->34, 261->15, 262->10, 263->32, 264->21, 265->19, 266->40, 267->3, 268->21, 269->25, 270->13, 271->44, 272->41, 273->6, 274->42, 275->8, 276->45, 277->18, 278->4, 279->6, 280->35, 281->37, 282->26, 283->17, 284->41, 285->30, 286->3, 287->0
Number of tasks per core:
	6	6	6	6	6	6
	6	6	6	6	6	6
	6	6	6	6	6	6
	6	6	6	6	6	6
	6	6	6	6	6	6
	6	6	6	6	6	6
	6	6	6	6	6	6
	6	6	6	6	6	6
Average CPI map:
	1.98555	1.67368	6.00892	5.17999	1.54956	6.7872
	1.87601	3.26929	10.2754	7.6149	6.56605	2.59456
	8.36901	8.01782	2.04678	8.06015	7.69169	6.66269
	6.10831	5.13385	12.6251	4.48606	1.94053	8.39665
	2.12521	3.71974	5.78611	7.557	10.1156	6.90468
	1.61156	1.70229	5.25233	8.47457	6.55178	8.24372
	4.69319	5.37937	11.1244	7.56592	1.70389	2.64994
	1.4239	1.6598	1.80754	1.69739	4.57444	8.75584
Efficiency map:
	0.996706	0.945943	0.99907	1.00048	0.963504	0.9962
	0.848012	0.736824	0.949743	0.883952	0.874704	0.900477
	0.991714	0.843341	0.649378	0.739336	0.860527	0.960697
	0.953857	0.745731	0.962268	0.734507	0.652862	0.990743
	0.842211	0.732872	0.753326	0.81976	0.930831	0.99792
	0.801305	0.649379	0.683649	0.881423	0.851116	0.983094
	0.871815	0.74862	0.951169	0.891999	0.661576	0.884101
	0.82929	0.667316	0.664806	0.652106	0.778381	0.985463
==============================================================================
Local Solver optimizer for EML demonstration
==============================================================================

Option values: --wld-idx 6 --global-tlim 90 --seed 801

Starting the Optimization Process
