==============================================================================
LNS optimizer for EML demonstration
==============================================================================

Option values: --wld-idx 6 --prec 10000 --step 0 --global-tlim 90 --global-iter 1000 --local-tlim 3 --local-nsol 1 --restart-base 100 --restart-strat luby --seed 901

Starting the Optimization Process
reserved_tasks None
Finding a first solution
LNS iteration #0 ========================================
- worst case average CPI: 2.535
- worst case efficiency: 0.664
- efficiency to beat: 0.664
- normalized lower bound 1150
--- checking solution
--- solution ok! Maximum rounding error: 0.000000
- solution found, obj var is: 2461
- de-normalized obj var: 0.747660
- time (local/global): 0.001/0.001
- branches (local/global): 22/22
- fails (local/global): 0/0
- lns time: 0.006000
- lns branches: 22
- lns fails: 0
LNS iteration #1 ========================================
- worst case average CPI: 1.741
- worst case efficiency: 0.669
- efficiency to beat: 0.669
- normalized lower bound 1240
--- checking solution
--- solution ok! Maximum rounding error: 0.000062
- solution found, obj var is: 1427
- de-normalized obj var: 0.685620
- time (local/global): 0.002/0.008
- branches (local/global): 236/258
- fails (local/global): 105/105
- lns time: 0.007000
- lns branches: 236
- lns fails: 105
LNS iteration #2 ========================================
- worst case average CPI: 1.741
- worst case efficiency: 0.686
- efficiency to beat: 0.686
- normalized lower bound 1511
--- checking solution
--- solution ok! Maximum rounding error: 0.000000
- solution found, obj var is: 1783
- de-normalized obj var: 0.706980
- time (local/global): 0.000/0.013
- branches (local/global): 22/280
- fails (local/global): 0/105
- lns time: 0.005000
- lns branches: 22
- lns fails: 0
LNS iteration #3 ========================================
- worst case average CPI: 1.741
- worst case efficiency: 0.703
- efficiency to beat: 0.703
- normalized lower bound 1809
--- checking solution
--- solution ok! Maximum rounding error: 0.000086
- solution found, obj var is: 1882
- de-normalized obj var: 0.712920
- time (local/global): 0.003/0.021
- branches (local/global): 238/518
- fails (local/global): 101/206
- lns time: 0.008000
- lns branches: 238
- lns fails: 101
LNS iteration #4 ========================================
- worst case average CPI: 1.741
- worst case efficiency: 0.705
- efficiency to beat: 0.705
- normalized lower bound 1828
--- checking solution
--- solution ok! Maximum rounding error: 0.000029
- solution found, obj var is: 2459
- de-normalized obj var: 0.747540
- time (local/global): 0.001/0.027
- branches (local/global): 21/539
- fails (local/global): 0/206
- lns time: 0.007000
- lns branches: 21
- lns fails: 0
LNS iteration #5 ========================================
- worst case average CPI: 1.741
- worst case efficiency: 0.707
- efficiency to beat: 0.707
- normalized lower bound 1867
--- checking solution
--- solution ok! Maximum rounding error: 0.000025
- solution found, obj var is: 2556
- de-normalized obj var: 0.753360
- time (local/global): 0.000/0.033
- branches (local/global): 26/565
- fails (local/global): 2/208
- lns time: 0.006000
- lns branches: 26
- lns fails: 2
LNS iteration #6 ========================================
- worst case average CPI: 1.741
- worst case efficiency: 0.709
- efficiency to beat: 0.709
- normalized lower bound 1898
--- checking solution
--- solution ok! Maximum rounding error: 0.000058
- solution found, obj var is: 2264
- de-normalized obj var: 0.735840
- time (local/global): 0.012/0.051
- branches (local/global): 872/1437
- fails (local/global): 400/608
- lns time: 0.016000
- lns branches: 872
- lns fails: 400
LNS iteration #7 ========================================
- worst case average CPI: 1.661
- worst case efficiency: 0.712
- efficiency to beat: 0.712
- normalized lower bound 1949
--- checking solution
--- solution ok! Maximum rounding error: 0.000048
- solution found, obj var is: 1953
- de-normalized obj var: 0.717180
- time (local/global): 0.060/0.115
- branches (local/global): 3855/5292
- fails (local/global): 1825/2433
- lns time: 0.068000
- lns branches: 3855
- lns fails: 1825
LNS iteration #8 ========================================
- worst case average CPI: 1.661
- worst case efficiency: 0.712
- efficiency to beat: 0.712
- normalized lower bound 1956
--- checking solution
--- solution ok! Maximum rounding error: 0.000099
- solution found, obj var is: 2538
- de-normalized obj var: 0.752280
- time (local/global): 0.001/0.124
- branches (local/global): 22/5314
- fails (local/global): 0/2433
- lns time: 0.005000
- lns branches: 22
- lns fails: 0
LNS iteration #9 ========================================
- worst case average CPI: 1.661
- worst case efficiency: 0.715
- efficiency to beat: 0.715
- normalized lower bound 2007
--- checking solution
--- solution ok! Maximum rounding error: 0.000060
- solution found, obj var is: 2070
- de-normalized obj var: 0.724200
- time (local/global): 0.009/0.137
- branches (local/global): 233/5547
- fails (local/global): 100/2533
- lns time: 0.013000
- lns branches: 233
- lns fails: 100
LNS iteration #10 ========================================
- worst case average CPI: 1.661
- worst case efficiency: 0.719
- efficiency to beat: 0.719
- normalized lower bound 2059
--- checking solution
--- solution ok! Maximum rounding error: 0.000086
- solution found, obj var is: 3132
- de-normalized obj var: 0.787920
- time (local/global): 0.001/0.142
- branches (local/global): 22/5569
- fails (local/global): 0/2533
- lns time: 0.005000
- lns branches: 22
- lns fails: 0
LNS iteration #11 ========================================
- worst case average CPI: 1.661
- worst case efficiency: 0.724
- efficiency to beat: 0.724
- normalized lower bound 2154
--- checking solution
--- solution ok! Maximum rounding error: 0.000034
- solution found, obj var is: 3793
- de-normalized obj var: 0.827580
- time (local/global): 0.003/0.149
- branches (local/global): 242/5811
- fails (local/global): 101/2634
- lns time: 0.007000
- lns branches: 242
- lns fails: 101
LNS iteration #12 ========================================
- worst case average CPI: 1.567
- worst case efficiency: 0.727
- efficiency to beat: 0.727
- normalized lower bound 2197
--- checking solution
--- solution ok! Maximum rounding error: 0.000089
- solution found, obj var is: 3112
- de-normalized obj var: 0.786720
- time (local/global): 0.001/0.154
- branches (local/global): 20/5831
- fails (local/global): 0/2634
- lns time: 0.005000
- lns branches: 20
- lns fails: 0
LNS iteration #13 ========================================
- worst case average CPI: 1.567
- worst case efficiency: 0.736
- efficiency to beat: 0.736
- normalized lower bound 2343
--- checking solution
XXX Rounding error: 7
--- solution ok! Maximum rounding error: 0.000360
- solution found, obj var is: 2714
- de-normalized obj var: 0.762840
- time (local/global): 0.001/0.159
- branches (local/global): 71/5902
- fails (local/global): 25/2659
- lns time: 0.005000
- lns branches: 71
- lns fails: 25
LNS iteration #14 ========================================
- worst case average CPI: 1.450
- worst case efficiency: 0.739
- efficiency to beat: 0.739
- normalized lower bound 2405
--- checking solution
--- solution ok! Maximum rounding error: 0.000019
- solution found, obj var is: 2852
- de-normalized obj var: 0.771120
- time (local/global): 0.003/0.166
- branches (local/global): 236/6138
- fails (local/global): 100/2759
- lns time: 0.008000
- lns branches: 236
- lns fails: 100
LNS iteration #15 ========================================
- worst case average CPI: 1.450
- worst case efficiency: 0.743
- efficiency to beat: 0.743
- normalized lower bound 2462
--- checking solution
--- solution ok! Maximum rounding error: 0.000022
- solution found, obj var is: 3242
- de-normalized obj var: 0.794520
- time (local/global): 0.004/0.175
- branches (local/global): 435/6573
- fails (local/global): 200/2959
- lns time: 0.008000
- lns branches: 435
- lns fails: 200
LNS iteration #16 ========================================
- worst case average CPI: 1.450
- worst case efficiency: 0.749
- efficiency to beat: 0.749
- normalized lower bound 2570
--- checking solution
--- solution ok! Maximum rounding error: 0.000028
- solution found, obj var is: 2807
- de-normalized obj var: 0.768420
- time (local/global): 0.001/0.180
- branches (local/global): 90/6663
- fails (local/global): 37/2996
- lns time: 0.005000
- lns branches: 90
- lns fails: 37
LNS iteration #17 ========================================
- worst case average CPI: 1.450
- worst case efficiency: 0.751
- efficiency to beat: 0.751
- normalized lower bound 2596
--- checking solution
--- solution ok! Maximum rounding error: 0.000072
- solution found, obj var is: 2727
- de-normalized obj var: 0.763620
- time (local/global): 0.001/0.185
- branches (local/global): 23/6686
- fails (local/global): 1/2997
- lns time: 0.005000
- lns branches: 23
- lns fails: 1
LNS iteration #18 ========================================
- worst case average CPI: 1.450
- worst case efficiency: 0.751
- efficiency to beat: 0.751
- normalized lower bound 2599
--- checking solution
--- solution ok! Maximum rounding error: 0.000040
- solution found, obj var is: 3800
- de-normalized obj var: 0.828000
- time (local/global): 0.006/0.195
- branches (local/global): 455/7141
- fails (local/global): 200/3197
- lns time: 0.010000
- lns branches: 455
- lns fails: 200
LNS iteration #19 ========================================
- worst case average CPI: 1.450
- worst case efficiency: 0.761
- efficiency to beat: 0.761
- normalized lower bound 2770
--- checking solution
--- solution ok! Maximum rounding error: 0.000081
- solution found, obj var is: 2942
- de-normalized obj var: 0.776520
- time (local/global): 0.005/0.204
- branches (local/global): 451/7592
- fails (local/global): 200/3397
- lns time: 0.009000
- lns branches: 451
- lns fails: 200
LNS iteration #20 ========================================
- worst case average CPI: 1.363
- worst case efficiency: 0.767
- efficiency to beat: 0.767
- normalized lower bound 2860
--- checking solution
--- solution ok! Maximum rounding error: 0.000093
- solution found, obj var is: 2990
- de-normalized obj var: 0.779400
- time (local/global): 0.597/0.805
- branches (local/global): 39796/47388
- fails (local/global): 19392/22789
- lns time: 0.601000
- lns branches: 39796
- lns fails: 19392
LNS iteration #21 ========================================
- worst case average CPI: 1.363
- worst case efficiency: 0.767
- efficiency to beat: 0.767
- normalized lower bound 2860
--- checking solution
--- solution ok! Maximum rounding error: 0.000102
- solution found, obj var is: 3142
- de-normalized obj var: 0.788520
- time (local/global): 0.000/0.809
- branches (local/global): 16/47404
- fails (local/global): 0/22789
- lns time: 0.004000
- lns branches: 16
- lns fails: 0
LNS iteration #22 ========================================
- worst case average CPI: 1.239
- worst case efficiency: 0.768
- efficiency to beat: 0.768
- normalized lower bound 2888
--- checking solution
--- solution ok! Maximum rounding error: 0.000051
- solution found, obj var is: 3631
- de-normalized obj var: 0.817860
- time (local/global): 0.001/0.814
- branches (local/global): 24/47428
- fails (local/global): 1/22790
- lns time: 0.005000
- lns branches: 24
- lns fails: 1
LNS iteration #23 ========================================
- worst case average CPI: 1.239
- worst case efficiency: 0.774
- efficiency to beat: 0.774
- normalized lower bound 2991
--- checking solution
--- solution ok! Maximum rounding error: 0.000109
- solution found, obj var is: 3636
- de-normalized obj var: 0.818160
- time (local/global): 0.001/0.819
- branches (local/global): 20/47448
- fails (local/global): 0/22790
- lns time: 0.005000
- lns branches: 20
- lns fails: 0
LNS iteration #24 ========================================
- worst case average CPI: 1.239
- worst case efficiency: 0.778
- efficiency to beat: 0.778
- normalized lower bound 3043
--- checking solution
--- solution ok! Maximum rounding error: 0.000080
- solution found, obj var is: 3418
- de-normalized obj var: 0.805080
- time (local/global): 0.001/0.824
- branches (local/global): 21/47469
- fails (local/global): 0/22790
- lns time: 0.005000
- lns branches: 21
- lns fails: 0
LNS iteration #25 ========================================
- worst case average CPI: 1.202
- worst case efficiency: 0.780
- efficiency to beat: 0.780
- normalized lower bound 3081
--- checking solution
--- solution ok! Maximum rounding error: 0.000046
- solution found, obj var is: 3095
- de-normalized obj var: 0.785700
- time (local/global): 0.055/0.883
- branches (local/global): 4222/51691
- fails (local/global): 2000/24790
- lns time: 0.060000
- lns branches: 4222
- lns fails: 2000
LNS iteration #26 ========================================
- worst case average CPI: 1.202
- worst case efficiency: 0.779
- efficiency to beat: 0.779
- normalized lower bound 3069
--- checking solution
--- solution ok! Maximum rounding error: 0.000066
- solution found, obj var is: 3101
- de-normalized obj var: 0.786060
- time (local/global): 0.020/0.908
- branches (local/global): 1713/53404
- fails (local/global): 800/25590
- lns time: 0.024000
- lns branches: 1713
- lns fails: 800
LNS iteration #27 ========================================
- worst case average CPI: 1.202
- worst case efficiency: 0.783
- efficiency to beat: 0.783
- normalized lower bound 3132
--- checking solution
--- solution ok! Maximum rounding error: 0.000083
- solution found, obj var is: 3236
- de-normalized obj var: 0.794160
- time (local/global): 0.003/0.915
- branches (local/global): 191/53595
- fails (local/global): 85/25675
- lns time: 0.007000
- lns branches: 191
- lns fails: 85
LNS iteration #28 ========================================
- worst case average CPI: 1.202
- worst case efficiency: 0.786
- efficiency to beat: 0.786
- normalized lower bound 3179
--- checking solution
--- solution ok! Maximum rounding error: 0.000228
- solution found, obj var is: 3252
- de-normalized obj var: 0.795120
- time (local/global): 0.001/0.920
- branches (local/global): 21/53616
- fails (local/global): 0/25675
- lns time: 0.005000
- lns branches: 21
- lns fails: 0
LNS iteration #29 ========================================
- worst case average CPI: 1.202
- worst case efficiency: 0.786
- efficiency to beat: 0.786
- normalized lower bound 3186
--- checking solution
--- solution ok! Maximum rounding error: 0.000025
- solution found, obj var is: 3350
- de-normalized obj var: 0.801000
- time (local/global): 0.235/1.159
- branches (local/global): 17571/71187
- fails (local/global): 8500/34175
- lns time: 0.239000
- lns branches: 17571
- lns fails: 8500
LNS iteration #30 ========================================
- worst case average CPI: 1.363
- worst case efficiency: 0.787
- efficiency to beat: 0.787
- normalized lower bound 3198
--- checking solution
--- solution ok! Maximum rounding error: 0.000129
- solution found, obj var is: 3371
- de-normalized obj var: 0.802260
- time (local/global): 0.004/1.167
- branches (local/global): 238/71425
- fails (local/global): 100/34275
- lns time: 0.008000
- lns branches: 238
- lns fails: 100
LNS iteration #31 ========================================
- worst case average CPI: 1.450
- worst case efficiency: 0.789
- efficiency to beat: 0.789
- normalized lower bound 3239
--- checking solution
--- solution ok! Maximum rounding error: 0.000123
- solution found, obj var is: 3291
- de-normalized obj var: 0.797460
- time (local/global): 0.007/1.178
- branches (local/global): 459/71884
- fails (local/global): 201/34476
- lns time: 0.011000
- lns branches: 459
- lns fails: 201
LNS iteration #32 ========================================
- worst case average CPI: 1.450
- worst case efficiency: 0.793
- efficiency to beat: 0.793
- normalized lower bound 3297
--- checking solution
--- solution ok! Maximum rounding error: 0.000067
- solution found, obj var is: 3546
- de-normalized obj var: 0.812760
- time (local/global): 0.001/1.183
- branches (local/global): 22/71906
- fails (local/global): 0/34476
- lns time: 0.005000
- lns branches: 22
- lns fails: 0
LNS iteration #33 ========================================
- worst case average CPI: 1.450
- worst case efficiency: 0.794
- efficiency to beat: 0.794
- normalized lower bound 3320
--- checking solution
--- solution ok! Maximum rounding error: 0.000095
- solution found, obj var is: 3370
- de-normalized obj var: 0.802200
- time (local/global): 0.016/1.203
- branches (local/global): 1294/73200
- fails (local/global): 600/35076
- lns time: 0.020000
- lns branches: 1294
- lns fails: 600
LNS iteration #34 ========================================
- worst case average CPI: 1.450
- worst case efficiency: 0.795
- efficiency to beat: 0.795
- normalized lower bound 3335
--- checking solution
--- solution ok! Maximum rounding error: 0.000074
- solution found, obj var is: 3423
- de-normalized obj var: 0.805380
- time (local/global): 0.002/1.209
- branches (local/global): 113/73313
- fails (local/global): 50/35126
- lns time: 0.006000
- lns branches: 113
- lns fails: 50
LNS iteration #35 ========================================
- worst case average CPI: 1.450
- worst case efficiency: 0.797
- efficiency to beat: 0.797
- normalized lower bound 3361
--- checking solution
--- solution ok! Maximum rounding error: 0.000064
- solution found, obj var is: 3424
- de-normalized obj var: 0.805440
- time (local/global): 0.003/1.216
- branches (local/global): 170/73483
- fails (local/global): 74/35200
- lns time: 0.007000
- lns branches: 170
- lns fails: 74
LNS iteration #36 ========================================
- worst case average CPI: 1.450
- worst case efficiency: 0.801
- efficiency to beat: 0.801
- normalized lower bound 3434
--- checking solution
--- solution ok! Maximum rounding error: 0.000093
- solution found, obj var is: 3527
- de-normalized obj var: 0.811620
- time (local/global): 0.011/1.231
- branches (local/global): 849/74332
- fails (local/global): 400/35600
- lns time: 0.015000
- lns branches: 849
- lns fails: 400
LNS iteration #37 ========================================
- worst case average CPI: 1.450
- worst case efficiency: 0.801
- efficiency to beat: 0.801
- normalized lower bound 3433
--- checking solution
--- solution ok! Maximum rounding error: 0.000055
- solution found, obj var is: 4441
- de-normalized obj var: 0.866460
- time (local/global): 0.001/1.236
- branches (local/global): 23/74355
- fails (local/global): 1/35601
- lns time: 0.005000
- lns branches: 23
- lns fails: 1
LNS iteration #38 ========================================
- worst case average CPI: 1.450
- worst case efficiency: 0.802
- efficiency to beat: 0.802
- normalized lower bound 3450
--- checking solution
--- solution ok! Maximum rounding error: 0.000016
- solution found, obj var is: 3483
- de-normalized obj var: 0.808980
- time (local/global): 0.004/1.244
- branches (local/global): 241/74596
- fails (local/global): 102/35703
- lns time: 0.008000
- lns branches: 241
- lns fails: 102
LNS iteration #39 ========================================
- worst case average CPI: 1.373
- worst case efficiency: 0.805
- efficiency to beat: 0.805
- normalized lower bound 3507
--- checking solution
--- solution ok! Maximum rounding error: 0.000061
- solution found, obj var is: 3559
- de-normalized obj var: 0.813540
- time (local/global): 0.004/1.252
- branches (local/global): 116/74712
- fails (local/global): 48/35751
- lns time: 0.010000
- lns branches: 116
- lns fails: 48
LNS iteration #40 ========================================
- worst case average CPI: 1.373
- worst case efficiency: 0.808
- efficiency to beat: 0.808
- normalized lower bound 3546
--- checking solution
--- solution ok! Maximum rounding error: 0.000048
- solution found, obj var is: 3681
- de-normalized obj var: 0.820860
- time (local/global): 0.014/1.272
- branches (local/global): 868/75580
- fails (local/global): 403/36154
- lns time: 0.019000
- lns branches: 868
- lns fails: 403
LNS iteration #41 ========================================
- worst case average CPI: 1.373
- worst case efficiency: 0.809
- efficiency to beat: 0.809
- normalized lower bound 3566
--- checking solution
--- solution ok! Maximum rounding error: 0.000117
- solution found, obj var is: 3972
- de-normalized obj var: 0.838320
- time (local/global): 0.000/1.277
- branches (local/global): 22/75602
- fails (local/global): 0/36154
- lns time: 0.005000
- lns branches: 22
- lns fails: 0
LNS iteration #42 ========================================
- worst case average CPI: 1.450
- worst case efficiency: 0.813
- efficiency to beat: 0.813
- normalized lower bound 3626
--- checking solution
--- solution ok! Maximum rounding error: 0.000013
- solution found, obj var is: 3647
- de-normalized obj var: 0.818820
- time (local/global): 0.022/1.304
- branches (local/global): 1719/77321
- fails (local/global): 824/36978
- lns time: 0.026000
- lns branches: 1719
- lns fails: 824
LNS iteration #43 ========================================
- worst case average CPI: 1.450
- worst case efficiency: 0.812
- efficiency to beat: 0.812
- normalized lower bound 3623
--- checking solution
--- solution ok! Maximum rounding error: 0.000065
- solution found, obj var is: 4323
- de-normalized obj var: 0.859380
- time (local/global): 0.000/1.308
- branches (local/global): 21/77342
- fails (local/global): 0/36978
- lns time: 0.005000
- lns branches: 21
- lns fails: 0
LNS iteration #44 ========================================
- worst case average CPI: 1.450
- worst case efficiency: 0.815
- efficiency to beat: 0.815
- normalized lower bound 3675
--- checking solution
--- solution ok! Maximum rounding error: 0.000025
- solution found, obj var is: 3687
- de-normalized obj var: 0.821220
- time (local/global): 0.061/1.374
- branches (local/global): 3887/81229
- fails (local/global): 1839/38817
- lns time: 0.065000
- lns branches: 3887
- lns fails: 1839
LNS iteration #45 ========================================
- worst case average CPI: 1.450
- worst case efficiency: 0.816
- efficiency to beat: 0.816
- normalized lower bound 3678
--- checking solution
--- solution ok! Maximum rounding error: 0.000091
- solution found, obj var is: 3906
- de-normalized obj var: 0.834360
- time (local/global): 0.033/1.411
- branches (local/global): 2763/83992
- fails (local/global): 1304/40121
- lns time: 0.037000
- lns branches: 2763
- lns fails: 1304
LNS iteration #46 ========================================
- worst case average CPI: 1.592
- worst case efficiency: 0.817
- efficiency to beat: 0.817
- normalized lower bound 3708
--- checking solution
--- solution ok! Maximum rounding error: 0.000080
- solution found, obj var is: 3714
- de-normalized obj var: 0.822840
- time (local/global): 0.020/1.435
- branches (local/global): 1225/85217
- fails (local/global): 569/40690
- lns time: 0.024000
- lns branches: 1225
- lns fails: 569
LNS iteration #47 ========================================
- worst case average CPI: 1.592
- worst case efficiency: 0.818
- efficiency to beat: 0.818
- normalized lower bound 3719
--- checking solution
--- solution ok! Maximum rounding error: 0.000055
- solution found, obj var is: 4155
- de-normalized obj var: 0.849300
- time (local/global): 0.004/1.443
- branches (local/global): 245/85462
- fails (local/global): 104/40794
- lns time: 0.008000
- lns branches: 245
- lns fails: 104
LNS iteration #48 ========================================
- worst case average CPI: 1.592
- worst case efficiency: 0.818
- efficiency to beat: 0.818
- normalized lower bound 3721
--- checking solution
--- solution ok! Maximum rounding error: 0.000082
- solution found, obj var is: 3785
- de-normalized obj var: 0.827100
- time (local/global): 0.007/1.454
- branches (local/global): 465/85927
- fails (local/global): 206/41000
- lns time: 0.011000
- lns branches: 465
- lns fails: 206
LNS iteration #49 ========================================
- worst case average CPI: 1.279
- worst case efficiency: 0.819
- efficiency to beat: 0.819
- normalized lower bound 3739
--- checking solution
--- solution ok! Maximum rounding error: 0.000041
- solution found, obj var is: 4083
- de-normalized obj var: 0.844980
- time (local/global): 0.001/1.459
- branches (local/global): 19/85946
- fails (local/global): 0/41000
- lns time: 0.005000
- lns branches: 19
- lns fails: 0
LNS iteration #50 ========================================
- worst case average CPI: 1.279
- worst case efficiency: 0.821
- efficiency to beat: 0.821
- normalized lower bound 3766
--- checking solution
--- solution ok! Maximum rounding error: 0.000035
- solution found, obj var is: 3810
- de-normalized obj var: 0.828600
- time (local/global): 0.024/1.487
- branches (local/global): 2454/88400
- fails (local/global): 1173/42173
- lns time: 0.028000
- lns branches: 2454
- lns fails: 1173
LNS iteration #51 ========================================
- worst case average CPI: 1.279
- worst case efficiency: 0.822
- efficiency to beat: 0.822
- normalized lower bound 3780
--- checking solution
--- solution ok! Maximum rounding error: 0.000046
- solution found, obj var is: 3874
- de-normalized obj var: 0.832440
- time (local/global): 0.003/1.494
- branches (local/global): 239/88639
- fails (local/global): 100/42273
- lns time: 0.007000
- lns branches: 239
- lns fails: 100
LNS iteration #52 ========================================
- worst case average CPI: 1.279
- worst case efficiency: 0.825
- efficiency to beat: 0.825
- normalized lower bound 3830
--- checking solution
--- solution ok! Maximum rounding error: 0.000035
- solution found, obj var is: 3999
- de-normalized obj var: 0.839940
- time (local/global): 0.001/1.499
- branches (local/global): 24/88663
- fails (local/global): 1/42274
- lns time: 0.009000
- lns branches: 24
- lns fails: 1
LNS iteration #53 ========================================
- worst case average CPI: 1.279
- worst case efficiency: 0.826
- efficiency to beat: 0.826
- normalized lower bound 3858
--- checking solution
--- solution ok! Maximum rounding error: 0.000010
- solution found, obj var is: 3866
- de-normalized obj var: 0.831960
- time (local/global): 0.010/1.517
- branches (local/global): 718/89381
- fails (local/global): 339/42613
- lns time: 0.014000
- lns branches: 718
- lns fails: 339
LNS iteration #54 ========================================
- worst case average CPI: 1.279
- worst case efficiency: 0.829
- efficiency to beat: 0.829
- normalized lower bound 3893
--- checking solution
--- solution ok! Maximum rounding error: 0.000081
- solution found, obj var is: 4089
- de-normalized obj var: 0.845340
- time (local/global): 0.001/1.522
- branches (local/global): 100/89481
- fails (local/global): 43/42656
- lns time: 0.005000
- lns branches: 100
- lns fails: 43
LNS iteration #55 ========================================
- worst case average CPI: 1.279
- worst case efficiency: 0.832
- efficiency to beat: 0.832
- normalized lower bound 3950
--- checking solution
--- solution ok! Maximum rounding error: 0.000222
- solution found, obj var is: 4143
- de-normalized obj var: 0.848580
- time (local/global): 0.001/1.527
- branches (local/global): 56/89537
- fails (local/global): 20/42676
- lns time: 0.005000
- lns branches: 56
- lns fails: 20
LNS iteration #56 ========================================
- worst case average CPI: 1.279
- worst case efficiency: 0.833
- efficiency to beat: 0.833
- normalized lower bound 3960
--- checking solution
--- solution ok! Maximum rounding error: 0.000015
- solution found, obj var is: 4042
- de-normalized obj var: 0.842520
- time (local/global): 0.012/1.543
- branches (local/global): 1052/90589
- fails (local/global): 491/43167
- lns time: 0.016000
- lns branches: 1052
- lns fails: 491
LNS iteration #57 ========================================
- worst case average CPI: 1.279
- worst case efficiency: 0.833
- efficiency to beat: 0.833
- normalized lower bound 3963
--- checking solution
--- solution ok! Maximum rounding error: 0.000066
- solution found, obj var is: 3993
- de-normalized obj var: 0.839580
- time (local/global): 0.045/1.592
- branches (local/global): 3593/94182
- fails (local/global): 1700/44867
- lns time: 0.049000
- lns branches: 3593
- lns fails: 1700
LNS iteration #58 ========================================
- worst case average CPI: 1.279
- worst case efficiency: 0.834
- efficiency to beat: 0.834
- normalized lower bound 3976
--- checking solution
--- solution ok! Maximum rounding error: 0.000037
- solution found, obj var is: 3979
- de-normalized obj var: 0.838740
- time (local/global): 0.013/1.609
- branches (local/global): 673/94855
- fails (local/global): 311/45178
- lns time: 0.017000
- lns branches: 673
- lns fails: 311
LNS iteration #59 ========================================
- worst case average CPI: 1.279
- worst case efficiency: 0.834
- efficiency to beat: 0.834
- normalized lower bound 3980
--- checking solution
--- solution ok! Maximum rounding error: 0.000073
- solution found, obj var is: 4037
- de-normalized obj var: 0.842220
- time (local/global): 0.139/1.752
- branches (local/global): 8491/103346
- fails (local/global): 4084/49262
- lns time: 0.143000
- lns branches: 8491
- lns fails: 4084
LNS iteration #60 ========================================
- worst case average CPI: 1.086
- worst case efficiency: 0.838
- efficiency to beat: 0.838
- normalized lower bound 4047
--- checking solution
--- solution ok! Maximum rounding error: 0.000024
- solution found, obj var is: 4081
- de-normalized obj var: 0.844860
- time (local/global): 0.036/1.792
- branches (local/global): 2955/106301
- fails (local/global): 1401/50663
- lns time: 0.040000
- lns branches: 2955
- lns fails: 1401
LNS iteration #61 ========================================
- worst case average CPI: 1.086
- worst case efficiency: 0.838
- efficiency to beat: 0.838
- normalized lower bound 4055
--- checking solution
--- solution ok! Maximum rounding error: 0.000060
- solution found, obj var is: 4070
- de-normalized obj var: 0.844200
- time (local/global): 0.310/2.106
- branches (local/global): 20641/126942
- fails (local/global): 9982/60645
- lns time: 0.314000
- lns branches: 20641
- lns fails: 9982
LNS iteration #62 ========================================
- worst case average CPI: 1.086
- worst case efficiency: 0.839
- efficiency to beat: 0.839
- normalized lower bound 4063
--- checking solution
--- solution ok! Maximum rounding error: 0.000099
- solution found, obj var is: 4080
- de-normalized obj var: 0.844800
- time (local/global): 0.008/2.118
- branches (local/global): 452/127394
- fails (local/global): 201/60846
- lns time: 0.012000
- lns branches: 452
- lns fails: 201
LNS iteration #63 ========================================
- worst case average CPI: 1.086
- worst case efficiency: 0.839
- efficiency to beat: 0.839
- normalized lower bound 4067
--- checking solution
--- solution ok! Maximum rounding error: 0.000093
- solution found, obj var is: 4077
- de-normalized obj var: 0.844620
- time (local/global): 0.102/2.224
- branches (local/global): 8364/135758
- fails (local/global): 4000/64846
- lns time: 0.106000
- lns branches: 8364
- lns fails: 4000
LNS iteration #64 ========================================
- worst case average CPI: 1.086
- worst case efficiency: 0.842
- efficiency to beat: 0.842
- normalized lower bound 4122
--- checking solution
--- solution ok! Maximum rounding error: 0.000098
- solution found, obj var is: 4171
- de-normalized obj var: 0.850260
- time (local/global): 0.013/2.241
- branches (local/global): 515/136273
- fails (local/global): 230/65076
- lns time: 0.019000
- lns branches: 515
- lns fails: 230
LNS iteration #65 ========================================
- worst case average CPI: 1.086
- worst case efficiency: 0.843
- efficiency to beat: 0.843
- normalized lower bound 4134
--- checking solution
--- solution ok! Maximum rounding error: 0.000095
- solution found, obj var is: 4134
- de-normalized obj var: 0.848040
- time (local/global): 0.023/2.270
- branches (local/global): 1477/137750
- fails (local/global): 688/65764
- lns time: 0.027000
- lns branches: 1477
- lns fails: 688
LNS iteration #66 ========================================
- worst case average CPI: 1.086
- worst case efficiency: 0.843
- efficiency to beat: 0.843
- normalized lower bound 4134
--- checking solution
--- solution ok! Maximum rounding error: 0.000018
- solution found, obj var is: 4626
- de-normalized obj var: 0.877560
- time (local/global): 0.001/2.275
- branches (local/global): 65/137815
- fails (local/global): 21/65785
- lns time: 0.005000
- lns branches: 65
- lns fails: 21
LNS iteration #67 ========================================
- worst case average CPI: 1.299
- worst case efficiency: 0.843
- efficiency to beat: 0.843
- normalized lower bound 4137
--- checking solution
--- solution ok! Maximum rounding error: 0.000034
- solution found, obj var is: 4308
- de-normalized obj var: 0.858480
- time (local/global): 0.003/2.282
- branches (local/global): 240/138055
- fails (local/global): 101/65886
- lns time: 0.007000
- lns branches: 240
- lns fails: 101
LNS iteration #68 ========================================
- worst case average CPI: 1.299
- worst case efficiency: 0.844
- efficiency to beat: 0.844
- normalized lower bound 4151
--- checking solution
--- solution ok! Maximum rounding error: 0.000027
- solution found, obj var is: 4232
- de-normalized obj var: 0.853920
- time (local/global): 0.013/2.299
- branches (local/global): 866/138921
- fails (local/global): 400/66286
- lns time: 0.017000
- lns branches: 866
- lns fails: 400
LNS iteration #69 ========================================
- worst case average CPI: 1.299
- worst case efficiency: 0.844
- efficiency to beat: 0.844
- normalized lower bound 4156
--- checking solution
--- solution ok! Maximum rounding error: 0.000272
- solution found, obj var is: 4526
- de-normalized obj var: 0.871560
- time (local/global): 0.001/2.304
- branches (local/global): 20/138941
- fails (local/global): 0/66286
- lns time: 0.005000
- lns branches: 20
- lns fails: 0
LNS iteration #70 ========================================
- worst case average CPI: 1.248
- worst case efficiency: 0.845
- efficiency to beat: 0.845
- normalized lower bound 4169
--- checking solution
--- solution ok! Maximum rounding error: 0.000018
- solution found, obj var is: 4319
- de-normalized obj var: 0.859140
- time (local/global): 0.004/2.312
- branches (local/global): 297/139238
- fails (local/global): 129/66415
- lns time: 0.008000
- lns branches: 297
- lns fails: 129
LNS iteration #71 ========================================
- worst case average CPI: 1.248
- worst case efficiency: 0.845
- efficiency to beat: 0.845
- normalized lower bound 4169
--- checking solution
--- solution ok! Maximum rounding error: 0.000070
- solution found, obj var is: 4185
- de-normalized obj var: 0.851100
- time (local/global): 0.034/2.350
- branches (local/global): 3002/142240
- fails (local/global): 1420/67835
- lns time: 0.038000
- lns branches: 3002
- lns fails: 1420
LNS iteration #72 ========================================
- worst case average CPI: 1.248
- worst case efficiency: 0.845
- efficiency to beat: 0.845
- normalized lower bound 4173
--- checking solution
--- solution ok! Maximum rounding error: 0.000048
- solution found, obj var is: 4356
- de-normalized obj var: 0.861360
- time (local/global): 0.004/2.358
- branches (local/global): 251/142491
- fails (local/global): 107/67942
- lns time: 0.008000
- lns branches: 251
- lns fails: 107
LNS iteration #73 ========================================
- worst case average CPI: 1.248
- worst case efficiency: 0.846
- efficiency to beat: 0.846
- normalized lower bound 4190
--- checking solution
--- solution ok! Maximum rounding error: 0.000057
- solution found, obj var is: 4194
- de-normalized obj var: 0.851640
- time (local/global): 0.400/2.762
- branches (local/global): 22335/164826
- fails (local/global): 10829/78771
- lns time: 0.404000
- lns branches: 22335
- lns fails: 10829
LNS iteration #74 ========================================
- worst case average CPI: 1.248
- worst case efficiency: 0.847
- efficiency to beat: 0.847
- normalized lower bound 4200
--- checking solution
--- solution ok! Maximum rounding error: 0.000001
- solution found, obj var is: 4203
- de-normalized obj var: 0.852180
- time (local/global): 0.005/2.771
- branches (local/global): 287/165113
- fails (local/global): 127/78898
- lns time: 0.010000
- lns branches: 287
- lns fails: 127
LNS iteration #75 ========================================
- worst case average CPI: 1.248
- worst case efficiency: 0.848
- efficiency to beat: 0.848
- normalized lower bound 4220
--- checking solution
--- solution ok! Maximum rounding error: 0.000120
- solution found, obj var is: 4220
- de-normalized obj var: 0.853200
- time (local/global): 0.043/2.819
- branches (local/global): 2996/168109
- fails (local/global): 1420/80318
- lns time: 0.048000
- lns branches: 2996
- lns fails: 1420
LNS iteration #76 ========================================
- worst case average CPI: 1.248
- worst case efficiency: 0.850
- efficiency to beat: 0.850
- normalized lower bound 4247
--- checking solution
--- solution ok! Maximum rounding error: 0.000069
- solution found, obj var is: 4276
- de-normalized obj var: 0.856560
- time (local/global): 0.418/3.242
- branches (local/global): 22861/190970
- fails (local/global): 11092/91410
- lns time: 0.422000
- lns branches: 22861
- lns fails: 11092
LNS iteration #77 ========================================
- worst case average CPI: 1.248
- worst case efficiency: 0.850
- efficiency to beat: 0.850
- normalized lower bound 4259
--- checking solution
--- solution ok! Maximum rounding error: 0.000062
- solution found, obj var is: 4285
- de-normalized obj var: 0.857100
- time (local/global): 0.002/3.248
- branches (local/global): 223/191193
- fails (local/global): 100/91510
- lns time: 0.006000
- lns branches: 223
- lns fails: 100
LNS iteration #78 ========================================
- worst case average CPI: 1.248
- worst case efficiency: 0.852
- efficiency to beat: 0.852
- normalized lower bound 4276
--- checking solution
--- solution ok! Maximum rounding error: 0.000128
- solution found, obj var is: 4315
- de-normalized obj var: 0.858900
- time (local/global): 0.002/3.254
- branches (local/global): 139/191332
- fails (local/global): 61/91571
- lns time: 0.006000
- lns branches: 139
- lns fails: 61
LNS iteration #79 ========================================
- worst case average CPI: 1.248
- worst case efficiency: 0.852
- efficiency to beat: 0.852
- normalized lower bound 4277
--- checking solution
--- solution ok! Maximum rounding error: 0.000044
- solution found, obj var is: 4286
- de-normalized obj var: 0.857160
- time (local/global): 2.823/6.081
- branches (local/global): 162556/353888
- fails (local/global): 79420/170991
- lns time: 2.832000
- lns branches: 162556
- lns fails: 79420
LNS iteration #80 ========================================
- worst case average CPI: 1.248
- worst case efficiency: 0.852
- efficiency to beat: 0.852
- normalized lower bound 4280
--- checking solution
--- solution ok! Maximum rounding error: 0.000020
- solution found, obj var is: 4284
- de-normalized obj var: 0.857040
- time (local/global): 0.285/6.375
- branches (local/global): 24834/378722
- fails (local/global): 12006/182997
- lns time: 0.289000
- lns branches: 24834
- lns fails: 12006
LNS iteration #81 ========================================
- worst case average CPI: 1.403
- worst case efficiency: 0.853
- efficiency to beat: 0.853
- normalized lower bound 4307
--- checking solution
--- solution ok! Maximum rounding error: 0.000084
- solution found, obj var is: 4313
- de-normalized obj var: 0.858780
- time (local/global): 0.277/6.656
- branches (local/global): 14364/393086
- fails (local/global): 6943/189940
- lns time: 0.281000
- lns branches: 14364
- lns fails: 6943
LNS iteration #82 ========================================
- worst case average CPI: 1.045
- worst case efficiency: 0.854
- efficiency to beat: 0.854
- normalized lower bound 4314
--- checking solution
--- solution ok! Maximum rounding error: 0.000095
- solution found, obj var is: 4316
- de-normalized obj var: 0.858960
- time (local/global): 0.002/6.662
- branches (local/global): 125/393211
- fails (local/global): 53/189993
- lns time: 0.007000
- lns branches: 125
- lns fails: 53
LNS iteration #83 ========================================
- worst case average CPI: 1.045
- worst case efficiency: 0.854
- efficiency to beat: 0.854
- normalized lower bound 4318
- lns time: 3.004000
- lns branches: 245514
- lns fails: 120443
LNS iteration #84 ========================================
- worst case average CPI: 1.045
- worst case efficiency: 0.854
- efficiency to beat: 0.854
- normalized lower bound 4318
- lns time: 3.005000
- lns branches: 256148
- lns fails: 125551
LNS iteration #85 ========================================
- worst case average CPI: 1.045
- worst case efficiency: 0.854
- efficiency to beat: 0.854
- normalized lower bound 4318
--- checking solution
--- solution ok! Maximum rounding error: 0.000025
- solution found, obj var is: 4321
- de-normalized obj var: 0.859260
- time (local/global): 0.215/12.891
- branches (local/global): 17590/912463
- fails (local/global): 8510/444497
- lns time: 0.219000
- lns branches: 17590
- lns fails: 8510
LNS iteration #86 ========================================
- worst case average CPI: 1.045
- worst case efficiency: 0.855
- efficiency to beat: 0.855
- normalized lower bound 4334
- lns time: 3.004000
- lns branches: 243140
- lns fails: 119058
LNS iteration #87 ========================================
- worst case average CPI: 1.045
- worst case efficiency: 0.855
- efficiency to beat: 0.855
- normalized lower bound 4334
--- checking solution
--- solution ok! Maximum rounding error: 0.000014
- solution found, obj var is: 4348
- de-normalized obj var: 0.860880
- time (local/global): 0.132/16.031
- branches (local/global): 7464/1163067
- fails (local/global): 3596/567151
- lns time: 0.137000
- lns branches: 7464
- lns fails: 3596
LNS iteration #88 ========================================
- worst case average CPI: 1.045
- worst case efficiency: 0.855
- efficiency to beat: 0.855
- normalized lower bound 4338
--- checking solution
--- solution ok! Maximum rounding error: 0.000173
- solution found, obj var is: 4370
- de-normalized obj var: 0.862200
- time (local/global): 0.545/16.581
- branches (local/global): 42040/1205107
- fails (local/global): 20492/587643
- lns time: 0.550000
- lns branches: 42040
- lns fails: 20492
LNS iteration #89 ========================================
- worst case average CPI: 1.045
- worst case efficiency: 0.856
- efficiency to beat: 0.856
- normalized lower bound 4353
--- checking solution
--- solution ok! Maximum rounding error: 0.000108
- solution found, obj var is: 4358
- de-normalized obj var: 0.861480
- time (local/global): 0.019/16.605
- branches (local/global): 1116/1206223
- fails (local/global): 515/588158
- lns time: 0.023000
- lns branches: 1116
- lns fails: 515
LNS iteration #90 ========================================
- worst case average CPI: 1.045
- worst case efficiency: 0.857
- efficiency to beat: 0.857
- normalized lower bound 4368
- lns time: 3.004000
- lns branches: 235378
- lns fails: 115413
LNS iteration #91 ========================================
- worst case average CPI: 1.045
- worst case efficiency: 0.857
- efficiency to beat: 0.857
- normalized lower bound 4368
--- checking solution
--- solution ok! Maximum rounding error: 0.000064
- solution found, obj var is: 4379
- de-normalized obj var: 0.862740
- time (local/global): 1.137/20.750
- branches (local/global): 68150/1509751
- fails (local/global): 33129/736700
- lns time: 1.142000
- lns branches: 68150
- lns fails: 33129
LNS iteration #92 ========================================
- worst case average CPI: 1.045
- worst case efficiency: 0.857
- efficiency to beat: 0.857
- normalized lower bound 4371
--- checking solution
--- solution ok! Maximum rounding error: 0.000013
- solution found, obj var is: 4377
- de-normalized obj var: 0.862620
- time (local/global): 0.160/20.915
- branches (local/global): 15629/1525380
- fails (local/global): 7669/744369
- lns time: 0.164000
- lns branches: 15629
- lns fails: 7669
LNS iteration #93 ========================================
- worst case average CPI: 1.088
- worst case efficiency: 0.857
- efficiency to beat: 0.857
- normalized lower bound 4371
--- checking solution
--- solution ok! Maximum rounding error: 0.000066
- solution found, obj var is: 4402
- de-normalized obj var: 0.864120
- time (local/global): 0.047/20.966
- branches (local/global): 3597/1528977
- fails (local/global): 1700/746069
- lns time: 0.054000
- lns branches: 3597
- lns fails: 1700
LNS iteration #94 ========================================
- worst case average CPI: 1.088
- worst case efficiency: 0.859
- efficiency to beat: 0.859
- normalized lower bound 4394
--- checking solution
--- solution ok! Maximum rounding error: 0.000165
- solution found, obj var is: 4420
- de-normalized obj var: 0.865200
- time (local/global): 0.002/20.975
- branches (local/global): 58/1529035
- fails (local/global): 20/746089
- lns time: 0.006000
- lns branches: 58
- lns fails: 20
LNS iteration #95 ========================================
- worst case average CPI: 1.088
- worst case efficiency: 0.859
- efficiency to beat: 0.859
- normalized lower bound 4399
--- checking solution
--- solution ok! Maximum rounding error: 0.000098
- solution found, obj var is: 4407
- de-normalized obj var: 0.864420
- time (local/global): 0.008/20.987
- branches (local/global): 463/1529498
- fails (local/global): 205/746294
- lns time: 0.012000
- lns branches: 463
- lns fails: 205
LNS iteration #96 ========================================
- worst case average CPI: 1.088
- worst case efficiency: 0.859
- efficiency to beat: 0.859
- normalized lower bound 4402
--- checking solution
--- solution ok! Maximum rounding error: 0.000051
- solution found, obj var is: 4407
- de-normalized obj var: 0.864420
- time (local/global): 0.706/21.697
- branches (local/global): 56922/1586420
- fails (local/global): 27723/774017
- lns time: 0.710000
- lns branches: 56922
- lns fails: 27723
LNS iteration #97 ========================================
- worst case average CPI: 1.088
- worst case efficiency: 0.859
- efficiency to beat: 0.859
- normalized lower bound 4402
--- checking solution
--- solution ok! Maximum rounding error: 0.000040
- solution found, obj var is: 4418
- de-normalized obj var: 0.865080
- time (local/global): 0.117/21.818
- branches (local/global): 4792/1591212
- fails (local/global): 2291/776308
- lns time: 0.126000
- lns branches: 4792
- lns fails: 2291
LNS iteration #98 ========================================
- worst case average CPI: 1.088
- worst case efficiency: 0.859
- efficiency to beat: 0.859
- normalized lower bound 4402
--- checking solution
--- solution ok! Maximum rounding error: 0.000039
- solution found, obj var is: 4408
- de-normalized obj var: 0.864480
- time (local/global): 0.056/21.883
- branches (local/global): 2717/1593929
- fails (local/global): 1294/777602
- lns time: 0.063000
- lns branches: 2717
- lns fails: 1294
LNS iteration #99 ========================================
- worst case average CPI: 1.088
- worst case efficiency: 0.859
- efficiency to beat: 0.859
- normalized lower bound 4403
--- checking solution
--- solution ok! Maximum rounding error: 0.000021
- solution found, obj var is: 4465
- de-normalized obj var: 0.867900
- time (local/global): 0.047/21.937
- branches (local/global): 2740/1596669
- fails (local/global): 1304/778906
- lns time: 0.052000
- lns branches: 2740
- lns fails: 1304
LNS iteration #100 ========================================
- worst case average CPI: 0.641
- worst case efficiency: 0.859
- efficiency to beat: 0.859
- normalized lower bound 4406
--- checking solution
--- solution ok! Maximum rounding error: 0.000094
- solution found, obj var is: 4412
- de-normalized obj var: 0.864720
- time (local/global): 0.001/21.943
- branches (local/global): 42/1596711
- fails (local/global): 12/778918
- lns time: 0.009000
- lns branches: 42
- lns fails: 12
LNS iteration #101 ========================================
- worst case average CPI: 0.641
- worst case efficiency: 0.860
- efficiency to beat: 0.860
- normalized lower bound 4411
--- checking solution
--- solution ok! Maximum rounding error: 0.000054
- solution found, obj var is: 4411
- de-normalized obj var: 0.864660
- time (local/global): 0.644/22.595
- branches (local/global): 41398/1638109
- fails (local/global): 20175/799093
- lns time: 0.649000
- lns branches: 41398
- lns fails: 20175
LNS iteration #102 ========================================
- worst case average CPI: 0.801
- worst case efficiency: 0.860
- efficiency to beat: 0.860
- normalized lower bound 4414
--- checking solution
--- solution ok! Maximum rounding error: 0.000036
- solution found, obj var is: 4415
- de-normalized obj var: 0.864900
- time (local/global): 0.278/22.878
- branches (local/global): 16740/1654849
- fails (local/global): 8114/807207
- lns time: 0.286000
- lns branches: 16740
- lns fails: 8114
LNS iteration #103 ========================================
- worst case average CPI: 0.801
- worst case efficiency: 0.861
- efficiency to beat: 0.861
- normalized lower bound 4440
- lns time: 3.004000
- lns branches: 192091
- lns fails: 94200
LNS iteration #104 ========================================
- worst case average CPI: 0.801
- worst case efficiency: 0.861
- efficiency to beat: 0.861
- normalized lower bound 4440
- lns time: 3.004000
- lns branches: 180096
- lns fails: 88222
LNS iteration #105 ========================================
- worst case average CPI: 0.801
- worst case efficiency: 0.861
- efficiency to beat: 0.861
- normalized lower bound 4440
--- checking solution
--- solution ok! Maximum rounding error: 0.000107
- solution found, obj var is: 4498
- de-normalized obj var: 0.869880
- time (local/global): 0.161/29.055
- branches (local/global): 9763/2036799
- fails (local/global): 4699/994328
- lns time: 0.165000
- lns branches: 9763
- lns fails: 4699
LNS iteration #106 ========================================
- worst case average CPI: 0.801
- worst case efficiency: 0.863
- efficiency to beat: 0.863
- normalized lower bound 4461
--- checking solution
--- solution ok! Maximum rounding error: 0.000004
- solution found, obj var is: 4471
- de-normalized obj var: 0.868260
- time (local/global): 1.750/30.809
- branches (local/global): 135057/2171856
- fails (local/global): 66005/1060333
- lns time: 1.754000
- lns branches: 135057
- lns fails: 66005
LNS iteration #107 ========================================
- worst case average CPI: 0.801
- worst case efficiency: 0.863
- efficiency to beat: 0.863
- normalized lower bound 4467
- lns time: 3.004000
- lns branches: 218457
- lns fails: 107253
LNS iteration #108 ========================================
- worst case average CPI: 0.801
- worst case efficiency: 0.863
- efficiency to beat: 0.863
- normalized lower bound 4467
- lns time: 3.004000
- lns branches: 189557
- lns fails: 92986
LNS iteration #109 ========================================
- worst case average CPI: 0.801
- worst case efficiency: 0.863
- efficiency to beat: 0.863
- normalized lower bound 4467
--- checking solution
XXX Rounding error: 7
--- solution ok! Maximum rounding error: 0.000361
- solution found, obj var is: 4532
- de-normalized obj var: 0.871920
- time (local/global): 0.359/37.180
- branches (local/global): 29366/2609236
- fails (local/global): 14230/1274802
- lns time: 0.363000
- lns branches: 29366
- lns fails: 14230
LNS iteration #110 ========================================
- worst case average CPI: 0.801
- worst case efficiency: 0.863
- efficiency to beat: 0.863
- normalized lower bound 4470
- lns time: 3.004000
- lns branches: 145268
- lns fails: 71046
LNS iteration #111 ========================================
- worst case average CPI: 0.801
- worst case efficiency: 0.863
- efficiency to beat: 0.863
- normalized lower bound 4470
--- checking solution
--- solution ok! Maximum rounding error: 0.000134
- solution found, obj var is: 4547
- de-normalized obj var: 0.872820
- time (local/global): 0.049/40.237
- branches (local/global): 2605/2757109
- fails (local/global): 1239/1347087
- lns time: 0.054000
- lns branches: 2605
- lns fails: 1239
LNS iteration #112 ========================================
- worst case average CPI: 0.801
- worst case efficiency: 0.863
- efficiency to beat: 0.863
- normalized lower bound 4470
- lns time: 3.005000
- lns branches: 209319
- lns fails: 102742
LNS iteration #113 ========================================
- worst case average CPI: 0.801
- worst case efficiency: 0.863
- efficiency to beat: 0.863
- normalized lower bound 4470
--- checking solution
--- solution ok! Maximum rounding error: 0.000006
- solution found, obj var is: 4483
- de-normalized obj var: 0.868980
- time (local/global): 0.651/43.898
- branches (local/global): 34709/3001137
- fails (local/global): 16891/1466720
- lns time: 0.656000
- lns branches: 34709
- lns fails: 16891
LNS iteration #114 ========================================
- worst case average CPI: 0.801
- worst case efficiency: 0.863
- efficiency to beat: 0.863
- normalized lower bound 4471
- lns time: 3.005000
- lns branches: 179373
- lns fails: 87847
LNS iteration #115 ========================================
- worst case average CPI: 0.801
- worst case efficiency: 0.863
- efficiency to beat: 0.863
- normalized lower bound 4471
- lns time: 3.004000
- lns branches: 148178
- lns fails: 72484
LNS iteration #116 ========================================
- worst case average CPI: 0.801
- worst case efficiency: 0.863
- efficiency to beat: 0.863
- normalized lower bound 4471
- lns time: 3.004000
- lns branches: 215139
- lns fails: 105568
LNS iteration #117 ========================================
- worst case average CPI: 0.801
- worst case efficiency: 0.863
- efficiency to beat: 0.863
- normalized lower bound 4471
- lns time: 3.004000
- lns branches: 157003
- lns fails: 76731
LNS iteration #118 ========================================
- worst case average CPI: 0.801
- worst case efficiency: 0.863
- efficiency to beat: 0.863
- normalized lower bound 4471
- lns time: 3.005000
- lns branches: 193520
- lns fails: 94896
LNS iteration #119 ========================================
- worst case average CPI: 0.801
- worst case efficiency: 0.863
- efficiency to beat: 0.863
- normalized lower bound 4471
--- checking solution
--- solution ok! Maximum rounding error: 0.000018
- solution found, obj var is: 4525
- de-normalized obj var: 0.871500
- time (local/global): 0.323/59.248
- branches (local/global): 23300/3917650
- fails (local/global): 11291/1915537
- lns time: 0.328000
- lns branches: 23300
- lns fails: 11291
LNS iteration #120 ========================================
- worst case average CPI: 0.765
- worst case efficiency: 0.864
- efficiency to beat: 0.864
- normalized lower bound 4476
--- checking solution
--- solution ok! Maximum rounding error: 0.000055
- solution found, obj var is: 4486
- de-normalized obj var: 0.869160
- time (local/global): 0.070/59.323
- branches (local/global): 3632/3921282
- fails (local/global): 1723/1917260
- lns time: 0.075000
- lns branches: 3632
- lns fails: 1723
LNS iteration #121 ========================================
- worst case average CPI: 0.765
- worst case efficiency: 0.864
- efficiency to beat: 0.864
- normalized lower bound 4484
- lns time: 3.005000
- lns branches: 189028
- lns fails: 92731
LNS iteration #122 ========================================
- worst case average CPI: 0.765
- worst case efficiency: 0.864
- efficiency to beat: 0.864
- normalized lower bound 4484
- lns time: 3.004000
- lns branches: 229705
- lns fails: 113513
LNS iteration #123 ========================================
- worst case average CPI: 0.765
- worst case efficiency: 0.864
- efficiency to beat: 0.864
- normalized lower bound 4484
- lns time: 3.004000
- lns branches: 248496
- lns fails: 121706
LNS iteration #124 ========================================
- worst case average CPI: 0.765
- worst case efficiency: 0.864
- efficiency to beat: 0.864
- normalized lower bound 4484
- lns time: 3.004000
- lns branches: 217712
- lns fails: 106874
LNS iteration #125 ========================================
- worst case average CPI: 0.765
- worst case efficiency: 0.864
- efficiency to beat: 0.864
- normalized lower bound 4484
- lns time: 3.004000
- lns branches: 171533
- lns fails: 83990
LNS iteration #126 ========================================
- worst case average CPI: 0.765
- worst case efficiency: 0.864
- efficiency to beat: 0.864
- normalized lower bound 4484
--- checking solution
--- solution ok! Maximum rounding error: 0.000023
- solution found, obj var is: 4489
- de-normalized obj var: 0.869340
- time (local/global): 0.449/74.798
- branches (local/global): 26077/5003833
- fails (local/global): 12622/2448696
- lns time: 0.454000
- lns branches: 26077
- lns fails: 12622
LNS iteration #127 ========================================
- worst case average CPI: 0.765
- worst case efficiency: 0.864
- efficiency to beat: 0.864
- normalized lower bound 4485
--- checking solution
--- solution ok! Maximum rounding error: 0.000025
- solution found, obj var is: 4492
- de-normalized obj var: 0.869520
- time (local/global): 0.308/75.111
- branches (local/global): 21428/5025261
- fails (local/global): 10382/2459078
- lns time: 0.312000
- lns branches: 21428
- lns fails: 10382
LNS iteration #128 ========================================
- worst case average CPI: 0.765
- worst case efficiency: 0.864
- efficiency to beat: 0.864
- normalized lower bound 4491
--- checking solution
--- solution ok! Maximum rounding error: 0.000031
- solution found, obj var is: 4498
- de-normalized obj var: 0.869880
- time (local/global): 0.132/75.247
- branches (local/global): 9121/5034382
- fails (local/global): 4389/2463467
- lns time: 0.137000
- lns branches: 9121
- lns fails: 4389
LNS iteration #129 ========================================
- worst case average CPI: 0.943
- worst case efficiency: 0.865
- efficiency to beat: 0.865
- normalized lower bound 4495
--- checking solution
--- solution ok! Maximum rounding error: 0.000162
- solution found, obj var is: 4536
- de-normalized obj var: 0.872160
- time (local/global): 0.291/75.543
- branches (local/global): 17088/5051470
- fails (local/global): 8304/2471771
- lns time: 0.297000
- lns branches: 17088
- lns fails: 8304
LNS iteration #130 ========================================
- worst case average CPI: 0.824
- worst case efficiency: 0.865
- efficiency to beat: 0.865
- normalized lower bound 4498
- lns time: 3.005000
- lns branches: 194908
- lns fails: 95484
LNS iteration #131 ========================================
- worst case average CPI: 0.824
- worst case efficiency: 0.865
- efficiency to beat: 0.865
- normalized lower bound 4498
- lns time: 3.004000
- lns branches: 231716
- lns fails: 113601
LNS iteration #132 ========================================
- worst case average CPI: 0.824
- worst case efficiency: 0.865
- efficiency to beat: 0.865
- normalized lower bound 4498
- lns time: 3.005000
- lns branches: 226201
- lns fails: 110935
LNS iteration #133 ========================================
- worst case average CPI: 0.824
- worst case efficiency: 0.865
- efficiency to beat: 0.865
- normalized lower bound 4498
- lns time: 3.005000
- lns branches: 202675
- lns fails: 99550
LNS iteration #134 ========================================
- worst case average CPI: 0.824
- worst case efficiency: 0.865
- efficiency to beat: 0.865
- normalized lower bound 4498
- lns time: 2.436000
- lns branches: 137209
- lns fails: 67114

LNS optimization is over========================================
initial worst case average CPI: 2.535
final worst case average CPI: 0.824
initial worst case efficiency: 0.664
final worst case efficiency: 0.865
number of iterations: 135
total time: 90004.000000
total branches: 6044179
total fails: 2958455

Final Solution: 0->45, 1->0, 2->11, 3->29, 4->10, 5->38, 6->3, 7->36, 8->43, 9->19, 10->43, 11->33, 12->41, 13->13, 14->32, 15->4, 16->46, 17->47, 18->18, 19->22, 20->7, 21->45, 22->33, 23->25, 24->20, 25->40, 26->17, 27->17, 28->26, 29->34, 30->3, 31->2, 32->35, 33->45, 34->42, 35->8, 36->42, 37->26, 38->0, 39->31, 40->16, 41->29, 42->33, 43->10, 44->31, 45->44, 46->42, 47->36, 48->16, 49->0, 50->24, 51->34, 52->37, 53->22, 54->35, 55->25, 56->12, 57->0, 58->25, 59->23, 60->18, 61->20, 62->23, 63->40, 64->6, 65->6, 66->8, 67->45, 68->32, 69->4, 70->28, 71->16, 72->35, 73->38, 74->3, 75->26, 76->18, 77->33, 78->38, 79->26, 80->9, 81->12, 82->5, 83->25, 84->41, 85->8, 86->39, 87->11, 88->25, 89->34, 90->5, 91->19, 92->28, 93->13, 94->15, 95->11, 96->19, 97->36, 98->46, 99->16, 100->6, 101->23, 102->11, 103->20, 104->17, 105->12, 106->13, 107->23, 108->28, 109->34, 110->16, 111->21, 112->9, 113->12, 114->16, 115->7, 116->37, 117->25, 118->20, 119->32, 120->45, 121->31, 122->40, 123->13, 124->27, 125->14, 126->7, 127->44, 128->24, 129->6, 130->43, 131->17, 132->40, 133->13, 134->30, 135->38, 136->31, 137->23, 138->4, 139->28, 140->46, 141->3, 142->31, 143->41, 144->14, 145->13, 146->15, 147->27, 148->10, 149->40, 150->42, 151->19, 152->7, 153->1, 154->11, 155->3, 156->14, 157->15, 158->8, 159->22, 160->34, 161->20, 162->46, 163->4, 164->27, 165->24, 166->22, 167->2, 168->45, 169->29, 170->36, 171->9, 172->37, 173->18, 174->9, 175->5, 176->2, 177->37, 178->39, 179->19, 180->17, 181->28, 182->19, 183->33, 184->26, 185->39, 186->38, 187->44, 188->32, 189->8, 190->26, 191->46, 192->44, 193->22, 194->0, 195->37, 196->37, 197->33, 198->18, 199->28, 200->10, 201->9, 202->22, 203->30, 204->8, 205->39, 206->7, 207->4, 208->14, 209->27, 210->5, 211->43, 212->18, 213->44, 214->36, 215->12, 216->30, 217->39, 218->35, 219->30, 220->2, 221->42, 222->24, 223->6, 224->47, 225->3, 226->24, 227->34, 228->30, 229->42, 230->21, 231->21, 232->12, 233->0, 234->29, 235->15, 236->43, 237->43, 238->21, 239->15, 240->20, 241->41, 242->17, 243->39, 244->47, 245->1, 246->38, 247->30, 248->14, 249->5, 250->9, 251->24, 252->44, 253->1, 254->31, 255->27, 256->47, 257->1, 258->32, 259->2, 260->11, 261->35, 262->21, 263->1, 264->21, 265->32, 266->41, 267->41, 268->14, 269->1, 270->7, 271->2, 272->23, 273->5, 274->10, 275->35, 276->15, 277->46, 278->36, 279->47, 280->40, 281->29, 282->47, 283->27, 284->29, 285->4, 286->10, 287->6

Average CPI map:
	7.68,	1.21,	0.82,	1.21,	1.12,	0.94
	2.15,	6.74,	6.53,	7.29,	6.72,	2.13
	2.71,	8.54,	8.08,	9.49,	8.08,	2.70
	2.79,	8.12,	8.12,	7.96,	6.78,	2.70
	2.74,	7.13,	8.27,	8.49,	8.11,	2.30
	2.50,	8.24,	8.87,	8.82,	7.12,	2.56
	1.09,	8.11,	7.65,	6.51,	7.33,	2.45
	2.62,	2.84,	6.14,	6.02,	6.90,	2.56

Efficiency map:
	0.996,	0.948,	0.883,	0.922,	0.949,	0.996
	0.870,	0.874,	0.869,	0.872,	0.869,	0.867
	0.876,	0.869,	0.870,	0.883,	0.880,	0.866
	0.870,	0.868,	0.869,	0.866,	0.875,	0.867
	0.871,	0.870,	0.866,	0.866,	0.872,	0.868
	0.865,	0.869,	0.880,	0.892,	0.867,	0.868
	0.872,	0.869,	0.865,	0.866,	0.869,	0.873
	0.871,	0.884,	0.876,	0.869,	0.873,	0.875
