==============================================================================
LNS optimizer for EML demonstration
==============================================================================

Option values: --wld-idx 19 --prec 10000 --step 0 --global-tlim 90 --global-iter 1000 --local-tlim 3 --local-nsol 1 --restart-base 100 --restart-strat luby --seed 301

Starting the Optimization Process
reserved_tasks None
Finding a first solution
LNS iteration #0 ========================================
- worst case average CPI: 2.112
- worst case efficiency: 0.638
- efficiency to beat: 0.638
- normalized lower bound 723
--- checking solution
--- solution ok! Maximum rounding error: 0.000054
- solution found, obj var is: 861
- de-normalized obj var: 0.651660
- time (local/global): 0.000/0.000
- branches (local/global): 22/22
- fails (local/global): 0/0
- lns time: 0.005000
- lns branches: 22
- lns fails: 0
LNS iteration #1 ========================================
- worst case average CPI: 2.085
- worst case efficiency: 0.645
- efficiency to beat: 0.645
- normalized lower bound 835
--- checking solution
--- solution ok! Maximum rounding error: 0.000349
- solution found, obj var is: 895
- de-normalized obj var: 0.653700
- time (local/global): 0.020/0.025
- branches (local/global): 1719/1741
- fails (local/global): 800/800
- lns time: 0.024000
- lns branches: 1719
- lns fails: 800
LNS iteration #2 ========================================
- worst case average CPI: 1.755
- worst case efficiency: 0.646
- efficiency to beat: 0.646
- normalized lower bound 850
- lns time: 3.004000
- lns branches: 198534
- lns fails: 97148
LNS iteration #3 ========================================
- worst case average CPI: 1.755
- worst case efficiency: 0.646
- efficiency to beat: 0.646
- normalized lower bound 850
- lns time: 3.004000
- lns branches: 220834
- lns fails: 108185
LNS iteration #4 ========================================
- worst case average CPI: 1.755
- worst case efficiency: 0.646
- efficiency to beat: 0.646
- normalized lower bound 850
--- checking solution
--- solution ok! Maximum rounding error: 0.000071
- solution found, obj var is: 874
- de-normalized obj var: 0.652440
- time (local/global): 0.001/6.038
- branches (local/global): 21/421130
- fails (local/global): 0/206133
- lns time: 0.005000
- lns branches: 21
- lns fails: 0
LNS iteration #5 ========================================
- worst case average CPI: 1.742
- worst case efficiency: 0.650
- efficiency to beat: 0.650
- normalized lower bound 911
--- checking solution
--- solution ok! Maximum rounding error: 0.000076
- solution found, obj var is: 1539
- de-normalized obj var: 0.692340
- time (local/global): 0.001/6.043
- branches (local/global): 22/421152
- fails (local/global): 0/206133
- lns time: 0.005000
- lns branches: 22
- lns fails: 0
LNS iteration #6 ========================================
- worst case average CPI: 1.636
- worst case efficiency: 0.652
- efficiency to beat: 0.652
- normalized lower bound 956
--- checking solution
--- solution ok! Maximum rounding error: 0.000000
- solution found, obj var is: 1166
- de-normalized obj var: 0.669960
- time (local/global): 0.000/6.047
- branches (local/global): 16/421168
- fails (local/global): 0/206133
- lns time: 0.004000
- lns branches: 16
- lns fails: 0
LNS iteration #7 ========================================
- worst case average CPI: 1.636
- worst case efficiency: 0.653
- efficiency to beat: 0.653
- normalized lower bound 960
- lns time: 3.004000
- lns branches: 191106
- lns fails: 94328
LNS iteration #8 ========================================
- worst case average CPI: 1.636
- worst case efficiency: 0.653
- efficiency to beat: 0.653
- normalized lower bound 960
--- checking solution
--- solution ok! Maximum rounding error: 0.000025
- solution found, obj var is: 982
- de-normalized obj var: 0.658920
- time (local/global): 0.011/9.066
- branches (local/global): 911/613185
- fails (local/global): 420/300881
- lns time: 0.015000
- lns branches: 911
- lns fails: 420
LNS iteration #9 ========================================
- worst case average CPI: 1.636
- worst case efficiency: 0.653
- efficiency to beat: 0.653
- normalized lower bound 966
--- checking solution
--- solution ok! Maximum rounding error: 0.000039
- solution found, obj var is: 1993
- de-normalized obj var: 0.719580
- time (local/global): 0.001/9.071
- branches (local/global): 22/613207
- fails (local/global): 0/300881
- lns time: 0.005000
- lns branches: 22
- lns fails: 0
LNS iteration #10 ========================================
- worst case average CPI: 1.636
- worst case efficiency: 0.653
- efficiency to beat: 0.653
- normalized lower bound 972
--- checking solution
--- solution ok! Maximum rounding error: 0.000110
- solution found, obj var is: 3430
- de-normalized obj var: 0.805800
- time (local/global): 0.005/9.080
- branches (local/global): 411/613618
- fails (local/global): 186/301067
- lns time: 0.009000
- lns branches: 411
- lns fails: 186
LNS iteration #11 ========================================
- worst case average CPI: 1.636
- worst case efficiency: 0.654
- efficiency to beat: 0.654
- normalized lower bound 988
--- checking solution
--- solution ok! Maximum rounding error: 0.000028
- solution found, obj var is: 1160
- de-normalized obj var: 0.669600
- time (local/global): 0.001/9.085
- branches (local/global): 24/613642
- fails (local/global): 1/301068
- lns time: 0.005000
- lns branches: 24
- lns fails: 1
LNS iteration #12 ========================================
- worst case average CPI: 1.636
- worst case efficiency: 0.657
- efficiency to beat: 0.657
- normalized lower bound 1027
--- checking solution
--- solution ok! Maximum rounding error: 0.000113
- solution found, obj var is: 1064
- de-normalized obj var: 0.663840
- time (local/global): 0.013/9.102
- branches (local/global): 1088/614730
- fails (local/global): 500/301568
- lns time: 0.017000
- lns branches: 1088
- lns fails: 500
LNS iteration #13 ========================================
- worst case average CPI: 1.636
- worst case efficiency: 0.658
- efficiency to beat: 0.658
- normalized lower bound 1057
--- checking solution
--- solution ok! Maximum rounding error: 0.000147
- solution found, obj var is: 1060
- de-normalized obj var: 0.663600
- time (local/global): 0.058/9.164
- branches (local/global): 4256/618986
- fails (local/global): 2010/303578
- lns time: 0.062000
- lns branches: 4256
- lns fails: 2010
LNS iteration #14 ========================================
- worst case average CPI: 1.424
- worst case efficiency: 0.660
- efficiency to beat: 0.660
- normalized lower bound 1077
--- checking solution
--- solution ok! Maximum rounding error: 0.000084
- solution found, obj var is: 1102
- de-normalized obj var: 0.666120
- time (local/global): 0.004/9.172
- branches (local/global): 240/619226
- fails (local/global): 101/303679
- lns time: 0.008000
- lns branches: 240
- lns fails: 101
LNS iteration #15 ========================================
- worst case average CPI: 1.424
- worst case efficiency: 0.664
- efficiency to beat: 0.664
- normalized lower bound 1146
--- checking solution
--- solution ok! Maximum rounding error: 0.000060
- solution found, obj var is: 1147
- de-normalized obj var: 0.668820
- time (local/global): 0.029/9.205
- branches (local/global): 1855/621081
- fails (local/global): 867/304546
- lns time: 0.033000
- lns branches: 1855
- lns fails: 867
LNS iteration #16 ========================================
- worst case average CPI: 1.424
- worst case efficiency: 0.664
- efficiency to beat: 0.664
- normalized lower bound 1148
--- checking solution
--- solution ok! Maximum rounding error: 0.000061
- solution found, obj var is: 1334
- de-normalized obj var: 0.680040
- time (local/global): 0.003/9.212
- branches (local/global): 257/621338
- fails (local/global): 109/304655
- lns time: 0.007000
- lns branches: 257
- lns fails: 109
LNS iteration #17 ========================================
- worst case average CPI: 1.424
- worst case efficiency: 0.664
- efficiency to beat: 0.664
- normalized lower bound 1151
--- checking solution
--- solution ok! Maximum rounding error: 0.000059
- solution found, obj var is: 1256
- de-normalized obj var: 0.675360
- time (local/global): 0.027/9.243
- branches (local/global): 2533/623871
- fails (local/global): 1200/305855
- lns time: 0.031000
- lns branches: 2533
- lns fails: 1200
LNS iteration #18 ========================================
- worst case average CPI: 1.424
- worst case efficiency: 0.664
- efficiency to beat: 0.664
- normalized lower bound 1153
--- checking solution
--- solution ok! Maximum rounding error: 0.000097
- solution found, obj var is: 1292
- de-normalized obj var: 0.677520
- time (local/global): 0.105/9.352
- branches (local/global): 6893/630764
- fails (local/global): 3306/309161
- lns time: 0.109000
- lns branches: 6893
- lns fails: 3306
LNS iteration #19 ========================================
- worst case average CPI: 1.404
- worst case efficiency: 0.666
- efficiency to beat: 0.666
- normalized lower bound 1182
--- checking solution
--- solution ok! Maximum rounding error: 0.000025
- solution found, obj var is: 1251
- de-normalized obj var: 0.675060
- time (local/global): 0.001/9.357
- branches (local/global): 62/630826
- fails (local/global): 20/309181
- lns time: 0.005000
- lns branches: 62
- lns fails: 20
LNS iteration #20 ========================================
- worst case average CPI: 1.404
- worst case efficiency: 0.667
- efficiency to beat: 0.667
- normalized lower bound 1193
--- checking solution
--- solution ok! Maximum rounding error: 0.000030
- solution found, obj var is: 1347
- de-normalized obj var: 0.680820
- time (local/global): 0.006/9.367
- branches (local/global): 458/631284
- fails (local/global): 200/309381
- lns time: 0.011000
- lns branches: 458
- lns fails: 200
LNS iteration #21 ========================================
- worst case average CPI: 1.404
- worst case efficiency: 0.671
- efficiency to beat: 0.671
- normalized lower bound 1264
--- checking solution
--- solution ok! Maximum rounding error: 0.000079
- solution found, obj var is: 1853
- de-normalized obj var: 0.711180
- time (local/global): 0.001/9.373
- branches (local/global): 22/631306
- fails (local/global): 1/309382
- lns time: 0.005000
- lns branches: 22
- lns fails: 1
LNS iteration #22 ========================================
- worst case average CPI: 1.424
- worst case efficiency: 0.672
- efficiency to beat: 0.672
- normalized lower bound 1289
--- checking solution
--- solution ok! Maximum rounding error: 0.000028
- solution found, obj var is: 1403
- de-normalized obj var: 0.684180
- time (local/global): 0.003/9.380
- branches (local/global): 238/631544
- fails (local/global): 100/309482
- lns time: 0.007000
- lns branches: 238
- lns fails: 100
LNS iteration #23 ========================================
- worst case average CPI: 1.424
- worst case efficiency: 0.675
- efficiency to beat: 0.675
- normalized lower bound 1340
--- checking solution
--- solution ok! Maximum rounding error: 0.000041
- solution found, obj var is: 1343
- de-normalized obj var: 0.680580
- time (local/global): 0.088/9.472
- branches (local/global): 9485/641029
- fails (local/global): 4617/314099
- lns time: 0.093000
- lns branches: 9485
- lns fails: 4617
LNS iteration #24 ========================================
- worst case average CPI: 1.424
- worst case efficiency: 0.677
- efficiency to beat: 0.677
- normalized lower bound 1363
--- checking solution
--- solution ok! Maximum rounding error: 0.000028
- solution found, obj var is: 1443
- de-normalized obj var: 0.686580
- time (local/global): 0.006/9.483
- branches (local/global): 435/641464
- fails (local/global): 199/314298
- lns time: 0.010000
- lns branches: 435
- lns fails: 199
LNS iteration #25 ========================================
- worst case average CPI: 1.424
- worst case efficiency: 0.681
- efficiency to beat: 0.681
- normalized lower bound 1429
--- checking solution
--- solution ok! Maximum rounding error: 0.000193
- solution found, obj var is: 1481
- de-normalized obj var: 0.688860
- time (local/global): 0.003/9.490
- branches (local/global): 238/641702
- fails (local/global): 100/314398
- lns time: 0.007000
- lns branches: 238
- lns fails: 100
LNS iteration #26 ========================================
- worst case average CPI: 1.424
- worst case efficiency: 0.681
- efficiency to beat: 0.681
- normalized lower bound 1441
--- checking solution
--- solution ok! Maximum rounding error: 0.000034
- solution found, obj var is: 1477
- de-normalized obj var: 0.688620
- time (local/global): 0.019/9.513
- branches (local/global): 1855/643557
- fails (local/global): 870/315268
- lns time: 0.023000
- lns branches: 1855
- lns fails: 870
LNS iteration #27 ========================================
- worst case average CPI: 1.424
- worst case efficiency: 0.682
- efficiency to beat: 0.682
- normalized lower bound 1448
--- checking solution
--- solution ok! Maximum rounding error: 0.000050
- solution found, obj var is: 1476
- de-normalized obj var: 0.688560
- time (local/global): 0.001/9.518
- branches (local/global): 23/643580
- fails (local/global): 1/315269
- lns time: 0.005000
- lns branches: 23
- lns fails: 1
LNS iteration #28 ========================================
- worst case average CPI: 1.424
- worst case efficiency: 0.687
- efficiency to beat: 0.687
- normalized lower bound 1530
--- checking solution
--- solution ok! Maximum rounding error: 0.000047
- solution found, obj var is: 1541
- de-normalized obj var: 0.692460
- time (local/global): 0.004/9.526
- branches (local/global): 280/643860
- fails (local/global): 121/315390
- lns time: 0.008000
- lns branches: 280
- lns fails: 121
LNS iteration #29 ========================================
- worst case average CPI: 1.424
- worst case efficiency: 0.687
- efficiency to beat: 0.687
- normalized lower bound 1531
--- checking solution
--- solution ok! Maximum rounding error: 0.000030
- solution found, obj var is: 1574
- de-normalized obj var: 0.694440
- time (local/global): 0.057/9.587
- branches (local/global): 4316/648176
- fails (local/global): 2043/317433
- lns time: 0.061000
- lns branches: 4316
- lns fails: 2043
LNS iteration #30 ========================================
- worst case average CPI: 1.424
- worst case efficiency: 0.688
- efficiency to beat: 0.688
- normalized lower bound 1553
--- checking solution
--- solution ok! Maximum rounding error: 0.000043
- solution found, obj var is: 1568
- de-normalized obj var: 0.694080
- time (local/global): 0.047/9.638
- branches (local/global): 3836/652012
- fails (local/global): 1812/319245
- lns time: 0.051000
- lns branches: 3836
- lns fails: 1812
LNS iteration #31 ========================================
- worst case average CPI: 1.416
- worst case efficiency: 0.688
- efficiency to beat: 0.688
- normalized lower bound 1556
--- checking solution
--- solution ok! Maximum rounding error: 0.000118
- solution found, obj var is: 1592
- de-normalized obj var: 0.695520
- time (local/global): 0.039/9.681
- branches (local/global): 3245/655257
- fails (local/global): 1535/320780
- lns time: 0.044000
- lns branches: 3245
- lns fails: 1535
LNS iteration #32 ========================================
- worst case average CPI: 1.416
- worst case efficiency: 0.689
- efficiency to beat: 0.689
- normalized lower bound 1566
--- checking solution
--- solution ok! Maximum rounding error: 0.000015
- solution found, obj var is: 1625
- de-normalized obj var: 0.697500
- time (local/global): 0.035/9.721
- branches (local/global): 3380/658637
- fails (local/global): 1601/322381
- lns time: 0.039000
- lns branches: 3380
- lns fails: 1601
LNS iteration #33 ========================================
- worst case average CPI: 1.416
- worst case efficiency: 0.690
- efficiency to beat: 0.690
- normalized lower bound 1580
- lns time: 3.004000
- lns branches: 269278
- lns fails: 131749
LNS iteration #34 ========================================
- worst case average CPI: 1.416
- worst case efficiency: 0.690
- efficiency to beat: 0.690
- normalized lower bound 1580
--- checking solution
--- solution ok! Maximum rounding error: 0.000025
- solution found, obj var is: 1597
- de-normalized obj var: 0.695820
- time (local/global): 0.202/12.931
- branches (local/global): 19051/946966
- fails (local/global): 9206/463336
- lns time: 0.206000
- lns branches: 19051
- lns fails: 9206
LNS iteration #35 ========================================
- worst case average CPI: 1.416
- worst case efficiency: 0.694
- efficiency to beat: 0.694
- normalized lower bound 1649
--- checking solution
--- solution ok! Maximum rounding error: 0.000070
- solution found, obj var is: 1704
- de-normalized obj var: 0.702240
- time (local/global): 0.018/12.953
- branches (local/global): 1721/948687
- fails (local/global): 801/464137
- lns time: 0.022000
- lns branches: 1721
- lns fails: 801
LNS iteration #36 ========================================
- worst case average CPI: 1.416
- worst case efficiency: 0.694
- efficiency to beat: 0.694
- normalized lower bound 1655
--- checking solution
--- solution ok! Maximum rounding error: 0.000045
- solution found, obj var is: 1668
- de-normalized obj var: 0.700080
- time (local/global): 0.036/12.993
- branches (local/global): 4026/952713
- fails (local/global): 1948/466085
- lns time: 0.040000
- lns branches: 4026
- lns fails: 1948
LNS iteration #37 ========================================
- worst case average CPI: 1.416
- worst case efficiency: 0.695
- efficiency to beat: 0.695
- normalized lower bound 1663
--- checking solution
--- solution ok! Maximum rounding error: 0.000025
- solution found, obj var is: 1795
- de-normalized obj var: 0.707700
- time (local/global): 0.207/13.204
- branches (local/global): 20787/973500
- fails (local/global): 10019/476104
- lns time: 0.211000
- lns branches: 20787
- lns fails: 10019
LNS iteration #38 ========================================
- worst case average CPI: 1.416
- worst case efficiency: 0.696
- efficiency to beat: 0.696
- normalized lower bound 1680
--- checking solution
--- solution ok! Maximum rounding error: 0.000029
- solution found, obj var is: 1697
- de-normalized obj var: 0.701820
- time (local/global): 0.010/13.218
- branches (local/global): 850/974350
- fails (local/global): 402/476506
- lns time: 0.014000
- lns branches: 850
- lns fails: 402
LNS iteration #39 ========================================
- worst case average CPI: 1.416
- worst case efficiency: 0.696
- efficiency to beat: 0.696
- normalized lower bound 1682
--- checking solution
--- solution ok! Maximum rounding error: 0.000081
- solution found, obj var is: 1687
- de-normalized obj var: 0.701220
- time (local/global): 0.008/13.230
- branches (local/global): 851/975201
- fails (local/global): 400/476906
- lns time: 0.012000
- lns branches: 851
- lns fails: 400
LNS iteration #40 ========================================
- worst case average CPI: 1.416
- worst case efficiency: 0.697
- efficiency to beat: 0.697
- normalized lower bound 1695
--- checking solution
--- solution ok! Maximum rounding error: 0.000077
- solution found, obj var is: 1871
- de-normalized obj var: 0.712260
- time (local/global): 0.005/13.239
- branches (local/global): 449/975650
- fails (local/global): 200/477106
- lns time: 0.009000
- lns branches: 449
- lns fails: 200
LNS iteration #41 ========================================
- worst case average CPI: 1.416
- worst case efficiency: 0.700
- efficiency to beat: 0.700
- normalized lower bound 1754
--- checking solution
--- solution ok! Maximum rounding error: 0.000057
- solution found, obj var is: 2516
- de-normalized obj var: 0.750960
- time (local/global): 0.003/13.246
- branches (local/global): 243/975893
- fails (local/global): 103/477209
- lns time: 0.007000
- lns branches: 243
- lns fails: 103
LNS iteration #42 ========================================
- worst case average CPI: 1.416
- worst case efficiency: 0.701
- efficiency to beat: 0.701
- normalized lower bound 1772
--- checking solution
--- solution ok! Maximum rounding error: 0.000028
- solution found, obj var is: 1801
- de-normalized obj var: 0.708060
- time (local/global): 0.013/13.263
- branches (local/global): 1235/977128
- fails (local/global): 575/477784
- lns time: 0.017000
- lns branches: 1235
- lns fails: 575
LNS iteration #43 ========================================
- worst case average CPI: 1.416
- worst case efficiency: 0.702
- efficiency to beat: 0.702
- normalized lower bound 1776
--- checking solution
--- solution ok! Maximum rounding error: 0.000014
- solution found, obj var is: 1777
- de-normalized obj var: 0.706620
- time (local/global): 0.508/13.775
- branches (local/global): 41593/1018721
- fails (local/global): 20243/498027
- lns time: 0.512000
- lns branches: 41593
- lns fails: 20243
LNS iteration #44 ========================================
- worst case average CPI: 1.416
- worst case efficiency: 0.702
- efficiency to beat: 0.702
- normalized lower bound 1789
--- checking solution
--- solution ok! Maximum rounding error: 0.000049
- solution found, obj var is: 1914
- de-normalized obj var: 0.714840
- time (local/global): 0.001/13.780
- branches (local/global): 55/1018776
- fails (local/global): 17/498044
- lns time: 0.005000
- lns branches: 55
- lns fails: 17
LNS iteration #45 ========================================
- worst case average CPI: 1.439
- worst case efficiency: 0.702
- efficiency to beat: 0.702
- normalized lower bound 1791
--- checking solution
--- solution ok! Maximum rounding error: 0.000224
- solution found, obj var is: 1791
- de-normalized obj var: 0.707460
- time (local/global): 2.990/16.774
- branches (local/global): 286189/1304965
- fails (local/global): 140229/638273
- lns time: 2.994000
- lns branches: 286189
- lns fails: 140229
LNS iteration #46 ========================================
- worst case average CPI: 1.439
- worst case efficiency: 0.703
- efficiency to beat: 0.703
- normalized lower bound 1804
--- checking solution
--- solution ok! Maximum rounding error: 0.000059
- solution found, obj var is: 1853
- de-normalized obj var: 0.711180
- time (local/global): 0.005/16.783
- branches (local/global): 237/1305202
- fails (local/global): 100/638373
- lns time: 0.010000
- lns branches: 237
- lns fails: 100
LNS iteration #47 ========================================
- worst case average CPI: 1.439
- worst case efficiency: 0.706
- efficiency to beat: 0.706
- normalized lower bound 1850
--- checking solution
--- solution ok! Maximum rounding error: 0.000069
- solution found, obj var is: 1858
- de-normalized obj var: 0.711480
- time (local/global): 0.228/17.016
- branches (local/global): 20318/1325520
- fails (local/global): 9819/648192
- lns time: 0.233000
- lns branches: 20318
- lns fails: 9819
LNS iteration #48 ========================================
- worst case average CPI: 1.439
- worst case efficiency: 0.707
- efficiency to beat: 0.707
- normalized lower bound 1865
--- checking solution
--- solution ok! Maximum rounding error: 0.000075
- solution found, obj var is: 4065
- de-normalized obj var: 0.843900
- time (local/global): 0.003/17.024
- branches (local/global): 238/1325758
- fails (local/global): 100/648292
- lns time: 0.007000
- lns branches: 238
- lns fails: 100
LNS iteration #49 ========================================
- worst case average CPI: 1.439
- worst case efficiency: 0.708
- efficiency to beat: 0.708
- normalized lower bound 1888
--- checking solution
--- solution ok! Maximum rounding error: 0.000083
- solution found, obj var is: 1895
- de-normalized obj var: 0.713700
- time (local/global): 0.058/17.086
- branches (local/global): 5052/1330810
- fails (local/global): 2406/650698
- lns time: 0.062000
- lns branches: 5052
- lns fails: 2406
LNS iteration #50 ========================================
- worst case average CPI: 1.439
- worst case efficiency: 0.709
- efficiency to beat: 0.709
- normalized lower bound 1895
--- checking solution
--- solution ok! Maximum rounding error: 0.000000
- solution found, obj var is: 1973
- de-normalized obj var: 0.718380
- time (local/global): 0.009/17.099
- branches (local/global): 1060/1331870
- fails (local/global): 501/651199
- lns time: 0.013000
- lns branches: 1060
- lns fails: 501
LNS iteration #51 ========================================
- worst case average CPI: 1.495
- worst case efficiency: 0.710
- efficiency to beat: 0.710
- normalized lower bound 1922
--- checking solution
--- solution ok! Maximum rounding error: 0.000025
- solution found, obj var is: 1937
- de-normalized obj var: 0.716220
- time (local/global): 0.528/17.631
- branches (local/global): 49697/1381567
- fails (local/global): 24102/675301
- lns time: 0.532000
- lns branches: 49697
- lns fails: 24102
LNS iteration #52 ========================================
- worst case average CPI: 1.504
- worst case efficiency: 0.711
- efficiency to beat: 0.711
- normalized lower bound 1936
--- checking solution
--- solution ok! Maximum rounding error: 0.000128
- solution found, obj var is: 2114
- de-normalized obj var: 0.726840
- time (local/global): 0.003/17.638
- branches (local/global): 240/1381807
- fails (local/global): 100/675401
- lns time: 0.007000
- lns branches: 240
- lns fails: 100
LNS iteration #53 ========================================
- worst case average CPI: 1.504
- worst case efficiency: 0.712
- efficiency to beat: 0.712
- normalized lower bound 1947
--- checking solution
--- solution ok! Maximum rounding error: 0.000034
- solution found, obj var is: 1947
- de-normalized obj var: 0.716820
- time (local/global): 0.021/17.663
- branches (local/global): 1977/1383784
- fails (local/global): 932/676333
- lns time: 0.025000
- lns branches: 1977
- lns fails: 932
LNS iteration #54 ========================================
- worst case average CPI: 1.504
- worst case efficiency: 0.713
- efficiency to beat: 0.713
- normalized lower bound 1966
--- checking solution
--- solution ok! Maximum rounding error: 0.000102
- solution found, obj var is: 2010
- de-normalized obj var: 0.720600
- time (local/global): 0.003/17.670
- branches (local/global): 334/1384118
- fails (local/global): 153/676486
- lns time: 0.007000
- lns branches: 334
- lns fails: 153
LNS iteration #55 ========================================
- worst case average CPI: 1.400
- worst case efficiency: 0.712
- efficiency to beat: 0.712
- normalized lower bound 1953
--- checking solution
--- solution ok! Maximum rounding error: 0.000054
- solution found, obj var is: 2632
- de-normalized obj var: 0.757920
- time (local/global): 0.090/17.764
- branches (local/global): 7734/1391852
- fails (local/global): 3700/680186
- lns time: 0.094000
- lns branches: 7734
- lns fails: 3700
LNS iteration #56 ========================================
- worst case average CPI: 1.400
- worst case efficiency: 0.716
- efficiency to beat: 0.716
- normalized lower bound 2020
--- checking solution
--- solution ok! Maximum rounding error: 0.000043
- solution found, obj var is: 2029
- de-normalized obj var: 0.721740
- time (local/global): 0.046/17.814
- branches (local/global): 3515/1395367
- fails (local/global): 1670/681856
- lns time: 0.050000
- lns branches: 3515
- lns fails: 1670
LNS iteration #57 ========================================
- worst case average CPI: 1.400
- worst case efficiency: 0.717
- efficiency to beat: 0.717
- normalized lower bound 2032
--- checking solution
--- solution ok! Maximum rounding error: 0.000141
- solution found, obj var is: 2106
- de-normalized obj var: 0.726360
- time (local/global): 0.005/17.823
- branches (local/global): 455/1395822
- fails (local/global): 201/682057
- lns time: 0.009000
- lns branches: 455
- lns fails: 201
LNS iteration #58 ========================================
- worst case average CPI: 1.400
- worst case efficiency: 0.718
- efficiency to beat: 0.718
- normalized lower bound 2057
--- checking solution
--- solution ok! Maximum rounding error: 0.000078
- solution found, obj var is: 2244
- de-normalized obj var: 0.734640
- time (local/global): 0.003/17.830
- branches (local/global): 238/1396060
- fails (local/global): 100/682157
- lns time: 0.007000
- lns branches: 238
- lns fails: 100
LNS iteration #59 ========================================
- worst case average CPI: 1.400
- worst case efficiency: 0.720
- efficiency to beat: 0.720
- normalized lower bound 2079
--- checking solution
--- solution ok! Maximum rounding error: 0.000351
- solution found, obj var is: 2236
- de-normalized obj var: 0.734160
- time (local/global): 0.037/17.871
- branches (local/global): 2957/1399017
- fails (local/global): 1400/683557
- lns time: 0.041000
- lns branches: 2957
- lns fails: 1400
LNS iteration #60 ========================================
- worst case average CPI: 1.400
- worst case efficiency: 0.720
- efficiency to beat: 0.720
- normalized lower bound 2085
--- checking solution
--- solution ok! Maximum rounding error: 0.000064
- solution found, obj var is: 2170
- de-normalized obj var: 0.730200
- time (local/global): 0.119/17.994
- branches (local/global): 9378/1408395
- fails (local/global): 4500/688057
- lns time: 0.123000
- lns branches: 9378
- lns fails: 4500
LNS iteration #61 ========================================
- worst case average CPI: 1.400
- worst case efficiency: 0.722
- efficiency to beat: 0.722
- normalized lower bound 2109
--- checking solution
--- solution ok! Maximum rounding error: 0.000000
- solution found, obj var is: 2140
- de-normalized obj var: 0.728400
- time (local/global): 0.000/17.998
- branches (local/global): 15/1408410
- fails (local/global): 1/688058
- lns time: 0.004000
- lns branches: 15
- lns fails: 1
LNS iteration #62 ========================================
- worst case average CPI: 1.400
- worst case efficiency: 0.722
- efficiency to beat: 0.722
- normalized lower bound 2113
--- checking solution
--- solution ok! Maximum rounding error: 0.000059
- solution found, obj var is: 2179
- de-normalized obj var: 0.730740
- time (local/global): 0.018/18.020
- branches (local/global): 1358/1409768
- fails (local/global): 626/688684
- lns time: 0.022000
- lns branches: 1358
- lns fails: 626
LNS iteration #63 ========================================
- worst case average CPI: 1.400
- worst case efficiency: 0.722
- efficiency to beat: 0.722
- normalized lower bound 2124
--- checking solution
--- solution ok! Maximum rounding error: 0.000038
- solution found, obj var is: 2129
- de-normalized obj var: 0.727740
- time (local/global): 0.001/18.025
- branches (local/global): 28/1409796
- fails (local/global): 4/688688
- lns time: 0.006000
- lns branches: 28
- lns fails: 4
LNS iteration #64 ========================================
- worst case average CPI: 1.400
- worst case efficiency: 0.724
- efficiency to beat: 0.724
- normalized lower bound 2143
--- checking solution
--- solution ok! Maximum rounding error: 0.000086
- solution found, obj var is: 2155
- de-normalized obj var: 0.729300
- time (local/global): 0.032/18.062
- branches (local/global): 3035/1412831
- fails (local/global): 1437/690125
- lns time: 0.036000
- lns branches: 3035
- lns fails: 1437
LNS iteration #65 ========================================
- worst case average CPI: 1.400
- worst case efficiency: 0.724
- efficiency to beat: 0.724
- normalized lower bound 2149
--- checking solution
--- solution ok! Maximum rounding error: 0.000069
- solution found, obj var is: 2167
- de-normalized obj var: 0.730020
- time (local/global): 0.002/18.068
- branches (local/global): 141/1412972
- fails (local/global): 61/690186
- lns time: 0.006000
- lns branches: 141
- lns fails: 61
LNS iteration #66 ========================================
- worst case average CPI: 1.400
- worst case efficiency: 0.727
- efficiency to beat: 0.727
- normalized lower bound 2199
- lns time: 3.004000
- lns branches: 217849
- lns fails: 106828
LNS iteration #67 ========================================
- worst case average CPI: 1.400
- worst case efficiency: 0.727
- efficiency to beat: 0.727
- normalized lower bound 2199
- lns time: 3.004000
- lns branches: 252320
- lns fails: 123774
LNS iteration #68 ========================================
- worst case average CPI: 1.400
- worst case efficiency: 0.727
- efficiency to beat: 0.727
- normalized lower bound 2199
--- checking solution
--- solution ok! Maximum rounding error: 0.000040
- solution found, obj var is: 3003
- de-normalized obj var: 0.780180
- time (local/global): 0.071/24.151
- branches (local/global): 6662/1889803
- fails (local/global): 3200/923988
- lns time: 0.075000
- lns branches: 6662
- lns fails: 3200
LNS iteration #69 ========================================
- worst case average CPI: 1.400
- worst case efficiency: 0.728
- efficiency to beat: 0.728
- normalized lower bound 2216
--- checking solution
--- solution ok! Maximum rounding error: 0.000032
- solution found, obj var is: 2276
- de-normalized obj var: 0.736560
- time (local/global): 0.364/24.519
- branches (local/global): 25869/1915672
- fails (local/global): 12500/936488
- lns time: 0.368000
- lns branches: 25869
- lns fails: 12500
LNS iteration #70 ========================================
- worst case average CPI: 1.400
- worst case efficiency: 0.728
- efficiency to beat: 0.728
- normalized lower bound 2222
--- checking solution
--- solution ok! Maximum rounding error: 0.000077
- solution found, obj var is: 2222
- de-normalized obj var: 0.733320
- time (local/global): 0.000/24.523
- branches (local/global): 16/1915688
- fails (local/global): 1/936489
- lns time: 0.004000
- lns branches: 16
- lns fails: 1
LNS iteration #71 ========================================
- worst case average CPI: 1.400
- worst case efficiency: 0.729
- efficiency to beat: 0.729
- normalized lower bound 2239
--- checking solution
--- solution ok! Maximum rounding error: 0.000063
- solution found, obj var is: 2293
- de-normalized obj var: 0.737580
- time (local/global): 0.178/24.705
- branches (local/global): 16580/1932268
- fails (local/global): 8035/944524
- lns time: 0.182000
- lns branches: 16580
- lns fails: 8035
LNS iteration #72 ========================================
- worst case average CPI: 1.400
- worst case efficiency: 0.730
- efficiency to beat: 0.730
- normalized lower bound 2244
--- checking solution
--- solution ok! Maximum rounding error: 0.000078
- solution found, obj var is: 2353
- de-normalized obj var: 0.741180
- time (local/global): 0.002/24.711
- branches (local/global): 225/1932493
- fails (local/global): 100/944624
- lns time: 0.006000
- lns branches: 225
- lns fails: 100
LNS iteration #73 ========================================
- worst case average CPI: 1.355
- worst case efficiency: 0.730
- efficiency to beat: 0.730
- normalized lower bound 2254
--- checking solution
--- solution ok! Maximum rounding error: 0.000054
- solution found, obj var is: 2273
- de-normalized obj var: 0.736380
- time (local/global): 0.001/24.716
- branches (local/global): 52/1932545
- fails (local/global): 15/944639
- lns time: 0.005000
- lns branches: 52
- lns fails: 15
LNS iteration #74 ========================================
- worst case average CPI: 1.355
- worst case efficiency: 0.731
- efficiency to beat: 0.731
- normalized lower bound 2263
--- checking solution
--- solution ok! Maximum rounding error: 0.000029
- solution found, obj var is: 2276
- de-normalized obj var: 0.736560
- time (local/global): 0.260/24.980
- branches (local/global): 23653/1956198
- fails (local/global): 11443/956082
- lns time: 0.264000
- lns branches: 23653
- lns fails: 11443
LNS iteration #75 ========================================
- worst case average CPI: 1.384
- worst case efficiency: 0.731
- efficiency to beat: 0.731
- normalized lower bound 2270
--- checking solution
--- solution ok! Maximum rounding error: 0.000115
- solution found, obj var is: 2289
- de-normalized obj var: 0.737340
- time (local/global): 0.223/25.207
- branches (local/global): 17645/1973843
- fails (local/global): 8536/964618
- lns time: 0.227000
- lns branches: 17645
- lns fails: 8536
LNS iteration #76 ========================================
- worst case average CPI: 1.384
- worst case efficiency: 0.732
- efficiency to beat: 0.732
- normalized lower bound 2278
--- checking solution
--- solution ok! Maximum rounding error: 0.000026
- solution found, obj var is: 2324
- de-normalized obj var: 0.739440
- time (local/global): 0.429/25.640
- branches (local/global): 46338/2020181
- fails (local/global): 22507/987125
- lns time: 0.434000
- lns branches: 46338
- lns fails: 22507
LNS iteration #77 ========================================
- worst case average CPI: 1.162
- worst case efficiency: 0.733
- efficiency to beat: 0.733
- normalized lower bound 2307
--- checking solution
--- solution ok! Maximum rounding error: 0.000070
- solution found, obj var is: 2308
- de-normalized obj var: 0.738480
- time (local/global): 0.127/25.772
- branches (local/global): 9591/2029772
- fails (local/global): 4602/991727
- lns time: 0.131000
- lns branches: 9591
- lns fails: 4602
LNS iteration #78 ========================================
- worst case average CPI: 1.162
- worst case efficiency: 0.733
- efficiency to beat: 0.733
- normalized lower bound 2308
--- checking solution
--- solution ok! Maximum rounding error: 0.000056
- solution found, obj var is: 2366
- de-normalized obj var: 0.741960
- time (local/global): 0.647/26.423
- branches (local/global): 52807/2082579
- fails (local/global): 25706/1017433
- lns time: 0.651000
- lns branches: 52807
- lns fails: 25706
LNS iteration #79 ========================================
- worst case average CPI: 1.162
- worst case efficiency: 0.734
- efficiency to beat: 0.734
- normalized lower bound 2320
--- checking solution
--- solution ok! Maximum rounding error: 0.000077
- solution found, obj var is: 2323
- de-normalized obj var: 0.739380
- time (local/global): 0.014/26.441
- branches (local/global): 1112/2083691
- fails (local/global): 512/1017945
- lns time: 0.018000
- lns branches: 1112
- lns fails: 512
LNS iteration #80 ========================================
- worst case average CPI: 1.162
- worst case efficiency: 0.736
- efficiency to beat: 0.736
- normalized lower bound 2356
- lns time: 3.004000
- lns branches: 259483
- lns fails: 127212
LNS iteration #81 ========================================
- worst case average CPI: 1.162
- worst case efficiency: 0.736
- efficiency to beat: 0.736
- normalized lower bound 2356
--- checking solution
--- solution ok! Maximum rounding error: 0.000025
- solution found, obj var is: 2465
- de-normalized obj var: 0.747900
- time (local/global): 0.005/29.454
- branches (local/global): 456/2343630
- fails (local/global): 200/1145357
- lns time: 0.009000
- lns branches: 456
- lns fails: 200
LNS iteration #82 ========================================
- worst case average CPI: 1.162
- worst case efficiency: 0.737
- efficiency to beat: 0.737
- normalized lower bound 2369
--- checking solution
--- solution ok! Maximum rounding error: 0.000020
- solution found, obj var is: 2421
- de-normalized obj var: 0.745260
- time (local/global): 0.290/29.748
- branches (local/global): 27050/2370680
- fails (local/global): 13052/1158409
- lns time: 0.295000
- lns branches: 27050
- lns fails: 13052
LNS iteration #83 ========================================
- worst case average CPI: 1.162
- worst case efficiency: 0.737
- efficiency to beat: 0.737
- normalized lower bound 2374
--- checking solution
--- solution ok! Maximum rounding error: 0.000055
- solution found, obj var is: 2401
- de-normalized obj var: 0.744060
- time (local/global): 0.003/29.756
- branches (local/global): 234/2370914
- fails (local/global): 101/1158510
- lns time: 0.007000
- lns branches: 234
- lns fails: 101
LNS iteration #84 ========================================
- worst case average CPI: 1.162
- worst case efficiency: 0.739
- efficiency to beat: 0.739
- normalized lower bound 2392
--- checking solution
--- solution ok! Maximum rounding error: 0.000077
- solution found, obj var is: 2410
- de-normalized obj var: 0.744600
- time (local/global): 0.030/29.790
- branches (local/global): 2738/2373652
- fails (local/global): 1300/1159810
- lns time: 0.034000
- lns branches: 2738
- lns fails: 1300
LNS iteration #85 ========================================
- worst case average CPI: 1.162
- worst case efficiency: 0.739
- efficiency to beat: 0.739
- normalized lower bound 2393
--- checking solution
--- solution ok! Maximum rounding error: 0.000004
- solution found, obj var is: 2536
- de-normalized obj var: 0.752160
- time (local/global): 0.003/29.797
- branches (local/global): 238/2373890
- fails (local/global): 100/1159910
- lns time: 0.007000
- lns branches: 238
- lns fails: 100
LNS iteration #86 ========================================
- worst case average CPI: 1.162
- worst case efficiency: 0.739
- efficiency to beat: 0.739
- normalized lower bound 2401
--- checking solution
--- solution ok! Maximum rounding error: 0.000048
- solution found, obj var is: 2415
- de-normalized obj var: 0.744900
- time (local/global): 0.071/29.872
- branches (local/global): 6982/2380872
- fails (local/global): 3407/1163317
- lns time: 0.075000
- lns branches: 6982
- lns fails: 3407
LNS iteration #87 ========================================
- worst case average CPI: 1.162
- worst case efficiency: 0.739
- efficiency to beat: 0.739
- normalized lower bound 2402
--- checking solution
--- solution ok! Maximum rounding error: 0.000133
- solution found, obj var is: 2408
- de-normalized obj var: 0.744480
- time (local/global): 0.316/30.192
- branches (local/global): 29981/2410853
- fails (local/global): 14503/1177820
- lns time: 0.320000
- lns branches: 29981
- lns fails: 14503
LNS iteration #88 ========================================
- worst case average CPI: 1.162
- worst case efficiency: 0.740
- efficiency to beat: 0.740
- normalized lower bound 2412
--- checking solution
--- solution ok! Maximum rounding error: 0.000094
- solution found, obj var is: 2420
- de-normalized obj var: 0.745200
- time (local/global): 0.057/30.253
- branches (local/global): 3955/2414808
- fails (local/global): 1875/1179695
- lns time: 0.061000
- lns branches: 3955
- lns fails: 1875
LNS iteration #89 ========================================
- worst case average CPI: 1.162
- worst case efficiency: 0.740
- efficiency to beat: 0.740
- normalized lower bound 2421
- lns time: 3.004000
- lns branches: 242637
- lns fails: 118946
LNS iteration #90 ========================================
- worst case average CPI: 1.162
- worst case efficiency: 0.740
- efficiency to beat: 0.740
- normalized lower bound 2421
--- checking solution
--- solution ok! Maximum rounding error: 0.000025
- solution found, obj var is: 2511
- de-normalized obj var: 0.750660
- time (local/global): 0.080/33.341
- branches (local/global): 6744/2664189
- fails (local/global): 3250/1301891
- lns time: 0.085000
- lns branches: 6744
- lns fails: 3250
LNS iteration #91 ========================================
- worst case average CPI: 1.162
- worst case efficiency: 0.741
- efficiency to beat: 0.741
- normalized lower bound 2441
--- checking solution
--- solution ok! Maximum rounding error: 0.000073
- solution found, obj var is: 2474
- de-normalized obj var: 0.748440
- time (local/global): 0.009/33.355
- branches (local/global): 772/2664961
- fails (local/global): 361/1302252
- lns time: 0.013000
- lns branches: 772
- lns fails: 361
LNS iteration #92 ========================================
- worst case average CPI: 1.162
- worst case efficiency: 0.742
- efficiency to beat: 0.742
- normalized lower bound 2450
--- checking solution
--- solution ok! Maximum rounding error: 0.000096
- solution found, obj var is: 2480
- de-normalized obj var: 0.748800
- time (local/global): 0.406/33.765
- branches (local/global): 28738/2693699
- fails (local/global): 13904/1316156
- lns time: 0.411000
- lns branches: 28738
- lns fails: 13904
LNS iteration #93 ========================================
- worst case average CPI: 1.162
- worst case efficiency: 0.744
- efficiency to beat: 0.744
- normalized lower bound 2490
--- checking solution
--- solution ok! Maximum rounding error: 0.000090
- solution found, obj var is: 2493
- de-normalized obj var: 0.749580
- time (local/global): 0.631/34.401
- branches (local/global): 54729/2748428
- fails (local/global): 26629/1342785
- lns time: 0.635000
- lns branches: 54729
- lns fails: 26629
LNS iteration #94 ========================================
- worst case average CPI: 1.162
- worst case efficiency: 0.745
- efficiency to beat: 0.745
- normalized lower bound 2494
--- checking solution
--- solution ok! Maximum rounding error: 0.000083
- solution found, obj var is: 2501
- de-normalized obj var: 0.750060
- time (local/global): 0.010/34.415
- branches (local/global): 897/2749325
- fails (local/global): 412/1343197
- lns time: 0.014000
- lns branches: 897
- lns fails: 412
LNS iteration #95 ========================================
- worst case average CPI: 1.162
- worst case efficiency: 0.745
- efficiency to beat: 0.745
- normalized lower bound 2495
- lns time: 3.004000
- lns branches: 222125
- lns fails: 108861
LNS iteration #96 ========================================
- worst case average CPI: 1.162
- worst case efficiency: 0.745
- efficiency to beat: 0.745
- normalized lower bound 2495
--- checking solution
--- solution ok! Maximum rounding error: 0.000112
- solution found, obj var is: 2564
- de-normalized obj var: 0.753840
- time (local/global): 0.082/37.505
- branches (local/global): 7274/2978724
- fails (local/global): 3497/1455555
- lns time: 0.086000
- lns branches: 7274
- lns fails: 3497
LNS iteration #97 ========================================
- worst case average CPI: 1.162
- worst case efficiency: 0.745
- efficiency to beat: 0.745
- normalized lower bound 2495
--- checking solution
--- solution ok! Maximum rounding error: 0.000000
- solution found, obj var is: 2538
- de-normalized obj var: 0.752280
- time (local/global): 0.401/37.910
- branches (local/global): 39466/3018190
- fails (local/global): 19205/1474760
- lns time: 0.405000
- lns branches: 39466
- lns fails: 19205
LNS iteration #98 ========================================
- worst case average CPI: 1.162
- worst case efficiency: 0.745
- efficiency to beat: 0.745
- normalized lower bound 2502
- lns time: 3.004000
- lns branches: 253813
- lns fails: 124421
LNS iteration #99 ========================================
- worst case average CPI: 1.162
- worst case efficiency: 0.745
- efficiency to beat: 0.745
- normalized lower bound 2502
--- checking solution
--- solution ok! Maximum rounding error: 0.000080
- solution found, obj var is: 2526
- de-normalized obj var: 0.751560
- time (local/global): 0.327/41.245
- branches (local/global): 26096/3298099
- fails (local/global): 12602/1611783
- lns time: 0.331000
- lns branches: 26096
- lns fails: 12602
LNS iteration #100 ========================================
- worst case average CPI: 1.236
- worst case efficiency: 0.745
- efficiency to beat: 0.745
- normalized lower bound 2503
--- checking solution
--- solution ok! Maximum rounding error: 0.000028
- solution found, obj var is: 2522
- de-normalized obj var: 0.751320
- time (local/global): 0.636/41.885
- branches (local/global): 55936/3354035
- fails (local/global): 27210/1638993
- lns time: 0.640000
- lns branches: 55936
- lns fails: 27210
LNS iteration #101 ========================================
- worst case average CPI: 0.839
- worst case efficiency: 0.746
- efficiency to beat: 0.746
- normalized lower bound 2510
- lns time: 3.004000
- lns branches: 211142
- lns fails: 103653
LNS iteration #102 ========================================
- worst case average CPI: 0.839
- worst case efficiency: 0.746
- efficiency to beat: 0.746
- normalized lower bound 2510
- lns time: 3.004000
- lns branches: 334952
- lns fails: 165381
LNS iteration #103 ========================================
- worst case average CPI: 0.839
- worst case efficiency: 0.746
- efficiency to beat: 0.746
- normalized lower bound 2510
- lns time: 3.004000
- lns branches: 231325
- lns fails: 113421
LNS iteration #104 ========================================
- worst case average CPI: 0.839
- worst case efficiency: 0.746
- efficiency to beat: 0.746
- normalized lower bound 2510
- lns time: 3.004000
- lns branches: 258607
- lns fails: 126632
LNS iteration #105 ========================================
- worst case average CPI: 0.839
- worst case efficiency: 0.746
- efficiency to beat: 0.746
- normalized lower bound 2510
- lns time: 3.004000
- lns branches: 216669
- lns fails: 106284
LNS iteration #106 ========================================
- worst case average CPI: 0.839
- worst case efficiency: 0.746
- efficiency to beat: 0.746
- normalized lower bound 2510
--- checking solution
--- solution ok! Maximum rounding error: 0.000029
- solution found, obj var is: 2534
- de-normalized obj var: 0.752040
- time (local/global): 0.098/57.007
- branches (local/global): 10698/4617428
- fails (local/global): 5200/2259564
- lns time: 0.102000
- lns branches: 10698
- lns fails: 5200
LNS iteration #107 ========================================
- worst case average CPI: 0.839
- worst case efficiency: 0.748
- efficiency to beat: 0.748
- normalized lower bound 2548
--- checking solution
--- solution ok! Maximum rounding error: 0.000074
- solution found, obj var is: 2571
- de-normalized obj var: 0.754260
- time (local/global): 0.003/57.014
- branches (local/global): 138/4617566
- fails (local/global): 60/2259624
- lns time: 0.007000
- lns branches: 138
- lns fails: 60
LNS iteration #108 ========================================
- worst case average CPI: 0.839
- worst case efficiency: 0.748
- efficiency to beat: 0.748
- normalized lower bound 2558
--- checking solution
--- solution ok! Maximum rounding error: 0.000222
- solution found, obj var is: 2572
- de-normalized obj var: 0.754320
- time (local/global): 0.009/57.027
- branches (local/global): 1110/4618676
- fails (local/global): 549/2260173
- lns time: 0.012000
- lns branches: 1110
- lns fails: 549
LNS iteration #109 ========================================
- worst case average CPI: 0.839
- worst case efficiency: 0.749
- efficiency to beat: 0.749
- normalized lower bound 2560
--- checking solution
--- solution ok! Maximum rounding error: 0.000001
- solution found, obj var is: 2563
- de-normalized obj var: 0.753780
- time (local/global): 0.420/57.450
- branches (local/global): 24833/4643509
- fails (local/global): 12002/2272175
- lns time: 0.424000
- lns branches: 24833
- lns fails: 12002
LNS iteration #110 ========================================
- worst case average CPI: 0.839
- worst case efficiency: 0.749
- efficiency to beat: 0.749
- normalized lower bound 2564
--- checking solution
--- solution ok! Maximum rounding error: 0.000039
- solution found, obj var is: 2575
- de-normalized obj var: 0.754500
- time (local/global): 0.008/57.462
- branches (local/global): 486/4643995
- fails (local/global): 215/2272390
- lns time: 0.012000
- lns branches: 486
- lns fails: 215
LNS iteration #111 ========================================
- worst case average CPI: 0.839
- worst case efficiency: 0.750
- efficiency to beat: 0.750
- normalized lower bound 2578
--- checking solution
--- solution ok! Maximum rounding error: 0.000036
- solution found, obj var is: 2612
- de-normalized obj var: 0.756720
- time (local/global): 2.674/60.140
- branches (local/global): 282016/4926011
- fails (local/global): 137843/2410233
- lns time: 2.678000
- lns branches: 282016
- lns fails: 137843
LNS iteration #112 ========================================
- worst case average CPI: 1.056
- worst case efficiency: 0.750
- efficiency to beat: 0.750
- normalized lower bound 2588
--- checking solution
--- solution ok! Maximum rounding error: 0.000061
- solution found, obj var is: 2690
- de-normalized obj var: 0.761400
- time (local/global): 0.054/60.198
- branches (local/global): 5068/4931079
- fails (local/global): 2404/2412637
- lns time: 0.058000
- lns branches: 5068
- lns fails: 2404
LNS iteration #113 ========================================
- worst case average CPI: 1.102
- worst case efficiency: 0.751
- efficiency to beat: 0.751
- normalized lower bound 2595
--- checking solution
--- solution ok! Maximum rounding error: 0.000042
- solution found, obj var is: 2598
- de-normalized obj var: 0.755880
- time (local/global): 2.406/62.608
- branches (local/global): 199580/5130659
- fails (local/global): 97839/2510476
- lns time: 2.410000
- lns branches: 199580
- lns fails: 97839
LNS iteration #114 ========================================
- worst case average CPI: 1.102
- worst case efficiency: 0.751
- efficiency to beat: 0.751
- normalized lower bound 2596
--- checking solution
--- solution ok! Maximum rounding error: 0.000093
- solution found, obj var is: 2600
- de-normalized obj var: 0.756000
- time (local/global): 2.951/65.563
- branches (local/global): 334752/5465411
- fails (local/global): 165252/2675728
- lns time: 2.955000
- lns branches: 334752
- lns fails: 165252
LNS iteration #115 ========================================
- worst case average CPI: 1.102
- worst case efficiency: 0.751
- efficiency to beat: 0.751
- normalized lower bound 2598
--- checking solution
--- solution ok! Maximum rounding error: 0.000056
- solution found, obj var is: 2619
- de-normalized obj var: 0.757140
- time (local/global): 0.004/65.571
- branches (local/global): 248/5465659
- fails (local/global): 106/2675834
- lns time: 0.008000
- lns branches: 248
- lns fails: 106
LNS iteration #116 ========================================
- worst case average CPI: 1.102
- worst case efficiency: 0.752
- efficiency to beat: 0.752
- normalized lower bound 2610
- lns time: 3.004000
- lns branches: 269537
- lns fails: 132118
LNS iteration #117 ========================================
- worst case average CPI: 1.102
- worst case efficiency: 0.752
- efficiency to beat: 0.752
- normalized lower bound 2610
--- checking solution
--- solution ok! Maximum rounding error: 0.000011
- solution found, obj var is: 2657
- de-normalized obj var: 0.759420
- time (local/global): 0.244/68.823
- branches (local/global): 22847/5758043
- fails (local/global): 11198/2819150
- lns time: 0.248000
- lns branches: 22847
- lns fails: 11198
LNS iteration #118 ========================================
- worst case average CPI: 1.102
- worst case efficiency: 0.752
- efficiency to beat: 0.752
- normalized lower bound 2621
--- checking solution
--- solution ok! Maximum rounding error: 0.000088
- solution found, obj var is: 2737
- de-normalized obj var: 0.764220
- time (local/global): 2.882/71.709
- branches (local/global): 269602/6027645
- fails (local/global): 132000/2951150
- lns time: 2.886000
- lns branches: 269602
- lns fails: 132000
LNS iteration #119 ========================================
- worst case average CPI: 1.102
- worst case efficiency: 0.753
- efficiency to beat: 0.753
- normalized lower bound 2627
- lns time: 3.004000
- lns branches: 234552
- lns fails: 114958
LNS iteration #120 ========================================
- worst case average CPI: 1.102
- worst case efficiency: 0.753
- efficiency to beat: 0.753
- normalized lower bound 2627
- lns time: 3.004000
- lns branches: 232889
- lns fails: 114041
LNS iteration #121 ========================================
- worst case average CPI: 1.102
- worst case efficiency: 0.753
- efficiency to beat: 0.753
- normalized lower bound 2627
--- checking solution
--- solution ok! Maximum rounding error: 0.000012
- solution found, obj var is: 2661
- de-normalized obj var: 0.759660
- time (local/global): 0.192/77.913
- branches (local/global): 16630/6511716
- fails (local/global): 8063/3188212
- lns time: 0.196000
- lns branches: 16630
- lns fails: 8063
LNS iteration #122 ========================================
- worst case average CPI: 1.102
- worst case efficiency: 0.753
- efficiency to beat: 0.753
- normalized lower bound 2628
--- checking solution
--- solution ok! Maximum rounding error: 0.000044
- solution found, obj var is: 2635
- de-normalized obj var: 0.758100
- time (local/global): 1.319/79.236
- branches (local/global): 117493/6629209
- fails (local/global): 57291/3245503
- lns time: 1.323000
- lns branches: 117493
- lns fails: 57291
LNS iteration #123 ========================================
- worst case average CPI: 1.102
- worst case efficiency: 0.753
- efficiency to beat: 0.753
- normalized lower bound 2634
--- checking solution
--- solution ok! Maximum rounding error: 0.000025
- solution found, obj var is: 2698
- de-normalized obj var: 0.761880
- time (local/global): 0.012/79.252
- branches (local/global): 1090/6630299
- fails (local/global): 500/3246003
- lns time: 0.016000
- lns branches: 1090
- lns fails: 500
LNS iteration #124 ========================================
- worst case average CPI: 1.102
- worst case efficiency: 0.754
- efficiency to beat: 0.754
- normalized lower bound 2650
--- checking solution
--- solution ok! Maximum rounding error: 0.000077
- solution found, obj var is: 2687
- de-normalized obj var: 0.761220
- time (local/global): 0.496/79.752
- branches (local/global): 35459/6665758
- fails (local/global): 17251/3263254
- lns time: 0.500000
- lns branches: 35459
- lns fails: 17251
LNS iteration #125 ========================================
- worst case average CPI: 1.105
- worst case efficiency: 0.754
- efficiency to beat: 0.754
- normalized lower bound 2657
--- checking solution
--- solution ok! Maximum rounding error: 0.000053
- solution found, obj var is: 2673
- de-normalized obj var: 0.760380
- time (local/global): 0.617/80.373
- branches (local/global): 54685/6720443
- fails (local/global): 26616/3289870
- lns time: 0.621000
- lns branches: 54685
- lns fails: 26616
LNS iteration #126 ========================================
- worst case average CPI: 1.105
- worst case efficiency: 0.754
- efficiency to beat: 0.754
- normalized lower bound 2657
- lns time: 3.004000
- lns branches: 265337
- lns fails: 129918
LNS iteration #127 ========================================
- worst case average CPI: 1.105
- worst case efficiency: 0.754
- efficiency to beat: 0.754
- normalized lower bound 2657
- lns time: 3.004000
- lns branches: 252749
- lns fails: 123947
LNS iteration #128 ========================================
- worst case average CPI: 1.105
- worst case efficiency: 0.754
- efficiency to beat: 0.754
- normalized lower bound 2657
--- checking solution
--- solution ok! Maximum rounding error: 0.000046
- solution found, obj var is: 2771
- de-normalized obj var: 0.766260
- time (local/global): 0.079/86.464
- branches (local/global): 7092/7245621
- fails (local/global): 3403/3547138
- lns time: 0.083000
- lns branches: 7092
- lns fails: 3403
LNS iteration #129 ========================================
- worst case average CPI: 1.105
- worst case efficiency: 0.755
- efficiency to beat: 0.755
- normalized lower bound 2666
--- checking solution
--- solution ok! Maximum rounding error: 0.000025
- solution found, obj var is: 2700
- de-normalized obj var: 0.762000
- time (local/global): 0.002/86.470
- branches (local/global): 238/7245859
- fails (local/global): 100/3547238
- lns time: 0.006000
- lns branches: 238
- lns fails: 100
LNS iteration #130 ========================================
- worst case average CPI: 1.105
- worst case efficiency: 0.756
- efficiency to beat: 0.756
- normalized lower bound 2682
--- checking solution
--- solution ok! Maximum rounding error: 0.000025
- solution found, obj var is: 2693
- de-normalized obj var: 0.761580
- time (local/global): 0.325/86.799
- branches (local/global): 28457/7274316
- fails (local/global): 13755/3560993
- lns time: 0.329000
- lns branches: 28457
- lns fails: 13755
LNS iteration #131 ========================================
- worst case average CPI: 1.105
- worst case efficiency: 0.756
- efficiency to beat: 0.756
- normalized lower bound 2684
- lns time: 3.004000
- lns branches: 292358
- lns fails: 144336
LNS iteration #132 ========================================
- worst case average CPI: 1.105
- worst case efficiency: 0.756
- efficiency to beat: 0.756
- normalized lower bound 2684
- lns time: 0.197000
- lns branches: 16838
- lns fails: 8183

LNS optimization is over========================================
initial worst case average CPI: 2.112
final worst case average CPI: 1.105
initial worst case efficiency: 0.638
final worst case efficiency: 0.756
number of iterations: 133
total time: 90004.000000
total branches: 7583512
total fails: 3713512

Final Solution: 0->38, 1->5, 2->36, 3->44, 4->6, 5->9, 6->0, 7->4, 8->38, 9->21, 10->14, 11->4, 12->47, 13->31, 14->36, 15->9, 16->37, 17->47, 18->44, 19->10, 20->4, 21->45, 22->15, 23->37, 24->12, 25->15, 26->31, 27->6, 28->24, 29->18, 30->35, 31->13, 32->21, 33->40, 34->33, 35->33, 36->24, 37->16, 38->5, 39->46, 40->41, 41->12, 42->32, 43->16, 44->25, 45->46, 46->32, 47->35, 48->40, 49->18, 50->20, 51->44, 52->12, 53->0, 54->24, 55->27, 56->12, 57->45, 58->13, 59->18, 60->23, 61->32, 62->21, 63->31, 64->46, 65->37, 66->31, 67->43, 68->27, 69->39, 70->37, 71->45, 72->35, 73->36, 74->12, 75->37, 76->8, 77->6, 78->13, 79->7, 80->38, 81->31, 82->28, 83->15, 84->20, 85->13, 86->32, 87->34, 88->24, 89->1, 90->37, 91->33, 92->39, 93->16, 94->19, 95->27, 96->12, 97->8, 98->11, 99->40, 100->28, 101->3, 102->40, 103->2, 104->4, 105->39, 106->21, 107->46, 108->22, 109->45, 110->47, 111->19, 112->20, 113->14, 114->38, 115->45, 116->39, 117->7, 118->15, 119->6, 120->40, 121->22, 122->45, 123->34, 124->39, 125->44, 126->9, 127->14, 128->44, 129->29, 130->2, 131->0, 132->28, 133->1, 134->10, 135->28, 136->47, 137->43, 138->46, 139->5, 140->42, 141->11, 142->39, 143->42, 144->32, 145->28, 146->16, 147->31, 148->27, 149->5, 150->15, 151->32, 152->26, 153->10, 154->21, 155->46, 156->41, 157->42, 158->3, 159->26, 160->26, 161->41, 162->20, 163->16, 164->25, 165->0, 166->9, 167->14, 168->43, 169->41, 170->34, 171->19, 172->27, 173->28, 174->4, 175->3, 176->20, 177->10, 178->3, 179->36, 180->17, 181->30, 182->10, 183->19, 184->24, 185->38, 186->1, 187->19, 188->6, 189->9, 190->6, 191->35, 192->3, 193->15, 194->10, 195->3, 196->13, 197->47, 198->33, 199->24, 200->20, 201->35, 202->36, 203->23, 204->1, 205->2, 206->18, 207->42, 208->42, 209->26, 210->33, 211->2, 212->41, 213->18, 214->30, 215->8, 216->11, 217->29, 218->1, 219->13, 220->44, 221->2, 222->34, 223->7, 224->40, 225->7, 226->34, 227->29, 228->1, 229->17, 230->2, 231->42, 232->34, 233->23, 234->5, 235->27, 236->30, 237->8, 238->22, 239->18, 240->38, 241->30, 242->25, 243->8, 244->5, 245->36, 246->30, 247->7, 248->29, 249->26, 250->35, 251->22, 252->30, 253->19, 254->33, 255->25, 256->17, 257->22, 258->23, 259->14, 260->26, 261->25, 262->47, 263->14, 264->11, 265->9, 266->8, 267->4, 268->21, 269->43, 270->43, 271->0, 272->11, 273->29, 274->23, 275->7, 276->22, 277->43, 278->17, 279->41, 280->11, 281->17, 282->25, 283->16, 284->23, 285->17, 286->29, 287->0

Average CPI map:
	7.32,	1.73,	1.16,	1.16,	1.10,	1.63
	1.91,	5.66,	3.80,	5.14,	4.07,	1.62
	1.35,	6.60,	5.59,	8.35,	5.72,	1.93
	1.58,	5.70,	5.18,	5.20,	3.94,	2.10
	1.36,	4.42,	5.94,	6.59,	5.97,	1.81
	1.19,	6.19,	7.20,	5.79,	4.61,	1.48
	1.63,	5.79,	5.32,	5.95,	5.06,	1.93
	1.71,	2.42,	3.45,	3.40,	4.09,	1.13

Efficiency map:
	0.997,	0.945,	0.891,	0.902,	0.936,	0.996
	0.851,	0.824,	0.759,	0.778,	0.761,	0.837
	0.819,	0.760,	0.760,	0.758,	0.759,	0.831
	0.819,	0.757,	0.762,	0.762,	0.762,	0.835
	0.808,	0.761,	0.756,	0.769,	0.779,	0.816
	0.779,	0.766,	0.758,	0.771,	0.760,	0.816
	0.872,	0.762,	0.763,	0.844,	0.769,	0.831
	0.837,	0.762,	0.760,	0.761,	0.758,	0.810
