LocalSolver 4.0 (MacOS64, build 20131224)
Copyright (C) 2013 Bouygues SA, Aix-Marseille University, CNRS.
All rights reserved (see Terms and Conditions for details).

Load localsolver_res/tawd_ls.lsp...
Run input...
ANNs For the Platform:
3,2,1,0.413586,-0.0266769,-0.0683771,-5.1002,70.5254,-0.257939,-72.3361,-14.3957,-55.9961,0.000416225,-55.1984
3,2,1,7.29748,1.94844,3.18138,9.63196,-4.67735,-4.13678,1.22405,-8.03403,0.0803394,-0.125838,0.598848
3,2,1,6.43996,0.383984,0.598454,7.79024,-4.25175,0.123161,-0.278344,-5.71253,1.47885,1.00258,0.327892
3,2,1,3.45395,0.140329,0.51254,4.25255,4.08469,0.00326531,0.722664,3.88666,1.2829,-0.290289,-0.187123
3,2,1,1.76581,-0.7465,16.0398,1.01103,2.42771,0.96084,1.00318,4.14242,-0.00284347,0.244904,0.56299
3,2,1,1.87058,0.359859,-0.0851999,0.818043,3.18969,0.847611,-7.29654,-2.24823,0.00245596,0.000486788,0.794563
3,2,1,3.28113,0.579268,0.142679,3.72653,-0.240895,-0.149383,25.0414,7.13641,0.488705,-0.00083541,0.320468
3,2,1,-4.78997,-2.53518,1.7971,11.1628,-3.08773,-0.470276,-0.0894822,-2.63871,1.46314,-0.463195,-1.12076
3,2,1,-0.392198,-0.00544948,0.0100489,-0.634573,-1.21109,-0.0856362,-0.013156,-1.60668,1.54201,-2.33195,-0.462253
3,2,1,3.15031,0.401017,0.160161,2.51156,5.71314,0.59291,-11.6364,2.59774,0.430465,0.00737346,0.36306
3,2,1,2.64111,0.312028,0.0803827,2.35273,-4.25958,3.48188,-1.59773,-1.57632,0.565527,0.0271972,0.266241
3,2,1,2.2658,0.0425076,0.0191991,-0.583848,2.82415,0.533705,0.0754136,3.33659,-0.0169351,0.54785,0.257008
3,2,1,6.01014,0.654767,0.24854,5.54419,5.68574,0.00137666,0.00103835,-1.46229,0.258518,0.00962319,0.54621
3,2,1,-0.828282,0.684875,0.223674,-1.44779,5.0064,0.272371,0.00344824,2.89438,0.397142,0.379767,0.797684
3,2,1,-0.166745,-1.25514,-0.967701,-3.82155,3.34568,0.34907,0.176897,2.37943,0.567319,0.42026,0.93611
3,2,1,-10.035,3.55243,8.66202,-21.5626,10.92,0.228744,0.12852,5.40188,0.871264,0.345634,1.3209
3,2,1,4.50278,0.709934,0.227356,3.41616,1.455,0.115548,0.0125181,-1.15221,0.345467,0.222127,0.602264
3,2,1,3.51765,0.552987,0.202187,3.41883,0.53704,0.0709757,-0.0346297,-0.38017,0.320095,-0.0397752,0.474568
3,2,1,3.62936,0.506661,0.201819,3.49179,3.4019,-3.09955,1.3332,0.961184,0.32649,-0.0126443,0.488413
3,2,1,3.50925,0.448618,0.127508,2.4823,1.78455,1.6893,1.46456,-0.207671,0.400287,0.00684206,0.402337
3,2,1,-0.52883,0.00691432,0.00617163,-0.194006,1.73284,0.0488672,0.0179273,1.25978,0.716787,0.92667,0.162242
3,2,1,2.48239,0.190378,0.120167,1.91689,1.21532,1.48543,0.644574,2.68198,0.547395,-0.0744913,0.328097
3,2,1,2.55861,2.02297,0.650126,2.19109,2.44652,0.0836318,0.0133745,2.4369,0.0418722,0.798841,-0.0334834
3,2,1,5.07371,0.556895,0.217981,4.66725,-0.00829845,-0.00544544,0.00934569,-0.672651,0.280461,-0.520981,0.217266
3,2,1,1.56588,0.201966,0.0665967,1.82578,1.97654,0.236717,0.0903453,1.08195,1.02748,-0.229836,0.011785
3,2,1,2.41728,0.208205,-0.0012583,2.05484,1.41976,-1.30194,1.45365,1.79277,0.56727,0.031184,0.207229
3,2,1,3.71833,0.202336,0.172606,2.43155,5.03284,0.375118,-0.790998,-3.83455,0.400925,0.372075,0.754779
3,2,1,-1.25583,1.47411,0.819895,-2.78448,4.36107,0.113478,0.107247,2.55416,0.385214,0.384141,0.797017
3,2,1,1.71562,-0.478906,-0.61026,-1.17859,3.1361,0.360865,0.0914124,2.2536,-0.0127033,0.431384,0.365879
3,2,1,-1.75501,-0.0880109,-0.026461,-2.68365,2.88327,0.072433,0.0245574,1.95701,-5.87306,-0.563325,-4.48698
3,2,1,1.87886,0.47325,-0.0511434,1.79719,1.94184,0.328234,0.0220624,2.54301,-0.401251,1.77114,-0.565042
3,2,1,-1.60981,1.67946,0.217969,-1.01084,4.35765,0.130722,0.127348,2.65259,0.0709006,0.384957,0.481341
3,2,1,6.90393,1.27603,0.349979,4.84299,12.4465,-4.65212,-2.15462,0.408255,0.295914,0.0666312,0.4354
3,2,1,3.04491,0.18183,0.111428,2.10543,3.32281,-0.49945,-3.78487,-7.88748,0.444834,-4.36795,-4.01116
3,2,1,2.91407,0.251062,0.0435786,2.27032,0.308764,1.59867,0.766589,0.134898,0.475285,0.00569166,0.326702
3,2,1,1.44846,0.205113,0.0448314,1.45909,1.93039,0.286882,0.0586866,1.17886,1.39166,-0.600981,0.0448012
3,2,1,-0.702729,1.84783,-0.00894741,-12.1377,-140.908,-69.0514,-27.175,-146.219,-4.51728,-0.14351,-3.88527
3,2,1,4.2004,0.255152,0.0750175,2.63627,-1.17866,1.67307,0.209535,-1.03514,0.371915,0.0747402,0.498851
3,2,1,3.28015,0.190841,0.175032,2.31848,-0.821253,-1.83022,1.5009,-1.6155,0.417221,-0.0239081,0.360136
3,2,1,2.0525,0.0719707,0.0148549,2.1486,2.00198,1.73479,2.09334,1.44082,0.954066,0.00952719,-0.152697
3,2,1,3.31406,0.407717,0.0380361,2.47187,-0.266021,-1.73458,0.970613,-1.79463,0.415264,-0.0144649,0.374956
3,2,1,6.25099,-3.17047,1.46865,-0.279767,-2.91952,-0.395169,-0.0444215,-3.76202,-0.00491872,-1.23429,-0.425145
3,2,1,1.59636,0.096013,0.0630313,0.826005,1.46151,0.077228,0.0482484,1.68899,-0.289647,1.15304,-0.0688712
3,2,1,33.0172,0.520442,0.135338,28.5555,-3.97298,-0.0574545,-0.0193135,3.34452,0.297691,-5.9863,6.38072
3,2,1,2.32742,0.056139,0.0279748,2.30198,0.254535,0.117712,2.12797,1.7883,0.827797,-0.00209653,-0.0205758
3,2,1,-1.76524,-0.0296866,-0.00748622,-2.47523,4.4267,-0.377196,-4.83785,1.3517,-2.37434,-0.00716866,-1.55224
3,2,1,1.2047,-1.47491,1.03821,1.50617,3.23679,0.3845,-0.018138,2.47251,0.0419137,0.407618,0.357451
3,2,1,3.93828,-0.00820725,-0.00812648,-1.1651,2.06372,0.114124,0.0339398,2.70327,-0.0635318,1.17159,-0.373077
Workload Information:
3.11484, 1.31985, 3.06196, 2.24868, 1.56505, 0.689625, 2.94788, 4.22163, 0.5, 1.0955, 1.12584, 2.10916, 2.16532, 2.8622, 0.5, 3.9949, 1.10726, 1.37032, 0.840907, 1.02263, 5.44189, 3.42573, 0.5, 0.76885, 2.69363, 3.3641, 1.18983, 2.6822, 0.772127, 1.29811, 1.52187, 0.86324, 2.80671, 3.00534, 0.5, 3.30284, 2.12224, 1.93669, 2.21617, 1.98871, 1.86562, 1.87058, 2.39572, 0.65529, 0.894178, 2.74223, 2.47322, 2.83936, 3.04446, 0.671981, 2.00403, 0.71065, 2.52319, 3.04569, 3.15744, 1.00197, 0.51089, 0.5, 1.93431, 4.89539, 1.42669, 2.93932, 0.5, 1.77978, 3.33895, 2.01526, 2.53642, 1.64555, 1.64284, 1.76686, 2.51944, 1.88888, 2.09478, 1.99304, 2.10934, 2.07176, 2.10164, 1.62943, 4.71945, 0.944256, 1.22478, 0.907209, 2.84864, 1.35566, 1.29569, 1.0915, 2.45619, 1.42612, 2.69527, 3.03521, 2.44238, 2.14992, 2.14672, 1.82336, 1.14075, 2.29686, 1.07415, 1.0764, 3.20396, 2.56241, 3.42599, 0.657095, 2.17662, 0.5, 2.14023, 2.97797, 2.45487, 1.75032, 2.22379, 0.5, 0.873372, 1.46214, 5.50263, 1.43807, 2.3066, 0.5, 3.14549, 2.3214, 3.13423, 0.59228, 1.51608, 2.54255, 2.34912, 1.89862, 1.75884, 1.93478, 1.45848, 2.87459, 2.5519, 2.89483, 0.5, 1.7202, 22.9088, 20.9588, 19.8077, 17.8279, 23.9168, 26.58, 12.0166, 35, 17.52, 24.9915, 26.7989, 15.673, 1.76953, 3.54949, 0.937844, 3.29155, 1.95158, 0.5, 3.18083, 1.83118, 1.74062, 1.38675, 1.93425, 1.92638, 2.35013, 0.5, 2.474, 1.75192, 0.560141, 4.3638, 1.19019, 1.0697, 2.03575, 3.31605, 3.35632, 1.03198, 28.768, 13.8994, 0.611224, 25.0785, 29.237, 34.4058, 6.05207, 13.3041, 15.2356, 10.9548, 0.5, 13.9534, 2.33803, 1.06575, 2.09857, 2.33305, 2.16404, 2.00055, 2.61542, 1.54177, 0.5, 1.79488, 3.20907, 2.33885, 4.12849, 0.927456, 2.24663, 0.5, 0.680962, 3.51646, 0.608593, 2.05161, 1.06879, 1.42931, 0.669232, 6.17247, 12.5992, 21.4084, 28.5877, 25.309, 23.2977, 20.798, 31.1414, 35, 2.78184, 9.42673, 29.7011, 23.9489, 1.98877, 2.11658, 1.56475, 2.40997, 0.638422, 3.28151, 2.06456, 1.54087, 0.824402, 2.76175, 4.30842, 0.5, 1.85735, 1.85229, 1.81619, 1.95836, 2.23531, 2.2805, 2.91727, 2.90424, 0.5, 1.93073, 1.76373, 1.98403, 0.656259, 2.57474, 2.62819, 0.5, 2.86465, 2.77616, 4.14294, 0.657899, 0.5, 2.95018, 1.77226, 1.97673, 2.34938, 2.38527, 1.19575, 1.9998, 2.17922, 1.89058, 2.14808, 1.89555, 2.14984, 1.6986, 2.00209, 2.10584, 2.28654, 0.759182, 3.18437, 0.5, 3.47319, 1.79672, 3.13449, 0.5, 2.0656, 2.79866, 2.72589, 0.775361, 2.64321, 0.571303, 4.27622, 2.0708, 1.93847, 0.5, 3.6644, 1.06602, 0.5, 2.50283, 1.40451, 2.86225
cpi min/max: 0.5/35
neighbors of 0: 1 6, number of others: 45
neighbors of 1: 0 2 6 7, number of others: 43
neighbors of 2: 1 3 7 8, number of others: 43
neighbors of 3: 2 4 8 9, number of others: 43
neighbors of 4: 3 5 9 10, number of others: 43
neighbors of 5: 4 10 11, number of others: 44
neighbors of 6: 0 1 7 12, number of others: 43
neighbors of 7: 1 2 6 8 12 13, number of others: 41
neighbors of 8: 2 3 7 9 13 14, number of others: 41
neighbors of 9: 3 4 8 10 14 15, number of others: 41
neighbors of 10: 4 5 9 11 15 16, number of others: 41
neighbors of 11: 5 10 16 17, number of others: 43
neighbors of 12: 6 7 13 18, number of others: 43
neighbors of 13: 7 8 12 14 18 19, number of others: 41
neighbors of 14: 8 9 13 15 19 20, number of others: 41
neighbors of 15: 9 10 14 16 20 21, number of others: 41
neighbors of 16: 10 11 15 17 21 22, number of others: 41
neighbors of 17: 11 16 22 23, number of others: 43
neighbors of 18: 12 13 19 24, number of others: 43
neighbors of 19: 13 14 18 20 24 25, number of others: 41
neighbors of 20: 14 15 19 21 25 26, number of others: 41
neighbors of 21: 15 16 20 22 26 27, number of others: 41
neighbors of 22: 16 17 21 23 27 28, number of others: 41
neighbors of 23: 17 22 28 29, number of others: 43
neighbors of 24: 18 19 25 30, number of others: 43
neighbors of 25: 19 20 24 26 30 31, number of others: 41
neighbors of 26: 20 21 25 27 31 32, number of others: 41
neighbors of 27: 21 22 26 28 32 33, number of others: 41
neighbors of 28: 22 23 27 29 33 34, number of others: 41
neighbors of 29: 23 28 34 35, number of others: 43
neighbors of 30: 24 25 31 36, number of others: 43
neighbors of 31: 25 26 30 32 36 37, number of others: 41
neighbors of 32: 26 27 31 33 37 38, number of others: 41
neighbors of 33: 27 28 32 34 38 39, number of others: 41
neighbors of 34: 28 29 33 35 39 40, number of others: 41
neighbors of 35: 29 34 40 41, number of others: 43
neighbors of 36: 30 31 37 42, number of others: 43
neighbors of 37: 31 32 36 38 42 43, number of others: 41
neighbors of 38: 32 33 37 39 43 44, number of others: 41
neighbors of 39: 33 34 38 40 44 45, number of others: 41
neighbors of 40: 34 35 39 41 45 46, number of others: 41
neighbors of 41: 35 40 46 47, number of others: 43
neighbors of 42: 36 37 43, number of others: 44
neighbors of 43: 37 38 42 44, number of others: 43
neighbors of 44: 38 39 43 45, number of others: 43
neighbors of 45: 39 40 44 46, number of others: 43
neighbors of 46: 40 41 45 47, number of others: 43
neighbors of 47: 41 46, number of others: 45
Run model...
Preprocess model 0% ...Preprocess model 16% ...Preprocess model 32% ...Preprocess model 48% ...Preprocess model 66% ...Preprocess model 84% ...Preprocess model 100% ...
Close model 0% ...Close model 9% ...Close model 18% ...Close model 27% ...Close model 36% ...Close model 45% ...Close model 54% ...Close model 63% ...Close model 72% ...Close model 81% ...Close model 91% ...Close model 100% ...
Run param...
Run solver...
Initialize threads 0% ...Initialize threads 100% ...
Push initial solutions 0% ...Push initial solutions 100% ...

Model: 
  expressions = 30662, operands = 74976
  decisions = 13824, constraints = 336, objectives = 1

Param: 
  time limit = 90 sec, no iteration limit
  seed = 701, nb threads = 1, annealing level = 1

Objectives:
  Obj 0: maximize, no bound

Phases:
  Phase 0: time limit = 90 sec, no iteration limit, optimized objective = 0


Computed bounds:
  Obj 0: upper bound = 0.650128


Phase 0:
[0 sec, 0 itr]: infeas = (336, 336, 576), mov = 0, inf < 0.1%, acc < 0.1%, imp = 0

worst case efficiency: 0.965273
[1 sec, 33506 itr]: obj = (0.0711318), mov = 33506, inf = 97%, acc = 2.5%, imp = 177

worst case efficiency: 0.642679
[2 sec, 55496 itr]: obj = (0.0813774), mov = 55496, inf = 98.2%, acc = 1.6%, imp = 215

worst case efficiency: 0.648826
[3 sec, 65684 itr]: obj = (0.102241), mov = 65684, inf = 98.4%, acc = 1.4%, imp = 254

worst case efficiency: 0.661345
[4 sec, 72635 itr]: obj = (0.102241), mov = 72635, inf = 98.5%, acc = 1.3%, imp = 254

worst case efficiency: 0.661345
[5 sec, 78846 itr]: obj = (0.103191), mov = 78846, inf = 98.7%, acc = 1.2%, imp = 260

worst case efficiency: 0.661914
[6 sec, 85214 itr]: obj = (0.107666), mov = 85214, inf = 98.7%, acc = 1.2%, imp = 291

worst case efficiency: 0.6646
[7 sec, 92406 itr]: obj = (0.110379), mov = 92406, inf = 98.8%, acc = 1.1%, imp = 315

worst case efficiency: 0.666227
[8 sec, 100648 itr]: obj = (0.112751), mov = 100648, inf = 98.9%, acc = 1%, imp = 353

worst case efficiency: 0.667651
[9 sec, 109472 itr]: obj = (0.115147), mov = 109472, inf = 98.9%, acc = 1%, imp = 379

worst case efficiency: 0.669088
[10 sec, 121566 itr]: obj = (0.118677), mov = 121566, inf = 99%, acc = 0.9%, imp = 401

worst case efficiency: 0.671206
[11 sec, 142210 itr]: obj = (0.126146), mov = 142210, inf = 99.2%, acc = 0.8%, imp = 425

worst case efficiency: 0.675687
[12 sec, 169972 itr]: obj = (0.126555), mov = 169972, inf = 99.3%, acc = 0.7%, imp = 431

worst case efficiency: 0.675933
[13 sec, 188355 itr]: obj = (0.126555), mov = 188355, inf = 99.3%, acc = 0.6%, imp = 431

worst case efficiency: 0.675933
[14 sec, 205780 itr]: obj = (0.126558), mov = 205780, inf = 99.4%, acc = 0.6%, imp = 432

worst case efficiency: 0.675935
[15 sec, 222890 itr]: obj = (0.126558), mov = 222890, inf = 99.4%, acc = 0.6%, imp = 432

worst case efficiency: 0.675935
[16 sec, 239431 itr]: obj = (0.126558), mov = 239431, inf = 99.5%, acc = 0.5%, imp = 432

worst case efficiency: 0.675935
[17 sec, 255722 itr]: obj = (0.126558), mov = 255722, inf = 99.5%, acc = 0.5%, imp = 432

worst case efficiency: 0.675935
[18 sec, 272900 itr]: obj = (0.126558), mov = 272900, inf = 99.5%, acc = 0.5%, imp = 432

worst case efficiency: 0.675935
[19 sec, 289857 itr]: obj = (0.126558), mov = 289857, inf = 99.6%, acc = 0.4%, imp = 432

worst case efficiency: 0.675935
[20 sec, 307432 itr]: obj = (0.126558), mov = 307432, inf = 99.6%, acc = 0.4%, imp = 432

worst case efficiency: 0.675935
[21 sec, 325106 itr]: obj = (0.126558), mov = 325106, inf = 99.6%, acc = 0.4%, imp = 432

worst case efficiency: 0.675935
[22 sec, 342309 itr]: obj = (0.126558), mov = 342309, inf = 99.6%, acc = 0.4%, imp = 432

worst case efficiency: 0.675935
[23 sec, 359474 itr]: obj = (0.126558), mov = 359474, inf = 99.7%, acc = 0.4%, imp = 432

worst case efficiency: 0.675935
[24 sec, 375973 itr]: obj = (0.126558), mov = 375973, inf = 99.7%, acc = 0.4%, imp = 432

worst case efficiency: 0.675935
[25 sec, 392255 itr]: obj = (0.126558), mov = 392255, inf = 99.7%, acc = 0.4%, imp = 432

worst case efficiency: 0.675935
[26 sec, 408674 itr]: obj = (0.126558), mov = 408674, inf = 99.7%, acc = 0.3%, imp = 432

worst case efficiency: 0.675935
[27 sec, 425128 itr]: obj = (0.126558), mov = 425128, inf = 99.7%, acc = 0.3%, imp = 432

worst case efficiency: 0.675935
[28 sec, 442431 itr]: obj = (0.126558), mov = 442431, inf = 99.7%, acc = 0.3%, imp = 432

worst case efficiency: 0.675935
[29 sec, 459294 itr]: obj = (0.126558), mov = 459294, inf = 99.7%, acc = 0.3%, imp = 432

worst case efficiency: 0.675935
[30 sec, 475482 itr]: obj = (0.126558), mov = 475482, inf = 99.7%, acc = 0.3%, imp = 432

worst case efficiency: 0.675935
[31 sec, 492200 itr]: obj = (0.126558), mov = 492200, inf = 99.7%, acc = 0.3%, imp = 432

worst case efficiency: 0.675935
[32 sec, 509281 itr]: obj = (0.126558), mov = 509281, inf = 99.8%, acc = 0.3%, imp = 432

worst case efficiency: 0.675935
[33 sec, 526235 itr]: obj = (0.126558), mov = 526235, inf = 99.8%, acc = 0.3%, imp = 432

worst case efficiency: 0.675935
[34 sec, 542788 itr]: obj = (0.126636), mov = 542788, inf = 99.8%, acc = 0.3%, imp = 435

worst case efficiency: 0.675982
[35 sec, 559345 itr]: obj = (0.126789), mov = 559345, inf = 99.8%, acc = 0.3%, imp = 437

worst case efficiency: 0.676073
[36 sec, 575502 itr]: obj = (0.128168), mov = 575502, inf = 99.8%, acc = 0.3%, imp = 438

worst case efficiency: 0.676901
[37 sec, 591612 itr]: obj = (0.128168), mov = 591612, inf = 99.8%, acc = 0.3%, imp = 441

worst case efficiency: 0.676901
[38 sec, 607671 itr]: obj = (0.128168), mov = 607671, inf = 99.8%, acc = 0.3%, imp = 441

worst case efficiency: 0.676901
[39 sec, 624262 itr]: obj = (0.129667), mov = 624262, inf = 99.8%, acc = 0.3%, imp = 443

worst case efficiency: 0.6778
[40 sec, 641462 itr]: obj = (0.130031), mov = 641462, inf = 99.8%, acc = 0.3%, imp = 446

worst case efficiency: 0.678019
[41 sec, 658484 itr]: obj = (0.130231), mov = 658484, inf = 99.8%, acc = 0.2%, imp = 447

worst case efficiency: 0.678139
[42 sec, 675056 itr]: obj = (0.130271), mov = 675056, inf = 99.8%, acc = 0.2%, imp = 449

worst case efficiency: 0.678163
[43 sec, 691707 itr]: obj = (0.130427), mov = 691707, inf = 99.8%, acc = 0.2%, imp = 451

worst case efficiency: 0.678256
[44 sec, 708520 itr]: obj = (0.130792), mov = 708520, inf = 99.8%, acc = 0.2%, imp = 452

worst case efficiency: 0.678475
[45 sec, 724959 itr]: obj = (0.130861), mov = 724959, inf = 99.8%, acc = 0.2%, imp = 453

worst case efficiency: 0.678517
[46 sec, 741849 itr]: obj = (0.130861), mov = 741849, inf = 99.8%, acc = 0.2%, imp = 453

worst case efficiency: 0.678517
[47 sec, 758365 itr]: obj = (0.130861), mov = 758365, inf = 99.8%, acc = 0.2%, imp = 453

worst case efficiency: 0.678517
[48 sec, 774845 itr]: obj = (0.132909), mov = 774845, inf = 99.8%, acc = 0.2%, imp = 456

worst case efficiency: 0.679745
[49 sec, 791172 itr]: obj = (0.134782), mov = 791172, inf = 99.8%, acc = 0.2%, imp = 458

worst case efficiency: 0.680869
[50 sec, 806862 itr]: obj = (0.135439), mov = 806862, inf = 99.8%, acc = 0.2%, imp = 461

worst case efficiency: 0.681263
[51 sec, 822722 itr]: obj = (0.135632), mov = 822722, inf = 99.8%, acc = 0.2%, imp = 462

worst case efficiency: 0.681379
[52 sec, 839937 itr]: obj = (0.136566), mov = 839937, inf = 99.8%, acc = 0.2%, imp = 465

worst case efficiency: 0.68194
[53 sec, 857212 itr]: obj = (0.137029), mov = 857212, inf = 99.9%, acc = 0.2%, imp = 466

worst case efficiency: 0.682218
[54 sec, 874298 itr]: obj = (0.137321), mov = 874298, inf = 99.9%, acc = 0.2%, imp = 469

worst case efficiency: 0.682393
[55 sec, 890755 itr]: obj = (0.137321), mov = 890755, inf = 99.9%, acc = 0.2%, imp = 469

worst case efficiency: 0.682393
[56 sec, 908059 itr]: obj = (0.137321), mov = 908059, inf = 99.9%, acc = 0.2%, imp = 469

worst case efficiency: 0.682393
[57 sec, 926161 itr]: obj = (0.137321), mov = 926161, inf = 99.9%, acc = 0.2%, imp = 469

worst case efficiency: 0.682393
[58 sec, 943113 itr]: obj = (0.137321), mov = 943113, inf = 99.9%, acc = 0.2%, imp = 469

worst case efficiency: 0.682393
[59 sec, 959541 itr]: obj = (0.13761), mov = 959541, inf = 99.9%, acc = 0.2%, imp = 470

worst case efficiency: 0.682566
[60 sec, 975751 itr]: obj = (0.13761), mov = 975751, inf = 99.9%, acc = 0.2%, imp = 470

worst case efficiency: 0.682566
[61 sec, 992756 itr]: obj = (0.13761), mov = 992756, inf = 99.9%, acc = 0.2%, imp = 470

worst case efficiency: 0.682566
[62 sec, 1009687 itr]: obj = (0.141064), mov = 1009687, inf = 99.9%, acc = 0.2%, imp = 472

worst case efficiency: 0.684638
[63 sec, 1026584 itr]: obj = (0.141349), mov = 1026584, inf = 99.9%, acc = 0.2%, imp = 475

worst case efficiency: 0.68481
[64 sec, 1043094 itr]: obj = (0.145356), mov = 1043094, inf = 99.9%, acc = 0.2%, imp = 477

worst case efficiency: 0.687214
[65 sec, 1059844 itr]: obj = (0.145467), mov = 1059844, inf = 99.9%, acc = 0.2%, imp = 479

worst case efficiency: 0.68728
[66 sec, 1076598 itr]: obj = (0.148048), mov = 1076598, inf = 99.9%, acc = 0.2%, imp = 480

worst case efficiency: 0.688829
[67 sec, 1092527 itr]: obj = (0.148048), mov = 1092527, inf = 99.9%, acc = 0.2%, imp = 480

worst case efficiency: 0.688829
[68 sec, 1108851 itr]: obj = (0.14976), mov = 1108851, inf = 99.9%, acc = 0.2%, imp = 481

worst case efficiency: 0.689856
[69 sec, 1125489 itr]: obj = (0.155249), mov = 1125489, inf = 99.9%, acc = 0.2%, imp = 483

worst case efficiency: 0.693149
[70 sec, 1141674 itr]: obj = (0.155366), mov = 1141674, inf = 99.9%, acc = 0.2%, imp = 486

worst case efficiency: 0.69322
[71 sec, 1157906 itr]: obj = (0.155593), mov = 1157906, inf = 99.9%, acc = 0.2%, imp = 487

worst case efficiency: 0.693356
[72 sec, 1173842 itr]: obj = (0.155616), mov = 1173842, inf = 99.9%, acc = 0.2%, imp = 488

worst case efficiency: 0.69337
[73 sec, 1190191 itr]: obj = (0.155616), mov = 1190191, inf = 99.9%, acc = 0.2%, imp = 488

worst case efficiency: 0.69337
[74 sec, 1205495 itr]: obj = (0.15567), mov = 1205495, inf = 99.9%, acc = 0.2%, imp = 490

worst case efficiency: 0.693402
[75 sec, 1221060 itr]: obj = (0.155693), mov = 1221060, inf = 99.9%, acc = 0.2%, imp = 491

worst case efficiency: 0.693416
[76 sec, 1236843 itr]: obj = (0.155711), mov = 1236843, inf = 99.9%, acc = 0.2%, imp = 492

worst case efficiency: 0.693426
[77 sec, 1253163 itr]: obj = (0.155711), mov = 1253163, inf = 99.9%, acc = 0.2%, imp = 492

worst case efficiency: 0.693426
[78 sec, 1267565 itr]: obj = (0.155778), mov = 1267565, inf = 99.9%, acc = 0.2%, imp = 493

worst case efficiency: 0.693467
[79 sec, 1282880 itr]: obj = (0.155803), mov = 1282880, inf = 99.9%, acc = 0.2%, imp = 496

worst case efficiency: 0.693482
[80 sec, 1298586 itr]: obj = (0.155803), mov = 1298586, inf = 99.9%, acc = 0.2%, imp = 496

worst case efficiency: 0.693482
[81 sec, 1314414 itr]: obj = (0.155803), mov = 1314414, inf = 99.9%, acc = 0.2%, imp = 496

worst case efficiency: 0.693482
[82 sec, 1329976 itr]: obj = (0.155803), mov = 1329976, inf = 99.9%, acc = 0.2%, imp = 496

worst case efficiency: 0.693482
[83 sec, 1346111 itr]: obj = (0.156328), mov = 1346111, inf = 99.9%, acc = 0.2%, imp = 498

worst case efficiency: 0.693797
[84 sec, 1362072 itr]: obj = (0.156351), mov = 1362072, inf = 99.9%, acc = 0.2%, imp = 499

worst case efficiency: 0.693811
[85 sec, 1379045 itr]: obj = (0.156966), mov = 1379045, inf = 99.9%, acc = 0.2%, imp = 500

worst case efficiency: 0.69418
[86 sec, 1395582 itr]: obj = (0.157118), mov = 1395582, inf = 99.9%, acc = 0.2%, imp = 501

worst case efficiency: 0.694271
[87 sec, 1412161 itr]: obj = (0.157118), mov = 1412161, inf = 99.9%, acc = 0.2%, imp = 501

worst case efficiency: 0.694271
[88 sec, 1426904 itr]: obj = (0.157118), mov = 1426904, inf = 99.9%, acc = 0.2%, imp = 501

worst case efficiency: 0.694271
[89 sec, 1440919 itr]: obj = (0.157118), mov = 1440919, inf = 99.9%, acc = 0.2%, imp = 501

worst case efficiency: 0.694271
[90 sec, 1455175 itr]: obj = (0.1572), mov = 1455175, inf = 99.9%, acc = 0.2%, imp = 502

worst case efficiency: 0.69432
[90 sec, 1455175 itr]: obj = (0.1572), mov = 1455175, inf = 99.9%, acc = 0.2%, imp = 502

worst case efficiency: 0.69432
1455175 iterations, 1455175 moves performed in 90 seconds
Feasible solution: obj = (0.1572)

Run output...
FINAL SOLUTION
Worst case efficiency: 0.69432
Mapping: 0->46, 1->24, 2->12, 3->31, 4->18, 5->5, 6->35, 7->33, 8->15, 9->36, 10->4, 11->12, 12->20, 13->6, 14->47, 15->41, 16->11, 17->35, 18->3, 19->36, 20->19, 21->25, 22->18, 23->37, 24->39, 25->14, 26->0, 27->22, 28->4, 29->5, 30->19, 31->36, 32->24, 33->13, 34->0, 35->9, 36->38, 37->1, 38->45, 39->16, 40->45, 41->7, 42->46, 43->31, 44->26, 45->1, 46->33, 47->38, 48->31, 49->47, 50->27, 51->19, 52->9, 53->43, 54->32, 55->2, 56->29, 57->30, 58->31, 59->27, 60->5, 61->30, 62->30, 63->29, 64->35, 65->7, 66->45, 67->1, 68->23, 69->16, 70->29, 71->39, 72->43, 73->10, 74->41, 75->13, 76->21, 77->5, 78->7, 79->2, 80->42, 81->24, 82->10, 83->31, 84->30, 85->4, 86->3, 87->42, 88->8, 89->23, 90->29, 91->2, 92->24, 93->26, 94->30, 95->46, 96->3, 97->11, 98->16, 99->25, 100->43, 101->12, 102->17, 103->26, 104->23, 105->20, 106->1, 107->20, 108->25, 109->22, 110->0, 111->32, 112->41, 113->41, 114->35, 115->18, 116->29, 117->42, 118->36, 119->3, 120->10, 121->12, 122->10, 123->7, 124->8, 125->37, 126->44, 127->34, 128->7, 129->4, 130->42, 131->7, 132->8, 133->33, 134->38, 135->26, 136->14, 137->32, 138->40, 139->44, 140->37, 141->39, 142->22, 143->9, 144->14, 145->44, 146->0, 147->35, 148->37, 149->47, 150->6, 151->43, 152->32, 153->8, 154->18, 155->23, 156->40, 157->18, 158->5, 159->11, 160->2, 161->28, 162->12, 163->11, 164->28, 165->15, 166->25, 167->11, 168->16, 169->46, 170->0, 171->34, 172->27, 173->6, 174->25, 175->34, 176->1, 177->6, 178->36, 179->9, 180->27, 181->17, 182->6, 183->43, 184->28, 185->44, 186->38, 187->17, 188->44, 189->15, 190->19, 191->45, 192->33, 193->44, 194->9, 195->34, 196->37, 197->13, 198->43, 199->4, 200->13, 201->33, 202->27, 203->28, 204->21, 205->46, 206->13, 207->15, 208->15, 209->23, 210->20, 211->19, 212->34, 213->38, 214->41, 215->31, 216->8, 217->10, 218->17, 219->8, 220->14, 221->45, 222->39, 223->36, 224->21, 225->39, 226->28, 227->47, 228->40, 229->37, 230->23, 231->32, 232->29, 233->21, 234->3, 235->33, 236->38, 237->42, 238->47, 239->21, 240->17, 241->11, 242->40, 243->17, 244->2, 245->4, 246->40, 247->22, 248->18, 249->28, 250->3, 251->14, 252->6, 253->9, 254->24, 255->16, 256->21, 257->15, 258->13, 259->24, 260->35, 261->22, 262->46, 263->41, 264->40, 265->0, 266->1, 267->16, 268->26, 269->42, 270->25, 271->20, 272->22, 273->2, 274->47, 275->14, 276->45, 277->32, 278->19, 279->27, 280->26, 281->20, 282->10, 283->5, 284->30, 285->34, 286->12, 287->39
Number of tasks per core:
	6	6	6	6	6	6
	6	6	6	6	6	6
	6	6	6	6	6	6
	6	6	6	6	6	6
	6	6	6	6	6	6
	6	6	6	6	6	6
	6	6	6	6	6	6
	6	6	6	6	6	6
Average CPI map:
	0.811909	4.53322	1.71993	1.60884	1.78535	1.43065
	9.30858	2.46267	5.52474	6.68073	2.41464	1.43533
	1.82758	6.73302	5.40682	9.35137	6.37122	1.25086
	0.91655	8.35995	6.50584	3.6615	5.73387	5.22648
	1.71196	3.45914	4.40952	6.86908	3.66578	2.10555
	1.14596	5.53122	5.91164	6.01928	7.84032	2.56752
	1.35941	4.11808	6.21858	6.21042	4.21362	7.47531
	1.53329	2.22321	7.23933	2.4803	7.51955	1.11027
Efficiency map:
	0.996752	0.978665	0.933674	0.932337	0.948094	0.995834
	0.988332	0.69432	0.830679	0.843473	0.696653	0.82982
	0.836744	0.76725	0.757555	0.862555	0.790137	0.817727
	0.804225	0.86684	0.81181	0.7002	0.83871	0.942625
	0.82113	0.718928	0.695731	0.782956	0.698111	0.848426
	0.768831	0.736567	0.69599	0.782368	0.885061	0.866803
	0.871815	0.704795	0.802557	0.8541	0.745606	0.977963
	0.829513	0.721714	0.905543	0.707984	0.889193	0.819192
==============================================================================
Local Solver optimizer for EML demonstration
==============================================================================

Option values: --wld-idx 10 --global-tlim 90 --seed 701

Starting the Optimization Process
