LocalSolver 4.0 (MacOS64, build 20131224)
Copyright (C) 2013 Bouygues SA, Aix-Marseille University, CNRS.
All rights reserved (see Terms and Conditions for details).

Load localsolver_res/tawd_ls.lsp...
Run input...
ANNs For the Platform:
3,2,1,0.413586,-0.0266769,-0.0683771,-5.1002,70.5254,-0.257939,-72.3361,-14.3957,-55.9961,0.000416225,-55.1984
3,2,1,7.29748,1.94844,3.18138,9.63196,-4.67735,-4.13678,1.22405,-8.03403,0.0803394,-0.125838,0.598848
3,2,1,6.43996,0.383984,0.598454,7.79024,-4.25175,0.123161,-0.278344,-5.71253,1.47885,1.00258,0.327892
3,2,1,3.45395,0.140329,0.51254,4.25255,4.08469,0.00326531,0.722664,3.88666,1.2829,-0.290289,-0.187123
3,2,1,1.76581,-0.7465,16.0398,1.01103,2.42771,0.96084,1.00318,4.14242,-0.00284347,0.244904,0.56299
3,2,1,1.87058,0.359859,-0.0851999,0.818043,3.18969,0.847611,-7.29654,-2.24823,0.00245596,0.000486788,0.794563
3,2,1,3.28113,0.579268,0.142679,3.72653,-0.240895,-0.149383,25.0414,7.13641,0.488705,-0.00083541,0.320468
3,2,1,-4.78997,-2.53518,1.7971,11.1628,-3.08773,-0.470276,-0.0894822,-2.63871,1.46314,-0.463195,-1.12076
3,2,1,-0.392198,-0.00544948,0.0100489,-0.634573,-1.21109,-0.0856362,-0.013156,-1.60668,1.54201,-2.33195,-0.462253
3,2,1,3.15031,0.401017,0.160161,2.51156,5.71314,0.59291,-11.6364,2.59774,0.430465,0.00737346,0.36306
3,2,1,2.64111,0.312028,0.0803827,2.35273,-4.25958,3.48188,-1.59773,-1.57632,0.565527,0.0271972,0.266241
3,2,1,2.2658,0.0425076,0.0191991,-0.583848,2.82415,0.533705,0.0754136,3.33659,-0.0169351,0.54785,0.257008
3,2,1,6.01014,0.654767,0.24854,5.54419,5.68574,0.00137666,0.00103835,-1.46229,0.258518,0.00962319,0.54621
3,2,1,-0.828282,0.684875,0.223674,-1.44779,5.0064,0.272371,0.00344824,2.89438,0.397142,0.379767,0.797684
3,2,1,-0.166745,-1.25514,-0.967701,-3.82155,3.34568,0.34907,0.176897,2.37943,0.567319,0.42026,0.93611
3,2,1,-10.035,3.55243,8.66202,-21.5626,10.92,0.228744,0.12852,5.40188,0.871264,0.345634,1.3209
3,2,1,4.50278,0.709934,0.227356,3.41616,1.455,0.115548,0.0125181,-1.15221,0.345467,0.222127,0.602264
3,2,1,3.51765,0.552987,0.202187,3.41883,0.53704,0.0709757,-0.0346297,-0.38017,0.320095,-0.0397752,0.474568
3,2,1,3.62936,0.506661,0.201819,3.49179,3.4019,-3.09955,1.3332,0.961184,0.32649,-0.0126443,0.488413
3,2,1,3.50925,0.448618,0.127508,2.4823,1.78455,1.6893,1.46456,-0.207671,0.400287,0.00684206,0.402337
3,2,1,-0.52883,0.00691432,0.00617163,-0.194006,1.73284,0.0488672,0.0179273,1.25978,0.716787,0.92667,0.162242
3,2,1,2.48239,0.190378,0.120167,1.91689,1.21532,1.48543,0.644574,2.68198,0.547395,-0.0744913,0.328097
3,2,1,2.55861,2.02297,0.650126,2.19109,2.44652,0.0836318,0.0133745,2.4369,0.0418722,0.798841,-0.0334834
3,2,1,5.07371,0.556895,0.217981,4.66725,-0.00829845,-0.00544544,0.00934569,-0.672651,0.280461,-0.520981,0.217266
3,2,1,1.56588,0.201966,0.0665967,1.82578,1.97654,0.236717,0.0903453,1.08195,1.02748,-0.229836,0.011785
3,2,1,2.41728,0.208205,-0.0012583,2.05484,1.41976,-1.30194,1.45365,1.79277,0.56727,0.031184,0.207229
3,2,1,3.71833,0.202336,0.172606,2.43155,5.03284,0.375118,-0.790998,-3.83455,0.400925,0.372075,0.754779
3,2,1,-1.25583,1.47411,0.819895,-2.78448,4.36107,0.113478,0.107247,2.55416,0.385214,0.384141,0.797017
3,2,1,1.71562,-0.478906,-0.61026,-1.17859,3.1361,0.360865,0.0914124,2.2536,-0.0127033,0.431384,0.365879
3,2,1,-1.75501,-0.0880109,-0.026461,-2.68365,2.88327,0.072433,0.0245574,1.95701,-5.87306,-0.563325,-4.48698
3,2,1,1.87886,0.47325,-0.0511434,1.79719,1.94184,0.328234,0.0220624,2.54301,-0.401251,1.77114,-0.565042
3,2,1,-1.60981,1.67946,0.217969,-1.01084,4.35765,0.130722,0.127348,2.65259,0.0709006,0.384957,0.481341
3,2,1,6.90393,1.27603,0.349979,4.84299,12.4465,-4.65212,-2.15462,0.408255,0.295914,0.0666312,0.4354
3,2,1,3.04491,0.18183,0.111428,2.10543,3.32281,-0.49945,-3.78487,-7.88748,0.444834,-4.36795,-4.01116
3,2,1,2.91407,0.251062,0.0435786,2.27032,0.308764,1.59867,0.766589,0.134898,0.475285,0.00569166,0.326702
3,2,1,1.44846,0.205113,0.0448314,1.45909,1.93039,0.286882,0.0586866,1.17886,1.39166,-0.600981,0.0448012
3,2,1,-0.702729,1.84783,-0.00894741,-12.1377,-140.908,-69.0514,-27.175,-146.219,-4.51728,-0.14351,-3.88527
3,2,1,4.2004,0.255152,0.0750175,2.63627,-1.17866,1.67307,0.209535,-1.03514,0.371915,0.0747402,0.498851
3,2,1,3.28015,0.190841,0.175032,2.31848,-0.821253,-1.83022,1.5009,-1.6155,0.417221,-0.0239081,0.360136
3,2,1,2.0525,0.0719707,0.0148549,2.1486,2.00198,1.73479,2.09334,1.44082,0.954066,0.00952719,-0.152697
3,2,1,3.31406,0.407717,0.0380361,2.47187,-0.266021,-1.73458,0.970613,-1.79463,0.415264,-0.0144649,0.374956
3,2,1,6.25099,-3.17047,1.46865,-0.279767,-2.91952,-0.395169,-0.0444215,-3.76202,-0.00491872,-1.23429,-0.425145
3,2,1,1.59636,0.096013,0.0630313,0.826005,1.46151,0.077228,0.0482484,1.68899,-0.289647,1.15304,-0.0688712
3,2,1,33.0172,0.520442,0.135338,28.5555,-3.97298,-0.0574545,-0.0193135,3.34452,0.297691,-5.9863,6.38072
3,2,1,2.32742,0.056139,0.0279748,2.30198,0.254535,0.117712,2.12797,1.7883,0.827797,-0.00209653,-0.0205758
3,2,1,-1.76524,-0.0296866,-0.00748622,-2.47523,4.4267,-0.377196,-4.83785,1.3517,-2.37434,-0.00716866,-1.55224
3,2,1,1.2047,-1.47491,1.03821,1.50617,3.23679,0.3845,-0.018138,2.47251,0.0419137,0.407618,0.357451
3,2,1,3.93828,-0.00820725,-0.00812648,-1.1651,2.06372,0.114124,0.0339398,2.70327,-0.0635318,1.17159,-0.373077
Workload Information:
1.6502, 2.00333, 1.9065, 2.11556, 2.03108, 2.29334, 1.64123, 2.18834, 2.01249, 2.11594, 2.07649, 1.96551, 1.87434, 1.94937, 1.78433, 2.04827, 2.08405, 2.25964, 3.83077, 0.5, 1.34283, 1.78054, 1.86379, 2.68208, 0.5, 0.632387, 2.72557, 1.51653, 3.92585, 2.69967, 0.854641, 2.00383, 1.64434, 2.4628, 2.56279, 2.47159, 2.2666, 2.78582, 1.04079, 2.35568, 1.89932, 1.65177, 1.69302, 0.5, 1.33046, 2.11318, 1.29651, 5.06683, 0.5, 0.674983, 2.83931, 4.16687, 1.92577, 1.89306, 1.85307, 2.29043, 1.97125, 2.28525, 1.74132, 1.85868, 2.1023, 1.69577, 0.5, 4.78543, 1.17135, 1.74515, 1.49476, 2.15464, 1.68504, 2.9912, 0.5, 3.17436, 3.25083, 1.08147, 4.28784, 0.766191, 1.41715, 1.19651, 3.16454, 1.22029, 2.6492, 0.5, 3.17416, 1.29181, 3.4715, 2.55399, 1.29515, 0.598873, 2.42992, 1.65057, 0.5, 2.19827, 1.40764, 5.2324, 0.530361, 2.13134, 0.552511, 1.63958, 1.58991, 2.25201, 2.78607, 3.17992, 2.68404, 1.50343, 1.73646, 1.41908, 2.0783, 2.57868, 1.23405, 0.5, 3.04146, 0.519661, 4.36761, 2.33723, 2.55193, 1.2158, 1.77266, 2.66243, 1.81623, 1.98095, 4.08448, 1.49901, 0.5, 1.13612, 2.26147, 2.51892, 2.01921, 2.31561, 2.40868, 0.835971, 2.32472, 2.0958, 8.98374, 5.98729, 12.3374, 10.3917, 11.0733, 11.2266, 1.82936, 2.02405, 2.01205, 2.00186, 2.04013, 2.09254, 0.5, 2.00094, 2.607, 2.37311, 3.10599, 1.41296, 2.56858, 3.26128, 2.67461, 2.48799, 0.5, 0.507533, 1.00187, 3.477, 3.25426, 0.5, 0.60843, 3.15844, 2.41498, 0.5, 1.17888, 3.0427, 2.66682, 2.19662, 0.5, 3.5692, 2.12025, 1.02808, 4.10788, 0.674602, 0.710945, 3.87408, 0.5, 3.94802, 2.41269, 0.554262, 3.60707, 1.17239, 1.93735, 3.0093, 1.26611, 1.00778, 0.5, 0.679767, 2.59624, 0.922478, 4.00551, 3.296, 2.32441, 1.9184, 1.74826, 2.05557, 1.95495, 1.99841, 1.89109, 2.17257, 1.11112, 2.36627, 2.16235, 2.2966, 2.95795, 2.21251, 1.45507, 3.84861, 1.02586, 0.5, 4.88615, 2.812, 1.24048, 0.890107, 1.24751, 0.923747, 3.27567, 1.25894, 2.99415, 0.51144, 1.76212, 2.19768, 2.19369, 2.05351, 1.97408, 0.96577, 2.39755, 2.4154, 3.9962, 2.97263, 1.52039, 0.5, 2.02982, 0.980961, 0.5, 2.79523, 1.75675, 3.19911, 0.979511, 2.76939, 2.44806, 1.02196, 0.5, 3.54448, 3.12757, 1.35794, 3.98877, 0.5, 1.78633, 2.72841, 2.17012, 0.826369, 3.50534, 0.968886, 3.36137, 0.646376, 3.01803, 0.5, 1.81909, 2.06064, 1.95243, 2.11472, 1.86814, 2.18497, 1.70376, 2.80852, 1.5081, 0.710288, 2.90055, 2.36879, 3.06217, 1.79808, 1.54725, 0.661954, 3.50832, 1.42223, 3.10937, 3.01357, 1.88328, 1.46832, 2.02546, 0.5, 3.14065, 2.85111, 0.700269, 2.8563, 0.5, 1.95167
cpi min/max: 0.5/12.3374
neighbors of 0: 1 6, number of others: 45
neighbors of 1: 0 2 6 7, number of others: 43
neighbors of 2: 1 3 7 8, number of others: 43
neighbors of 3: 2 4 8 9, number of others: 43
neighbors of 4: 3 5 9 10, number of others: 43
neighbors of 5: 4 10 11, number of others: 44
neighbors of 6: 0 1 7 12, number of others: 43
neighbors of 7: 1 2 6 8 12 13, number of others: 41
neighbors of 8: 2 3 7 9 13 14, number of others: 41
neighbors of 9: 3 4 8 10 14 15, number of others: 41
neighbors of 10: 4 5 9 11 15 16, number of others: 41
neighbors of 11: 5 10 16 17, number of others: 43
neighbors of 12: 6 7 13 18, number of others: 43
neighbors of 13: 7 8 12 14 18 19, number of others: 41
neighbors of 14: 8 9 13 15 19 20, number of others: 41
neighbors of 15: 9 10 14 16 20 21, number of others: 41
neighbors of 16: 10 11 15 17 21 22, number of others: 41
neighbors of 17: 11 16 22 23, number of others: 43
neighbors of 18: 12 13 19 24, number of others: 43
neighbors of 19: 13 14 18 20 24 25, number of others: 41
neighbors of 20: 14 15 19 21 25 26, number of others: 41
neighbors of 21: 15 16 20 22 26 27, number of others: 41
neighbors of 22: 16 17 21 23 27 28, number of others: 41
neighbors of 23: 17 22 28 29, number of others: 43
neighbors of 24: 18 19 25 30, number of others: 43
neighbors of 25: 19 20 24 26 30 31, number of others: 41
neighbors of 26: 20 21 25 27 31 32, number of others: 41
neighbors of 27: 21 22 26 28 32 33, number of others: 41
neighbors of 28: 22 23 27 29 33 34, number of others: 41
neighbors of 29: 23 28 34 35, number of others: 43
neighbors of 30: 24 25 31 36, number of others: 43
neighbors of 31: 25 26 30 32 36 37, number of others: 41
neighbors of 32: 26 27 31 33 37 38, number of others: 41
neighbors of 33: 27 28 32 34 38 39, number of others: 41
neighbors of 34: 28 29 33 35 39 40, number of others: 41
neighbors of 35: 29 34 40 41, number of others: 43
neighbors of 36: 30 31 37 42, number of others: 43
neighbors of 37: 31 32 36 38 42 43, number of others: 41
neighbors of 38: 32 33 37 39 43 44, number of others: 41
neighbors of 39: 33 34 38 40 44 45, number of others: 41
neighbors of 40: 34 35 39 41 45 46, number of others: 41
neighbors of 41: 35 40 46 47, number of others: 43
neighbors of 42: 36 37 43, number of others: 44
neighbors of 43: 37 38 42 44, number of others: 43
neighbors of 44: 38 39 43 45, number of others: 43
neighbors of 45: 39 40 44 46, number of others: 43
neighbors of 46: 40 41 45 47, number of others: 43
neighbors of 47: 41 46, number of others: 45
Run model...
Preprocess model 0% ...Preprocess model 16% ...Preprocess model 32% ...Preprocess model 48% ...Preprocess model 66% ...Preprocess model 84% ...Preprocess model 100% ...
Close model 0% ...Close model 9% ...Close model 18% ...Close model 27% ...Close model 36% ...Close model 45% ...Close model 54% ...Close model 63% ...Close model 72% ...Close model 81% ...Close model 91% ...Close model 100% ...
Run param...
Run solver...
Initialize threads 0% ...Initialize threads 100% ...
Push initial solutions 0% ...Push initial solutions 100% ...

Model: 
  expressions = 30661, operands = 74976
  decisions = 13824, constraints = 336, objectives = 1

Param: 
  time limit = 90 sec, no iteration limit
  seed = 701, nb threads = 1, annealing level = 1

Objectives:
  Obj 0: maximize, no bound

Phases:
  Phase 0: time limit = 90 sec, no iteration limit, optimized objective = 0


Computed bounds:
  Obj 0: upper bound = 0.608788


Phase 0:
[0 sec, 0 itr]: infeas = (336, 336, 576), mov = 0, inf < 0.1%, acc < 0.1%, imp = 0

worst case efficiency: 0.965273
[1 sec, 6531 itr]: infeas = (3, 3, 8), mov = 6531, inf = 41.2%, acc = 40%, imp = 152

worst case efficiency: 0.595194
[2 sec, 22158 itr]: obj = (0.0445917), mov = 22158, inf = 68.3%, acc = 22.1%, imp = 168

worst case efficiency: 0.626755
[3 sec, 51457 itr]: obj = (0.0570444), mov = 51457, inf = 86.3%, acc = 9.6%, imp = 199

worst case efficiency: 0.634227
[4 sec, 71877 itr]: obj = (0.0663228), mov = 71877, inf = 90.2%, acc = 6.9%, imp = 221

worst case efficiency: 0.639794
[5 sec, 87481 itr]: obj = (0.0701187), mov = 87481, inf = 91.9%, acc = 5.8%, imp = 256

worst case efficiency: 0.642071
[6 sec, 100956 itr]: obj = (0.0772094), mov = 100956, inf = 92.9%, acc = 5%, imp = 286

worst case efficiency: 0.646326
[7 sec, 112823 itr]: obj = (0.0785323), mov = 112823, inf = 93.6%, acc = 4.5%, imp = 313

worst case efficiency: 0.647119
[8 sec, 123747 itr]: obj = (0.0802442), mov = 123747, inf = 94.2%, acc = 4.2%, imp = 331

worst case efficiency: 0.648147
[9 sec, 135686 itr]: obj = (0.0808956), mov = 135686, inf = 94.7%, acc = 3.8%, imp = 343

worst case efficiency: 0.648537
[10 sec, 149422 itr]: obj = (0.0821254), mov = 149422, inf = 95.2%, acc = 3.5%, imp = 363

worst case efficiency: 0.649275
[11 sec, 162595 itr]: obj = (0.0825069), mov = 162595, inf = 95.5%, acc = 3.2%, imp = 380

worst case efficiency: 0.649504
[12 sec, 174486 itr]: obj = (0.0830161), mov = 174486, inf = 95.8%, acc = 3%, imp = 395

worst case efficiency: 0.64981
[13 sec, 185614 itr]: obj = (0.0830977), mov = 185614, inf = 96.1%, acc = 2.8%, imp = 401

worst case efficiency: 0.649859
[14 sec, 196458 itr]: obj = (0.0832051), mov = 196458, inf = 96.3%, acc = 2.7%, imp = 408

worst case efficiency: 0.649923
[15 sec, 207829 itr]: obj = (0.0841592), mov = 207829, inf = 96.5%, acc = 2.6%, imp = 421

worst case efficiency: 0.650496
[16 sec, 223519 itr]: obj = (0.0841592), mov = 223519, inf = 96.7%, acc = 2.4%, imp = 422

worst case efficiency: 0.650496
[17 sec, 248449 itr]: obj = (0.0846584), mov = 248449, inf = 97%, acc = 2.2%, imp = 428

worst case efficiency: 0.650795
[18 sec, 283943 itr]: obj = (0.0861229), mov = 283943, inf = 97.4%, acc = 1.9%, imp = 435

worst case efficiency: 0.651674
[19 sec, 318514 itr]: obj = (0.0862495), mov = 318514, inf = 97.6%, acc = 1.7%, imp = 439

worst case efficiency: 0.65175
[20 sec, 358726 itr]: obj = (0.0863072), mov = 358726, inf = 97.9%, acc = 1.6%, imp = 444

worst case efficiency: 0.651784
[21 sec, 397781 itr]: obj = (0.0863324), mov = 397781, inf = 98.1%, acc = 1.4%, imp = 446

worst case efficiency: 0.651799
[22 sec, 432336 itr]: obj = (0.086425), mov = 432336, inf = 98.2%, acc = 1.3%, imp = 448

worst case efficiency: 0.651855
[23 sec, 465526 itr]: obj = (0.0865968), mov = 465526, inf = 98.3%, acc = 1.3%, imp = 456

worst case efficiency: 0.651958
[24 sec, 499107 itr]: obj = (0.0866843), mov = 499107, inf = 98.3%, acc = 1.2%, imp = 460

worst case efficiency: 0.652011
[25 sec, 533015 itr]: obj = (0.0867211), mov = 533015, inf = 98.4%, acc = 1.2%, imp = 466

worst case efficiency: 0.652033
[26 sec, 566881 itr]: obj = (0.0867295), mov = 566881, inf = 98.5%, acc = 1.1%, imp = 467

worst case efficiency: 0.652038
[27 sec, 600213 itr]: obj = (0.0867616), mov = 600213, inf = 98.5%, acc = 1.1%, imp = 470

worst case efficiency: 0.652057
[28 sec, 634113 itr]: obj = (0.0867616), mov = 634113, inf = 98.6%, acc = 1%, imp = 471

worst case efficiency: 0.652057
[29 sec, 667566 itr]: obj = (0.0868035), mov = 667566, inf = 98.6%, acc = 1%, imp = 474

worst case efficiency: 0.652082
[30 sec, 696268 itr]: obj = (0.0868155), mov = 696268, inf = 98.7%, acc = 1%, imp = 475

worst case efficiency: 0.652089
[31 sec, 727235 itr]: obj = (0.0868155), mov = 727235, inf = 98.7%, acc = 0.9%, imp = 475

worst case efficiency: 0.652089
[32 sec, 756515 itr]: obj = (0.0868464), mov = 756515, inf = 98.7%, acc = 0.9%, imp = 478

worst case efficiency: 0.652108
[33 sec, 790594 itr]: obj = (0.0868513), mov = 790594, inf = 98.8%, acc = 0.9%, imp = 481

worst case efficiency: 0.652111
[34 sec, 824816 itr]: obj = (0.0869273), mov = 824816, inf = 98.8%, acc = 0.8%, imp = 485

worst case efficiency: 0.652156
[35 sec, 859415 itr]: obj = (0.0869273), mov = 859415, inf = 98.8%, acc = 0.8%, imp = 487

worst case efficiency: 0.652156
[36 sec, 894525 itr]: obj = (0.086962), mov = 894525, inf = 98.8%, acc = 0.8%, imp = 492

worst case efficiency: 0.652177
[37 sec, 929175 itr]: obj = (0.0869913), mov = 929175, inf = 98.8%, acc = 0.8%, imp = 495

worst case efficiency: 0.652195
[38 sec, 965167 itr]: obj = (0.0870543), mov = 965167, inf = 98.9%, acc = 0.8%, imp = 500

worst case efficiency: 0.652233
[39 sec, 1001457 itr]: obj = (0.0870649), mov = 1001457, inf = 98.9%, acc = 0.8%, imp = 503

worst case efficiency: 0.652239
[40 sec, 1037798 itr]: obj = (0.0870649), mov = 1037798, inf = 98.9%, acc = 0.8%, imp = 503

worst case efficiency: 0.652239
[41 sec, 1073758 itr]: obj = (0.0870649), mov = 1073758, inf = 98.9%, acc = 0.7%, imp = 503

worst case efficiency: 0.652239
[42 sec, 1110337 itr]: obj = (0.0870728), mov = 1110337, inf = 98.9%, acc = 0.7%, imp = 504

worst case efficiency: 0.652244
[43 sec, 1145947 itr]: obj = (0.0871027), mov = 1145947, inf = 98.9%, acc = 0.7%, imp = 507

worst case efficiency: 0.652262
[44 sec, 1182165 itr]: obj = (0.0871055), mov = 1182165, inf = 98.9%, acc = 0.7%, imp = 508

worst case efficiency: 0.652263
[45 sec, 1218355 itr]: obj = (0.0871055), mov = 1218355, inf = 98.9%, acc = 0.7%, imp = 508

worst case efficiency: 0.652263
[46 sec, 1254337 itr]: obj = (0.0871055), mov = 1254337, inf = 98.9%, acc = 0.7%, imp = 509

worst case efficiency: 0.652263
[47 sec, 1289948 itr]: obj = (0.0871147), mov = 1289948, inf = 98.9%, acc = 0.7%, imp = 510

worst case efficiency: 0.652269
[48 sec, 1326391 itr]: obj = (0.0871214), mov = 1326391, inf = 98.9%, acc = 0.7%, imp = 512

worst case efficiency: 0.652273
[49 sec, 1362288 itr]: obj = (0.0871214), mov = 1362288, inf = 98.9%, acc = 0.7%, imp = 512

worst case efficiency: 0.652273
[50 sec, 1399069 itr]: obj = (0.0871214), mov = 1399069, inf = 98.9%, acc = 0.7%, imp = 512

worst case efficiency: 0.652273
[51 sec, 1435900 itr]: obj = (0.0871214), mov = 1435900, inf = 99%, acc = 0.7%, imp = 512

worst case efficiency: 0.652273
[52 sec, 1472050 itr]: obj = (0.0871337), mov = 1472050, inf = 99%, acc = 0.7%, imp = 513

worst case efficiency: 0.65228
[53 sec, 1508745 itr]: obj = (0.0871337), mov = 1508745, inf = 99%, acc = 0.7%, imp = 514

worst case efficiency: 0.65228
[54 sec, 1546436 itr]: obj = (0.0871337), mov = 1546436, inf = 99%, acc = 0.6%, imp = 514

worst case efficiency: 0.65228
[55 sec, 1583603 itr]: obj = (0.0871337), mov = 1583603, inf = 99%, acc = 0.6%, imp = 514

worst case efficiency: 0.65228
[56 sec, 1621400 itr]: obj = (0.0871337), mov = 1621400, inf = 99%, acc = 0.6%, imp = 515

worst case efficiency: 0.65228
[57 sec, 1659796 itr]: obj = (0.0871423), mov = 1659796, inf = 99%, acc = 0.6%, imp = 516

worst case efficiency: 0.652285
[58 sec, 1698021 itr]: obj = (0.0871423), mov = 1698021, inf = 99%, acc = 0.6%, imp = 517

worst case efficiency: 0.652285
[59 sec, 1735441 itr]: obj = (0.0871423), mov = 1735441, inf = 99%, acc = 0.6%, imp = 518

worst case efficiency: 0.652285
[60 sec, 1773084 itr]: obj = (0.0871423), mov = 1773084, inf = 99%, acc = 0.6%, imp = 518

worst case efficiency: 0.652285
[61 sec, 1811381 itr]: obj = (0.0871551), mov = 1811381, inf = 99%, acc = 0.6%, imp = 519

worst case efficiency: 0.652293
[62 sec, 1849099 itr]: obj = (0.0871551), mov = 1849099, inf = 99%, acc = 0.6%, imp = 519

worst case efficiency: 0.652293
[63 sec, 1886239 itr]: obj = (0.0871551), mov = 1886239, inf = 99%, acc = 0.6%, imp = 520

worst case efficiency: 0.652293
[64 sec, 1923603 itr]: obj = (0.0871773), mov = 1923603, inf = 99%, acc = 0.6%, imp = 522

worst case efficiency: 0.652306
[65 sec, 1961047 itr]: obj = (0.0871991), mov = 1961047, inf = 99%, acc = 0.6%, imp = 525

worst case efficiency: 0.652319
[66 sec, 1998437 itr]: obj = (0.0871991), mov = 1998437, inf = 99%, acc = 0.6%, imp = 525

worst case efficiency: 0.652319
[67 sec, 2036604 itr]: obj = (0.087254), mov = 2036604, inf = 99%, acc = 0.6%, imp = 530

worst case efficiency: 0.652352
[68 sec, 2073957 itr]: obj = (0.0873261), mov = 2073957, inf = 99%, acc = 0.6%, imp = 534

worst case efficiency: 0.652396
[69 sec, 2112351 itr]: obj = (0.0873494), mov = 2112351, inf = 99%, acc = 0.6%, imp = 538

worst case efficiency: 0.65241
[70 sec, 2150567 itr]: obj = (0.0873744), mov = 2150567, inf = 99%, acc = 0.6%, imp = 541

worst case efficiency: 0.652425
[71 sec, 2188604 itr]: obj = (0.0873744), mov = 2188604, inf = 99%, acc = 0.6%, imp = 543

worst case efficiency: 0.652425
[72 sec, 2226074 itr]: obj = (0.0874032), mov = 2226074, inf = 99%, acc = 0.6%, imp = 547

worst case efficiency: 0.652442
[73 sec, 2263469 itr]: obj = (0.0874061), mov = 2263469, inf = 99%, acc = 0.6%, imp = 549

worst case efficiency: 0.652444
[74 sec, 2301870 itr]: obj = (0.0874192), mov = 2301870, inf = 99%, acc = 0.6%, imp = 553

worst case efficiency: 0.652452
[75 sec, 2339169 itr]: obj = (0.0874192), mov = 2339169, inf = 99%, acc = 0.6%, imp = 554

worst case efficiency: 0.652452
[76 sec, 2377114 itr]: obj = (0.0874192), mov = 2377114, inf = 99%, acc = 0.6%, imp = 554

worst case efficiency: 0.652452
[77 sec, 2414402 itr]: obj = (0.0874641), mov = 2414402, inf = 99%, acc = 0.6%, imp = 556

worst case efficiency: 0.652478
[78 sec, 2452504 itr]: obj = (0.0874641), mov = 2452504, inf = 99%, acc = 0.6%, imp = 556

worst case efficiency: 0.652478
[79 sec, 2490171 itr]: obj = (0.0874867), mov = 2490171, inf = 99%, acc = 0.6%, imp = 558

worst case efficiency: 0.652492
[80 sec, 2528056 itr]: obj = (0.0876859), mov = 2528056, inf = 99%, acc = 0.6%, imp = 567

worst case efficiency: 0.652612
[81 sec, 2566107 itr]: obj = (0.0877654), mov = 2566107, inf = 99%, acc = 0.6%, imp = 574

worst case efficiency: 0.652659
[82 sec, 2604110 itr]: obj = (0.0877654), mov = 2604110, inf = 99%, acc = 0.6%, imp = 574

worst case efficiency: 0.652659
[83 sec, 2641865 itr]: obj = (0.0877941), mov = 2641865, inf = 99%, acc = 0.6%, imp = 577

worst case efficiency: 0.652676
[84 sec, 2680488 itr]: obj = (0.0878236), mov = 2680488, inf = 99%, acc = 0.6%, imp = 581

worst case efficiency: 0.652694
[85 sec, 2718096 itr]: obj = (0.0878236), mov = 2718096, inf = 99%, acc = 0.6%, imp = 581

worst case efficiency: 0.652694
[86 sec, 2756095 itr]: obj = (0.0878236), mov = 2756095, inf = 99%, acc = 0.6%, imp = 582

worst case efficiency: 0.652694
[87 sec, 2793926 itr]: obj = (0.0878236), mov = 2793926, inf = 99%, acc = 0.6%, imp = 582

worst case efficiency: 0.652694
[88 sec, 2831914 itr]: obj = (0.0878236), mov = 2831914, inf = 99%, acc = 0.6%, imp = 582

worst case efficiency: 0.652694
[89 sec, 2869729 itr]: obj = (0.0878236), mov = 2869729, inf = 99%, acc = 0.6%, imp = 582

worst case efficiency: 0.652694
[90 sec, 2907665 itr]: obj = (0.0878236), mov = 2907665, inf = 99%, acc = 0.6%, imp = 582

worst case efficiency: 0.652694
[90 sec, 2907665 itr]: obj = (0.0878236), mov = 2907665, inf = 99%, acc = 0.6%, imp = 582

worst case efficiency: 0.652694
2907665 iterations, 2907665 moves performed in 90 seconds
Feasible solution: obj = (0.0878236)

Run output...
FINAL SOLUTION
Worst case efficiency: 0.652694
Mapping: 0->20, 1->16, 2->10, 3->24, 4->16, 5->8, 6->21, 7->11, 8->36, 9->30, 10->34, 11->3, 12->46, 13->34, 14->41, 15->12, 16->29, 17->46, 18->27, 19->44, 20->12, 21->23, 22->24, 23->19, 24->46, 25->2, 26->14, 27->12, 28->26, 29->21, 30->35, 31->10, 32->1, 33->45, 34->40, 35->14, 36->11, 37->8, 38->35, 39->15, 40->5, 41->2, 42->5, 43->35, 44->26, 45->19, 46->2, 47->27, 48->4, 49->9, 50->14, 51->33, 52->25, 53->16, 54->25, 55->10, 56->44, 57->28, 58->41, 59->45, 60->25, 61->45, 62->11, 63->37, 64->1, 65->6, 66->40, 67->39, 68->6, 69->31, 70->12, 71->33, 72->27, 73->7, 74->32, 75->2, 76->18, 77->1, 78->28, 79->10, 80->13, 81->47, 82->33, 83->22, 84->37, 85->37, 86->36, 87->5, 88->25, 89->3, 90->29, 91->29, 92->16, 93->20, 94->17, 95->4, 96->19, 97->42, 98->37, 99->22, 100->34, 101->31, 102->22, 103->10, 104->43, 105->29, 106->8, 107->15, 108->43, 109->3, 110->31, 111->6, 112->27, 113->9, 114->20, 115->30, 116->11, 117->25, 118->1, 119->44, 120->32, 121->35, 122->29, 123->47, 124->9, 125->34, 126->40, 127->17, 128->17, 129->40, 130->24, 131->47, 132->33, 133->16, 134->33, 135->14, 136->26, 137->27, 138->42, 139->39, 140->23, 141->44, 142->45, 143->21, 144->35, 145->39, 146->15, 147->9, 148->40, 149->5, 150->23, 151->32, 152->20, 153->31, 154->42, 155->43, 156->23, 157->33, 158->13, 159->1, 160->22, 161->22, 162->10, 163->18, 164->30, 165->28, 166->41, 167->3, 168->0, 169->38, 170->34, 171->4, 172->32, 173->43, 174->46, 175->19, 176->0, 177->32, 178->17, 179->36, 180->24, 181->30, 182->18, 183->38, 184->17, 185->44, 186->36, 187->23, 188->9, 189->46, 190->39, 191->31, 192->13, 193->12, 194->23, 195->14, 196->9, 197->30, 198->18, 199->3, 200->6, 201->20, 202->13, 203->30, 204->8, 205->25, 206->47, 207->26, 208->43, 209->36, 210->37, 211->22, 212->45, 213->0, 214->11, 215->42, 216->14, 217->42, 218->20, 219->47, 220->41, 221->21, 222->24, 223->39, 224->8, 225->42, 226->34, 227->38, 228->38, 229->7, 230->12, 231->39, 232->15, 233->2, 234->47, 235->19, 236->35, 237->21, 238->46, 239->28, 240->21, 241->0, 242->0, 243->26, 244->19, 245->7, 246->27, 247->1, 248->45, 249->7, 250->37, 251->29, 252->32, 253->0, 254->13, 255->41, 256->13, 257->43, 258->18, 259->4, 260->17, 261->7, 262->4, 263->7, 264->28, 265->15, 266->40, 267->11, 268->28, 269->4, 270->44, 271->6, 272->36, 273->18, 274->26, 275->24, 276->41, 277->16, 278->5, 279->6, 280->8, 281->2, 282->38, 283->38, 284->15, 285->31, 286->5, 287->3
Number of tasks per core:
	6	6	6	6	6	6
	6	6	6	6	6	6
	6	6	6	6	6	6
	6	6	6	6	6	6
	6	6	6	6	6	6
	6	6	6	6	6	6
	6	6	6	6	6	6
	6	6	6	6	6	6
Average CPI map:
	0.730158	1.13807	0.971304	1.73949	1.6595	1.33124
	1.3879	2.07336	2.35249	2.033	1.88991	1.44757
	1.4744	2.79494	3.95989	2.18	2.72266	1.81431
	1.37111	2.52411	2.91159	2.37971	2.13446	1.63185
	2.25451	2.19766	4.5385	5.28857	2.64436	1.25463
	1.663	2.97548	3.86581	5.8856	2.30811	1.0252
	1.06819	3.24285	3.16364	2.12311	1.92114	1.95172
	1.18623	0.946417	1.754	1.84737	1.20782	1.03307
Efficiency map:
	0.99673	0.927691	0.840582	0.917444	0.928631	0.995973
	0.798743	0.658741	0.669221	0.65627	0.652713	0.820155
	0.812828	0.652699	0.693358	0.662234	0.655991	0.818133
	0.803006	0.652707	0.66503	0.654237	0.652708	0.810947
	0.830939	0.652954	0.692916	0.710453	0.656552	0.742054
	0.791004	0.66055	0.652694	0.766488	0.657775	0.78166
	0.871815	0.680201	0.676388	0.654291	0.654943	0.814282
	0.811397	0.658398	0.654004	0.658486	0.659296	0.797862
==============================================================================
Local Solver optimizer for EML demonstration
==============================================================================

Option values: --wld-idx 13 --global-tlim 90 --seed 701

Starting the Optimization Process
