==============================================================================
MINLP optimizer for the TAWD problem, using a simplified linear model
==============================================================================

Option values: --wld-idx 5 --global-tlim 3600

Starting the Optimization Process
Found incumbent of value 0.000000 after 0.00 sec. (1.05 ticks)
Tried aggregator 1 time.
MIP Presolve modified 13824 coefficients.
Reduced MIP has 384 rows, 13825 columns, and 40512 nonzeros.
Reduced MIP has 13824 binaries, 0 generals, 0 SOSs, and 0 indicators.
Presolve time = 0.04 sec. (21.82 ticks)
Tried aggregator 1 time.
Reduced MIP has 384 rows, 13825 columns, and 40512 nonzeros.
Reduced MIP has 13824 binaries, 0 generals, 0 SOSs, and 0 indicators.
Presolve time = 0.02 sec. (14.73 ticks)
Probing fixed 0 vars, tightened 4 bounds.
Probing time = 0.03 sec. (19.64 ticks)
Clique table members: 288.
MIP emphasis: balance optimality and feasibility.
MIP search method: dynamic search.
Parallel mode: deterministic, using up to 2 threads.
Root relaxation solution time = 0.85 sec. (845.73 ticks)

        Nodes                                         Cuts/
   Node  Left     Objective  IInf  Best Integer    Best Bound    ItCnt     Gap

*     0+    0                            0.0000      120.5000     2884     --- 
*     0+    0                            2.0000      120.5000     2884     --- 
      0     0        3.0000   162        2.0000        3.0000     2884   50.00%
*     0+    0                            2.4105        3.0000     2934   24.45%
      0     0        3.0000   156        2.4105      Cuts: 25     2934   24.45%
      0     0        3.0000   163        2.4105      Cuts: 41     3036   24.45%
      0     0        3.0000   153        2.4105       Cuts: 5     3065   24.45%
      0     0        3.0000   160        2.4105      Cuts: 32     3117   24.45%
*     0+    0                            2.4201        3.0000     3117   23.96%
*     0+    0                            2.4266        3.0000     3117   23.63%
      0     2        3.0000   149        2.4266        3.0000     3172   23.63%
Elapsed time = 8.79 sec. (6485.35 ticks, tree = 0.01 MB, solutions = 4)
      9    11        2.8982   152        2.4266        2.9665     4334   22.25%
     11    13        2.8892   163        2.4266        2.9665     5337   22.25%
     18    20        2.8639   148        2.4266        2.9665     7295   22.25%
     31    33        2.8136   143        2.4266        2.9665     9265   22.25%
     42    44        2.7548   129        2.4266        2.9665    11147   22.25%
     43    45        2.8113   141        2.4266        2.9665    11879   22.25%
     56    58        2.8485   131        2.4266        2.9665    14281   22.25%
     64    66        2.8003   128        2.4266        2.9665    17715   22.25%
    118   120        2.7528   117        2.4266        2.9665    19752   22.25%
*   159+  159                            2.4786        2.9665    21525   19.69%
*   250+  250                            2.5001        2.9665    24407   18.65%
*   250+  250                            2.5029        2.9665    24407   18.52%
    305   307        2.6975    96        2.5029        2.9665    25282   18.52%
Elapsed time = 13.44 sec. (10598.57 ticks, tree = 2.69 MB, solutions = 6)
*   457+  457                            2.5462        2.9665    27444   16.51%
*   549+  549                            2.6036        2.9665    28905   13.94%
*   555   542      integral     0        2.6434        2.9665    28967   12.22%
    665   652        2.7687   118        2.6434        2.9639    35631   12.12%
*   680+  665                            2.6505        2.9639    36400   11.82%
*   705+  688                            2.6635        2.9639    36795   11.28%
*   705+  688                            2.6683        2.9639    36795   11.08%
*   705+  688                            2.6727        2.9639    36795   10.90%
*   787+  429                            2.6835        2.9639    41972   10.45%
    787   430        3.0000   145        2.6835        2.9639    41972   10.45%
    797   436        2.8909   141        2.6835        2.9339    42751    9.33%
    808   443        2.8639   145        2.6835        2.9339    44270    9.33%
    823   453        2.8503   126        2.6835        2.9339    47006    9.33%
    840   461        2.7979   122        2.6835        2.9339    50003    9.33%
    861   460        2.7904    96        2.6835        2.9339    52365    9.33%
    894   445        2.8834   144        2.6835        2.9339    53621    9.33%
    928   462        2.8534   126        2.6835        2.9339    55274    9.33%
Elapsed time = 39.03 sec. (32166.15 ticks, tree = 4.23 MB, solutions = 16)
    973   487        2.8411   133        2.6835        2.9339    57741    9.33%
   1010   510        2.8196   112        2.6835        2.9339    60547    9.33%
*  1013+  410                            2.7522        2.9339    60613    6.60%
   1047   424        2.8314   105        2.7522        2.9339    63546    6.60%
*  1075+  377                            2.7547        2.9339    65091    6.51%
*  1075+  338                            2.7567        2.9339    65091    6.43%
*  1075+  313                            2.7598        2.9339    65091    6.31%
   1095   314        2.7882    83        2.7598        2.9339    65891    6.31%
*  1229+  384                            2.7626        2.9339    68288    6.20%
   1232   389        2.8293   101        2.7626        2.9339    68413    6.20%
*  1299+  443                            2.7627        2.9339    70146    6.19%
*  1340   479      integral     0        2.7651        2.9339    71017    6.11%
*  1367   498      integral     0        2.7692        2.9339    71214    5.95%
*  1371   498      integral     0        2.7720        2.9339    71252    5.84%
   1416   533        2.8333   132        2.7720        2.9339    73027    5.84%
   1459   576        2.8598   137        2.7720        2.9339    75211    5.84%
Elapsed time = 48.84 sec. (40146.90 ticks, tree = 5.23 MB, solutions = 25)
*  1530+  643                            2.7822        2.9339    77565    5.45%
   1533   528        2.8391   133        2.7822        2.9339    78438    5.45%
*  1588+  579                            2.7825        2.9339    79901    5.44%
   1616   603        2.8455   130        2.7825        2.9339    82001    5.44%
   1728   689        2.7934   108        2.7825        2.9339    86539    5.44%
*  1740+  693                            2.7854        2.9339    87060    5.33%
*  1776+  717                            2.7943        2.9339    88091    5.00%
   1808   525        2.8372   149        2.7943        2.9313    88828    4.90%
   1828   545        2.8102   140        2.7943        2.9313    91077    4.90%
   1856   557        2.8892   150        2.7943        2.9313    95189    4.90%
   1881   582        2.8014   121        2.7943        2.9232    98229    4.61%
   1907   592        2.8685   145        2.7943        2.9232   102017    4.61%
   1931   616        2.8733   136        2.7943        2.9232   104626    4.61%
   1944   627        2.8482   139        2.7943        2.9232   109141    4.61%
Elapsed time = 61.87 sec. (50770.78 ticks, tree = 5.61 MB, solutions = 29)
   1967   644        2.8102   131        2.7943        2.9232   113754    4.61%
   1990   653        2.8057   132        2.7943        2.9232   118674    4.61%
*  1994+  653                            2.8019        2.9232   119039    4.33%
*  1994+  653                            2.8023        2.9232   119039    4.31%
*  1994+  653                            2.8060        2.9232   119039    4.17%
*  1994+  653                            2.8117        2.9232   119039    3.96%
*  1994+  653                            2.8120        2.9232   119039    3.95%
*  1994+  653                            2.8133        2.9232   119039    3.90%
*  1994+  653                            2.8150        2.9232   119039    3.84%
   2017   540        2.8392   140        2.8150        2.9232   123509    3.84%
   2052   559        2.8609   134        2.8150        2.9232   128222    3.84%
   2080   569        2.9023   147        2.8150        2.9193   133914    3.70%
   2102   583        2.8159   134        2.8150        2.9193   139646    3.70%
   2122   597        2.8667   134        2.8150        2.9193   144428    3.70%
   2166   613        2.8355   139        2.8150        2.9193   149672    3.70%
   2188   627        2.8415   139        2.8150        2.9193   155933    3.70%
   2216   639        2.8359   132        2.8150        2.9193   161966    3.70%
Elapsed time = 74.27 sec. (60922.73 ticks, tree = 5.65 MB, solutions = 36)
   2247   652        2.8617   154        2.8150        2.9193   166578    3.70%
   2287   676        2.8504   120        2.8150        2.9123   172750    3.46%
   2323   692        2.9123   142        2.8150        2.9123   179159    3.46%
*  2345+  710                            2.8150        2.9123   184687    3.46%
   2348   715        2.8240   125        2.8150        2.9123   185774    3.46%
   2509   827        2.8188   114        2.8150        2.9123   190816    3.46%
   3036   867        2.8734   148        2.8150        2.9123   193745    3.46%
   3331   915        2.8152   131        2.8150        2.9123   198927    3.46%
   3798   988        2.9078   135        2.8150        2.9123   205996    3.46%
   3846  1000        cutoff              2.8150        2.9123   213446    3.46%
   3885  1025        2.8509   143        2.8150        2.9123   220382    3.46%
Elapsed time = 86.88 sec. (71013.69 ticks, tree = 9.03 MB, solutions = 36)
   3923  1053        2.8185   131        2.8150        2.9123   227459    3.46%
   3965  1075        2.8399   131        2.8150        2.9123   235095    3.46%
   4001  1103        2.8204   119        2.8150        2.9123   241407    3.46%
   4072  1145        2.8444   133        2.8150        2.9123   248223    3.46%
   4196  1208        2.8200   133        2.8150        2.9123   255471    3.46%
   4289  1240        2.8347   135        2.8150        2.9123   264205    3.46%
   4350  1267        cutoff              2.8150        2.9105   273256    3.39%
   4407  1304        2.8673   128        2.8150        2.9073   279791    3.28%
   4586  1338        2.8482   141        2.8150        2.9071   286207    3.27%
   4687  1361        2.8534   119        2.8150        2.9071   297530    3.27%
Elapsed time = 99.43 sec. (81044.75 ticks, tree = 12.16 MB, solutions = 36)
   4736  1394        2.8185   132        2.8150        2.9071   303992    3.27%
   4874  1449        2.8165   132        2.8150        2.9015   309722    3.07%
   5474  1533        2.8355   134        2.8150        2.9000   314555    3.02%
   5575  1574        2.8356   128        2.8150        2.8955   324559    2.86%
   5650  1611        2.8328   126        2.8150        2.8955   332457    2.86%
   5700  1645        2.8185   141        2.8150        2.8955   336584    2.86%
   6127  1752        2.8823   144        2.8150        2.8952   342257    2.85%
   6200  1785        2.8211   135        2.8150        2.8952   353144    2.85%
   6247  1810        2.8432   123        2.8150        2.8952   362132    2.85%
   6284  1823        cutoff              2.8150        2.8952   371663    2.85%
Elapsed time = 112.11 sec. (91111.72 ticks, tree = 16.24 MB, solutions = 36)
   6300  1839        2.8874   133        2.8150        2.8952   375956    2.85%
   6450  1937        2.8441   118        2.8150        2.8952   386405    2.85%
   6501  1970        2.8561   133        2.8150        2.8952   393286    2.85%
   6997  2265        cutoff              2.8150        2.8941   398373    2.81%
   7557  2408        cutoff              2.8150        2.8918   403249    2.73%
   7642  2469        2.8462   138        2.8150        2.8918   411577    2.73%
   7812  2607        2.8314   121        2.8150        2.8918   419700    2.73%
   8082  2743        2.8270   137        2.8150        2.8909   427268    2.70%
   8132  2777        2.8512   119        2.8150        2.8909   431800    2.70%
   8473  2994        2.8362   146        2.8150        2.8909   441617    2.70%
Elapsed time = 125.09 sec. (101164.15 ticks, tree = 27.13 MB, solutions = 36)
   8513  3024        2.8377   153        2.8150        2.8909   446032    2.70%
   8674  3103        cutoff              2.8150        2.8892   458460    2.63%
   8724  3133        2.8218   144        2.8150        2.8892   466279    2.63%
   8778  3155        2.8196   147        2.8150        2.8892   474367    2.63%
   8843  3198        2.8182   147        2.8150        2.8892   482931    2.63%
   8930  3253        2.8547   139        2.8150        2.8879   487809    2.59%
   9368  3459        2.8520   138        2.8150        2.8862   499044    2.53%
   9409  3496        2.8683   142        2.8150        2.8862   505721    2.53%
   9692  3653        cutoff              2.8150        2.8862   516835    2.53%
* 10257+ 3837                            2.8152        2.8855   538285    2.50%
  10257  3836        2.8151    96        2.8152        2.8855   538285    2.50%
Elapsed time = 143.45 sec. (115515.63 ticks, tree = 35.09 MB, solutions = 37)
* 10468+ 3792                            2.8152        2.8816   572366    2.36%
  10486  3804        2.8509   140        2.8152        2.8816   574473    2.36%
  11244  4199        2.8172   132        2.8152        2.8815   603626    2.36%
  11379  4254        2.8636   141        2.8152        2.8815   620916    2.36%
  12340  4618        2.8383   141        2.8152        2.8815   650906    2.36%
  12984  4954        2.8155    98        2.8152        2.8787   665972    2.26%
  13679  5264        2.8375   146        2.8152        2.8760   686463    2.16%
  14464  5618        cutoff              2.8152        2.8760   714394    2.16%
  15140  6050        2.8417   136        2.8152        2.8760   738129    2.16%
  15729  6426        2.8178   114        2.8152        2.8760   765696    2.16%
* 16691+ 7073                            2.8162        2.8760   785855    2.12%
* 16691+ 7073                            2.8166        2.8760   785855    2.11%
  16691  7073    infeasible              2.8166        2.8760   785855    2.11%
Elapsed time = 243.50 sec. (188149.74 ticks, tree = 68.42 MB, solutions = 39)
* 16692+ 7072                            2.8175        2.8760   785855    2.08%
  17460  5496        2.8176   109        2.8175        2.8760   806874    2.08%
  18785  6220        2.8224   118        2.8175        2.8760   837460    2.08%
  20804  6981        2.8434   125        2.8175        2.8760   860504    2.08%
  21994  7808        2.8381   124        2.8175        2.8760   882721    2.08%
  23486  9010        2.8760   142        2.8175        2.8760   909538    2.08%
  24184  9310        2.8760   142        2.8175        2.8760   933603    2.08%
  25491 10413        2.8185    96        2.8175        2.8760   957759    2.08%
  27038 11501        2.8452   137        2.8175        2.8760   979464    2.08%
  27984 12271        2.8417   142        2.8175        2.8760  1010131    2.08%
  29197 13252        2.8202   113        2.8175        2.8760  1035783    2.08%
Elapsed time = 292.44 sec. (226733.10 ticks, tree = 126.34 MB, solutions = 44)
  30897 14349        2.8195   108        2.8175        2.8760  1059249    2.08%
  32281 15457        2.8276   113        2.8175        2.8760  1081917    2.08%
  33562 16593        2.8254   131        2.8175        2.8760  1107629    2.08%
  34896 17693        2.8214   102        2.8175        2.8760  1131684    2.08%
  36032 18491        2.8389   127        2.8175        2.8760  1155356    2.08%
  36136 18577        2.8271   106        2.8175        2.8760  1156566    2.08%
  37616 19822        2.8333   133        2.8175        2.8760  1180909    2.08%
  39924 21558        2.8760   134        2.8175        2.8760  1207920    2.08%
  41477 22766        2.8270   116        2.8175        2.8760  1235844    2.08%
  43132 24007        2.8272   123        2.8175        2.8760  1262562    2.08%
Elapsed time = 340.46 sec. (266194.71 ticks, tree = 231.37 MB, solutions = 44)
  44687 25275        2.8437   144        2.8175        2.8760  1286259    2.08%
  46551 26650        cutoff              2.8175        2.8760  1311801    2.08%
  47887 27788        2.8175   101        2.8175        2.8760  1334948    2.08%
  49347 29092        2.8760   143        2.8175        2.8760  1357137    2.08%
  50164 29779        2.8307   116        2.8175        2.8760  1384791    2.08%
  51988 31442        2.8265   112        2.8175        2.8760  1407548    2.08%
  53528 32816        2.8298   103        2.8175        2.8760  1429569    2.08%
  55555 34643        2.8378   127        2.8175        2.8760  1451314    2.08%
  57332 36256        2.8300   110        2.8175        2.8760  1474255    2.08%
* 58202+36980                            2.8175        2.8760  1479444    2.08%
  59561 37717        2.8307   116        2.8175        2.8760  1495424    2.08%
Elapsed time = 388.27 sec. (304994.53 ticks, tree = 364.84 MB, solutions = 44)
  59933 38079        2.8231   101        2.8175        2.8760  1499664    2.08%
  61541 39418        2.8179   133        2.8175        2.8760  1522258    2.08%
  62932 40623        2.8432   125        2.8175        2.8760  1546275    2.08%
  64859 42182        2.8389   151        2.8175        2.8760  1566226    2.08%
  66987 44045        2.8215   127        2.8175        2.8760  1586145    2.08%
  68847 45480        2.8232    99        2.8175        2.8760  1609279    2.08%
  70447 46777        2.8271   106        2.8175        2.8760  1627412    2.08%
  71656 47894        2.8243   108        2.8175        2.8760  1641589    2.08%
  73783 49756        2.8189   125        2.8175        2.8760  1662067    2.08%
  75609 51289        2.8223   113        2.8175        2.8760  1684692    2.08%
Elapsed time = 443.75 sec. (348851.05 ticks, tree = 497.55 MB, solutions = 44)
  77224 52635        2.8243   101        2.8175        2.8760  1707072    2.08%
  78608 53676        2.8444   134        2.8175        2.8760  1729182    2.08%
  80733 55646        2.8451   138        2.8175        2.8760  1755738    2.08%
  82385 56947        2.8257   110        2.8175        2.8760  1774722    2.08%
  84098 58370        2.8301   115        2.8175        2.8760  1800741    2.08%
  86308 60268        2.8417   120        2.8175        2.8760  1820702    2.08%
  88406 62265        2.8290   116        2.8175        2.8760  1842591    2.08%
  91028 64704        2.8737   141        2.8175        2.8760  1866043    2.08%
  93069 66531        2.8222   102        2.8175        2.8760  1893145    2.08%
  94341 67457        2.8319   145        2.8175        2.8760  1901881    2.08%
Elapsed time = 496.93 sec. (389770.85 ticks, tree = 656.44 MB, solutions = 44)
  96550 69442        2.8306   134        2.8175        2.8760  1928145    2.08%
  98473 71184        2.8220   109        2.8175        2.8760  1954692    2.08%
 100024 72600        cutoff              2.8175        2.8760  1982108    2.08%
 102035 74372        2.8232   121        2.8175        2.8760  2008187    2.08%
 103611 75869        2.8251   124        2.8175        2.8760  2037418    2.08%
 104962 77031        2.8179   114        2.8175        2.8760  2067614    2.08%
 106853 78739        2.8175    85        2.8175        2.8760  2090302    2.08%
 108633 80356        2.8423   139        2.8175        2.8760  2112414    2.08%
 110528 82137        2.8432   133        2.8175        2.8760  2132371    2.08%
 112174 83564        2.8286   120        2.8175        2.8760  2155785    2.08%
Elapsed time = 544.71 sec. (428112.44 ticks, tree = 812.32 MB, solutions = 44)
 113915 85088        2.8249   113        2.8175        2.8760  2177657    2.08%
 115209 86250        2.8345   124        2.8175        2.8760  2201231    2.08%
 117110 87732        2.8187    94        2.8175        2.8760  2225289    2.08%
 118551 89109        2.8384   147        2.8175        2.8760  2250738    2.08%
 119524 89980        2.8453   150        2.8175        2.8760  2274209    2.08%
 121068 91419        2.8410   128        2.8175        2.8760  2298364    2.08%
 122975 93203        2.8306   111        2.8175        2.8760  2320575    2.08%
 123000 93228        2.8191   112        2.8175        2.8760  2320685    2.08%
 124768 94856        2.8423   139        2.8175        2.8760  2343016    2.08%
 126771 96620        2.8415   139        2.8175        2.8760  2364857    2.08%
Elapsed time = 594.24 sec. (469037.30 ticks, tree = 937.04 MB, solutions = 44)
 128917 98640        2.8759   145        2.8175        2.8760  2387643    2.08%
 130351 99512        2.8468   148        2.8175        2.8760  2413365    2.08%
 131924 100971        2.8280   117        2.8175        2.8760  2439440    2.08%
 133100 102056        2.8265   119        2.8175        2.8760  2467370    2.08%
 134224 103112        2.8193   121        2.8175        2.8760  2495621    2.08%
 135838 104635        cutoff              2.8175        2.8760  2518849    2.08%
 137131 105868        2.8286   144        2.8175        2.8760  2543236    2.08%
 138441 107096        2.8332   123        2.8175        2.8760  2568440    2.08%
 140070 108556        2.8273   124        2.8175        2.8760  2595659    2.08%
 141226 109618        2.8303   121        2.8175        2.8760  2626349    2.08%
Elapsed time = 643.06 sec. (507578.05 ticks, tree = 1064.71 MB, solutions = 44)
 142945 111251        2.8265   107        2.8175        2.8760  2652411    2.08%
 144820 112998        2.8223   113        2.8175        2.8760  2678005    2.08%
 146947 115049        2.8261   133        2.8175        2.8760  2703596    2.08%
 148860 116900        2.8180   137        2.8175        2.8760  2730328    2.08%
 150646 118454        2.8288   141        2.8175        2.8760  2756862    2.08%
 152778 120334        2.8331   135        2.8175        2.8760  2782992    2.08%
 154637 122008        2.8337   104        2.8175        2.8760  2807570    2.08%
 156770 124029        2.8288   120        2.8175        2.8760  2833211    2.08%
 158539 125721        cutoff              2.8175        2.8760  2853565    2.08%
 160162 127242        2.8361   143        2.8175        2.8760  2879555    2.08%
Elapsed time = 691.61 sec. (546061.93 ticks, tree = 1235.13 MB, solutions = 44)
 161652 128561        2.8423   117        2.8175        2.8760  2905736    2.08%
 163248 130021        2.8319    89        2.8175        2.8760  2932046    2.08%
 164400 131055        2.8308   131        2.8175        2.8760  2960034    2.08%
 165747 132285        2.8458   139        2.8175        2.8760  2985389    2.08%
 165830 132361        2.8209   105        2.8175        2.8760  2987030    2.08%
 167611 133958        2.8204   102        2.8175        2.8760  3015492    2.08%
 169402 135644        2.8427   157        2.8175        2.8760  3042954    2.08%
 170771 136935        2.8294   116        2.8175        2.8760  3071138    2.08%
*171159+137312                            2.8176        2.8760  3077374    2.07%
 172101 135767        2.8448   135        2.8176        2.8760  3098537    2.07%
*172473+136090                            2.8176        2.8760  3102835    2.07%
 173885 137350        2.8189   110        2.8176        2.8760  3124080    2.07%
Elapsed time = 744.90 sec. (587099.74 ticks, tree = 1332.88 MB, solutions = 45)
 175501 138728        2.8221   112        2.8176        2.8760  3148596    2.07%
 176632 139778        2.8231    98        2.8176        2.8760  3174714    2.07%
 178104 141156        2.8338   140        2.8176        2.8760  3199833    2.07%
 179621 142551        2.8318   120        2.8176        2.8760  3223289    2.07%
 181753 144552        2.8294   143        2.8176        2.8760  3241833    2.07%
 183993 146550        2.8178   127        2.8176        2.8760  3262367    2.07%
 185941 148244        2.8246   106        2.8176        2.8760  3283373    2.07%
 187800 149913        2.8760   143        2.8176        2.8760  3306197    2.07%
 189636 151565        2.8191   123        2.8176        2.8760  3327273    2.07%
 191155 152999        2.8279   126        2.8176        2.8760  3350625    2.07%
Elapsed time = 795.63 sec. (625651.11 ticks, tree = 1485.80 MB, solutions = 45)
 192604 154280        2.8356   115        2.8176        2.8760  3372418    2.07%
 193765 155317        2.8365   122        2.8176        2.8760  3398218    2.07%
 193818 155368        2.8350   135        2.8176        2.8760  3398801    2.07%
 195483 156958        2.8343   129        2.8176        2.8760  3423587    2.07%
 196998 158387        2.8353   126        2.8176        2.8760  3448923    2.07%
 198287 159574        2.8191   109        2.8176        2.8760  3472873    2.07%
 198894 160145        2.8210    91        2.8176        2.8760  3483671    2.07%
 200328 161497        2.8252   126        2.8176        2.8760  3505289    2.07%
 201857 162804        2.8329   132        2.8176        2.8760  3528393    2.07%
 203361 164286        2.8321   142        2.8176        2.8760  3550234    2.07%
Elapsed time = 850.53 sec. (667676.38 ticks, tree = 1594.82 MB, solutions = 45)
 204677 165519        cutoff              2.8176        2.8760  3574116    2.07%
 206362 167057        2.8316   126        2.8176        2.8760  3595701    2.07%
 207648 168253        2.8306   123        2.8176        2.8760  3617052    2.07%
 209448 169880        2.8261   114        2.8176        2.8760  3639092    2.07%
 210604 170969        2.8350   122        2.8176        2.8760  3663464    2.07%
 212028 172317        2.8207   106        2.8176        2.8760  3689057    2.07%
 213490 173658        2.8347   129        2.8176        2.8760  3712972    2.07%
 215040 175105        2.8389   123        2.8176        2.8760  3738554    2.07%
 216925 176885        2.8309   132        2.8176        2.8760  3763653    2.07%
 218403 178299        2.8309   131        2.8176        2.8760  3787872    2.07%
Elapsed time = 902.11 sec. (706642.54 ticks, tree = 1729.49 MB, solutions = 45)
 219912 179720        2.8353   122        2.8176        2.8760  3814981    2.07%
 221504 181238        2.8305   119        2.8176        2.8760  3841164    2.07%
 223380 182976        2.8728   134        2.8176        2.8760  3868116    2.07%
 224991 184513        2.8486   108        2.8176        2.8760  3894553    2.07%
 226223 185625        2.8193   107        2.8176        2.8760  3922574    2.07%
 227756 187096        2.8269   150        2.8176        2.8760  3947419    2.07%
 229268 188505        2.8218   143        2.8176        2.8760  3976272    2.07%
 230768 189902        2.8758   137        2.8176        2.8760  4001972    2.07%
 231268 190389        2.8213   126        2.8176        2.8760  4009109    2.07%
 232986 192056        2.8337   115        2.8176        2.8760  4035996    2.07%
Elapsed time = 959.93 sec. (749183.29 ticks, tree = 1865.49 MB, solutions = 45)
 234419 193366        2.8301   131        2.8176        2.8760  4064140    2.07%
*235782+194660                            2.8178        2.8760  4085050    2.07%
 236044 185309        2.8230   110        2.8178        2.8760  4090988    2.07%
 237497 186649        2.8371   132        2.8178        2.8760  4118661    2.07%
 239007 188058        2.8408   143        2.8178        2.8760  4144776    2.07%
*239798+188817                            2.8179        2.8760  4155959    2.06%
 240453 186399        2.8760   138        2.8179        2.8760  4171652    2.06%
 241757 187640        2.8262   103        2.8179        2.8760  4192571    2.06%
 243450 189228        2.8310   122        2.8179        2.8760  4216618    2.06%
 244911 190578        2.8332   135        2.8179        2.8760  4243519    2.06%
 246238 191822        2.8230   133        2.8179        2.8760  4269525    2.06%
 248092 193617        2.8192   122        2.8179        2.8760  4291878    2.06%
Elapsed time = 1011.10 sec. (787768.52 ticks, tree = 1878.23 MB, solutions = 47)
 249585 195012        2.8332   132        2.8179        2.8760  4318004    2.06%
 251381 196707        2.8222   114        2.8179        2.8760  4341916    2.06%
 252940 198135        2.8294   146        2.8179        2.8760  4366639    2.06%
 254632 199736        2.8494   135        2.8179        2.8760  4391522    2.06%
 256260 201313        2.8226    92        2.8179        2.8760  4418901    2.06%
 257920 202861        2.8293   124        2.8179        2.8760  4445112    2.06%
 259117 203932        2.8228   130        2.8179        2.8760  4472410    2.06%
 260495 205237        2.8309   135        2.8179        2.8760  4495775    2.06%
 262267 206939        2.8254    91        2.8179        2.8760  4517441    2.06%
 263645 208249        2.8271   116        2.8179        2.8760  4540787    2.06%
Elapsed time = 1061.53 sec. (826197.87 ticks, tree = 2020.37 MB, solutions = 47)
 265116 209607        2.8264   117        2.8179        2.8760  4564588    2.06%
 266173 210550        2.8220   129        2.8179        2.8760  4590512    2.06%
 267555 211705        2.8181   119        2.8179        2.8760  4616966    2.06%
 268868 212836        2.8228   113        2.8179        2.8760  4643104    2.06%
 270470 214290        2.8335   131        2.8179        2.8760  4663815    2.06%
 272091 215825        2.8294   139        2.8179        2.8760  4685372    2.06%
 272991 216641        2.8184    99        2.8179        2.8760  4700397    2.06%
 274234 217860        2.8349   131        2.8179        2.8760  4718914    2.06%
 275762 219250        2.8760   142        2.8179        2.8760  4739147    2.06%
 276883 220316        2.8330   127        2.8179        2.8760  4763318    2.06%
Elapsed time = 1123.60 sec. (869325.40 ticks, tree = 2136.97 MB, solutions = 47)
Nodefile size = 87.48 MB (27.44 MB after compression)
 278227 221502        2.8233   117        2.8179        2.8760  4785466    2.06%
 279793 222828        2.8345   147        2.8179        2.8760  4807356    2.06%
 281183 224004        2.8228   126        2.8179        2.8760  4829228    2.06%
 282490 225243        2.8318   118        2.8179        2.8760  4853184    2.06%
 283594 226253        2.8392   130        2.8179        2.8760  4875432    2.06%
 284849 227434        2.8243   100        2.8179        2.8760  4896896    2.06%
 286160 228636        2.8223   101        2.8179        2.8760  4919264    2.06%
 287425 229791        2.8760   138        2.8179        2.8760  4940521    2.06%
 288545 230803        2.8386   122        2.8179        2.8760  4961014    2.06%
 289947 231948        2.8423   140        2.8179        2.8760  4983687    2.06%
Elapsed time = 1179.59 sec. (907883.47 ticks, tree = 2248.42 MB, solutions = 47)
Nodefile size = 198.93 MB (62.47 MB after compression)
 291218 233168        2.8385   138        2.8179        2.8760  5006595    2.06%
 292612 234382        2.8246   146        2.8179        2.8760  5030049    2.06%
 294001 235615        2.8327   125        2.8179        2.8760  5053486    2.06%
 295469 236947        2.8378   121        2.8179        2.8760  5074111    2.06%
 296853 238246        cutoff              2.8179        2.8760  5098862    2.06%
 298432 239781        2.8339   133        2.8179        2.8760  5123071    2.06%
 299905 241144        2.8452   122        2.8179        2.8760  5146575    2.06%
 301286 242485        2.8180   102        2.8179        2.8760  5168276    2.06%
 302669 243823        2.8760   144        2.8179        2.8760  5191266    2.06%
*303603+244699                            2.8182        2.8760  5210980    2.05%
 303603 244701        2.8230   114        2.8182        2.8760  5210980    2.05%
Elapsed time = 1242.90 sec. (950094.74 ticks, tree = 2371.47 MB, solutions = 48)
Nodefile size = 321.28 MB (101.84 MB after compression)
*303990+236069                            2.8182        2.8760  5214735    2.05%
 305025 237088        2.8432   126        2.8182        2.8760  5232895    2.05%
 306399 238257        2.8448   126        2.8182        2.8760  5256006    2.05%
 307548 239283        cutoff              2.8182        2.8760  5276879    2.05%
 308532 240176        2.8300   115        2.8182        2.8760  5293524    2.05%
 309638 241235        2.8320   108        2.8182        2.8760  5311368    2.05%
 310876 242396        2.8422   124        2.8182        2.8760  5334370    2.05%
 312176 243566        2.8486   127        2.8182        2.8760  5357935    2.05%
 313688 244923        2.8453   129        2.8182        2.8760  5381781    2.05%
 314901 246090        2.8320   113        2.8182        2.8760  5405800    2.05%
 316154 247234        2.8400   139        2.8182        2.8760  5430805    2.05%
Elapsed time = 1307.48 sec. (993449.28 ticks, tree = 2396.36 MB, solutions = 48)
Nodefile size = 347.22 MB (110.56 MB after compression)
 317348 248283        2.8485   120        2.8182        2.8760  5455208    2.05%
 318744 249569        2.8286   128        2.8182        2.8760  5476950    2.05%
 320237 250818        2.8486   143        2.8182        2.8760  5499185    2.05%
 321343 251897        2.8760   140        2.8182        2.8760  5520565    2.05%
 322418 252888        2.8256   112        2.8182        2.8760  5546464    2.05%
 323812 254226        2.8455   140        2.8182        2.8760  5567375    2.05%
 324976 255375        2.8449   131        2.8182        2.8760  5590269    2.05%
 326057 256374        2.8348   112        2.8182        2.8760  5614245    2.05%
 327171 257402        2.8481   132        2.8182        2.8760  5637205    2.05%
 328091 258298        2.8224   110        2.8182        2.8760  5647173    2.05%
Elapsed time = 1372.04 sec. (1036826.99 ticks, tree = 2504.68 MB, solutions = 48)
Nodefile size = 454.70 MB (145.65 MB after compression)
 329753 259885        2.8485   122        2.8182        2.8760  5672994    2.05%
 330755 260789        2.8339    98        2.8182        2.8760  5700268    2.05%
 331995 261958        2.8485   136        2.8182        2.8760  5722738    2.05%
 333494 262953        2.8366   128        2.8182        2.8760  5747233    2.05%
 335044 264391        2.8443   128        2.8182        2.8760  5770845    2.05%
 336611 265565        2.8760   149        2.8182        2.8760  5792296    2.05%
 337925 266750    infeasible              2.8182        2.8760  5817455    2.05%
 339414 267913        2.8435   129        2.8182        2.8760  5841596    2.05%
 341122 268816        2.8760   141        2.8182        2.8760  5863286    2.05%
 342181 269778        2.8439   132        2.8182        2.8760  5889827    2.05%
Elapsed time = 1429.32 sec. (1075205.96 ticks, tree = 2620.81 MB, solutions = 48)
Nodefile size = 570.88 MB (181.73 MB after compression)
 343226 270685        2.8588   153        2.8182        2.8760  5914952    2.05%
 344526 271897        2.8372   138        2.8182        2.8760  5939096    2.05%
 346107 273359        2.8191   119        2.8182        2.8760  5960872    2.05%
 347073 274252        2.8387   145        2.8182        2.8760  5981914    2.05%
 348557 275673        2.8188   120        2.8182        2.8760  6004230    2.05%
 349725 276686        2.8423   135        2.8182        2.8760  6028780    2.05%
 350948 277713        2.8432   136        2.8182        2.8760  6052340    2.05%
 351899 278534        2.8719   153        2.8182        2.8760  6080179    2.05%
 353388 279636        2.8381   119        2.8182        2.8760  6101356    2.05%
 354746 280920        2.8472   122        2.8182        2.8760  6121333    2.05%
Elapsed time = 1486.90 sec. (1113652.18 ticks, tree = 2743.25 MB, solutions = 48)
Nodefile size = 693.17 MB (220.59 MB after compression)
 355762 281768        2.8236   128        2.8182        2.8760  6142896    2.05%
 356793 282747        2.8227   109        2.8182        2.8760  6166127    2.05%
 357525 283290        2.8490   139        2.8182        2.8760  6186355    2.05%
 358738 284419        2.8236   127        2.8182        2.8760  6206718    2.05%
 360117 285679        2.8485   135        2.8182        2.8760  6226512    2.05%
 361388 286749        2.8393   123        2.8182        2.8760  6247683    2.05%
 362672 287927        2.8378   141        2.8182        2.8760  6268473    2.05%
 363864 289040        2.8269   126        2.8182        2.8760  6289174    2.05%
 365122 290194        2.8330   143        2.8182        2.8760  6310740    2.05%
 366158 291109        2.8760   143        2.8182        2.8760  6331139    2.05%
Elapsed time = 1548.74 sec. (1160862.12 ticks, tree = 2865.01 MB, solutions = 48)
Nodefile size = 814.15 MB (260.38 MB after compression)
 367517 292461        2.8260   124        2.8182        2.8760  6348538    2.05%
 369116 294025        2.8508   138        2.8182        2.8760  6368423    2.05%
 370690 295539        2.8282   121        2.8182        2.8760  6386814    2.05%
 371645 296440        2.8280   133        2.8182        2.8760  6407446    2.05%
 372844 297572        2.8258   149        2.8182        2.8760  6429480    2.05%
 373561 298215        2.8409   137        2.8182        2.8760  6451467    2.05%
 374509 299114        2.8692   139        2.8182        2.8760  6474495    2.05%
 375286 299854        2.8356   132        2.8182        2.8760  6493667    2.05%
 376560 301052        2.8507   145        2.8182        2.8760  6514111    2.05%
 377063 301462        2.8422   120        2.8182        2.8760  6542323    2.05%
Elapsed time = 1604.45 sec. (1199873.15 ticks, tree = 3000.06 MB, solutions = 48)
Nodefile size = 949.87 MB (304.42 MB after compression)
 378032 302210        2.8600   142        2.8182        2.8760  6566831    2.05%
 378775 302814        2.8268   134        2.8182        2.8760  6590872    2.05%
 380297 304190        2.8358   136        2.8182        2.8760  6615253    2.05%
 380687 304537        2.8295   129        2.8182        2.8760  6641174    2.05%
 381651 305387        2.8294   140        2.8182        2.8760  6666337    2.05%
 382493 306057        2.8422   145        2.8182        2.8760  6690056    2.05%
 383312 306715        2.8578   127        2.8182        2.8760  6714451    2.05%
 384294 307449        2.8754   153        2.8182        2.8760  6738427    2.05%
 385237 308104        2.8182    83        2.8182        2.8760  6766661    2.05%
 386278 308989        2.8422   159        2.8182        2.8760  6788079    2.05%
Elapsed time = 1660.26 sec. (1238792.30 ticks, tree = 3115.56 MB, solutions = 48)
Nodefile size = 1065.87 MB (359.11 MB after compression)
 386971 309563        2.8385   147        2.8182        2.8760  6812000    2.05%
 387609 310114        2.8397   132        2.8182        2.8760  6836106    2.05%
 387951 310311        2.8422   149        2.8182        2.8760  6861700    2.05%
 388638 310936        2.8739   158        2.8182        2.8760  6887099    2.05%
 389576 311630        2.8186    89        2.8182        2.8760  6910558    2.05%
 390487 312264        2.8368   141        2.8182        2.8760  6926155    2.05%
 390880 312536        2.8191   116        2.8182        2.8760  6945587    2.05%
 391361 312927        2.8731   191        2.8182        2.8760  6966070    2.05%
 392314 313583        2.8186   134        2.8182        2.8760  6990947    2.05%
 392495 313754        2.8190   126        2.8182        2.8760  6993197    2.05%
Elapsed time = 1714.98 sec. (1278595.22 ticks, tree = 3200.90 MB, solutions = 48)
Nodefile size = 1148.87 MB (410.82 MB after compression)
 393572 314762        2.8485   135        2.8182        2.8760  7008598    2.05%
 394690 315720        2.8432   135        2.8182        2.8760  7029604    2.05%
 395955 316862        2.8317   124        2.8182        2.8760  7048279    2.05%
 397146 318024        2.8452   126        2.8182        2.8760  7065305    2.05%
 397847 318642        2.8309   150        2.8182        2.8760  7089998    2.05%
 399271 319916        2.8398   106        2.8182        2.8760  7109927    2.05%
 400305 320915        2.8393   125        2.8182        2.8760  7132249    2.05%
 401396 321960        2.8310   134        2.8182        2.8760  7150781    2.05%
 402302 322851        2.8719   144        2.8182        2.8760  7178570    2.05%
 402927 323398        2.8369   144        2.8182        2.8760  7203851    2.05%
Elapsed time = 1781.37 sec. (1317902.20 ticks, tree = 3391.22 MB, solutions = 48)
Nodefile size = 1339.46 MB (511.41 MB after compression)
 403772 324197        2.8332   143        2.8182        2.8760  7224590    2.05%
 405333 325466        2.8369   135        2.8182        2.8760  7244972    2.05%
 406435 326422        2.8676   138        2.8182        2.8760  7264428    2.05%
 407802 327743        2.8628   160        2.8182        2.8760  7283985    2.05%
 409146 328796        2.8250   141        2.8182        2.8760  7304096    2.05%
 410497 330047        2.8219   128        2.8182        2.8760  7324835    2.05%
 411638 331054        2.8680   144        2.8182        2.8760  7347651    2.05%
 412728 332089        2.8760   150        2.8182        2.8760  7366488    2.05%
 412781 332140        2.8183   117        2.8182        2.8760  7368468    2.05%
 414317 333603        2.8221   150        2.8182        2.8760  7387637    2.05%
Elapsed time = 1856.87 sec. (1360866.77 ticks, tree = 3597.01 MB, solutions = 48)
Nodefile size = 1544.77 MB (634.88 MB after compression)
 415578 334797        2.8760   147        2.8182        2.8760  7408443    2.05%
 416588 335696        2.8326   131        2.8182        2.8760  7428822    2.05%
 417696 336742        2.8297   120        2.8182        2.8760  7452088    2.05%
 419160 338174        cutoff              2.8182        2.8760  7472690    2.05%
 420347 339286        2.8237   113        2.8182        2.8760  7493909    2.05%
 421559 340381        2.8261   125        2.8182        2.8760  7517296    2.05%
 422605 341362        2.8337   121        2.8182        2.8760  7539282    2.05%
 423749 342236        2.8684   133        2.8182        2.8760  7561829    2.05%
 424680 343141        2.8227   135        2.8182        2.8760  7588344    2.05%
 425817 344180        2.8297   132        2.8182        2.8760  7607926    2.05%
Elapsed time = 1927.37 sec. (1399920.79 ticks, tree = 3810.71 MB, solutions = 48)
Nodefile size = 1758.86 MB (759.52 MB after compression)
 426919 345225        2.8199   120        2.8182        2.8760  7631271    2.05%
 427947 346162        2.8403   145        2.8182        2.8760  7652910    2.05%
 429568 347647        2.8200   139        2.8182        2.8760  7676036    2.05%
 430613 348540        2.8291   141        2.8182        2.8760  7697661    2.05%
 431366 349263        2.8219   120        2.8182        2.8760  7720797    2.05%
 432336 350058        2.8710   140        2.8182        2.8760  7744568    2.05%
 433336 350914        2.8736   145        2.8182        2.8760  7767285    2.05%
 433758 351285        2.8364   135        2.8182        2.8760  7786403    2.05%
 434452 351932        2.8201   113        2.8182        2.8760  7810613    2.05%
 435478 352937        2.8192   114        2.8182        2.8760  7838226    2.05%
Elapsed time = 1994.16 sec. (1438825.68 ticks, tree = 3988.93 MB, solutions = 48)
Nodefile size = 1936.70 MB (877.44 MB after compression)
 436758 354072        2.8300   128        2.8182        2.8760  7862564    2.05%
 437407 354677        2.8393   138        2.8182        2.8760  7882926    2.05%
 438213 355459        2.8185   125        2.8182        2.8760  7906307    2.05%
 439061 356062        2.8684   155        2.8182        2.8760  7926850    2.05%
 440031 356991        2.8687   152        2.8182        2.8760  7948688    2.05%
 440927 357789        2.8689   139        2.8182        2.8760  7971118    2.05%
 441694 358515        2.8245   133        2.8182        2.8760  7989981    2.05%
 442763 359517        2.8198   118        2.8182        2.8760  8010140    2.05%
 443691 360287        2.8232   119        2.8182        2.8760  8025125    2.05%
 444905 361390        2.8692   163        2.8182        2.8760  8045546    2.05%
Elapsed time = 2066.43 sec. (1484257.03 ticks, tree = 4164.63 MB, solutions = 48)
Nodefile size = 2113.26 MB (989.01 MB after compression)
 445681 362054        2.8760   143        2.8182        2.8760  8068350    2.05%
 446240 362583        2.8571   132        2.8182        2.8760  8087693    2.05%
 446914 363102        2.8309   135        2.8182        2.8760  8104307    2.05%
 447560 363717        2.8259   131        2.8182        2.8760  8124437    2.05%
 448497 364574        2.8244   138        2.8182        2.8760  8145508    2.05%
 449356 365326        2.8760   149        2.8182        2.8760  8163057    2.05%
 450221 366073        2.8706   142        2.8182        2.8760  8181878    2.05%
 451206 366945        2.8760   140        2.8182        2.8760  8197844    2.05%
 452079 367761        2.8376   133        2.8182        2.8760  8217313    2.05%
 453441 368948        2.8218   135        2.8182        2.8760  8236471    2.05%
Elapsed time = 2129.89 sec. (1523389.98 ticks, tree = 4327.44 MB, solutions = 48)
Nodefile size = 2275.21 MB (1098.82 MB after compression)
 454986 370408        2.8376   130        2.8182        2.8760  8253013    2.05%
 456241 371475        2.8760   142        2.8182        2.8760  8271730    2.05%
 457169 372279        cutoff              2.8182        2.8760  8290862    2.05%
 458582 373343        2.8376   135        2.8182        2.8760  8308415    2.05%
 459791 374475        cutoff              2.8182        2.8760  8325905    2.05%
 460975 375530        2.8196   108        2.8182        2.8760  8339734    2.05%
 462472 376858        2.8212   116        2.8182        2.8760  8356965    2.05%
 463734 378043        2.8332   127        2.8182        2.8760  8374298    2.05%
 464942 379094        cutoff              2.8182        2.8760  8394699    2.05%
 465895 379844        2.8182   103        2.8182        2.8760  8409286    2.05%
Elapsed time = 2200.55 sec. (1567621.76 ticks, tree = 4563.01 MB, solutions = 48)
Nodefile size = 2510.99 MB (1256.15 MB after compression)
 467368 381278        2.8218   124        2.8182        2.8760  8429916    2.05%
 468404 382153        2.8376   126        2.8182        2.8760  8450417    2.05%
 469968 383527        2.8332   126        2.8182        2.8760  8471678    2.05%
 471378 384655        cutoff              2.8182        2.8760  8492024    2.05%
 472908 385997        2.8225   127        2.8182        2.8760  8510711    2.05%
 474072 387002        2.8332   116        2.8182        2.8760  8532658    2.05%
 475328 388162        2.8205   130        2.8182        2.8760  8554746    2.05%
 476802 389414        2.8197   123        2.8182        2.8760  8575381    2.05%
 478395 390843        2.8376   138        2.8182        2.8760  8594171    2.05%
 479770 392026        2.8760   138        2.8182        2.8760  8617359    2.05%
Elapsed time = 2270.23 sec. (1606698.79 ticks, tree = 4825.44 MB, solutions = 48)
Nodefile size = 2771.11 MB (1425.83 MB after compression)
 480067 392269        2.8376   142        2.8182        2.8760  8628023    2.05%
 480976 392878        2.8604   147        2.8182        2.8760  8648572    2.05%
 482376 394003        2.8192    83        2.8182        2.8760  8671371    2.05%
 484225 395559        2.8218   149        2.8182        2.8760  8689446    2.05%
 485445 396598        2.8376   127        2.8182        2.8760  8708667    2.05%
 487119 397898        2.8376   125        2.8182        2.8760  8729733    2.05%
 488338 398906        2.8218   140        2.8182        2.8760  8750191    2.05%
 489432 399904        2.8376   129        2.8182        2.8760  8771487    2.05%
 490670 400993        2.8332   132        2.8182        2.8760  8790813    2.05%
 492368 402603        2.8759   142        2.8182        2.8760  8808293    2.05%
Elapsed time = 2339.16 sec. (1645296.17 ticks, tree = 5056.47 MB, solutions = 48)
Nodefile size = 3004.51 MB (1584.80 MB after compression)
 494064 404044        2.8182   112        2.8182        2.8760  8829398    2.05%
 495200 404889        2.8332   119        2.8182        2.8760  8851176    2.05%
 496629 406098        2.8227   146        2.8182        2.8760  8874343    2.05%
 498203 407513        2.8196   108        2.8182        2.8760  8891609    2.05%
 499816 408985        2.8187   122        2.8182        2.8760  8912879    2.05%
 501055 409960        2.8201   132        2.8182        2.8760  8933770    2.05%
 502778 411401        2.8198   124        2.8182        2.8760  8953043    2.05%
 503681 412167        2.8332   116        2.8182        2.8760  8968443    2.05%
 505188 413591        2.8332   126        2.8182        2.8760  8987630    2.05%
 506168 414417        2.8190   117        2.8182        2.8760  9012631    2.05%
Elapsed time = 2409.35 sec. (1683711.76 ticks, tree = 5312.36 MB, solutions = 48)
Nodefile size = 3259.70 MB (1752.00 MB after compression)
 507628 415535        2.8376   122        2.8182        2.8760  9033965    2.05%
 508984 416604        2.8376   123        2.8182        2.8760  9054631    2.05%
 509574 417150        2.8187   128        2.8182        2.8760  9067334    2.05%
 511077 418342        2.8760   146        2.8182        2.8760  9085045    2.05%
 511353 418555        2.8376   122        2.8182        2.8760  9088888    2.05%
 513140 420015        2.8376   122        2.8182        2.8760  9110254    2.05%
 514760 421318        2.8192   119        2.8182        2.8760  9132121    2.05%
 516181 422433        2.8197   128        2.8182        2.8760  9154112    2.05%
 517617 423825        2.8376   161        2.8182        2.8760  9172014    2.05%
 518853 424867        2.8749   142        2.8182        2.8760  9196998    2.05%
Elapsed time = 2482.32 sec. (1724894.19 ticks, tree = 5538.41 MB, solutions = 48)
Nodefile size = 3484.48 MB (1902.23 MB after compression)
 520244 426096        2.8760   142        2.8182        2.8760  9219341    2.05%
 521774 427375        2.8752   157        2.8182        2.8760  9239831    2.05%
 523150 428373        2.8760   141        2.8182        2.8760  9258581    2.05%
 524596 429634        2.8332   154        2.8182        2.8760  9279178    2.05%
 525318 430072        cutoff              2.8182        2.8760  9301014    2.05%
 527021 431538        2.8332   123        2.8182        2.8760  9322217    2.05%
 528880 433232        2.8217   136        2.8182        2.8760  9339946    2.05%
 530460 434406        2.8213   145        2.8182        2.8760  9362061    2.05%
 531825 435426        2.8212   123        2.8182        2.8760  9380630    2.05%
 532907 436341        cutoff              2.8182        2.8760  9396132    2.05%
Elapsed time = 2555.33 sec. (1763710.64 ticks, tree = 5790.15 MB, solutions = 48)
Nodefile size = 3735.37 MB (2072.82 MB after compression)
 534203 437233        2.8376   145        2.8182        2.8760  9415717    2.05%
 535865 438722        2.8332   133        2.8182        2.8760  9437102    2.05%
 537639 440426        2.8184   107        2.8182        2.8760  9455692    2.05%
 538910 441650        2.8207   112        2.8182        2.8760  9474555    2.05%
 539984 442497        2.8760   157        2.8182        2.8760  9495326    2.05%
 540139 442637        2.8183    91        2.8182        2.8760  9497114    2.05%
 541839 444214        2.8192   111        2.8182        2.8760  9517873    2.05%
 542952 445242        2.8200   113        2.8182        2.8760  9541235    2.05%
 544639 446823        2.8760   155        2.8182        2.8760  9564727    2.05%
 546022 448103        2.8216   126        2.8182        2.8760  9585389    2.05%
Elapsed time = 2630.67 sec. (1806052.15 ticks, tree = 6051.52 MB, solutions = 48)
Nodefile size = 3999.12 MB (2253.92 MB after compression)
 547516 449374        2.8236   139        2.8182        2.8760  9601501    2.05%
 548867 450619        2.8207   110        2.8182        2.8760  9620733    2.05%
 550105 451810        2.8332   113        2.8182        2.8760  9637768    2.05%
 551284 452801        2.8376   127        2.8182        2.8760  9656351    2.05%
 552214 453526        2.8760   160        2.8182        2.8760  9674780    2.05%
 552939 454186        2.8225   152        2.8182        2.8760  9694438    2.05%
 554252 455383        2.8235   134        2.8182        2.8760  9712713    2.05%
 555333 456394        2.8602   159        2.8182        2.8760  9734700    2.05%
 556444 457357        2.8304   143        2.8182        2.8760  9755021    2.05%
 557742 458527        2.8393   119        2.8182        2.8760  9774610    2.05%
Elapsed time = 2699.33 sec. (1845214.38 ticks, tree = 6281.97 MB, solutions = 48)
Nodefile size = 4229.98 MB (2409.49 MB after compression)
 558778 459492        cutoff              2.8182        2.8760  9795558    2.05%
 559674 460337        2.8744   132        2.8182        2.8760  9813055    2.05%
 560290 460893        2.8244   135        2.8182        2.8760  9836939    2.05%
 560739 461211        2.8667   149        2.8182        2.8760  9855845    2.05%
 561671 462043        2.8228   131        2.8182        2.8760  9878291    2.05%
 562797 463088        2.8243   133        2.8182        2.8760  9897712    2.05%
 563600 463864        2.8224   130        2.8182        2.8760  9920291    2.05%
 564123 464265        2.8605   141        2.8182        2.8760  9940829    2.05%
 564805 464859        2.8710   147        2.8182        2.8760  9957820    2.05%
 565597 465475        2.8632   148        2.8182        2.8760  9982105    2.05%
Elapsed time = 2762.45 sec. (1884029.02 ticks, tree = 6434.85 MB, solutions = 48)
Nodefile size = 4381.87 MB (2511.81 MB after compression)
 566435 466160        2.8297   145        2.8182        2.8760 10006340    2.05%
 567297 466879        2.8376   124        2.8182        2.8760 10023838    2.05%
 568439 467816        2.8403   133        2.8182        2.8760 10041236    2.05%
 569486 468836        2.8376   131        2.8182        2.8760 10062156    2.05%
 570552 469784        2.8244   147        2.8182        2.8760 10079462    2.05%
 571791 470874        2.8366   143        2.8182        2.8760 10097790    2.05%
 572913 471811        2.8195   112        2.8182        2.8760 10115697    2.05%
 573754 472548        2.8213   136        2.8182        2.8760 10133088    2.05%
 574625 473256        2.8217   136        2.8182        2.8760 10151190    2.05%
 575613 474150        2.8186   124        2.8182        2.8760 10170845    2.05%
Elapsed time = 2837.08 sec. (1930069.39 ticks, tree = 6627.21 MB, solutions = 48)
Nodefile size = 4572.57 MB (2639.43 MB after compression)
 576657 475160        2.8185   114        2.8182        2.8760 10192396    2.05%
 577488 475964        2.8362   122        2.8182        2.8760 10206295    2.05%
 578827 477150        2.8367   131        2.8182        2.8760 10223480    2.05%
 579793 477828        2.8189   119        2.8182        2.8760 10245166    2.05%
 580699 478590        2.8211   144        2.8182        2.8760 10264210    2.05%
 581512 479279        2.8225   113        2.8182        2.8760 10285416    2.05%
 582980 480651        2.8760   142        2.8182        2.8760 10299263    2.05%
 583961 481589        2.8760   145        2.8182        2.8760 10318048    2.05%
 584751 482267        2.8760   136        2.8182        2.8760 10334532    2.05%
 585904 483347        2.8229   142        2.8182        2.8760 10353138    2.05%
Elapsed time = 2903.83 sec. (1969105.20 ticks, tree = 6838.74 MB, solutions = 48)
Nodefile size = 4785.70 MB (2781.82 MB after compression)
 587076 484423        2.8383   137        2.8182        2.8760 10374071    2.05%
 588078 485352        2.8645   146        2.8182        2.8760 10393940    2.05%
 589071 486204        2.8702   154        2.8182        2.8760 10415409    2.05%
 590278 487320        2.8215   128        2.8182        2.8760 10434540    2.05%
 591513 488454        2.8760   136        2.8182        2.8760 10453218    2.05%
 592586 489414        2.8366   121        2.8182        2.8760 10475325    2.05%
 593639 490391        2.8189   150        2.8182        2.8760 10499365    2.05%
 595071 491721        2.8222   141        2.8182        2.8760 10518983    2.05%
 596141 492747        2.8240   122        2.8182        2.8760 10540610    2.05%
 597536 493844        2.8283   143        2.8182        2.8760 10557797    2.05%
Elapsed time = 2975.76 sec. (2007644.84 ticks, tree = 7081.18 MB, solutions = 48)
Nodefile size = 5028.24 MB (2945.01 MB after compression)
 598385 494617        2.8183   118        2.8182        2.8760 10579503    2.05%
 599005 495221        2.8183   130        2.8182        2.8760 10601612    2.05%
 599776 495947        2.8188   130        2.8182        2.8760 10627043    2.05%
 600330 496395        2.8198   130        2.8182        2.8760 10653247    2.05%
 600709 496687        2.8198   115        2.8182        2.8760 10667720    2.05%
 601783 497662        2.8221   119        2.8182        2.8760 10690366    2.05%
 602547 498312        2.8387   121        2.8182        2.8760 10712379    2.05%
 603687 499361        2.8760   150        2.8182        2.8760 10732980    2.05%
 604447 500023        2.8195   117        2.8182        2.8760 10757233    2.05%
 605447 500852        2.8227   116        2.8182        2.8760 10775038    2.05%
Elapsed time = 3047.00 sec. (2049966.84 ticks, tree = 7244.35 MB, solutions = 48)
Nodefile size = 5192.68 MB (3057.50 MB after compression)
 606333 501635        2.8188   113        2.8182        2.8760 10796243    2.05%
 607513 502611        2.8190   127        2.8182        2.8760 10816141    2.05%
 608413 503435        2.8350   140        2.8182        2.8760 10836139    2.05%
 609505 504348        2.8760   147        2.8182        2.8760 10857544    2.05%
 610229 505037        2.8331   131        2.8182        2.8760 10880466    2.05%
 611349 506080        2.8189   115        2.8182        2.8760 10900576    2.05%
 612083 506757        2.8331   124        2.8182        2.8760 10924216    2.05%
 612848 507352        2.8188   120        2.8182        2.8760 10951014    2.05%
 613567 507973        2.8188   123        2.8182        2.8760 10978507    2.05%
 614815 509125        2.8187   116        2.8182        2.8760 11002529    2.05%
Elapsed time = 3112.84 sec. (2088586.57 ticks, tree = 7434.33 MB, solutions = 48)
Nodefile size = 5380.02 MB (3174.52 MB after compression)
 615830 509800        2.8687   156        2.8182        2.8760 11026942    2.05%
 616607 510404        2.8331   134        2.8182        2.8760 11050838    2.05%
 617176 510834        2.8760   138        2.8182        2.8760 11077031    2.05%
 618150 511633        2.8705   152        2.8182        2.8760 11103765    2.05%
 618319 511644        2.8232   144        2.8182        2.8760 11140444    2.05%
 618678 511825        2.8189   120        2.8182        2.8760 11162705    2.05%
 619775 512683        2.8331   133        2.8182        2.8760 11185964    2.05%
 620215 513005        2.8681   149        2.8182        2.8760 11217667    2.05%
 621017 513353        2.8685   135        2.8182        2.8760 11241850    2.05%
 621683 513820        2.8331   134        2.8182        2.8760 11271349    2.05%
Elapsed time = 3181.08 sec. (2133391.50 ticks, tree = 7546.33 MB, solutions = 48)
Nodefile size = 5494.49 MB (3252.13 MB after compression)
 622324 514332        cutoff              2.8182        2.8760 11297754    2.05%
 623321 515089        2.8726   150        2.8182        2.8760 11323965    2.05%
 623989 515488        2.8331   146        2.8182        2.8760 11354430    2.05%
 624279 515647        2.8331   133        2.8182        2.8760 11383697    2.05%
 624791 516065        2.8677   144        2.8182        2.8760 11411383    2.05%
 625421 516482        2.8690   150        2.8182        2.8760 11433193    2.05%
 626527 517419        2.8331   131        2.8182        2.8760 11452934    2.05%
 627113 517831        2.8699   140        2.8182        2.8760 11478634    2.05%
 628412 518894        cutoff              2.8182        2.8760 11496024    2.05%
 629330 519593        2.8251   136        2.8182        2.8760 11508997    2.05%
Elapsed time = 3244.10 sec. (2172639.81 ticks, tree = 7682.23 MB, solutions = 48)
Nodefile size = 5629.88 MB (3348.63 MB after compression)
 629685 519918        2.8202   120        2.8182        2.8760 11522391    2.05%
 630124 520319        2.8332   113        2.8182        2.8760 11533105    2.05%
 630997 521096        2.8760   153        2.8182        2.8760 11556026    2.05%
 631050 521147        2.8221   141        2.8182        2.8760 11558207    2.05%
 631518 521482        2.8193   101        2.8182        2.8760 11574420    2.05%
 631847 521696        2.8185   115        2.8182        2.8760 11576838    2.05%
 632161 521903        2.8190    79        2.8182        2.8760 11581016    2.05%
 632732 522186        2.8208   117        2.8182        2.8760 11596664    2.05%
 633136 522531        2.8188   112        2.8182        2.8760 11604555    2.05%
 633600 522915        2.8760   151        2.8182        2.8760 11613095    2.05%
Elapsed time = 3347.25 sec. (2243290.19 ticks, tree = 7760.91 MB, solutions = 48)
Nodefile size = 5708.54 MB (3402.10 MB after compression)
 633669 522979        2.8221   132        2.8182        2.8760 11615512    2.05%
 634042 523345        2.8276   118        2.8182        2.8760 11626610    2.05%
 634284 523576        2.8373   147        2.8182        2.8760 11640111    2.05%
 634386 523674        2.8214   116        2.8182        2.8760 11641821    2.05%
 634543 523826        2.8214   123        2.8182        2.8760 11645567    2.05%
 634880 524139        2.8220   121        2.8182        2.8760 11656809    2.05%
 635101 524330        2.8207   123        2.8182        2.8760 11673832    2.05%
 635557 524750        2.8376   127        2.8182        2.8760 11686006    2.05%
*635604+524780                            2.8185        2.8760 11689547    2.04%
 635876 510303        2.8199    97        2.8185        2.8760 11692991    2.04%
 636230 510622        2.8211   130        2.8185        2.8760 11700337    2.04%
Elapsed time = 3466.86 sec. (2324711.71 ticks, tree = 7615.54 MB, solutions = 49)
Nodefile size = 5560.63 MB (3329.63 MB after compression)
*636386+510773                            2.8187        2.8760 11701466    2.03%
 636515 503062        2.8201   137        2.8187        2.8760 11704920    2.03%
 636771 503308        2.8332   136        2.8187        2.8760 11713852    2.03%
 637016 503542        cutoff              2.8187        2.8760 11726421    2.03%
*637483+503954                            2.8187        2.8760 11734653    2.03%
 637669 504134        2.8235   100        2.8187        2.8760 11736497    2.03%
*637934+504331                            2.8199        2.8760 11740704    1.99%
*637934+504331                            2.8201        2.8760 11740704    1.98%
 638065 446498        2.8380   125        2.8201        2.8760 11741278    1.98%
 638596 446990        2.8310   140        2.8201        2.8760 11759645    1.98%
 639083 447411        cutoff              2.8201        2.8760 11769824    1.98%
 639315 447643        2.8370   122        2.8201        2.8760 11772016    1.98%
 639713 448008        2.8213   139        2.8201        2.8760 11778597    1.98%
*639968+448201                            2.8201        2.8760 11786157    1.98%
 639986 448221        2.8211   133        2.8201        2.8760 11786362    1.98%
Elapsed time = 3531.36 sec. (2373834.88 ticks, tree = 6744.55 MB, solutions = 54)
Nodefile size = 4691.20 MB (2843.88 MB after compression)
 640222 448448        2.8209   122        2.8201        2.8760 11790600    1.98%
 640534 448732        2.8202   132        2.8201        2.8760 11797948    1.98%
 640662 448838        2.8689   148        2.8201        2.8760 11802964    1.98%
 640837 448996        2.8366   139        2.8201        2.8760 11813019    1.98%
 641251 449303        2.8241   117        2.8201        2.8760 11817684    1.98%
 641286 449303        2.8366   130        2.8201        2.8760 11817827    1.98%
 641676 449673        2.8241   121        2.8201        2.8760 11826691    1.98%
 641886 449869        2.8220   124        2.8201        2.8760 11830241    1.98%
 642272 450223        2.8376   130        2.8201        2.8760 11843442    1.98%

Cover cuts applied:  1247
Mixed integer rounding cuts applied:  1

Root node processing (before b&c):
  Real time             =    8.69 sec. (6440.61 ticks)
Parallel b&c, 2 threads:
  Real time             = 3591.79 sec. (2414342.36 ticks)
  Sync time (average)   =  346.94 sec.
  Wait time (average)   =    0.01 sec.
                          ------------
Total (root+branch&cut) = 3600.48 sec. (2420782.97 ticks)
Problem solved
Solution status =  107 : MIP_time_limit_feasible
Final worst case avg CPI =  2.82005133433

MAPPING: 0->0, 1->38, 2->14, 3->21, 4->10, 5->34, 6->1, 7->42, 8->41, 9->32, 10->34, 11->25, 12->24, 13->9, 14->32, 15->34, 16->24, 17->7, 18->6, 19->21, 20->3, 21->27, 22->7, 23->15, 24->3, 25->34, 26->31, 27->8, 28->31, 29->4, 30->43, 31->14, 32->33, 33->35, 34->15, 35->7, 36->39, 37->35, 38->36, 39->20, 40->47, 41->5, 42->17, 43->26, 44->13, 45->27, 46->15, 47->30, 48->28, 49->10, 50->30, 51->20, 52->22, 53->39, 54->11, 55->27, 56->17, 57->19, 58->20, 59->2, 60->37, 61->8, 62->31, 63->22, 64->1, 65->10, 66->46, 67->18, 68->11, 69->30, 70->24, 71->8, 72->22, 73->24, 74->38, 75->9, 76->20, 77->39, 78->43, 79->8, 80->44, 81->32, 82->4, 83->1, 84->35, 85->28, 86->12, 87->2, 88->42, 89->5, 90->38, 91->47, 92->45, 93->21, 94->15, 95->34, 96->31, 97->40, 98->15, 99->23, 100->13, 101->24, 102->4, 103->15, 104->32, 105->34, 106->0, 107->17, 108->6, 109->2, 110->35, 111->46, 112->36, 113->18, 114->37, 115->33, 116->47, 117->0, 118->12, 119->43, 120->6, 121->44, 122->33, 123->23, 124->20, 125->40, 126->26, 127->18, 128->5, 129->29, 130->28, 131->17, 132->11, 133->13, 134->10, 135->5, 136->42, 137->46, 138->1, 139->23, 140->5, 141->9, 142->12, 143->26, 144->6, 145->38, 146->28, 147->16, 148->22, 149->10, 150->0, 151->19, 152->13, 153->22, 154->1, 155->28, 156->33, 157->45, 158->43, 159->25, 160->42, 161->47, 162->30, 163->3, 164->30, 165->11, 166->4, 167->20, 168->40, 169->35, 170->2, 171->7, 172->40, 173->8, 174->16, 175->8, 176->23, 177->25, 178->42, 179->46, 180->45, 181->16, 182->40, 183->41, 184->18, 185->5, 186->37, 187->23, 188->18, 189->6, 190->26, 191->29, 192->25, 193->37, 194->2, 195->14, 196->42, 197->36, 198->39, 199->4, 200->29, 201->16, 202->32, 203->29, 204->19, 205->9, 206->9, 207->11, 208->19, 209->17, 210->12, 211->18, 212->23, 213->41, 214->3, 215->26, 216->24, 217->9, 218->32, 219->43, 220->39, 221->28, 222->21, 223->14, 224->35, 225->27, 226->13, 227->44, 228->1, 229->36, 230->17, 231->21, 232->36, 233->7, 234->37, 235->16, 236->33, 237->0, 238->31, 239->16, 240->46, 241->44, 242->46, 243->43, 244->3, 245->21, 246->30, 247->14, 248->12, 249->19, 250->37, 251->11, 252->47, 253->12, 254->4, 255->19, 256->45, 257->13, 258->25, 259->27, 260->6, 261->45, 262->2, 263->29, 264->44, 265->36, 266->41, 267->29, 268->10, 269->41, 270->39, 271->7, 272->22, 273->25, 274->40, 275->0, 276->14, 277->27, 278->33, 279->31, 280->45, 281->47, 282->38, 283->41, 284->26, 285->44, 286->3, 287->38

AVERAGE CPI MAP:
4.79	3.12	3.71	2.82	2.86	2.90
2.93	2.84	3.35	2.82	2.82	2.85
2.83	2.83	2.82	2.85	2.83	2.84
2.83	2.83	2.82	2.84	2.82	2.82
2.84	2.83	2.83	3.25	2.83	2.82
2.83	2.84	2.82	2.82	2.83	2.92
2.89	2.94	6.36	2.83	2.82	2.82
2.84	2.82	2.83	2.82	2.96	2.83
