==============================================================================
MINLP optimizer for the TAWD problem, using a simplified linear model
==============================================================================

Option values: --wld-idx 13 --global-tlim 3600

Starting the Optimization Process
Found incumbent of value 0.000000 after 0.00 sec. (1.05 ticks)
Tried aggregator 1 time.
MIP Presolve modified 13824 coefficients.
Reduced MIP has 384 rows, 13825 columns, and 40320 nonzeros.
Reduced MIP has 13824 binaries, 0 generals, 0 SOSs, and 0 indicators.
Presolve time = 0.06 sec. (21.79 ticks)
Tried aggregator 1 time.
Reduced MIP has 384 rows, 13825 columns, and 40320 nonzeros.
Reduced MIP has 13824 binaries, 0 generals, 0 SOSs, and 0 indicators.
Presolve time = 0.04 sec. (14.70 ticks)
Probing fixed 0 vars, tightened 6 bounds.
Probing time = 0.04 sec. (23.42 ticks)
Clique table members: 288.
MIP emphasis: balance optimality and feasibility.
MIP search method: dynamic search.
Parallel mode: deterministic, using up to 2 threads.
Root relaxation solution time = 0.47 sec. (374.83 ticks)

        Nodes                                         Cuts/
   Node  Left     Objective  IInf  Best Integer    Best Bound    ItCnt     Gap

*     0+    0                            0.0000       80.5000     2091     --- 
*     0+    0                            2.0000       80.5000     2091     --- 
      0     0        2.1667   166        2.0000        2.1667     2091    8.33%
      0     0        2.1667   153        2.0000       Cuts: 2     2128    8.33%
      0     0        2.1667   153        2.0000      Cuts: 31     2195    8.33%
      0     0        2.1667   154        2.0000      Cuts: 30     2279    8.33%
*     0+    0                            2.0000        2.1667     2279    8.33%
      0     2        2.1667   148        2.0000        2.1667     2335    8.33%
Elapsed time = 7.56 sec. (5453.23 ticks, tree = 0.01 MB, solutions = 1)
     13    15        2.1508   161        2.0000        2.1641     3496    8.20%
     19    21        2.1184   175        2.0000        2.1641     5264    8.20%
     50    52        2.1550   143        2.0000        2.1641     6552    8.20%
     91    93        2.1550   140        2.0000        2.1641     7583    8.20%
    139   141        2.1550   137        2.0000        2.1641     8707    8.20%
*   182+  182                            2.0006        2.1641     9824    8.17%
    189   191        2.1550   143        2.0006        2.1641     9993    8.17%
    240   242        2.1521   146        2.0006        2.1641    11249    8.17%
    303   305        2.1521   147        2.0006        2.1641    12537    8.17%
    342   344        2.1521   138        2.0006        2.1641    13213    8.17%
*   359+  359                            2.0077        2.1641    13501    7.79%
*   431+  431                            2.0224        2.1641    14786    7.01%
*   513+  513                            2.0353        2.1641    16727    6.33%
    545   547        2.1550   143        2.0353        2.1641    17407    6.33%
Elapsed time = 11.85 sec. (8923.97 ticks, tree = 4.90 MB, solutions = 4)
*   615+  615                            2.0410        2.1641    18729    6.03%
*   661+  661                            2.0439        2.1641    19459    5.88%
*   681+  681                            2.0558        2.1641    19810    5.27%
*   716+  716                            2.0873        2.1641    20463    3.68%
*   790+  790                            2.0899        2.1641    21773    3.55%
*   790+  790                            2.0917        2.1641    21773    3.46%
*   790+  790                            2.0967        2.1641    21773    3.21%
*   790+  790                            2.1078        2.1641    21773    2.67%
    811   813        2.1667   142        2.1078        2.1641    24225    2.67%
    824   822        2.1508   145        2.1078        2.1641    25199    2.67%
    838   828        2.1550   148        2.1078        2.1641    26207    2.67%
    860   838        2.1550   143        2.1078        2.1641    26897    2.67%
    882   851        2.1458   136        2.1078        2.1641    27449    2.67%
    912   870        2.1458   136        2.1078        2.1641    28039    2.67%
    943   888        2.1458   139        2.1078        2.1641    28685    2.67%
    981   907        2.1458   135        2.1078        2.1641    29516    2.67%
   1041   939        2.1550   141        2.1078        2.1641    30468    2.67%
   1103   975        2.1458   133        2.1078        2.1641    31386    2.67%
Elapsed time = 36.78 sec. (28157.77 ticks, tree = 9.24 MB, solutions = 13)
   1152   999        2.1550   140        2.1078        2.1641    32506    2.67%
   1222  1031        2.1458   134        2.1078        2.1641    33881    2.67%
   1287  1068        2.1550   141        2.1078        2.1641    35111    2.67%
   1361  1104        2.1550   140        2.1078        2.1641    36588    2.67%
   1449  1155        2.1538   135        2.1078        2.1641    38149    2.67%
   1536  1193        2.1458   134        2.1078        2.1641    39399    2.67%
*  1592+ 1062                            2.1078        2.1641    40275    2.67%
   1641  1085        2.1502   127        2.1078        2.1641    40907    2.67%
   1811  1134        2.1373    98        2.1078        2.1641    43173    2.67%
   2009  1157        2.1550   151        2.1078        2.1620    45325    2.57%
   2131  1182        2.1162   148        2.1078        2.1620    47354    2.57%
Elapsed time = 49.15 sec. (37907.65 ticks, tree = 11.13 MB, solutions = 13)
   2203  1221        2.1152   154        2.1078        2.1620    49295    2.57%
   2350  1302        2.1103   145        2.1078        2.1620    51487    2.57%
   2504  1439        2.1271   125        2.1078        2.1620    53981    2.57%
   2737  1556        2.1103   130        2.1078        2.1620    55989    2.57%
   2987  1686        2.1179   106        2.1078        2.1620    58343    2.57%
   3144  1768        2.1081   123        2.1078        2.1620    62692    2.57%
   3420  1839        2.1081   125        2.1078        2.1620    66921    2.57%
   3516  1884        2.1606   144        2.1078        2.1606    70504    2.50%
   3654  1972        2.1578   144        2.1078        2.1606    76729    2.50%
   3934  2062        2.1538   151        2.1078        2.1606    79481    2.50%
Elapsed time = 62.58 sec. (47714.22 ticks, tree = 19.34 MB, solutions = 13)
   4328  2176        2.1142   143        2.1078        2.1606    82821    2.50%
   4627  2261        2.1606   145        2.1078        2.1606    85152    2.50%
   4800  2385        2.1578   150        2.1078        2.1606    87637    2.50%
   5081  2563        2.1606   152        2.1078        2.1606    91364    2.50%
   5388  2780        2.1606   152        2.1078        2.1606    95037    2.50%
   5789  3008        2.1374   140        2.1078        2.1606    98486    2.50%
   6072  3202        2.1537   138        2.1078        2.1606   102574    2.50%
   6506  3510        2.1578   143        2.1078        2.1606   106148    2.50%
   6882  3820        2.1327   142        2.1078        2.1606   111953    2.50%
   7096  3982        2.1091   118        2.1078        2.1606   115280    2.50%
Elapsed time = 76.52 sec. (57545.64 ticks, tree = 37.16 MB, solutions = 13)
   7575  4358        2.1573   160        2.1078        2.1606   120512    2.50%
   7997  4606        2.1421   130        2.1078        2.1606   124283    2.50%
   8441  4819        2.1574   142        2.1078        2.1606   127925    2.50%
   8809  5096        2.1471   135        2.1078        2.1606   132831    2.50%
   9066  5263        2.1345   139        2.1078        2.1606   138133    2.50%
   9377  5525        2.1186   145        2.1078        2.1606   142412    2.50%
   9718  5822        2.1106   118        2.1078        2.1606   147550    2.50%
  10115  6133        2.1578   143        2.1078        2.1606   152775    2.50%
  10394  6356        2.1443   132        2.1078        2.1606   156800    2.50%
  10712  6612        2.1335   151        2.1078        2.1606   162882    2.50%
Elapsed time = 91.57 sec. (67762.64 ticks, tree = 62.29 MB, solutions = 13)
  11197  6923        2.1558   148        2.1078        2.1606   167392    2.50%
  11492  7187        2.1086   130        2.1078        2.1606   173162    2.50%
  11913  7408        2.1568   150        2.1078        2.1606   178176    2.50%
  12211  7659        2.1574   143        2.1078        2.1606   185252    2.50%
  12433  7873        2.1357   142        2.1078        2.1606   191527    2.50%
  12590  8007        2.1096   131        2.1078        2.1606   200422    2.50%
  12822  8216        2.1438   123        2.1078        2.1606   206360    2.50%
  13114  8464        cutoff              2.1078        2.1606   211521    2.50%
  13547  8786        2.1438   135        2.1078        2.1606   217867    2.50%
  13595  8826        2.1438   127        2.1078        2.1606   219745    2.50%
Elapsed time = 107.12 sec. (78337.75 ticks, tree = 83.91 MB, solutions = 13)
  13948  9126        2.1243   142        2.1078        2.1606   223846    2.50%
* 14064+ 9232                            2.1087        2.1606   224650    2.46%
* 14311+ 9210                            2.1087        2.1606   228376    2.46%
  14311  9212        2.1585   152        2.1087        2.1606   228376    2.46%
  14700  9546        2.1188   124        2.1087        2.1606   234265    2.46%
  15170  9920        2.1578   148        2.1087        2.1606   239068    2.46%
  15711 10316        2.1241   144        2.1087        2.1606   242888    2.46%
  16146 10689        2.1563   153        2.1087        2.1606   247708    2.46%
  16599 11114        2.1606   165        2.1087        2.1606   252417    2.46%
* 16629+11140                            2.1130        2.1606   252491    2.25%
* 16629+11140                            2.1164        2.1606   252491    2.09%
  16629 11142        2.1574   143        2.1164        2.1606   252491    2.09%
  16735  9686        2.1357   123        2.1164        2.1606   254529    2.09%
  17173 10044        2.1235   132        2.1164        2.1606   260703    2.09%
Elapsed time = 139.18 sec. (99065.99 ticks, tree = 95.23 MB, solutions = 19)
  17441 10223        2.1357   132        2.1164        2.1606   269172    2.09%
  17994 10531        2.1276   105        2.1164        2.1606   275658    2.09%
  18368 10838        2.1342   130        2.1164        2.1606   283088    2.09%
  18582 11035        2.1258   147        2.1164        2.1606   288287    2.09%
  18827 11262        2.1465   147        2.1164        2.1606   295876    2.09%
  19226 11617        2.1371   111        2.1164        2.1606   300507    2.09%
  19494 11867        2.1371   117        2.1164        2.1606   307439    2.09%
  19811 12153        2.1371   131        2.1164        2.1606   316204    2.09%
  20174 12481        2.1371   122        2.1164        2.1606   322177    2.09%
  20668 12901        2.1414   142        2.1164        2.1606   330006    2.09%
Elapsed time = 153.01 sec. (108696.76 ticks, tree = 123.27 MB, solutions = 19)
  21068 13271        2.1263   143        2.1164        2.1606   335763    2.09%
  21250 13439        2.1578   148        2.1164        2.1606   338267    2.09%
  21579 13732        cutoff              2.1164        2.1606   342794    2.09%
  22014 14114        cutoff              2.1164        2.1606   349264    2.09%
  22410 14500        2.1474   136        2.1164        2.1606   353899    2.09%
  22832 14855        2.1171   128        2.1164        2.1606   360028    2.09%
  23118 15050        2.1510   149        2.1164        2.1606   366948    2.09%
  23463 15363        2.1355   144        2.1164        2.1606   373714    2.09%
  23930 15782        2.1291   120        2.1164        2.1606   380786    2.09%
  25797 17201        2.1325   147        2.1164        2.1606   403451    2.09%
Elapsed time = 170.94 sec. (121386.84 ticks, tree = 165.46 MB, solutions = 19)
  27268 18228        2.1476   140        2.1164        2.1606   429795    2.09%
  29644 20110        2.1230   122        2.1164        2.1606   448533    2.09%
  31665 21545        2.1340   139        2.1164        2.1606   468871    2.09%
  32894 22696        2.1244   106        2.1164        2.1606   490180    2.09%
  35130 24447        2.1370   141        2.1164        2.1606   515438    2.09%
* 36819+26030                            2.1164        2.1606   534208    2.09%
  37172 26356        2.1489   146        2.1164        2.1606   537246    2.09%
  38672 27567        2.1197    96        2.1164        2.1606   560196    2.09%
  40472 29160        2.1403   124        2.1164        2.1606   593251    2.09%
  41942 30297        2.1257   107        2.1164        2.1606   614522    2.09%
  43532 31371        2.1173   153        2.1164        2.1606   644506    2.09%
Elapsed time = 229.36 sec. (163183.01 ticks, tree = 302.64 MB, solutions = 19)
* 43977 31704      integral     0        2.1166        2.1606   650194    2.08%
  44151 31331        2.1169   145        2.1166        2.1606   652463    2.08%
  46358 33295        2.1173   145        2.1166        2.1606   677523    2.08%
  48253 35094        2.1468   137        2.1166        2.1606   693435    2.08%
  50154 36864        2.1476   138        2.1166        2.1606   716566    2.08%
  51804 38422        2.1323   106        2.1166        2.1606   731243    2.08%
  53431 39984        2.1505   145        2.1166        2.1606   750708    2.08%
  55430 41730        2.1365   144        2.1166        2.1606   765869    2.08%
  57525 43739        2.1167   136        2.1166        2.1606   784198    2.08%
  58772 44918        2.1312   113        2.1166        2.1606   800241    2.08%
Elapsed time = 279.29 sec. (199656.79 ticks, tree = 434.75 MB, solutions = 20)
  60600 46668        2.1359   131        2.1166        2.1606   821597    2.08%
* 62021+47975                            2.1166        2.1606   843444    2.08%
  62148 48104        2.1470   140        2.1166        2.1606   844015    2.08%
  63522 49356        2.1173   106        2.1166        2.1606   866062    2.08%
  64401 50185        2.1481   138        2.1166        2.1606   879408    2.08%
  66307 51889        2.1476   144        2.1166        2.1606   898386    2.08%
  67924 53439        2.1578   151        2.1166        2.1606   916749    2.08%
  69517 54995        2.1428   129        2.1166        2.1606   933958    2.08%
  70315 55746        2.1454   148        2.1166        2.1606   940165    2.08%
  71738 57091        2.1328   115        2.1166        2.1606   954512    2.08%
  73422 58609        cutoff              2.1166        2.1606   973379    2.08%
Elapsed time = 333.57 sec. (237858.59 ticks, tree = 566.50 MB, solutions = 20)
  75306 60292        2.1450   133        2.1166        2.1606   992594    2.08%
  77465 62301        2.1451   138        2.1166        2.1606  1008332    2.08%
  78866 63633        2.1170   164        2.1166        2.1606  1025198    2.08%
  81092 65433        2.1577   144        2.1166        2.1606  1043713    2.08%
  82440 66704        2.1188   103        2.1166        2.1606  1065488    2.08%
  84537 68716        2.1171   141        2.1166        2.1606  1081891    2.08%
  86746 70821        2.1173   144        2.1166        2.1606  1099460    2.08%
  88725 72668        2.1262   132        2.1166        2.1606  1115435    2.08%
  90428 74214        2.1502   149        2.1166        2.1606  1132732    2.08%
  91518 75213        2.1439   146        2.1166        2.1606  1150166    2.08%
Elapsed time = 388.47 sec. (276198.12 ticks, tree = 729.15 MB, solutions = 20)
  92504 76035        2.1167   143        2.1166        2.1606  1159334    2.08%
  94453 77808        2.1479   139        2.1166        2.1606  1176446    2.08%
  95868 79121        2.1457   133        2.1166        2.1606  1194408    2.08%
  97467 80618        2.1286   147        2.1166        2.1606  1213069    2.08%
  98966 82065        2.1335   151        2.1166        2.1606  1228135    2.08%
 100853 83919        2.1405   141        2.1166        2.1606  1243830    2.08%
 102557 85547        2.1500   151        2.1166        2.1606  1260846    2.08%
 104368 87236        2.1578   152        2.1166        2.1606  1275425    2.08%
 105649 88383        2.1335   140        2.1166        2.1606  1286878    2.08%
 107236 89905        2.1182   152        2.1166        2.1606  1301267    2.08%
Elapsed time = 445.00 sec. (315398.71 ticks, tree = 871.40 MB, solutions = 20)
 108403 90910        2.1254   152        2.1166        2.1606  1321318    2.08%
 109538 91957        2.1216   139        2.1166        2.1606  1339739    2.08%
 110416 92683        2.1350   153        2.1166        2.1606  1356149    2.08%
 111431 93520        2.1380   162        2.1166        2.1606  1375478    2.08%
 112850 94764        2.1167   140        2.1166        2.1606  1393319    2.08%
 113670 95495        2.1259   124        2.1166        2.1606  1406818    2.08%
 114826 96544        2.1530   156        2.1166        2.1606  1424533    2.08%
 115977 97592        2.1481   155        2.1166        2.1606  1440769    2.08%
 116875 98371        2.1312   141        2.1166        2.1606  1458069    2.08%
 117586 99042        2.1182   132        2.1166        2.1606  1485687    2.08%
Elapsed time = 499.81 sec. (353864.90 ticks, tree = 959.45 MB, solutions = 20)
 118621 99981        2.1462   138        2.1166        2.1606  1504466    2.08%
 119486 100709        2.1312   135        2.1166        2.1606  1529682    2.08%
 120662 101684        2.1479   137        2.1166        2.1606  1549099    2.08%
 121408 102321        2.1462   129        2.1166        2.1606  1565947    2.08%
 122264 103070        2.1460   149        2.1166        2.1606  1585032    2.08%
 123597 104314        2.1458   134        2.1166        2.1606  1601257    2.08%
 124299 104933        2.1469   158        2.1166        2.1606  1610003    2.08%
 125419 105922        2.1323   134        2.1166        2.1606  1626930    2.08%
 126545 106870        2.1168   137        2.1166        2.1606  1644654    2.08%
 127611 107769        2.1175   130        2.1166        2.1606  1661811    2.08%
Elapsed time = 556.58 sec. (393105.70 ticks, tree = 1043.85 MB, solutions = 20)
 127932 108062        2.1312   144        2.1166        2.1606  1675899    2.08%
 128821 108809        2.1180   131        2.1166        2.1606  1702515    2.08%
 130282 110226        2.1475   145        2.1166        2.1606  1718484    2.08%
 131362 111222        2.1175   146        2.1166        2.1606  1736601    2.08%
 132606 112372        2.1323   136        2.1166        2.1606  1753777    2.08%
 133786 113439        2.1167   142        2.1166        2.1606  1770199    2.08%
 134872 114434        2.1337   149        2.1166        2.1606  1787443    2.08%
 135874 115322        2.1581   168        2.1166        2.1606  1807004    2.08%
 136785 116172        2.1180   112        2.1166        2.1606  1826070    2.08%
 137599 116880        2.1328   167        2.1166        2.1606  1846630    2.08%
Elapsed time = 611.66 sec. (431604.29 ticks, tree = 1132.96 MB, solutions = 20)
 138509 117742        2.1467   148        2.1166        2.1606  1867605    2.08%
 139549 118644        2.1172   144        2.1166        2.1606  1884223    2.08%
 140585 119588        2.1459   163        2.1166        2.1606  1904069    2.08%
 141567 120482        2.1456   146        2.1166        2.1606  1924081    2.08%
 142492 121310        2.1322   148        2.1166        2.1606  1945105    2.08%
 143245 122002        2.1309   144        2.1166        2.1606  1961036    2.08%
 144102 122801        2.1171   124        2.1166        2.1606  1982568    2.08%
 145069 123721        2.1183   132        2.1166        2.1606  1996510    2.08%
 146570 125146        2.1170   140        2.1166        2.1606  2013420    2.08%
 147831 126335        2.1495   151        2.1166        2.1606  2031666    2.08%
Elapsed time = 669.05 sec. (471439.72 ticks, tree = 1226.72 MB, solutions = 20)
 148899 127361        2.1302   131        2.1166        2.1606  2049663    2.08%
 150282 128621        2.1476   143        2.1166        2.1606  2067333    2.08%
 152041 130273        2.1498   146        2.1166        2.1606  2083559    2.08%
 153730 131953        2.1606   152        2.1166        2.1606  2098430    2.08%
 154582 132746        2.1335   155        2.1166        2.1606  2107547    2.08%
 155543 133596        2.1210   145        2.1166        2.1606  2125291    2.08%
 156232 134240        2.1501   155        2.1166        2.1606  2146370    2.08%
 157403 135334        2.1454   143        2.1166        2.1606  2161250    2.08%
 158710 136599        2.1439   149        2.1166        2.1606  2178311    2.08%
 160025 137861        2.1172   143        2.1166        2.1606  2194008    2.08%
Elapsed time = 723.65 sec. (510395.44 ticks, tree = 1346.70 MB, solutions = 20)
 161440 139156        2.1235   121        2.1166        2.1606  2210200    2.08%
 162543 140064        2.1504   156        2.1166        2.1606  2230167    2.08%
 163455 140939        2.1505   156        2.1166        2.1606  2245981    2.08%
 164056 141525        2.1227   149        2.1166        2.1606  2258388    2.08%
 164815 142196        2.1606   147        2.1166        2.1606  2274405    2.08%
 165976 143256        2.1198   100        2.1166        2.1606  2295274    2.08%
 167187 144316        2.1439   148        2.1166        2.1606  2308611    2.08%
 168175 145262        2.1341   153        2.1166        2.1606  2325996    2.08%
 168959 146007        2.1496   170        2.1166        2.1606  2348826    2.08%
 170006 146934        2.1176   171        2.1166        2.1606  2369057    2.08%
Elapsed time = 778.29 sec. (548771.59 ticks, tree = 1445.86 MB, solutions = 20)
 170883 147685        2.1534   164        2.1166        2.1606  2381721    2.08%
 171908 148620        2.1168   151        2.1166        2.1606  2404456    2.08%
 172962 149642        2.1491   154        2.1166        2.1606  2419206    2.08%
 173901 150544        2.1359   161        2.1166        2.1606  2435169    2.08%
 174909 151443        cutoff              2.1166        2.1606  2455810    2.08%
 175595 152046        2.1259   136        2.1166        2.1606  2479104    2.08%
 176631 152998        2.1335   143        2.1166        2.1606  2497010    2.08%
 177638 153974        2.1168   152        2.1166        2.1606  2510840    2.08%
 179015 155250        2.1476   156        2.1166        2.1606  2528973    2.08%
 180246 156394        2.1329   153        2.1166        2.1606  2546959    2.08%
Elapsed time = 834.98 sec. (587444.05 ticks, tree = 1551.06 MB, solutions = 20)
 181623 157696        2.1606   202        2.1166        2.1606  2564754    2.08%
 182809 158852        2.1578   189        2.1166        2.1606  2579461    2.08%
 183781 159780        2.1228   120        2.1166        2.1606  2599222    2.08%
 185080 161022        2.1584   175        2.1166        2.1606  2615538    2.08%
 186145 162047        2.1606   219        2.1166        2.1606  2631336    2.08%
 187088 162971        2.1386   135        2.1166        2.1606  2649274    2.08%
 187725 163542        2.1606   207        2.1166        2.1606  2671791    2.08%
 188793 164563        2.1486   169        2.1166        2.1606  2691950    2.08%
 189711 165377        2.1500   155        2.1166        2.1606  2707867    2.08%
 190007 165656        2.1606   179        2.1166        2.1606  2716156    2.08%
Elapsed time = 891.01 sec. (626063.81 ticks, tree = 1662.29 MB, solutions = 20)
 191002 166617        2.1296   172        2.1166        2.1606  2734735    2.08%
 191302 166886        2.1233   152        2.1166        2.1606  2744659    2.08%
 192287 167846        2.1338   127        2.1166        2.1606  2760905    2.08%
 193448 168987        2.1470   156        2.1166        2.1606  2776400    2.08%
 194364 169857        2.1383   195        2.1166        2.1606  2795098    2.08%
 195358 170822        2.1464   150        2.1166        2.1606  2810671    2.08%
 196437 171849        2.1489   156        2.1166        2.1606  2826851    2.08%
 197353 172747        2.1500   157        2.1166        2.1606  2847266    2.08%
 198225 173531        2.1369   143        2.1166        2.1606  2864427    2.08%
 199032 174187        2.1269   139        2.1166        2.1606  2883527    2.08%
Elapsed time = 948.14 sec. (665104.31 ticks, tree = 1783.83 MB, solutions = 20)
 199851 174932        2.1335   151        2.1166        2.1606  2898977    2.08%
 200495 175549        2.1326   117        2.1166        2.1606  2921993    2.08%
 201008 176040        2.1606   225        2.1166        2.1606  2938616    2.08%
 201789 176778        2.1538   160        2.1166        2.1606  2955146    2.08%
 202669 177605        2.1173   155        2.1166        2.1606  2976398    2.08%
 203531 178463        2.1486   147        2.1166        2.1606  3001605    2.08%
 204146 179062        2.1366   139        2.1166        2.1606  3022892    2.08%
 205338 180045        2.1606   221        2.1166        2.1606  3042411    2.08%
 206046 180700        2.1439   161        2.1166        2.1606  3055040    2.08%
 206639 181250        2.1602   199        2.1166        2.1606  3069706    2.08%
Elapsed time = 1007.29 sec. (704908.62 ticks, tree = 1902.89 MB, solutions = 20)
 207444 181949        2.1534   162        2.1166        2.1606  3084047    2.08%
 208048 182487        2.1462   169        2.1166        2.1606  3100747    2.08%
 208618 183027        2.1553   199        2.1166        2.1606  3119285    2.08%
 209222 183614        2.1606   248        2.1166        2.1606  3135191    2.08%
 209420 183810        2.1474   164        2.1166        2.1606  3147190    2.08%
 210003 184375        2.1187   176        2.1166        2.1606  3160534    2.08%
 210810 185168        2.1476   153        2.1166        2.1606  3174937    2.08%
 211431 185644        2.1500   163        2.1166        2.1606  3186972    2.08%
 211918 186080        2.1293   159        2.1166        2.1606  3200191    2.08%
 212690 186695        2.1184   153        2.1166        2.1606  3212705    2.08%
Elapsed time = 1064.43 sec. (743702.37 ticks, tree = 2006.44 MB, solutions = 20)
 213405 187402        2.1451   156        2.1166        2.1606  3225781    2.08%
 213851 187689        2.1512   175        2.1166        2.1606  3238785    2.08%
 214711 188535        2.1263   187        2.1166        2.1606  3258194    2.08%
 215417 189078        2.1606   199        2.1166        2.1606  3270676    2.08%
 215838 189470        2.1606   213        2.1166        2.1606  3283215    2.08%
 216338 189964        2.1602   233        2.1166        2.1606  3292683    2.08%
 217216 190810        2.1470   151        2.1166        2.1606  3308685    2.08%
 217821 191409        2.1500   158        2.1166        2.1606  3323727    2.08%
 218607 192185        2.1479   154        2.1166        2.1606  3336738    2.08%
 219021 192583        2.1173   158        2.1166        2.1606  3344762    2.08%
Elapsed time = 1126.90 sec. (784101.61 ticks, tree = 2133.74 MB, solutions = 20)
Nodefile size = 84.30 MB (32.80 MB after compression)
 219956 193509        2.1263   163        2.1166        2.1606  3356502    2.08%
 220434 193975        2.1274   150        2.1166        2.1606  3368686    2.08%
 220976 194468        2.1606   242        2.1166        2.1606  3380747    2.08%
 221449 194937        2.1606   253        2.1166        2.1606  3391770    2.08%
 222162 195637        2.1439   154        2.1166        2.1606  3405996    2.08%
 222546 195982        2.1530   189        2.1166        2.1606  3420695    2.08%
 223300 196691        2.1606   209        2.1166        2.1606  3436573    2.08%
 223502 196878        2.1600   187        2.1166        2.1606  3448171    2.08%
 224240 197606        2.1173   164        2.1166        2.1606  3461877    2.08%
 225134 198465        2.1606   223        2.1166        2.1606  3472240    2.08%
Elapsed time = 1192.57 sec. (823894.08 ticks, tree = 2273.91 MB, solutions = 20)
Nodefile size = 224.83 MB (96.27 MB after compression)
 225299 198622        2.1488   159        2.1166        2.1606  3486546    2.08%
 225659 198935        2.1606   252        2.1166        2.1606  3501315    2.08%
 226283 199520        2.1379   149        2.1166        2.1606  3515479    2.08%
 227008 200222        2.1257   122        2.1166        2.1606  3533091    2.08%
 227447 200631        2.1605   171        2.1166        2.1606  3548751    2.08%
 228050 201230        2.1173   164        2.1166        2.1606  3560209    2.08%
 228431 201606        2.1525   203        2.1166        2.1606  3573908    2.08%
 228782 201933        2.1381   171        2.1166        2.1606  3587727    2.08%
 229277 202401        2.1600   214        2.1166        2.1606  3599970    2.08%
 229689 202807        2.1482   155        2.1166        2.1606  3612078    2.08%
Elapsed time = 1260.46 sec. (863979.42 ticks, tree = 2387.04 MB, solutions = 20)
Nodefile size = 337.28 MB (140.56 MB after compression)
 230167 203262        2.1606   213        2.1166        2.1606  3622620    2.08%
 230541 203626        2.1599   221        2.1166        2.1606  3635765    2.08%
 231318 204215        2.1458   153        2.1166        2.1606  3649231    2.08%
 232182 204936        2.1500   161        2.1166        2.1606  3662232    2.08%
 232531 205281        2.1578   231        2.1166        2.1606  3675961    2.08%
 232710 205458        2.1600   226        2.1166        2.1606  3691075    2.08%
 233173 205921        2.1606   185        2.1166        2.1606  3700819    2.08%
 233731 206477        2.1476   193        2.1166        2.1606  3716429    2.08%
 234024 206761        2.1470   164        2.1166        2.1606  3722196    2.08%
 234624 207357        2.1578   170        2.1166        2.1606  3734839    2.08%
Elapsed time = 1330.12 sec. (908014.24 ticks, tree = 2512.36 MB, solutions = 20)
Nodefile size = 462.83 MB (199.35 MB after compression)
 235216 207947        2.1600   259        2.1166        2.1606  3746851    2.08%
 235631 208354        2.1445   151        2.1166        2.1606  3758014    2.08%
 235960 208663        2.1500   159        2.1166        2.1606  3768612    2.08%
 236349 209045        2.1429   158        2.1166        2.1606  3779231    2.08%
 236554 209238        2.1470   157        2.1166        2.1606  3791791    2.08%
 237073 209736        2.1477   158        2.1166        2.1606  3801437    2.08%
 237461 210104        2.1543   264        2.1166        2.1606  3812997    2.08%
 237663 210284        2.1468   159        2.1166        2.1606  3820282    2.08%
 237847 210456        2.1520   259        2.1166        2.1606  3832135    2.08%
 238380 210979        2.1606   198        2.1166        2.1606  3844875    2.08%
Elapsed time = 1397.57 sec. (948488.72 ticks, tree = 2616.29 MB, solutions = 20)
Nodefile size = 563.33 MB (242.67 MB after compression)
 238724 211319        2.1471   153        2.1166        2.1606  3855583    2.08%
 239332 211899        2.1265   132        2.1166        2.1606  3869773    2.08%
 239763 212326        2.1500   150        2.1166        2.1606  3883057    2.08%
 240378 212923        2.1476   150        2.1166        2.1606  3895641    2.08%
 240826 213366        2.1466   159        2.1166        2.1606  3908209    2.08%
 241125 213661        cutoff              2.1166        2.1606  3924065    2.08%
 241561 214077        2.1606   220        2.1166        2.1606  3940403    2.08%
 241954 214469        2.1480   155        2.1166        2.1606  3953899    2.08%
 242350 214843        2.1345   254        2.1166        2.1606  3967166    2.08%
 242921 215375        2.1212   121        2.1166        2.1606  3981865    2.08%
Elapsed time = 1472.95 sec. (992080.22 ticks, tree = 2753.29 MB, solutions = 20)
Nodefile size = 702.28 MB (308.50 MB after compression)
 243382 215794        cutoff              2.1166        2.1606  3999559    2.08%
 244014 216401        2.1604   198        2.1166        2.1606  4015803    2.08%
 244799 217164        2.1177   149        2.1166        2.1606  4030030    2.08%
 245302 217601        2.1562   236        2.1166        2.1606  4048094    2.08%
 246011 218206        2.1309   139        2.1166        2.1606  4064381    2.08%
 246421 218597        2.1578   175        2.1166        2.1606  4078359    2.08%
 246839 219015        2.1578   185        2.1166        2.1606  4090301    2.08%
 247353 219523        2.1578   168        2.1166        2.1606  4105656    2.08%
 247894 220046        2.1263   199        2.1166        2.1606  4120810    2.08%
 248605 220741        2.1262   182        2.1166        2.1606  4136357    2.08%
Elapsed time = 1549.71 sec. (1033279.43 ticks, tree = 2923.84 MB, solutions = 20)
Nodefile size = 873.53 MB (397.19 MB after compression)
 249031 221154        2.1177   170        2.1166        2.1606  4145731    2.08%
 249534 221633        2.1500   167        2.1166        2.1606  4158830    2.08%
 249804 221893        2.1595   189        2.1166        2.1606  4173692    2.08%
 250170 222251        2.1606   193        2.1166        2.1606  4189764    2.08%
 250650 222626        2.1406   141        2.1166        2.1606  4205296    2.08%
 251118 223066        2.1387   163        2.1166        2.1606  4224760    2.08%
 251520 223442        2.1504   173        2.1166        2.1606  4242435    2.08%
 252034 223952        2.1184   239        2.1166        2.1606  4260033    2.08%
 252476 224367        2.1508   153        2.1166        2.1606  4272085    2.08%
 252809 224694        2.1482   156        2.1166        2.1606  4289303    2.08%
Elapsed time = 1620.97 sec. (1075189.78 ticks, tree = 3048.63 MB, solutions = 20)
Nodefile size = 997.76 MB (468.43 MB after compression)
 253480 225342        2.1606   236        2.1166        2.1606  4303211    2.08%
 254340 226194        2.1177   162        2.1166        2.1606  4318439    2.08%
 254660 226474        2.1246   138        2.1166        2.1606  4333356    2.08%
 255025 226835        2.1263   232        2.1166        2.1606  4349739    2.08%
 255572 227366        2.1386   227        2.1166        2.1606  4369027    2.08%
 256232 228006        2.1529   199        2.1166        2.1606  4388445    2.08%
 256558 228171        2.1171   183        2.1166        2.1606  4399196    2.08%
 257067 228647        2.1599   199        2.1166        2.1606  4412372    2.08%
 257325 228903        2.1177   160        2.1166        2.1606  4426153    2.08%
 258016 229592        2.1476   194        2.1166        2.1606  4441888    2.08%
Elapsed time = 1692.70 sec. (1116293.18 ticks, tree = 3203.22 MB, solutions = 20)
Nodefile size = 1152.26 MB (563.04 MB after compression)
 258438 229982        2.1486   165        2.1166        2.1606  4465688    2.08%
 258834 230372        2.1578   180        2.1166        2.1606  4481493    2.08%
 259586 231116        2.1606   255        2.1166        2.1606  4496959    2.08%
 259914 231415        2.1172   158        2.1166        2.1606  4512028    2.08%
 260473 231951        2.1476   156        2.1166        2.1606  4528033    2.08%
 260710 232174        2.1476   148        2.1166        2.1606  4532342    2.08%
 261243 232692        2.1578   191        2.1166        2.1606  4549268    2.08%
 261671 233118        2.1536   252        2.1166        2.1606  4568842    2.08%
 262267 233702        2.1433   152        2.1166        2.1606  4584496    2.08%
 262732 234072        2.1454   152        2.1166        2.1606  4595815    2.08%
Elapsed time = 1768.71 sec. (1159874.19 ticks, tree = 3346.52 MB, solutions = 20)
Nodefile size = 1296.76 MB (641.12 MB after compression)
 263299 234599        2.1570   161        2.1166        2.1606  4612325    2.08%
 263565 234861        2.1335   151        2.1166        2.1606  4626501    2.08%
 264216 235508        2.1600   173        2.1166        2.1606  4639410    2.08%
 264856 236120        2.1500   172        2.1166        2.1606  4654794    2.08%
 265837 237096        2.1578   166        2.1166        2.1606  4668804    2.08%
 266365 237622        2.1570   182        2.1166        2.1606  4681649    2.08%
 266693 237876        2.1470   168        2.1166        2.1606  4689703    2.08%
 267250 238421        2.1177   153        2.1166        2.1606  4704887    2.08%
 267939 239108        2.1606   212        2.1166        2.1606  4717336    2.08%
 268275 239423        2.1606   224        2.1166        2.1606  4731969    2.08%
Elapsed time = 1838.70 sec. (1198786.48 ticks, tree = 3515.94 MB, solutions = 20)
Nodefile size = 1465.82 MB (745.94 MB after compression)
 268623 239752        2.1385   125        2.1166        2.1606  4754338    2.08%
 269156 240272        2.1464   154        2.1166        2.1606  4760677    2.08%
 269676 240740        2.1476   200        2.1166        2.1606  4778739    2.08%
 270410 241404        2.1600   227        2.1166        2.1606  4793130    2.08%
 270870 241850        2.1494   162        2.1166        2.1606  4810957    2.08%
 271240 242065        2.1263   254        2.1166        2.1606  4826865    2.08%
 271609 242408        2.1288   138        2.1166        2.1606  4846172    2.08%
 271778 242548        2.1463   287        2.1166        2.1606  4860832    2.08%
 272335 243096        2.1500   153        2.1166        2.1606  4876472    2.08%
 272767 243511        2.1606   256        2.1166        2.1606  4889271    2.08%
Elapsed time = 1909.01 sec. (1239423.04 ticks, tree = 3645.50 MB, solutions = 20)
Nodefile size = 1595.75 MB (838.07 MB after compression)
 273348 244086        2.1296   118        2.1166        2.1606  4902377    2.08%
 273902 244612        2.1439   147        2.1166        2.1606  4915595    2.08%
*273990+244692                            2.1168        2.1606  4916259    2.07%
*274339+237215                            2.1168        2.1606  4924379    2.07%
 274383 237261        2.1494   171        2.1168        2.1606  4927152    2.07%
 274790 237657        2.1455   165        2.1168        2.1606  4941140    2.07%
 275429 238290        2.1420   156        2.1168        2.1606  4954096    2.07%
 275816 238674        2.1378   126        2.1168        2.1606  4962260    2.07%
 276083 238931        2.1538   242        2.1168        2.1606  4979400    2.07%
 276448 239255        2.1349   133        2.1168        2.1606  4992014    2.07%
 277070 239838        2.1213   122        2.1168        2.1606  5005226    2.07%
 277467 240225        2.1599   187        2.1168        2.1606  5016234    2.07%
Elapsed time = 1978.71 sec. (1280079.46 ticks, tree = 3696.93 MB, solutions = 21)
Nodefile size = 1647.40 MB (893.09 MB after compression)
 278155 240865        2.1335   152        2.1168        2.1606  5028576    2.07%
 278482 241188        2.1570   198        2.1168        2.1606  5040571    2.07%
 279133 241830        2.1331   167        2.1168        2.1606  5055195    2.07%
 279669 242354        2.1439   152        2.1168        2.1606  5065149    2.07%
 280139 242775        2.1170   165        2.1168        2.1606  5075796    2.07%
 280504 243136        2.1568   169        2.1168        2.1606  5087900    2.07%
 280820 243450        2.1600   239        2.1168        2.1606  5102866    2.07%
 281344 243974        2.1451   148        2.1168        2.1606  5114827    2.07%
 281743 244369        2.1479   150        2.1168        2.1606  5127114    2.07%
 281907 244533        2.1528   172        2.1168        2.1606  5134302    2.07%
Elapsed time = 2045.30 sec. (1319718.15 ticks, tree = 3833.65 MB, solutions = 21)
Nodefile size = 1783.34 MB (984.39 MB after compression)
 282457 245068        2.1578   162        2.1168        2.1606  5150043    2.07%
 283191 245792        2.1606   171        2.1168        2.1606  5161586    2.07%
 283293 245893        2.1385   187        2.1168        2.1606  5174540    2.07%
 283534 246105        2.1493   165        2.1168        2.1606  5187470    2.07%
 283793 246361        2.1356   163        2.1168        2.1606  5198114    2.07%
 284190 246755        2.1423   169        2.1168        2.1606  5210790    2.07%
 284524 247084        2.1508   169        2.1168        2.1606  5221152    2.07%
 284978 247534        2.1472   149        2.1168        2.1606  5233175    2.07%
 285274 247822        2.1600   196        2.1168        2.1606  5248145    2.07%
 285771 248305        2.1527   197        2.1168        2.1606  5261705    2.07%
Elapsed time = 2108.88 sec. (1358371.37 ticks, tree = 3952.72 MB, solutions = 21)
Nodefile size = 1902.51 MB (1075.62 MB after compression)
 286212 248742        2.1451   140        2.1168        2.1606  5274716    2.07%
 286623 249143        2.1578   179        2.1168        2.1606  5290253    2.07%
 287145 249665        2.1578   147        2.1168        2.1606  5302076    2.07%
 287532 250046        2.1600   230        2.1168        2.1606  5314048    2.07%
 287953 250455        2.1394   199        2.1168        2.1606  5328962    2.07%
 288466 250960        2.1408   161        2.1168        2.1606  5344015    2.07%
 288774 251258        2.1343   158        2.1168        2.1606  5356573    2.07%
 289391 251870        2.1500   147        2.1168        2.1606  5370945    2.07%
 289641 252120        2.1411   228        2.1168        2.1606  5385765    2.07%
 290242 252718        2.1476   163        2.1168        2.1606  5395751    2.07%
Elapsed time = 2175.54 sec. (1398717.71 ticks, tree = 4090.56 MB, solutions = 21)
Nodefile size = 2038.13 MB (1169.51 MB after compression)
 290541 253003        2.1311   155        2.1168        2.1606  5402184    2.07%
 290941 253350        2.1385   155        2.1168        2.1606  5415919    2.07%
 291338 253666        2.1288   144        2.1168        2.1606  5428733    2.07%
 291639 253944        2.1500   156        2.1168        2.1606  5444251    2.07%
 292005 254295        2.1529   185        2.1168        2.1606  5458127    2.07%
 292481 254767        2.1578   161        2.1168        2.1606  5470775    2.07%
 293173 255445        2.1425   135        2.1168        2.1606  5484935    2.07%
 293588 255850        2.1606   169        2.1168        2.1606  5499128    2.07%
 294166 256405        2.1442   160        2.1168        2.1606  5512532    2.07%
 294800 257014        2.1423   153        2.1168        2.1606  5523276    2.07%
Elapsed time = 2241.91 sec. (1437090.55 ticks, tree = 4226.41 MB, solutions = 21)
Nodefile size = 2174.25 MB (1262.68 MB after compression)
 295250 257444        2.1288   141        2.1168        2.1606  5531389    2.07%
 295518 257702        2.1600   203        2.1168        2.1606  5540389    2.07%
 296000 258111        2.1606   166        2.1168        2.1606  5553813    2.07%
 296696 258790        2.1327   142        2.1168        2.1606  5567337    2.07%
 297262 259329        2.1362   219        2.1168        2.1606  5586172    2.07%
 297785 259788        2.1606   237        2.1168        2.1606  5603189    2.07%
 298163 260144        2.1500   166        2.1168        2.1606  5616060    2.07%
 298547 260519        2.1500   151        2.1168        2.1606  5628410    2.07%
 299063 261033        2.1499   156        2.1168        2.1606  5636088    2.07%
 299759 261685        cutoff              2.1168        2.1606  5651029    2.07%
Elapsed time = 2315.20 sec. (1479597.64 ticks, tree = 4375.79 MB, solutions = 21)
Nodefile size = 2324.74 MB (1375.38 MB after compression)
 300270 262182        2.1439   146        2.1168        2.1606  5665088    2.07%
 300614 262504        2.1606   265        2.1168        2.1606  5680774    2.07%
 301093 262968        2.1335   161        2.1168        2.1606  5693989    2.07%
 301683 263546        2.1426   165        2.1168        2.1606  5706145    2.07%
 302242 264101        2.1337   239        2.1168        2.1606  5719465    2.07%
 302730 264554        2.1512   168        2.1168        2.1606  5730406    2.07%
 302992 264790        2.1578   224        2.1168        2.1606  5743972    2.07%
 303329 265119        2.1483   159        2.1168        2.1606  5756949    2.07%
 303611 265399        2.1476   215        2.1168        2.1606  5769339    2.07%
 304306 266075        cutoff              2.1168        2.1606  5786019    2.07%
Elapsed time = 2380.27 sec. (1518689.08 ticks, tree = 4514.52 MB, solutions = 21)
Nodefile size = 2457.59 MB (1469.17 MB after compression)
 304490 266246        2.1606   243        2.1168        2.1606  5795724    2.07%
 304917 266622        2.1496   161        2.1168        2.1606  5808722    2.07%
 305495 267177        2.1302   148        2.1168        2.1606  5823699    2.07%
 305785 267453        2.1578   172        2.1168        2.1606  5837768    2.07%
 306368 268034        2.1510   181        2.1168        2.1606  5849754    2.07%
 306726 268383        2.1578   195        2.1168        2.1606  5865096    2.07%
 307053 268690        2.1486   144        2.1168        2.1606  5882660    2.07%
 307364 268985        2.1500   160        2.1168        2.1606  5892315    2.07%
 308077 269516        2.1169   154        2.1168        2.1606  5905522    2.07%
 308661 270077        2.1518   184        2.1168        2.1606  5919771    2.07%
Elapsed time = 2443.87 sec. (1558115.99 ticks, tree = 4639.05 MB, solutions = 21)
Nodefile size = 2584.92 MB (1558.68 MB after compression)
 309150 270547        2.1225   161        2.1168        2.1606  5936896    2.07%
 309537 270922        2.1529   195        2.1168        2.1606  5953950    2.07%
 310049 271430        cutoff              2.1168        2.1606  5971818    2.07%
 310498 271877        2.1506   151        2.1168        2.1606  5986479    2.07%
 310960 272337        2.1572   191        2.1168        2.1606  6003878    2.07%
*311414+272758                            2.1177        2.1606  6017073    2.02%
 311551 272897        2.1523   179        2.1177        2.1606  6020081    2.02%
*312029+249473                            2.1177        2.1606  6031889    2.02%
 312063 249509        2.1606   229        2.1177        2.1606  6033404    2.02%
 312563 249981        2.1370   139        2.1177        2.1606  6047259    2.02%
 312931 250321        2.1606   193        2.1177        2.1606  6059371    2.02%
 313698 251080        2.1455   142        2.1177        2.1606  6071354    2.02%
Elapsed time = 2511.68 sec. (1600642.77 ticks, tree = 4475.45 MB, solutions = 22)
Nodefile size = 2421.30 MB (1515.22 MB after compression)
 314049 251421        2.1420   187        2.1177        2.1606  6084278    2.02%
 314672 252024        2.1216   160        2.1177        2.1606  6102152    2.02%
 314773 252119        2.1520   184        2.1177        2.1606  6106657    2.02%
 315116 252446        2.1606   184        2.1177        2.1606  6114819    2.02%
 315435 252761        2.1528   206        2.1177        2.1606  6132230    2.02%
 315864 253180        2.1420   214        2.1177        2.1606  6147018    2.02%
 316625 253918        2.1486   179        2.1177        2.1606  6170158    2.02%
 317234 254476        2.1496   195        2.1177        2.1606  6187330    2.02%
 317900 255132        2.1500   154        2.1177        2.1606  6204702    2.02%
 318468 255696        2.1487   162        2.1177        2.1606  6220439    2.02%
Elapsed time = 2580.47 sec. (1641665.43 ticks, tree = 4624.80 MB, solutions = 22)
Nodefile size = 2573.03 MB (1620.55 MB after compression)
 318979 256203        2.1456   146        2.1177        2.1606  6239263    2.02%
 319443 256665        2.1456   139        2.1177        2.1606  6258402    2.02%
 320070 257266        2.1429   193        2.1177        2.1606  6279228    2.02%
 320699 257794        2.1491   145        2.1177        2.1606  6295494    2.02%
 321348 258423        2.1537   230        2.1177        2.1606  6320890    2.02%
 321450 258518        2.1600   253        2.1177        2.1606  6337313    2.02%
 321941 258990        2.1606   241        2.1177        2.1606  6356198    2.02%
 322375 259415        2.1600   198        2.1177        2.1606  6370580    2.02%
 322853 259893        2.1572   182        2.1177        2.1606  6384740    2.02%
 323258 260296        2.1606   171        2.1177        2.1606  6402788    2.02%
Elapsed time = 2657.52 sec. (1685193.92 ticks, tree = 4769.78 MB, solutions = 22)
Nodefile size = 2717.30 MB (1724.27 MB after compression)
 323574 260608        2.1429   201        2.1177        2.1606  6420460    2.02%
 324068 261052        2.1204   142        2.1177        2.1606  6439718    2.02%
 324220 261189        2.1434   196        2.1177        2.1606  6456342    2.02%
 325004 261956        2.1571   180        2.1177        2.1606  6473509    2.02%
 325301 262226        2.1433   177        2.1177        2.1606  6492471    2.02%
 326102 262986        cutoff              2.1177        2.1606  6507327    2.02%
 326946 263808        2.1383   172        2.1177        2.1606  6522593    2.02%
 327219 264081        2.1461   285        2.1177        2.1606  6537487    2.02%
 327667 264523        cutoff              2.1177        2.1606  6552245    2.02%
 328265 265115        2.1606   194        2.1177        2.1606  6568460    2.02%
Elapsed time = 2728.63 sec. (1727907.40 ticks, tree = 4922.43 MB, solutions = 22)
Nodefile size = 2870.34 MB (1845.78 MB after compression)
 328941 265789        2.1335   106        2.1177        2.1606  6585755    2.02%
 329634 266441        2.1339   226        2.1177        2.1606  6601607    2.02%
 329725 266519        2.1603   185        2.1177        2.1606  6616378    2.02%
 330508 267268        cutoff              2.1177        2.1606  6635421    2.02%
 330930 267684        2.1495   153        2.1177        2.1606  6649356    2.02%
 331601 268289        2.1356   161        2.1177        2.1606  6671127    2.02%
 332367 269025        2.1288   152        2.1177        2.1606  6687593    2.02%
 333030 269669        2.1430   183        2.1177        2.1606  6706497    2.02%
 333516 270141        2.1578   173        2.1177        2.1606  6722150    2.02%
 334144 270757        2.1187   175        2.1177        2.1606  6737191    2.02%
Elapsed time = 2799.64 sec. (1766696.19 ticks, tree = 5101.68 MB, solutions = 22)
Nodefile size = 3049.15 MB (1981.09 MB after compression)
 334777 271384        2.1446   162        2.1177        2.1606  6753477    2.02%
 335122 271708        2.1398   164        2.1177        2.1606  6770917    2.02%
 335810 272384        2.1288   127        2.1177        2.1606  6787187    2.02%
 336019 272578        2.1433   242        2.1177        2.1606  6805068    2.02%
*336173+272718                            2.1181        2.1606  6810669    2.00%
*336602+270065                            2.1181        2.1606  6817480    2.00%
 336667 270130        2.1432   179        2.1181        2.1606  6822887    2.00%
 337238 270686        2.1345   157        2.1181        2.1606  6837842    2.00%
 337711 271139        2.1363   184        2.1181        2.1606  6855320    2.00%
 338410 271776        cutoff              2.1181        2.1606  6873465    2.00%
 338713 272054        2.1606   183        2.1181        2.1606  6892779    2.00%
 339185 272477        2.1404   123        2.1181        2.1606  6909927    2.00%
Elapsed time = 2873.27 sec. (1807715.81 ticks, tree = 5217.51 MB, solutions = 23)
Nodefile size = 3164.34 MB (2085.05 MB after compression)
 339792 273037        2.1288    89        2.1181        2.1606  6926922    2.00%
 340244 273471        2.1423   153        2.1181        2.1606  6945671    2.00%
 341275 274407        2.1481   221        2.1181        2.1606  6962729    2.00%
 341811 274799        2.1572   230        2.1181        2.1606  6977999    2.00%
 342508 275455        2.1384   176        2.1181        2.1606  6992965    2.00%
 343167 276095        2.1426   199        2.1181        2.1606  7010986    2.00%
 343689 276584        2.1432   156        2.1181        2.1606  7025156    2.00%
 344058 276923        2.1398   168        2.1181        2.1606  7038709    2.00%
 344698 277455        2.1488   156        2.1181        2.1606  7051643    2.00%
 345264 278000        2.1288   129        2.1181        2.1606  7069437    2.00%
Elapsed time = 2950.53 sec. (1849370.12 ticks, tree = 5391.48 MB, solutions = 23)
Nodefile size = 3337.30 MB (2221.91 MB after compression)
 345692 278396        2.1234   142        2.1181        2.1606  7084856    2.00%
 345961 278655        2.1394   149        2.1181        2.1606  7090953    2.00%
 346512 279189        2.1288   123        2.1181        2.1606  7106363    2.00%
 346903 279580        2.1458   162        2.1181        2.1606  7118857    2.00%
 347516 280151        2.1440   153        2.1181        2.1606  7132075    2.00%
 347772 280390        2.1420   165        2.1181        2.1606  7150625    2.00%
 348206 280811        2.1288   124        2.1181        2.1606  7165074    2.00%
 348669 281266        2.1537   212        2.1181        2.1606  7186697    2.00%
 349036 281624        2.1537   184        2.1181        2.1606  7201158    2.00%
 349419 281995        2.1352   251        2.1181        2.1606  7212104    2.00%
Elapsed time = 3021.78 sec. (1890222.91 ticks, tree = 5519.14 MB, solutions = 23)
Nodefile size = 3467.21 MB (2322.60 MB after compression)
 349623 282194        2.1429   155        2.1181        2.1606  7228092    2.00%
 349952 282505        2.1572   179        2.1181        2.1606  7241367    2.00%
 350601 283132        2.1606   221        2.1181        2.1606  7254606    2.00%
 351063 283572        2.1244   166        2.1181        2.1606  7271114    2.00%
 351436 283907        2.1602   195        2.1181        2.1606  7284138    2.00%
 352070 284531        2.1494   163        2.1181        2.1606  7299931    2.00%
 352549 284981        2.1405   147        2.1181        2.1606  7312881    2.00%
 353186 285594        cutoff              2.1181        2.1606  7326733    2.00%
 353622 286023        2.1365   181        2.1181        2.1606  7342163    2.00%
 354357 286734        2.1572   182        2.1181        2.1606  7358361    2.00%
Elapsed time = 3091.62 sec. (1930050.06 ticks, tree = 5666.43 MB, solutions = 23)
Nodefile size = 3611.41 MB (2432.87 MB after compression)
 354426 286797        2.1396   129        2.1181        2.1606  7360858    2.00%
 355052 287248        2.1482   152        2.1181        2.1606  7375137    2.00%
 355274 287448        2.1606   210        2.1181        2.1606  7387504    2.00%
 355331 287495        2.1576   180        2.1181        2.1606  7398188    2.00%
*355921+288067                            2.1185        2.1606  7407951    1.99%
 356005 282496        2.1252   125        2.1185        2.1606  7411418    1.99%
*356086+282561                            2.1185        2.1606  7417807    1.99%
 356478 282946        2.1426   157        2.1185        2.1606  7421426    1.99%
 357045 283469        2.1572   177        2.1185        2.1606  7435151    1.99%
 357592 283988        2.1307   131        2.1185        2.1606  7448080    1.99%
 358215 284494        2.1211   139        2.1185        2.1606  7462660    1.99%
 358681 284897        2.1320   149        2.1185        2.1606  7478157    1.99%
Elapsed time = 3163.34 sec. (1970617.40 ticks, tree = 5713.22 MB, solutions = 24)
Nodefile size = 3659.43 MB (2489.72 MB after compression)
 359221 285379        2.1288   124        2.1185        2.1606  7493902    1.99%
 359751 285904        2.1396   157        2.1185        2.1606  7505297    1.99%
 360269 286415        2.1396   160        2.1185        2.1606  7517105    1.99%
 360824 286936        2.1455   147        2.1185        2.1606  7532412    1.99%
 361327 287417        2.1288   135        2.1185        2.1606  7546627    1.99%
 362057 288113        2.1380   143        2.1185        2.1606  7561889    1.99%
 362795 288815        2.1463   150        2.1185        2.1606  7575165    1.99%
 363291 289279        2.1399   162        2.1185        2.1606  7587108    1.99%
 364041 289993        2.1288   129        2.1185        2.1606  7600254    1.99%
 364515 290448        2.1479   147        2.1185        2.1606  7613965    1.99%
Elapsed time = 3238.27 sec. (2011995.20 ticks, tree = 5887.45 MB, solutions = 24)
Nodefile size = 3833.04 MB (2621.85 MB after compression)
*364912+290840                            2.1188        2.1606  7624618    1.97%
 364925 288664        2.1537   204        2.1188        2.1606  7630013    1.97%
 365311 289016        cutoff              2.1188        2.1606  7643983    1.97%
*365421+289107                            2.1188        2.1606  7649352    1.97%
*365421+289107                            2.1199        2.1606  7649352    1.92%
*365421+289107                            2.1202        2.1606  7649352    1.90%
 365701 286652        2.1333   150        2.1202        2.1606  7653230    1.90%
*366159+287102                            2.1202        2.1606  7658787    1.90%
 366392 287333        2.1485   152        2.1202        2.1606  7663897    1.90%
 366764 287705        2.1485   147        2.1202        2.1606  7668982    1.90%
 367211 288140        2.1418   133        2.1202        2.1606  7678896    1.90%
 367550 288418        2.1605   199        2.1202        2.1606  7694113    1.90%
*367682+288526                            2.1207        2.1606  7700625    1.88%
*367682+288526                            2.1224        2.1606  7700625    1.80%
 367702 285223        2.1569   249        2.1224        2.1606  7707553    1.80%
 368088 285605        2.1459   155        2.1224        2.1606  7716476    1.80%
 368412 285927        2.1294   161        2.1224        2.1606  7721889    1.80%
Elapsed time = 3331.48 sec. (2070932.07 ticks, tree = 5888.41 MB, solutions = 29)
Nodefile size = 3834.26 MB (2640.35 MB after compression)
*368748+286258                            2.1227        2.1606  7737259    1.78%
*368748+286258                            2.1231        2.1606  7737259    1.76%
*368748+286258                            2.1236        2.1606  7737259    1.74%
 368838 283777        2.1397   152        2.1236        2.1606  7739651    1.74%
 368913 283845        2.1262   188        2.1236        2.1606  7743675    1.74%
*369212+284126                            2.1241        2.1606  7752253    1.72%
 369213 283192        2.1355   166        2.1241        2.1606  7752254    1.72%
 369473 283428        2.1246   162        2.1241        2.1606  7766154    1.72%
*369826+283771                            2.1244        2.1606  7770228    1.70%
*369826+283759                            2.1248        2.1606  7770228    1.68%
 369963 281250        2.1531   162        2.1248        2.1606  7775587    1.68%
 370233 281507        2.1397   156        2.1248        2.1606  7782152    1.68%
 370887 282105        2.1274   128        2.1248        2.1606  7794158    1.68%
 371224 282375        2.1348   148        2.1248        2.1606  7805904    1.68%
*371421+282565                            2.1257        2.1606  7818579    1.64%
 371446 280988        cutoff              2.1257        2.1606  7821133    1.64%
 371797 281339        2.1407   148        2.1257        2.1606  7830869    1.64%
Elapsed time = 3414.91 sec. (2121828.61 ticks, tree = 5850.54 MB, solutions = 36)
Nodefile size = 3798.13 MB (2624.58 MB after compression)
 372010 281551        2.1359   156        2.1257        2.1606  7833366    1.64%
 372563 282098        2.1487   160        2.1257        2.1606  7845774    1.64%
*372611+282144                            2.1270        2.1606  7845842    1.58%
*372611+282144                            2.1272        2.1606  7845842    1.57%
 372777 276586        2.1462   155        2.1272        2.1606  7849554    1.57%
*372911+276718                            2.1282        2.1606  7850015    1.52%
 372960 274698        2.1397   148        2.1282        2.1606  7851046    1.52%
 373486 275222        2.1513   201        2.1282        2.1606  7862443    1.52%
 373518 275248        2.1331   143        2.1282        2.1606  7866447    1.52%
 373969 275667        2.1394   159        2.1282        2.1606  7875268    1.52%
 374150 275838        2.1454   158        2.1282        2.1606  7889082    1.52%
*374400+276080                            2.1292        2.1606  7891680    1.47%
 374523 273421        2.1476   164        2.1292        2.1606  7898815    1.47%
*374722+273618                            2.1292        2.1606  7900568    1.47%
 374861 273755        2.1500   153        2.1292        2.1606  7905275    1.47%
Elapsed time = 3490.63 sec. (2171837.41 ticks, tree = 5788.92 MB, solutions = 42)
Nodefile size = 3734.71 MB (2601.20 MB after compression)
 375320 274199        2.1405   156        2.1292        2.1606  7913131    1.47%
 375544 274417        2.1368   147        2.1292        2.1606  7914769    1.47%
 376010 274844        2.1356   143        2.1292        2.1606  7919847    1.47%
 376314 275133        2.1336   132        2.1292        2.1606  7923064    1.47%
 376752 275531        2.1405   160        2.1292        2.1606  7936083    1.47%
 377060 275816        2.1349   147        2.1292        2.1606  7940092    1.47%
 377306 276040        2.1412   150        2.1292        2.1606  7945979    1.47%
*377558+276276                            2.1294        2.1606  7953045    1.46%
*377558+276276                            2.1296        2.1606  7953045    1.45%
 377789 273788        2.1300   124        2.1296        2.1606  7959930    1.45%
 377966 273914        2.1300   133        2.1296        2.1606  7967759    1.45%
 378337 274238        2.1300   124        2.1296        2.1606  7985074    1.45%
Elapsed time = 3558.15 sec. (2218002.36 ticks, tree = 5845.22 MB, solutions = 44)
Nodefile size = 3791.77 MB (2653.85 MB after compression)
 378581 274453        2.1300   122        2.1296        2.1606  7992378    1.45%
 378865 274706        2.1320   141        2.1296        2.1606  8009513    1.45%
 379038 274827        2.1300   101        2.1296        2.1606  8022715    1.45%
 379488 275074        2.1300   113        2.1296        2.1606  8031922    1.45%
 380079 275473        2.1347   153        2.1296        2.1606  8053358    1.45%
 380280 275598        2.1298    95        2.1296        2.1606  8055629    1.45%
 380486 275735        2.1347   149        2.1296        2.1606  8056561    1.45%

Cover cuts applied:  1905
Mixed integer rounding cuts applied:  2
Zero-half cuts applied:  3

Root node processing (before b&c):
  Real time             =    7.52 sec. (5432.25 ticks)
Parallel b&c, 2 threads:
  Real time             = 3593.36 sec. (2242230.56 ticks)
  Sync time (average)   =  352.14 sec.
  Wait time (average)   =    0.01 sec.
                          ------------
Total (root+branch&cut) = 3600.88 sec. (2247662.81 ticks)
Problem solved
Solution status =  107 : MIP_time_limit_feasible
Final worst case avg CPI =  2.12959533333

MAPPING: 0->0, 1->36, 2->20, 3->10, 4->20, 5->5, 6->20, 7->32, 8->9, 9->36, 10->32, 11->24, 12->38, 13->47, 14->22, 15->25, 16->41, 17->8, 18->33, 19->1, 20->21, 21->35, 22->14, 23->23, 24->25, 25->26, 26->42, 27->39, 28->15, 29->18, 30->17, 31->26, 32->40, 33->22, 34->12, 35->10, 36->39, 37->6, 38->45, 39->40, 40->37, 41->37, 42->19, 43->12, 44->37, 45->5, 46->35, 47->26, 48->27, 49->46, 50->25, 51->9, 52->18, 53->3, 54->43, 55->17, 56->41, 57->41, 58->4, 59->8, 60->34, 61->38, 62->30, 63->46, 64->46, 65->23, 66->7, 67->41, 68->12, 69->17, 70->1, 71->8, 72->23, 73->2, 74->14, 75->21, 76->13, 77->39, 78->29, 79->46, 80->11, 81->17, 82->38, 83->16, 84->25, 85->6, 86->9, 87->23, 88->28, 89->18, 90->0, 91->18, 92->2, 93->28, 94->43, 95->5, 96->28, 97->24, 98->44, 99->16, 100->29, 101->10, 102->3, 103->3, 104->45, 105->42, 106->3, 107->31, 108->10, 109->1, 110->7, 111->30, 112->46, 113->41, 114->25, 115->34, 116->43, 117->13, 118->31, 119->32, 120->47, 121->7, 122->0, 123->31, 124->32, 125->23, 126->5, 127->35, 128->13, 129->15, 130->15, 131->22, 132->21, 133->44, 134->27, 135->30, 136->0, 137->1, 138->24, 139->33, 140->35, 141->14, 142->5, 143->12, 144->29, 145->20, 146->19, 147->9, 148->3, 149->25, 150->47, 151->35, 152->45, 153->13, 154->21, 155->33, 156->27, 157->24, 158->4, 159->1, 160->11, 161->40, 162->4, 163->11, 164->24, 165->29, 166->6, 167->45, 168->30, 169->37, 170->36, 171->33, 172->2, 173->44, 174->44, 175->31, 176->21, 177->7, 178->37, 179->8, 180->32, 181->36, 182->28, 183->47, 184->6, 185->14, 186->47, 187->16, 188->6, 189->28, 190->20, 191->22, 192->38, 193->33, 194->22, 195->8, 196->29, 197->43, 198->40, 199->4, 200->10, 201->13, 202->34, 203->40, 204->43, 205->36, 206->22, 207->43, 208->31, 209->27, 210->11, 211->16, 212->7, 213->47, 214->42, 215->2, 216->15, 217->19, 218->39, 219->27, 220->29, 221->4, 222->34, 223->12, 224->41, 225->32, 226->39, 227->31, 228->2, 229->10, 230->3, 231->30, 232->37, 233->44, 234->30, 235->19, 236->42, 237->14, 238->19, 239->26, 240->39, 241->4, 242->0, 243->19, 244->34, 245->18, 246->12, 247->1, 248->38, 249->16, 250->35, 251->9, 252->33, 253->6, 254->36, 255->0, 256->18, 257->14, 258->11, 259->34, 260->28, 261->9, 262->26, 263->5, 264->45, 265->42, 266->13, 267->21, 268->8, 269->11, 270->24, 271->15, 272->2, 273->15, 274->45, 275->20, 276->17, 277->16, 278->7, 279->40, 280->23, 281->27, 282->17, 283->42, 284->46, 285->44, 286->26, 287->38

AVERAGE CPI MAP:
2.48	2.29	2.18	2.13	2.13	2.13
2.14	2.18	2.13	2.13	2.18	2.14
2.15	2.14	2.14	2.14	2.13	2.15
2.14	2.15	2.17	2.13	2.14	2.14
2.19	2.14	2.14	2.56	2.17	2.20
2.15	2.14	2.18	2.14	2.14	2.14
2.16	2.15	2.13	2.14	2.14	2.13
2.13	2.16	2.13	2.14	2.15	2.17
